# bin_8_8
-1.499334454300508327e-08
-1.688313877621470036e-08
-1.868108069015073190e-08
-2.022600945728198440e-08
-2.130882311832413899e-08
-2.169783744700941661e-08
-2.118097145073400488e-08
-1.953743331125279862e-08
-1.704053627353443202e-08
-1.411554863449127807e-08
-1.157351255035912798e-08
-9.870314654336042971e-09
-8.458175479107014246e-09
-6.388490653056462071e-09
-4.462647020880822088e-09
-3.612786034433526563e-09
-2.452793799647778365e-09
-1.838943685822998632e-09
-1.251762150949866273e-09
-8.753428866331483107e-10
-6.124676443513332452e-10
-4.285235626671931918e-10
-3.018775069110385710e-10
-2.151328912131574188e-10
-1.562629746925060022e-10
-1.157268236878970252e-10
-8.727382649404784896e-11
-6.680803066194956624e-11
-5.158728951825885740e-11
-3.989435330614146691e-11
-3.067377470682907425e-11
