# bin_6_1
-1.215609693618782802e-16
-1.321562028524033014e-16
-1.400405672706564166e-16
-1.436680678977883410e-16
-1.417528009425443705e-16
-1.325521135339979954e-16
-1.171554494348526721e-16
-9.808503160874286806e-17
-8.028173990823410571e-17
-6.760580065069128410e-17
-5.826335206204897570e-17
-4.589720914210855247e-17
-3.214441919658755314e-17
-2.527661345574828857e-17
-1.841881094311689353e-17
-1.333825637693095320e-17
-9.466639692985241782e-18
-6.871139485081713093e-18
-4.946209400240696052e-18
-3.594603293675505570e-18
-2.653926515910625689e-18
-1.992957533530092945e-18
-1.523678825714048661e-18
-1.182405854760052450e-18
-9.259931083576975063e-19
-7.271554084071691568e-19
-5.685298640127872521e-19
-4.396391900861766588e-19
-3.343461769831715729e-19
-2.489254494786337565e-19
-1.808207519023178636e-19
