# bin_7_9
-2.809979530952806212e-09
-3.165156391559119343e-09
-3.503554588565873896e-09
-3.795072291125213242e-09
-4.000579629966270117e-09
-4.076328179135436080e-09
-3.983078380549054038e-09
-3.678032849649551744e-09
-3.211413828910942772e-09
-2.661917135010310809e-09
-2.181850327887534457e-09
-1.859257292897607040e-09
-1.594944870523460837e-09
-1.208352138957944219e-09
-8.427126475605182239e-10
-6.818924550214026640e-10
-4.642733210730773108e-10
-3.475025628849752125e-10
-2.362924570291745913e-10
-1.654194825395076236e-10
-1.156817671819208373e-10
-8.088343264002400665e-11
-5.692980976930673719e-11
-4.052647304215908957e-11
-2.940036894320767553e-11
-2.174753439728411810e-11
-1.638321505666339110e-11
-1.253156204503587058e-11
-9.672453877124535313e-12
-7.479776377000257410e-12
-5.752805564182910936e-12
