# bin_10_5
-2.514015061753363275e-13
-2.829231156405047910e-13
-3.128325316832307850e-13
-3.384105722446965667e-13
-3.561413703223101162e-13
-3.621946433962919856e-13
-3.529296394332445673e-13
-3.248797980018834955e-13
-2.827922765453823506e-13
-2.339653483592677703e-13
-1.919457387571317609e-13
-1.639463723339229229e-13
-1.402095750902318767e-13
-1.052929147882073034e-13
-7.378141500169141230e-14
-5.978315398333984976e-14
-4.037142308595002304e-14
-3.036165792443985510e-14
-2.071008644812039640e-14
-1.445199943315174451e-14
-1.012179413339300513e-14
-7.090942695109603066e-15
-5.003413200616364635e-15
-3.573038904171167883e-15
-2.601281895438748650e-15
-1.930788965188992685e-15
-1.458947342806936762e-15
-1.118432568309501099e-15
-8.642900998967978343e-16
-6.684319189864094319e-16
-5.136424236018092817e-16
