# bin_1_8
-2.747363651477414555e-22
-3.038800432267405943e-22
-3.289732528920699639e-22
-3.466400846355604013e-22
-3.531331445547154814e-22
-3.450224903018969073e-22
-3.187151120138016745e-22
-2.783867846036316038e-22
-2.309252072707344419e-22
-1.892911790777964686e-22
-1.610726645828675700e-22
-1.380189049591127203e-22
-1.049710313576209461e-22
-7.353397022119995031e-23
-5.921202814798613978e-23
-4.096857587852791843e-23
-3.059216917981218199e-23
-2.118033532149701091e-23
-1.511454596474293723e-23
-1.078458939118077255e-23
-7.738651398160180513e-24
-5.624596455203960769e-24
-4.151883995053721306e-24
-3.124263612625549539e-24
-2.390688099776691778e-24
-1.851767265943687042e-24
-1.443615620041198481e-24
-1.124566812151225441e-24
-8.693648425375355484e-25
-6.629030744425022011e-25
-4.961781107999598576e-25
