# bin_9_5
-8.699483766887291809e-12
-9.756773053743204297e-12
-1.074362480101722714e-11
-1.156276297760605796e-11
-1.209048745752619394e-11
-1.220687077878193248e-11
-1.176784928142398982e-11
-1.070920723063009476e-11
-9.215220414547090891e-12
-7.580885979862905682e-12
-6.250485421448490489e-12
-5.378167046798286173e-12
-4.528635934693337463e-12
-3.296660294985201362e-12
-2.373565413466320762e-12
-1.902736630908038671e-12
-1.271782138320778527e-12
-9.548145692622540709e-13
-6.633378895764385853e-13
-4.609836299279980635e-13
-3.236374203491467643e-13
-2.279757627670356833e-13
-1.623748258435055674e-13
-1.173441040871022610e-13
-8.650747401562765243e-14
-6.497001626272271245e-14
-4.958304347616825935e-14
-3.826773972106772061e-14
-2.966081071438319275e-14
-2.292091620324586681e-14
-1.754018711443489365e-14
