# bin_8_3
-1.182555773143428168e-14
-1.314175851563837253e-14
-1.430955304018517979e-14
-1.518728216656607087e-14
-1.560426736851719819e-14
-1.542582469107845747e-14
-1.445039271862692411e-14
-1.279190273036199699e-14
-1.071654416977898290e-14
-8.766853092057586188e-15
-7.379317993597304076e-15
-6.375998907532437239e-15
-5.037167961969728229e-15
-3.503308901416811467e-15
-2.757627663177792279e-15
-2.001850576979970538e-15
-1.439676371971382354e-15
-1.005218538790540015e-15
-7.231662957102725618e-16
-5.110975308737367311e-16
-3.628178946734911923e-16
-2.609287756648511875e-16
-1.904321806741198264e-16
-1.415895331928385220e-16
-1.072263854408709076e-16
-8.240449076121359655e-17
-6.395376136449113971e-17
-4.978087674529794378e-17
-3.858637105854427992e-17
-2.958792267448585265e-17
-2.232377437382319497e-17
