# bin_8_2
-5.588423643589782716e-18
-6.194725844596385646e-18
-6.724265381371250768e-18
-7.109140063026232211e-18
-7.270584670738884484e-18
-7.142669582256321556e-18
-6.640246092873419629e-18
-5.835824954403985578e-18
-4.861255280897157511e-18
-3.979525120152141351e-18
-3.369964220021066451e-18
-2.901623204690417518e-18
-2.245649572913582162e-18
-1.563705703752467149e-18
-1.250182908821644773e-18
-8.818618805547899014e-19
-6.492588414020737667e-19
-4.494751368811867302e-19
-3.222271676597637454e-19
-2.290188270972954459e-19
-1.635716790070639769e-19
-1.183275472119501470e-19
-8.689410695520926355e-20
-6.503979737159285354e-20
-4.954356974841725456e-20
-3.824698591955780593e-20
-2.976341489946136683e-20
-2.318242855188001051e-20
-1.794642219284397208e-20
-1.372105079895619971e-20
-1.030839349668092291e-20
