# bin_7_7
-1.626438061108582641e-08
-1.821304552067980183e-08
-2.001768191103083446e-08
-2.149398027397559010e-08
-2.240888789085876884e-08
-2.254890207122421540e-08
-2.163272897807150038e-08
-1.959083556765352275e-08
-1.677428336624961441e-08
-1.377410899539747753e-08
-1.139012118423716056e-08
-9.823418065337860620e-09
-8.199823313553553416e-09
-5.897837571689958225e-09
-4.311535987696236963e-09
-3.415420569699435275e-09
-2.294667299710998671e-09
-1.706778804883744858e-09
-1.196616033662939227e-09
-8.327041919763269898e-10
-5.848749958049230306e-10
-4.131175734264672647e-10
-2.954810835184391537e-10
-2.146419228680148030e-10
-1.590515724360644535e-10
-1.200083727271550101e-10
-9.192541335415252715e-11
-7.110680960805475581e-11
-5.515059603363364818e-11
-4.258183895904129093e-11
-3.251556325474032399e-11
