# bin_5_2
7.866145515884637975e-09
8.526296327770987514e-09
9.001411043286071268e-09
9.193873453416191078e-09
9.017092978783175102e-09
8.371500760049552219e-09
7.348424708709924398e-09
6.120391960352254285e-09
5.013697919150024362e-09
4.245066228049730690e-09
3.644277719761582073e-09
2.817809829207061852e-09
1.977811696375007877e-09
1.574231275052072927e-09
1.121460188964226141e-09
8.265709101998389685e-10
5.830337257734435998e-10
4.227608453645843389e-10
3.057003001084139426e-10
2.231995153139828713e-10
1.655905625978822386e-10
1.249509090503636091e-10
9.597226267161203702e-11
7.473984581776365200e-11
5.865929292792522632e-11
4.609361174781085210e-11
3.600698263259355601e-11
2.778221638736931704e-11
2.105715346927477459e-11
1.560947581652248304e-11
1.128223233654800419e-11
