# bin_15_14
4.169029162704437420e-06
4.783005875136069931e-06
5.416678720338064452e-06
6.033004933857755205e-06
6.582930394174863214e-06
7.001029260500377322e-06
7.206909630992869124e-06
7.140648468369203802e-06
6.703014170134592237e-06
5.944091471277225049e-06
4.983850872168504847e-06
4.076033822911112364e-06
3.429868248271922978e-06
2.970176597472702911e-06
2.352566759631975462e-06
1.624310861574511919e-06
1.278512726881647075e-06
9.230322541624172950e-07
6.556490348236754987e-07
4.443909938182338004e-07
3.132489777172521711e-07
2.121678762797098118e-07
1.419998150171680525e-07
9.494193452923520127e-08
6.332000401938683898e-08
4.243562443048504300e-08
2.873297260207128454e-08
1.974482018692251080e-08
1.384893021981359424e-08
9.943611337549866962e-09
7.309999331393087026e-09
