# bin_8_8
4.376658699118890559e-06
4.931286958913386151e-06
5.460398997990510925e-06
5.917256065264932690e-06
6.240996418267610289e-06
6.363075778751779139e-06
6.222967413860676765e-06
5.752220176181708986e-06
5.027420529425664300e-06
4.169880119969412343e-06
3.417013361070654127e-06
2.909527690549537313e-06
2.498066703065017699e-06
1.898020535991662903e-06
1.322073362547581335e-06
1.068811129719972571e-06
7.300421535251615051e-07
5.452705337541490475e-07
3.705299049432649881e-07
2.597091967347686126e-07
1.815104353546066162e-07
1.268144212197729205e-07
8.918584678296116413e-08
6.342321105233207376e-08
4.595744475940089229e-08
3.395600522820837904e-08
2.555407786411713837e-08
1.953135435926967806e-08
1.506866931221987593e-08
1.165182659863165966e-08
8.963912423490721977e-09
