# bin_10_8
9.953860049982267185e-07
1.126696637397815933e-06
1.254548761029756240e-06
1.368836447735227665e-06
1.456069352790687382e-06
1.499685273744763310e-06
1.487069335283225329e-06
1.397814270848765420e-06
1.241251983708433232e-06
1.042276361285078541e-06
8.525244044846661124e-07
7.162013540032036464e-07
6.200818553655439871e-07
4.936512933302864772e-07
3.421440271180379207e-07
2.676850044722878026e-07
1.955345174535468672e-07
1.384303868432237343e-07
9.555825270984668580e-08
6.802070963374332844e-08
4.694615208526132842e-08
3.230686146937234070e-08
2.240944730131396085e-08
1.568149524453789461e-08
1.114144605306319643e-08
8.069100467895952381e-09
5.959844708931422504e-09
4.486886474821200480e-09
3.428146328765707957e-09
2.641393279238440294e-09
2.037111451139766227e-09
