# bin_6_1
-3.473975021436641244e-16
-3.786640497491719963e-16
-4.025615413023652735e-16
-4.146199681133391826e-16
-4.112033467318262274e-16
-3.869936666999353801e-16
-3.441359529361464980e-16
-2.895985777040168067e-16
-2.370157284650411889e-16
-1.986065818954676726e-16
-1.714821768750781025e-16
-1.372905251085131793e-16
-9.636716672250959361e-17
-7.464441862102645261e-17
-5.563886937152457153e-17
-3.956075877190376568e-17
-2.836793165576605296e-17
-2.056233959136965598e-17
-1.473786768644888855e-17
-1.066770309522438358e-17
-7.841118052501364402e-18
-5.862296954212538520e-18
-4.462258701815461715e-18
-3.450854465152673228e-18
-2.696418726825141932e-18
-2.115542588361703678e-18
-1.654929499849097607e-18
-1.282035031095004130e-18
-9.778035112206940898e-19
-7.307516236139580219e-19
-5.331927837468987348e-19
