# bin_8_4
-4.885095174461509760e-12
-5.447484244820857958e-12
-5.956584204778728675e-12
-6.355175958763181371e-12
-6.572159049425908781e-12
-6.550550528589297926e-12
-6.201618545788342011e-12
-5.544736878760524091e-12
-4.687047086667997507e-12
-3.836330144658690572e-12
-3.202232172907018804e-12
-2.770892432953867773e-12
-2.248630251184899498e-12
-1.576775866099997570e-12
-1.204217365277284942e-12
-9.121127042634314340e-13
-6.327937984694474220e-13
-4.534213612617637148e-13
-3.247469957449660557e-13
-2.276946650029136095e-13
-1.604831104918947822e-13
-1.144385519925613554e-13
-8.279290379857614481e-14
-6.095558329943364497e-14
-4.575190703831856952e-14
-3.490680149724585117e-14
-2.696106758945083423e-14
-2.094748304287054846e-14
-1.625353444619649733e-14
-1.250772553081174993e-14
-9.490056852702782616e-15
