# bin_2_1
-2.303351061660441581e-08
-2.358776738317600445e-08
-2.322385976376991436e-08
-2.170600481621648298e-08
-1.918906466155641021e-08
-1.611082831986311882e-08
-1.322535052302977055e-08
-1.111505058821727723e-08
-9.503494684352774920e-09
-7.510551403810651834e-09
-5.379961605808990203e-09
-4.152624136432919590e-09
-3.091828684768873223e-09
-2.238314422085725306e-09
-1.638151572221480118e-09
-1.202020191756556877e-09
-8.874819020742424527e-10
-6.656418738920721854e-10
-5.083165084966604712e-10
-3.950185802321407725e-10
-3.114470204465533566e-10
-2.477361244247328175e-10
-1.973578493459711054e-10
-1.563353844703512050e-10
-1.223103427171574671e-10
-9.394577758296496634e-11
-7.050655168996723669e-11
-5.154133903468429176e-11
-3.665023060832365493e-11
-2.537298991022344755e-11
-1.714123055355261751e-11
