# bin_14_14
-1.270814975193349759e-08
-1.456548202727610188e-08
-1.647636445764735687e-08
-1.832559596108255016e-08
-1.996195481237104110e-08
-2.118477361503550788e-08
-2.175122875154669868e-08
-2.147796856961812800e-08
-2.007593773624769855e-08
-1.773244524147671117e-08
-1.481750985399227390e-08
-1.212027736085878229e-08
-1.023515886339249799e-08
-8.852933815518042630e-09
-6.928335083932310428e-09
-4.779272762874363366e-09
-3.803895685143974689e-09
-2.691988488078804393e-09
-1.945046532062186568e-09
-1.305794674988667354e-09
-9.161804117247468512e-10
-6.221577708037788899e-10
-4.179843222687514861e-10
-2.802141962577324439e-10
-1.875152427518604885e-10
-1.263414640463332734e-10
-8.612020182569997409e-11
-5.966317505782669228e-11
-4.222742348139798254e-11
-3.059632420865326627e-11
-2.267555329895891053e-11
