# bin_7_3
-1.765227812803732695e-12
-1.953033259077744259e-12
-2.115040744907956395e-12
-2.229589116575320047e-12
-2.272453657918012498e-12
-2.221830845952975758e-12
-2.053975821201600068e-12
-1.795410826248045092e-12
-1.489889987435325037e-12
-1.220922213710456725e-12
-1.038390918311782397e-12
-8.905791901206379963e-13
-6.786646538114317906e-13
-4.746891366865594277e-13
-3.823579283714300635e-13
-2.648325277192551250e-13
-1.976847688595013890e-13
-1.367128079862371206e-13
-9.761014998131156794e-14
-6.962984644124648686e-14
-4.994443671533950688e-14
-3.628188668948345760e-14
-2.676591517359434469e-14
-2.012950284202514448e-14
-1.539579408926634763e-14
-1.192129673889757918e-14
-9.292406204031694296e-15
-7.239093615118517671e-15
-5.597535709156418003e-15
-4.269734998593498032e-15
-3.197372731982345163e-15
