# bin_9_4
-1.010729431716049507e-13
-1.131684442386788423e-13
-1.243626048073700538e-13
-1.335087108130070627e-13
-1.391574778318817473e-13
-1.399884106253713262e-13
-1.342432161106024066e-13
-1.215155728300889579e-13
-1.039945913269493287e-13
-8.537379380984293790e-14
-7.061281136773336148e-14
-6.092053137764409182e-14
-5.081828313840477309e-14
-3.649828138579191071e-14
-2.671831384487905044e-14
-2.115166690481101316e-14
-1.420728946041741694e-14
-1.056372346131203323e-14
-7.413530590260303865e-15
-5.158768873045886830e-15
-3.623353690809029046e-15
-2.559724853491046372e-15
-1.831568130884877348e-15
-1.331153249322684571e-15
-9.869036268614721800e-16
-7.449955819018623738e-16
-5.708845068672950935e-16
-4.417107364291758001e-16
-3.426314093874621296e-16
-2.645377670407967335e-16
-2.019688434298217381e-16
