# bin_9_5
-1.142054960926708536e-11
-1.281316288941030855e-11
-1.411534418388382315e-11
-1.519979647832471303e-11
-1.590442715716563248e-11
-1.606998305738352471e-11
-1.550950713381960222e-11
-1.413030402031659625e-11
-1.217311040051846841e-11
-1.001859589266007604e-11
-8.254947490229788760e-12
-7.098792887985555764e-12
-5.989237278508270156e-12
-4.372283152236331886e-12
-3.137042655949474387e-12
-2.521377359866295298e-12
-1.683545332840207231e-12
-1.266522049511588735e-12
-8.780145509235287898e-13
-6.099859662372522933e-13
-4.282211216610960699e-13
-3.014732562236267905e-13
-2.145160857749282792e-13
-1.548394483248758399e-13
-1.140123438239213921e-13
-8.553338340979555021e-14
-6.521884060292814995e-14
-5.030789122979645976e-14
-3.898628766166459346e-14
-3.013311832320037749e-14
-2.307081754979438744e-14
