# bin_3_1
-1.350799655668608582e-09
-1.413631924895986175e-09
-1.429719904790182114e-09
-1.383616600320501444e-09
-1.266551112044294701e-09
-1.096850322625221839e-09
-9.071081274412301267e-10
-7.467880000795148522e-10
-6.370466283988037082e-10
-5.377746818940489649e-10
-4.031999210167599335e-10
-2.901996616070457454e-10
-2.301300326495307064e-10
-1.623508537944914768e-10
-1.211593615977873094e-10
-8.694103935969784582e-11
-6.358389376170186779e-11
-4.691789950956674158e-11
-3.512084430277245423e-11
-2.676554859161090950e-11
-2.074480391343837466e-11
-1.631013084707956390e-11
-1.292657354221750872e-11
-1.025421718203407805e-11
-8.084714477791344755e-12
-6.292967881981014992e-12
-4.808002229907865515e-12
-3.589155926764294757e-12
-2.609589571157154899e-12
-1.845903683065543855e-12
-1.271365117427679365e-12
