# bin_4_13
-9.680876076929871766e-22
-1.098056072616829447e-21
-1.225795964144403640e-21
-1.341672399122459453e-21
-1.432771780937402832e-21
-1.482965566195681154e-21
-1.479459140595385622e-21
-1.401810343640919412e-21
-1.254121793888029267e-21
-1.060494568178932110e-21
-8.679955876202073111e-22
-7.245341982607328078e-22
-6.275752132294854192e-22
-5.098815700634920891e-22
-3.563759823762088288e-22
-2.719119165099971399e-22
-2.055390221427809420e-22
-1.413111318543499940e-22
-1.001087116602520534e-22
-7.088857301422805580e-23
-4.864750532694971091e-23
-3.330597605385942212e-23
-2.293961209733470550e-23
-1.593084871166903390e-23
-1.120776407975524941e-23
-8.032458209735650182e-24
-5.871037658807117997e-24
-4.379219825591365709e-24
-3.322907566189518213e-24
-2.550585648431150843e-24
-1.966059095641219056e-24
