# bin_6_6
-1.839341039189849692e-08
-2.047044846389679858e-08
-2.232940195784291220e-08
-2.375192951975239364e-08
-2.447089369849218416e-08
-2.427655387065393607e-08
-2.284353861841956964e-08
-2.030713731050165366e-08
-1.707525514572988868e-08
-1.396934921889210674e-08
-1.171639588783059589e-08
-1.013356317584234044e-08
-8.099852493899082113e-09
-5.646396004638921756e-09
-4.391483286917308573e-09
-3.246245195203753850e-09
-2.298912268951612530e-09
-1.620646329196460800e-09
-1.165292567630436587e-09
-8.207341929263379148e-10
-5.806698155940362669e-10
-4.161082056730392173e-10
-3.025712689015745003e-10
-2.240477638959764994e-10
-1.690502943568139236e-10
-1.295353648795827743e-10
-1.003416606252903961e-10
-7.805373253555718328e-11
-6.053353794966952054e-11
-4.649011418193149372e-11
-3.516101139009351721e-11
