# bin_2_6
-5.167677251481129164e-13
-5.657417165097706913e-13
-6.047194227750030427e-13
-6.270577880679644946e-13
-6.270974962976919427e-13
-5.967252163176300607e-13
-5.362623981538299606e-13
-4.557479097838504327e-13
-3.735415891863516671e-13
-3.104537104990175617e-13
-2.679997359577248468e-13
-2.200990693458201630e-13
-1.565807024499335826e-13
-1.174315263048235792e-13
-9.095426137324801279e-14
-6.277224430821625474e-14
-4.614712565917699178e-14
-3.311328542831595290e-14
-2.357210401839049089e-14
-1.697311499942958109e-14
-1.238217170101540784e-14
-9.184856697862453308e-15
-6.934631286084074154e-15
-5.327166528932391127e-15
-4.143139468836683987e-15
-3.243134357312124403e-15
-2.537664101489948761e-15
-1.970922018426486090e-15
-1.510125472910095232e-15
-1.135663261932641182e-15
-8.349441436062720657e-16
