# bin_7_2
-3.402837779579727151e-15
-3.752640534192103957e-15
-4.047661696276542285e-15
-4.245467909275272224e-15
-4.302249562031991432e-15
-4.171585343486295493e-15
-3.821004562745391684e-15
-3.309774079570583758e-15
-2.732101535127762415e-15
-2.245669566841437364e-15
-1.922269884782183272e-15
-1.632462028862573739e-15
-1.213297965812751346e-15
-8.619286560595422853e-16
-6.949011133862137444e-16
-4.726462891741429739e-16
-3.563948118422363192e-16
-2.484525692051326141e-16
-1.764023774954056571e-16
-1.263546322098529421e-16
-9.115204630276927345e-17
-6.666335922100948907e-17
-4.955226320411391559e-17
-3.754242540408455391e-17
-2.888930452415780919e-17
-2.246574733114065907e-17
-1.754687791559047352e-17
-1.366518373122546958e-17
-1.054086099234925376e-17
-8.006910414132543246e-18
-5.962307212273854426e-18
