# bin_3_5
-1.726469215555057064e-09
-1.882538765298811732e-09
-2.002212324246676042e-09
-2.063268689649771115e-09
-2.047498059897663131e-09
-1.928420370322217909e-09
-1.716154831007134709e-09
-1.445159534521023649e-09
-1.183430438674082224e-09
-9.915076283227014814e-10
-8.561411705538184547e-10
-6.863938343505129483e-10
-4.823026220683773918e-10
-3.730117735829632872e-10
-2.786177221128576082e-10
-1.978281261378969995e-10
-1.420668928636284613e-10
-1.029255420089429586e-10
-7.374956653545254338e-11
-5.336932339986738874e-11
-3.921349165870520726e-11
-2.930581767498983179e-11
-2.229805107070820581e-11
-1.723844009590126944e-11
-1.346682439378781088e-11
-1.056488182475075687e-11
-8.265103858064502257e-12
-6.403983810756631759e-12
-4.885745905227047504e-12
-3.652724285371893153e-12
-2.666427855760548743e-12
