# bin_4_7
-1.330972889454674106e-10
-1.476377640385097507e-10
-1.603897797319972850e-10
-1.697397000512199103e-10
-1.737973794097390335e-10
-1.710012224666752928e-10
-1.592586287601250716e-10
-1.401905364900474458e-10
-1.169604992931112817e-10
-9.574983606966773732e-11
-8.100449207303892348e-11
-6.982494888365004639e-11
-5.427560833961926970e-11
-3.776499716318359643e-11
-3.013036163486024634e-11
-2.136626685065580377e-11
-1.567192329627672235e-11
-1.085495920822823371e-11
-7.792334053924117051e-12
-5.533389288518631429e-12
-3.947846789982163585e-12
-2.852956306101832162e-12
-2.092702953273453623e-12
-1.564519070844118741e-12
-1.190549504179838475e-12
-9.184055964912896790e-13
-7.144284888111317090e-13
-5.564786569758361438e-13
-4.309651458176661319e-13
-3.297329154966669633e-13
-2.479618601755441737e-13
