# bin_3_10
-8.958225308114223311e-19
-1.004778402113691272e-18
-1.106506527548587388e-18
-1.190982005468976581e-18
-1.245448735669903912e-18
-1.257576073809444847e-18
-1.212380994304652515e-18
-1.103418324999521319e-18
-9.490461693419080100e-19
-7.812926395533810810e-19
-6.444213891136317685e-19
-5.546621930912578294e-19
-4.669897740093472842e-19
-3.397806349154310389e-19
-2.448532252397606424e-19
-1.962719687713057234e-19
-1.311673759908960002e-19
-9.849304394079125789e-20
-6.846631066916637578e-20
-4.758024267773012130e-20
-3.340609503170218873e-20
-2.353396547234675188e-20
-1.676515921088737258e-20
-1.211854636775624230e-20
-8.935987931833574745e-21
-6.712578948639950391e-21
-5.123735078610665289e-21
-3.954973883121057214e-21
-3.065702872463255752e-21
-2.369152333881820423e-21
-1.812966797196803009e-21
