# bin_1_14
-2.541991851599869307e-37
-2.887788101112827759e-37
-3.230178657871207775e-37
-3.544183185429818496e-37
-3.796371529744897652e-37
-3.944683719265278121e-37
-3.953413454318191815e-37
-3.769669068961515329e-37
-3.392768983444363080e-37
-2.886257248151242728e-37
-2.365237300550648998e-37
-1.964910126663346488e-37
-1.700165768055091400e-37
-1.401189736904241495e-37
-9.903555875331195619e-38
-7.395617599924799990e-38
-5.728803274457635207e-38
-3.864855044466842023e-38
-2.800752321044486544e-38
-1.963243935169305452e-38
-1.342196185594011763e-38
-9.176245440276193764e-39
-6.287288087508871508e-39
-4.339968464157959416e-39
-3.029153454923659206e-39
-2.152129220075729739e-39
-1.558908589624081987e-39
-1.153042037362804656e-39
-8.690589924222559246e-40
-6.642156792433936178e-40
-5.112146223756114189e-40
