# bin_9_8
-1.017472966922780421e-08
-1.148153080156694726e-08
-1.273658542878190197e-08
-1.383289163103670568e-08
-1.462981918488911379e-08
-1.496340853056420376e-08
-1.469878149006086540e-08
-1.365684988566986807e-08
-1.199350964105418702e-08
-9.985255788470161274e-09
-8.175786028880780633e-09
-6.936755364574087879e-09
-5.979120204029325379e-09
-4.606347328125216046e-09
-3.193555117804879022e-09
-2.568422560216707607e-09
-1.783398354646086512e-09
-1.317362702759130541e-09
-8.934697896650998117e-10
-6.301167971326200810e-10
-4.390776805170618662e-10
-3.056344408076282726e-10
-2.141332499742635065e-10
-1.515593109299347141e-10
-1.092177506331098935e-10
-8.025548298105619331e-11
-6.009872863370916166e-11
-4.576157814944533048e-11
-3.522911074150193044e-11
-2.722943363645537984e-11
-2.097360823743017970e-11
