# bin_5_10
-3.095955077123917037e-13
-3.483482443022157310e-13
-3.850845756299448648e-13
-4.164438977611571852e-13
-4.380861038958505180e-13
-4.453302979500533322e-13
-4.335954892963967398e-13
-3.987828537886660030e-13
-3.466897876621476338e-13
-2.868596220733239586e-13
-2.354780937574640454e-13
-2.013381359944541041e-13
-1.720173211837543103e-13
-1.287775386673988270e-13
-9.042941175280299278e-14
-7.331752839970802079e-14
-4.936584368854126763e-14
-3.719896549406358374e-14
-2.540812840613313642e-14
-1.771136664188530293e-14
-1.241186346298413288e-14
-8.702018090263133721e-15
-6.145993106337065333e-15
-4.394144062751061003e-15
-3.203240230204919557e-15
-2.380540508214226116e-15
-1.800757242594213068e-15
-1.381578247525743666e-15
-1.068121847869085685e-15
-8.261342784621342964e-16
-6.346547561086656093e-16
