# bin_7_9
-2.979012946101514051e-09
-3.354759401777801304e-09
-3.712347522668721253e-09
-4.019731682716332683e-09
-4.235320716216017323e-09
-4.313091858869651547e-09
-4.210503812457075596e-09
-3.883872887250125322e-09
-3.386563696304880680e-09
-2.806806193093751376e-09
-2.301909388297901290e-09
-1.963957370102709340e-09
-1.683085083499383476e-09
-1.270488739820603959e-09
-8.877857274616064478e-10
-7.193084223591665288e-10
-4.877284661442203472e-10
-3.661648223063771107e-10
-2.492310333573557218e-10
-1.742158288608495673e-10
-1.219368201881663937e-10
-8.534709343141998093e-11
-6.013776487178889940e-11
-4.286814317022820967e-11
-3.114710941446830233e-11
-2.307391732383332916e-11
-1.740558609644210809e-11
-1.332697645882419818e-11
-1.029243838995374565e-11
-7.960307937239059712e-12
-6.120675240022971757e-12
