# bin_3_13
-1.510443958234748003e-25
-1.712195649706101718e-25
-1.909940968768737634e-25
-2.088563857025288975e-25
-2.227816400053713223e-25
-2.302512121534458403e-25
-2.293021156507997944e-25
-2.167570137180081023e-25
-1.934943217698057056e-25
-1.632737075228644273e-25
-1.335998649482140766e-25
-1.117266103596120567e-25
-9.677862804377558990e-26
-7.817602710941215351e-26
-5.447438628012448995e-26
-4.188342999583048403e-26
-3.135046921358221258e-26
-2.173279944513781757e-26
-1.526989857515231678e-26
-1.083912369742511697e-26
-7.450190311161998714e-27
-5.106776935677369734e-27
-3.524620620118587426e-27
-2.453230028164149754e-27
-1.730941631548089325e-27
-1.244436559086276197e-27
-9.124622604757133824e-28
-6.825565801086372147e-28
-5.190450995515156533e-28
-3.989102060420125972e-28
-3.075738515269885196e-28
