# bin_1_5
-9.780803471468533898e-14
-1.053079203700804404e-13
-1.102421970833091716e-13
-1.115023956182817465e-13
-1.078480244974584936e-13
-9.858711259068554245e-14
-8.520538728150957169e-14
-7.036029060130702970e-14
-5.792886979029753523e-14
-4.958129010836888637e-14
-4.190078616724695011e-14
-3.110853293170020678e-14
-2.232899743879465389e-14
-1.786087552642918409e-14
-1.234417232267546983e-14
-9.277556175595553622e-15
-6.576782774541666926e-15
-4.746655992293953510e-15
-3.459312563984808325e-15
-2.550595840076861903e-15
-1.912123832326253088e-15
-1.458168273135336841e-15
-1.130614121909247008e-15
-8.865044423124291873e-16
-6.983810481846944153e-16
-5.490068405055564975e-16
-4.276657830180556313e-16
-3.281275683060587763e-16
-2.467105374426530873e-16
-1.810668347182421114e-16
-1.294189603407182749e-16
