# bin_4_10
-1.149838197540870186e-15
-1.291638001448715626e-15
-1.425018517935342457e-15
-1.537291247678831958e-15
-1.612207309564459947e-15
-1.633179971397673430e-15
-1.581996852881673826e-15
-1.446935944376433006e-15
-1.250823713143473251e-15
-1.032021225154711332e-15
-8.490806160662902413e-16
-7.286950034714463122e-16
-6.182048274449436085e-16
-4.557610539091723519e-16
-3.239781011716659519e-16
-2.617767439105919943e-16
-1.749739870347357873e-16
-1.320133722039634370e-16
-9.095324173028121063e-17
-6.322037402386860780e-17
-4.436344065828621816e-17
-3.118277805484838185e-17
-2.212239860672603670e-17
-1.590775343097490632e-17
-1.166756280897568685e-17
-8.721303579094965122e-18
-6.629921887933378750e-18
-5.104032980884851046e-18
-3.952319140223330144e-18
-3.056084358653186168e-18
-2.343238238755411209e-18
