# bin_9_1
-1.456123653871841120e-24
-1.621196484549705150e-24
-1.769256225323718407e-24
-1.883037535961551428e-24
-1.941352818198403627e-24
-1.927506016786844225e-24
-1.815543605118525116e-24
-1.615563458281610334e-24
-1.359558777529394047e-24
-1.112778761059159028e-24
-9.329964822705605709e-25
-8.071552041689439771e-25
-6.465068589859172402e-25
-4.510186854330889199e-25
-3.501425323393804640e-25
-2.596158454635330459e-25
-1.834516692255093003e-25
-1.295476870468259806e-25
-9.314081891022170523e-26
-6.557557093525423941e-26
-4.637671103386182888e-26
-3.321797012867596068e-26
-2.414199554194436272e-26
-1.786638160510766213e-26
-1.347366024196145825e-26
-1.031999126816590095e-26
-7.992230585655886632e-27
-6.216757887073262833e-27
-4.822093500520506041e-27
-3.704625418643903741e-27
-2.803165754183325268e-27
