# bin_2_5
-4.009424436891942027e-11
-4.345124722121079010e-11
-4.586111930770311337e-11
-4.682742429221087725e-11
-4.590411840957876157e-11
-4.259140529889792267e-11
-3.735747924438849522e-11
-3.111087481903781124e-11
-2.549579087416500000e-11
-2.160632347415585729e-11
-1.854214651698153624e-11
-1.430576507775429730e-11
-1.004660371463186956e-11
-8.010432225099620233e-12
-5.690335526697999048e-12
-4.204643237100315452e-12
-2.963529728955406677e-12
-2.148764231310359995e-12
-1.554801209295714244e-12
-1.135930828620206902e-12
-8.432806438161175858e-13
-6.367226682645999383e-13
-4.893524591692082638e-13
-3.812717315061883368e-13
-2.993354769499584154e-13
-2.352481252546696047e-13
-1.837633410659627208e-13
-1.417612578169384600e-13
-1.074106058323750075e-13
-7.958638503794401310e-14
-5.749212555103199462e-14
