# bin_2_6
3.527650482519861986e-07
3.655220690893601705e-07
3.652173840592460079e-07
3.481458738497707847e-07
3.142024623011564020e-07
2.689281356136244667e-07
2.221492873211555546e-07
1.845603144830048751e-07
1.571813121814705389e-07
1.289541742571868906e-07
9.555879828484741021e-08
7.077842187990382640e-08
5.440380911037755552e-08
3.909189890881620954e-08
2.878453983411265207e-08
2.089733626407014098e-08
1.534148619987300561e-08
1.138632711980062952e-08
8.587266625277762722e-09
6.591972678197955067e-09
5.141419971522348871e-09
4.058544340729402721e-09
3.221083771571736479e-09
2.551987707595774246e-09
2.004547280337428015e-09
1.551199557458901658e-09
1.176362400035476742e-09
8.708454961662283361e-10
6.278381473645713473e-10
4.406522729969838783e-10
3.014752966583673710e-10
