# bin_15_7
1.956065862451267792e-18
2.231192618071297214e-18
2.508872556186819941e-18
2.770406319501973698e-18
2.991127434015953255e-18
3.139396620616074943e-18
3.182483017900024728e-18
3.085429082369725957e-18
2.823617162911947961e-18
2.443376073521834250e-18
2.014671300461231473e-18
1.656620879957102095e-18
1.421927790247237966e-18
1.207997142226547509e-18
8.903189319881407360e-19
6.301429742468220656e-19
5.102904469623235225e-19
3.375277939645647299e-19
2.541077800620884952e-19
1.726283062288136824e-19
1.175156263509923620e-19
8.046591094679261647e-20
5.469908531823563022e-20
3.719765458138358460e-20
2.542234556267935768e-20
1.762746760882690322e-20
1.243312975680515449e-20
8.952570942586963017e-21
6.590210354108737596e-21
4.948587316021958496e-21
3.771089731580729167e-21
