# bin_4_2
1.774197373856925186e-10
1.894299981959500116e-10
1.962424193784454373e-10
1.960471130445276413e-10
1.864308861477349522e-10
1.675228354217388579e-10
1.424453622696277484e-10
1.168792841242451015e-10
9.715626659691413853e-11
8.363399347090483431e-11
6.857236301556812332e-11
4.921532354321795503e-11
3.687717300478501627e-11
2.853488792077525965e-11
1.995724819726842604e-11
1.475796206119098207e-11
1.065680315588757574e-11
7.711183098342820825e-12
5.656155989697825461e-12
4.211962913895903052e-12
3.192249028046882321e-12
2.460817640620922016e-12
1.924457638508934075e-12
1.517159664457298330e-12
1.197551158473710835e-12
9.398945189446402127e-13
7.285924153022141820e-13
5.547103666457364080e-13
4.129036277076511936e-13
2.995155919885121718e-13
2.114559513271598710e-13
