# bin_9_7
3.797991273606008478e-10
4.270343493315192239e-10
4.716655725034126998e-10
5.095466857529971746e-10
5.353430773304892301e-10
5.434143263879958552e-10
5.280294308258228264e-10
4.845803448284141846e-10
4.205229664601989663e-10
3.473404933832442094e-10
2.852800395878306800e-10
2.441792122174409299e-10
2.080784284247917705e-10
1.549489002586643441e-10
1.092354052410880379e-10
8.843009184771125420e-11
5.940795115341352213e-11
4.476271869757951906e-11
3.066187017826301930e-11
2.135350631834442387e-11
1.497008095377658447e-11
1.050419798084156731e-11
7.430277478617029666e-12
5.322623012695627321e-12
3.888281292743733783e-12
2.895429554641900162e-12
2.193940248572816158e-12
1.685156352363309510e-12
1.303445878738165813e-12
1.007943162679607500e-12
7.737045035050839373e-13
