# bin_8_2
2.539215855355290956e-19
2.814232430624065494e-19
3.054167444626731484e-19
3.228139117868969022e-19
3.300435125045509505e-19
3.240961060939674220e-19
3.011385584174474850e-19
2.645257116259054792e-19
2.202593155061755008e-19
1.803151977775369764e-19
1.527609249768925166e-19
1.315029134393196676e-19
1.016244786272502707e-19
7.076490179100778369e-20
5.664472993716741300e-20
3.987142410193239900e-20
2.940795464037334364e-20
2.034501338651637115e-20
1.458234343931937965e-20
1.036916106513070611e-20
7.409788484678625358e-21
5.362951879350304343e-21
3.940226674255190917e-21
2.950856070658103865e-21
2.248861799355191641e-21
1.736698381742151672e-21
1.351752731564862825e-21
1.052902369477932352e-21
8.149898630543844514e-22
6.229397664358311905e-22
4.678254754204559795e-22
