# bin_5_9
1.314439458596747101e-07
1.447126001510185746e-07
1.557681614965347873e-07
1.629618556814563534e-07
1.646635192897044058e-07
1.590227141172691725e-07
1.451368425805687373e-07
1.252796260208546004e-07
1.033642796373489002e-07
8.520594328094543028e-08
7.298100113977912445e-08
6.146046018980714984e-08
4.542664004581502425e-08
3.270469456879222841e-08
2.597868902887957909e-08
1.788867391303908542e-08
1.331383307019288647e-08
9.356939344561618708e-09
6.661125080590995459e-09
4.771610350068046705e-09
3.447600945229176528e-09
2.527550279080954807e-09
1.883936827373730664e-09
1.430566648432791476e-09
1.102612157679974986e-09
8.581198935440980958e-10
6.701353823531986854e-10
5.213696578077191538e-10
4.014774786457326491e-10
3.042733317402792050e-10
2.259660473995626110e-10
