# bin_5_14
2.020779580050711841e-07
2.227198979713778558e-07
2.400595313266180614e-07
2.515744501546479051e-07
2.547057370426627501e-07
2.466764718065095074e-07
2.258267571806628034e-07
1.955217869057523020e-07
1.615796879564295001e-07
1.330345643349134456e-07
1.137383442976353864e-07
9.615093127787561667e-08
7.162418394866720845e-08
5.127497042538419907e-08
4.078117971254556949e-08
2.818742588619565060e-08
2.094348675624356238e-08
1.468983134094449271e-08
1.046466796237973288e-08
7.485644082937125818e-09
5.397642351755991850e-09
3.947986927165569166e-09
2.935324962662773307e-09
2.223579320186875567e-09
1.710531639404292390e-09
1.329523057946155371e-09
1.037719998823003476e-09
8.075460310586107181e-10
6.224257449966514265e-10
4.724423831073953000e-10
3.515578842893439190e-10
