# bin_4_9
1.953170034506291104e-07
2.124076903530000997e-07
2.251766271266760558e-07
2.311907943421070411e-07
2.282653696247903497e-07
2.138278148319974649e-07
1.893499226892017973e-07
1.590005814443460173e-07
1.303734277742253693e-07
1.095978125578583800e-07
9.412662367354469329e-08
7.449012262534475112e-08
5.277435818648489282e-08
4.087855862372828456e-08
3.016938355339810034e-08
2.162786260313853770e-08
1.554454002617486011e-08
1.121085341604290314e-08
8.057105522597389313e-09
5.851463597272836273e-09
4.313004594166296440e-09
3.232991298867484711e-09
2.466563763592555839e-09
1.910532899111730561e-09
1.493908544543569488e-09
1.171786016206331125e-09
9.155866635224514959e-10
7.079182309793647289e-10
5.385580897644733699e-10
4.012864009363197603e-10
2.918774397979721472e-10
