# bin_12_15
3.404514399803975834e-08
3.883242184250237823e-08
4.366314077126179057e-08
4.821188226628970573e-08
5.204931872536709400e-08
5.462456215067407246e-08
5.536938703006752422e-08
5.367537702469514659e-08
4.912306300942813128e-08
4.250935157794050912e-08
3.506001359484866522e-08
2.883712982445523458e-08
2.474461982014789837e-08
2.100719437332957934e-08
1.549311727812825388e-08
1.098166698219038127e-08
8.865207945582373700e-09
5.889291610074437130e-09
4.417119520616748011e-09
3.001808942561028757e-09
2.047197264357297042e-09
1.401121594835051902e-09
9.524975582503470065e-10
6.478028587071101867e-10
4.427760238319361578e-10
3.070095546816018356e-10
2.165304597121419302e-10
1.558937558773607427e-10
1.147299968667277543e-10
8.612061228662829282e-11
6.559938555510017664e-11
