# bin_6_7
3.816371720042397903e-08
4.232052664530826571e-08
4.596029346087050091e-08
4.862057659290644626e-08
4.976612045854118900e-08
4.893931965395535187e-08
4.556544256298721141e-08
4.010319210251316184e-08
3.345997094521667228e-08
2.740134385058521332e-08
2.317069081909563669e-08
1.993927172366408189e-08
1.550186299726869738e-08
1.082751403951139369e-08
8.592016403840968880e-09
6.120774258010970290e-09
4.465734878658012231e-09
3.112339394545452591e-09
2.230362922479484142e-09
1.582441307809295911e-09
1.128517891206819763e-09
8.152785658979708522e-10
5.979357908277796641e-10
4.468858461829779224e-10
3.399506792640099281e-10
2.621364913211419734e-10
2.038230554903843452e-10
1.586879827240991047e-10
1.228423493441936961e-10
9.395085208486017149e-11
7.062828080042791944e-11
