# bin_10_10
9.231579179655861174e-09
1.045114356854306728e-08
1.163959738428279516e-08
1.270333271663588740e-08
1.351744216129064879e-08
1.392865361627724581e-08
1.381862159665834717e-08
1.299891505667940041e-08
1.155142541663990463e-08
9.707242791422046198e-09
7.941448198817959274e-09
6.667432824334314483e-09
5.771337891325362913e-09
4.603323217360101935e-09
3.195956955890591012e-09
2.492379361056413942e-09
1.827119522248437508e-09
1.289507006803876626e-09
8.937681234290045475e-10
6.351107477262177286e-10
4.381161222294694199e-10
3.014274210078554667e-10
2.089316543057759545e-10
1.460961971617337010e-10
1.036992637046535496e-10
7.502678650704876914e-11
5.535633983697978487e-11
4.163433968990234485e-11
3.178513400354809731e-11
2.447757642084013934e-11
1.887325777552099396e-11
