# bin_3_2
5.126054444095750086e-09
5.377808456859140028e-09
5.455016241431562865e-09
5.300825290422275386e-09
4.875580106840496077e-09
4.242352101421831433e-09
3.519549329665069632e-09
2.894263496545136833e-09
2.460624342108122758e-09
2.085608198795376918e-09
1.583572842581794244e-09
1.134431756942661008e-09
8.961266833489381958e-10
6.390853512883040038e-10
4.733923745280352355e-10
3.400126751114242499e-10
2.486982258406810606e-10
1.830334127936151149e-10
1.366167855622482990e-10
1.038028121186994623e-10
8.022502874189952204e-11
6.292659211492753717e-11
4.979684032543621123e-11
3.947765228821590828e-11
3.113427999191130017e-11
2.426223194299065528e-11
1.857248364238140577e-11
1.389961174294305298e-11
1.013644279707078217e-11
7.192739347176633381e-12
4.969120140673325559e-12
