# bin_1_5
5.560466598439853325e-07
5.460770892993971943e-07
5.109519399103826459e-07
4.535831114877050256e-07
3.844034637831363715e-07
3.183330156025553602e-07
2.661667651948600601e-07
2.237348306531966075e-07
1.785292730143617160e-07
1.327323709679221702e-07
9.950623581150588066e-08
7.518637084412868424e-08
5.481247088885960525e-08
4.042442498940788445e-08
2.977838687439911038e-08
2.220654139178284172e-08
1.680680652869852089e-08
1.294678821669485433e-08
1.014130634966503205e-08
8.045528953209795894e-09
6.426487486230939121e-09
5.130953893895870250e-09
4.065693384264025079e-09
3.176816373471782038e-09
2.434450483043767476e-09
1.822086540745442300e-09
1.328694777691524905e-09
9.433042927366556319e-10
6.526393043999100767e-10
4.410316467460953102e-10
2.919649792344386027e-10
