# bin_1_1
9.560372563527129121e-08
9.127540129146389207e-08
8.269299735160616938e-08
7.119427150859553249e-08
5.916229243065578785e-08
4.911501467977843483e-08
4.148356827360364339e-08
3.409490970269014479e-08
2.582650077465548376e-08
1.910450900867586433e-08
1.459797829209893535e-08
1.072389909692464327e-08
7.895924620612567434e-09
5.830362616469434538e-09
4.346364696137644037e-09
3.286522492674609171e-09
2.530369424241518850e-09
1.982869817783295569e-09
1.575799115954014867e-09
1.262760041240887616e-09
1.012999496203729607e-09
8.075265819594728611e-10
6.354005098290334463e-10
4.906487709504685298e-10
3.701435000625992760e-10
2.720225460314704136e-10
1.945575186425390365e-10
1.355267419516559615e-10
9.214719240052459512e-11
6.133294680750859435e-11
4.009170962872249492e-11
