# bin_9_3
3.333617822397318541e-18
3.721524348818368343e-18
4.074856268754889108e-18
4.354885275139819642e-18
4.513208022474405229e-18
4.509958904067290787e-18
4.284548501312749304e-18
3.843447842795218298e-18
3.259361124580200884e-18
2.669301883581734842e-18
2.222256775837722274e-18
1.922226630341310522e-18
1.572553504572412285e-18
1.108485002728657660e-18
8.370393287441145841e-19
6.424324983818205354e-19
4.409933517983867307e-19
3.193639006424346977e-19
2.277258108129732044e-19
1.593002310269405363e-19
1.121195117678224461e-19
7.973684917638869427e-20
5.752119776875491615e-20
4.220801850884474060e-20
3.158230572566397605e-20
2.403245097361945026e-20
1.852686930876874453e-20
1.438131214718157047e-20
1.115939444231221159e-20
8.595746517760169593e-21
6.532794147715931291e-21
