# bin_2_3
1.523809922655420138e-07
1.569085107446627836e-07
1.555603478703527828e-07
1.467992443452903355e-07
1.310923604571102263e-07
1.111453869210854422e-07
9.151809222192931799e-08
7.642075187579167779e-08
6.517491480325690017e-08
5.256475090852961800e-08
3.833258117421005239e-08
2.884846103034468669e-08
2.194986245872256795e-08
1.574716358852376354e-08
1.161065040462644592e-08
8.455705648669702715e-09
6.225155918599806623e-09
4.645633497123278924e-09
3.525711137510715265e-09
2.723352208975430344e-09
2.135708330940102414e-09
1.692480269088915040e-09
1.345820606272473772e-09
1.066156654355024380e-09
8.357406153275419129e-10
6.442790833557849001e-10
4.860296527422190374e-10
3.575289768886627071e-10
2.559859485337284932e-10
1.784320152604658928e-10
1.212992133413231957e-10
