# bin_1_8
6.663896563609409052e-07
6.556175485293548712e-07
6.147481464574763210e-07
5.468737379597470155e-07
4.641966906338403110e-07
3.845066242261562906e-07
3.212592563535968756e-07
2.702364918111492894e-07
2.163248826781973592e-07
1.610937839161654008e-07
1.205744584395934753e-07
9.122777309586060972e-08
6.651929206035076865e-08
4.903701300562677880e-08
3.610425950154572121e-08
2.690100065735593010e-08
2.033710861795001147e-08
1.564800393856479316e-08
1.224430848703937787e-08
9.706181689389113426e-09
7.749561421971555609e-09
6.187047764530917789e-09
4.904170080793068074e-09
3.834561615258667545e-09
2.941300889960192555e-09
2.203995544580841678e-09
1.609227247113056930e-09
1.143928591375683584e-09
7.923930247384751894e-10
5.360413449052283005e-10
3.551805807609581939e-10
