# bin_8_15
1.034116684906371642e-07
1.164381471754360254e-07
1.288285145510074315e-07
1.394710870531778037e-07
1.469235193748249714e-07
1.496032349828109206e-07
1.460238014442518176e-07
1.347251214690489407e-07
1.175285011545617642e-07
9.742878264566732339e-08
7.993227288636527754e-08
6.812523923485166664e-08
5.828688749374421827e-08
4.409613992604580307e-08
3.091971595178404946e-08
2.486261786110526745e-08
1.702826016511713736e-08
1.265667537798592095e-08
8.657356734644908742e-09
6.067477754533773553e-09
4.238722958133345324e-09
2.961683266975183246e-09
2.085663291716049860e-09
1.486055542233400392e-09
1.078863201191167711e-09
7.985341739744952041e-10
6.018092755433991286e-10
4.603585235100559616e-10
3.552322218923942720e-10
2.745486041746323481e-10
2.109966476688218521e-10
