# bin_10_2
3.165057263662679763e-25
3.549254554979986353e-25
3.907375908876938533e-25
4.203844077334084459e-25
4.393449045726002406e-25
4.432982184485507026e-25
4.269126654589785762e-25
3.881015155225309056e-25
3.336022304466662019e-25
2.743755091445184789e-25
2.264655228694124664e-25
1.950413841757609019e-25
1.638912412031593325e-25
1.189435014808570769e-25
8.601468498192529224e-26
6.875092382106961450e-26
4.602486200316409136e-26
3.447698498352657112e-26
2.401823801658464270e-26
1.670163472144107703e-26
1.172954651065836725e-26
8.270388664361717101e-27
5.898679799622875723e-27
4.269788886866663136e-27
3.152798174625584829e-27
2.371288181610432102e-27
1.811805893626561396e-27
1.399388411180079352e-27
1.084982119616416927e-27
8.383472372431210070e-28
6.412535334974351934e-28
