# bin_2_1
1.036352718449048126e-10
1.055009621527447521e-10
1.030513170188389349e-10
9.542923764795483921e-11
8.361644123501153598e-11
6.977774578161326255e-11
5.737608921563687132e-11
4.851402369555746680e-11
4.122579020642464950e-11
3.191645878082933564e-11
2.293208199116350912e-11
1.787956259098084597e-11
1.307757346267185764e-11
9.583609825582477015e-12
6.983688175091438454e-12
5.142044458880428811e-12
3.814425262297823837e-12
2.875489826820932498e-12
2.207770518845975255e-12
1.724082151717988792e-12
1.364570630234149982e-12
1.087803754684188921e-12
8.669924650805637299e-13
6.859483168426677778e-13
5.351821031781290372e-13
4.094112184159989848e-13
3.057327184639009303e-13
2.222672542244682104e-13
1.571856148538321500e-13
1.082709750353293409e-13
7.282692606196179472e-14
