# bin_12_10
1.247864571638582622e-11
1.421589878730476291e-11
1.595773644091184031e-11
1.758353067546455793e-11
1.893293579849552760e-11
1.980192549907743396e-11
1.999410921405508528e-11
1.926727287596757695e-11
1.752130277996598008e-11
1.506452152838163005e-11
1.238825760060659581e-11
1.022424101703418229e-11
8.813595886942149048e-12
7.413048234200668145e-12
5.367162629991159574e-12
3.872877960500786438e-12
3.100060153981091148e-12
2.051592275542848431e-12
1.532192981881605774e-12
1.053619801780714673e-12
7.173185334625054604e-13
4.908619668156808659e-13
3.343368525726317869e-13
2.286735195527459534e-13
1.575961098024623490e-13
1.103608649651830101e-13
7.870370933152834032e-14
5.732334783807249618e-14
4.264061194642177163e-14
3.228527153618115891e-14
2.473198651059861883e-14
