# bin_14_13
2.626283394402000857e-11
3.008041768410465810e-11
3.399688100469772814e-11
3.777000132331852515e-11
4.108308517406367358e-11
4.351816761988101215e-11
4.457914247439045153e-11
4.387711107927861277e-11
4.084834677704200467e-11
3.594518931947446284e-11
2.994869146136424964e-11
2.451512402010215550e-11
2.078253980057876218e-11
1.794663856163245993e-11
1.387682258172075373e-11
9.585593876795285223e-12
7.700756780338453786e-12
5.345463140879788815e-12
3.923890268684033667e-12
2.623000718929824786e-12
1.827160744064696064e-12
1.244759602971968671e-12
8.399417337432020786e-13
5.648067208168732458e-13
3.794951011857102929e-13
2.572235176124225891e-13
1.766196556192106009e-13
1.234135260003433981e-13
8.815457375866467179e-14
6.444422494623692452e-14
4.812364561892144189e-14
