# bin_15_9
3.449581027119495456e-15
3.942703986285215365e-15
4.444462067483540088e-15
4.922267307121725717e-15
5.333428909551112674e-15
5.622477681934980573e-15
5.727649561098716767e-15
5.592895302273584576e-15
5.158574258224229677e-15
4.498913412032927436e-15
3.725709174372256539e-15
3.055838146853286220e-15
2.609726303982109288e-15
2.237764777182596517e-15
1.685121241357316076e-15
1.174801619381549600e-15
9.540296474649131508e-16
6.398692632086580253e-16
4.802653944771381140e-16
3.226099704981595832e-16
2.210385730267285146e-16
1.513074554997909144e-16
1.027174029913614479e-16
6.949343804154634899e-17
4.711483712743641504e-17
3.233625965449449172e-17
2.253821350312893160e-17
1.601974320617695444e-17
1.164533703455999588e-17
8.651316332402354527e-18
6.543029527744189513e-18
