# bin_15_14
2.829761212553094235e-11
3.247048079418879614e-11
3.677787830828491280e-11
4.096750350969370221e-11
4.470545261467307759e-11
4.754619514502220391e-11
4.894262133357043254e-11
4.848648155560033434e-11
4.550359131045425747e-11
4.034302662870068780e-11
3.382017032779066813e-11
2.766739489424722875e-11
2.329844991628791963e-11
2.017965804667446227e-11
1.596419255102779525e-11
1.102150609599653119e-11
8.691476460381992749e-12
6.260698062716469150e-12
4.458016917989480189e-12
3.017314194084065041e-12
2.127117396926441243e-12
1.441556732981175830e-12
9.654621401055581732e-13
6.459599418400681111e-13
4.311538676040866110e-13
2.892622196389638854e-13
1.961115312316426992e-13
1.349678064801840841e-13
9.482129409876366942e-14
6.819375130525998643e-14
5.020607165961126064e-14
