# bin_6_2
1.418149939188651225e-15
1.551909070929472578e-15
1.657868176600920623e-15
1.717736392233363477e-15
1.716079971434440094e-15
1.630551605063719595e-15
1.463287443119915916e-15
1.241939884761982760e-15
1.017902201686205402e-15
8.473030516969749248e-16
7.317569664106273018e-16
5.987705896072837986e-16
4.250099918531280713e-16
3.205232738855707085e-16
2.468386756555248006e-16
1.711684724113425927e-16
1.253371863620851984e-16
9.013211537301848593e-17
6.424174628617808878e-17
4.630015294262982199e-17
3.382284442361974064e-17
2.512501892237941795e-17
1.899760193263897347e-17
1.461203256639790091e-17
1.137480260024843620e-17
8.908745637288806321e-18
6.971850548517213017e-18
5.413643448816854591e-18
4.145765687534795024e-18
3.115308413508402487e-18
2.288106952655465676e-18
