# bin_14_9
4.046738978763505957e-14
4.618728071817030384e-14
5.197184881876736070e-14
5.743474283194949067e-14
6.206662250639361658e-14
6.521225578109862599e-14
6.618327559898358635e-14
6.426608949180478348e-14
5.891067284785216715e-14
5.106276118643336624e-14
4.214421010722609223e-14
3.464319973684873991e-14
2.971647440104723086e-14
2.529987212425869189e-14
1.872311200971445551e-14
1.321039355211578158e-14
1.071565963171258028e-14
7.098593918115075367e-15
5.348320408038221285e-15
3.625938439243158359e-15
2.470306074474551997e-15
1.692143120911715490e-15
1.150393026364943335e-15
7.817599271370238177e-16
5.336258084131811645e-16
3.694208565188217964e-16
2.600763079309739923e-16
1.868881132739341140e-16
1.373047854864159077e-16
1.029353091243236295e-16
7.835786568700437592e-17
