# bin_15_5
1.361271428027984692e-24
1.551906752103220779e-24
1.743693189880779770e-24
1.923534294565315595e-24
2.074074295258658674e-24
2.173142713066550116e-24
2.198643851207050382e-24
2.125037724220897178e-24
1.938408201936194231e-24
1.671843448742241945e-24
1.376640372337780040e-24
1.134267508985309271e-24
9.760252084358179223e-25
8.250449188395990638e-25
6.023250598002212629e-25
4.305995827951108679e-25
3.468983017973389718e-25
2.292816967466703656e-25
1.720774449981027981e-25
1.176643652308855637e-25
8.008335036633013025e-26
5.482743384810695431e-26
3.730975820847858014e-26
2.545254612520110791e-26
1.747519370338629855e-26
1.218319849398252889e-26
8.645614718493397889e-27
6.264999592974786754e-27
4.638899754000880829e-27
3.499770400859159883e-27
2.675144631415052606e-27
