# bin_11_1
1.656481702531014935e-32
1.863934054569449642e-32
2.060537586337540653e-32
2.228273328986708383e-32
2.343875485832523061e-32
2.382317282080345873e-32
2.319050108366136268e-32
2.132374816018565808e-32
1.854085885151943330e-32
1.533287757030925178e-32
1.258955787884205740e-32
1.076618243332794626e-32
9.193882198564895313e-33
6.880047997699370377e-33
4.836635535176643929e-33
3.916940778466757794e-33
2.640770641159579685e-33
1.987252787723513685e-33
1.358810682786645815e-33
9.477335777810859499e-34
6.641642407478999386e-34
4.656982918732293224e-34
3.290472445966757795e-34
2.353732653898726352e-34
1.716604492059304354e-34
1.276257229735028135e-34
9.657427925587956965e-35
7.410922373485842252e-35
5.729986296081670204e-35
4.431727417173245909e-35
3.404216606230729078e-35
