# bin_14_14
3.303226067047189219e-11
3.785806755295689590e-11
4.282208542840320676e-11
4.762461859120222644e-11
5.187235018473214311e-11
5.504351465899135253e-11
5.650730105333869316e-11
5.578690965136020808e-11
5.213302741969404085e-11
4.603737121932441701e-11
3.846243474505420355e-11
3.146151776085920056e-11
2.657341586664798655e-11
2.298300145640130857e-11
1.797450882511335408e-11
1.239875196002215642e-11
9.874093712063514913e-12
6.980046633536764031e-12
5.047874357236371146e-12
3.387214432781837113e-12
2.375748058694687607e-12
1.613441069466577770e-12
1.084064950694350428e-12
7.267396568096632077e-13
4.863072666606903192e-13
3.276597205202223279e-13
2.233506445232633157e-13
1.547395084035466481e-13
1.095235450383362631e-13
7.936032209669778185e-14
5.881832043298885823e-14
