# bin_3_3
1.406542558495770778e-10
1.504885479530531097e-10
1.563074386711212369e-10
1.566405901944628784e-10
1.496002783866055014e-10
1.350078960337954539e-10
1.152790194405000142e-10
9.471088995044548211e-11
7.851679837973835702e-11
6.750730358919194401e-11
5.580842305228423175e-11
4.038330011280478401e-11
2.990852336946352648e-11
2.336892148570604134e-11
1.626785950890858437e-11
1.209045251067844114e-11
8.686672284117871621e-12
6.277980493552508161e-12
4.595948898476627138e-12
3.412681683111437809e-12
2.578528754373253013e-12
1.981804219151977172e-12
1.546246175170018951e-12
1.217247616402089561e-12
9.603698236071027474e-13
7.541314711127307301e-13
5.854195237409338413e-13
4.466909567427314422e-13
3.334499204194281013e-13
2.426861106006330942e-13
1.719366110332240526e-13
