# bin_12_10
1.250272513311108670e-11
1.423920923007976039e-11
1.597923956792545767e-11
1.760207474540183531e-11
1.894735366469570260e-11
1.981120418451968424e-11
1.999763254785562205e-11
1.926505565497960045e-11
1.751420868480621323e-11
1.505406815614993926e-11
1.237612667996004899e-11
1.021133824584316679e-11
8.800042847655421341e-12
7.399649360799650193e-12
5.355995658383793083e-12
3.863760431026329367e-12
3.091974509566086072e-12
2.045631113227598926e-12
1.527315462457048005e-12
1.049919776872918968e-12
7.145311594438387022e-13
4.887457309042804810e-13
3.327305571496496464e-13
2.274463864957013986e-13
1.566510468132207734e-13
1.096246320980489765e-13
7.812446477987602275e-14
5.686413649469781355e-14
4.227508918394877397e-14
3.199473042518996151e-14
2.450265596466893756e-14
