# bin_11_6
3.617620199513349899e-15
4.091342485857294867e-15
4.550830669677596997e-15
4.959021428073195806e-15
5.266606414526528501e-15
5.413674891773545660e-15
5.354492940302006942e-15
5.016904884961495542e-15
4.441543867759209124e-15
3.719700388540142691e-15
3.042496477304397876e-15
2.562756515443608921e-15
2.217210333136822491e-15
1.749731903896946039e-15
1.210844637840757069e-15
9.558380677371461031e-16
6.882708325506887385e-16
4.933201483649581460e-16
3.378502101604471778e-16
2.402800698576750652e-16
1.662365555871161574e-16
1.147136441879540081e-16
7.977596928386320541e-17
5.598177111765449565e-17
3.991835836699572601e-17
2.901973151115774009e-17
2.151283168280240252e-17
1.624676910128324158e-17
1.244040396902790650e-17
9.595446142346605078e-18
7.399390904600715591e-18
