# bin_7_1
1.207072634026394230e-21
1.326548679425522395e-21
1.424715612848410818e-21
1.486273438788702036e-21
1.496874436285498746e-21
1.438528707854473441e-21
1.305501226565402435e-21
1.120385963173888407e-21
9.211089787401202695e-22
7.606739718169660581e-22
6.544253812520818753e-22
5.478889503925944369e-22
3.979170873735446901e-22
2.895386490431487403e-22
2.302467814326716739e-22
1.565321460720105076e-22
1.172544405627212186e-22
8.287128627581255548e-23
5.878704476742988592e-23
4.220221847204684643e-23
3.059324178825930967e-23
2.252109026423459962e-23
1.686398056331125208e-23
1.286268110129219782e-23
9.950290899075921814e-24
7.764241482180579347e-24
6.071359279921499704e-24
4.723477852827859478e-24
3.632830435334237892e-24
2.747042864066514515e-24
2.033637399637076618e-24
