# bin_8_1
1.861909410914753023e-24
2.061587659490768701e-24
2.234718834348326458e-24
2.358546582787792724e-24
2.407243832472224152e-24
2.358221779109622178e-24
2.185104631420944976e-24
1.914300584238934560e-24
1.591075626361119812e-24
1.303299912676117725e-24
1.106470201203686626e-24
9.504800957221010054e-25
7.289854238515311322e-25
5.089663653464007044e-25
4.086510052624133846e-25
2.852204139772175730e-25
2.116487827702407527e-25
1.464363905279524770e-25
1.047182858327489419e-25
7.457545110883779803e-26
5.338782167112363212e-26
3.870868637932312109e-26
2.849676255394412503e-26
2.138535517471044340e-26
1.632654905545729716e-26
1.262497180981682323e-26
9.833716407570068615e-27
7.660259785120542450e-27
5.926377383781189239e-27
4.525339972406640018e-27
3.393792298980328239e-27
