# bin_6_5
4.162327595763317101e-11
4.614415136417945474e-11
5.009545903884841722e-11
5.297178314541494038e-11
5.418629103690865060e-11
5.324783367955859984e-11
4.952049932944366968e-11
4.353657968237517110e-11
3.627768766545683035e-11
2.969808147560017432e-11
2.514118662897271170e-11
2.164840604378370537e-11
1.677198848409808427e-11
1.168119436335916229e-11
9.328065743373919610e-12
6.591773296826107362e-12
4.844993150830046400e-12
3.356734256883761116e-12
2.406604419408391531e-12
1.709660035080443019e-12
1.220470540102531801e-12
8.824773720400681620e-13
6.477427597083588377e-13
4.845902374092446895e-13
3.689730784238198563e-13
2.847486419467409110e-13
2.215460657980314781e-13
1.725533513080251576e-13
1.335942759550685042e-13
1.021638349500414019e-13
7.677947222406602814e-14
