# bin_2_1
1.036934843910949623e-10
1.055304518304891330e-10
1.030513150621825128e-10
9.540286247474911899e-11
8.357047628429571338e-11
6.972043449160376276e-11
5.731358737761818905e-11
4.844893790367797029e-11
4.116111670580652832e-11
3.185874981648805788e-11
2.288423999508608292e-11
1.783849908444127820e-11
1.304393606993708032e-11
9.556350185895312299e-12
6.961581622454740656e-12
5.124032535643453072e-12
3.799614636225066738e-12
2.863167710887328293e-12
2.197416514586240126e-12
1.715332235275935699e-12
1.357179003947059614e-12
1.081600013012766114e-12
8.618500492639509586e-13
6.817627472985856262e-13
5.318548138093261899e-13
4.068396041197847361e-13
3.038062320439777124e-13
2.208683163249332429e-13
1.561987386962993173e-13
1.075920003277074536e-13
7.236961972142807569e-14
