# bin_8_3
-1.460002173132723621e-14
-1.624162720138974505e-14
-1.770709406239464133e-14
-1.882262614345116809e-14
-1.937645815018314554e-14
-1.920245337868362746e-14
-1.804471699059316900e-14
-1.602093878912837554e-14
-1.345604616227583739e-14
-1.100797028055111048e-14
-9.242528051030507424e-15
-7.992062734976414089e-15
-6.366028192077196347e-15
-4.433759471306636647e-15
-3.461421232802933950e-15
-2.544749259413253068e-15
-1.810602894965845624e-15
-1.272311620500182448e-15
-9.151852267456175017e-16
-6.452458963937570142e-16
-4.569559860708861407e-16
-3.278103298884283312e-16
-2.386293645064494313e-16
-1.769189899557838610e-16
-1.336395405656267262e-16
-1.024941060288060179e-16
-7.944160640732277369e-17
-6.180936500405850791e-17
-4.792854414417855968e-17
-3.679241309034962287e-17
-2.780659111925665226e-17
