# bin_10_6
-2.046574462515415916e-11
-2.308770834089232608e-11
-2.560285963451329397e-11
-2.779560731083181158e-11
-2.938307485716108583e-11
-3.003672545016962573e-11
-2.948575736111555760e-11
-2.737458494054970091e-11
-2.402624952627024151e-11
-1.998494437859165090e-11
-1.636134758067112015e-11
-1.388430920450957643e-11
-1.196095314125346737e-11
-9.200206715683172502e-12
-6.380246659286155017e-12
-5.132880705860654446e-12
-3.557875940905932994e-12
-2.630267348691350536e-12
-1.784542931126272948e-12
-1.257516584343345826e-12
-8.764303635555973094e-13
-6.102329062319201435e-13
-4.276775521277743001e-13
-3.028371624725127820e-13
-2.183467696473290286e-13
-1.605319506533205041e-13
-1.202716022131774325e-13
-9.161224417373428320e-14
-7.053949913276892886e-14
-5.452097132738544150e-14
-4.198689401088503434e-14
