# bin_1_11
-4.737410645461412415e-30
-5.329596497217600469e-30
-5.890614894314672474e-30
-6.369050127470460208e-30
-6.698542181763041841e-30
-6.807602592312270969e-30
-6.626577690227033138e-30
-6.093130032998611181e-30
-5.297906073714171302e-30
-4.380703983967538086e-30
-3.595560811453423823e-30
-3.073340440263736610e-30
-2.624632952811703291e-30
-1.965136447089421188e-30
-1.380406004062858903e-30
-1.117651512616101411e-30
-7.537637865961608659e-31
-5.669344453229636236e-31
-3.874137978064858916e-31
-2.702043702065553016e-31
-1.892877105245632675e-31
-1.326691094246867111e-31
-9.369448611025518073e-32
-6.698555207401964842e-32
-4.882704459471546419e-32
-3.628376492919417531e-32
-2.744414366778554951e-32
-2.105324080024873293e-32
-1.627446127535358298e-32
-1.258568097273800962e-32
-9.667326431552214178e-33
