# bin_13_12
-9.719607784326483550e-09
-1.110700076273847642e-08
-1.251852533983889801e-08
-1.386251530079298907e-08
-1.501904232436868685e-08
-1.583229262086561413e-08
-1.612824799254954472e-08
-1.575070651982162046e-08
-1.453014837146402189e-08
-1.267425958319776798e-08
-1.049584777969366518e-08
-8.605071355039881148e-09
-7.344207630699006293e-09
-6.298646952106058728e-09
-4.748113909136843132e-09
-3.306922263374390384e-09
-2.684261301955892127e-09
-1.802211895429061467e-09
-1.351477783851247473e-09
-9.070426873649117189e-10
-6.216899830783453751e-10
-4.253842288818026766e-10
-2.886392625031355012e-10
-1.951494779548087598e-10
-1.321931036022898487e-10
-9.063466737254773752e-11
-6.309953703783514249e-11
-4.479548625181786516e-11
-3.252532964742490285e-11
-2.413856987293116892e-11
-1.824231413713976447e-11
