# bin_7_13
-1.367897332740476351e-13
-1.555575763657283888e-13
-1.742314566746825876e-13
-1.914772216906502188e-13
-2.055136307616089947e-13
-2.140906942162371879e-13
-2.152001303190776726e-13
-2.060552157242107797e-13
-1.861949911003784518e-13
-1.590445850313434992e-13
-1.304701367994056902e-13
-1.080663303397948095e-13
-9.339659264681556224e-14
-7.764543695557310539e-14
-5.535078466471702182e-14
-4.075344313046834993e-14
-3.203752835399028571e-14
-2.139158371231837200e-14
-1.572034208064785654e-14
-1.093564090758007232e-14
-7.459838397730981666e-15
-5.099251192557659778e-15
-3.483147599946494174e-15
-2.394891133738014978e-15
-1.662813303680331248e-15
-1.174466794932014110e-15
-8.454617176011068454e-16
-6.216116366218431547e-16
-4.661991619100654741e-16
-3.551164133783947888e-16
-2.729150704979629298e-16
