# bin_2_13
-7.424396502534854986e-30
-8.413538751104860910e-30
-9.381715213752324249e-30
-1.025440553884442161e-29
-1.093185161542498072e-29
-1.129027614900932556e-29
-1.123377684808879707e-29
-1.060687039863622847e-29
-9.458294854575513505e-30
-7.972993956091886351e-30
-6.523360677895492489e-30
-5.460417635051411396e-30
-4.729534463045479154e-30
-3.809194545104466333e-30
-2.651161486845013481e-30
-2.045769331521589475e-30
-1.523738706927741771e-30
-1.060790693400284776e-30
-7.425422990360031368e-31
-5.274661156288681592e-31
-3.628476296926328769e-31
-2.489044588094262095e-31
-1.719657935643051990e-31
-1.198240661376025834e-31
-8.466537301456588173e-32
-6.096147125667486287e-32
-4.476689286194073590e-32
-3.353250292765025547e-32
-2.552507589252253290e-32
-1.962798881296133726e-32
-1.513491158640242672e-32
