# bin_9_11
-3.820087554448253321e-09
-4.338744130153470795e-09
-4.851712014283634262e-09
-5.321391501195939412e-09
-5.697430125728916394e-09
-5.916528985597902655e-09
-5.925610928984290015e-09
-5.644704727524656161e-09
-5.075508289682684433e-09
-4.313516995365380321e-09
-3.533847616552980705e-09
-2.937737231622721253e-09
-2.542794511841809549e-09
-2.091454742955167539e-09
-1.474893723204738287e-09
-1.105193907647634855e-09
-8.531995339913071205e-10
-5.768794557891548399e-10
-4.166849961725360377e-10
-2.926658039485578610e-10
-2.001837397639910905e-10
-1.368533362882581078e-10
-9.383205031655661287e-11
-6.483094237465284524e-11
-4.530650636051657164e-11
-3.223399658785423709e-11
-2.338333234414535500e-11
-1.731999086529950765e-11
-1.306969413538810105e-11
-9.997269699979325432e-12
-7.697400761543758142e-12
