# bin_5_4
-1.163272567960949754e-08
-1.276448858807463927e-08
-1.368299313204502685e-08
-1.423992485351708312e-08
-1.430146400768545004e-08
-1.369021516399391943e-08
-1.237595617267528660e-08
-1.058005725831539225e-08
-8.687227547037908454e-09
-7.191737035406725482e-09
-6.196084969387450405e-09
-5.149203253538393040e-09
-3.708928365764484859e-09
-2.730407345473902470e-09
-2.150129845074815519e-09
-1.469418682857024958e-09
-1.093284081106992602e-09
-7.773474149675828661e-10
-5.521437408911132274e-10
-3.968848889656801748e-10
-2.884591339816226148e-10
-2.130207721217092466e-10
-1.600599177988250275e-10
-1.224497175532074716e-10
-9.494052752118569303e-11
-7.418382222034667741e-11
-5.802793131925185030e-11
-4.511553883741651168e-11
-3.464549624356287482e-11
-2.613931910558670437e-11
-1.929627859424091114e-11
