# bin_7_9
-2.790365303293804561e-09
-3.145215309593350996e-09
-3.484343864792599078e-09
-3.778082032052304575e-09
-3.987701306160427398e-09
-4.069117188161058591e-09
-3.984347839595425644e-09
-3.688084016798486429e-09
-3.227731281379161021e-09
-2.679529307355826779e-09
-2.195003930234625129e-09
-1.867022518399165723e-09
-1.604872677121809970e-09
-1.224157626804054557e-09
-8.512811459272276051e-10
-6.873656901815245854e-10
-4.715346877415082728e-10
-3.511846925002145374e-10
-2.384385707655112940e-10
-1.673971352434980282e-10
-1.168993632606192064e-10
-8.159112625149800003e-11
-5.731806997706495656e-11
-4.070528221261350718e-11
-2.944911392452588067e-11
-2.172495453804464475e-11
-1.632669757797921144e-11
-1.246567165295883381e-11
-9.611702326106154603e-12
-7.431467649954499710e-12
-5.719149656174261199e-12
