# bin_12_1
-1.490702005754778882e-32
-1.683512498854940113e-32
-1.869364370232854056e-32
-2.032742555369890945e-32
-2.153162665896806923e-32
-2.206325017179022574e-32
-2.172979538117395848e-32
-2.025431353867632277e-32
-1.784414356371384675e-32
-1.488563987662231426e-32
-1.218064220653019354e-32
-1.030335743992092631e-32
-8.894777588173452138e-33
-6.919007333114078669e-33
-4.790682466374404199e-33
-3.825161825305308768e-33
-2.694750780684108534e-33
-1.966758037812793107e-33
-1.338151450626058402e-33
-9.472102944737764597e-34
-6.581179585602632117e-34
-4.565072844404171423e-34
-3.188989795071610546e-34
-2.249454016372444783e-34
-1.614312306453109345e-34
-1.181295390988800836e-34
-8.811705701726180478e-35
-6.688598993074821142e-35
-5.138714364826162428e-35
-3.968775293871587247e-35
-3.058358422367797884e-35
