# bin_5_14
-3.088375145318748216e-20
-3.513350458537805516e-20
-3.936917107325322675e-20
-4.329024960799731873e-20
-4.649600618713954390e-20
-4.847953115073504188e-20
-4.878014130258517525e-20
-4.677558703239735127e-20
-4.232805873197925449e-20
-3.620958576991176399e-20
-2.971813474455810294e-20
-2.459124755476277451e-20
-2.124013656702832810e-20
-1.770812324660672602e-20
-1.266782362046483994e-20
-9.280685002468548693e-21
-7.329591578501663462e-21
-4.880830257436831864e-21
-3.602139084642398655e-21
-2.498626627675733537e-21
-1.703377083540629754e-21
-1.164528256147526096e-21
-7.947599245376490661e-22
-5.457048339026181238e-22
-3.781862653462397810e-22
-2.665525781976807996e-22
-1.914458237597828658e-22
-1.404410597457731625e-22
-1.051262284246848240e-22
-7.996694078986092515e-23
-6.141303174233557818e-23
