# bin_13_1
-6.114819402387275587e-35
-6.928314178608381535e-35
-7.723963592141359740e-35
-8.440286662521441475e-35
-8.995018858771213361e-35
-9.286253447239020744e-35
-9.235197479928096989e-35
-8.714235457423488029e-35
-7.765975044985845272e-35
-6.542860067369012643e-35
-5.353069167797616648e-35
-4.483132006922929514e-35
-3.882777723592096263e-35
-3.122033972665415263e-35
-2.171744710502832585e-35
-1.679044871491238126e-35
-1.247156417420896200e-35
-8.703140769211580374e-36
-6.080465915408615815e-36
-4.320191834716498289e-36
-2.973276239148649696e-36
-2.040563035909296902e-36
-1.410595076074858617e-36
-9.834805219082968983e-37
-6.954505473952333718e-37
-5.011591443171807526e-37
-3.683279089378874352e-37
-2.760943207417550251e-37
-2.102750460591471166e-37
-1.617399338334939633e-37
-1.247176247431701722e-37
