# bin_10_12
-4.240540027627362124e-09
-4.829757300119837425e-09
-5.420331046872089678e-09
-5.971320791872215800e-09
-6.428367906128006634e-09
-6.722345870672996277e-09
-6.786624084242161297e-09
-6.539461716646373521e-09
-5.946490441199568332e-09
-5.112401835074980460e-09
-4.203352552710653861e-09
-3.467661766853152063e-09
-2.988019382385678135e-09
-2.513494819583642091e-09
-1.820422713676906416e-09
-1.312295828725912047e-09
-1.050738788081748741e-09
-6.950601406601785129e-10
-5.191905741105915415e-10
-3.567752333417433781e-10
-2.428181737588545052e-10
-1.661182883060713389e-10
-1.131025063126911009e-10
-7.731731147811401582e-11
-5.325207049147833362e-11
-3.726633747476765017e-11
-2.655823446123165562e-11
-1.933077657634266216e-11
-1.437120728928561855e-11
-1.087638211421985123e-11
-8.329472456283762594e-12
