# bin_7_11
-4.578680544232190302e-11
-5.185901961085933559e-11
-5.778782222460047874e-11
-6.311129258005635762e-11
-6.721160807786537132e-11
-6.932535062706856061e-11
-6.886851813055142274e-11
-6.488816109977006628e-11
-5.774725212591793496e-11
-4.858724269740034422e-11
-3.974522089965022767e-11
-3.332559654623372602e-11
-2.886309937350610304e-11
-2.312213535847762547e-11
-1.605352709552034775e-11
-1.247247811363651416e-11
-9.205598401037990660e-12
-6.458752032241339089e-12
-4.488639967284969359e-12
-3.193956559925880868e-12
-2.200441474899678002e-12
-1.511381159138181716e-12
-1.046174619995771580e-12
-7.304407526981236061e-13
-5.174660245604995564e-13
-3.736283737960866976e-13
-2.751361042646691916e-13
-2.065989794150342489e-13
-1.575537939536873583e-13
-1.212789045063732327e-13
-9.353230040585359645e-14
