# bin_12_2
-1.568022016224668549e-27
-1.771452648689058316e-27
-1.967842297320123900e-27
-2.140934900839460387e-27
-2.269224437825533197e-27
-2.327029349913018112e-27
-2.294254473738353301e-27
-2.141172302237307704e-27
-1.888632176103567356e-27
-1.576946424791470941e-27
-1.290196433360347473e-27
-1.090242608128846441e-27
-9.418001749857650220e-28
-7.351806560955901798e-28
-5.088102365644175867e-28
-4.052814016507934951e-28
-2.869741478991667584e-28
-2.085973001831354965e-28
-1.420649824032469551e-28
-1.007013271416076580e-28
-6.989863023942484351e-29
-4.842785882021262680e-29
-3.379532894415417110e-29
-2.380986205394060264e-29
-1.706183702302189855e-29
-1.246652910454574874e-29
-9.286184182299342978e-30
-7.040809751848381188e-30
-5.405416724809460509e-30
-4.173703519156306164e-30
-3.216930580527172483e-30
