# bin_15_9
-1.255849278926462518e-12
-1.435031575656031265e-12
-1.617287762582375344e-12
-1.790768489900815783e-12
-1.939967508047646272e-12
-2.044747085645757205e-12
-2.082664316368457960e-12
-2.033472040085403272e-12
-1.875436177458381333e-12
-1.635500275033363899e-12
-1.354204310018165631e-12
-1.110332976002205322e-12
-9.478121844603588658e-13
-8.126754807931578444e-13
-6.122002618640690650e-13
-4.265437965120658110e-13
-3.462586937144889243e-13
-2.323263670346249702e-13
-1.742743632982255729e-13
-1.170020128181133292e-13
-8.016828165211314305e-14
-5.485756289064029099e-14
-3.722586842430394174e-14
-2.517269965293187715e-14
-1.705622481589264740e-14
-1.169808710830948100e-14
-8.147395748659314124e-15
-5.786530035882165569e-15
-4.203351449783219141e-15
-3.120706370730530994e-15
-2.359096028422253281e-15
