# bin_10_2
2.506279807859331158e-20
2.810974735511375768e-20
3.095226011111792732e-20
3.330903193021097041e-20
3.482236117420440576e-20
3.514829535489696414e-20
3.386686890703912765e-20
3.080455329004911694e-20
2.649332760792758253e-20
2.179464953011675145e-20
1.798363814700061066e-20
1.548376552727210554e-20
1.302248808386744999e-20
9.464189926364660340e-21
6.833211902422585912e-21
5.467677964943109536e-21
3.659335157907272146e-21
2.743297297825471925e-21
1.909206900649586228e-21
1.327528599407273416e-21
9.322732463044744112e-22
6.571562145124248653e-22
4.684881072648720984e-22
3.389245300249783384e-22
2.501172560660888038e-22
1.880202393399824712e-22
1.435978293083491600e-22
1.108813124995555910e-22
8.596113281542494749e-23
6.642580841744307744e-23
5.082054449058164784e-23
