# bin_13_9
4.689515476650722581e-08
5.345070740277966040e-08
6.003911182972599103e-08
6.620854422295486859e-08
7.135966035510324629e-08
7.472782105940957244e-08
7.555887853674488926e-08
7.296323160409751260e-08
6.649241535393895796e-08
5.729332962693993724e-08
4.715670510467898383e-08
3.887307278915026576e-08
3.346930583449097812e-08
2.825058122688376513e-08
2.057060472401993939e-08
1.474604829374276645e-08
1.185984407910651118e-08
7.838662585917119274e-09
5.876209435916499558e-09
4.024942602235057278e-09
2.739311647778201387e-09
1.875164144817017023e-09
1.276328779960514348e-09
8.713806506351270010e-10
5.989585851504380676e-10
4.181466403182423578e-10
2.971841996161281180e-10
2.156947499205193903e-10
1.599421858716820056e-10
1.208054326991667812e-10
9.240768603512555519e-11
