# bin_7_5
5.784438713755719173e-07
6.444842174960627897e-07
7.039308340608437385e-07
7.499431780013251214e-07
7.740880003708853564e-07
7.696834388319589088e-07
7.263284054993761661e-07
6.474372762432868656e-07
5.457711369181294395e-07
4.467079036439869979e-07
3.740055766137665765e-07
3.236379803055840064e-07
2.604323046556894253e-07
1.820337204367297284e-07
1.405297408667119164e-07
1.049895293377083050e-07
7.372220531823269281e-08
5.233664192893556934e-08
3.758286172548834340e-08
2.642584990609597832e-08
1.867028886516901809e-08
1.335461611539518399e-08
9.692189505323895778e-09
7.161036815906166739e-09
5.392320474323387345e-09
4.125131861286136208e-09
3.192046587223236846e-09
2.482165299888479584e-09
1.925702754147927504e-09
1.480430571537502194e-09
1.121372143576472797e-09
