# bin_7_1
7.507596274978564812e-17
8.254729025819735450e-17
8.870351038643018355e-17
9.259184549640522477e-17
9.331266546490283134e-17
8.974750151930002701e-17
8.151436285180690080e-17
7.001293038820697383e-17
5.758838752874023353e-17
4.755687064923012683e-17
4.091420290040061687e-17
3.429259410917269038e-17
2.494457294365778059e-17
1.812858096471015564e-17
1.443401081064813421e-17
9.813762231805873534e-18
7.357714577318664348e-18
5.197657723473645244e-18
3.688393004186668850e-18
2.648551571416035443e-18
1.920236996136476333e-18
1.413638687319362235e-18
1.058536031671583151e-18
8.073741676587095839e-19
6.245832174006472492e-19
4.873991283169281728e-19
3.811817777440504450e-19
2.966200212934526263e-19
2.281952090257956795e-19
1.726133760301622035e-19
1.278343303177846093e-19
