# bin_10_7
1.325478719376460293e-07
1.498434330832617335e-07
1.665787435782036882e-07
1.813836671163002057e-07
1.924400915646816418e-07
1.975603612583621115e-07
1.950498004522097994e-07
1.823322078313203579e-07
1.610762187654499921e-07
1.346644462537228139e-07
1.101932722321093616e-07
9.304055545216130766e-08
8.044472423350126294e-08
6.304704343912164533e-08
4.363054099325664960e-08
3.466723510392881261e-08
2.469026249124950845e-08
1.787099386229570285e-08
1.218967485389665932e-08
8.655719376996156571e-09
6.003444631198857521e-09
4.155195628190720725e-09
2.897481411482774686e-09
2.039442460781421332e-09
1.459614545723357627e-09
1.065107929774244769e-09
7.924053329921322403e-10
6.002062221259589709e-10
4.605145443538759641e-10
3.555273431960424612e-10
2.741148960652741466e-10
