# bin_14_7
1.810992187448002117e-12
2.063798613037582739e-12
2.317667329759958156e-12
2.555130065649596684e-12
2.752998498148674091e-12
2.881716448948002697e-12
2.912373254503810923e-12
2.810336810155484686e-12
2.559241181075622394e-12
2.203541201662746532e-12
1.813124275695958886e-12
1.495226028152534765e-12
1.287912844317769763e-12
1.085795136289287987e-12
7.890781842090021259e-13
5.669138444289030878e-13
4.552339082837322884e-13
3.009974408259636577e-13
2.253643387529533452e-13
1.545706925505440753e-13
1.052091106578761274e-13
7.201102898563234219e-14
4.902518766383832482e-14
3.349123102321915865e-14
2.304138120077074815e-14
1.610264668297827066e-14
1.145782895507758254e-14
8.326059329810528597e-15
6.180665288199706970e-15
4.672244313179119291e-15
3.575762814708902274e-15
