# bin_13_3
6.642006247579161866e-23
7.532670661736294190e-23
8.406898848231848406e-23
9.198250523381967129e-23
9.817633949691119979e-23
1.015400644547538766e-22
1.012021864065526744e-22
9.575795280679205715e-23
8.556002951963256856e-23
7.226200997682888911e-23
5.915057931391412852e-23
4.945365727040279502e-23
4.284814631320689116e-23
3.467878188325534300e-23
2.419300485083778713e-23
1.856459563784555565e-23
1.393885660092385105e-23
9.642291336012071024e-24
6.792833857941683714e-24
4.819595963021751763e-24
3.312138189879869633e-24
2.270241153930217839e-24
1.566437476868797073e-24
1.089926395012952965e-24
7.686270944557111421e-25
5.522632777555735119e-25
4.046802618210703511e-25
3.025377223006362105e-25
2.299609612581943640e-25
1.766957639653797554e-25
1.362419537570867710e-25
