# bin_4_1
3.335312016456617201e-09
3.542890679905005011e-09
3.646909895338668237e-09
3.614111018848342941e-09
3.400525569783465991e-09
3.024178881782040036e-09
2.547403014718196524e-09
2.087467528286243472e-09
1.749014497178824554e-09
1.506119968636949491e-09
1.205891626700499251e-09
8.545543505667252730e-10
6.588915031343893270e-10
4.940754561697671130e-10
3.531749061731926034e-10
2.568193751371150668e-10
1.871992761572690639e-10
1.361744260530042238e-10
1.004006054523629021e-10
7.527824088413242681e-11
5.745200538609698762e-11
4.458256120245524786e-11
3.503724973750177252e-11
2.770215426889159338e-11
2.188289144858231896e-11
1.715083895252094747e-11
1.325124388594909513e-11
1.003881614602019500e-11
7.425718193562254190e-12
5.348475311672661429e-12
3.748696513046124974e-12
