# bin_14_9
5.204793428113287827e-09
5.941084900907310253e-09
6.686047153651462676e-09
7.390024788491082895e-09
7.987587609201065148e-09
8.394505146854545117e-09
8.521881540700807037e-09
8.278488490900961932e-09
7.592072436941533121e-09
6.583680050406763762e-09
5.435058199130781129e-09
4.466873820264869395e-09
3.830430009812599564e-09
3.263039630729593298e-09
2.417897025682447970e-09
1.704223256494991291e-09
1.382820770255455609e-09
9.166164627782891946e-10
6.906053867213607596e-10
4.678523120319669462e-10
3.188262744853166173e-10
2.183948159298210108e-10
1.484630042255549625e-10
1.008551413082962187e-10
6.880759619487767879e-11
4.760380725708074493e-11
3.348891886352543051e-11
2.404575970873612440e-11
1.765287676181480158e-11
1.322576681383006227e-11
1.006354759479906120e-11
