# bin_11_8
2.162456768853011601e-07
2.453542623751122055e-07
2.739846601678008123e-07
2.999828776133583921e-07
3.204590790884775079e-07
3.318002032948597807e-07
3.311340437854037593e-07
3.138718471171793525e-07
2.809060319372994427e-07
2.376205441186498020e-07
1.945438142428090735e-07
1.624244131971104845e-07
1.407285445140773214e-07
1.143918632016710030e-07
7.997861227750410014e-08
6.102388337732867042e-08
4.615618463035176051e-08
3.173091496339397970e-08
2.249104940484481527e-08
1.593013368282084732e-08
1.093456389034378793e-08
7.487948864635955111e-09
5.158570678623226560e-09
3.583353894754243935e-09
2.521549150120119014e-09
1.807528718986328569e-09
1.321379320164787521e-09
9.857622418841885673e-10
7.480771532069361046e-10
5.742684893209861683e-10
4.427091578145362393e-10
