# bin_12_2
4.848248004200507469e-25
5.479251757212698889e-25
6.089032732401499506e-25
6.627306533791370867e-25
7.027463813063337556e-25
7.209793092434618262e-25
7.111920980066611196e-25
6.641152059959995293e-25
5.861082307430361901e-25
4.896252557101632563e-25
4.006977133959207675e-25
3.386149573936216663e-25
2.926212664748827628e-25
2.286606915114986787e-25
1.582940279305567463e-25
1.260373621629860397e-25
8.937461671962768605e-26
6.491740822978876855e-26
4.424104717099696646e-26
3.137587362095290298e-26
2.177994362747715898e-26
1.509031440341744772e-26
1.053164273194135558e-26
7.420297058289076940e-27
5.317212779379766260e-27
3.884950129034899866e-27
2.893692488447877911e-27
2.193912903633440054e-27
1.684331554296488971e-27
1.300622036565322845e-27
1.002621518232469508e-27
