# bin_15_4
4.988573656133064627e-23
5.685428826435933246e-23
6.385483578244365930e-23
7.040646175862119546e-23
7.587101146316063666e-23
7.943466474502070996e-23
8.029820839022825928e-23
7.751188125310043007e-23
7.061259976979459719e-23
6.082142954658846509e-23
5.005425392126137475e-23
4.127081995527140094e-23
3.553995316635136521e-23
2.997879896661926038e-23
2.180973197635337926e-23
1.565307605514419219e-23
1.257610927727942195e-23
8.316745173811586753e-24
6.228820637905084663e-24
4.269303692554801730e-24
2.906113136991242541e-24
1.989204872505323920e-24
1.354168452639056415e-24
9.248153695825122614e-25
6.359723197929154820e-25
4.442166207463117273e-25
3.158931499069289335e-25
2.294070324091606930e-25
1.701976175003042101e-25
1.286008290362554698e-25
9.839133679818773847e-26
