# bin_12_4
4.399447511561157415e-17
4.979298764741413760e-17
5.543264148550720707e-17
6.046437298768085166e-17
6.428910382239701347e-17
6.617412935678666301e-17
6.556010710122801908e-17
6.155199434979580299e-17
5.459789620488509300e-17
4.580322430435510707e-17
3.747484516542082067e-17
3.152929232009166286e-17
2.729643302601764944e-17
2.164983797938042403e-17
1.499824320255930890e-17
1.178568342609412239e-17
8.555100566209675651e-18
6.092666728497477889e-18
4.191475834014886928e-18
2.983476063660065596e-18
2.062092846754969142e-18
1.421381635159719296e-18
9.875025348411160434e-19
6.922167943349842332e-19
4.928451789682745797e-19
3.577112093276751381e-19
2.647564123526391133e-19
1.996757972513395712e-19
1.527524090215444624e-19
1.177734492477523529e-19
9.083460856987607000e-20
