# bin_11_4
4.270660991794417640e-15
4.819054160629823512e-15
5.345406636373528354e-15
5.804655629236246107e-15
6.137634241386691578e-15
6.275614938840724848e-15
6.161744722515578575e-15
5.721635726925435528e-15
5.022739693675121619e-15
4.178826438327206995e-15
3.422188808556815180e-15
2.905114854221166207e-15
2.503128392316863973e-15
1.925328788769044769e-15
1.335719007502615784e-15
1.074940052406512745e-15
7.450444556593448935e-16
5.510516876009041278e-16
3.740063539416461178e-16
2.635802589486799322e-16
1.837663674757998818e-16
1.279985121294076971e-16
8.974058853436020970e-17
6.357041398310232328e-17
4.585293821575748853e-17
3.372448771676116139e-17
2.527500353174346292e-17
1.925742107482826190e-17
1.483077042836173798e-17
1.146449026943829063e-17
8.829675812969153896e-18
