# bin_12_3
1.010455213628168781e-20
1.142678874808551872e-20
1.270805839249061953e-20
1.384428213447184221e-20
1.469713810131887797e-20
1.509939253651923207e-20
1.492214463769587686e-20
1.396629916787506578e-20
1.235234552899926993e-20
1.033693456915831658e-20
8.458090376906102259e-21
7.134322115394210704e-21
6.170929229606642988e-21
4.852814244118540455e-21
3.359042432830216818e-21
2.660790445990551338e-21
1.905272909601642908e-21
1.372768294469805856e-21
9.384846063350825198e-22
6.669211171704095272e-22
4.621049742132615449e-22
3.194625723063703557e-22
2.225338366270386119e-22
1.564513228702917832e-22
1.118067443809387543e-22
8.146429900522759868e-23
6.051941013406122673e-23
4.578541783928190874e-23
3.510083919900452050e-23
2.708903468500755052e-23
2.088808446915772175e-23
