# bin_14_3
4.904598071732919082e-25
5.576020597450423816e-25
6.242713063442664330e-25
6.856599669056497843e-25
7.353342005029160694e-25
7.651771776785799178e-25
7.681322585326624980e-25
7.340328803054345595e-25
6.620278576523515606e-25
5.643905290186635499e-25
4.628448660065779871e-25
3.840884001836257367e-25
3.322729757466441176e-25
2.750226262530964712e-25
1.951642009338966140e-25
1.448474111921087183e-25
1.130015575945036779e-25
7.587883959506335649e-26
5.535941917100418086e-26
3.868498484833904858e-26
2.642755211966928681e-26
1.807014748843528406e-26
1.236701051318191210e-26
8.524030524630905571e-27
5.937233371014981209e-27
4.208350701642122575e-27
3.040698236929327529e-27
2.243587538656172782e-27
1.687640202098751904e-27
1.288150449785232937e-27
9.909260788366598551e-28
