# bin_4_3
3.612661261744118153e-06
3.899910755407753057e-06
4.096432121099536767e-06
4.159892938527517064e-06
4.047071637070555407e-06
3.725835174500671308e-06
3.244202724169773706e-06
2.691722339158206093e-06
2.212898582233490734e-06
1.882385656996442811e-06
1.598165937209224551e-06
1.212377131788888135e-06
8.652005060089936114e-07
6.844578770393927007e-07
4.844443514395703117e-07
3.577617339389549035e-07
2.542953674650183579e-07
1.839332387732412895e-07
1.334424610386503676e-07
9.790357474986622868e-08
7.301441306148173808e-08
5.539106109287082224e-08
4.274060960602822760e-08
3.339092771658191019e-08
2.624683271006977383e-08
2.061919448457521074e-08
1.607611693527290736e-08
1.236236786309551061e-08
9.327529419928501246e-09
6.877177207355493041e-09
4.942039178229692966e-09
