# bin_4_4
4.938297701804798859e-06
5.371381236192993125e-06
5.695514403414292902e-06
5.848768614742051349e-06
5.776722507267540131e-06
5.412317236552124126e-06
4.793206815937661196e-06
4.023813354838240184e-06
3.297701072633370865e-06
2.772148928098313559e-06
2.383543687655874447e-06
1.886945218746301893e-06
1.333118374337073314e-06
1.035200983212792594e-06
7.631014788362286304e-07
5.474987834385149703e-07
3.927153471269959619e-07
2.836036976316139290e-07
2.038125667514707040e-07
1.479910220243207696e-07
1.090810631824664075e-07
8.177136375395710709e-08
6.239565797449501923e-08
4.833907586135551440e-08
3.780696489771744412e-08
2.966302864788500409e-08
2.318415012143168475e-08
1.793078499199066938e-08
1.364480353008346302e-08
1.016939900220900542e-08
7.398091225043392258e-09
