# bin_9_8
2.855521467694808491e-06
3.218084521229050643e-06
3.564332119193346763e-06
3.863848537574869780e-06
4.076977914939147171e-06
4.159029431939666211e-06
4.070404675605748986e-06
3.766406928740456921e-06
3.295038431212716201e-06
2.735788302074327826e-06
2.242165116291765142e-06
1.907203247634122485e-06
1.637212470619326662e-06
1.248181682558653603e-06
8.705363406003591354e-07
7.004775509833857597e-07
4.821109080452948540e-07
3.576322235102649533e-07
2.437762221623930870e-07
1.711933528376561563e-07
1.194731195685131174e-07
8.334013388904121196e-08
5.855534573055755721e-08
4.159955212466221106e-08
3.010388717612225359e-08
2.221252133751185964e-08
1.669479388396999453e-08
1.274599227110174184e-08
9.825802462325891595e-09
7.594458709666698012e-09
5.842173187699802046e-09
