# bin_6_6
3.873862569553194190e-06
4.303091690232764300e-06
4.682931592074716694e-06
4.966908127022628677e-06
5.099893746638192790e-06
5.036185828893496093e-06
4.713229944778171102e-06
4.168696904073872488e-06
3.492042662163332671e-06
2.858886214815651677e-06
2.407863048062502199e-06
2.076390983331155305e-06
1.636224256854786478e-06
1.143348092529146238e-06
8.974389027735956757e-07
6.511392663392531367e-07
4.681831358667647825e-07
3.286366674783603644e-07
2.354963398707235510e-07
1.664819175797506798e-07
1.182987619424921171e-07
8.511362241630494989e-08
6.215341891855028983e-08
4.623478655343558619e-08
3.502606966372647196e-08
2.692196669485132555e-08
2.089182483748481754e-08
1.625653420959920105e-08
1.259438362516265226e-08
9.651267937475026458e-09
7.276652127180179207e-09
