# bin_6_4
1.130180557406002885e-06
1.245333998599005652e-06
1.341889578402809600e-06
1.405712071390828838e-06
1.422546849619627412e-06
1.376728663823953616e-06
1.259115204387613746e-06
1.089039928167307926e-06
8.991311816046210391e-07
7.402600649750405961e-07
6.335782944756894598e-07
5.355580113086973962e-07
3.974682299891643408e-07
2.845587922898992633e-07
2.270772682042778326e-07
1.560340344507597767e-07
1.164610200586391971e-07
8.162016555528809415e-08
5.808193701219462746e-08
4.158056870547840403e-08
3.000678681623544793e-08
2.196615786527025817e-08
1.634635407270889455e-08
1.239457452728965903e-08
9.542698989352552488e-09
7.421998787712734763e-09
5.795474179595542651e-09
4.510714783032163114e-09
3.476375314432149463e-09
2.637857314425506480e-09
1.961898106193190408e-09
