# bin_2_1
6.105909225413788473e-06
6.220874508902608770e-06
6.084216595517045295e-06
5.650219400327832867e-06
4.967940837581295968e-06
4.164548452031182355e-06
3.431254132241506170e-06
2.889766926944826224e-06
2.445334805964713835e-06
1.912225126825556816e-06
1.388828986384946885e-06
1.064644846570768902e-06
7.903353680383902339e-07
5.743128311638431825e-07
4.210113723540994600e-07
3.088474798863870806e-07
2.287644027666799065e-07
1.720941972009673338e-07
1.317799520528829576e-07
1.026374213491215960e-07
8.103288250792315182e-08
6.447384226212465030e-08
5.132306679010767146e-08
4.058468174090650516e-08
3.167164301013193283e-08
2.425229818482293989e-08
1.814196306621033810e-08
1.322046371675491141e-08
9.375631469450797930e-09
6.476868061622484819e-09
4.368553792021075520e-09
