# bin_9_4
4.861073807642963590e-09
5.434045531817797234e-09
5.959842399797060654e-09
6.382631426258735991e-09
6.632381774312679862e-09
6.647971210921554436e-09
6.344261195389440994e-09
5.716896040720873962e-09
4.871173624673987193e-09
3.995871626709433128e-09
3.316771569142186075e-09
2.863110716288203142e-09
2.362976024382333087e-09
1.685228611820688627e-09
1.252652206085797402e-09
9.742535389020044591e-10
6.638778428358676318e-10
4.863769840030184811e-10
3.435123764297323867e-10
2.398533963988912292e-10
1.687232691227193073e-10
1.196257950247643018e-10
8.593695320949547918e-11
6.274777889711512724e-11
4.672540518819292105e-11
3.540547088940868564e-11
2.720523487546169156e-11
2.107738839618829479e-11
1.634759949692673084e-11
1.260347918735884561e-11
9.598571318464468115e-12
