# bin_3_1
1.861829365925439097e-08
1.575329860866564144e-08
1.303844553561020189e-08
1.060561108681895561e-08
8.509328221499063391e-09
6.733619316550201925e-09
5.236067072199152376e-09
3.997785183480199617e-09
3.023163592071191389e-09
2.290259641387831594e-09
1.740900358286103905e-09
1.328747989317854059e-09
1.024049401914587913e-09
7.969638087149759740e-10
6.256340588545066715e-10
4.939918892010064042e-10
3.907313355481870217e-10
3.081808269945014283e-10
2.412874593205690009e-10
1.867577061700255181e-10
1.424011728404142603e-10
1.066679929664203089e-10
7.833811804626261897e-11
5.633971654109019428e-11
3.966488170862755749e-11
2.734973772500902229e-11
1.849177467407488244e-11
1.228156013382956668e-11
8.029805253723780695e-12
5.179842456681962232e-12
3.304089158186267475e-12
