# bin_13_9
8.153254748065301898e-08
7.768782339915548219e-08
7.223051361334529247e-08
6.540299932221959477e-08
5.761003431874374101e-08
4.938082199813752686e-08
4.128857898071394137e-08
3.383037331868973639e-08
2.729701394565706669e-08
2.173595358494581113e-08
1.702346206850567690e-08
1.303973277712933667e-08
9.790695026617307440e-09
7.309613939057824041e-09
5.467238098947900756e-09
4.068393929296809399e-09
3.038115767674753345e-09
2.283900058563196169e-09
1.728945821462170465e-09
1.318133473951846925e-09
1.010593506147010330e-09
7.768936305357794944e-10
5.967447001822965429e-10
4.563069379588304217e-10
3.461012404602775861e-10
2.595638988966262971e-10
1.919822626513081262e-10
1.397616048305328258e-10
1.000064444138801180e-10
7.028372259991592365e-11
4.850639648323715236e-11
