# bin_10_10
7.907864231881260147e-08
7.517767973448932084e-08
6.973076788532814658e-08
6.298871859172271667e-08
5.535673625626493372e-08
4.735359555091288413e-08
3.953004297606266469e-08
3.235092270985375578e-08
2.607723709297387525e-08
2.073976037581548434e-08
1.621831238612889617e-08
1.240723799309495064e-08
9.314469045094191654e-09
6.957620096837324393e-09
5.204450350820596525e-09
3.876112831394929426e-09
2.898002013141746305e-09
2.181351043779156402e-09
1.653485849792748000e-09
1.262133231653299104e-09
9.685494026090615987e-10
7.449796424369177131e-10
5.723074257486999574e-10
4.374958322558942801e-10
3.316108934467203610e-10
2.484482792537351720e-10
1.835281677272623323e-10
1.334114241618622395e-10
9.531047172438617875e-11
6.687272882528671347e-11
4.607631819504569045e-11
