# bin_1_1
1.327201842791601944e-08
1.104085528618137506e-08
9.015945366231294743e-09
7.255793424383173568e-09
5.761733330686930757e-09
4.503435225218148248e-09
3.457825215232809286e-09
2.622600467507566516e-09
1.987838938479928100e-09
1.513439438874130346e-09
1.156702890704111645e-09
8.916898469532701578e-10
6.945026575085343634e-10
5.457224175837780092e-10
4.315590487809350902e-10
3.420896596030774758e-10
2.705776404641182129e-10
2.125725505177474231e-10
1.651826798871171574e-10
1.265030910320828302e-10
9.520616180592310527e-11
7.026539122802504277e-11
5.078842605908519048e-11
3.593602622220575496e-11
2.489952070922040186e-11
1.691320910134762007e-11
1.128156581664373944e-11
7.404973310087207448e-12
4.793599755989607493e-12
3.067244600623368231e-12
1.943941852094550712e-12
