# bin_11_5
6.042403335458780391e-08
5.600113088649043663e-08
5.053548252355015513e-08
4.435459818705583119e-08
3.788165492817315509e-08
3.157072653287151476e-08
2.580391087562650157e-08
2.078873698139960707e-08
1.653627225343470362e-08
1.293022494258668531e-08
9.882774416222092877e-09
7.420690844489182765e-09
5.565394699225673539e-09
4.183330716972629976e-09
3.132213047570506458e-09
2.363470338800574642e-09
1.795841611215323339e-09
1.376582884419068725e-09
1.062874069355813045e-09
8.247529197424479596e-10
6.408725069182439100e-10
4.966681555595108118e-10
3.823498709695319522e-10
2.912848648169819065e-10
2.189000092613782041e-10
1.618600053549796423e-10
1.175388477066224524e-10
8.372584110614222766e-11
5.847385645771773827e-11
4.004778293853494199e-11
2.692007732430974141e-11
