# bin_12_1
2.308022914636601852e-08
1.970281283751814089e-08
1.642316700025094130e-08
1.343286043184456306e-08
1.083206210205332591e-08
8.620661113194947964e-09
6.744176048333830515e-09
5.169503119163761994e-09
3.908533625912773398e-09
2.954120884268239472e-09
2.240049786276456429e-09
1.702458953874232343e-09
1.305254744046882130e-09
1.010956046733249908e-09
7.905024001905281809e-10
6.227038460686713351e-10
4.923127519172693917e-10
3.888804590196578881e-10
3.054728892622772975e-10
2.375778049056882930e-10
1.822419251061227767e-10
1.374488538854063515e-10
1.016871236569955297e-10
7.368161826219619634e-11
5.225512294596560718e-11
3.627935016039253342e-11
2.468204042808647901e-11
1.648185704797523162e-11
1.082531240433344072e-11
7.009319104326987187e-12
4.484403004022765789e-12
