# bin_6_1
2.132955289831219206e-08
1.815318619033480180e-08
1.509513875554166101e-08
1.232355917521359761e-08
9.920711062146199019e-09
7.880257893112754832e-09
6.152451183401377092e-09
4.709764773016780250e-09
3.561146502943273614e-09
2.693644983031365556e-09
2.044201047607160417e-09
1.555828012675452018e-09
1.194919591227573540e-09
9.269931295037134556e-10
7.258140094545682454e-10
5.722020175812810324e-10
4.524560165970606542e-10
3.572170014931296700e-10
2.802890046617095311e-10
2.176379743683626983e-10
1.666099662957989858e-10
1.253716394608116937e-10
9.252587298158351346e-11
6.687731485270159640e-11
4.731518181633462815e-11
3.277569560497976831e-11
2.225319960672377588e-11
1.483380498543094675e-11
9.728448517826206838e-12
6.291491520161495819e-12
4.021284847909196372e-12
