# bin_7_5
5.441095596956768365e-08
5.004637763972843086e-08
4.481811300338080396e-08
3.905070974617412691e-08
3.313807696585848755e-08
2.747655807911297309e-08
2.237152482909861003e-08
1.796380622669703823e-08
1.423206183958753682e-08
1.107374046447551968e-08
8.431764132470734972e-09
6.330107114929898348e-09
4.755381797457759987e-09
3.576966815450460934e-09
2.686214051383375223e-09
2.034767869872290984e-09
1.552298084812056454e-09
1.194511407469503461e-09
9.252585184547876261e-10
7.194710680646270209e-10
5.594987585545141209e-10
4.333534103812702908e-10
3.329840539680429087e-10
2.529149842921793632e-10
1.893189933484693806e-10
1.393383602762700177e-10
1.006665660584247568e-10
7.132239686346754536e-11
4.954263288759673909e-11
3.375427018331966650e-11
2.257996051613003258e-11
