# bin_10_7
6.954680310327668319e-08
6.534805588503997559e-08
5.985253498147091010e-08
5.335214935967874177e-08
4.626579791586510471e-08
3.908539541827820262e-08
3.228752672111016276e-08
2.621432236080680868e-08
2.099833457407043347e-08
1.658291803636453791e-08
1.284110463376264152e-08
9.726070339719899236e-09
7.277774352629203427e-09
5.455030843930791997e-09
4.083162744300132325e-09
3.052085056078922640e-09
2.301079078583859466e-09
1.745393143070519079e-09
1.334929597711521846e-09
1.027455040010683366e-09
7.937299165598883503e-10
6.132793324232856673e-10
4.721042072793528084e-10
3.607183389234902655e-10
2.726093541476352778e-10
2.031937398453823002e-10
1.490399010549356988e-10
1.074039832997318198e-10
7.597151075763885635e-11
5.273047342038446096e-11
3.592407545650319940e-11
