# bin_14_10
8.600801759170928512e-08
8.234291922417762799e-08
7.695491741598225442e-08
7.006368571912866282e-08
6.206198705652033404e-08
5.348442205864249956e-08
4.493129539956726409e-08
3.695091935355469725e-08
2.989788029723766741e-08
2.387026928279166820e-08
1.876314235888938136e-08
1.443620002635256009e-08
1.086916252431355146e-08
8.108539745315371504e-09
6.059160478988478114e-09
4.507885369538281104e-09
3.354653165162063425e-09
2.514746514107201333e-09
1.896035262684113798e-09
1.440242448184052286e-09
1.100609129698796489e-09
8.439606962679805532e-10
6.472519439652942402e-10
4.946738433371622150e-10
3.754070235262516785e-10
2.819699480628871870e-10
2.090527597275958355e-10
1.526668018638320382e-10
1.096510535373819024e-10
7.738754054225364174e-11
5.365174435488347142e-11
