# bin_11_11
8.334704966921311460e-08
7.960008299645520159e-08
7.419949575592551156e-08
6.737612754071050106e-08
5.952628088013268836e-08
5.117692526929322920e-08
4.290773915751092060e-08
3.523393420288051942e-08
2.847508221205759832e-08
2.270562562069753600e-08
1.781778192633620591e-08
1.368551696690581145e-08
1.029699371726324033e-08
7.685424104025219868e-09
5.744332300430361459e-09
4.275868378226726042e-09
3.186639865425628460e-09
2.391970986103098810e-09
1.806425290728250270e-09
1.374251260257113701e-09
1.051498993652471609e-09
8.070112562693959120e-10
6.191787851531836043e-10
4.731954308870533832e-10
3.589243312528578807e-10
2.693429977819749485e-10
1.994393788555208038e-10
1.454224583551265611e-10
1.042661525196180529e-10
7.344961016141085171e-11
5.082370777248811508e-11
