# bin_10_3
2.522349081462463231e-21
2.831336685614317726e-21
3.120971148497229557e-21
3.363270014046299846e-21
3.522520094940066369e-21
3.563003313778228199e-21
3.444201358344744074e-21
3.143224147598642379e-21
2.712495360486022442e-21
2.234230997048730626e-21
1.839473889018385628e-21
1.580163403950753695e-21
1.336417077370284225e-21
9.801611582612211676e-22
7.001939740299789659e-22
5.639305903298641242e-22
3.769104580712986517e-22
2.837756778712171034e-22
1.961508701708871714e-22
1.363254734595054389e-22
9.567765255330953491e-23
6.730656826209763818e-23
4.782549814221788744e-23
3.445958314203307394e-23
2.532689584364573114e-23
1.896812504771777114e-23
1.444256714492997385e-23
1.113003652883203992e-23
8.621821928947377663e-24
6.664929383877018694e-24
5.106070316290388373e-24
