# bin_12_6
1.127099427683086005e-16
1.277757580025610243e-16
1.425479391717730573e-16
1.558995491249636201e-16
1.663206138291423438e-16
1.719312321192241776e-16
1.712652664305384697e-16
1.619465794509837463e-16
1.446082958795102512e-16
1.220545795945256624e-16
9.987275820737289778e-17
8.349998327276417792e-17
7.233228884942845105e-17
5.847731763574689413e-17
4.075585728313179768e-17
3.130716040157294443e-17
2.346601717651024754e-17
1.624720098757907883e-17
1.142607965305284803e-17
8.110491645670130709e-18
5.573384451818282384e-18
3.819263705916970175e-18
2.635264428549420541e-18
1.833678244868252911e-18
1.293306824436238306e-18
9.294278704913767271e-19
6.812127234528997176e-19
5.093937302063512254e-19
3.872664145797629820e-19
2.975942175492624521e-19
2.294567675394988811e-19
