# bin_5_2
1.348984725850031754e-13
1.462318406536261605e-13
1.543967290638362203e-13
1.577173709648881757e-13
1.547118686798510779e-13
1.436643830387846082e-13
1.261317704042834244e-13
1.050680550555167778e-13
8.606660933941905858e-14
7.286099695657811251e-14
6.255756149845289955e-14
4.839629613633884155e-14
3.396519521235307570e-14
2.702709670302103584e-14
1.926525234196733941e-14
1.419324044153094648e-14
1.001264587097621839e-14
7.260724491374229772e-15
5.249769482066149184e-15
3.832613386569090048e-15
2.843106168067418247e-15
2.145139807970169797e-15
1.647483286829194397e-15
1.282914094085047594e-15
1.006854417457736358e-15
7.911699653522957172e-16
6.180589160316524983e-16
4.769108265100864958e-16
3.614999538023497125e-16
2.680058820157771021e-16
1.937333488677916829e-16
