# bin_15_5
1.313845823380509001e-24
1.497404554310879242e-24
1.681963747435368546e-24
1.854894371841925471e-24
1.999475373996372387e-24
2.094365456897669270e-24
2.118320770022735104e-24
2.046804964566814214e-24
1.866502508038148084e-24
1.609358912352610276e-24
1.324807886534683333e-24
1.091250007351270834e-24
9.387486229716399647e-25
7.933200509501035090e-25
5.790068357909605043e-25
4.138174454284025150e-25
3.332962386095524243e-25
2.202308339485827957e-25
1.652441625494760509e-25
1.129611979177874208e-25
7.686071505643317910e-26
5.260560315961050987e-26
3.578656296451679307e-26
2.440533226609187600e-26
1.675038810810119658e-26
1.167381957298662434e-26
8.281353941218701061e-27
5.999207670369319538e-27
4.440951857714191537e-27
3.349764356488530716e-27
2.560120967863916875e-27
