# bin_13_1
1.895661762551038602e-37
2.147699099750325250e-37
2.394126224162368875e-37
2.615870116898137433e-37
2.787413619609112913e-37
2.877165588453367853e-37
2.860736521911834627e-37
2.698603154713827040e-37
2.404315949927078031e-37
2.025142506019641028e-37
1.656839060592472065e-37
1.387896320063734084e-37
1.202021129436664342e-37
9.658213997109525623e-38
6.716390594641933259e-38
5.197269981323417247e-38
3.855763964026383361e-38
2.693471476294329873e-38
1.880069048120185171e-38
1.336054999002629699e-38
9.196943084776871489e-39
6.312992764771616824e-39
4.365115077558068123e-39
3.044216481120201411e-39
2.153408835749409608e-39
1.552372975812414786e-39
1.141339407696235562e-39
8.558137766321557360e-40
6.519507138905050358e-40
5.015364609559554845e-40
3.867419595862201962e-40
