# bin_11_7
1.427134101551451700e-13
1.616295389746625727e-13
1.800935048700194889e-13
1.966646210172230544e-13
2.094162626237241301e-13
2.159691612730377153e-13
2.145050199642149972e-13
2.020570977708187962e-13
1.797789873255349805e-13
1.512293703969160613e-13
1.237063166634351432e-13
1.037463010175088907e-13
8.985198623807978552e-14
7.193350136191433510e-14
4.993133514983932107e-14
3.882312519055749697e-14
2.862313501846876657e-14
2.010126738378769022e-14
1.395880223112170729e-14
9.933730951616611494e-15
6.844990183680765021e-15
4.702353407688958374e-15
3.255680306949756922e-15
2.273659917580682294e-15
1.611221221049522199e-15
1.163733948101080020e-15
8.572363029276491658e-16
6.438772430714650647e-16
4.911260045281285363e-16
3.780914466373109656e-16
2.915928997531529899e-16
