# bin_14_14
3.181957442615083646e-11
3.646815181804956291e-11
4.124991239980077958e-11
4.587610738898648052e-11
4.996786282845575332e-11
5.302257011985653076e-11
5.443258064268877822e-11
5.373860510684400773e-11
5.021884828675833085e-11
4.434697903050140131e-11
3.705015469655265320e-11
3.030628590297995830e-11
2.559767330426745245e-11
2.213912515528460937e-11
1.731456443011456457e-11
1.194354564238451751e-11
9.511640349595618389e-12
6.723888232400624315e-12
4.862702684136740787e-12
3.263052620834894610e-12
2.288769293140522527e-12
1.554486565303714356e-12
1.044572304383832252e-12
7.003790962044428599e-13
4.687731956430497411e-13
3.159379800285155672e-13
2.154381277951560951e-13
1.493200064660912844e-13
1.057351909842350381e-13
7.664889195404975256e-14
5.683032675578103977e-14
