# bin_8_2
2.985518057585871029e-20
3.312741311802613337e-20
3.600351193510169789e-20
3.812269333602483815e-20
3.905946955459660956e-20
3.846799994300498632e-20
3.586947857160904659e-20
3.161431808286276421e-20
2.639196221693205757e-20
2.159707890128326854e-20
1.824585535132640245e-20
1.573564274491640709e-20
1.227819079387768925e-20
8.539818563437438630e-21
6.790703315273746683e-21
4.842398689486703450e-21
3.534332800435627362e-21
2.452479020994787120e-21
1.761319846226959052e-21
1.249150687083873108e-21
8.900472099128790297e-22
6.423930175730620418e-22
4.705960238787481948e-22
3.513268817317400496e-22
2.670191863152501556e-22
2.057818868718969272e-22
1.599781057408336261e-22
1.245809825255002646e-22
9.649564609123748704e-23
7.386364858988749644e-23
5.558672882264812796e-23
