# bin_3_2
7.035233223246822546e-11
7.437290141032711597e-11
7.612326372264494635e-11
7.488207629613244336e-11
6.983526906094022193e-11
6.158080002838460447e-11
5.152932246566481383e-11
4.223861613603733203e-11
3.559659646862471787e-11
3.052813336893573478e-11
2.394455212863100644e-11
1.696046807291821099e-11
1.326756172109723611e-11
9.718423409368178337e-12
7.065457670485092653e-12
5.094960085451673391e-12
3.721753459793116825e-12
2.719509719321800746e-12
2.014021387736275103e-12
1.517647095866311546e-12
1.163850720577440230e-12
9.070056473982602998e-13
7.148482286641299240e-13
5.659008743274126405e-13
4.468413341597835537e-13
3.495072152592632335e-13
2.691167657773809357e-13
2.029419699508291288e-13
1.493016904811780569e-13
1.069141216944209311e-13
7.451003187844688120e-14
