# bin_2_2
2.042735152375645425e-10
2.122082675781995821e-10
2.127399093764028245e-10
2.034624986064465827e-10
1.840231691660014895e-10
1.575816700653075457e-10
1.297859460288894098e-10
1.075253851795949028e-10
9.206974652373617138e-11
7.620702479841876923e-11
5.591291610558212233e-11
4.124016738853633418e-11
3.216535990021700296e-11
2.274216989646290397e-11
1.690976925097495243e-11
1.223008772739928497e-11
8.960695143873460544e-12
6.647159249697265722e-12
5.009535152861953341e-12
3.843932767004913402e-12
2.997826270783214012e-12
2.367608164766800415e-12
1.880768945353480195e-12
1.491987878907294628e-12
1.173750078375094773e-12
9.098101661879797432e-13
6.910750569239996205e-13
5.122792761894565390e-13
3.696449947259967187e-13
2.595266826677854075e-13
1.775412888878773772e-13
