# bin_10_1
5.348024683263325348e-30
5.989824952321970817e-30
6.584724934648693318e-30
7.072212399806795256e-30
7.375720445430690717e-30
7.424650672078088387e-30
7.126960712982132931e-30
6.457931953757776422e-30
5.532701013704278634e-30
4.544170098406460914e-30
3.756428077294433965e-30
3.238809561560841807e-30
2.706202538870519734e-30
1.949302943247794950e-30
1.422522405141713483e-30
1.128311546688350374e-30
7.577250221748416276e-31
5.641372048354513233e-31
3.950944495015931821e-31
2.749121113927492454e-31
1.930794646636923676e-31
1.363358566532899882e-31
9.746601195995536214e-32
7.075820193129507969e-32
5.240104735349191300e-32
3.951654603539611061e-32
3.025630318387345945e-32
2.339786856561477872e-32
1.814591361764627858e-32
1.401176252850453899e-32
1.070198771339323449e-32
