# bin_8
0.000000000000000000e+00
4.477644733031273162e-264
1.558886093842130298e-226
4.708830143375457687e-195
2.247826375193250859e-168
1.245750022449234486e-145
3.762420931699031790e-126
2.123275030667283796e-109
6.058234708767677160e-95
1.968321020244488903e-82
1.419520889269309953e-71
3.948654941759815147e-62
6.712647362756754677e-54
1.025429508112785036e-46
1.947482896670465601e-40
6.052029455366499860e-35
3.886906910679692071e-30
6.297444899951657643e-26
3.053502522126008490e-22
5.132961363698791516e-19
3.396464329061433690e-16
9.875863463927092207e-14
1.388604568933673569e-11
1.026368335992265566e-09
4.290351785792680322e-08
1.081493070916736556e-06
1.739623495168885614e-05
1.877131628947407700e-04
1.420321252330644874e-03
7.838525512909564480e-03
3.267830507891914676e-02
1.061698274623367605e-01
2.763526576233248377e-01
5.905080065234404874e-01
1.058107118233063026e+00
1.619469308185845113e+00
2.150901432018985648e+00
2.512728194387362279e+00
2.612076791303162615e+00
2.440662533136964463e+00
2.068010766183178806e+00
1.601627175022034333e+00
1.141996378814304602e+00
7.546559298190049780e-01
4.650480285844043049e-01
2.687932162587531870e-01
1.465066132918777797e-01
7.568524639463890258e-02
3.723352385644065898e-02
1.752036107439379140e-02
7.918156065172812438e-03
3.450151161231014476e-03
1.454545136281536850e-03
5.952790048668197198e-04
2.372145170831460451e-04
9.230231964752322446e-05
3.516127525793473588e-05
1.314438271609724730e-05
4.832826734040336889e-06
1.751194124641980595e-06
6.265505929154889711e-07
2.217271354861290672e-07
7.773463930393068295e-08
2.703835110695557787e-08
9.343323058905903853e-09
3.211563295025878261e-09
1.099310385625342505e-09
3.751175400832537587e-10
1.277246962684867963e-10
4.343359546105922226e-11
1.476288760752423412e-11
8.607336070804532776e-12
