# bin_2_15
5.258469647603964177e-07
5.453034764467492131e-07
5.453936017676540769e-07
5.206135351331277577e-07
4.705735419007544683e-07
4.033691336442931461e-07
3.334710123025234280e-07
2.768934776084606647e-07
2.356560078429412503e-07
1.937046403941986690e-07
1.440099917269457222e-07
1.064582267557408863e-07
8.184579892605185575e-08
5.889711387776930547e-08
4.331977539504357810e-08
3.144502763978576308e-08
2.307106054086691079e-08
1.710560155517762354e-08
1.288570177290809251e-08
9.880028748884857826e-09
7.697888889510499324e-09
6.071693458579275376e-09
4.816691685022119430e-09
3.815896419972478669e-09
2.998236558553040415e-09
2.321665308632264613e-09
1.762333513101598467e-09
1.306200133907400062e-09
9.429937649227551740e-10
6.627837860916050950e-10
4.540664135793674140e-10
