# bin_9_4
2.504326981502970891e-15
2.802972775167008718e-15
3.078823909156402294e-15
3.303381057691674518e-15
3.440670837404302695e-15
3.458345411948241019e-15
3.312557649302320726e-15
2.995146282228050108e-15
2.560399217792945169e-15
2.101312303287664796e-15
1.739391425873848627e-15
1.501166943193141956e-15
1.249286569573198698e-15
8.951605454026573209e-16
6.577938748304125345e-16
5.187720437560150383e-16
3.493537382554240639e-16
2.588883427365200778e-16
1.820346913110222762e-16
1.267355258618554439e-16
8.901508851357420738e-17
6.292079435572785672e-17
4.505466151367631882e-17
3.277411481127142479e-17
2.431917513653635426e-17
1.837181652016735691e-17
1.408612453489845657e-17
1.090207510247442116e-17
8.456763943500743692e-18
6.527637454794807331e-18
4.981398455437085196e-18
