# bin_7_10
7.000446910839273169e-08
7.836049908129720829e-08
8.608300746270376757e-08
9.237683486799370460e-08
9.623877937651552668e-08
9.675394282827665538e-08
9.272722113179223994e-08
8.391415564501176376e-08
7.180754704814283946e-08
5.898879261759804559e-08
4.883102714684148051e-08
4.208224322186679477e-08
3.501738624986952387e-08
2.521650513971081981e-08
1.849579539393676606e-08
1.454992907793955147e-08
9.855963423538157832e-09
7.282627539680981572e-09
5.106322308269820593e-09
3.560440348445070298e-09
2.501707214710214787e-09
1.768495381806724316e-09
1.265421458986475086e-09
9.195840391484603126e-10
6.815889941001374991e-10
5.143325801561933477e-10
3.939398800622775177e-10
3.046305870756513235e-10
2.361592514486370207e-10
1.822306037315209418e-10
1.390628767023365839e-10
