# bin_13_7
3.877315914534070752e-15
4.407400353419945256e-15
4.933747679526421334e-15
5.418428634145445343e-15
5.810740317252366082e-15
6.046740248218229134e-15
6.070579376984162120e-15
5.802395869667069667e-15
5.234227258321006944e-15
4.463171723084364090e-15
3.659495744613959459e-15
3.034797230235568890e-15
2.624402093480925092e-15
2.174053970953244106e-15
1.543792551750591133e-15
1.143493526924089459e-15
8.935724083967070690e-16
5.989652656517102512e-16
4.376742257044420883e-16
3.054687660905522163e-16
2.085373342934198205e-16
1.425185731636963954e-16
9.744825519449182402e-17
6.709638286582027330e-17
4.667596598453960349e-17
3.303950699587557188e-17
2.383939038982255420e-17
1.756735356107042329e-17
1.320041603698635152e-17
1.006850341140424953e-17
7.742727584489966650e-18
