# bin_12_4
2.423038856905447090e-21
2.740613966448377501e-21
3.048791142693595570e-21
3.322772026413587531e-21
3.529553805918361051e-21
3.628992605905095387e-21
3.590430979599699699e-21
3.365402344387149912e-21
2.980557455754360743e-21
2.496996584162011083e-21
2.042417347657774244e-21
1.719803277820153877e-21
1.488018729729868298e-21
1.175560294522328967e-21
8.137219355485830229e-22
6.415916228902161937e-22
4.628287719763695245e-22
3.312098349308364558e-22
2.270819789387139245e-22
1.615018040460001055e-22
1.116988176791831713e-22
7.705223726679230567e-23
5.356583176720325613e-23
3.757476642331111082e-23
2.677997057055256590e-23
1.945852128833377250e-23
1.441780895017209672e-23
1.088390874240556240e-23
8.331474465367145142e-24
6.425208208849379884e-24
4.954725433746882794e-24
