# bin_10_13
4.200834954814870637e-08
4.766536313320893777e-08
5.323608718236223530e-08
5.830322630511005087e-08
6.230863217747569740e-08
6.455548126712889555e-08
6.447421397053559585e-08
6.119319783642888623e-08
5.483766647950575230e-08
4.645668493037056898e-08
3.804714718562699282e-08
3.172034950006886714e-08
2.745296129345991332e-08
2.238061271912554502e-08
1.571964945963400326e-08
1.191278204877764018e-08
9.060377609759412035e-09
6.204441092677992091e-09
4.426732850886659607e-09
3.118870456531291293e-09
2.138268508913375926e-09
1.464407492692652080e-09
1.007080918645013393e-09
6.980037193316437475e-10
4.898102354585836579e-10
3.500498616907963005e-10
2.551020079038317225e-10
1.897432482789586707e-10
1.436351279424369274e-10
1.100667878357377710e-10
8.477015468171005167e-11
