# bin_15_10
1.195324185271974676e-12
1.366224059497506165e-12
1.540238618137292536e-12
1.706117724793985886e-12
1.849148912756496904e-12
1.950188400535099502e-12
1.987704956746838619e-12
1.942687053512247643e-12
1.793752937961478717e-12
1.566014471496720335e-12
1.297569887514303024e-12
1.063570538646831179e-12
9.071039198810162921e-13
7.785889286615606247e-13
5.884249168137050299e-13
4.093388127855480302e-13
3.320375782966660105e-13
2.235759838260729155e-13
1.673815361260512038e-13
1.122282720577633874e-13
7.702706172855171275e-14
5.268104753910671919e-14
3.572557056808409384e-14
2.413457964296894060e-14
1.632931840453681593e-14
1.117835153352239294e-14
7.768057508271429749e-15
5.503430944213574505e-15
3.987789199148523464e-15
2.954127654169068128e-15
2.229429998862042526e-15
