# bin_10_12
3.025207742456150704e-08
3.431490758104951407e-08
3.830967243895533481e-08
4.193506589748956388e-08
4.478799708131339556e-08
4.636613399196823782e-08
4.626399387210992441e-08
4.385234545292455956e-08
3.924867183048983854e-08
3.320868301879631422e-08
2.719017799258904515e-08
2.269101769824166732e-08
1.964277337179678054e-08
1.596592600920139342e-08
1.118803465509613166e-08
8.516178082544436495e-09
6.444572730289338441e-09
4.429927193963195938e-09
3.146792926876578488e-09
2.221376490222276989e-09
1.524135008029268633e-09
1.044155253429745774e-09
7.188142416901719309e-10
4.988352216319300642e-10
3.506280055116542356e-10
2.510356824678979399e-10
1.832863588220846620e-10
1.365644372927134602e-10
1.035222967417003906e-10
7.939920558398688071e-11
6.117109488558954682e-11
