# bin_11_13
2.747994485844831160e-08
3.125790909684861742e-08
3.502165967741804199e-08
3.850351832982066396e-08
4.134663016329539970e-08
4.309967978305105864e-08
4.335388653044809898e-08
4.155832027564994863e-08
3.759879986969814288e-08
3.215811560457201878e-08
2.639744628573501198e-08
2.185162659079199365e-08
1.886769702941567083e-08
1.571339090980441002e-08
1.124701321597088295e-08
8.247756804283543920e-09
6.498302119185525420e-09
4.339818770361426759e-09
3.194538298361489508e-09
2.216060139862843218e-09
1.511440891187803792e-09
1.033515714409004271e-09
7.056860469001305757e-10
4.845756651694570673e-10
3.358292355296006000e-10
2.366942039795414025e-10
1.699908956605631264e-10
1.246861558691213012e-10
9.331272861621950323e-11
7.095881525009281148e-11
5.447437078966491776e-11
