# bin_10_14
5.227530226059932145e-08
5.932614889067287103e-08
6.627569507624889616e-08
7.260544878189867242e-08
7.762202950951656701e-08
8.045887814583173041e-08
8.040227190553657120e-08
7.636969319673266611e-08
6.848893085909008694e-08
5.806492639015921143e-08
4.756216368344232591e-08
3.963052256518035754e-08
3.429345620821962552e-08
2.800545244539756817e-08
1.969900850297634901e-08
1.488943490741043302e-08
1.135698965943431374e-08
7.760819913424922610e-09
5.551160507435956911e-09
3.906436959207306727e-09
2.677062930888255783e-09
1.833108420687341060e-09
1.259899908835553010e-09
8.725834669518523153e-10
6.117166171046936011e-10
4.366999150677149026e-10
3.178930048200114666e-10
2.361985283842033185e-10
1.786503709231554244e-10
1.368228872648817063e-10
1.053536176454881589e-10
