# bin_5_15
2.075103088282147758e-07
2.287540138757921566e-07
2.466259072128516052e-07
2.585382085764770669e-07
2.618536725106605051e-07
2.537323026410375741e-07
2.324206107545329014e-07
2.013455689403971834e-07
1.664456780220613737e-07
1.370128774753584514e-07
1.170980713827728788e-07
9.905834825699349313e-08
7.389845798844686578e-08
5.285059401884272191e-08
4.203793336984481734e-08
2.907885341488899107e-08
2.159491841789272689e-08
1.514062965665222780e-08
1.078582966118459946e-08
7.711944520891093570e-09
5.557560081582338539e-09
4.062246833508949635e-09
3.018118137590713115e-09
2.284745672522442134e-09
1.756613344781923249e-09
1.364821624043212747e-09
1.065088505626264800e-09
8.288758055755448901e-10
6.390112154942249926e-10
4.852194306147381420e-10
3.612538968211881477e-10
