# bin_9_11
3.511624306532742561e-08
3.968756975087076849e-08
4.410905426472223304e-08
4.801798631347016065e-08
5.093420060106587757e-08
5.228363821359358245e-08
5.161034431041598316e-08
4.824788266024578279e-08
4.262492837385158655e-08
3.564793840123933778e-08
2.917226206629251968e-08
2.461486994669990649e-08
2.126023609087789913e-08
1.667563736280069867e-08
1.156806169335929932e-08
9.153483776669688135e-09
6.540903690969061653e-09
4.714459327531079684e-09
3.233320011145023523e-09
2.290308180483502663e-09
1.586994962361176808e-09
1.097472142003981059e-09
7.644555854378081319e-10
5.375564063676995756e-10
3.842672300045966671e-10
2.800602251032658812e-10
2.080995555859456579e-10
1.574439175435547339e-10
1.206841362885479464e-10
9.310351820731713839e-11
7.175129072929545090e-11
