# bin_7_9
5.148542858786656580e-08
5.760369723170149873e-08
6.324409957665802758e-08
6.781945030796397213e-08
7.059049278065079995e-08
7.089360455877584854e-08
6.784039830100208322e-08
6.129779840551181474e-08
5.237231331741757456e-08
4.299772745350421394e-08
3.562601672381443178e-08
3.072390103870588114e-08
2.549530139166237126e-08
1.829082058420066222e-08
1.347741003171079647e-08
1.056558237247893440e-08
7.165557185107294413e-09
5.282210504359452610e-09
3.713218528216071263e-09
2.589555458508355065e-09
1.820190296752519925e-09
1.287957729100850318e-09
9.228232604629374915e-10
6.717159492928453457e-10
4.986836971261041872e-10
3.768621809198813701e-10
2.889836209459255585e-10
2.236279908894365493e-10
1.734022128398400182e-10
1.337712838960362298e-10
1.020162737006766382e-10
