# bin_3_15
3.700020602656302860e-07
3.953931381925867544e-07
4.101528345891353568e-07
4.102935120380241406e-07
3.912469512460952753e-07
3.528319104446460383e-07
3.013737003139362774e-07
2.481908078588111688e-07
2.061332536418949097e-07
1.765024991569474873e-07
1.450670012352440136e-07
1.059974672727445357e-07
7.861679954896707635e-08
6.070941760490375693e-08
4.290844727715204208e-08
3.161513777976212944e-08
2.271455018290312052e-08
1.646721547366681970e-08
1.205823390293736430e-08
8.955021877544819228e-09
6.765862995835239259e-09
5.198970829798485634e-09
4.054031448144035376e-09
3.189068884807594405e-09
2.513814699054475770e-09
1.972020604140654559e-09
1.529339254329680444e-09
1.165860494683503717e-09
8.696708089892026067e-10
6.327237317210325334e-10
4.483114781484492070e-10
