# bin_5_1
2.917583901576530392e-16
3.140975576864477305e-16
3.287810869882768184e-16
3.325019164476334008e-16
3.215852582735486036e-16
2.939462590834654152e-16
2.541213059408249374e-16
2.097274400641313599e-16
1.726175693542585062e-16
1.476928867217080930e-16
1.248177271017901787e-16
9.271024364039087078e-17
6.650845230370356497e-17
5.318293412022214572e-17
3.677440848170931107e-17
2.762274942948469115e-17
1.957918943716644264e-17
1.413171182616115091e-17
1.029777265152998744e-17
7.591755305092322114e-18
5.690720176952061631e-18
4.339370075523000267e-18
3.364291536173089111e-18
2.637766469972994293e-18
2.077966521863374957e-18
1.633526457038878134e-18
1.272536069629172684e-18
9.764284407713123271e-19
7.342311989287912685e-19
5.389484665471131985e-19
3.852854865542271595e-19
