# bin_11_1
1.676002233109540588e-32
1.885052461080567534e-32
2.082882098038370542e-32
2.251256944342510995e-32
2.366673067673658566e-32
2.404010501269811106e-32
2.338344469796878504e-32
2.148352282854956775e-32
1.866451609358267257e-32
1.542617727162670631e-32
1.266498138659993899e-32
1.083176037875270124e-32
9.241958723508030452e-33
6.903915296180677683e-33
4.856957983814898340e-33
3.932210888691682623e-33
2.647599037000666563e-33
1.992802131233179015e-33
1.363146140052518781e-33
9.501015379944500045e-34
6.657484390749084044e-34
4.667965742842988696e-34
3.298506305441344598e-34
2.360111761578349505e-34
1.721745751794987508e-34
1.280470393609748902e-34
9.692086826468185687e-35
7.438924518511227628e-35
5.751971142950778064e-35
4.448332487883297047e-35
3.416170021348236327e-35
