# bin_14_12
1.282485370006555845e-11
1.466958440488302679e-11
1.655371509729009115e-11
1.835744402387481029e-11
1.992439637360067185e-11
2.104992493169331494e-11
2.149804814856315113e-11
2.107210443387634306e-11
1.952205165446420102e-11
1.709911979204518846e-11
1.419775730970312054e-11
1.162777778727937047e-11
9.891379566323414942e-12
8.514371215445883483e-12
6.496204840288523277e-12
4.500939989685754488e-12
3.640232816350155517e-12
2.479053855551192758e-12
1.843618780057016207e-12
1.232477772500654133e-12
8.506851733368491981e-13
5.809999734763374859e-13
3.933398424872810056e-13
2.651562908733376361e-13
1.788415109463606999e-13
1.218939712647204868e-13
8.426788549477574257e-14
5.935242903960012849e-14
4.275131443615672417e-14
3.149946647706381523e-14
2.367321058679832543e-14
