# bin_8_5
7.237199239676513598e-13
8.091244136958028808e-13
8.875473056902908937e-13
9.506775344517785921e-13
9.880658418086950239e-13
9.906836200762482456e-13
9.455870210661147103e-13
8.520573117394324380e-13
7.258429222480352680e-13
5.950878708931115967e-13
4.937630279762860520e-13
4.266409263588994860e-13
3.525617313386113737e-13
2.507202295463634160e-13
1.863910173909445849e-13
1.454033310997634433e-13
9.861679294042962025e-14
7.240931768734988708e-14
5.123906555089416180e-14
3.573988873410824922e-14
2.512106033948975801e-14
1.780208791616239375e-14
1.278889280240926691e-14
9.339390358149144984e-15
6.956069821829217253e-15
5.272428789816600673e-15
4.052851327724328113e-15
3.141320521589364449e-15
2.437476640196223364e-15
1.879985444524212387e-15
1.432258647144542405e-15
