# bin_11_5
2.648445832879964429e-17
2.990669659007353473e-17
3.320375498625995133e-17
3.609968597142814799e-17
3.823028312242675943e-17
3.916399253694522848e-17
3.855894992355710650e-17
3.592460823866985437e-17
3.163660954415086626e-17
2.638079975229074305e-17
2.158638364943148896e-17
1.826663067893035426e-17
1.576888319432392777e-17
1.225022260345602653e-17
8.478749903552025741e-18
6.780244948175231947e-18
4.765290505117439682e-18
3.485373711900133011e-18
2.367916342964674328e-18
1.675834403510199582e-18
1.164832970182830819e-18
8.083759073416940659e-19
5.649025543273528500e-19
3.986400865686188233e-19
2.862278331339205946e-19
2.095612526422322052e-19
1.564024736986688697e-19
1.187734211574745719e-19
9.128247893282364804e-20
7.051422089862387284e-20
5.434149959868542673e-20
