# bin_6_2
1.434949314400119108e-15
1.569505971671863557e-15
1.675741807531997737e-15
1.735183495156945344e-15
1.732328354724527986e-15
1.644626067012621007e-15
1.474746473172902490e-15
1.250675231968978392e-15
1.024664666287785172e-15
8.530280270364355911e-16
7.365681864700761066e-16
6.018547683496338987e-16
4.267166721082094382e-16
3.222651222754809164e-16
2.476907680110166964e-16
1.719356814184644293e-16
1.257154493637244715e-16
9.044444588736150176e-17
6.446963264291098575e-17
4.646510943396090542e-17
3.394962904790403423e-17
2.522538280421355992e-17
1.907934820736789496e-17
1.467837985692902247e-17
1.142836685085552357e-17
8.951207688840593409e-18
7.004537609671770381e-18
5.437918213873594956e-18
4.163039094095357611e-18
3.127015704112432627e-18
2.295620072516870521e-18
