# bin_12_10
1.262077156022436782e-11
1.437194783844032819e-11
1.612573990200545078e-11
1.776017636686217561e-11
1.911318553617148000e-11
1.997882274139401842e-11
2.016037934121665920e-11
1.941238030032815634e-11
1.763967312595703937e-11
1.515422821860191096e-11
1.245607823647672080e-11
1.028026491601376113e-11
8.861735758624730461e-12
7.445335529247241756e-12
5.382105273382370434e-12
3.888681807633330710e-12
3.108215396966276357e-12
2.057269590704683023e-12
1.534529528858594250e-12
1.055892022565922512e-12
7.187226382504398187e-13
4.916179393210675023e-13
3.347892528029687559e-13
2.289829919033734160e-13
1.578437011178809071e-13
1.105612676895346368e-13
7.887401200437754019e-14
5.747076922029224830e-14
4.276646142350227113e-14
3.239010673918254235e-14
2.481621124483322373e-14
