# bin_5_5
8.161475711647242244e-11
9.001142794773886294e-11
9.709738390589398320e-11
1.018552689538348047e-10
1.032339904248447363e-10
1.001218182285447316e-10
9.173963437989028960e-11
7.949238817056182187e-11
6.564031922311385201e-11
5.395539381552471693e-11
4.616691570201541313e-11
3.920634158638946766e-11
2.917739312658888120e-11
2.072940613253327723e-11
1.668829588295614497e-11
1.137947405938179415e-11
8.562817623310180981e-12
5.970341148579475263e-12
4.242063126031789864e-12
3.037432804056411646e-12
2.190514001227874909e-12
1.601557195765194826e-12
1.190163653537395012e-12
9.014212497873661399e-13
6.934756909710842357e-13
5.391852657977407383e-13
4.210928317300821623e-13
3.279431783854178341e-13
2.529919441121529671e-13
1.922122328886828319e-13
1.431689841131199437e-13
