# bin_12_2
5.296285088252831597e-30
5.982080098857644847e-30
6.643498558316386857e-30
7.225500440165064614e-30
7.655354645882797998e-30
7.846560420620202438e-30
7.730925285439240286e-30
7.209237275055874262e-30
6.354135801081235902e-30
5.302258499659963871e-30
4.338403941282211490e-30
3.668468475511416298e-30
3.167884941708664065e-30
2.467295819213054742e-30
1.707769309529962709e-30
1.362672883073423715e-30
9.615866288027832858e-31
7.009241419438869558e-31
4.768951815558028833e-31
3.377707079252846893e-31
2.345985465995751549e-31
1.626589310097923654e-31
1.135809234409707534e-31
8.008222322157984052e-32
5.743791657906965299e-32
4.200681494277452003e-32
3.131848556950680291e-32
2.376325406574429850e-32
1.825271078450990523e-32
1.409658939293293274e-32
1.086448586798042698e-32
