# bin_10_1
5.608547295345261359e-30
6.280569993929390466e-30
6.902960653272644927e-30
7.412170601299561200e-30
7.727833695035657093e-30
7.776339826086009226e-30
7.460631480039996791e-30
6.756836397038427007e-30
5.785689264551745020e-30
4.751095451148312118e-30
3.928776395935959575e-30
3.388178330024888931e-30
2.828304425042510102e-30
2.034689072106921750e-30
1.487303749496225300e-30
1.178079075732743021e-30
7.916688383966744302e-31
5.887528000368827314e-31
4.127246914619146576e-31
2.872186868256464432e-31
2.017252696808095820e-31
1.424768324177333894e-31
1.018945369572448973e-31
7.401136969200194046e-32
5.483583430940773309e-32
4.137087030576928344e-32
3.168748085816107513e-32
2.451009683699343912e-32
1.901002876816033974e-32
1.467820935943125303e-32
1.120913292718676798e-32
