# bin_13_13
3.401540962475561795e-11
3.890435044064307365e-11
4.389577323546357981e-11
4.867158112079180824e-11
5.281651478147029744e-11
5.578752992079587093e-11
5.696033618739650411e-11
5.581095892934248102e-11
5.168293449820758398e-11
4.524937940869770322e-11
3.756085513571439855e-11
3.076475689064623688e-11
2.617965597473473316e-11
2.252757409884303347e-11
1.716652453034242033e-11
1.189916569394092182e-11
9.628536789307820041e-12
6.546552346726470240e-12
4.873580296502876352e-12
3.258932335956364518e-12
2.247585493250582982e-12
1.535405594604076805e-12
1.039768993995594231e-12
7.011243677139626875e-13
4.730924664836358580e-13
3.226381026510754327e-13
2.232041577732790224e-13
1.573361060145767822e-13
1.134223139126577980e-13
8.363378710998038641e-14
6.289203011403617811e-14
