# bin_9_6
1.050365208687004297e-12
1.181163929203753917e-12
1.304837143406445082e-12
1.409935103697086925e-12
1.481715072407708711e-12
1.504502807547523774e-12
1.462569714000065316e-12
1.342848676139632459e-12
1.165884183104857271e-12
9.632039270650501583e-13
7.909395391807732433e-13
6.767945621285144141e-13
5.771042244765628449e-13
4.302780541084729635e-13
3.029929545615620482e-13
2.454102467855331795e-13
1.649132644903976098e-13
1.242776043800277748e-13
8.506282359740777994e-14
5.924312124877710143e-14
4.152719969486250554e-14
2.913018780469693674e-14
2.059521669971084621e-14
1.474601647684741638e-14
1.076560993199006200e-14
8.012268080739385799e-15
6.068503752321317894e-15
4.659928954471026325e-15
3.604112604968376568e-15
2.787364729241593004e-15
2.140232456947630544e-15
