# bin_15_5
6.320057413441180817e-08
5.876178827696449303e-08
5.319522854602693251e-08
4.682895534015606116e-08
4.009929173759526217e-08
3.348748569094050452e-08
2.741227468326299038e-08
2.211340204382962058e-08
1.761757706499038974e-08
1.380199646603210011e-08
1.056404982383610981e-08
7.932036124394262096e-09
5.944466593192553367e-09
4.466497718944201979e-09
3.339785485078933039e-09
2.515879872078406930e-09
1.908286669439741976e-09
1.460294560089952971e-09
1.125908870389651311e-09
8.728410649204726280e-10
6.779816184269347567e-10
5.255352217836069893e-10
4.048809910972974931e-10
3.088345829619014801e-10
2.324694179861445564e-10
1.722266829157764320e-10
1.253338614817576865e-10
8.947766129044602654e-11
6.263042253380120037e-11
4.298653971464519493e-11
2.895273923459170652e-11
