# bin_11_8
7.475867382153337070e-08
7.071766235614982887e-08
6.523849371517272761e-08
5.859110718732566017e-08
5.118881184943239170e-08
4.354163335820598420e-08
3.617146106680096038e-08
2.949175701226863923e-08
2.370452827568269625e-08
1.879657473157017981e-08
1.463680317465775933e-08
1.114337298488719419e-08
8.345934844105498383e-09
6.242200615783898141e-09
4.671340138739158706e-09
3.481436975046687513e-09
2.612804350454048594e-09
1.972515135317305313e-09
1.501259100056683344e-09
1.150225527019048084e-09
8.854451953737173847e-10
6.826211988421857180e-10
5.250669729240359782e-10
4.014540077297135980e-10
3.040160499550502640e-10
2.273434147240047010e-10
1.674734903918896392e-10
1.213124106716295319e-10
8.630878643497277722e-11
6.027893144452990584e-11
4.133022570863445901e-11
