# bin_8_1
2.209624141963468924e-08
1.883366157514791082e-08
1.567937148650938759e-08
1.281214482873207458e-08
1.032242460513319774e-08
8.206830779841171025e-09
6.413479813755251756e-09
4.912367341886759484e-09
3.713807296503941394e-09
2.807666180825190857e-09
2.129540845835952460e-09
1.619340696609284026e-09
1.242392915480251082e-09
9.628829901886782124e-10
7.533068539429678233e-10
5.935772852890414470e-10
4.692919502925816831e-10
3.705953534740384337e-10
2.909541032060475992e-10
2.261155336674958155e-10
1.732897804308796016e-10
1.305620720219872814e-10
9.648663268540033241e-11
6.983635207261137682e-11
4.947531302309069718e-11
3.431543538648665327e-11
2.332527445813622219e-11
1.556395949362058639e-11
1.021591042097075000e-11
6.611309041161012814e-12
4.228037149855449175e-12
