# bin_11_5
6.021910704887297633e-08
5.580905409591936521e-08
5.036006843398705566e-08
4.419874220500547979e-08
3.774689890626706739e-08
3.145713927957781870e-08
2.571012282414994102e-08
2.071248500645275608e-08
1.647487091291684927e-08
1.288131937502383453e-08
9.844498201966375734e-09
7.391265598959776642e-09
5.542835421495288322e-09
4.165866877716374324e-09
3.118697241541144294e-09
2.352958103181209585e-09
1.787596722710947124e-09
1.370084467135431090e-09
1.057738145652170099e-09
8.206965983043519373e-10
6.376841657856959108e-10
4.941839267543530443e-10
3.804379645619596969e-10
2.898361643002012020e-10
2.178221294884987081e-10
1.610740507089679124e-10
1.169778899803360586e-10
8.333409419026987727e-11
5.820606480735436107e-11
3.986839696784123315e-11
2.680210163354922949e-11
