# bin_7_1
2.172784994734247256e-08
1.850758582799376361e-08
1.539993195297389586e-08
1.257873324737596953e-08
1.013066656479424630e-08
8.051044169932237477e-09
6.288980462405848517e-09
4.815643420215873526e-09
3.640726034466511433e-09
2.752872641156861305e-09
2.088346068016276340e-09
1.588502588526956562e-09
1.219191774145510591e-09
9.452304403270886669e-10
7.397090230627805614e-10
5.829632888325242063e-10
4.609163780225275009e-10
3.639421723601509482e-10
2.856626901637750542e-10
2.219259783491225840e-10
1.700052357533944850e-10
1.280242631872278336e-10
9.456137425299508955e-11
6.840624512763205243e-11
4.843691879206580764e-11
3.357885664202075030e-11
2.281458974280377251e-11
1.521740098571649311e-11
9.985233307052484287e-12
6.460331751538909348e-12
4.130624207943140393e-12
