# bin_14_4
5.510527459659503438e-08
5.058157292532952146e-08
4.517245771417075972e-08
3.922515322228817453e-08
3.316183464869780313e-08
2.740476271097474618e-08
2.226221108914969378e-08
1.785529816914724428e-08
1.412543460003501984e-08
1.094970348700558672e-08
8.294477399703698611e-09
6.216915914599706388e-09
4.678215256779305677e-09
3.513091798945318734e-09
2.640794692645175475e-09
2.004161264825073618e-09
1.532466876648381557e-09
1.182264318924446850e-09
9.182562583888582156e-10
7.157379108581049120e-10
5.576371956092093858e-10
4.324336511051027519e-10
3.324235143603476631e-10
2.523973602332758444e-10
1.887135542673988865e-10
1.386262409932434452e-10
9.988936954285524992e-11
7.054324793998892261e-11
4.882043343251833483e-11
3.313023386939638096e-11
2.207339183793243589e-11
