# bin_4_2
2.852819212666113537e-08
2.486871506401803648e-08
2.111859008460750097e-08
1.752532604323982208e-08
1.428105173816294923e-08
1.147690188213691651e-08
9.102139072210877956e-09
7.094925179828659108e-09
5.419930892756094200e-09
4.088552394553858408e-09
3.087583794877465447e-09
2.338413849374116664e-09
1.773855111999727790e-09
1.358031368824292436e-09
1.049268001777106991e-09
8.180033987624574805e-10
6.419356831934838310e-10
5.052959131753271496e-10
3.972160210128341173e-10
3.104503705526492854e-10
2.402299346496609140e-10
1.833747935685136903e-10
1.376688695901432332e-10
1.014248228998995743e-10
7.321937316169407391e-11
5.175960723724269254e-11
3.583457698448143866e-11
2.431934518654109594e-11
1.620377061126795939e-11
1.062110285574816499e-11
6.864120800470442914e-12
