# bin_14_11
8.830151932832495990e-08
8.476673227151822564e-08
7.945429956518383650e-08
7.256893292594920470e-08
6.449304961973872289e-08
5.575969691918940768e-08
4.697961356810194727e-08
3.872571072769685000e-08
3.138845613554320748e-08
2.509828027040247431e-08
1.976765274606941942e-08
1.524915363365784918e-08
1.150468089421621781e-08
8.581557842288837894e-09
6.406958999915268645e-09
4.766656941591967586e-09
3.540333129742227774e-09
2.648857739729071212e-09
1.992052417636028639e-09
1.509576135006269947e-09
1.150978657721276972e-09
8.809578412390830773e-10
6.747738688794745800e-10
5.153890586753895346e-10
3.911475983416000126e-10
2.939926435121944663e-10
2.182390518411851831e-10
1.596552055786697190e-10
1.149205575597007956e-10
8.131124248377346107e-11
5.652847114295168004e-11
