# bin_5_5
4.833730376604320242e-08
4.404573509508700648e-08
3.906941561443570205e-08
3.372870648674648661e-08
2.838709046117448007e-08
2.338245192141059473e-08
1.894326551946926724e-08
1.514454924139894658e-08
1.193360610381832331e-08
9.222923293049712149e-09
6.986545216562045714e-09
5.244759583099684585e-09
3.948693191786638451e-09
2.972277424520095455e-09
2.241292022967844757e-09
1.706144179435973739e-09
1.308444121710936483e-09
1.011803704469384134e-09
7.869034075879158290e-10
6.134632315932565506e-10
4.774830128271726984e-10
3.695163012001353002e-10
2.832238858371198781e-10
2.142703010546558940e-10
1.595637515622489473e-10
1.167200511851688995e-10
8.375245785942590758e-11
5.891210964683067170e-11
4.062398446414247059e-11
2.748173436182163512e-11
1.826227481529650968e-11
