# bin_13_1
2.315420527302227625e-08
1.977010208454840724e-08
1.648188039147083801e-08
1.348246880860120775e-08
1.087312604957400576e-08
8.654227725276577252e-09
6.771024355057857267e-09
5.190144865536835345e-09
3.923686364293512444e-09
2.965025484575499279e-09
2.247846373663517181e-09
1.707903311243102872e-09
1.309023220345493249e-09
1.013578523105833815e-09
7.923578155872098590e-10
6.240591105038600916e-10
4.933453546327123127e-10
3.897023109228042533e-10
3.061502704518679710e-10
2.381473335166984517e-10
1.827225264850902356e-10
1.378503038872681703e-10
1.020157092653544594e-10
7.394342446179406691e-11
5.245744148657340336e-11
3.643079139616446216e-11
2.479189349358851024e-11
1.655923006444008422e-11
1.087838500070147056e-11
7.044896209488269555e-12
4.507794511645446798e-12
