# bin_12_6
6.716302812586762650e-08
6.287013076092879394e-08
5.733980115510021822e-08
5.087777045355670904e-08
4.391096132194289589e-08
3.692983898792210967e-08
3.039481100884338578e-08
2.461236876543691065e-08
1.967524886037188195e-08
1.549587708148535941e-08
1.194804142950089079e-08
9.013021477291625325e-09
6.742225397421488579e-09
5.060846163546550327e-09
3.784681015837188957e-09
2.835868176114538905e-09
2.142924051960135908e-09
1.630725828592595663e-09
1.250956519500998536e-09
9.655952661833990729e-10
7.476626110556264176e-10
5.785618144037124163e-10
4.456660011266613423e-10
3.404245453974681222e-10
2.569769384067235737e-10
1.911684128720026720e-10
1.398451133617173740e-10
1.004470065329263251e-10
7.078242876417075563e-11
4.892643812573527694e-11
3.318902192043391837e-11
