# bin_14_8
1.246608095865562940e-15
1.421313309600378459e-15
1.597259233491530696e-15
1.762500482339052314e-15
1.901227759899593331e-15
1.993218358515788552e-15
2.018080062000386223e-15
1.952737157019429461e-15
1.783517550611027879e-15
1.540303246377076035e-15
1.269160813811050093e-15
1.045020384936027619e-15
8.983804743993705064e-16
7.607549261893967340e-16
5.573187861743287874e-16
3.969887184903138451e-16
3.204717957940397585e-16
2.118001603174116018e-16
1.591875051599747397e-16
1.085915331018276675e-16
7.389155405448388625e-17
5.059016784638985302e-17
3.440877032908903664e-17
2.344327321271317376e-17
1.606690362849704077e-17
1.117788175001711507e-17
7.913803809368264567e-18
5.721024640068950765e-18
4.226928996631915145e-18
3.183501949526471239e-18
2.430755066414096972e-18
