# bin_15_10
8.038876290165267366e-14
9.193116582786305078e-14
1.037088495385609499e-13
1.149692287280285228e-13
1.247287402248623795e-13
1.317027232581687843e-13
1.344243306612031040e-13
1.316368668096818892e-13
1.218241188007280825e-13
1.066019366235079854e-13
8.847178226597009151e-14
7.250193447307825586e-14
6.174916575807819667e-14
5.309636213286012490e-14
4.036795157042596956e-14
2.802149272406157934e-14
2.269363283952872011e-14
1.538466657222986425e-14
1.147607596991932955e-14
7.681935535610912384e-15
5.289489974787372695e-15
3.615724926554741712e-15
2.450265005018665620e-15
1.653563428478530250e-15
1.116923173588749962e-15
7.628212154819721385e-16
5.286209107762073129e-16
3.733244866903885529e-16
2.696402059481524737e-16
1.991675944475894563e-16
1.499736893321280976e-16
