# bin_12_7
9.198953504647997127e-15
1.044128500461586164e-14
1.166619731612439955e-14
1.278270414238635874e-14
1.366877473319961804e-14
1.417138664100395401e-14
1.416628094069399737e-14
1.345880097905990808e-14
1.207261587737028019e-14
1.023537089358589301e-14
8.383658785096952246e-15
6.986312867065622022e-15
6.050352493370992505e-15
4.944880028244716636e-15
3.470381941971784502e-15
2.626693495308490223e-15
2.005382831352424064e-15
1.367982763706423807e-15
9.778241167269153559e-16
6.902520033314472248e-16
4.730072169550225204e-16
3.235758755236880013e-16
2.224126724846863472e-16
1.541124578492281852e-16
1.081022451233547827e-16
7.722488953143229614e-17
5.625731832712444652e-17
4.183424417285563806e-17
3.166782745689142779e-17
2.427241589015943768e-17
1.870234429370003281e-17
