# bin_11_2
1.364459011765129019e-27
1.535957483352894072e-27
1.698886290479613578e-27
1.838521851311073204e-27
1.935798207213133357e-27
1.969858750082463830e-27
1.920951353775861870e-27
1.769950636859988181e-27
1.542169835321718696e-27
1.276925745315569685e-27
1.047738315120820018e-27
8.945629078152436823e-28
7.654980123520155311e-28
5.761172484128244895e-28
4.035265343651682344e-28
3.267540884911501924e-28
2.211915628287481516e-28
1.661219366038871755e-28
1.132878983186001612e-28
7.911942223828961994e-29
5.539882487502110473e-29
3.879541498877684186e-29
2.736158887845250057e-29
1.952772907789952601e-29
1.420672929468843666e-29
1.053749889164291781e-29
7.957401225121817172e-30
6.097332454682916317e-30
4.710636108139362746e-30
3.643052923339584417e-30
2.799941648063599060e-30
