# bin_9_9
4.485951760695637580e-11
5.077065493184878281e-11
5.652256858557232095e-11
6.165902970586574682e-11
6.557125722424157620e-11
6.751359531518485090e-11
6.691625627218287298e-11
6.286481143435378846e-11
5.580029482362350873e-11
4.684120885643944742e-11
3.832663079733619923e-11
3.222556939233954783e-11
2.789639802253078452e-11
2.216381869098907086e-11
1.536196108897187008e-11
1.204650951689588239e-11
8.769484919840129658e-12
6.228732059995577647e-12
4.291757810388313950e-12
3.054963900257724084e-12
2.109967975129819886e-12
1.453210996995815923e-12
1.008801104450345122e-12
7.065477694943985113e-13
5.025305032656902430e-13
3.643540529110571608e-13
2.693996400883684332e-13
2.030028016284357662e-13
1.552014062273005101e-13
1.196214415769362488e-13
9.225439882928446196e-14
