# bin_15_5
1.368969633757653957e-24
1.560354539802085425e-24
1.752830229305993399e-24
1.933252691470849644e-24
2.084203697295499951e-24
2.183440024152306056e-24
2.208848523651789995e-24
2.134706778726143039e-24
1.947245065765710649e-24
1.679529116174994611e-24
1.383103331502208979e-24
1.139594946713835498e-24
9.804301619151121855e-25
8.285792991938607490e-25
6.049156336587757741e-25
4.324981327541168866e-25
3.482976006787421279e-25
2.302415090610351769e-25
1.727484738671438521e-25
1.181109359934512927e-25
8.037376541603213039e-26
5.501698109184752906e-26
3.743168763469399290e-26
2.552947243065023459e-26
1.752376340077532281e-26
1.221386831257595784e-26
8.665120344107521183e-27
6.277635371362178343e-27
4.647300363761935436e-27
3.505548323600424060e-27
2.679247459974542206e-27
