# bin_4_2
5.784758118762721542e-12
6.201998247569403509e-12
6.458270795387904006e-12
6.491959270627453127e-12
6.225492913150899485e-12
5.641188128495797187e-12
4.835607206633504877e-12
3.977928326018125278e-12
3.290422498899067698e-12
2.827127900605659272e-12
2.355154327731281507e-12
1.715183555188576218e-12
1.257923945781804193e-12
9.923273215156748850e-13
6.871947655284588213e-13
5.135342105400613154e-13
3.676629499009480570e-13
2.654427868804122584e-13
1.940922919104708509e-13
1.438496356751078284e-13
1.084674390400473800e-13
8.319950031333242444e-14
6.481630002711360894e-14
5.098099020072093613e-14
4.021545767522704613e-14
3.159602721445582057e-14
2.455592242635458424e-14
1.876859745906257942e-14
1.404009809283353064e-14
1.024260868478877819e-14
7.274146630529666351e-15
