# bin_13_9
3.895464371148675588e-13
4.438611469985819595e-13
4.984024031700142467e-13
5.494219387644797642e-13
5.919456121354736701e-13
6.196330459123782537e-13
6.262784027074817169e-13
6.044441846805825402e-13
5.505948937114459086e-13
4.742194964359284366e-13
3.902790800073856496e-13
3.218000223379451447e-13
2.770889259737120120e-13
2.336610801773136095e-13
1.699331921791662855e-13
1.219949675046571047e-13
9.799082641608951578e-14
6.478539820258084629e-14
4.851901922157633443e-14
3.325718896563334697e-14
2.263162441486902298e-14
1.548834422396546530e-14
1.054147573918080684e-14
7.197868175542138231e-15
4.949129271307963084e-15
3.456463776866836840e-15
2.457726759260705192e-15
1.784729193812127194e-15
1.324050531357525875e-15
1.000442180506502288e-15
7.654307016263234002e-16
