# bin_2_1
1.040428659484614750e-10
1.059089004093858740e-10
1.034467432501180035e-10
9.579964807254020976e-11
8.394988024692795327e-11
7.006420421652373919e-11
5.761311411938001438e-11
4.870734199366494305e-11
4.138369995376956083e-11
3.204173476465604561e-11
2.302351441911626152e-11
1.794697405843582349e-11
1.312735221782425006e-11
9.618594913927317234e-12
7.008676267175822431e-12
5.159740778700631201e-12
3.827001995915736043e-12
2.884558776374558981e-12
2.214419695489270623e-12
1.729047247468787356e-12
1.368331512655225967e-12
1.090672265653163351e-12
8.691759145880190434e-13
6.875910994917491420e-13
5.363932562624030251e-13
4.102801230767723260e-13
3.063363396438398913e-13
2.226719422913357639e-13
1.574471489082513900e-13
1.084340444776391625e-13
7.292528726647436867e-14
