# bin_11_7
1.486933417099274766e-13
1.684164007450687450e-13
1.876743475533817126e-13
2.049670552349030274e-13
2.182874511221214061e-13
2.251561757732360421e-13
2.236737216644615799e-13
2.107450483672580881e-13
1.875729615905403328e-13
1.578419653986465345e-13
1.291613642666597082e-13
1.083435623569042239e-13
9.383524618879694919e-14
7.513358281360585903e-14
5.217571156385200826e-14
4.057104111812666958e-14
2.991521769459925611e-14
2.101308842359006765e-14
1.459409597532900486e-14
1.038742012368972122e-14
7.158303347600408749e-15
4.918159104581382671e-15
3.405425827218909297e-15
2.378522091400661449e-15
1.685721200517737979e-15
1.217662363198256600e-15
8.970410728698429227e-16
6.738257678455967270e-16
5.140000918037571368e-16
3.957181378632493833e-16
3.051953146401377919e-16
