# bin_14_10
5.802144855013201739e-13
6.626617161037849082e-13
7.463346543045843646e-13
8.257393713666755157e-13
8.936627092123141114e-13
9.407735266033945545e-13
9.569175734563397540e-13
9.323553449267995405e-13
8.579190392877911462e-13
7.464998120962515402e-13
6.174277924723832580e-13
5.068053610674276743e-13
4.335043579641740586e-13
3.706977326094441531e-13
2.772957484951993406e-13
1.941169253080507660e-13
1.576588188877472374e-13
1.051273119670327017e-13
7.908744688734656642e-14
5.329641166326589351e-14
3.640378226288605595e-14
2.492882588723451792e-14
1.693205428765394138e-14
1.147163520758017829e-14
7.795152184598495108e-15
5.366097492583951588e-15
3.753405678097150326e-15
2.678402143219979845e-15
1.954657576036257287e-15
1.457098641456701278e-15
1.104781877706790257e-15
