# bin_13_5
6.724403300313106266e-21
7.633784336381447867e-21
8.531103541626248563e-21
9.349937912762089638e-21
1.000121554789407153e-20
1.037316129693524326e-20
1.037435962728412627e-20
9.862732930267908157e-21
8.852436381016382499e-21
7.509963634345509205e-21
6.152107590959268880e-21
5.124157356890208707e-21
4.437182253740968808e-21
3.631849360454828360e-21
2.551881701526281085e-21
1.927150050460289422e-21
1.475070422584398933e-21
1.004240950668344777e-21
7.195504437164484979e-22
5.073786918169678154e-22
3.475534192619409261e-22
2.377223057693165828e-22
1.633108991181352004e-22
1.130882808523274826e-22
7.926014939320231423e-23
5.656957229793239715e-23
4.117150165982414300e-23
3.058924938422042027e-23
2.313937718221510642e-23
1.772771758673406545e-23
1.365736550668507987e-23
