# bin_3_2
7.327952108622190071e-11
7.748032081475896164e-11
7.932027391416238895e-11
7.804551707047536967e-11
7.280764137941132647e-11
6.422594736154156937e-11
5.376387534269481244e-11
4.408462253353477511e-11
3.715753289404367108e-11
3.186838950714828139e-11
2.500307670434537023e-11
1.771694965061248822e-11
1.385884809464630469e-11
1.015420522602676891e-11
7.382678899661642712e-12
5.324611912420017290e-12
3.889772832418887099e-12
2.842462888402214576e-12
2.105198603134310889e-12
1.586430099260630581e-12
1.216663017422285163e-12
9.482148253769475926e-13
7.473698393372616247e-13
5.916835038116063181e-13
4.672303458433172751e-13
3.654788066047798965e-13
2.814319935493118502e-13
2.122402834777501365e-13
1.561491070755190671e-13
1.118212588962176273e-13
7.793187439332424798e-14
