# bin_7_8
-9.956190001091520369e-09
-1.118881819030794966e-08
-1.235074640426867658e-08
-1.333274641488229566e-08
-1.399464528361828685e-08
-1.419047701959532293e-08
-1.376741237368190305e-08
-1.261306639273439607e-08
-1.092720399564794275e-08
-9.017452107332128088e-09
-7.411191862514722470e-09
-6.350853614813588562e-09
-5.400409666930183798e-09
-4.002613808455796392e-09
-2.832035646241034801e-09
-2.290646889861476350e-09
-1.535085749048941036e-09
-1.157340041492431551e-09
-7.947977813664215369e-10
-5.529755079170035452e-10
-3.878375624986036935e-10
-2.723514529123349079e-10
-1.929085128099795240e-10
-1.384348960982222850e-10
-1.013172364697469642e-10
-7.558060898346108751e-11
-5.735760685731330028e-11
-4.410387167009236461e-11
-3.413212830710857058e-11
-2.639358114569381058e-11
-2.024947161368320863e-11
