# bin_4_3
-1.368812218266731779e-08
-1.479535693943168565e-08
-1.556519813567317575e-08
-1.583342376380054120e-08
-1.544097119088096225e-08
-1.424356087538982897e-08
-1.242513932086585941e-08
-1.030770629533281147e-08
-8.457706172690381621e-09
-7.193260552829146916e-09
-6.140247833077603037e-09
-4.669917286675937552e-09
-3.301586789612741687e-09
-2.639049319574301188e-09
-1.853027962163843862e-09
-1.379479775890563748e-09
-9.734124295645019405e-10
-7.044617085633900722e-10
-5.111317719710604517e-10
-3.747045189358079801e-10
-2.791809692728232391e-10
-2.115765800544348412e-10
-1.631487197972527694e-10
-1.274215663629600515e-10
-1.001697924732698343e-10
-7.873246667814344683e-11
-6.143713218678879028e-11
-4.729718338840275026e-11
-3.573219299052395618e-11
-2.638088537302525335e-11
-1.898113021666900931e-11
