# bin_8_10
-3.205709490290070413e-09
-3.628239661610315108e-09
-4.039460725602054983e-09
-4.406792642844279989e-09
-4.686758598341422660e-09
-4.826036556687858392e-09
-4.784044353665554203e-09
-4.495229306666981625e-09
-3.990326165176695695e-09
-3.349621160211309964e-09
-2.739778008582579957e-09
-2.302375204269186039e-09
-1.993253561426219907e-09
-1.585252705572816820e-09
-1.098451552579867085e-09
-8.603403022645392149e-10
-6.274060812385701211e-10
-4.448177643927795764e-10
-3.067389735016094713e-10
-2.183474878654562799e-10
-1.507405160496268576e-10
-1.037667514919410470e-10
-7.199998234290736051e-11
-5.040097886185721698e-11
-3.582486769164824259e-11
-2.595772682284292510e-11
-1.918102136358696679e-11
-1.444604352343099077e-11
-1.104029786843671090e-11
-8.507687445082073008e-12
-6.561264829158978708e-12
