# bin_8_15
-1.527532396547580379e-14
-1.744039636791719483e-14
-1.963484420297675658e-14
-2.171360202074801811e-14
-2.348616798354602596e-14
-2.470662071432113134e-14
-2.510970762174927260e-14
-2.443715780475642586e-14
-2.245625823123273686e-14
-1.951303211533293508e-14
-1.612366418906221775e-14
-1.323573801918687171e-14
-1.132846706136774813e-14
-9.675427082429102363e-15
-7.214265462721206073e-15
-5.058300638156024280e-15
-4.108049309179404297e-15
-2.732399300999148064e-15
-2.057036830674244319e-15
-1.388032125632635293e-15
-9.471695371131815134e-16
-6.485717012178940465e-16
-4.405692115548890424e-16
-2.986821650538337009e-16
-2.031707134157103560e-16
-1.400520436629496475e-16
-9.811999153411374647e-17
-7.014236363598379875e-17
-5.127809681325776329e-17
-3.828258212533437112e-17
-2.905731985190844852e-17
