# bin_1_5
-6.607818931467436721e-14
-7.113629364837551158e-14
-7.445994660367554510e-14
-7.530006622951420127e-14
-7.282518537747764844e-14
-6.656294224831869249e-14
-5.754237037916787737e-14
-4.748894160863545466e-14
-3.908683579451380914e-14
-3.344396807998673387e-14
-2.826214225250962070e-14
-2.099005428670079316e-14
-1.505941675563820687e-14
-1.204170545597879319e-14
-8.326400967749934004e-15
-6.254347434720079041e-15
-4.433364893880586483e-15
-3.199899745205793534e-15
-2.331815712260220281e-15
-1.719105729075600586e-15
-1.288660628839996609e-15
-9.826300232605147175e-16
-7.618233634042489782e-16
-5.972868986768617027e-16
-4.705001104249949011e-16
-3.698402825318599314e-16
-2.880821105559553968e-16
-2.210224121409472223e-16
-1.661771075837884652e-16
-1.219613202693477778e-16
-8.717461029629581358e-17
