# bin_2_10
-7.799117561670708074e-23
-8.742099067492351682e-23
-9.619782194287866704e-23
-1.034452960209910849e-22
-1.080512962810055142e-22
-1.089596194695454288e-22
-1.048564990297891749e-22
-9.525438467912637393e-23
-8.181798966202754778e-23
-6.726107435763707347e-23
-5.551449169031626318e-23
-4.780953215232381722e-23
-4.013353456812190010e-23
-2.908613719863695640e-23
-2.105608015380417890e-23
-1.681050256250517724e-23
-1.125367698366293248e-23
-8.422480073340809387e-24
-5.870820656786711643e-24
-4.081649174831252585e-24
-2.865944106801174096e-24
-2.020713075511614904e-24
-1.441433069438133275e-24
-1.043645817136367712e-24
-7.708364391216439950e-25
-5.799135868879691222e-25
-4.431786682149312786e-25
-3.423307432396764044e-25
-2.654066773372209082e-25
-2.050369812594684179e-25
-1.567829258772542853e-25
