# bin_5_5
-2.073130455657987679e-08
-2.286418403108632544e-08
-2.466408348428928601e-08
-2.587258345557316895e-08
-2.622256933261130049e-08
-2.543205765147170489e-08
-2.330269100209564989e-08
-2.019171765886686654e-08
-1.667311793780273567e-08
-1.370508527388208982e-08
-1.172683226912116000e-08
-9.958613127992724119e-09
-7.411156523611514481e-09
-5.265458838143126282e-09
-4.238947536397165138e-09
-2.890520144154514487e-09
-2.175047913726744631e-09
-1.516568608102629528e-09
-1.077572703882663233e-09
-7.715782654860709344e-10
-5.564450413525711071e-10
-4.068429617872533903e-10
-3.023259664493101257e-10
-2.289780429582648172e-10
-1.761511302798557774e-10
-1.369529157042050009e-10
-1.069513812627923907e-10
-8.328697569940183184e-11
-6.424650391981446450e-11
-4.880713079063172267e-11
-3.635016468574627305e-11
