# bin_7_4
-1.190278302202429152e-10
-1.320945459990286897e-10
-1.435907298553728336e-10
-1.520792382259506587e-10
-1.558610161646245650e-10
-1.535608501396660573e-10
-1.432555820430113244e-10
-1.263179319880869237e-10
-1.054882041201858270e-10
-8.631886806835086275e-11
-7.289729787135900941e-11
-6.288286960730518983e-11
-4.912963725176209978e-11
-3.416650884715414582e-11
-2.714327314125752196e-11
-1.939056927384719157e-11
-1.413182292699054101e-11
-9.810415050165011309e-12
-7.047864826488815423e-12
-4.996659632015285274e-12
-3.558811839510247716e-12
-2.567659643799819843e-12
-1.880270578249907761e-12
-1.403156769548691353e-12
-1.066062477911908217e-12
-8.213506988321621664e-13
-6.384286762231833135e-13
-4.971515637275572844e-13
-3.851066746097605934e-13
-2.948385394248734159e-13
-2.219423108945214267e-13
