# bin_9_4
-7.311220242536672313e-14
-8.187264204860396698e-14
-8.998595055495560714e-14
-9.662363498417093607e-14
-1.007380672990717562e-13
-1.013695937156212716e-13
-9.725230400276732789e-14
-8.807240944788934640e-14
-7.540949003254026719e-14
-6.191964527827691670e-14
-5.120101566595344714e-14
-4.416124628527487400e-14
-3.686588717654831437e-14
-2.651159799450415900e-14
-1.938014536234474785e-14
-1.535637431871811040e-14
-1.031300351484787794e-14
-7.673121416825525970e-15
-5.379969158470534277e-15
-3.743496964701453167e-15
-2.629259966142259998e-15
-1.857040110066442084e-15
-1.328243539536039364e-15
-9.648669424638027191e-16
-7.149878842841714374e-16
-5.394883392980122237e-16
-4.132551238146422941e-16
-3.196739389517633611e-16
-2.479473667417164248e-16
-1.914456535060400599e-16
-1.461913394585180554e-16
