# bin_8_6
-2.498012357252008716e-09
-2.800146392612641218e-09
-3.081411219845186188e-09
-3.313745469251235222e-09
-3.461535856008413262e-09
-3.490911706978352920e-09
-3.359832974247415037e-09
-3.052485345769116170e-09
-2.622193751692930150e-09
-2.155718468850164856e-09
-1.779102571508067779e-09
-1.532120681772020232e-09
-1.286422454441240599e-09
-9.325287750725515017e-10
-6.748116980050794109e-10
-5.389626984078242492e-10
-3.606958459719624016e-10
-2.700529693238046220e-10
-1.881962327256006649e-10
-1.308295949452790631e-10
-9.186307112062411894e-11
-6.476635008399089773e-11
-4.619527436870548130e-11
-3.344305121160186083e-11
-2.469826969694996108e-11
-1.857909427867113115e-11
-1.419734280827828076e-11
-1.096619328763190181e-11
-8.501966042768779525e-12
-6.568285833901822593e-12
-5.022765759777605615e-12
