# bin_1_6
-1.606967524237881441e-16
-1.749624682476805285e-16
-1.857436827493789144e-16
-1.909814766573405603e-16
-1.889897765233235711e-16
-1.773696682738814440e-16
-1.573126376201784276e-16
-1.320855267687567896e-16
-1.081007234321434760e-16
-9.077643394494294361e-17
-7.832469505617894028e-17
-6.227510328570754962e-17
-4.365666340115383176e-17
-3.404565415756123309e-17
-2.512781945436022601e-17
-1.801030964408018537e-17
-1.285296900903013605e-17
-9.323727868592700702e-18
-6.695251170922525611e-18
-4.854479806540605556e-18
-3.575063216422249758e-18
-2.677952507982941489e-18
-2.042302338617824513e-18
-1.581790161910993711e-18
-1.237208163991505528e-18
-9.710760339985469890e-19
-7.594848599846237862e-19
-5.879093476983121749e-19
-4.478438468182802304e-19
-3.341477696408346017e-19
-2.433435983878040088e-19
