# bin_7_5
-2.169057048995551940e-09
-2.415194442964234543e-09
-2.636130616097853160e-09
-2.806202161836207984e-09
-2.893878071834011437e-09
-2.874312659822031712e-09
-2.708828824801281935e-09
-2.411566876010519005e-09
-2.030468745578190576e-09
-1.661303425309323050e-09
-1.391668266826518643e-09
-1.203856565417479625e-09
-9.660176682563312909e-10
-6.743290434443787792e-10
-5.220792736490038492e-10
-3.883442867007427269e-10
-2.735700413584525497e-10
-1.936226148565885338e-10
-1.391066755312418316e-10
-9.786097588109150075e-11
-6.916647125505686743e-11
-4.950292008568473409e-11
-3.594953975853215170e-11
-2.658131954612643377e-11
-2.002992679615831537e-11
-1.533151342494998862e-11
-1.186767586030512694e-11
-9.228990061629894725e-12
-7.158395579942593731e-12
-5.500501405750977893e-12
-4.163477077091265135e-12
