# bin_14_9
-1.133436582174783957e-11
-1.293211836428561021e-11
-1.454669811536536568e-11
-1.606995181347427824e-11
-1.735939722750970368e-11
-1.823195199774280225e-11
-1.849585155896212902e-11
-1.795168437064290105e-11
-1.644783370556487566e-11
-1.424986697632588410e-11
-1.175646066574044304e-11
-9.661984554846742615e-12
-8.286687203785923373e-12
-7.051444331719313489e-12
-5.214206517831399838e-12
-3.679553763023826016e-12
-2.983544772539566573e-12
-1.975406251504716070e-12
-1.487971970046779786e-12
-1.008821538756466162e-12
-6.870299421624038418e-13
-4.704704629122175399e-13
-3.197552472865625175e-13
-2.172498954897337440e-13
-1.482727166801209597e-13
-1.026368346373069114e-13
-7.225350834212200194e-14
-5.192025502420777403e-14
-3.814613451874919047e-14
-2.859847283691256539e-14
-2.177042757783490525e-14
