# bin_6_3
-6.633464213237113788e-11
-7.289282597156848021e-11
-7.827687982867074107e-11
-8.164563870780979012e-11
-8.221236170786127519e-11
-7.898647022006994914e-11
-7.166204001688944106e-11
-6.148328785637374995e-11
-5.054150195470052187e-11
-4.174438617278977241e-11
-3.591843677235043420e-11
-3.005749914806863972e-11
-2.181551211978915495e-11
-1.588568571178398621e-11
-1.262721545952742367e-11
-8.585478237162552798e-12
-6.430321616768485545e-12
-4.547028346760970868e-12
-3.226038369275840817e-12
-2.316599925563305556e-12
-1.680033118012011353e-12
-1.237332990325046608e-12
-9.269868067929906016e-13
-7.073593372111187308e-13
-5.473920583750408560e-13
-4.272301927446748535e-13
-3.341085325147376869e-13
-2.599219558870301640e-13
-1.998725074401208923e-13
-1.510968706807741405e-13
-1.118169087602781759e-13
