# bin_8_8
-1.489230250218912266e-08
-1.677763680017402866e-08
-1.857534467683699891e-08
-2.012620071144007378e-08
-2.122300144713350368e-08
-2.163300337553971042e-08
-2.114960483351255139e-08
-1.954210967060935379e-08
-1.707327859119072125e-08
-1.415755157897891149e-08
-1.160251931265420441e-08
-9.882298035224243411e-09
-8.481937440913052243e-09
-6.437465955366433127e-09
-4.486139763470592747e-09
-3.628005683447394270e-09
-2.475057631743407137e-09
-1.850124088280508681e-09
-1.257527404782625227e-09
-8.810150002432584968e-10
-6.158844807772806818e-10
-4.304202351036584083e-10
-3.027998268900899409e-10
-2.154186596445096899e-10
-1.561660570845838000e-10
-1.154355487315490531e-10
-8.690731652094416030e-11
-6.644436265454309740e-11
-5.127126758492662629e-11
-3.964660788518037758e-11
-3.049762564241654616e-11
