# bin_4_1
-1.441567490651440569e-11
-1.529988229380596630e-11
-1.573380223191221558e-11
-1.557418420342633334e-11
-1.463329228106136652e-11
-1.299610140663534917e-11
-1.093392637141631145e-11
-8.956742001980374193e-12
-7.508593226074292602e-12
-6.462996614401604511e-12
-5.159992488130189580e-12
-3.652713465919565937e-12
-2.823203745058960274e-12
-2.109411153373860755e-12
-1.511249390474338421e-12
-1.096928160845001629e-12
-7.999444526883139347e-13
-5.821422085810123769e-13
-4.293722148945272052e-13
-3.220988690715507758e-13
-2.459496346631011590e-13
-1.909445953780819267e-13
-1.501054016313914623e-13
-1.186891545568927189e-13
-9.374199635897612187e-14
-7.344255343443317424e-14
-5.671058535969172660e-14
-4.293000754923219227e-14
-3.172727287819762914e-14
-2.283030895537351400e-14
-1.598638313032170643e-14
