# bin_3_2
-7.006688362357392844e-10
-7.211117472097591597e-10
-7.144498789923913731e-10
-6.736640856619115056e-10
-6.010853048849796177e-10
-5.092726295577199381e-10
-4.192856771033137334e-10
-3.502777255087672097e-10
-2.987047742580265743e-10
-2.405357898998013798e-10
-1.752612906545463699e-10
-1.320733402510017578e-10
-1.003632261063495168e-10
-7.203121841796405059e-11
-5.309678160426281024e-11
-3.868374497542407563e-11
-2.848613547210288335e-11
-2.126723779621821395e-11
-1.614836653363036650e-11
-1.247958902526622410e-11
-9.791113928198760857e-12
-7.761591579550229623e-12
-6.172931063809451789e-12
-4.890360342793465961e-12
-3.833076705747005503e-12
-2.954303309968424577e-12
-2.227964560773486188e-12
-1.638304374926798451e-12
-1.172541140970127905e-12
-8.170006844761351927e-13
-5.552231056453765185e-13
