# bin_4_8
-7.520655563465358895e-16
-8.371159425073820850e-16
-9.133023895150813184e-16
-9.717052844941482965e-16
-1.001391179948171910e-15
-9.937936078809828037e-16
-9.355423085813375853e-16
-8.320052251490102599e-16
-6.998269449501775491e-16
-5.725206817522027146e-16
-4.800181934472922665e-16
-4.152310857428353052e-16
-3.322803224835031817e-16
-2.316436677820639057e-16
-1.799765554919502728e-16
-1.332702124686297927e-16
-9.424025418313331967e-17
-6.648221303807219330e-17
-4.781058338746761291e-17
-3.366248874485015875e-17
-2.380743985509772473e-17
-1.705469023750119806e-17
-1.239693361798242110e-17
-9.176123118235619924e-18
-6.921248466287027747e-18
-5.301980112993759524e-18
-4.106363125039397266e-18
-3.194101365030000051e-18
-2.477307181724851541e-18
-1.902901549366843554e-18
-1.439537573862979144e-18
