# bin_12_12
-2.126944554207162839e-11
-2.423004976096375677e-11
-2.720050618290173913e-11
-2.997575292153596737e-11
-3.228380878743381348e-11
-3.377829656181801907e-11
-3.412181997345583685e-11
-3.290964483455163898e-11
-2.995586064273799957e-11
-2.578084422480853258e-11
-2.120790690096656426e-11
-1.748816622445926585e-11
-1.505822973494305265e-11
-1.268440725270029526e-11
-9.215222352406030638e-12
-6.624651156737406594e-12
-5.310296113161229803e-12
-3.516058813682861799e-12
-2.627556118214456438e-12
-1.802268297475261585e-12
-1.226942735112646070e-12
-8.395283639396633488e-13
-5.715605936521065062e-13
-3.904108801519495470e-13
-2.685678719751357758e-13
-1.876728364080089994e-13
-1.335287013699342267e-13
-9.702454480301959721e-14
-7.201715307193831507e-14
-5.443320542338743350e-14
-4.165025791301875340e-14
