# bin_1_4
-4.916013812958813816e-15
-5.203356168181417763e-15
-5.333409735081506756e-15
-5.256661419164118496e-15
-4.913004480521362060e-15
-4.341184138605836768e-15
-3.637288503834011376e-15
-2.979921343748569468e-15
-2.507750052194273175e-15
-2.154627466850053684e-15
-1.698574957021989146e-15
-1.200631712789762449e-15
-9.378850463691403271e-16
-6.899858458172947604e-16
-5.000774139649498104e-16
-3.607086326309322712e-16
-2.635666887490347951e-16
-1.923777505883971921e-16
-1.422971741608714537e-16
-1.070932418320389692e-16
-8.203127832473070937e-17
-6.386548855569155522e-17
-5.030390895356732311e-17
-3.981375441873248460e-17
-3.144321863404714021e-17
-2.460799840151341104e-17
-1.896477452087476055e-17
-1.431779017849553667e-17
-1.054719408636019809e-17
-7.562883590739980935e-18
-5.277295349932163036e-18
