# bin_10_11
-7.871808254403681337e-12
-8.936696360460688788e-12
-9.987813035864793747e-12
-1.094738852631204479e-11
-1.171126886989746268e-11
-1.214882539325496432e-11
-1.215228553397530380e-11
-1.155667291799319814e-11
-1.037496990598138028e-11
-8.803722388453487354e-12
-7.210587339612199588e-12
-6.002018216640838766e-12
-5.195926280371311368e-12
-4.257029407654307865e-12
-2.994452362646153059e-12
-2.256272602880019057e-12
-1.730321651864123187e-12
-1.176226211933017735e-12
-8.445543115478285160e-13
-5.945337686116663076e-13
-4.070854835868875191e-13
-2.784567973494243570e-13
-1.911940810500965119e-13
-1.323104561885979999e-13
-9.265630656238299308e-14
-6.607223795321132548e-14
-4.804349249645345371e-14
-3.566361359988470862e-14
-2.695813961602765615e-14
-2.064262955574976970e-14
-1.589874145437526693e-14
