# bin_3_5
-9.107690181650946563e-13
-9.898140452389498533e-13
-1.048423074652089417e-12
-1.075060444587953670e-12
-1.060016237188496635e-12
-9.904709433717581938e-13
-8.747987970684345309e-13
-7.320708301178454131e-13
-5.993025126669875076e-13
-5.049402859350248000e-13
-4.348883563249162780e-13
-3.419528319787946283e-13
-2.396840403326696607e-13
-1.885684144851240299e-13
-1.371795752082363418e-13
-9.945436626126448843e-14
-7.059612878381803928e-14
-5.122374945271144771e-14
-3.688714874182453439e-14
-2.681940557042579329e-14
-1.981026913557316356e-14
-1.488363959561076833e-14
-1.138409402345604777e-14
-8.837216539671773404e-15
-6.922115527685880254e-15
-5.435902648208231978e-15
-4.249555750898433239e-15
-3.285293965745689565e-15
-2.497543347848414363e-15
-1.858602222086747190e-15
-1.349410917449673241e-15
