# bin_14_11
-1.126349455594280849e-10
-1.281432271019136320e-10
-1.436066122647455573e-10
-1.579292244775185291e-10
-1.696511279810166270e-10
-1.769243114278377253e-10
-1.780597372563166472e-10
-1.708147250527722456e-10
-1.546596419201837391e-10
-1.323850625310914937e-10
-1.087029410377364915e-10
-8.994169316998077229e-11
-7.762894172021992680e-11
-6.474029378330126146e-11
-4.643303302642736824e-11
-3.396626946311021505e-11
-2.681406901006737501e-11
-1.789496090805818676e-11
-1.319446734457942618e-11
-9.140069180893628520e-12
-6.233649169936844967e-12
-4.263458820951442665e-12
-2.910655315017292519e-12
-1.997768936028377504e-12
-1.383585706957964125e-12
-9.743868383005519432e-13
-6.991853448165200626e-13
-5.123898191300234515e-13
-3.831624359939997051e-13
-2.911982694768208663e-13
-2.234711489918578395e-13
