# bin_3_9
-1.262675273735700349e-20
-1.409251905226356755e-20
-1.542582084858299750e-20
-1.647969407085350060e-20
-1.707067604014302709e-20
-1.704864327998344729e-20
-1.618415286631133700e-20
-1.450696450239262174e-20
-1.229348990400973058e-20
-1.006642581158562538e-20
-8.385334495519894505e-21
-7.254160799534132625e-21
-5.924053973416742554e-21
-4.170495142924988700e-21
-3.157318394747620912e-21
-2.416266673506805305e-21
-1.662350883658461207e-21
-1.200953511848618586e-21
-8.572894883302345907e-22
-5.999704592812963311e-22
-4.223670712959658637e-22
-3.005392981199258988e-22
-2.169335233590609933e-22
-1.592954528256317415e-22
-1.192704882795513294e-22
-9.081050900410570606e-23
-7.003669883674801470e-23
-5.437761442338194900e-23
-4.219621818633550250e-23
-3.249738323371073486e-23
-2.469059923125889363e-23
