# bin_4_10
-9.737363403828860303e-20
-1.093016866231146954e-19
-1.204825949954143260e-19
-1.298359740739283023e-19
-1.359831939189985602e-19
-1.375451675874594792e-19
-1.329565630842871882e-19
-1.213314882522493224e-19
-1.046994761345722690e-19
-8.623196408876800600e-20
-7.099310863184019997e-20
-6.099127617761468770e-20
-5.158785870425436447e-20
-3.782469342030238368e-20
-2.701621578330296557e-20
-2.177138575615511449e-20
-1.453785512069950555e-20
-1.095388656173621935e-20
-7.571410388229496931e-21
-5.260421114662373605e-21
-3.692286981672839610e-21
-2.597482379163754259e-21
-1.845742328450270150e-21
-1.329979649620054543e-21
-9.775744535452127567e-22
-7.321951585931736812e-22
-5.575475482181875085e-22
-4.297012031588918311e-22
-3.328861921605269598e-22
-2.573422768125203849e-22
-1.971568255599665838e-22
