# bin_2_8
-1.006592620779273442e-21
-1.115311781493846983e-21
-1.209998676131962661e-21
-1.278393584438343727e-21
-1.306377335914697383e-21
-1.281982817755096136e-21
-1.190221246785106231e-21
-1.044702501318252911e-21
-8.693913804138079079e-22
-7.118155744320362302e-22
-6.034220709016808388e-22
-5.191914381517908063e-22
-4.003390672588215004e-22
-2.789031619235975061e-22
-2.235380548794627554e-22
-1.568999244094674735e-22
-1.159771360571419399e-22
-8.020169162284503849e-23
-5.744976892929285109e-23
-4.087173052641194252e-23
-2.922349299329164552e-23
-2.116194924313379783e-23
-1.555728029258893537e-23
-1.165804439241819839e-23
-8.889334823760183172e-24
-6.867690981166537205e-24
-5.346736097576147463e-24
-4.164891280770331406e-24
-3.223434565442015512e-24
-2.463212106858707239e-24
-1.849179943127612186e-24
