# bin_1_10
-1.312429320428485752e-31
-1.468151920937933951e-31
-1.611582346096580704e-31
-1.727718548258547924e-31
-1.797659588873462039e-31
-1.804739891933134785e-31
-1.725719091650656479e-31
-1.557742738954008234e-31
-1.329359595527519529e-31
-1.090412490118820746e-31
-9.036146400206499931e-32
-7.803590788458772719e-32
-6.472623040619348788e-32
-4.620051515228684120e-32
-3.414136002559935028e-32
-2.679038911739251789e-32
-1.809757307349079367e-32
-1.335485601739371515e-32
-9.420979652194784603e-33
-6.565064510683232984e-33
-4.612990048229612165e-33
-3.265029478409937092e-33
-2.342023019195500736e-33
-1.707180623738241115e-33
-1.269321922419158345e-33
-9.606158231307882010e-34
-7.375436901993074132e-34
-5.712850946868544083e-34
-4.432288311353138678e-34
-3.419850823123183924e-34
-2.607465686262294618e-34
