# bin_8_9
-9.774464095991621136e-09
-1.103717135960124653e-08
-1.225355222603201041e-08
-1.332177460313054714e-08
-1.410746117461029491e-08
-1.445130642971161116e-08
-1.422752776072520489e-08
-1.325479387267034701e-08
-1.167117373271222700e-08
-9.730239546100479882e-09
-7.959100980962581570e-09
-6.732755520785274113e-09
-5.812411395238829274e-09
-4.517335434552207913e-09
-3.125312105056706958e-09
-2.497857506823945086e-09
-1.756995314756755286e-09
-1.283817830156014814e-09
-8.723567827646193820e-10
-6.174961306004998458e-10
-4.290980711997141006e-10
-2.976995437004133400e-10
-2.079971239885072298e-10
-1.467414810167244262e-10
-1.053354654826743833e-10
-7.710271068857942903e-11
-5.753017823721118525e-11
-4.367994841904237683e-11
-3.356482979126965910e-11
-2.592585108451220349e-11
-1.997894801391979400e-11
