# bin_7_5
-2.172004112559453001e-09
-2.418223046163813518e-09
-2.639109901603812185e-09
-2.808960667892745471e-09
-2.896209997564211042e-09
-2.876018731832142283e-09
-2.709694992184220117e-09
-2.411544973985232673e-09
-2.029668458332734600e-09
-1.660054363080347453e-09
-1.390357794422457062e-09
-1.202695358660491843e-09
-9.649160103374750315e-10
-6.732595505062791724e-10
-5.212314721209303831e-10
-3.876541113953450302e-10
-2.730403651429784715e-10
-1.932175829020302146e-10
-1.388005821756277258e-10
-9.763859776938361239e-11
-6.900515445316009046e-11
-4.938536148622393816e-11
-3.586273148995205238e-11
-2.651638866188108301e-11
-1.998067642357665521e-11
-1.529357419037272095e-11
-1.183808111320295470e-11
-9.205756252099296346e-12
-7.140156003764273850e-12
-5.486290400899283731e-12
-4.152557739373825949e-12
