# bin_8_6
-2.501289015021357400e-09
-2.803548723962019345e-09
-3.084803541132767176e-09
-3.316945558560801975e-09
-3.464316928234224639e-09
-3.493049550843299375e-09
-3.361068384153282620e-09
-3.052679642073466239e-09
-2.621407377679032800e-09
-2.154254896079686252e-09
-1.777413908043244924e-09
-1.530564736510323268e-09
-1.285031720138857018e-09
-9.311818088144646684e-10
-6.736469080533648788e-10
-5.380678144000084411e-10
-3.599585158443122654e-10
-2.694998258014661481e-10
-1.877818727745261639e-10
-1.305256174736340905e-10
-9.163778602546136359e-11
-6.459907882745323267e-11
-4.607147804656510099e-11
-3.334987232215884429e-11
-2.462723521299975406e-11
-1.852416506472573078e-11
-1.415435268574625119e-11
-1.093233561312178631e-11
-8.475296288612847440e-12
-6.547421705950450314e-12
-5.006654301728802568e-12
