# bin_4_7
-1.191921036542223518e-10
-1.322624909366701354e-10
-1.437548249411934890e-10
-1.522297406891574421e-10
-1.559866399543124316e-10
-1.536502332963884095e-10
-1.432978112146643762e-10
-1.263120351738082435e-10
-1.054421091227494758e-10
-8.625185307620318956e-11
-7.282973981812951833e-11
-6.282331480999421261e-11
-4.907139795573348522e-11
-3.411104425551384950e-11
-2.710031206780196685e-11
-1.935501529778702344e-11
-1.410507653114662962e-11
-9.789698118130885708e-12
-7.032492404241895907e-12
-4.985460270997242523e-12
-3.550649755150034853e-12
-2.561699376666016396e-12
-1.875851217822726117e-12
-1.399838502001189981e-12
-1.063533866430616284e-12
-8.193945300308056469e-13
-6.368982884786143033e-13
-4.959485450079753967e-13
-3.841628493315858919e-13
-2.941050380550164905e-13
-2.213812006360282787e-13
