# bin_1_4
-1.443773190774393565e-11
-1.532079939874922654e-11
-1.575223848010782197e-11
-1.558873153767467691e-11
-1.464252412604206627e-11
-1.299966079646732973e-11
-1.093251061795847054e-11
-8.952465618022115610e-12
-7.503802273742305902e-12
-6.458642129438346677e-12
-5.155246027626543608e-12
-3.647838312117374612e-12
-2.819491296594979750e-12
-2.106185804783463843e-12
-1.508828121637225328e-12
-1.095014861550343924e-12
-7.985165238873168961e-13
-5.810883957348935734e-13
-4.285894772708907771e-13
-3.215117800281047718e-13
-2.455012516899736412e-13
-1.905951756210330395e-13
-1.498282571132102320e-13
-1.184662125027906075e-13
-9.356160276650508855e-14
-7.329710832534531269e-14
-5.659476620577761284e-14
-4.283965198846493810e-14
-3.165863118871162886e-14
-2.277971147625990323e-14
-1.595022230541211775e-14
