# bin_2_13
-5.663277197686052032e-30
-6.417090484959021089e-30
-7.154557922172083036e-30
-7.818777404450359996e-30
-8.333588874748104052e-30
-8.604573561195347354e-30
-8.558765676254706321e-30
-8.077706863256579730e-30
-7.200137600189754391e-30
-6.067153702732117568e-30
-4.963831620983077420e-30
-4.156420620390005713e-30
-3.600039365276312276e-30
-2.896385304912850526e-30
-2.014859705285026225e-30
-1.556892003230224496e-30
-1.157506580644137620e-30
-8.070752329074794640e-31
-5.641329444093646667e-31
-4.008719812487260017e-31
-2.758450588555726353e-31
-1.892705658008202870e-31
-1.308147153961747721e-31
-9.118746435552357711e-32
-6.446519568870226495e-32
-4.644283088353361299e-32
-3.412433299807196496e-32
-2.557352385793956543e-32
-1.947396574503358966e-32
-1.497803258398895472e-32
-1.154979668811668295e-32
