# bin_1_10
-1.295819757707123418e-27
-1.450978826374790862e-27
-1.594626720031074459e-27
-1.712078694100970259e-27
-1.784771097864546578e-27
-1.795701018842471754e-27
-1.722494711930280154e-27
-1.559612022632405926e-27
-1.335056789669126283e-27
-1.095927511824448921e-27
-9.059649842574507323e-28
-7.812449845721057474e-28
-6.521749546626859261e-28
-4.690699010145449515e-28
-3.427200227449803278e-28
-2.715304908750887670e-28
-1.823840964310953147e-28
-1.356576450558303632e-28
-9.507530459312885214e-29
-6.615540867350342968e-29
-4.645973029740572201e-29
-3.281031818095725439e-29
-2.346297148771517890e-29
-1.704001548147107790e-29
-1.262412185058796679e-29
-9.523372578907822138e-30
-7.293618230436024514e-30
-5.641121018044815922e-30
-4.374925804933449421e-30
-3.377774288402591346e-30
-2.579291389049703755e-30
