# bin_8_1
-4.328222413461504793e-22
-4.791056484931217512e-22
-5.191646205621604619e-22
-5.477038912599371428e-22
-5.587383177226654413e-22
-5.470002545168742423e-22
-5.064429614466773669e-22
-4.433100482205022559e-22
-3.681905183810893972e-22
-3.015275004006761581e-22
-2.560541387358669268e-22
-2.198704746037240112e-22
-1.683560795592879202e-22
-1.175479074472393516e-22
-9.444558812171493246e-23
-6.579875393399279660e-23
-4.888473477056589372e-23
-3.381626838722050543e-23
-2.417519539765600048e-23
-1.722279235449260416e-23
-1.233544180151208359e-23
-8.948401280000711453e-24
-6.591391570652273309e-24
-4.949362243815615294e-24
-3.780422588837118670e-24
-2.924341800683984842e-24
-2.278178936963019163e-24
-1.774605901002231315e-24
-1.372646602310065994e-24
-1.047771858621942319e-24
-7.854069039729070295e-25
