# bin_1_7
-2.795670917088537247e-19
-3.071437080056835339e-19
-3.297486149138657511e-19
-3.438351005804572179e-19
-3.460992847233793581e-19
-3.323598798552860503e-19
-3.013784845280652788e-19
-2.584166191109292412e-19
-2.123305758095930870e-19
-1.753516859216088466e-19
-1.508852431497828765e-19
-1.262019689922631635e-19
-9.151353085842476937e-20
-6.666990287382161778e-20
-5.296593395457811864e-20
-3.601102565834016636e-20
-2.695876225018085298e-20
-1.906837789144343708e-20
-1.352844259909495712e-20
-9.714038004789669947e-21
-7.044996459200125750e-21
-5.189130599552430451e-21
-3.888064047541856666e-21
-2.967199674150118526e-21
-2.296342262479332982e-21
-1.792300964143248070e-21
-1.401599296777199960e-21
-1.090294955184385380e-21
-8.383005301842551718e-22
-6.336264842539012767e-22
-4.688199784346690519e-22
