# bin_4
0.000000000000000000e+00
1.168618026883286479e-81
1.023142051679650973e-66
1.258678777113276736e-54
1.102473489294580848e-44
1.825097479289259773e-36
1.183457792532063648e-29
5.314267113279923857e-24
2.603506189192736726e-19
2.008651540721103403e-15
3.291624733814716472e-12
1.464935378487720906e-09
2.169985208982126125e-07
1.267431827368705091e-05
3.365008615465827670e-04
4.580082215045613338e-03
3.541072669059032452e-02
1.698646237824819882e-01
5.457077484509194054e-01
1.254064194807356536e+00
2.179083714448741382e+00
2.993108382920810939e+00
3.359835235036693568e+00
3.155770029253043507e+00
2.522262664714683300e+00
1.738195057730850701e+00
1.045072635995946575e+00
5.545161887963593328e-01
2.626419790299692747e-01
1.123030464101149734e-01
4.382585003083807468e-02
1.577141161229567504e-02
5.284501623131957967e-03
1.663402856020359871e-03
4.958906711807699493e-04
1.410524333092492576e-04
3.853755886427642411e-05
1.017446998581669098e-05
2.609834352276315358e-06
6.535737012345669022e-07
1.604881909990535256e-07
3.879228374401823794e-08
9.262072709178441241e-09
2.191171116642049569e-09
5.150490496869935141e-10
1.205849256510593117e-10
2.818122932806502515e-11
6.587098034796157968e-12
1.542572762110775109e-12
3.624762588924180120e-13
8.558242343135475873e-14
2.032735760803228219e-14
4.862138656279855825e-15
1.172269122427998866e-15
2.851246733985417424e-16
7.000984765664692571e-17
1.736479540362208074e-17
4.353111698323812516e-18
1.103444886715844279e-18
2.829399333888182239e-19
7.341361460903772840e-20
1.928058919271808709e-20
5.126569682633476345e-21
1.380317353335960623e-21
3.763936159120215407e-22
1.039602362897847834e-22
2.908645761311064946e-23
8.243992990438767734e-24
2.367125632809234616e-24
6.885664263193693149e-25
2.029113829245870178e-25
1.106869829448015911e-25
