# bin_7_1
7.540190273714660618e-17
8.288159339806381963e-17
8.903682981110700190e-17
9.291272819119333526e-17
9.360884991747054706e-17
9.000634837261024842e-17
8.172598958795984827e-17
7.017468161500779920e-17
5.770515255974470366e-17
4.764009169035260170e-17
4.097496425795362277e-17
3.433486844870933143e-17
2.496888989273013786e-17
1.814167775743436923e-17
1.444137526253858144e-17
9.816263497940469850e-18
7.358090634212021364e-18
5.196753041897625048e-18
3.686942502592324871e-18
2.646962992122487974e-18
1.918710510291114524e-18
1.412261601137320504e-18
1.057332172835312596e-18
8.063379578381185042e-19
6.236963735328307470e-19
4.866412400724447985e-19
3.805347174218212851e-19
2.960695304878985956e-19
2.277310833378214322e-19
1.722285044765682603e-19
1.275231162814130723e-19
