# bin_10_4
3.029288142719637241e-13
3.406070857139289775e-13
3.762102957242909342e-13
4.064318385691089459e-13
4.270172549611826946e-13
4.334605366524705224e-13
4.212074874088396813e-13
3.865547175458123872e-13
3.354639500353246356e-13
2.770806535160249364e-13
2.275659509645266158e-13
1.947841635978976911e-13
1.659978530327728172e-13
1.236133167044917130e-13
8.713077075805878082e-14
7.055418319850890537e-14
4.738365781502225308e-14
3.571262863084629798e-14
2.446154224630251337e-14
1.703316300707992833e-14
1.194141739505339678e-14
8.378715513339799447e-15
5.926455487310341360e-15
4.245388636258597197e-15
3.101226240584116784e-15
2.309314249270264686e-15
1.749850466577778747e-15
1.344093322398795761e-15
1.039690305632734173e-15
8.040391101360816696e-16
6.172381699523004224e-16
