# bin_15_14
2.446422880420791122e-06
2.806118650464848092e-06
3.177108872350470083e-06
3.537552192742260927e-06
3.858595002915417382e-06
4.101788571857290088e-06
4.220017836752486438e-06
4.178178428813017127e-06
3.918475378959728234e-06
3.471818467112604262e-06
2.908722684001360240e-06
2.378874935779096697e-06
2.003302299980478674e-06
1.734507078035381757e-06
1.370313130065354116e-06
9.456505324108996250e-07
7.463387565281853262e-07
5.364878370959356899e-07
3.825202084524851859e-07
2.585646824308350475e-07
1.821728091726233242e-07
1.234516395257955432e-07
8.268159856037825371e-08
5.531411623087290387e-08
3.691700363891386500e-08
2.476917341852981914e-08
1.679529829441806939e-08
1.156188588105364108e-08
8.125664673213704792e-09
5.846197288459168548e-09
4.305805782387211258e-09
