# bin_9_1
2.160320452764551548e-22
2.407375365500627764e-22
2.630154687169432294e-22
2.803237309703365761e-22
2.895206780500719794e-22
2.881045534789023161e-22
2.721910031682025033e-22
2.428893028158641952e-22
2.049544956232807483e-22
1.677321597471711083e-22
1.402369316009559652e-22
1.213223497087103646e-22
9.794838111986709412e-23
6.855981668662033391e-23
5.267932527509816693e-23
3.957196053252784034e-23
2.764950676566060353e-23
1.970292164598722878e-23
1.412757108914031528e-23
9.920749903289434127e-24
7.001781278893493433e-24
5.001246433990359329e-24
3.624403976736854241e-24
2.673587711832871221e-24
2.010282852818966156e-24
1.535987352638955269e-24
1.187511850779394445e-24
9.229978566972159368e-25
7.160368751860182358e-25
5.506343039736459343e-25
4.173254636036218669e-25
