# bin_8_5
5.452836826342789029e-08
6.098352929321147679e-08
6.692150915634382035e-08
7.171779698180371945e-08
7.458630205516336542e-08
7.483949902540635248e-08
7.150850147185723788e-08
6.450097979205172722e-08
5.500404279819807750e-08
4.510857801639129350e-08
3.740070648088098335e-08
3.230587006829405944e-08
2.675390643120261175e-08
1.906811376414984233e-08
1.412599343648413246e-08
1.105705970836931271e-08
7.482332965404956633e-09
5.509834472369394392e-09
3.891743217155742687e-09
2.713110186849962400e-09
1.906695949585185873e-09
1.350254266640460497e-09
9.691705987200333958e-10
7.070017704913215691e-10
5.260560347450238082e-10
3.983717545640231378e-10
3.060105412560803647e-10
2.370909437493012352e-10
1.839513635789834028e-10
1.419061459198773367e-10
1.081569942693156104e-10
