# bin_15_2
1.114626055547205675e-31
1.269274771328065665e-31
1.424148644447489413e-31
1.568473773396539501e-31
1.687935483915270375e-31
1.764345082226089374e-31
1.780323986850237539e-31
1.714234627536378380e-31
1.557661673493708503e-31
1.338177523933186612e-31
1.099938531181630972e-31
9.078304662783272472e-32
7.825428135254149834e-32
6.573976989169724639e-32
4.752512791256339625e-32
3.434212434707265596e-32
2.744151956100567891e-32
1.817020802349485233e-32
1.354865551176865247e-32
9.323159017565598166e-33
6.346934267113098642e-33
4.341603329111142001e-33
2.956987728425849263e-33
2.022726019543051362e-33
1.394430802385714179e-33
9.768782566740288804e-34
6.969989453516229726e-34
5.079230649373668136e-34
3.780040940179872116e-34
2.863043275709131142e-34
2.193563422362538782e-34
