# bin_1_1
1.771487041448856271e-05
1.744352222325578424e-05
1.633670161055730143e-05
1.448631012313658416e-05
1.222253766427933253e-05
1.006878522755387309e-05
8.436851460298130354e-06
7.165248209127446579e-06
5.704956303789859920e-06
4.162841368159253534e-06
3.157334504906619223e-06
2.383558708791171193e-06
1.725972178548988049e-06
1.276064180876602896e-06
9.392092258670683984e-07
6.999962396531452894e-07
5.301944173967667431e-07
4.089462920322722349e-07
3.208693872532673912e-07
2.550599367415438230e-07
2.041496956180210633e-07
1.632987293905193870e-07
1.295997133493089365e-07
1.013803365550967949e-07
7.772923237864478602e-08
5.816152475593463526e-08
4.236705921880596824e-08
3.002589382842558155e-08
2.073007370162358317e-08
1.397805411910091080e-08
9.234753379134991534e-09
