# bin_12_11
3.126094950194231979e-06
3.563844960540739601e-06
4.004555952422873622e-06
4.418234230297689071e-06
4.765214900646956961e-06
4.994795017025222995e-06
5.055828304981308122e-06
4.890726881509002455e-06
4.465130299129345889e-06
3.854572617388915597e-06
3.174617472066831240e-06
2.613280264059825107e-06
2.246543641540190839e-06
1.902135585001490126e-06
1.392625490415719901e-06
9.917839220291964751e-07
8.007910683969939884e-07
5.288380869377588660e-07
3.975566483276959621e-07
2.711956268249055434e-07
1.844959828244073744e-07
1.262994069512946582e-07
8.588997382151215374e-08
5.851705026465544094e-08
4.010502128662574280e-08
2.790287427734608703e-08
1.975655997794954683e-08
1.428388628891552424e-08
1.055476221338405976e-08
7.950154959844290345e-09
6.070843838949588404e-09
