# bin_13_2
2.402315600337326618e-27
2.722556901213243318e-27
3.036107423113186100e-27
3.318870060632326442e-27
3.538583235163222093e-27
3.655196871011361078e-27
3.637630518585641977e-27
3.435535238393713228e-27
3.064269094328720015e-27
2.583669552348948422e-27
2.113964002191209009e-27
1.769132140899985433e-27
1.532344837676270479e-27
1.234980135455834329e-27
8.597915890475605212e-28
6.628994480434310827e-28
4.942997958797480311e-28
3.437888894920322859e-28
2.408633041092803018e-28
1.710614177818153220e-28
1.176525450501740600e-28
8.069398387899405812e-29
5.573762469349733102e-29
3.882766840636573671e-29
2.742596565553927450e-29
1.974062081782174476e-29
1.449143488819591964e-29
1.085140436884365539e-29
8.258220125588116840e-30
6.349490225691945723e-30
4.895915336039649516e-30
