# bin_15_4
4.706375246895791866e-23
5.361567820053090762e-23
6.018989510536899960e-23
6.633271507644253097e-23
7.144232742148049117e-23
7.475250182930527121e-23
7.551629293396053682e-23
7.283584490787603406e-23
6.629628387345555895e-23
5.705435772381325062e-23
4.692831252722086095e-23
3.869328535962671435e-23
3.332295775748852200e-23
2.807719271855824371e-23
2.038834677393935614e-23
1.465258673376317798e-23
1.175859717665570447e-23
7.773108203123683685e-24
5.816777139950441036e-24
3.989872513436674641e-24
2.715024134799509329e-24
1.857705370744311638e-24
1.264389590506436920e-24
8.636123060645141462e-25
5.940858201592306031e-25
4.151540119800550680e-25
2.953962591807988126e-25
2.146600648765951783e-25
1.593543836086463835e-25
1.204672623170548901e-25
9.219620183004313620e-26
