# bin_12_6
1.194437007526622894e-11
1.354262764303345649e-11
1.511062545684791245e-11
1.652907150855973649e-11
1.763810926001281354e-11
1.823855836513226405e-11
1.817449363525314493e-11
1.719392384514974177e-11
1.536006972922209125e-11
1.297012944076253349e-11
1.061358341480636822e-11
8.870214108249323584e-12
7.683804111456362605e-12
6.219419433613476793e-12
4.337387802180990025e-12
3.326519914671889316e-12
2.498446267309988200e-12
1.726883295760950277e-12
1.216555706146420027e-12
8.630900470050198652e-13
5.929052122049838010e-13
4.062001371765454754e-13
2.801540486591434968e-13
1.948474358355682980e-13
1.373448669545314831e-13
9.863847637317776331e-14
7.224879534503406907e-14
5.399413239626897150e-14
4.103071960054883216e-14
3.152183685215787224e-14
2.430322386426738232e-14
