# bin_2_1
5.095481112155054306e-06
5.187288544589852810e-06
5.067429768088661010e-06
4.693481319594049337e-06
4.113198092956096194e-06
3.432569802165717663e-06
2.821517337243585186e-06
2.384417199425465301e-06
2.026380433083319507e-06
1.570057583638353025e-06
1.127639251534630031e-06
8.785995464808508502e-07
6.430650738178220316e-07
4.708843000773909381e-07
3.431466058570081551e-07
2.525706853051969172e-07
1.872841222177131073e-07
1.411249223459313226e-07
1.083084422441559183e-07
8.454654481752427436e-08
6.689387722533747908e-08
5.331230285861894665e-08
4.248271384796341474e-08
3.360779580127580037e-08
2.621990732305216487e-08
2.005836032126712197e-08
1.497971372458763817e-08
1.089116636483708303e-08
7.702821884167442818e-09
5.306158486392328584e-09
3.569273099419497236e-09
