# bin_8_6
7.041350134439664092e-07
7.895357892723679297e-07
8.691577686221289563e-07
9.351120753740054094e-07
9.773750987143037713e-07
9.863079449222670509e-07
9.501728504819982814e-07
8.640909808927837495e-07
7.430186637814059589e-07
6.110828401555300411e-07
5.040507319959120855e-07
4.338519337411835887e-07
3.648694197937803772e-07
2.651564428437645489e-07
1.913231648240772539e-07
1.531138774888540087e-07
1.024149702714102852e-07
7.678866283276593958e-08
5.341661893798848181e-08
3.712901217077301737e-08
2.606812717877912119e-08
1.836976662374408392e-08
1.309160536586809831e-08
9.467941445095377654e-09
6.985021178379132788e-09
5.249490686529556097e-09
4.008385130690562706e-09
3.094645752811791370e-09
2.398852904436406548e-09
1.853526545707751576e-09
1.417966941001254602e-09
