# bin_9_5
2.762816033580642851e-09
3.101243805670765130e-09
3.418466184861480694e-09
3.683831021105146055e-09
3.858219568154791548e-09
3.902513132755442105e-09
3.772321299278094311e-09
3.442588948663238365e-09
2.970767135450183356e-09
2.446919764103285915e-09
2.014589313940071151e-09
1.730630757247585591e-09
1.463655413843703698e-09
1.073395349432877322e-09
7.668095698586756851e-10
6.176174803334889548e-10
4.127391372070661845e-10
3.107805591080848001e-10
2.148209206073785118e-10
1.492935318124407049e-10
1.047811313899441974e-10
7.371184476733236470e-11
5.237780925566533873e-11
3.774052612831726196e-11
2.773905153853531823e-11
2.077520905758645159e-11
1.581887572094383555e-11
1.219089885688708703e-11
9.443720506725546217e-12
7.300310094890359628e-12
5.592822041315233612e-12
