# bin_6_6
5.592588662997832992e-08
5.157220020921970990e-08
4.631325872930713544e-08
4.046986928631889997e-08
3.443757040538971939e-08
2.862114705640005527e-08
2.334389908174514600e-08
1.876803460746794620e-08
1.488963229170860614e-08
1.161047108712880235e-08
8.862602865373849473e-09
6.659555381106121427e-09
4.997347617870728392e-09
3.758191655564841373e-09
2.820232469219153839e-09
2.131805566221743176e-09
1.623534552658313312e-09
1.246772280371604738e-09
9.639511375669368162e-10
7.484840470301594187e-10
5.815287479944225102e-10
4.502672030650533162e-10
3.460718316821816970e-10
2.630756685871008922e-10
1.971904338265975835e-10
1.453927476444099032e-10
1.052689187850849624e-10
7.476665511547439287e-11
5.207263697081968971e-11
3.557463482368092057e-11
2.386150870550871655e-11
