# bin_4_2
2.865889054322200208e-08
2.497848410803066067e-08
2.120810852780162003e-08
1.759650463714046865e-08
1.433666516109162139e-08
1.151996745914325775e-08
9.135366561339293548e-09
7.120320059931415492e-09
5.439088832715890833e-09
4.102864981153380828e-09
3.098390221965755266e-09
2.346739863886061328e-09
1.780325226374568128e-09
1.363123648808996474e-09
1.053316138654091745e-09
8.212340019977714597e-10
6.445113682993193312e-10
5.073356258131603962e-10
3.988121572715784540e-10
3.116792649673725705e-10
2.411575316513233331e-10
1.840592001624776714e-10
1.381613413834443127e-10
1.017699078750007695e-10
7.345473880990243538e-11
5.191596952269546098e-11
3.593597370135771329e-11
2.438374247710008261e-11
1.624398785708312184e-11
1.064591035078019411e-11
6.879294982851410065e-12
