# bin_9_5
5.813109823956608794e-08
5.371490864651991855e-08
4.832665736495710203e-08
4.229380841000989114e-08
3.602897979244944382e-08
2.996423353312947308e-08
2.445163509768005352e-08
1.967200288443060633e-08
1.562287145949643037e-08
1.219253157447437259e-08
9.304841824300288808e-09
6.985307301517897632e-09
5.241405173061299689e-09
3.940464451455220832e-09
2.953330972913582567e-09
2.231489947378452983e-09
1.697960948928391125e-09
1.303345163271716251e-09
1.007475572762241270e-09
7.823392147362048929e-10
6.080660190168832308e-10
4.711229920256784707e-10
3.624172855425954079e-10
2.757802112512666080e-10
2.069377018588054552e-10
1.527457957490592182e-10
1.107061977688120021e-10
7.869975182194714617e-11
5.485270134085429723e-11
3.749475446626447847e-11
2.515864243221126133e-11
