# bin_12_10
8.316912791142867266e-08
7.938291853245577370e-08
7.394777154925724206e-08
6.709809317549086969e-08
5.923351797022960243e-08
5.088344205511632307e-08
4.262815619867587884e-08
3.498079316853446073e-08
2.825554301142381915e-08
2.252060152588344486e-08
1.766329643317261528e-08
1.355726060676842249e-08
1.019396733035612028e-08
7.607556694062435032e-09
5.686608499839052168e-09
4.232131813074182773e-09
3.155042166458731689e-09
2.368890324058375409e-09
1.789814756327073186e-09
1.362176090409812882e-09
1.042684115236513881e-09
8.005131836629495813e-10
6.143309629310658244e-10
4.695386480370172723e-10
3.561407292222204930e-10
2.672134864935286367e-10
1.978096288571854567e-10
1.441803701755693761e-10
1.033275528552042274e-10
7.274893866890291274e-11
5.030852051386983581e-11
