# bin_14_3
4.626443325963486066e-08
4.175218450844775389e-08
3.663882413755642831e-08
3.127780446106394958e-08
2.605360097274853283e-08
2.128847139922001483e-08
1.715477825868743465e-08
1.365270785193303531e-08
1.067686027158002999e-08
8.158857900584968731e-09
6.133902811610078101e-09
4.615162152088472101e-09
3.479624434161325746e-09
2.618543856214712915e-09
1.988507424742564227e-09
1.522328932009543114e-09
1.176515784686602077e-09
9.161649219837494720e-10
7.167626314946498594e-10
5.611119110328429086e-10
4.376115218339498910e-10
3.385651306348832150e-10
2.588342799617165965e-10
1.949022942208710399e-10
1.441870386020902449e-10
1.046078349746977586e-10
7.435061250039692574e-11
5.175874627857115037e-11
3.530963217371512084e-11
2.363522017090086087e-11
1.555131443947326564e-11
