# bin_11_7
7.114411741307064419e-08
6.694661414030307992e-08
6.140929518430019698e-08
5.482182841606626721e-08
4.760636484925235869e-08
4.026481791046923798e-08
3.329052155983023323e-08
2.704527457142663375e-08
2.167659930682307783e-08
1.713265662937797294e-08
1.328011480364954634e-08
1.006452700794903949e-08
7.529012024362258701e-09
5.640964552765338543e-09
4.221368340673258349e-09
3.152551351326489839e-09
2.374726486965256318e-09
1.799384411434495630e-09
1.374924346355863447e-09
1.057383429192855253e-09
8.163856021241439307e-10
6.306054743858045005e-10
4.854478532714550177e-10
3.710246160065759349e-10
2.805531313128728024e-10
2.092748222886251809e-10
1.536439300253263373e-10
1.108391135250863433e-10
7.849035551656710311e-11
5.454216659134179398e-11
3.720097089773519855e-11
