# bin_12_5
6.147275085291481385e-08
5.702352154338145376e-08
5.150271590980342213e-08
4.523950842273103795e-08
3.866284548718206438e-08
3.223692280541955630e-08
2.635647064008358994e-08
2.123935349391658058e-08
1.690106368957888323e-08
1.322219585230109200e-08
1.010948538941322697e-08
7.589969393884943883e-09
5.690438036014623132e-09
4.276568171363179757e-09
3.200520835963173783e-09
2.413657993307814679e-09
1.832927744406216237e-09
1.404242909392307875e-09
1.083736491793764630e-09
8.406816912902692178e-10
6.531591132355534780e-10
5.062078584422478173e-10
3.897714846167171127e-10
2.970402632186228464e-10
2.233268726762110484e-10
1.652227563773204918e-10
1.200525801131364955e-10
8.556997113745808016e-11
5.979918764721765283e-11
4.098002626293162236e-11
2.756192244746323371e-11
