# bin_14_13
9.325342449918353895e-08
8.990811790153053195e-08
8.467301373552544124e-08
7.772904897466639579e-08
6.944443601818394748e-08
6.035403210764102231e-08
5.109175506159929632e-08
4.227663419516788334e-08
3.436447099604487606e-08
2.754427481268194265e-08
2.176069508552538403e-08
1.685696974382299184e-08
1.276428285477695415e-08
9.525627222456141125e-09
7.102110199852506309e-09
5.284519329413262573e-09
3.916156789118840703e-09
2.920938192443048211e-09
2.188875931931517456e-09
1.652646242463955436e-09
1.255520873046682769e-09
9.580815542127987466e-10
7.322395586279305483e-10
5.585838864604758655e-10
4.238257250992642642e-10
3.187826465310570868e-10
2.370189389184503451e-10
1.738072068443709975e-10
1.254900999263615164e-10
8.911080170986441041e-11
6.220151906485563263e-11
