# bin_3_3
3.173859665604910083e-08
2.792637851747711331e-08
2.392759214889016427e-08
2.000799715891265055e-08
1.639769562474521844e-08
1.323393522427076009e-08
1.054310286208511143e-08
8.272485214022951759e-09
6.365518510452273343e-09
4.815329603298666037e-09
3.627528625632080718e-09
2.744286677325475207e-09
2.077124858729212865e-09
1.581535179720202781e-09
1.216071745409575521e-09
9.430892451314486614e-10
7.369766619623590134e-10
5.784737693091065041e-10
4.542449653501364188e-10
3.552803626185232970e-10
2.756024389906247634e-10
2.112342709117236669e-10
1.594472065436591637e-10
1.182374833430935006e-10
8.598279162837432976e-11
6.125609117033411976e-11
4.274385197261574619e-11
2.922931158514069761e-11
1.961187091562812509e-11
1.293455147692510182e-11
8.403043603628202146e-12
