# bin_15_11
8.988263934479013353e-08
8.636302226899416307e-08
8.102917247106115334e-08
7.408203479014187892e-08
6.590388573060266910e-08
5.703262963898966072e-08
4.808950302514719015e-08
3.966304197388009400e-08
3.216114991127316719e-08
2.572648730591254445e-08
2.027472769625449851e-08
1.565228197745861762e-08
1.181438400416413880e-08
8.811261839739031504e-09
6.577115312087283698e-09
4.893102592710699970e-09
3.632232735043456204e-09
2.716245037207964167e-09
2.041355182616191646e-09
1.545968171935091336e-09
1.178043585517036834e-09
9.012587917150916211e-10
6.901149815499261195e-10
5.270383789163471709e-10
4.000078336752135557e-10
3.007153016648437466e-10
2.233084173435245796e-10
1.634417104642734443e-10
1.177139708711651184e-10
8.334196766247974823e-11
5.798089533554675514e-11
