# bin_13_12
8.958159363966496859e-08
8.606593610764977857e-08
8.074629110957290733e-08
7.382377782336437002e-08
6.567928851382485124e-08
5.684743824599740635e-08
4.794454195741125266e-08
3.955304995299710242e-08
3.207745164743933256e-08
2.566078931942547770e-08
2.022335435385576491e-08
1.561622489614712793e-08
1.179315736537363954e-08
8.798030452309768896e-09
6.565935387208659286e-09
4.885764090925674778e-09
3.627068208534348509e-09
2.711911312920820899e-09
2.037839134167166476e-09
1.543010906402320149e-09
1.175471560767174652e-09
8.990372961474105333e-10
6.882226938386595528e-10
5.254568622945047569e-10
3.987171747520068822e-10
2.996907200770857658e-10
2.225187345025566609e-10
1.628524844913795063e-10
1.172893548054710941e-10
8.304715456643171083e-11
5.778414767495878050e-11
