# bin_5_5
8.456836785211319911e-11
9.319618471259719485e-11
1.004363898921374846e-10
1.052313263547166804e-10
1.065079327551250751e-10
1.030942085319725719e-10
9.425658435212318555e-11
8.149103733634050862e-11
6.719740782545421595e-11
5.525997883241380163e-11
4.733774312737425068e-11
4.010508242374586331e-11
2.968541362413625633e-11
2.116468862907288464e-11
1.702601464229139717e-11
1.157609876166392236e-11
8.719057283429984476e-12
6.091298863188406378e-12
4.324175464425939468e-12
3.098148039842655627e-12
2.236626929236248164e-12
1.637475700378762436e-12
1.218635282383276867e-12
9.243035695524074516e-13
7.118825869399483101e-13
5.539012171513353228e-13
4.326969547958862805e-13
3.369051639500769061e-13
2.597358425556015168e-13
1.971363945939382845e-13
1.466450089740570733e-13
