# bin_3_3
1.442267158308273671e-10
1.542371089921742578e-10
1.601054780326070887e-10
1.603337292010546791e-10
1.529786255298275863e-10
1.379106081069867979e-10
1.176263407493917389e-10
9.657456272605586250e-11
8.007502286149487404e-11
6.886605020399495105e-11
5.685434881361140489e-11
4.105470599981354728e-11
3.046027426517734803e-11
2.377017602069277980e-11
1.654836224968619488e-11
1.229272471779882938e-11
8.840131620586906962e-12
6.390032815336382927e-12
4.680150750962662168e-12
3.477533436919537709e-12
2.629471471334026953e-12
2.022404757516810210e-12
1.578831839925136136e-12
1.243359915295415496e-12
9.811108590852572088e-13
7.703491964818568523e-13
5.978279187167259716e-13
4.559355710681055501e-13
3.401316152368887239e-13
2.473608773298281774e-13
1.751063129292067885e-13
