# bin_9_2
1.481109664423563875e-22
1.650866470960669319e-22
1.804148553344463708e-22
1.923560149148574663e-22
1.987544686342399214e-22
1.978957131828870908e-22
1.870987571681543265e-22
1.670547730734681737e-22
1.410221825023507681e-22
1.153701774756209084e-22
9.636333494582127826e-23
8.338079147949243427e-23
6.747522383788057662e-23
4.723266705630872502e-23
3.619363519562331131e-23
2.729259137922022333e-23
1.899994085126233566e-23
1.356887037950148837e-23
9.726812899958362443e-24
6.824717490851699498e-24
4.812762089081209623e-24
3.434773706160893982e-24
2.487110143175440749e-24
1.832953908359667965e-24
1.377064447737401660e-24
1.051458697093663621e-24
8.125468697121365174e-25
6.314454979765699300e-25
4.899013587170863578e-25
3.768549748933846890e-25
2.857604634095977638e-25
