# bin_9_9
4.769609194530571296e-11
5.391483221577522170e-11
5.993342012424643460e-11
6.526077515639460309e-11
6.924503910926491627e-11
7.109893423762842410e-11
7.021999076938062889e-11
6.567248042441073471e-11
5.803696307221904431e-11
4.852502494480653844e-11
3.967790017046549210e-11
3.345865394405957019e-11
2.893459370524115481e-11
2.273177371823293306e-11
1.571544356141494055e-11
1.245754340163657542e-11
8.906597921305403902e-12
6.421684140864001099e-12
4.382262647378357136e-12
3.114393310646477588e-12
2.157534163416270121e-12
1.491183181483723893e-12
1.038581651110131864e-12
7.300319224941616209e-13
5.216611814115993009e-13
3.800752230131995641e-13
2.823561005459288957e-13
2.136197014800910782e-13
1.637722127298978551e-13
1.263891860086699345e-13
9.745058643195253880e-14
