# bin_9_3
5.393939957100664849e-19
6.022886181411610666e-19
6.596492885355144953e-19
7.052229856971073172e-19
7.311863727339197381e-19
7.310452883840358578e-19
6.950270687836253566e-19
6.238539371609551139e-19
5.293459354175146372e-19
4.334328034071598746e-19
3.604913693449511272e-19
3.117723883286169215e-19
2.555961686813227961e-19
1.803819727605913374e-19
1.357478347370199721e-19
1.045652214252488129e-19
7.154860203485953708e-20
5.196673916336243397e-20
3.699877327973186088e-20
2.586031660537672848e-20
1.819178927044883662e-20
1.292558421903990502e-20
9.315133794203509554e-21
6.827747388200860680e-21
5.103534496151157098e-21
3.880137368151349830e-21
2.989368193811326141e-21
2.319749545222136448e-21
1.800063370042454747e-21
1.386957689632775447e-21
1.054666990306962267e-21
