# bin_10_6
6.244899624809086402e-09
7.039093359691637835e-09
7.798063203007251555e-09
8.455307879026447607e-09
8.924029610352428949e-09
9.105690676290637527e-09
8.914338692389261782e-09
8.249450562688027932e-09
7.216389023865706495e-09
5.992557734701105912e-09
4.910382533416141422e-09
4.179281254357068878e-09
3.592075622792590489e-09
2.736297077746680572e-09
1.903765802317468741e-09
1.539093079476107616e-09
1.053460692689940038e-09
7.862591358695502567e-10
5.336969334591040935e-10
3.744403350211851240e-10
2.616271166695328299e-10
1.827227920269869996e-10
1.284239388513820232e-10
9.125044639192717679e-11
6.605903384802507932e-11
4.876250907225509470e-11
3.666674020926029326e-11
2.800848445042324623e-11
2.160277915551987809e-11
1.670500399058176142e-11
1.285570421397514843e-11
