# bin_7_3
4.028258833368992653e-10
4.453754542652796566e-10
4.819026581726319032e-10
5.074399119232561040e-10
5.165394989762220299e-10
5.040577258700917578e-10
4.649638318245490514e-10
4.054506692260173035e-10
3.361859213442939439e-10
2.757475142774527180e-10
2.349880333850881726e-10
2.011139720188363593e-10
1.522615443390684536e-10
1.068820973380842508e-10
8.623171950578039926e-11
5.936300726505871798e-11
4.450333554443519689e-11
3.082008504606702010e-11
2.196780495278454257e-11
1.569212796919899947e-11
1.127507608979979335e-11
8.205748769048932232e-12
6.065894031302249118e-12
4.571236043948443937e-12
3.502254627032727077e-12
2.715282316136980110e-12
2.117923461593645829e-12
1.650017933575588291e-12
1.275208153471520236e-12
9.717618781072142688e-13
7.267041211415198868e-13
