# bin_7_6
2.922941742529168600e-06
3.263341081266258456e-06
3.573508667464042299e-06
3.819462426224883319e-06
3.958717495199635012e-06
3.956225778097301680e-06
3.758797795945980435e-06
3.372393184183790844e-06
2.859413220813499959e-06
2.343188938338784558e-06
1.951566639800761108e-06
1.688255608819141324e-06
1.380734008192127914e-06
9.734296982741907243e-07
7.356085215698552745e-07
5.642037645378693412e-07
3.876502321825330605e-07
2.806081699471739449e-07
2.001203211324189315e-07
1.400205163911171175e-07
9.856686889321685892e-08
7.010898164526667494e-08
5.058205362546795117e-08
3.712230173101445385e-08
2.778018415199403094e-08
2.114172203454331951e-08
1.630010820768987973e-08
1.265384883513754563e-08
9.819616441686233232e-09
7.564184979012381593e-09
5.749097205290498581e-09
