# bin_15_15
5.301812203920927371e-06
6.087728207097596519e-06
6.900945909546263254e-06
7.695293852645917652e-06
8.408971085066132431e-06
8.959281356906722990e-06
9.243599426677584995e-06
9.184872487720172583e-06
8.653594911476277627e-06
7.700079446988424302e-06
6.476056994312981411e-06
5.296966628816965740e-06
4.443765038862207688e-06
3.850277167541655631e-06
3.080328310368078127e-06
2.131968530530624279e-06
1.659720396736267344e-06
1.218753501396072049e-06
8.529377640207083691e-07
5.849251003891614497e-07
4.127121533289943953e-07
2.790043662951774881e-07
1.862631054400857769e-07
1.242459083153040674e-07
8.263810901077666806e-08
5.513681956637274044e-08
3.712245657956912503e-08
2.533180807140181999e-08
1.762589179576716830e-08
1.255081634691943336e-08
9.155978286428617191e-09
