# bin_4_2
3.484430407579890635e-07
3.735415876288579939e-07
3.889242043598877503e-07
3.908843381618987838e-07
3.747281478115178312e-07
3.394379313470114384e-07
2.907435560625251168e-07
2.392082100669639907e-07
1.978979810490715305e-07
1.700843894629584150e-07
1.416338324877601199e-07
1.030352185769373205e-07
7.562900412382704154e-08
5.964992660774239849e-08
4.129012185415339407e-08
3.085810204423353308e-08
2.209984825778412174e-08
1.595369366540733830e-08
1.166567471549438384e-08
8.646694110258739982e-09
6.520715264336975963e-09
5.002354720918681816e-09
3.897528650974713099e-09
3.065827697456027989e-09
2.418523187095369736e-09
1.900157761061162847e-09
1.476711757028497107e-09
1.128594899564166847e-09
8.441687465329187911e-10
6.157579821098572754e-10
4.372336026291212593e-10
