# bin_9_8
3.051048873842892050e-06
3.443147621555757339e-06
3.819833461067532648e-06
4.149044799636429202e-06
4.388626372725122201e-06
4.489358257194417187e-06
4.410872720065869223e-06
4.099215107819862169e-06
3.600812218401272078e-06
2.998374576401614800e-06
2.454937084564049240e-06
2.082484037187032898e-06
1.795258478635330755e-06
1.384042402855722105e-06
9.594056030236520956e-07
7.712885348671717337e-07
5.360671131414597612e-07
3.956890452885804143e-07
2.683852902146459812e-07
1.893380074294102579e-07
1.319099880883968124e-07
9.179937434915643762e-08
6.430369205942051174e-08
4.550206669843983066e-08
3.278066523414698183e-08
2.408102827088216028e-08
1.802814655062454511e-08
1.372450985939512789e-08
1.056433369475191124e-08
8.165114952768381676e-09
6.289515532972181694e-09
