# bin_13_3
4.811780334291508989e-23
5.454856113790278489e-23
6.085354138748881597e-23
6.655148923469247820e-23
7.099772036583253479e-23
7.338994573518080023e-23
7.310167856997192873e-23
6.912026492490182529e-23
6.171721572385181482e-23
5.209024250691757005e-23
4.262448972894148715e-23
3.563854203291773239e-23
3.087034067918421576e-23
2.495255584799824907e-23
1.739320168549089189e-23
1.336163394706406668e-23
1.001237405612695964e-23
6.934384233649690031e-24
4.876683555461095476e-24
3.460729609328008026e-24
2.378284421768049829e-24
1.629989129978667673e-24
1.124734344162507620e-24
7.826502555244854945e-25
5.520414909857870471e-25
3.967451286491589685e-25
2.908051685292725411e-25
2.174650339626287879e-25
1.653302752546376662e-25
1.270464691931067648e-25
9.795446678199601665e-26
