# bin_6_2
1.100331259954447440e-10
1.203382027327321777e-10
1.284636684903601757e-10
1.329905155287063351e-10
1.327327756565812765e-10
1.259530163222822051e-10
1.128973507220536220e-10
9.567827657556908467e-11
7.842108582445718356e-11
6.533609778384686244e-11
5.643261802772099203e-11
4.604690792175974265e-11
3.261166169049419931e-11
2.469266705756636076e-11
1.893537638782985763e-11
1.316863632424629489e-11
9.612507186037697951e-12
6.923379338214666228e-12
4.937224914867082990e-12
3.559320209140715272e-12
2.601790250349620030e-12
1.934141304891912639e-12
1.463632438337077182e-12
1.126506366947674760e-12
8.773345475479738891e-13
6.872693410848672668e-13
5.378005076763715680e-13
4.174521980352166430e-13
3.194910179128473447e-13
2.398847148118776003e-13
1.760165671655176184e-13
