# bin_13
0.000000000000000000e+00
0.000000000000000000e+00
0.000000000000000000e+00
0.000000000000000000e+00
0.000000000000000000e+00
0.000000000000000000e+00
0.000000000000000000e+00
1.186288410607582180e-304
1.366417173205423362e-271
1.467498996913699055e-242
5.572880505134017651e-217
2.266255397404713552e-194
2.493280915942073811e-174
1.618294173125258570e-156
1.198115150900259123e-140
1.771838028162764857e-126
8.444461256504038378e-114
1.954612891740855077e-102
3.127754407796327071e-92
4.694672780164029532e-83
8.612202043110796903e-75
2.431007306598125245e-67
1.291088832104263551e-60
1.538548999068120617e-54
4.802148385433326347e-49
4.498883780453697224e-44
1.426855305593176237e-39
1.704245508079297667e-35
8.426135334236729581e-32
1.875864516962617999e-28
2.026854840910900380e-25
1.136563200242180850e-22
3.512119605719543376e-20
6.311366494018948642e-18
6.922522603403970747e-16
4.840721361505873196e-14
2.244536070783859410e-12
7.150502708058525257e-11
1.616223309883254095e-09
2.668579569384483418e-08
3.304983701537523797e-07
3.145025568726601335e-06
2.350526836025021318e-05
1.407571482898024829e-04
6.877896460119410551e-04
2.788325637909803024e-03
9.521907641851635670e-03
2.777196883877795439e-02
7.005956673068125529e-02
1.546288506487287218e-01
3.017225369834612425e-01
5.254555290241033072e-01
8.237839355681468856e-01
1.171749214130473504e+00
1.522951338655139431e+00
1.820444873628465743e+00
2.013142453579675806e+00
2.070742014023252864e+00
1.991087902523109632e+00
1.797869908706895226e+00
1.530986880561123531e+00
1.234355400506767841e+00
9.457076603119941582e-01
6.908883715532331271e-01
4.828178592915050027e-01
3.237319114346943749e-01
2.088506528180505417e-01
1.299812922829467754e-01
7.823435254095112423e-02
4.564547488100383077e-02
2.587216063681788830e-02
1.928056422809327694e-02
