# bin_15_7
-1.807156786554721980e-16
-2.062043500467868805e-16
-2.319685343026638888e-16
-2.562854112694515914e-16
-2.768849731462710591e-16
-2.908490066234573670e-16
-2.951170411036495797e-16
-2.865069278000710589e-16
-2.625852620951164089e-16
-2.275613740725521025e-16
-1.877742436472496270e-16
-1.543042646724254440e-16
-1.323109119759902520e-16
-1.126321229014741724e-16
-8.335591507553272518e-17
-5.878573992320814299e-17
-4.767145622656836854e-17
-3.157938594327739493e-17
-2.378470710463737077e-17
-1.611795338934577250e-17
-1.097919430551029707e-17
-7.518245287594772321e-18
-5.109455656636716503e-18
-3.470659640195793931e-18
-2.367927928443040250e-18
-1.638392642721283204e-18
-1.152802827005056843e-18
-8.279399691361421442e-19
-6.079776931082850526e-19
-4.556069083888783382e-19
-3.467221351462062192e-19
