# bin_13_6
-9.910917775568644205e-16
-1.126014360898192622e-15
-1.259657704917647123e-15
-1.382293296217132527e-15
-1.480896856736024340e-15
-1.539071365590630544e-15
-1.542875202352387374e-15
-1.471619682816270406e-15
-1.324897103424055909e-15
-1.127388960092406332e-15
-9.238925073875471411e-16
-7.673249478209883003e-16
-6.639526125648090591e-16
-5.476447850704722843e-16
-3.871740560683355862e-16
-2.888415950826893709e-16
-2.240541917315670390e-16
-1.509597935993965227e-16
-1.095388699637482372e-16
-7.675663445944703326e-17
-5.246365269808245718e-17
-3.586141810627648724e-17
-2.456286737774356658e-17
-1.694990336651556747e-17
-1.182591266812379609e-17
-8.398320709852456986e-18
-6.080699973117385588e-18
-4.495776081223418898e-18
-3.387485891290988077e-18
-2.588605936297575616e-18
-1.992297853574529591e-18
