# bin_2_3
-1.675860330361232651e-08
-1.771805931106844847e-08
-1.813729264074521250e-08
-1.784422931522878168e-08
-1.664464054912445072e-08
-1.468007970245518326e-08
-1.228559575384642887e-08
-1.007038858366168071e-08
-8.485695877830311891e-09
-7.278115342557638744e-09
-5.711188391262326901e-09
-4.045318309940739504e-09
-3.163496436545470782e-09
-2.318457246797782252e-09
-1.684923733320493312e-09
-1.215240629671769922e-09
-8.876602664153209743e-10
-6.485584206960690473e-10
-4.802661828776229837e-10
-3.618609968306237627e-10
-2.774759015558114370e-10
-2.162214974688758618e-10
-1.704021716693929062e-10
-1.348929537473401357e-10
-1.065133932289799591e-10
-8.331494873965887537e-11
-6.415578269741254011e-11
-4.838441890754873406e-11
-3.559955872280663518e-11
-2.549556437449741524e-11
-1.777023555352568841e-11
