# bin_7_6
-1.028332681843458033e-08
-1.148923577915745755e-08
-1.259260914658144714e-08
-1.347474245950896857e-08
-1.398679504143896666e-08
-1.400286217861422346e-08
-1.333762182637918043e-08
-1.199466352902565633e-08
-1.019758761286704486e-08
-8.356678673034934564e-09
-6.944128798588175283e-09
-6.002797253400755335e-09
-4.938530901296653362e-09
-3.498691085243661163e-09
-2.618791812454690117e-09
-2.028347048473438408e-09
-1.383041640723328581e-09
-1.009423327806476001e-09
-7.166433720430921045e-10
-5.005182614918054985e-10
-3.520365310757619384e-10
-2.498741153905947009e-10
-1.798460564270478394e-10
-1.316218773494384670e-10
-9.823833630606382914e-11
-7.459407296072805264e-11
-5.741499242864813881e-11
-4.453193229762873912e-11
-3.455476056856645294e-11
-2.663572384362466994e-11
-2.027011721566988462e-11
