# bin_13_15
-5.777615856583650096e-09
-6.622358772001806418e-09
-7.491604759261076837e-09
-8.333032982415274907e-09
-9.077932595522235083e-09
-9.635101416208677704e-09
-9.894121199507651886e-09
-9.771515417605274541e-09
-9.135592924724708903e-09
-8.070960239630973064e-09
-6.745294245904441523e-09
-5.517312529060420169e-09
-4.658355107471882065e-09
-4.029631355055458540e-09
-3.155611580173485863e-09
-2.176641054571184078e-09
-1.731588642767300639e-09
-1.226695257941875883e-09
-8.855796462941974051e-10
-5.947008689638736392e-10
-4.174159601022890371e-10
-2.834164424429172096e-10
-1.903643047032587516e-10
-1.276003372630326667e-10
-8.537325720646056944e-11
-5.750501461364280110e-11
-3.918395649360579065e-11
-2.713475548741207814e-11
-1.919610599336858026e-11
-1.390241604595861584e-11
-1.029933226670383001e-11
