# bin_15_11
-2.810108270257786572e-10
-3.215671681831780361e-10
-3.630564136704990094e-10
-4.028672808994593515e-10
-4.375908756588539646e-10
-4.627524591455240071e-10
-4.731319244021828115e-10
-4.644857102517587092e-10
-4.311204063585288172e-10
-3.782887970670176983e-10
-3.144918614402467438e-10
-2.574703196600893797e-10
-2.186936072990037333e-10
-1.884961753576316322e-10
-1.445835179055764363e-10
-1.000140468789384102e-10
-8.068682667254541173e-11
-5.535400147573834135e-11
-4.096280196286095591e-11
-2.736536182462804204e-11
-1.895625447863577089e-11
-1.293303718070709909e-11
-8.744301822453053998e-12
-5.888038737962708294e-12
-3.964523945659456990e-12
-2.695711411701204081e-12
-1.858262624148670501e-12
-1.304502017034393986e-12
-9.364096192639184970e-13
-6.877611206034390510e-13
-5.155660443929357555e-13
