# bin_9_2
-2.758443738161871113e-20
-3.077886174342796539e-20
-3.368062072671572508e-20
-3.596810375905042569e-20
-3.724050445650759931e-20
-3.717112768931752740e-20
-3.525944329512974431e-20
-3.158445161230522428e-20
-2.674785118140615376e-20
-2.190117223620585442e-20
-1.825453210667166546e-20
-1.579093776837130360e-20
-1.287226497445577566e-20
-9.055601091896573367e-21
-6.870950023066693133e-21
-5.242721390923148412e-21
-3.616342977543586114e-21
-2.607023300165860207e-21
-1.862009767625937624e-21
-1.303915153030229814e-21
-9.184133403643823656e-22
-6.539588075696166418e-22
-4.723674633754105556e-22
-3.471387602144011058e-22
-2.601063006275925305e-22
-1.981628129642528097e-22
-1.528967499261523709e-22
-1.187343810399414631e-22
-9.213248807533432983e-23
-7.093826572279829089e-23
-5.387472234169065342e-23
