# bin_10_2
-8.969861811454024173e-23
-1.005621460166935708e-22
-1.106828301952811402e-22
-1.190543646534875931e-22
-1.243986923251741450e-22
-1.254959034929755116e-22
-1.208380514812234688e-22
-1.098393590437623954e-22
-9.440153694564921891e-23
-7.762519959621425683e-23
-6.404786278100802809e-23
-5.514026255454671233e-23
-4.633469814566351136e-23
-3.363123193323025425e-23
-2.430343729749732550e-23
-1.942704860049150391e-23
-1.300074931589314241e-23
-9.738780042818167578e-24
-6.780834719245010753e-24
-4.713961460950157127e-24
-3.309731022716793228e-24
-2.332902166348369235e-24
-1.663270903800102734e-24
-1.203517349945491353e-24
-8.883484521054568958e-25
-6.679324697093810509e-25
-5.102049476374884225e-25
-3.939876475288569960e-25
-3.054238181211267262e-25
-2.359712610742098612e-25
-1.804808124524008258e-25
