# bin_4_13
-1.351789416571820345e-21
-1.533379639798516831e-21
-1.711913889921302865e-21
-1.873948932144051584e-21
-2.001464100631528648e-21
-2.071941807696823664e-21
-2.067478527397711622e-21
-1.959496167809642660e-21
-1.753565267727196633e-21
-1.483196376857217690e-21
-1.214026802777281329e-21
-1.013162016858352281e-21
-8.775456314357440273e-22
-7.134633154735516753e-22
-4.988742775095660214e-22
-3.802763572038209582e-22
-2.877850001853709343e-22
-1.976710814498183958e-22
-1.401814328191031053e-22
-9.922474705504108876e-23
-6.808123669405583741e-23
-4.660620580191322180e-23
-3.209209283834771306e-23
-2.228080181160383320e-23
-1.566955829439297498e-23
-1.122572068517729491e-23
-8.201774655548572420e-24
-6.115486756472138269e-24
-4.639042305355607253e-24
-3.560196981358218287e-24
-2.744149999166899134e-24
