# bin_2_5
-3.361489695745300590e-11
-3.644149465402467384e-11
-3.847952071425653904e-11
-3.931147865118966349e-11
-3.856738450208732703e-11
-3.581926067348397764e-11
-3.145322356831973702e-11
-2.620359718243704874e-11
-2.146418256684005168e-11
-1.816854893190159310e-11
-1.560102772326678612e-11
-1.207472674014419463e-11
-8.473403474041759940e-12
-6.740844593244423623e-12
-4.807438665222080140e-12
-3.540385804521448818e-12
-2.497853269798366985e-12
-1.811395538712331521e-12
-1.309574062118767446e-12
-9.559571320912940363e-13
-7.090658827667295310e-13
-5.349379432431296963e-13
-4.107927208129071774e-13
-3.198627159864914731e-13
-2.510219694048412884e-13
-1.972460672652168288e-13
-1.540907756084340484e-13
-1.189063949309253391e-13
-9.013815533940444374e-14
-6.683227859503639020e-14
-4.831633330623301418e-14
