# bin_15_10
-3.029625710692924265e-11
-3.464448829222269174e-11
-3.908065326819515240e-11
-4.332097637676535628e-11
-4.699476170733803851e-11
-4.961795051547183994e-11
-5.063759210982756657e-11
-4.958173565179466229e-11
-4.587812159986621214e-11
-4.013655260813476248e-11
-3.330006167667178527e-11
-2.727980910459091838e-11
-2.322837044224730925e-11
-1.997539156908713675e-11
-1.518775362555594560e-11
-1.053672410032617321e-11
-8.532821946905225615e-12
-5.785468339157996533e-12
-4.314361017895270990e-12
-2.886826488114954785e-12
-1.988232126118299232e-12
-1.358782782510414623e-12
-9.206278840387209670e-13
-6.211608621233766940e-13
-4.194836632276484692e-13
-2.864171775634551248e-13
-1.984251500693588429e-13
-1.400904152399012538e-13
-1.011530537401823208e-13
-7.469636458144917647e-14
-5.623528462097075539e-14
