# bin_7_11
-4.685059407660637801e-11
-5.306214336167799395e-11
-5.912611686984932920e-11
-6.456973846750272715e-11
-6.876069712715917847e-11
-7.091799128775556806e-11
-7.044391608818378954e-11
-6.636365042380959713e-11
-5.905496317795236799e-11
-4.968167631803837759e-11
-4.064016944439013275e-11
-3.407971413113618325e-11
-2.951574250829908999e-11
-2.363769933608664132e-11
-1.640920471325120832e-11
-1.275373639186422599e-11
-9.408231071731258892e-12
-6.604005761855597451e-12
-4.587843200227876341e-12
-3.264699541431465605e-12
-2.249403230697194283e-12
-1.545155277624455616e-12
-1.069671166664364346e-12
-7.469412477544064445e-13
-5.292403087454003943e-13
-3.821920658018226707e-13
-2.814894271671431454e-13
-2.114005360719930036e-13
-1.612326224206503267e-13
-1.241178633386612355e-13
-9.572228417008193297e-14
