# bin_5_5
-2.060239511137950053e-08
-2.272790606803571448e-08
-2.452496075763023439e-08
-2.573706087450602750e-08
-2.609764389085577688e-08
-2.532751000381496975e-08
-2.322397914712528847e-08
-2.013801148915899415e-08
-1.663525597908287733e-08
-1.367013504440320517e-08
-1.169123900918742097e-08
-9.937465126601436255e-09
-7.409747545065035940e-09
-5.256764633238626440e-09
-4.233220092355844894e-09
-2.889483234536843657e-09
-2.173460908419806870e-09
-1.514249346142115875e-09
-1.076276307834072474e-09
-7.704421749787573292e-10
-5.553926681810023140e-10
-4.058597538045908667e-10
-3.014217197931134326e-10
-2.281655142106249549e-10
-1.754471338440884088e-10
-1.363642960360390506e-10
-1.064783149742311721e-10
-8.292300864620538620e-11
-6.397938119920979679e-11
-4.862100877310098147e-11
-3.622803603347690180e-11
