# bin_4_9
-7.682335269419080320e-14
-8.604348796598494430e-14
-9.459038512341823923e-14
-1.015948021776411443e-13
-1.059567370511954929e-13
-1.066635962371980728e-13
-1.023869479419273545e-13
-9.277628104405582808e-14
-7.948154367320122347e-14
-6.527705509768999185e-14
-5.395897001806636668e-14
-4.652717401450819565e-14
-3.888219118926767106e-14
-2.799971282310247500e-14
-2.043119841117998273e-14
-1.621294934427869973e-14
-1.088042589803421929e-14
-8.104975354692395780e-15
-5.676685807243388198e-15
-3.949268271886062189e-15
-2.773660362134729913e-15
-1.958413378980348360e-15
-1.400076239062242536e-15
-1.016465438236093961e-15
-7.527863693348536990e-16
-5.677155920876115116e-16
-4.347004538302332781e-16
-3.361802949005023723e-16
-2.607321192200226659e-16
-2.013373633255811630e-16
-1.537823176524184858e-16
