# bin_6_9
-3.032167934906318578e-10
-3.410428971571045569e-10
-3.768415160121626929e-10
-4.073138557491546518e-10
-4.282080700599337827e-10
-4.349790336642093178e-10
-4.231113075044396159e-10
-3.887408033173151924e-10
-3.377379700143359377e-10
-2.791291968136801698e-10
-2.291524321308265108e-10
-1.959876411645448242e-10
-1.672523151445034539e-10
-1.249355973485395514e-10
-8.786167709222093142e-11
-7.117348728553759188e-11
-4.788807524611129564e-11
-3.607057513605906187e-11
-2.466648573304033146e-11
-1.718825949367627957e-11
-1.204603896140086644e-11
-8.447425774955427635e-12
-5.969556079546280387e-12
-4.271321653982715274e-12
-3.116226158363898772e-12
-2.317692820946111418e-12
-1.754383361312468094e-12
-1.346592556223334615e-12
-1.041251272360118062e-12
-8.052676820663977147e-13
-6.184099081954466418e-13
