# bin_15_2
-3.402483340234756069e-34
-3.874656820103513679e-34
-4.347557960329909732e-34
-4.788317593139505998e-34
-5.153250262033816627e-34
-5.386828781501458993e-34
-5.436041951063877156e-34
-5.234688482824621910e-34
-4.757213598209534806e-34
-4.087331861067851277e-34
-3.359922419832739463e-34
-2.773009567352699306e-34
-2.390031554140641862e-34
-2.008142681996388931e-34
-1.452298212373046359e-34
-1.049145304673501801e-34
-8.383518697350081730e-35
-5.552419829023091534e-35
-4.139883602569022664e-35
-2.848141137783053060e-35
-1.939065255718320255e-35
-1.326434299393787722e-35
-9.034295392651954020e-36
-6.179291197437113684e-36
-4.259321931120064428e-36
-2.983348034205324422e-36
-2.128180683912822147e-36
-1.550539677903194645e-36
-1.153703578653701404e-36
-8.736796690760490988e-37
-6.693015868445884946e-37
