# bin_13_8
-6.945759995341370571e-12
-7.906046772773381634e-12
-8.865734389772243470e-12
-9.757523944929929788e-12
-1.049180854596478787e-11
-1.095494931624494097e-11
-1.104087446675756338e-11
-1.061180675792144863e-11
-9.625257740373369812e-12
-8.253457209410069103e-12
-6.779269182326089460e-12
-5.601318772794320379e-12
-4.832887741046842551e-12
-4.047222144191118316e-12
-2.911811937577451446e-12
-2.116527536653651114e-12
-1.683442858137276158e-12
-1.116650808753936050e-12
-8.294175804963569062e-13
-5.727198693262128153e-13
-3.900693235904685721e-13
-2.667473502747425922e-13
-1.818105679573591358e-13
-1.245653045442377948e-13
-8.606968483559843962e-14
-6.045564726427407979e-14
-4.325998878435465944e-14
-3.161753026378744900e-14
-2.359146104178302362e-14
-1.790360226556885594e-14
-1.373264836212793011e-14
