# bin_5_5
4.812820820536285950e-08
4.384686859550603687e-08
3.888554104634194433e-08
3.356419210271949061e-08
2.824519255944525130e-08
2.326447835728149410e-08
1.884807045095204970e-08
1.506906160526202071e-08
1.187402166675561742e-08
9.176387967340757272e-09
6.951635969493543194e-09
5.220107601368456316e-09
3.931654445469155352e-09
2.960446440637263987e-09
2.233533678170901931e-09
1.701135784819917322e-09
1.305317715584367588e-09
1.009890582106146196e-09
7.857558677189376783e-10
6.127748831336127286e-10
4.770572112348308155e-10
3.692332628437325065e-10
2.830149583521248087e-10
2.140999810585039754e-10
1.594162312965360094e-10
1.165901054977443376e-10
8.363965972580218234e-11
5.881729296914492703e-11
4.054740489468298266e-11
2.742244680648863526e-11
1.821825504097269235e-11
