# bin_15_11
8.997098081641543162e-08
8.647994941299160397e-08
8.117117096021587259e-08
7.424310148766551557e-08
6.607595313318940991e-08
5.720638831576543305e-08
4.825581360460236569e-08
3.981468646177534580e-08
3.229415253084956380e-08
2.584016177469702522e-08
2.037031446780862113e-08
1.573096405486445694e-08
1.187673047397040078e-08
8.858765030741379641e-09
6.613002577150535391e-09
4.920102720416203077e-09
3.652059483890708180e-09
2.730866015801275210e-09
2.052095153481093325e-09
1.553918024686464155e-09
1.183975738390361253e-09
9.057333693455015636e-10
6.935260097841510373e-10
5.296597712143475835e-10
4.020310317047821164e-10
3.022759864682666459e-10
2.245059655040618925e-10
1.643517386420750801e-10
1.183963135260683975e-10
8.384538482086805905e-11
5.834563457581419965e-11
