# bin_7_6
5.850879060578987462e-08
5.419964638726600649e-08
4.890353307480841372e-08
4.293582214896277194e-08
3.669829430351005983e-08
3.061583953150621214e-08
2.504531446521237962e-08
2.018486306823038765e-08
1.605488727323203764e-08
1.256031421044166023e-08
9.619200819065511694e-09
7.237961019670052222e-09
5.427470498985830897e-09
4.080649061755015785e-09
3.059638773600063831e-09
2.307263416517943183e-09
1.753525782394544628e-09
1.343326327185206471e-09
1.036468266927410097e-09
8.036098688200659602e-10
6.239065002330988661e-10
4.831272718172613192e-10
3.716682310405161215e-10
2.830075215668397811e-10
2.126255886773339812e-10
1.572244009586826662e-10
1.142104936830138814e-10
8.140763878376786040e-11
5.690891933478940732e-11
3.902336455619568945e-11
2.626850573159677778e-11
