# bin_2_2
2.221940500267913745e-08
1.905874746587169198e-08
1.595653212723528889e-08
1.309294261304749211e-08
1.057767400092277371e-08
8.434668061919024107e-09
6.626072293091574426e-09
5.108561875699037271e-09
3.874565907226865798e-09
2.926143883161967691e-09
2.219431154194486487e-09
1.686602331465511947e-09
1.289759464863162712e-09
9.964694564448003160e-10
7.767483035656044304e-10
6.101135763864471208e-10
4.812283661673408114e-10
3.795505588923101478e-10
2.979909140960767899e-10
2.318866605706752628e-10
1.781643529525192714e-10
1.347254250830660443e-10
1.000218633196884564e-10
7.278152969221073158e-11
5.186058910261170963e-11
3.618336326225867378e-11
2.473675959208825360e-11
1.659367754276709984e-11
1.094304726348724404e-11
7.110213631256416030e-12
4.562056760239195226e-12
