# bin_9_9
7.355961418044585831e-08
6.952198797257180418e-08
6.407912299074915325e-08
5.750249455692775574e-08
5.020252353769575368e-08
4.268102917617925593e-08
3.544625893143714811e-08
2.889616817743435423e-08
2.322176060800002522e-08
1.840738016337634950e-08
1.432849836909090522e-08
1.090941724132042041e-08
8.175578384179482070e-09
6.117303158741770580e-09
4.579639545393281840e-09
3.416397816320378570e-09
2.565713627440346735e-09
1.938768330900899074e-09
1.476675439594724995e-09
1.132115282933957396e-09
8.719131304228008859e-10
6.723643700554990315e-10
5.172050794967995831e-10
3.953873256061392811e-10
2.993314146026698783e-10
2.237439970670758122e-10
1.647360080937961945e-10
1.192608934522409170e-10
8.479902787089800729e-11
5.919045471410284659e-11
4.056246548453078384e-11
