# bin_13_5
6.204885959347172205e-08
5.762483003533233851e-08
5.210726412913645552e-08
4.582349207893385300e-08
3.920414220939604436e-08
3.271919565452513160e-08
2.677239096081149661e-08
2.159037299264087507e-08
1.719295543378468616e-08
1.346091872493785215e-08
1.029858370524882966e-08
7.734071023990632720e-09
5.798881500348222151e-09
4.358469703399231780e-09
3.261273320273140159e-09
2.458811916521896585e-09
1.866618063416583446e-09
1.429611931521694176e-09
1.103044050082195073e-09
8.555519770044565443e-10
6.647277266991131827e-10
5.152650090914514108e-10
3.968733699396230681e-10
3.025881173871395042e-10
2.276229568326354925e-10
1.685061671430937017e-10
1.225204109386852811e-10
8.738911978223480739e-11
6.111201871450915023e-11
4.190682309303379378e-11
2.820198428579941098e-11
