# bin_14_12
9.077142173849711449e-08
8.735962972889634916e-08
8.211291907292080120e-08
7.522185677863983170e-08
6.705967900424017401e-08
5.815879373681860343e-08
4.914109701596475548e-08
4.060347121523375621e-08
3.297111943040970662e-08
2.640576146021971976e-08
2.083727347054926602e-08
1.611469505081037423e-08
1.218440395890552640e-08
9.092457121467259013e-09
6.784867518745591020e-09
5.049304614502210472e-09
3.746096766397133782e-09
2.798694965466285920e-09
2.100939062773852924e-09
1.589195888035162886e-09
1.209506258654090062e-09
9.243794710489501991e-10
7.072925866925515147e-10
5.399335910091323085e-10
4.097709939158526895e-10
3.081439110011380688e-10
2.289643509017239005e-10
1.677325025756950449e-10
1.209440709164300225e-10
8.574640216136917774e-11
5.974569066175550880e-11
