# bin_7_2
3.235142494108270045e-08
2.840178102680130514e-08
2.426965655532258677e-08
2.024179014825274836e-08
1.655914337833579462e-08
1.335358314281689621e-08
1.063211235609665605e-08
8.324632722121496737e-09
6.380476452154178886e-09
4.814780423189384693e-09
3.631223819185236874e-09
2.747297561749623173e-09
2.078858975081170902e-09
1.586270637801911349e-09
1.221748448535030634e-09
9.497837414110701551e-10
7.439175165940616665e-10
5.851212925886699983e-10
4.601925994422020156e-10
3.602818252974660735e-10
2.795618561862435929e-10
2.141752088321741761e-10
1.614827983427867419e-10
1.195312263379617482e-10
8.671587021857188442e-11
6.160178046904216090e-11
4.284912745898206159e-11
2.920544642236941629e-11
1.953362822425148154e-11
1.284539870050912586e-11
8.323895045875069676e-12
