# bin_12_11
8.516642535543400639e-08
8.151408694168061276e-08
7.616157159006511723e-08
6.932879492034964967e-08
6.140581137369624896e-08
5.292109220036160447e-08
4.446571434482775216e-08
3.657678882744627234e-08
2.960102754212889292e-08
2.363419752829563538e-08
1.857667888215835284e-08
1.429549837505571682e-08
1.076933626643578016e-08
8.037160774752078073e-09
6.005424399658499607e-09
4.469896007516381372e-09
3.327086051978962942e-09
2.494476491206527845e-09
1.880890291740886338e-09
1.428839063146143565e-09
1.091847715863820747e-09
8.371524911372511023e-10
6.419310675212769715e-10
4.905114376434741029e-10
3.721674058842016236e-10
2.794749194404686305e-10
2.071594505600056345e-10
1.512565705736280934e-10
1.086228853003317676e-10
7.665526671722499712e-11
5.314282432983000252e-11
