# bin_12_7
7.220562239386150284e-08
6.806048935219865761e-08
6.254129040283504963e-08
5.593217580532556146e-08
4.865448989020474137e-08
4.121559330655670437e-08
3.412132787774956472e-08
2.775023317467643652e-08
2.226386016912303368e-08
1.761626830621117171e-08
1.367158345709184489e-08
1.037026146946100317e-08
7.758939351708968265e-09
5.812987517529114232e-09
4.350241980970657358e-09
3.247035211657150841e-09
2.444479599398519440e-09
1.850874178651694824e-09
1.413314659662293619e-09
1.086291916864235692e-09
8.384046973005085499e-10
6.475465950314735322e-10
4.985703588314257327e-10
3.812140558521275940e-10
2.884445033497184788e-10
2.153414055199573123e-10
1.582536995512797334e-10
1.142889986836738658e-10
8.102629567058580086e-11
5.636979684875711487e-11
3.849108384985034312e-11
