# bin_9_5
5.790525815224331723e-08
5.352100350354241693e-08
4.816661977508329999e-08
4.216743196362921429e-08
3.593392390353042332e-08
2.989627838462506945e-08
2.440534265282510307e-08
1.964175078937562084e-08
1.560319415413052209e-08
1.217992581496537320e-08
9.297327769697100915e-09
6.981456213169689388e-09
5.239780860173640492e-09
3.939890352181013717e-09
2.953376969277718645e-09
2.231858097919469118e-09
1.698450109135631349e-09
1.303877069073945068e-09
1.008000116207433089e-09
7.828326412610352396e-10
6.085171063165075873e-10
4.715254957095622661e-10
3.627677174278954888e-10
2.760777173374895205e-10
2.071839232010559916e-10
1.529441956861939736e-10
1.108616781908044254e-10
7.881817320472727037e-11
5.494035438332512207e-11
3.755786091127766434e-11
2.520287798426378206e-11
