# bin_14_7
7.434257568887214912e-08
7.022582807106887776e-08
6.467462004887765215e-08
5.796801633477072588e-08
5.053013368906139776e-08
4.288094957393246422e-08
3.554925835302960030e-08
2.894176322251510120e-08
2.324238893212199124e-08
1.841339521203967114e-08
1.431100758729831315e-08
1.086540745729056150e-08
8.128100258860783290e-09
6.087138563487187007e-09
4.554558402972451966e-09
3.395964432622616263e-09
2.553885811862662163e-09
1.931241473629066935e-09
1.472955616048430599e-09
1.130996583998178926e-09
8.723018446963306498e-10
6.735128511382289182e-10
5.186017395601235942e-10
3.967114886254999159e-10
3.004087017155526853e-10
2.245141683835266701e-10
1.652082127551693373e-10
1.194844179437750231e-10
8.484016215248280147e-11
5.911566693974755486e-11
4.042806072494863777e-11
