# bin_2_1
1.662462731086679441e-08
1.399261865636560645e-08
1.153277641526637885e-08
9.350352347287089129e-09
7.479655931013963437e-09
5.897967511631023488e-09
4.568782681806917279e-09
3.479870404191010685e-09
2.632280910254250974e-09
1.997371569469296081e-09
1.520705338257411006e-09
1.163964623272155985e-09
9.000827389605792793e-10
7.026374820748633579e-10
5.529737067073406611e-10
4.372779196449505606e-10
3.459840668138359001e-10
2.726450376469194306e-10
2.130361300988666145e-10
1.644003379826196658e-10
1.248834163510668713e-10
9.314139326712932950e-11
6.808322271447699349e-11
4.872742449317573305e-11
3.414143635914112275e-11
2.343441138746761000e-11
1.577902682024383330e-11
1.044182100740155820e-11
6.805944503742944764e-12
4.379237593117689743e-12
2.787748063650741723e-12
