# bin_14_4
5.516286209482755997e-08
5.064138054993814477e-08
4.523262270530644564e-08
3.928378692159015794e-08
3.321736122762437972e-08
2.745600557170411293e-08
2.230850457184923953e-08
1.789592407306356897e-08
1.415975347886602661e-08
1.097794387288257380e-08
8.317361098859468740e-09
6.235418544540433747e-09
4.693140661497668641e-09
3.525035969703088169e-09
2.650417468442543122e-09
2.011931350507275248e-09
1.538768655059711849e-09
1.187382046953469320e-09
9.224045484488298067e-10
7.190819197838440930e-10
5.603071214363211655e-10
4.345368755574007401e-10
3.340524834544207342e-10
2.536344177988978512e-10
1.896328059220457492e-10
1.392937271766874630e-10
1.003626876211790324e-10
7.087108042792357537e-11
4.904244803773429021e-11
3.327751514168034239e-11
2.216934119454478628e-11
