# bin_14_13
9.285046818479768556e-08
8.954112229506851975e-08
8.434935599086194795e-08
7.745384255529146298e-08
6.921986935098002140e-08
6.017893819212774451e-08
5.096179188041872395e-08
4.218499835811088197e-08
3.430285247953856306e-08
2.750433210832008135e-08
2.173500761397308383e-08
1.684098391709801009e-08
1.275529996077099129e-08
9.521523649623446232e-09
7.100781044008352681e-09
5.284469468047187842e-09
3.916842362281381147e-09
2.921919246004605916e-09
2.189920796170906983e-09
1.653651456974071847e-09
1.256435703021742197e-09
9.588905129263131119e-10
7.329418417734933087e-10
5.591837629626496506e-10
4.243292600997134007e-10
3.191975321805487548e-10
2.373541286633728643e-10
1.740720742779357568e-10
1.256944662912993694e-10
8.926462350627882487e-11
6.231437291446975739e-11
