# bin_8_1
2.212816782887253603e-08
1.886412149755808679e-08
1.570769147064109692e-08
1.283786391756417959e-08
1.034519580482245358e-08
8.226299280780514509e-09
6.429670571406723247e-09
4.925598540367261719e-09
3.724584710583973038e-09
2.816434074361699896e-09
2.136655093209537899e-09
1.625131521073722104e-09
1.247136601017150135e-09
9.667825203276891528e-10
7.565180244207359434e-10
5.962145056001347966e-10
4.714431393055628563e-10
3.723309612182037065e-10
2.923337660698629277e-10
2.271924092303539879e-10
1.741128295378579130e-10
1.311767794609468243e-10
9.693469962939835471e-11
7.015498716888809061e-11
4.969652622634707729e-11
3.446561595680620606e-11
2.342521520408543604e-11
1.562933181951211531e-11
1.025805763198516814e-11
6.638161391266489828e-12
4.244981542109521349e-12
