# bin_11_7
1.272875115715164537e-13
1.441447280201521137e-13
1.605916000419156913e-13
1.753419007917754489e-13
1.866759901099669029e-13
1.924721237898487252e-13
1.911111955553343723e-13
1.799520612716433130e-13
1.600539696094827157e-13
1.345921958279902236e-13
1.100944087724531058e-13
9.235935483856634922e-14
7.998711019876150551e-14
6.397202737194356117e-14
4.438943953340992919e-14
3.455500018611049211e-14
2.543372647452228227e-14
1.788741037871540552e-14
1.240651152094197352e-14
8.830541751565381455e-15
6.086541133177716604e-15
4.182486334683290212e-15
2.896737089323289420e-15
2.023722784768504003e-15
1.434777998208797816e-15
1.036809332511289488e-15
7.641155775263671702e-16
5.741803701154785142e-16
4.381013857843092828e-16
3.373270436135362246e-16
2.601577880340794666e-16
