# bin_14_7
1.084778090194631531e-17
1.235598797450936890e-17
1.386819957085013642e-17
1.527973660973874747e-17
1.645165270481721629e-17
1.720718833640477654e-17
1.737534475059983590e-17
1.674767906557799021e-17
1.523378469897164556e-17
1.310116077462995650e-17
1.077292334048645856e-17
8.885780343383332643e-18
7.655444659465716682e-18
6.443156914710622978e-18
4.670289833679551140e-18
3.363364065200722769e-18
2.695088323542676054e-18
1.782268769362302786e-18
1.332163640737866895e-18
9.148991603811063631e-19
6.226252383624393342e-19
4.259748903339366540e-19
2.899913692109510553e-19
1.981853872551467529e-19
1.364465684904730423e-19
9.544342716713185916e-20
6.798470570108146224e-20
4.945835913898679275e-20
3.675245049021036473e-20
2.780527973831653356e-20
2.128988448990161370e-20
