# bin_14_10
4.731918322271465523e-13
5.403386110184641937e-13
6.084395372958961283e-13
6.730055525735797494e-13
7.281455900311841447e-13
7.662469973664771305e-13
7.790485840919486173e-13
7.586186691479579777e-13
6.975658297418201705e-13
6.065219981666858102e-13
5.013421318820333184e-13
4.114510617018147701e-13
3.520027545159875426e-13
3.008628515630297335e-13
2.247313106923397437e-13
1.573724562671511933e-13
1.278291957598022950e-13
8.512581362761763731e-14
6.406460165772327352e-14
4.318678032643625536e-14
2.948582273569637274e-14
2.018933804411598232e-14
1.371273228257962353e-14
9.292254830403983749e-15
6.316384505567373490e-15
4.350216413259603799e-15
3.044607768602635451e-15
2.174033303738086568e-15
1.587611596264393837e-15
1.184155466916270861e-15
8.982042497624216260e-16
