# bin_10_9
2.947045836522165876e-11
3.333564605702475075e-11
3.708845533377253211e-11
4.042730709157995655e-11
4.295134001634152394e-11
4.417445773760395927e-11
4.371758867040666299e-11
4.099870128103536956e-11
3.632862727455050055e-11
3.045581210741355460e-11
2.491844728259115518e-11
2.097259927619917773e-11
1.813661139364230294e-11
1.434714356948178831e-11
9.954439350752347192e-12
7.821626134050647815e-12
5.660459123637330402e-12
4.038506910139042516e-12
2.782966880085206733e-12
1.974634983739806259e-12
1.365291672220827117e-12
9.418660153474206497e-13
6.544897741557747841e-13
4.589581426495831468e-13
3.269440481075481174e-13
2.374297823879783837e-13
1.758183713819121754e-13
1.326415742956687631e-13
1.014771944091267930e-13
7.822189268433965657e-14
6.029965397031993995e-14
