# bin_7_7
4.822100550177791300e-11
5.391242836311898655e-11
5.913921334022920236e-11
6.334810239713556039e-11
6.584459601270088582e-11
6.602050027658058120e-11
6.303164605674970298e-11
5.682196080184819776e-11
4.843528287944479810e-11
3.973509687268553976e-11
3.297187825739255237e-11
2.846035576955400814e-11
2.351099110009314990e-11
1.677869568890817596e-11
1.245526210673716635e-11
9.701504126146589629e-12
6.603390481662565895e-12
4.843370215212733479e-12
3.418872798329491741e-12
2.386561303298898291e-12
1.678556717003027457e-12
1.189739509473448586e-12
8.543794390877178711e-13
6.235711835910572598e-13
4.641588988139511221e-13
3.515882719913916241e-13
2.700892062748861099e-13
2.092265960495650925e-13
1.622763953513048938e-13
1.251251034607280117e-13
9.531359208675458989e-14
