# bin_9_2
3.200373505599278166e-17
3.564154664612323445e-17
3.891051192963677178e-17
4.143287201986190199e-17
4.274710307282882173e-17
4.247560499473131952e-17
4.006487243076489123e-17
3.570136927336637757e-17
3.009888974303293084e-17
2.464435242759151184e-17
2.063134089785151280e-17
1.782433879980623464e-17
1.432589837036937801e-17
1.005233944162185866e-17
7.737687736939997358e-18
5.777880428398458475e-18
4.059724098173155605e-18
2.891499075141826648e-18
2.067149187440533952e-18
1.453476327410608483e-18
1.027696971999864085e-18
7.349423714983282480e-19
5.332009729737482371e-19
3.937846197106371909e-19
2.963844912540238248e-19
2.266200467329155042e-19
1.752621289362109448e-19
1.362085990935239643e-19
1.056154736783321888e-19
8.115439873279067394e-20
6.144477705207549077e-20
