# bin_9_6
5.166971881658969546e-12
5.797703472017741878e-12
6.387802931956829650e-12
6.879787621539781473e-12
7.200354467784304263e-12
7.277230723192390335e-12
7.026846142772321072e-12
6.406980181288018130e-12
5.523977307765763150e-12
4.550061710291372310e-12
3.749593708277277811e-12
3.220992247078538710e-12
2.717011378123474320e-12
1.990476851706970008e-12
1.428146343112911629e-12
1.143500752707645027e-12
7.688834500503535330e-13
5.753605332950410798e-13
3.986031502063960918e-13
2.775653339190217162e-13
1.947425645679995711e-13
1.370634700817774032e-13
9.746868408315758661e-14
7.029534641744627673e-14
5.170844339843694225e-14
3.875336549815255291e-14
2.952120755988471308e-14
2.275363572175022624e-14
1.762290250901675234e-14
1.361679830190864444e-14
1.042505699920345518e-14
