# bin_10_10
3.374689501851011527e-11
3.823896559500875913e-11
4.263463750143538207e-11
4.659450299408678220e-11
4.966511911444949286e-11
5.128591870022283238e-11
5.101586135736305033e-11
4.815985680289738720e-11
4.293986723135997129e-11
3.620018119062082807e-11
2.962688682869304536e-11
2.480413147311015614e-11
2.147097669616231450e-11
1.727769362498726567e-11
1.204857346855789095e-11
9.289868651139733215e-12
6.912506323282067335e-12
4.819030323179852172e-12
3.378153669038566073e-12
2.393372613296709249e-12
1.646885882613325228e-12
1.130855139983821340e-12
7.814164833537860667e-13
5.445210212757325569e-13
3.847786376477831303e-13
2.770640682718018179e-13
2.034578977207146747e-13
1.523802266981834522e-13
1.159650861684654476e-13
8.914345162631942539e-14
6.870962046620149467e-14
