# bin_10_5
1.157887207196406530e-13
1.300913127225982503e-13
1.435571543599565910e-13
1.549137236417566588e-13
1.625286040397365409e-13
1.647209500779379903e-13
1.596975416357763233e-13
1.462321636527866597e-13
1.266190340646485567e-13
1.045049475533140018e-13
8.594834839306789102e-14
7.364444958134900212e-14
6.250452254228014425e-14
4.630557805791880636e-14
3.287883368573313456e-14
2.646077638970229876e-14
1.783246827576506842e-14
1.336840855048626184e-14
9.202004668553058691e-15
6.414668298886820306e-15
4.496045297987717808e-15
3.156957736364521837e-15
2.237026875137656382e-15
1.606224426587000874e-15
1.176059329530507013e-15
8.776125301394708191e-16
6.661368851755382969e-16
5.121982489809087971e-16
3.963023942729767802e-16
3.063313686420023685e-16
2.349044111281387646e-16
