# bin_11_5
2.137990523249963147e-17
2.414367657457812916e-17
2.680685490348268708e-17
2.914678367116552079e-17
3.086952177737868756e-17
3.162637837979622448e-17
3.114199195248700672e-17
2.901906747007000364e-17
2.555903195710917412e-17
2.131536337497924830e-17
1.744120006566103396e-17
1.475699299785702977e-17
1.274015836500331532e-17
9.901765343924404394e-18
6.852930978458550834e-18
5.478487509799058858e-18
3.852889144151258471e-18
2.816618270761460521e-18
1.913793993092330257e-18
1.354733882144671069e-18
9.415517642820092207e-19
6.533452548848262340e-19
4.565335324540289899e-19
3.221208851846157004e-19
2.312551372300168114e-19
1.692897178254446660e-19
1.263270585855834841e-19
9.592139327701997720e-20
7.371263266820539134e-20
5.693843069839371685e-20
4.387839097684565577e-20
