# bin_1_1
9.993496767432855472e-08
9.489418564393037998e-08
8.550134145144575580e-08
7.328768469882242364e-08
6.082204779406040542e-08
5.058834509104828309e-08
4.270632120840176137e-08
3.483768834564776581e-08
2.623624988846211033e-08
1.948858284225253064e-08
1.485643851313771094e-08
1.089646404621709324e-08
8.036068381916419243e-09
5.938343995913293114e-09
4.436123974779502813e-09
3.363253378587882861e-09
2.596614440641694169e-09
2.039852368154007241e-09
1.624113052865520142e-09
1.302770713029249450e-09
1.045129160453703054e-09
8.324165126447841427e-10
6.538979097170700905e-10
5.037739237866143621e-10
3.790107667851486264e-10
2.777306580002055402e-10
1.980738537972042224e-10
1.376168466896959962e-10
9.335748485355044188e-11
6.202260651171440098e-11
4.048196531257886361e-11
