# bin_13_9
7.378273206993813344e-12
8.401246747636409467e-12
9.425291201533356177e-12
1.037904850762861244e-11
1.116767620013669135e-11
1.167071706210366588e-11
1.177356337034191302e-11
1.133245755625617999e-11
1.029362711889434240e-11
8.839879622460136555e-12
7.265007254434029363e-12
5.997396104125896562e-12
5.170754334550235600e-12
4.341149473260494138e-12
3.135283541476180432e-12
2.268177678418052468e-12
1.810875623465329904e-12
1.199367021336797807e-12
8.936948218992771839e-13
6.153963231094052837e-13
4.189669906952087322e-13
2.865782552702412986e-13
1.952105945418640774e-13
1.335761639673572198e-13
9.212696311227662129e-14
6.457453331564139275e-14
4.610070528630881698e-14
3.361498008089886694e-14
2.503011202240144131e-14
1.896580852383867674e-14
1.453443579094555425e-14
