# bin_2_13
5.100769492346220076e-07
5.288809308616159896e-07
5.288827290902529038e-07
5.047483047634112131e-07
4.561340488521185484e-07
3.909159627176692836e-07
3.231517041998091090e-07
2.683482974290512588e-07
2.283885619707569225e-07
1.876704267019241819e-07
1.394823942203586167e-07
1.031420624579658177e-07
7.928644423774288686e-08
5.705601610336916455e-08
4.197153084178885639e-08
3.047181662911516368e-08
2.236230646032999485e-08
1.658544788450638248e-08
1.249839970591841823e-08
9.586570755733433408e-09
7.471701422904386097e-09
5.894772135867367117e-09
4.677048687491725599e-09
3.705434828440311563e-09
2.911268915075137616e-09
2.253968826838991516e-09
1.710535296467401241e-09
1.267423732700647944e-09
9.146888093242366031e-10
6.426676762845480030e-10
4.401429018782020748e-10
