# bin_3_10
3.142554486249945506e-07
3.356873170514930572e-07
3.480469320114781810e-07
3.479558951031717219e-07
3.315378299809899131e-07
2.987392205968474360e-07
2.549764742049167965e-07
2.099279111086989377e-07
1.744308874962067723e-07
1.493812328007345769e-07
1.226007753137082124e-07
8.946235131400979107e-08
6.646207448900069030e-08
5.126272476688560308e-08
3.624295744325873230e-08
2.669992319136660960e-08
1.919471911983011559e-08
1.392030494158516641e-08
1.019962299356574676e-08
7.580565381705333035e-09
5.732028575882577794e-09
4.407963238315389302e-09
3.439365133674214171e-09
2.706658326465014746e-09
2.133924507860734374e-09
1.673898879453564233e-09
1.297768552011022180e-09
9.888511832875388058e-10
7.371576321767161198e-10
5.359082967412122090e-10
3.794067006377868771e-10
