# bin_2_11
4.848273664897325945e-07
5.025990760029710712e-07
5.024750724416013162e-07
4.793920054198135902e-07
4.330743933298508294e-07
3.710424922639743301e-07
3.066895372580805265e-07
2.547157104110540211e-07
2.167971281759262750e-07
1.780557087559979383e-07
1.322698250441066795e-07
9.785132693612833136e-08
7.520107644807042081e-08
5.411036858992048114e-08
3.980786075181457548e-08
2.890282378704978694e-08
2.121289445511887127e-08
1.573563041223036570e-08
1.186030666403162120e-08
9.098918891759469479e-09
7.092862774877028750e-09
5.596599579075565777e-09
4.440759313057611824e-09
3.518235567593762986e-09
2.764022844543851553e-09
2.139718446953415689e-09
1.623566892870398213e-09
1.202748496828910421e-09
8.678274692707005903e-10
6.096122989694354611e-10
4.174215870455949286e-10
