# bin_14_4
1.712386062426078711e-25
1.946608709945818185e-25
2.179248332410164150e-25
2.393559720006745833e-25
2.567163757045846571e-25
2.671831018231070296e-25
2.682827439714434343e-25
2.564953049225199341e-25
2.314374086903883074e-25
1.973957253752769571e-25
1.618649331601906431e-25
1.342109906859859114e-25
1.160483516498897399e-25
9.618161725965868740e-26
6.834254730398367197e-26
5.057713500542810021e-26
3.955512964003500942e-26
2.650288861451028942e-26
1.938116428985650050e-26
1.352073984008311356e-26
9.230312471930124718e-27
6.309317730818380610e-27
4.314259703309692511e-27
2.970533985875333794e-27
2.066406455781252091e-27
1.462649200956798291e-27
1.055312447772258646e-27
7.776170230203854559e-28
5.842801296201397656e-28
4.456309727936708518e-28
3.426787585653032903e-28
