# bin_1_14
7.815393416543589325e-07
7.665978763268725754e-07
7.164511279304861257e-07
6.354494577368969901e-07
5.384100671833030053e-07
4.460953209988993055e-07
3.730247780112824346e-07
3.130741173827418319e-07
2.494869497446732933e-07
1.857100813831871068e-07
1.392013462414424416e-07
1.050845977656669606e-07
7.667812198631451444e-08
5.653494673502657680e-08
4.166730836798651965e-08
3.108484602477881792e-08
2.353712438154193534e-08
1.813925530891386188e-08
1.421336992627334413e-08
1.127825354539878706e-08
9.008801441339953552e-09
7.191673004927795290e-09
5.697019976429013064e-09
4.449844510247686042e-09
3.408580748174954668e-09
2.550152049757254089e-09
1.858968982194216359e-09
1.319433754288027594e-09
9.127228642804098092e-10
6.167383679973566111e-10
4.082761591086008758e-10
