# bin_8_1
8.735316955471410250e-24
9.669329015740172071e-24
1.047762761657388006e-23
1.105329110976681369e-23
1.127569246076225152e-23
1.103803132515456117e-23
1.021912626081484946e-23
8.945366106190153806e-24
7.430894729138797707e-24
6.087988853806591757e-24
5.171804528782711837e-24
4.439729619138762472e-24
3.397344352521575162e-24
2.374044150051842690e-24
1.907776274645882470e-24
1.328346339939697170e-24
9.874911698513453070e-25
6.833564970310971613e-25
4.884326688816384506e-25
3.480577000555155171e-25
2.493606390172493063e-25
1.809426161632058134e-25
1.333236139047216202e-25
1.001403323543430898e-25
7.650831644267710577e-26
5.919407676956691504e-26
4.611959166295786406e-26
3.592619944749949495e-26
2.778739017143676670e-26
2.120839888674412309e-26
1.589515183904033056e-26
