# bin_12_8
4.397319654550619724e-12
4.993263670131943314e-12
5.582072244289880900e-12
6.120388493894940455e-12
6.550136339146332669e-12
6.798377952326096491e-12
6.804534020047370171e-12
6.476346501669064648e-12
5.818531993858678110e-12
4.940932006397210056e-12
4.047184264866559859e-12
3.366673649379532467e-12
2.914487970226900967e-12
2.392534991980279350e-12
1.684651978150835184e-12
1.266066539559077815e-12
9.741565155225342831e-13
6.603538900143957419e-13
4.754996071070442544e-13
3.344449648432893558e-13
2.288778756069156181e-13
1.564975582051380025e-13
1.073775279866619233e-13
7.425098680484499256e-14
5.194572876683078556e-14
3.700164997446190265e-14
2.687519667513542765e-14
1.992958946963108425e-14
1.505292643889330357e-14
1.152115379392990148e-14
8.872599343330098974e-15
