# bin_5_11
1.664006668262759962e-07
1.833841756647178097e-07
1.976426531822457596e-07
2.070983483495191040e-07
2.096469186051374021e-07
2.029985496166954219e-07
1.858013976130040915e-07
1.608343706966658733e-07
1.328994099650794085e-07
1.094300779860940347e-07
9.356905732248602718e-08
7.907939004650651750e-08
5.887674453213593836e-08
4.216514016416489712e-08
3.353261799401565654e-08
2.317175954423773338e-08
1.721863976537241087e-08
1.207864923389639492e-08
8.604228726460833408e-09
6.155426036080565813e-09
4.439080416766507712e-09
3.247384962814205526e-09
2.414847673866488633e-09
1.829608951923777599e-09
1.407651246995681648e-09
1.094207346000388459e-09
8.540851317007036189e-10
6.646342627498853936e-10
5.122441765323526724e-10
3.887722183047964292e-10
2.892584355130052144e-10
