# bin_13_11
5.864069100130000035e-10
6.687249991816157131e-10
7.517149217230758210e-10
8.297618091836079266e-10
8.954510866110602007e-10
9.392857181660426960e-10
9.515503368013353281e-10
9.216303064849377457e-10
8.425707938064954657e-10
7.283581447554568355e-10
6.002908207705589984e-10
4.938591845959443744e-10
4.241573434391203924e-10
3.597845113983265980e-10
2.644449398926563085e-10
1.877009067998945623e-10
1.517367358832310881e-10
1.003619694748459215e-10
7.546871442961537294e-11
5.136092365785256703e-11
3.496209658302846707e-11
2.393611978984206323e-11
1.627511786209421924e-11
1.107678382562287606e-11
7.579524454318985984e-12
5.263213237667460047e-12
3.718427877549444081e-12
2.682144555432380962e-12
1.977574967272362060e-12
1.486878260602793439e-12
1.134011069812649754e-12
