# bin_3_1
1.291581054286103371e-10
1.338802697325443271e-10
1.338616230289721336e-10
1.275568591621524219e-10
1.149267832808967018e-10
9.804634852605949367e-11
8.062663281650494654e-11
6.692804981604409900e-11
5.739712042637138582e-11
4.721947987927384571e-11
3.436158901200278270e-11
2.555443262482429570e-11
1.983869650206855886e-11
1.401923893733927588e-11
1.041820737503482842e-11
7.555902641881594741e-12
5.537776141278349849e-12
4.115342613483629633e-12
3.108571476551909165e-12
2.390753793591185013e-12
1.868392970776923874e-12
1.477862101819480618e-12
1.174925956581194566e-12
9.321183529893496790e-13
7.328225491261630075e-13
5.672893241970649208e-13
4.300937881208904852e-13
3.180838961401120457e-13
2.289321155215097538e-13
1.603204585415259486e-13
1.094142602793242246e-13
