# bin_5_9
1.332360254241716808e-07
1.467835499294483046e-07
1.581281826927160347e-07
1.656036714036818765e-07
1.675354416556868902e-07
1.620776326849304212e-07
1.482016313699112299e-07
1.281630244832798248e-07
1.058462884926882342e-07
8.718613002894973894e-08
7.459409453420666933e-08
6.296852726264104552e-08
4.676424428707041050e-08
3.354752611595000744e-08
2.667275121865007743e-08
1.840621236922743965e-08
1.368692939857219468e-08
9.606184136911696624e-09
6.841448914863376658e-09
4.896631729728656975e-09
3.533581500386968920e-09
2.586902003247866821e-09
1.925259075573958027e-09
1.459812446662909704e-09
1.123852883241358732e-09
8.739851427919184700e-10
6.823244527451678652e-10
5.309476747851980435e-10
4.091002319548513895e-10
3.103494293940551110e-10
2.307693434056216202e-10
