# bin_9_2
5.185922828459328271e-22
5.784422993514699543e-22
6.327000805457641140e-22
6.753034329451298281e-22
6.987128742042223347e-22
6.968302212561133266e-22
6.602645598714036764e-22
5.908084630767377755e-22
4.998327704480719650e-22
4.091932208740529561e-22
3.413466329481932553e-22
2.953078091367188390e-22
2.400951472779445056e-22
1.686413989454900910e-22
1.284142370569851681e-22
9.756707625459679186e-23
6.753099214811865936e-23
4.852102748627119720e-23
3.469940647135573261e-23
2.431622289635826162e-23
1.713464430495234949e-23
1.221050962087949345e-23
8.827368619536925129e-24
6.493488043788015740e-24
4.869925474760817656e-24
3.712981372359597647e-24
2.866346557504891263e-24
2.226425192069529779e-24
1.727493822318013149e-24
1.329656065185591226e-24
1.009263514536137019e-24
