# bin_2_10
-4.451045483581048728e-27
-4.986906750773156288e-27
-5.484504659055745107e-27
-5.893646404330998752e-27
-6.150749681086271558e-27
-6.196322915228480773e-27
-5.954617866072965207e-27
-5.401351265216033254e-27
-4.632220151170723617e-27
-3.804903814775147766e-27
-3.141739450110970428e-27
-2.707092332336655496e-27
-2.267620460028094713e-27
-1.638003545533702636e-27
-1.189767664421740358e-27
-9.473260423681430594e-28
-6.346255234237883700e-28
-4.739607740328505701e-28
-3.310468815155597413e-28
-2.301931210381381536e-28
-1.616276723232981453e-28
-1.140178261451126600e-28
-8.140612823380907832e-29
-5.900751577034070494e-29
-4.363286823836673300e-29
-3.285980366535881209e-29
-2.513258065081086875e-29
-1.942298738330966461e-29
-1.506029969987055661e-29
-1.163189660928158618e-29
-8.889601222839495878e-30
