# bin_9_3
-1.282851550225092232e-09
-1.368889118340706115e-09
-1.417444662851840711e-09
-1.414809668312388571e-09
-1.345236465593898381e-09
-1.209510487257891311e-09
-1.030196450901836687e-09
-8.474526653238158633e-10
-7.047392800056973992e-10
-6.036674073734005507e-10
-4.937091741649030516e-10
-3.591045614400578844e-10
-2.677381972610401170e-10
-2.058651575529224164e-10
-1.456457471915162384e-10
-1.072042116420498203e-10
-7.714716763190891194e-11
-5.596838756834449731e-11
-4.104375453499263549e-11
-3.053868661680033860e-11
-2.311892339636183242e-11
-1.779852081244947700e-11
-1.389959295215323296e-11
-1.094412778297362737e-11
-8.629472599256087828e-12
-6.767437080903294821e-12
-5.243607846500785771e-12
-3.991834787165399286e-12
-2.972407574582109069e-12
-2.158127928399690737e-12
-1.525834530206311489e-12
