# bin_9_6
-3.298977409181205714e-10
-3.664996928212451564e-10
-3.989195614647793986e-10
-4.232058552828499868e-10
-4.346722591078586151e-10
-4.294042202024693779e-10
-4.020978347568549735e-10
-3.558164169886800447e-10
-2.982030595211373860e-10
-2.440954947826752573e-10
-2.054055802816563162e-10
-1.770899381171957593e-10
-1.398297960313547548e-10
-9.782347592511462306e-11
-7.652109844512404521e-11
-5.573698500781121912e-11
-3.993264544689694673e-11
-2.811315615045367134e-11
-2.012380547650618065e-11
-1.421485014966205335e-11
-1.009493304631623215e-11
-7.257423912971651908e-12
-5.295400118345329049e-12
-3.935585091505895339e-12
-2.979023107594633723e-12
-2.288172129676378299e-12
-1.774759628950378112e-12
-1.380625411594472219e-12
-1.069576652067184185e-12
-8.197878703149622719e-13
-6.183161283390265426e-13
