# bin_2_5
-8.929001217088661021e-15
-9.652852585767334652e-15
-1.015725639570606400e-14
-1.033462735509080040e-14
-1.008204493607614347e-14
-9.302969593515106464e-15
-8.117135969063925750e-15
-6.732826724591384240e-15
-5.521073676711993557e-15
-4.693686043239739597e-15
-4.010051679917970539e-15
-3.052959328040704528e-15
-2.154454554054258821e-15
-1.723681678494496166e-15
-1.209925520305825140e-15
-9.010279851691885147e-16
-6.350916168411126421e-16
-4.596426635983653776e-16
-3.334162600695790950e-16
-2.443299535568976250e-16
-1.819635106508035529e-16
-1.378369791703133626e-16
-1.062460666317520099e-16
-8.295621212662105264e-17
-6.520359127596589777e-17
-5.124762950587629746e-17
-3.999347652276277147e-17
-3.079486875995979608e-17
-2.327164566598422962e-17
-1.718748052661537492e-17
-1.237129559608376022e-17
