# bin_2_6
-5.670381193757244046e-17
-6.192408750029536141e-17
-6.598752028415623131e-17
-6.816352210863315187e-17
-6.785067031846492065e-17
-6.416404754559870171e-17
-5.731674135424076540e-17
-4.843016983797959248e-17
-3.964246550657309628e-17
-3.308397688291840557e-17
-2.857181222157653711e-17
-2.314972015885870331e-17
-1.632830986592372234e-17
-1.246432773864736321e-17
-9.460088791926501046e-18
-6.628649994718489735e-18
-4.805986483221601203e-18
-3.469739077401370659e-18
-2.478426860111631322e-18
-1.789036104574996945e-18
-1.310249326289239963e-18
-9.759778037360197686e-19
-7.400901516562391124e-19
-5.705876438843150527e-19
-4.448938671538487887e-19
-3.486905388363056718e-19
-2.728072837813030869e-19
-2.115883409276150076e-19
-1.617186192892847045e-19
-1.212076300841365888e-19
-8.874850259450171422e-20
