# bin_5_2
2.560026595983725514e-12
2.766904274931903707e-12
2.910808935541665638e-12
2.960973002075256175e-12
2.887961534866079441e-12
2.664250438704774357e-12
2.324310561918926764e-12
1.927781900561371270e-12
1.580896129043755873e-12
1.344023247942472055e-12
1.147927392271197406e-12
8.734398763183390847e-13
6.164526608500105393e-13
4.933244065925241434e-13
3.459984264620041597e-13
2.578083825485604339e-13
1.816628431411262615e-13
1.314549990318128799e-13
9.536244842246587307e-14
6.988769707950131111e-14
5.205253523500579185e-14
3.943325439255573732e-14
3.039818628951908999e-14
2.373588532383670161e-14
1.865639465512476878e-14
1.466228675661856593e-14
1.144083401906471018e-14
8.807608856184067362e-15
6.654127188431702343e-15
4.912910400270328748e-15
3.535001415489086459e-15
