# bin_7_8
3.107148309323567519e-08
3.468948713551896533e-08
3.798901207924201084e-08
4.061095658657789760e-08
4.210741762879634938e-08
4.209954319140753872e-08
4.003826345161173465e-08
3.595633216329289203e-08
3.053313866082634321e-08
2.501676172847737019e-08
2.080355793467537346e-08
1.797078861341102768e-08
1.473241335917879915e-08
1.043521712192711066e-08
7.833100721916817435e-09
6.033327161880959965e-09
4.134087365833917469e-09
3.006274066524650221e-09
2.133358159032740317e-09
1.491162649217450812e-09
1.049586334310282331e-09
7.455703178856545133e-10
5.369562818485524699e-10
3.932634332677653488e-10
2.937141933384085808e-10
2.231336837529683681e-10
1.717872112795556219e-10
1.332302483656409235e-10
1.033400896141553628e-10
7.960415345560357371e-11
6.052655495390187562e-11
