# bin_5_6
4.997093069331059767e-08
5.486049960837496879e-08
5.884988542301027280e-08
6.130711589645763861e-08
6.164400596426721488e-08
5.912699922783174611e-08
5.357271149882054471e-08
4.591060369098712710e-08
3.774420115580420472e-08
3.120566358553809061e-08
2.682337739201000032e-08
2.235612937161277606e-08
1.623524377868139279e-08
1.186951051347152389e-08
9.359967986101604305e-09
6.417259849058196742e-09
4.773213749434840693e-09
3.377486911033667408e-09
2.401099223649962319e-09
1.724557850343522345e-09
1.251408190275368349e-09
9.221367663214289332e-10
6.912168770778751697e-10
5.276200265223868244e-10
4.083446648371076713e-10
3.186560657674083974e-10
2.490912482774839526e-10
1.936528826703816461e-10
1.487855992125707187e-10
1.123647955427881978e-10
8.306483921569479291e-11
