# bin_11_14
3.815139202850512154e-08
4.340848492701129641e-08
4.865274019312084727e-08
5.351321445553888461e-08
5.749588277706146420e-08
5.997512122168825045e-08
6.037646696336632541e-08
5.794261476782912724e-08
5.248311010014403320e-08
4.494227786121818021e-08
3.690762397921833245e-08
3.052998242564170937e-08
2.634599600098265270e-08
2.198816853600518074e-08
1.578536322231991906e-08
1.153231372722890744e-08
9.114267195197277423e-09
6.079085564853411123e-09
4.486720741334022690e-09
3.105770108560118428e-09
2.117916567466426729e-09
1.448563286436674029e-09
9.887228303042430950e-10
6.783800860144085545e-10
4.695882129378941937e-10
3.305171289893857249e-10
2.370204016724200231e-10
1.735905567953935636e-10
1.297409026991480462e-10
9.856290942204809793e-11
7.562335027459449634e-11
