# bin_9_9
9.918865825353806662e-09
1.117879164201137847e-08
1.238294196132542736e-08
1.342619139729088130e-08
1.417130234094130480e-08
1.446195241727564272e-08
1.416380667832232409e-08
1.311583207241488401e-08
1.148281672055243766e-08
9.535575912347701167e-09
7.809245036462777513e-09
6.636335848907769397e-09
5.703492382082547105e-09
4.358674268872662427e-09
3.031309828224201854e-09
2.441227664700277822e-09
1.681335458683721912e-09
1.247317500063045659e-09
8.477511380153093725e-10
5.957464583931617321e-10
4.155718306564218695e-10
2.896988608078020776e-10
2.033334797796569755e-10
1.442630450527464590e-10
1.042535875808617080e-10
7.682434959051483914e-11
5.767600686198131871e-11
4.399928169582327315e-11
3.390533281814318214e-11
2.620566507031487015e-11
2.016578386548956194e-11
