# bin_10_8
4.183178394228505505e-10
4.722503328555740091e-10
5.241822826532619130e-10
5.697619908397231301e-10
6.032507684842359654e-10
6.178536369168957910e-10
6.081955523608373233e-10
5.665643915609809808e-10
4.988609934761119981e-10
4.159287074889984063e-10
3.402512516428730037e-10
2.878039987490744693e-10
2.483733582316146338e-10
1.929872862665298147e-10
1.335709858677903505e-10
1.067153399394877371e-10
7.505405225594132830e-11
5.483235148934932256e-11
3.726879665908916334e-11
2.637085845777050367e-11
1.832198090558670108e-11
1.270942211944388820e-11
8.878174646037377323e-12
6.262527553331135261e-12
4.494708309509245065e-12
3.289491584623975869e-12
2.454107818800890675e-12
1.863045542507480082e-12
1.431436048580572154e-12
1.105518586873644453e-12
8.518174487029548911e-13
