# bin_12_12
7.382354021841100112e-09
8.410532460011236947e-09
9.442471184353257434e-09
1.040702894484280213e-08
1.120987559404736761e-08
1.173083366562035796e-08
1.185244609902515850e-08
1.143468151564075838e-08
1.041144779471856779e-08
8.963086391432179023e-09
7.374155959271246740e-09
6.079783166078187540e-09
5.234134109428305189e-09
4.411157570863708936e-09
3.207235753175382249e-09
2.303567931507404131e-09
1.847683493367752550e-09
1.223229629227196514e-09
9.145611575768279464e-10
6.269667034926448597e-10
4.268148269763794168e-10
2.920567609583836211e-10
1.988161002716102235e-10
1.357694639764590481e-10
9.336323212754157566e-11
6.521335904559514588e-11
4.637698228103904154e-11
3.368185928732594918e-11
2.498951751550509517e-11
1.888149032573211658e-11
1.444440276027528048e-11
