# bin_13_2
3.535039628549474722e-08
3.116854451835214151e-08
2.673316383306848836e-08
2.236139090793447332e-08
1.833241373216333936e-08
1.481059605079297886e-08
1.181786579454936176e-08
9.277097529813075488e-09
7.124163470470502281e-09
5.376066820190560830e-09
4.050195138282591270e-09
3.061805479407948706e-09
2.312851085258230180e-09
1.760787227127585278e-09
1.353191053439054352e-09
1.049859860539438318e-09
8.211167874924301220e-10
6.453890045898437287e-10
5.076496752517551071e-10
3.977935426966667821e-10
3.091631010236812974e-10
2.373675425905322717e-10
1.794343924107788453e-10
1.332016682001463233e-10
9.692465780995192006e-11
6.906112580204702866e-11
4.817581690880330927e-11
3.292259274362852516e-11
2.207091909496967409e-11
1.454258072585059373e-11
9.438975374138383946e-12
