# bin_12_9
7.985507116470161476e-08
7.596066454603029985e-08
7.049762728097623128e-08
6.371518517668354994e-08
5.602004667814063531e-08
4.793628912435792570e-08
4.002381469723698556e-08
3.275863161252322736e-08
2.640965713877194497e-08
2.100986359244462863e-08
1.643434332362992830e-08
1.257253774630199498e-08
9.435248766055902093e-09
7.046884099699865407e-09
5.271586969092287913e-09
3.924324970994746686e-09
2.933725519993985425e-09
2.207569349043393185e-09
1.673168929758404028e-09
1.277009878699580054e-09
9.799470105744246477e-10
7.538047512382669262e-10
5.791821789562542508e-10
4.428583018334049183e-10
3.357753482518206932e-10
2.516523466096979259e-10
1.859599736511042597e-10
1.352254833085435557e-10
9.663694733493754410e-11
6.782177210775744530e-11
4.674012525566287642e-11
