# bin_10_2
3.423267253892401874e-08
3.013561065538250573e-08
2.581186251883703730e-08
2.156720641210008413e-08
1.766663115717846793e-08
1.426250129067197845e-08
1.137134574877080787e-08
8.918335067904682642e-09
6.843882842291746882e-09
5.164172427072309855e-09
3.891838986898759597e-09
2.942940190707307244e-09
2.224309830887916775e-09
1.694715628521552679e-09
1.303389673829550066e-09
1.011918930387124194e-09
7.918299109782212661e-10
6.225125639762174825e-10
4.896273261225709132e-10
3.835427222546821983e-10
2.979146992936386875e-10
2.285533288322471555e-10
1.726116496783379926e-10
1.280061878257924824e-10
9.304499779468693391e-11
6.622642822570636938e-11
4.615151293091844859e-11
3.150981847851730995e-11
2.110640654842406943e-11
1.389728547679182937e-11
9.014908976102548371e-12
