# bin_7_4
4.805333534993852435e-08
4.369756365394798348e-08
3.866936904902188181e-08
3.329790399287279408e-08
2.795427740212381183e-08
2.297831249006242190e-08
1.858952016922926067e-08
1.484746106279233603e-08
1.168321835619458066e-08
9.006694862963158015e-09
6.805942179587729837e-09
5.109350296395876085e-09
3.850750319594750511e-09
2.897151407184955839e-09
2.188310357786632408e-09
1.668213881981192370e-09
1.281956452578146909e-09
9.931345133215463270e-10
7.736876932563917899e-10
6.039401267806730731e-10
4.704369953799469418e-10
3.641447919526027279e-10
2.790081572332591332e-10
2.108904149631021825e-10
1.568256503692517960e-10
1.145034724493739131e-10
8.197747943250920280e-11
5.751727766871716756e-11
3.955441159139078395e-11
2.668424770326892550e-11
1.768496993552083860e-11
