# bin_6_3
3.963790722626895091e-08
3.544820511730588074e-08
3.084444808171505379e-08
2.614064879087270334e-08
2.165202843128001358e-08
1.761732506209994183e-08
1.414242650702290946e-08
1.120259310485167614e-08
8.713461921503759438e-09
6.634958418777025047e-09
4.990852891796393345e-09
3.762670777131197796e-09
2.840831507508801146e-09
2.146156092184168045e-09
1.637039542618998558e-09
1.258935261054102079e-09
9.768656210752319035e-10
7.629424500628499163e-10
5.977699230038155596e-10
4.678943183042862957e-10
3.642874454804755957e-10
2.809583160647321195e-10
2.138749336011816649e-10
1.602171047446046445e-10
1.178444269641033406e-10
8.497632476218953370e-11
6.002736064542835206e-11
4.154042125825100578e-11
2.818331341692185002e-11
1.877292956126968618e-11
1.230033905451404812e-11
