# bin_14_4
5.522556249914891271e-08
5.068713629468281482e-08
4.526203292873835632e-08
3.929872464737798879e-08
3.322074350716711580e-08
2.745131939713744687e-08
2.229897466247651015e-08
1.788430055834451750e-08
1.414796789363237363e-08
1.096661651386681778e-08
8.307041309717664369e-09
6.226819404450110539e-09
4.686332276984927609e-09
3.519592034129467999e-09
2.646220521850455379e-09
2.008705891470098759e-09
1.536291643453278819e-09
1.185461372824907262e-09
9.209015399731639130e-10
7.178909703617807466e-10
5.593539489059035631e-10
4.337702326976813743e-10
3.334364856186007601e-10
2.531427466562659562e-10
1.892448147792906396e-10
1.389921925515417261e-10
1.001326098282974433e-10
7.069914570400905368e-11
4.891682330141822282e-11
3.318784594102131905e-11
2.210682390875048878e-11
