# bin_6_1
2.174863151748575945e-08
1.853376260965981469e-08
1.542758473323635776e-08
1.260452424203661554e-08
1.015328689119231364e-08
8.071322811387286222e-09
6.308042633618966460e-09
4.832762664898409347e-09
3.654396998023829938e-09
2.763327848754461571e-09
2.096658277275457588e-09
1.594870093315359626e-09
1.223993446426943602e-09
9.488588607985538122e-10
7.424440686039292373e-10
5.850370786784027798e-10
4.625029267936173471e-10
3.651689795355555054e-10
2.866210934792233839e-10
2.226806705168219678e-10
1.706016749804112533e-10
1.284946661023373951e-10
9.492933526400856012e-11
6.868992314323816038e-11
4.865125049357847675e-11
3.373690341660661420e-11
2.292810166871030822e-11
1.529680303457178199e-11
1.003942010562986204e-11
6.496506082572190161e-12
4.154322423413195156e-12
