# bin_10_9
7.617969730385754257e-08
7.218286050495832120e-08
6.671466818619646219e-08
6.003875693754384476e-08
5.256518412356396887e-08
4.480560390568586297e-08
3.728950980913294512e-08
3.044609806124989698e-08
2.449716030722730273e-08
1.944576819424669393e-08
1.516659323432015916e-08
1.156964591232974244e-08
8.674379555975749454e-09
6.484599193439755752e-09
4.852606942691133971e-09
3.616334352329992219e-09
2.710289883742141970e-09
2.044159072670712144e-09
1.553562364514536434e-09
1.188684711199225738e-09
9.139980004324553294e-10
7.040192206156548696e-10
5.412425013966345507e-10
4.137611236810343258e-10
3.134110076200464960e-10
2.345082676173557693e-10
1.729104602881527425e-10
1.254022010315982206e-10
8.934814503466728392e-11
6.250436954399835341e-11
4.293246677481774934e-11
