# bin_11_8
7.482096997059705363e-08
7.076242782769774841e-08
6.526559237129180945e-08
5.860194874128471617e-08
5.118640133013940733e-08
4.353010283224938289e-08
3.615534667185423154e-08
2.947468630105771766e-08
2.368859069677265041e-08
1.878214629261288771e-08
1.462358484380126231e-08
1.113185784986087835e-08
8.337362313904696151e-09
6.236781105590916639e-09
4.667881993709122315e-09
3.479531359924852438e-09
2.612173321203940279e-09
1.972609412954909936e-09
1.501799231101559117e-09
1.150966464573111398e-09
8.862182025850140790e-10
6.833259771707347360e-10
5.256519741030467528e-10
4.019022074983950507e-10
3.043330912629526306e-10
2.275482150365417528e-10
1.675905233873434110e-10
1.213665926224245506e-10
8.632217384945277329e-11
6.026902034876818651e-11
4.130958984217986498e-11
