   0.1000E+05   0.6349E-11   0.0000E+00   0.1141E-02   0.6324E+00
   0.8129E+04   0.8140E-11   0.0000E+00   0.1141E-02   0.6326E+00
   0.6608E+04   0.1046E-10   0.0000E+00   0.1141E-02   0.6330E+00
   0.5372E+04   0.1357E-10   0.0000E+00   0.1141E-02   0.6337E+00
   0.4367E+04   0.1783E-10   0.0000E+00   0.1141E-02   0.6346E+00
   0.3550E+04   0.2384E-10   0.0000E+00   0.1141E-02   0.6356E+00
   0.2885E+04   0.3249E-10   0.0000E+00   0.1141E-02   0.6366E+00
   0.2346E+04   0.4513E-10   0.0000E+00   0.1141E-02   0.6375E+00
   0.1907E+04   0.6364E-10   0.0000E+00   0.1141E-02   0.6383E+00
   0.1550E+04   0.9066E-10   0.0000E+00   0.1141E-02   0.6388E+00
   0.1260E+04   0.1297E-09   0.0000E+00   0.1141E-02   0.6391E+00
   0.1024E+04   0.1850E-09   0.0000E+00   0.1141E-02   0.6393E+00
   0.8326E+03   0.2616E-09   0.0000E+00   0.1141E-02   0.6392E+00
   0.6768E+03   0.3643E-09   0.0000E+00   0.1141E-02   0.6391E+00
   0.5501E+03   0.4972E-09   0.0000E+00   0.1141E-02   0.6388E+00
   0.4472E+03   0.6625E-09   0.0000E+00   0.1141E-02   0.6384E+00
   0.3635E+03   0.8544E-09   0.0000E+00   0.1141E-02   0.6378E+00
   0.2955E+03   0.1064E-08   0.0000E+00   0.1141E-02   0.6374E+00
   0.2402E+03   0.1294E-08   0.0000E+00   0.1141E-02   0.6368E+00
   0.1953E+03   0.1510E-08   0.0000E+00   0.1141E-02   0.6362E+00
   0.1587E+03   0.1704E-08   0.0000E+00   0.1141E-02   0.6357E+00
   0.1290E+03   0.1859E-08   0.0000E+00   0.1141E-02   0.6351E+00
   0.1049E+03   0.1966E-08   0.0000E+00   0.1141E-02   0.6346E+00
   0.8527E+02   0.2017E-08   0.0000E+00   0.1141E-02   0.6342E+00
   0.6931E+02   0.2009E-08   0.0000E+00   0.1141E-02   0.6337E+00
   0.5635E+02   0.1942E-08   0.0000E+00   0.1141E-02   0.6332E+00
   0.4580E+02   0.1826E-08   0.0000E+00   0.1141E-02   0.6328E+00
   0.3723E+02   0.1673E-08   0.0000E+00   0.1141E-02   0.6324E+00
   0.3027E+02   0.1497E-08   0.0000E+00   0.1141E-02   0.6320E+00
   0.2460E+02   0.1314E-08   0.0000E+00   0.1141E-02   0.6317E+00
   0.2000E+02   0.1135E-08   0.0000E+00   0.1141E-02   0.6315E+00
