# bin_8_5
-4.412910397523916146e-10
-4.858010908304730122e-10
-5.228682498581212940e-10
-5.469560516617151953e-10
-5.525948162338391411e-10
-5.335759979838767094e-10
-4.868966052708973257e-10
-4.202100986450013017e-10
-3.466778971495042163e-10
-2.858013237790644525e-10
-2.448141911073870185e-10
-2.061082641368165320e-10
-1.522835536265330841e-10
-1.096768406571555127e-10
-8.709821112501460708e-11
-5.997561245294290318e-11
-4.463321127087380837e-11
-3.137146494266542639e-11
-2.233327587282273822e-11
-1.599927654099247537e-11
-1.156119068490403050e-11
-8.476973086642233639e-12
-6.319832603203882183e-12
-4.799762650527612845e-12
-3.700072011109368789e-12
-2.880108684051659300e-12
-2.249484061234151681e-12
-1.750309850086890472e-12
-1.347942752142080709e-12
-1.021666924606815033e-12
-7.587867632086500233e-13
