# bin_13_13
-1.892445226542384628e-11
-2.160529471074602754e-11
-2.432162229125046722e-11
-2.689369755114650202e-11
-2.908535997853648546e-11
-3.059181974695418513e-11
-3.108577436098878870e-11
-3.024512032080260654e-11
-2.778736818685606244e-11
-2.413986030751426728e-11
-1.994644226824913514e-11
-1.637721913901415115e-11
-1.401813263131600953e-11
-1.196581354228273316e-11
-8.917953400688247718e-12
-6.260303217082082719e-12
-5.077150544601725562e-12
-3.381705881171192045e-12
-2.541989279903414531e-12
-1.716295426448244873e-12
-1.171978803727268302e-12
-8.022525754944824629e-13
-5.448786379792176950e-13
-3.694349125421395415e-13
-2.513660164375455544e-13
-1.733089157232450408e-13
-1.214482293870837590e-13
-8.684026263488538153e-14
-6.349740093858765987e-14
-4.741022681613068483e-14
-3.598543315002147921e-14
