# bin_14_8
-3.179790945192736711e-10
-3.579722431621483784e-10
-3.959827707442135136e-10
-4.285864146563613290e-10
-4.513442401137265104e-10
-4.594105110651510821e-10
-4.481821525765817985e-10
-4.132596606117605640e-10
-3.603017915955286229e-10
-2.985758723180513717e-10
-2.449981946141947994e-10
-2.088980249811365478e-10
-1.786304239699757158e-10
-1.349194895989166524e-10
-9.468084842267658931e-11
-7.615412717254333693e-11
-5.208013232927681526e-11
-3.874438924375634929e-11
-2.650897989377264179e-11
-1.856994193551137323e-11
-1.297620855726673369e-11
-9.070008867553482836e-12
-6.389847710727102109e-12
-4.555432929492147477e-12
-3.309184113145549231e-12
-2.450788006322554969e-12
-1.848027013796587884e-12
-1.414243485356551308e-12
-1.091553722605618541e-12
-8.436819481496177811e-13
-6.483204980795857981e-13
