# bin_12_6
-5.051398472524066115e-10
-5.616158160547317333e-10
-6.118704807139634152e-10
-6.498800125085093490e-10
-6.684446834793857156e-10
-6.615501532831930735e-10
-6.209315890797619774e-10
-5.507407298050966515e-10
-4.625431286030567324e-10
-3.787769030227766107e-10
-3.182899180214776006e-10
-2.745324729254215061e-10
-2.179411272621954812e-10
-1.527481643997804637e-10
-1.188526774581995326e-10
-8.724119843869136767e-11
-6.214365708935245292e-11
-4.393133943287936442e-11
-3.141950566603714870e-11
-2.216481433547721546e-11
-1.572242508449349380e-11
-1.128564727706111045e-11
-8.220880731719813771e-12
-6.098430672007146526e-12
-4.608368071515005464e-12
-3.534949305588304181e-12
-2.739468366742023815e-12
-2.130522592429389770e-12
-1.651013710800609910e-12
-1.266444848041361494e-12
-9.563542231587339982e-13
