# bin_9_6
-3.294733270950654011e-10
-3.660935511051749945e-10
-3.985636476413742465e-10
-4.229397482273896485e-10
-4.345382693140321227e-10
-4.294424678257855480e-10
-4.023362583713922319e-10
-3.562261935568914764e-10
-2.987152188865051231e-10
-2.445986908953346797e-10
-2.058281812190138824e-10
-1.774708668423635430e-10
-1.402411748235514781e-10
-9.816100050093235468e-11
-7.674473639054331454e-11
-5.595676003361359931e-11
-4.006859639939299915e-11
-2.822465230742299706e-11
-2.020430099415012057e-11
-1.427068148309143832e-11
-1.013385923025332608e-11
-7.284534814541491256e-12
-5.314628506803865365e-12
-3.949338107752023202e-12
-2.989049418259804549e-12
-2.295718109470410170e-12
-1.780598331087636676e-12
-1.385251796507447572e-12
-1.073301907357333893e-12
-8.228017378768353770e-13
-6.207394227496690879e-13
