# bin_7_14
-3.394115907583777356e-19
-3.864622744982972424e-19
-4.335578973529075729e-19
-4.774158298846957652e-19
-5.136723145054671399e-19
-5.367852687761989682e-19
-5.414906579915930792e-19
-5.211569674948457762e-19
-4.733442400163749310e-19
-4.064542582205864669e-19
-3.340273761321119230e-19
-2.757582561433363670e-19
-2.377647021572463159e-19
-1.995945943301182148e-19
-1.441094503944974865e-19
-1.042820924368791513e-19
-8.324736625916765833e-20
-5.513077792759236712e-20
-4.107781400332171289e-20
-2.829035360996044956e-20
-1.925946440761321513e-20
-1.317278690899145896e-20
-8.972443756503133593e-21
-6.139364145032583092e-21
-4.234511273377563709e-21
-2.968082080701309080e-21
-2.119010243004176063e-21
-1.545171313917467567e-21
-1.150601276311228718e-21
-8.718735384466171814e-22
-6.681910141110224976e-22
