# bin_6_15
-2.194535605426881720e-23
-2.501623991744276413e-23
-2.810666504291502159e-23
-3.100598099588079008e-23
-3.343549632429851916e-23
-3.503908877564239524e-23
-3.545922561852005944e-23
-3.428936098010588238e-23
-3.129500736373860761e-23
-2.700629181981847719e-23
-2.223957195852236661e-23
-1.831097270313012322e-23
-1.574402168330055300e-23
-1.332251204531423244e-23
-9.745470612191612270e-24
-6.948228493541067383e-24
-5.604903936138386704e-24
-3.703054082301457147e-24
-2.781549484972162328e-24
-1.898599265727265263e-24
-1.291780605522363239e-24
-8.842029508694554438e-25
-6.013431207244143064e-25
-4.097738230090850860e-25
-2.809452082689189871e-25
-1.955360391031216088e-25
-1.385072543630962787e-25
-1.001848502742280058e-25
-7.405876588976527281e-26
-5.580017133337405391e-26
-4.261722194944749486e-26
