# bin_7_4
-6.154169328620008764e-10
-6.688299165311261918e-10
-7.084608857384880995e-10
-7.266692878006341557e-10
-7.165588818082057861e-10
-6.701825556763863763e-10
-5.925529693381059781e-10
-4.969654569704141262e-10
-4.075002349199116509e-10
-3.429420427983984849e-10
-2.943639946139045223e-10
-2.320861874834282341e-10
-1.643440251223430773e-10
-1.276790680240314551e-10
-9.382186512989143761e-11
-6.746294116387867418e-11
-4.840332759141414043e-11
-3.493248469648144397e-11
-2.512596190136540053e-11
-1.826348662552607297e-11
-1.347623131737348662e-11
-1.011361026421523888e-11
-7.725125213237850241e-12
-5.989336511948631221e-12
-4.686492750735840293e-12
-3.677327283065348312e-12
-2.873411010956365210e-12
-2.221100589213481044e-12
-1.688863092422439643e-12
-1.257484453128104609e-12
-9.138380812159547068e-13
