# bin_12_8
-2.441598490145797531e-10
-2.748015510911220037e-10
-3.038911788605078407e-10
-3.287927686398428198e-10
-3.460936451023872736e-10
-3.520921550985322610e-10
-3.432273105721415702e-10
-3.162080640343995011e-10
-2.754525904953650958e-10
-2.281368859370454798e-10
-1.872407662961363274e-10
-1.597542653659269097e-10
-1.365021101682858472e-10
-1.028485426734128006e-10
-7.225168777082561871e-11
-5.815080186325032515e-11
-3.967113566034983735e-11
-2.956014429864939032e-11
-2.023008727503266750e-11
-1.416174067233263675e-11
-9.900542575595901247e-12
-6.924571461715276092e-12
-4.881895396444489950e-12
-3.483442043200562359e-12
-2.532981564037538190e-12
-1.877752074612258823e-12
-1.417150261082910187e-12
-1.085206977988686603e-12
-8.379008986832895274e-13
-6.476721407198137901e-13
-4.975928874319774748e-13
