# bin_15_7
-4.584881211056281523e-10
-5.133816020575391190e-10
-5.641998299713518850e-10
-6.057500217318410494e-10
-6.314710753573673813e-10
-6.353155872939842307e-10
-6.095126945905825182e-10
-5.521938930317767895e-10
-4.730506701582766899e-10
-3.887877086760550289e-10
-3.216494332574018541e-10
-2.770342701650623612e-10
-2.309439491872416159e-10
-1.667774806296081718e-10
-1.219587299246788868e-10
-9.612804605432228676e-11
-6.510847912388923413e-11
-4.816418341993279377e-11
-3.371510438524476406e-11
-2.351242505277420280e-11
-1.651825840736476807e-11
-1.167101592387088812e-11
-8.344629274505376430e-12
-6.058532374749030446e-12
-4.486195285673279169e-12
-3.382413741637481956e-12
-2.588895228991373118e-12
-2.001114314526938042e-12
-1.551114170531648716e-12
-1.197087262568027463e-12
-9.138827029480956169e-13
