# bin_8_11
-1.756307526414354700e-13
-1.989641621824969880e-13
-2.217687919795146212e-13
-2.422763558308091301e-13
-2.581209307281984219e-13
-2.663748446006010967e-13
-2.647852065759582197e-13
-2.496881885751652436e-13
-2.223862063997915902e-13
-1.872501204404658390e-13
-1.531869893479555716e-13
-1.283584710815588262e-13
-1.111719181498545322e-13
-8.924912295906373419e-14
-6.202682038136015706e-14
-4.805815347278112470e-14
-3.559963757399613744e-14
-2.489876941038567627e-14
-1.735532828469699759e-14
-1.233998762708262672e-14
-8.496257596070601958e-15
-5.832564109010841303e-15
-4.034059288045664210e-15
-2.814246255149527608e-15
-1.991560402247813287e-15
-1.436311132274623283e-15
-1.056494643287565288e-15
-7.925320085208534742e-16
-6.039476901721409907e-16
-4.647130979774161017e-16
-3.583825186804453528e-16
