# bin_2_5
-9.144628424503483001e-15
-9.888490244444251271e-15
-1.040848029151556334e-14
-1.059421428892079317e-14
-1.034032073526755621e-14
-9.546919098872497175e-15
-8.335305636679552065e-15
-6.917739375046692269e-15
-5.674054362337775858e-15
-4.823279079237308689e-15
-4.121978758736323128e-15
-3.141481796755282954e-15
-2.217013853580514027e-15
-1.773240063943136801e-15
-1.245933097843601727e-15
-9.274125278307539505e-16
-6.538109784027904548e-16
-4.732622976144486336e-16
-3.432722327414400970e-16
-2.515280894100333776e-16
-1.873018674689605327e-16
-1.418707210195035399e-16
-1.093472643916374502e-16
-8.537625516857467241e-17
-6.710979862683258961e-17
-5.275255660289833360e-17
-4.117587267271647465e-17
-3.171326649357915061e-17
-2.397277952492964630e-17
-1.771113661875256571e-17
-1.275262659236935003e-17
