# bin_11_5
6.028894146930057886e-08
5.586394559708112349e-08
5.040011049443067746e-08
4.422533367915067058e-08
3.776266501996719483e-08
3.146540936641678377e-08
2.571403287195498072e-08
2.071408917825741007e-08
1.647503045403429640e-08
1.288013171257871801e-08
9.842503939732669343e-09
7.389806191312010948e-09
5.542594421424201351e-09
4.166214274172604265e-09
3.119508899423793198e-09
2.354224229502066003e-09
1.789024299604838054e-09
1.371556194509470807e-09
1.059132826276003553e-09
8.219349255734328187e-10
6.387251434113204404e-10
4.950157287528308560e-10
3.810700571051936275e-10
2.902917782225956653e-10
2.181319588643032957e-10
1.612707279863151331e-10
1.170922161993479873e-10
8.339259341406823563e-11
5.822972732780129136e-11
3.987251422050771793e-11
2.679688779917252906e-11
