# bin_7_7
6.141513791811323079e-08
5.711246467311002891e-08
5.174326941545884630e-08
4.561843316521408174e-08
3.914576003798475729e-08
3.276860908305353088e-08
2.687564358735115853e-08
2.170159008304975377e-08
1.729433952286325218e-08
1.356638280714918153e-08
1.042218765246950475e-08
7.854513392681576036e-09
5.883761374637879747e-09
4.419725551858537758e-09
3.311521533198502441e-09
2.489997613679764847e-09
1.887917939201068594e-09
1.441914345229492221e-09
1.109621313321604324e-09
8.584899572016422259e-10
6.655528706506976036e-10
5.150488480550732216e-10
3.962988283560752359e-10
3.020570040179772626e-10
2.273177534025429070e-10
1.684707447447343357e-10
1.227183582038190730e-10
8.774581905082469510e-11
6.154627121781788674e-11
4.234952340878378308e-11
2.860506301242141119e-11
