# bin_7_2
3.239830112190390643e-08
2.844067755276563733e-08
2.430059711983158170e-08
2.026506215551695945e-08
1.657553855429605182e-08
1.336454969910585378e-08
1.063975253112326298e-08
8.330413145212352391e-09
6.384742881885702990e-09
4.817389771014661985e-09
3.632674722123449523e-09
2.748271664450213512e-09
2.079350225418930925e-09
1.586473255308616667e-09
1.221762549144090075e-09
9.496829483131666437e-10
7.437515095153437603e-10
5.849271824690838939e-10
4.599950801746334578e-10
3.600971981649413915e-10
2.794001274724935420e-10
2.140411196677588408e-10
1.613769984418655901e-10
1.194514834782560247e-10
8.665820049436116746e-11
6.156150936833540088e-11
4.282177626227726343e-11
2.918724711016510178e-11
1.952168836662341382e-11
1.283764872222281380e-11
8.318908852504848585e-12
