# bin_9_2
3.371037930222822496e-08
2.965272143798858869e-08
2.538103146013249104e-08
2.119578245066266529e-08
1.735527861073204478e-08
1.400620297033797160e-08
1.116249120023602974e-08
8.750427813396866309e-09
6.712664340182377771e-09
5.065011278181038086e-09
3.817727097734555494e-09
2.887259047399863543e-09
2.182830795187017600e-09
1.663740504952999764e-09
1.280026478138642006e-09
9.941042001505069650e-10
7.780663328247345977e-10
6.117517434856372323e-10
4.811424364378059051e-10
3.768282413112802056e-10
2.926112497381810211e-10
2.243952766501843134e-10
1.693917380172418862e-10
1.255535566378129720e-10
9.121325542108771562e-11
6.488802903717471282e-11
4.519583119792238764e-11
3.084296403289985392e-11
2.065124665379736502e-11
1.359284236102144274e-11
8.814886166226929318e-12
