# bin_4_1
2.023456752519436469e-08
1.719085853751080885e-08
1.427480705573935891e-08
1.164053960656671090e-08
9.360794411306342243e-09
7.426986985797377629e-09
5.792348585159221891e-09
4.431400197245474790e-09
3.350892041331361449e-09
2.535817080203880848e-09
1.925576831251444884e-09
1.466805822984946604e-09
1.127709217029611239e-09
8.756521229888254486e-10
6.861012966463093641e-10
5.410922068347283089e-10
4.278460249668670227e-10
3.376470921511970032e-10
2.647314292778320194e-10
2.053427436572519159e-10
1.569999490822349009e-10
1.179757412805636691e-10
8.694069344189504885e-11
6.274873725694015145e-11
4.433201714419126625e-11
3.066934307122253636e-11
2.079887778212381298e-11
1.385041003594287508e-11
9.075829132262021769e-12
5.865383744150158451e-12
3.746875545440233254e-12
