# bin_6_2
3.147971384854365614e-08
2.759212482122737350e-08
2.354418462214399380e-08
1.961346471198887379e-08
1.602964251935634609e-08
1.291532830619690688e-08
1.027378331147837040e-08
8.036361037733919096e-09
6.155165229613840247e-09
4.644030076407804495e-09
3.503119636373318675e-09
2.650966653881839671e-09
2.006903510779517524e-09
1.532378468146018632e-09
1.180971975906202744e-09
9.185836272480814460e-10
7.197276967300355587e-10
5.661473023725753935e-10
4.451898124857592403e-10
3.483837931341182910e-10
2.701510208343336437e-10
2.067921758346302652e-10
1.557658816449196259e-10
1.151794248568525895e-10
8.346920935365069171e-11
5.923261550152097787e-11
4.115970254638154471e-11
2.802808138469276090e-11
1.873088587760108035e-11
1.230893856570734257e-11
7.971675765649383749e-12
