# bin_11_11
8.331852169329947429e-08
7.957037998548048465e-08
7.416928855185328736e-08
6.734621545167600327e-08
5.949753993287315517e-08
5.115023028738182005e-08
4.288384003423524929e-08
3.521331292240101834e-08
2.845781796000362768e-08
2.269141901347281910e-08
1.780614891302752579e-08
1.367609089808592593e-08
1.028961577819882921e-08
7.679917350089061782e-09
5.740239939661051331e-09
4.272798865147580374e-09
3.184414396830101953e-09
2.390339363289612388e-09
1.805240474548710533e-09
1.373383980050117854e-09
1.050861312811464761e-09
8.065392369136679671e-10
6.188268739404350493e-10
4.729314031296608754e-10
3.587253431827172357e-10
2.691928161563774610e-10
1.993261227639277093e-10
1.453373179602884565e-10
1.042025306625542218e-10
7.340249189770869079e-11
5.078923811548391906e-11
