# bin_9_15
-8.563828812819517488e-13
-9.784756462274881240e-13
-1.102612862756940474e-12
-1.220707502490384680e-12
-1.322173113683016697e-12
-1.393271117038255361e-12
-1.418744600275340982e-12
-1.384713919260253413e-12
-1.276551342806964439e-12
-1.112766823602933040e-12
-9.211426698917240948e-13
-7.553514815574990959e-13
-6.449981460124838904e-13
-5.528074675793522241e-13
-4.159324532983203677e-13
-2.899788048239966746e-13
-2.354504887120333094e-13
-1.577805219527255522e-13
-1.184317315601216398e-13
-7.955183598698924458e-14
-5.447471002343025873e-14
-3.728093218950076240e-14
-2.530278916965710865e-14
-1.711516595327765862e-14
-1.160187633778497695e-14
-7.961897781711778336e-15
-5.549095017449426021e-15
-3.944183926524495206e-15
-2.867271650101666664e-15
-2.130206342537742878e-15
-1.611150266237447163e-15
