# bin_3_10
-8.985112550980842545e-19
-1.007670754860618534e-18
-1.109537488824066133e-18
-1.194060226839711945e-18
-1.248460534140435083e-18
-1.260368093322442182e-18
-1.214872096043168077e-18
-1.105404623218673848e-18
-9.510390498235282218e-19
-7.822918150875746257e-19
-6.450362874700429488e-19
-5.550895345556327359e-19
-4.673308616431942158e-19
-3.400182266203414478e-19
-2.448924867731740122e-19
-1.963215069152114307e-19
-1.311660938147189136e-19
-9.849453942565053530e-20
-6.844613368126817946e-20
-4.756013921558463401e-20
-3.339109601260430174e-20
-2.352240283919649213e-20
-1.675594931448206627e-20
-1.211118013051167981e-20
-8.930147111433565455e-21
-6.708005820343842334e-21
-5.120105039116683127e-21
-3.952077537799437943e-21
-3.063378753366535808e-21
-2.367292563866023218e-21
-1.811488525965353974e-21
