# bin_3_3
-3.349271170624660655e-08
-3.582754503013492970e-08
-3.720367814010431521e-08
-3.727222693060373618e-08
-3.558204687313791575e-08
-3.209687415168291375e-08
-2.739393679626563029e-08
-2.250149953156504627e-08
-1.865819368623168914e-08
-1.604586418796761238e-08
-1.325597997042977537e-08
-9.581130509520734839e-09
-7.104344559390563869e-09
-5.547752428872802909e-09
-3.862018882555012684e-09
-2.869960514738964341e-09
-2.063435140408183360e-09
-1.491520146910336773e-09
-1.092339279680330957e-09
-8.115396969550587047e-10
-6.135315126757390874e-10
-4.718137471813253009e-10
-3.682903914986429830e-10
-2.900216761972218901e-10
-2.288547173258625217e-10
-1.797074024411937678e-10
-1.394812383099028513e-10
-1.063957196201860632e-10
-7.938948712028199158e-11
-5.774979226227461927e-11
-4.089076163143365234e-11
