# bin_1_5
-9.807628349072319811e-14
-1.055806545944828633e-13
-1.105094139221131174e-13
-1.117511342418316857e-13
-1.080706209261261004e-13
-9.876779000767878341e-14
-8.537416925299679931e-14
-7.045137138205615780e-14
-5.798626462759798759e-14
-4.962039755961444136e-14
-4.193196802884278999e-14
-3.113098089443154988e-14
-2.233500710239290755e-14
-1.786564119099068419e-14
-1.234601876346339088e-14
-9.278059691584827862e-15
-6.576148522124164623e-15
-4.746007203349909365e-15
-3.458768099249822015e-15
-2.550139483330029735e-15
-1.911756393873428516e-15
-1.457861746263806120e-15
-1.130348369466014545e-15
-8.862692883640022067e-16
-6.981662399299581737e-16
-5.488080951808380652e-16
-4.274843206939149454e-16
-3.279662697080317948e-16
-2.465726008132672326e-16
-1.809541487605035393e-16
-1.293309707783613599e-16
