# bin_9_7
-2.988033790834474896e-09
-3.364521867179686069e-09
-3.722646790930345888e-09
-4.030275108307820280e-09
-4.245726530621011252e-09
-4.322833363751270414e-09
-4.219326303530045590e-09
-3.891239744620294628e-09
-3.393372176033720279e-09
-2.810446843676878553e-09
-2.304290872186372424e-09
-1.965525369444269652e-09
-1.684318560394059152e-09
-1.271431302558855952e-09
-8.880349508842791421e-10
-7.194347038089846535e-10
-4.878097700318887462e-10
-3.661331534295073915e-10
-2.491567219433245346e-10
-1.741497054135549623e-10
-1.218819023082896160e-10
-8.529989413172998177e-11
-6.009951223717491916e-11
-4.283720325469505487e-11
-3.112188894165309955e-11
-2.305368295154694291e-11
-1.738926553220362769e-11
-1.331378473275383288e-11
-1.028178008984757037e-11
-7.951756350404702910e-12
-6.113891025799836900e-12
