# bin_3_6
-7.687517222712061114e-11
-8.443735935216815390e-11
-9.062339108504064771e-11
-9.445644207606039843e-11
-9.503450611170204062e-11
-9.119805015675738668e-11
-8.264115687191749352e-11
-7.081623536355031109e-11
-5.818488543835758866e-11
-4.808974635749007789e-11
-4.140327623987613316e-11
-3.457700951887853715e-11
-2.502095105955173174e-11
-1.828254723842054328e-11
-1.449911769704499218e-11
-9.863609385196673845e-12
-7.377314902099089345e-12
-5.226823799527598596e-12
-3.708611946258997527e-12
-2.663932098265310106e-12
-1.933251914868156257e-12
-1.425118024905159543e-12
-1.068743136190580100e-12
-8.162602871226236466e-13
-6.321027609182155755e-13
-4.935602183305289508e-13
-3.860326060883319941e-13
-3.002699403037456561e-13
-2.308039839070320741e-13
-1.743711956852347345e-13
-1.289372109719250916e-13
