# bin_6_4
-2.005648667970198521e-09
-2.212554956426104068e-09
-2.387474071926755898e-09
-2.505436100696120030e-09
-2.540437426385765313e-09
-2.465398215166475264e-09
-2.260352916135640207e-09
-1.959783605347886378e-09
-1.618594288144768276e-09
-1.329964635820656531e-09
-1.137683627139886737e-09
-9.672106062532283822e-10
-7.207575585116215486e-10
-5.111044281594423927e-10
-4.121106147568789893e-10
-2.807748058307680997e-10
-2.115441766498445218e-10
-1.473196395552507958e-10
-1.046547659989132334e-10
-7.493439124311616423e-11
-5.402745344326819248e-11
-3.948512600639042412e-11
-2.932708991180691831e-11
-2.220241564927158844e-11
-1.707448439266362799e-11
-1.327228534712312957e-11
-1.036431463200177423e-11
-8.071889696919495064e-12
-6.227980689781057448e-12
-4.732875496232496193e-12
-3.526371038235583124e-12
