# bin_4_4
-2.582527465473274730e-08
-2.812177075889708601e-08
-2.985987161248556621e-08
-3.070924638095001033e-08
-3.039728410859177651e-08
-2.854032270361821184e-08
-2.532338914139592070e-08
-2.127253412569334488e-08
-1.741236828624638916e-08
-1.461671887376803236e-08
-1.260890449029000136e-08
-1.003564567533692932e-08
-7.043433703700886180e-09
-5.481865027238695960e-09
-4.054329479954769514e-09
-2.900853758773719389e-09
-2.074068654433891609e-09
-1.503344859649223556e-09
-1.079143152742472890e-09
-7.822870729268289513e-10
-5.759163681907030624e-10
-4.312543053668764516e-10
-3.287725925704985483e-10
-2.545627853776934557e-10
-1.990643169686348746e-10
-1.562242712119986052e-10
-1.221810548255862342e-10
-9.458583335720606810e-11
-7.206279963233090519e-11
-5.378053094962058117e-11
-3.917773887586474785e-11
