# bin_7_5
2.862579137917643892e-10
3.179029869210566298e-10
3.458646989381057326e-10
3.667010176805276388e-10
3.763093493924350810e-10
3.713913155033244743e-10
3.472178546313953686e-10
3.067932215123925837e-10
2.566528472480987457e-10
2.100051393607562891e-10
1.770404865084996393e-10
1.528156105703136136e-10
1.200950195689383711e-10
8.357588216572829645e-11
6.602617669974419136e-11
4.759386438860335940e-11
3.442291561518001671e-11
2.399408194820651592e-11
1.724263587830150135e-11
1.220319899152692461e-11
8.676308527207638598e-12
6.249006638550241421e-12
4.567905229494733185e-12
3.402117433677247183e-12
2.580297625497565359e-12
1.985271219200969922e-12
1.541804806735888337e-12
1.200294638745682485e-12
9.300469299728542438e-13
7.125997751942629269e-13
5.370459118721990783e-13
