# bin_15_12
1.376770406547471434e-10
1.575540272457685104e-10
1.778915170448039624e-10
1.974107755097888086e-10
2.144425942553259136e-10
2.267949971720377818e-10
2.319068193680624237e-10
2.277080771581454329e-10
2.113952131876633550e-10
1.855237558194446634e-10
1.542608871421807091e-10
1.262898659873960917e-10
1.072504874449678337e-10
9.244645195049881905e-11
7.095330669143701057e-11
4.908071532141696886e-11
3.957636087181074790e-11
2.718030972708978495e-11
2.009594912669551398e-11
1.342810162390790453e-11
9.306610582161634820e-12
6.348291791704349861e-12
4.291099962441641903e-12
2.889111813691078520e-12
1.944933581277339491e-12
1.322130270279824999e-12
9.111065681550020591e-13
6.393539671799157423e-13
4.587607832938546481e-13
3.368121938356427383e-13
2.523996037511092201e-13
