# bin_6_12
1.373525988366178269e-07
1.526429420711132074e-07
1.662133372779524975e-07
1.764215345424462986e-07
1.813160594316662105e-07
1.792579712427617373e-07
1.680350395899570098e-07
1.488559165516909875e-07
1.248933949020821002e-07
1.022806746118416066e-07
8.603123154561646032e-08
7.416842456771484208e-08
5.868805649718116267e-08
4.112355104717841563e-08
3.208485551680253074e-08
2.344845973375135976e-08
1.676013323626768297e-08
1.182684292439374503e-08
8.459767296775335235e-09
5.972923134325364411e-09
4.240306522518338159e-09
3.046676605971821975e-09
2.221587999678564398e-09
1.649871450105524318e-09
1.247999994190803442e-09
9.580365909077513554e-10
7.427842625191670232e-10
5.777301730109325306e-10
4.475927943303890677e-10
3.431483296033432225e-10
2.589239986588748101e-10
