# bin_3_1
1.263295914356918950e-10
1.304342356759679165e-10
1.297814180984915888e-10
1.228857869377185791e-10
1.100211552235522164e-10
9.332975885513461752e-11
7.664941619369795061e-11
6.387845660791208361e-11
5.480516071329324874e-11
4.452949466098780619e-11
3.213271906179846551e-11
2.423067649443423074e-11
1.856720868958210736e-11
1.320415254407566934e-11
9.764257480097767091e-12
7.114104496388039440e-12
5.223994400559340049e-12
3.893492409005043956e-12
2.951670450774086705e-12
2.278143434535436979e-12
1.785931423923214870e-12
1.415592030352864051e-12
1.126440610407997167e-12
8.933945599565148364e-13
7.013713547295761431e-13
5.416169559609652299e-13
4.092881932181480422e-13
3.015386095860064340e-13
2.161447090543582517e-13
1.507735261085215945e-13
1.025381307553432845e-13
