# bin_9_2
3.575952171840967926e-22
3.985933410514516904e-22
4.356176963369159484e-22
4.644677339828936029e-22
4.799414687844838636e-22
4.778861437205123380e-22
4.518484121020595750e-22
4.035058074736791200e-22
3.407177505834341774e-22
2.788550107905020469e-22
2.329994682626130903e-22
2.015871132322521399e-22
1.630690315120136454e-22
1.142243424852992163e-22
8.756251328282684375e-23
6.598258283448987641e-23
4.598040716934710767e-23
3.283370487963532109e-23
2.353173462371968012e-23
1.651495839057462530e-23
1.164994249662126587e-23
8.316062352575558720e-24
6.022715311429643155e-24
4.439439020143975372e-24
3.335767210998773649e-24
2.547321043798948862e-24
1.968657512387008178e-24
1.529912297541871210e-24
1.186943733295050616e-24
9.130020278048668495e-25
6.922531115548016911e-25
