# bin_14_1
1.101872959024007001e-39
1.251848761251151899e-39
1.400395379061619157e-39
1.536689902109852036e-39
1.646250762356914139e-39
1.710853267973479856e-39
1.714973984695034176e-39
1.635719084978290422e-39
1.472569799545341396e-39
1.253071364196205241e-39
1.026944995127242602e-39
8.529617676452431364e-40
7.379755964960279123e-40
6.085544588652626515e-40
4.303792607053466650e-40
3.210844305359241088e-40
2.489630146904446371e-40
1.678462557888058052e-40
1.217465197173364906e-40
8.529601077215422531e-41
5.830517351674162327e-41
3.986135266286765411e-41
2.730622620770681767e-41
1.884379283600297738e-41
1.314764273290821014e-41
9.337310583511991719e-42
6.760697433564773720e-42
4.998510241944460096e-42
3.766165959932209394e-42
2.877795896392876240e-42
2.214670692092675067e-42
