# bin_12_6
5.964095977983919973e-16
6.757916154822606356e-16
7.534485421988616304e-16
8.233884093999702529e-16
8.775895216743794731e-16
9.061038422999789630e-16
9.012619546338845448e-16
8.505665508400779601e-16
7.581239334692901210e-16
6.387838081292179436e-16
5.226004291450019562e-16
4.376096105461394946e-16
3.790549337739434228e-16
3.049456012892610238e-16
2.120705402276822809e-16
1.639184167570010747e-16
1.218474914975091332e-16
8.496624688266372301e-17
5.936392978561313264e-17
4.220093373627607458e-17
2.903936055375879506e-17
1.992349144636540932e-17
1.377085090765531274e-17
9.599816572302780472e-18
6.787074766893495075e-18
4.890004714307626819e-18
3.593278315411826455e-18
2.693112988878679549e-18
2.050938994692167726e-18
1.577544686604403025e-18
1.216526754042635264e-18
