# bin_14_12
6.439765070873007601e-10
7.359732168908661666e-10
8.296072494320693145e-10
9.188122045394194803e-10
9.956521426181310594e-10
1.049808405053685413e-09
1.069722763524564058e-09
1.045088120912078767e-09
9.645554564224232404e-10
8.417382415777181315e-10
6.972880124311604428e-10
5.716266854411189162e-10
4.876787687750947321e-10
4.183827354237845214e-10
3.158281424005757664e-10
2.198830534735114693e-10
1.783480666319742775e-10
1.199922376491952646e-10
8.985673253670383705e-11
6.028966919480244522e-11
4.136659469098513085e-11
2.829573251933691118e-11
1.919304196221017164e-11
1.297241382507738969e-11
8.783428780509516003e-12
6.018283722032600431e-12
4.186735914814202204e-12
2.969694108977019184e-12
2.154368250369573672e-12
1.597580890768729047e-12
1.206579631087131332e-12
