# bin_1_15
8.228076110763653771e-07
8.005846617860704570e-07
7.415655158469977677e-07
6.523626801904140987e-07
5.499379525269307745e-07
4.557992311990873732e-07
3.818708413541160443e-07
3.186523794752514050e-07
2.509001454728090795e-07
1.862875687643095141e-07
1.402020571096804653e-07
1.052801308165785349e-07
7.689114408267911397e-08
5.676055710469511416e-08
4.194654588531571524e-08
3.140711414829406282e-08
2.388856639758048062e-08
1.849368972905433062e-08
1.454727773067763779e-08
1.157442283912042087e-08
9.256225757134090625e-09
7.386118960936063686e-09
5.840049808268797513e-09
4.547230307832066070e-09
3.468825162523009489e-09
2.582906126355221419e-09
1.873457712434927103e-09
1.323257340475749598e-09
9.113074688889712533e-10
6.134106526396337903e-10
4.047703682145529126e-10
