# bin_14_6
2.157403713328404689e-19
2.455076054392026731e-19
2.752226059148758028e-19
3.027907881141074525e-19
3.254220550131133400e-19
3.395822970316318450e-19
3.420061985760840691e-19
3.283939329375798570e-19
2.975647128925407004e-19
2.549007451081509964e-19
2.092979783344273656e-19
1.730390217245691378e-19
1.493708434588024562e-19
1.248516779557024122e-19
8.960738414720635330e-20
6.535051968984593331e-20
5.182481582066765864e-20
3.443121077314163259e-20
2.550629830042236931e-20
1.764628950360362766e-20
1.202325951989536359e-20
8.221051772017436311e-21
5.606368027596102312e-21
3.844701228995414725e-21
2.659899514324293291e-21
1.871074447241086332e-21
1.341012339900181969e-21
9.816701630663498455e-22
7.334888166959101024e-22
5.572112933822639744e-22
4.276316707426006619e-22
