# bin_10_2
9.392034031863499092e-25
1.052106753868493284e-24
1.156858326653862061e-24
1.242847462034010912e-24
1.296639758639925777e-24
1.305765990951663249e-24
1.254128804148536847e-24
1.137038067956094245e-24
9.746888051185580374e-25
8.006854344912914874e-25
6.616403515051161256e-25
5.703432439336704617e-25
4.770751158254759178e-25
3.440802581244802134e-25
2.506335241354447049e-25
1.991241108616123128e-25
1.335923674569120618e-25
9.959905956643669366e-26
6.968194101327256488e-26
4.847337729754020932e-26
3.404206654706093610e-26
2.402897282795397459e-26
1.716977327341155808e-26
1.245747212115109343e-26
9.220190881800908389e-27
6.949495112014401532e-27
5.318809814307678654e-27
4.112189446760991826e-27
3.188990000239661413e-27
2.462747905693767076e-27
1.881512116005144903e-27
