# bin_5_10
1.556598056250733496e-07
1.713385410638358166e-07
1.843832087001676028e-07
1.928407332304571347e-07
1.947852252638348571e-07
1.880279526361685478e-07
1.715381704050202570e-07
1.480135396037923616e-07
1.221185425717019391e-07
1.006998449779311806e-07
8.625328598601592611e-08
7.256274757087850925e-08
5.360813628410866411e-08
3.865117520867981403e-08
3.064817013421517510e-08
2.113524950459352133e-08
1.570783474305903173e-08
1.104839117720019879e-08
7.867143534961807331e-09
5.635886525096143816e-09
4.072911983772903827e-09
2.986782993730600879e-09
2.226988596444869077e-09
1.691498760340948399e-09
1.303987941627654548e-09
1.014967659023995719e-09
7.926424611687362707e-10
6.166443948563298816e-10
4.747829515735613934e-10
3.597667386565121134e-10
2.671212813150229607e-10
