# bin_9_4
2.152565649162181780e-15
2.407778960533449082e-15
2.642746776243139068e-15
2.832848178341888337e-15
2.947073422792706600e-15
2.958148291781040127e-15
2.827928403263018290e-15
2.552073218109511293e-15
2.177408367582505299e-15
1.785939749996583080e-15
1.480254758406161439e-15
1.278401950003654270e-15
1.059798079202378730e-15
7.561524365030997358e-16
5.592291108449462334e-16
4.384398143550840378e-16
2.963769994832175106e-16
2.185433659407852188e-16
1.542253326839106392e-16
1.074896553470801346e-16
7.553342460032747181e-17
5.347159736124920159e-17
3.836331920201633991e-17
2.797103994985627130e-17
2.080176279605320874e-17
1.574576636396324802e-17
1.209107486074948743e-17
9.366169915340129722e-18
7.266698774391653384e-18
5.606434937450597455e-18
4.274101713970897216e-18
