# bin_10_11
1.971073022722565093e-08
2.234011698847172717e-08
2.491592041651416860e-08
2.724043590227500416e-08
2.904929397174293324e-08
3.001483075099057451e-08
2.987880362050519461e-08
2.823221951020317668e-08
2.519323919196878381e-08
2.125468764263055985e-08
1.739488007744419860e-08
1.455209249724590703e-08
1.259952552224205415e-08
1.016404783622624546e-08
7.090396971227667329e-09
5.452898793702090926e-09
4.074162426026347371e-09
2.829557036599590726e-09
1.989069490211393906e-09
1.409216124861246475e-09
9.689967861205568768e-10
6.648195185582265887e-10
4.589858244078025263e-10
3.195668067600344259e-10
2.255720240184784473e-10
1.622389004592650081e-10
1.190029109992012889e-10
8.904083763881196291e-11
6.771616233757532337e-11
5.203784228164074614e-11
4.011235863522562426e-11
