# bin_14_7
6.900751154098384647e-17
7.858166059898988403e-17
8.816956480473280689e-17
9.710419216658871456e-17
1.044992547631069147e-16
1.092286863084881363e-16
1.102167499330860942e-16
1.061230274634248427e-16
9.642703060331746847e-17
8.283714421810210117e-17
6.808741353222962008e-17
5.619565194453725064e-17
4.844230267281921848e-17
4.069514115671955869e-17
2.941543442744849720e-17
2.125682606670258261e-17
1.698715218783724513e-17
1.124554734360566304e-17
8.386471067204241805e-18
5.771239960671027839e-18
3.928655983905231914e-18
2.687362571956381052e-18
1.830263369956755000e-18
1.252009561027755801e-18
8.631395166093824174e-19
6.047031318703844914e-19
4.314740767848596962e-19
3.144445540468118040e-19
2.340275419125654901e-19
1.772644386210180176e-19
1.358200763875295496e-19
