# bin_12_15
3.202984469734552918e-08
3.653187695552911888e-08
4.107373483642908966e-08
4.534914056066162581e-08
4.895394305020732325e-08
5.136973202822815053e-08
5.206292962203713554e-08
5.045966411699553444e-08
4.616959976262809637e-08
3.994443707084769575e-08
3.294054427346874660e-08
2.709624276209986601e-08
2.325447548386061306e-08
1.973661680699508619e-08
1.454662731969260428e-08
1.031574773244629205e-08
8.326731351125530045e-09
5.529439684716067802e-09
4.147559533254242548e-09
2.819533870901868565e-09
1.922531927048404604e-09
1.315834595208345591e-09
8.945879879915674737e-10
6.085228589981998080e-10
4.160348752702919280e-10
2.885608493280134592e-10
2.035936356621122005e-10
1.466374594446547225e-10
1.079582713599943388e-10
8.106297306969931721e-11
6.176043867837393135e-11
