# bin_15_7
1.878059188263839837e-18
2.142295620694742857e-18
2.409029995403638418e-18
2.660313377583360220e-18
2.872473418614364182e-18
3.015138299909332868e-18
3.056834629701271287e-18
2.964071809941960083e-18
2.713013007228145215e-18
2.348063694916796813e-18
1.936249143332107315e-18
1.592024345479094215e-18
1.366325494324702645e-18
1.161015472258852278e-18
8.561006453483158536e-19
6.056857288610070911e-19
4.905484211843445125e-19
3.245392199637385330e-19
2.443323095306152140e-19
1.659407166803961404e-19
1.129734067089683917e-19
7.735604037325824156e-20
5.258357584844819091e-20
3.575447218785836304e-20
2.443128454187793793e-20
1.693623184784296301e-20
1.194232577320478940e-20
8.596660359310237692e-21
6.326472124049624467e-21
4.749458919137482736e-21
3.618777264111820249e-21
