# bin_11_7
1.685913237522325075e-12
1.907756755000483390e-12
2.123477997647564791e-12
2.315907287672611372e-12
2.462150909615190334e-12
2.534199959899506747e-12
2.510713400131967474e-12
2.357441743479173168e-12
2.091249150398365330e-12
1.754446563864391906e-12
1.435034403849095261e-12
1.206640925177009709e-12
1.044450213786952052e-12
8.290452923916915790e-13
5.742949376765808387e-13
4.506751745863244167e-13
3.276237131860294848e-13
2.329095396965817514e-13
1.603473556821893375e-13
1.141130092855128568e-13
7.882462178826593365e-14
5.429698274694710997e-14
3.769788246404098010e-14
2.640693538226565660e-14
1.878624302385362891e-14
1.362431111632693396e-14
1.007629202467600765e-14
7.594541942211824171e-15
5.807094742730086857e-15
4.476052878220799273e-15
3.451870623961370454e-15
