# bin_7_8
3.179424810935733314e-08
3.551918273414421471e-08
3.892568800281080647e-08
4.164673066293485151e-08
4.322347667081837898e-08
4.326252589859448226e-08
4.120297591978454463e-08
3.705460285741589909e-08
3.151068920006374941e-08
2.583379027130572253e-08
2.147231810388735758e-08
1.854630075137994755e-08
1.524366503922952343e-08
1.082725882864503603e-08
8.098655240972351351e-09
6.261477937300252980e-09
4.281973443084672176e-09
3.123531050327347826e-09
2.212691299225271053e-09
1.546193313416483274e-09
1.088320537047118394e-09
7.726798139450991150e-10
5.560536382636907569e-10
4.068552243887359719e-10
3.035771320867801632e-10
2.304357575003590785e-10
1.773009340820853785e-10
1.374667966754791294e-10
1.066324089296319640e-10
8.217277701558476073e-11
6.252246547820893417e-11
