# bin_5_7
8.524643909387507216e-08
9.371499747837344224e-08
1.006929056876556513e-07
1.051050061997051523e-07
1.059209250487174757e-07
1.019141812997708132e-07
9.265082050372458681e-08
7.966770107871877839e-08
6.561559199228264215e-08
5.418912336129181126e-08
4.650678011822103381e-08
3.893807258874373381e-08
2.851534920031747163e-08
2.070724528162214635e-08
1.637730941933119540e-08
1.125915283869820650e-08
8.374998489630435786e-09
5.907100017619399517e-09
4.203585342726476098e-09
3.016089981792073963e-09
2.184707642106040954e-09
1.606390571471886555e-09
1.201232053555269866e-09
9.148789514380151601e-10
7.068200979519649886e-10
5.509576595724184987e-10
4.305260763376621523e-10
3.348424783343964994e-10
2.575438200174922122e-10
1.948257871903467106e-10
1.443344742645477323e-10
