# bin_13_4
8.699769365220404246e-24
9.865978154247608699e-24
1.101125032932590031e-23
1.204886099296571386e-23
1.286258906574637779e-23
1.330744553526718030e-23
1.326905344481020303e-23
1.256385831221842577e-23
1.123284805567743164e-23
9.492573888189578090e-24
7.768827177362670731e-24
6.488376858701990997e-24
5.620206365672846195e-24
4.558458011098794886e-24
3.183102520607750816e-24
2.434243040869222060e-24
1.834740601337463766e-24
1.264468284356845782e-24
8.935748126787084524e-25
6.332438157506193535e-25
4.347668859287768554e-25
2.977566316536677169e-25
2.052065980652793756e-25
1.426039723492353524e-25
1.004119966296472105e-25
7.203087109483450908e-26
5.269802022396122061e-26
3.934115323991101087e-26
2.987116545153813852e-26
2.293716840891419684e-26
1.768210755297126984e-26
