# bin_8_11
5.990587378463947773e-08
6.739571222926326219e-08
7.449215114085122424e-08
8.054564411546074626e-08
8.471712394025335646e-08
8.610682448641217872e-08
8.383001937738039523e-08
7.711790698900621004e-08
6.708186671022768489e-08
5.551091971489951711e-08
4.558050108691808677e-08
3.892979820057492730e-08
3.321354814752123374e-08
2.492445422635318476e-08
1.754927037238911218e-08
1.412937465270069984e-08
9.607616715744675867e-09
7.172384974557046781e-09
4.913521665957909559e-09
3.436167609101870491e-09
2.403952999048420400e-09
1.683091630831946050e-09
1.188115953935273279e-09
8.490508325508014173e-10
6.184525307484114800e-10
4.592305731570897811e-10
3.470807509177955459e-10
2.660590530014806010e-10
2.055380701050311089e-10
1.588767020677208834e-10
1.220044324682088528e-10
