# bin_8_7
2.864889538921009517e-09
3.210544972275360010e-09
3.531890763498863527e-09
3.796676888984258361e-09
3.964009411449496197e-09
3.995333128874146989e-09
3.842277998245448876e-09
3.488280101604106596e-09
2.994413874922454916e-09
2.461403492180814779e-09
2.032550460635225450e-09
1.750606724346342035e-09
1.467404080739544029e-09
1.062430884729489744e-09
7.708115374249788778e-10
6.138054754487665526e-10
4.118129407000755372e-10
3.074812037179542664e-10
2.145443924633832886e-10
1.492448895203178968e-10
1.048051806286796583e-10
7.393246346949577681e-11
5.276661755193566381e-11
3.822893870571535732e-11
2.825284612703977257e-11
2.126617777694569288e-11
1.625811369713572294e-11
1.256077897372374062e-11
9.738076775565953702e-12
7.521478460277968608e-12
5.749311579055759001e-12
