# bin_11_1
1.848865385825011326e-32
2.079629629969368886e-32
2.298078583912089241e-32
2.484111905034075389e-32
2.611810648314300201e-32
2.653398815679328718e-32
2.581505101441184379e-32
2.372339034725680906e-32
2.061556383700767197e-32
1.704113774169514789e-32
1.398973575366026881e-32
1.196262714431370135e-32
1.020940111946897626e-32
7.632015427574923629e-33
5.366937501803092212e-33
4.344900891818053855e-33
2.927212942451593843e-33
2.202611826534614972e-33
1.506279302133710360e-33
1.050138499934133400e-33
7.358012823850071462e-34
5.158688417185284650e-34
3.644869423177505614e-34
2.607368068238185317e-34
1.901765869894067427e-34
1.414075179651048320e-34
1.070133801293476315e-34
8.212383370004537157e-35
6.349470075582182241e-35
4.910252819624580978e-35
3.770977500515333867e-35
