# bin_15_14
2.416862924967021930e-09
2.768734974515800467e-09
3.130141105481637873e-09
3.478986698679725424e-09
3.786343403262653686e-09
4.013942779021927451e-09
4.115935359397881341e-09
4.057110718052780199e-09
3.784145705595519793e-09
3.335715715965283559e-09
2.782914562494690602e-09
2.276813693022779571e-09
1.926111253320207507e-09
1.664458278710109699e-09
1.294717252389176166e-09
8.935058423953297928e-10
7.144136792594446069e-10
5.007444171366350164e-10
3.645863273730329015e-10
2.441473594601766132e-10
1.707164570772743304e-10
1.160909507690338632e-10
7.814429202210991453e-11
5.245775839977971541e-11
3.516761013061484616e-11
2.376010515213677054e-11
1.625129529936814079e-11
1.130450446886668750e-11
8.036224459940994004e-12
5.847842903543967193e-12
4.349983070687794949e-12
