# bin_9_1
7.519579949330530209e-27
8.370782243987689242e-27
9.133722116614668101e-27
9.719289851546317097e-27
1.001827533093043429e-26
9.944596282528474772e-27
9.364964575780364067e-27
8.331395421338733364e-27
7.010457762149463436e-27
5.735807609941552579e-27
4.807759852602886968e-27
4.158278699256510876e-27
3.330251066770620466e-27
2.323759413996333284e-27
1.802774812652679767e-27
1.336891313238717294e-27
9.442598021589822703e-28
6.671787956681704557e-28
4.793728599635433433e-28
3.374324379362386695e-28
2.386281513248689861e-28
1.708906271569619222e-28
1.241783321857298862e-28
9.188118365531539883e-29
6.927842841056128113e-29
5.305422078835774260e-29
4.108095577193480538e-29
3.195049682222816799e-29
2.477992276519674251e-29
1.903576281776033529e-29
1.440279112617853530e-29
