# bin_10_13
4.385818511978732409e-08
4.974932152677805913e-08
5.554255976898785245e-08
6.080106081845176157e-08
6.494062943608563837e-08
6.723344776305824393e-08
6.708994253074045728e-08
6.360068554763263198e-08
5.693159266459785171e-08
4.817850604829165667e-08
3.945036070610881490e-08
3.291987747831826468e-08
2.849351853276893925e-08
2.316454771722310710e-08
1.624269024196477410e-08
1.235597075963508220e-08
9.354006654058649574e-09
6.429399236506358091e-09
4.570071708624377223e-09
3.224340833278724982e-09
2.212471350523577956e-09
1.516165925857806862e-09
1.043892313891361128e-09
7.245086950863794635e-10
5.093042524587138234e-10
3.646782355840652738e-10
2.662812280682378979e-10
1.984116952710854066e-10
1.504057697611791294e-10
1.153526691160083235e-10
8.886307532317517612e-11
