# bin_13_7
2.421302603945646423e-15
2.752094889621293147e-15
3.080422933681357006e-15
3.382585600160218449e-15
3.626893923176201842e-15
3.773397127075365903e-15
3.787349070247747754e-15
3.618779569496565619e-15
3.263339424853583863e-15
2.781660894602220201e-15
2.280556668439577843e-15
1.891707747255456411e-15
1.636069946873862944e-15
1.354359992712783775e-15
9.610153902557639168e-16
7.126741816271604518e-16
5.562521947618244684e-16
3.731706481080613213e-16
2.723828236704387283e-16
1.902439266444182441e-16
1.299124376693466241e-16
8.879768902310917265e-17
6.074304643023581695e-17
4.184769823816043894e-17
2.913303736803219249e-17
2.063883073891547961e-17
1.490477311841028091e-17
1.099256864331814030e-17
8.265752814252806157e-18
6.307645560400253387e-18
4.851674057454924252e-18
