# bin_9_13
6.277448933706257739e-08
7.096085824674199159e-08
7.888666204134509598e-08
8.590477537956254933e-08
9.115816747428797098e-08
9.362049504714457951e-08
9.247339309571243984e-08
8.652183884317727323e-08
7.649988697062700553e-08
6.402720094629598967e-08
5.239994212995198080e-08
4.418262453666883753e-08
3.816292099029142115e-08
3.000179817392133599e-08
2.083216767349932988e-08
1.643779358401753557e-08
1.179289565058063358e-08
8.471670203873927135e-09
5.826792481282333624e-09
4.125901755848459887e-09
2.857355148181849414e-09
1.975114240805845643e-09
1.375010323864868411e-09
9.663273562536960463e-10
6.902285291677515316e-10
5.026355516982610045e-10
3.731788684864003368e-10
2.821335424766479147e-10
2.161420798391538266e-10
1.666915945342518637e-10
1.284518502200529728e-10
