# bin_3_4
9.794473130024944784e-08
1.040753549568716776e-07
1.072059288482017245e-07
1.063155517043551273e-07
1.002160692058310983e-07
8.931494672275508743e-08
7.546142881506387968e-08
6.194637472047039375e-08
5.180476370947105137e-08
4.444167366151778316e-08
3.573016991243383739e-08
2.561857465684644510e-08
1.949137669704515363e-08
1.473722774792608336e-08
1.048965316060494290e-08
7.680631901951718969e-09
5.563679672269129653e-09
4.044958031489850895e-09
2.979700935852612784e-09
2.230034347900361394e-09
1.698462967746931797e-09
1.315176107806808198e-09
1.031701036342141307e-09
8.145890723587601827e-10
6.429030697274194306e-10
5.037039446883615902e-10
3.892478179385154007e-10
2.950951105886066556e-10
2.185525363528962917e-10
1.576909333279907510e-10
1.107554530758002394e-10
