# bin_12_14
2.463276245456233203e-08
2.808939639763439073e-08
3.157343683917350811e-08
3.484899235362001694e-08
3.760452682797146936e-08
3.944094791813293445e-08
3.995112078994079917e-08
3.868903731417392197e-08
3.536820213770664709e-08
3.057199722207180239e-08
2.519994989477879254e-08
2.073674131275438150e-08
1.780734001023212269e-08
1.509585109289137078e-08
1.109831823819409371e-08
7.886604667908712008e-09
6.361465203736446870e-09
4.219590674991466508e-09
3.164894180335593612e-09
2.154572474605158051e-09
1.468306078307109923e-09
1.004985971922252660e-09
6.834244417899653191e-10
4.652026834556336071e-10
3.183765085993177029e-10
2.211056586606467055e-10
1.562260521315581217e-10
1.126941479050317599e-10
8.308866029283754614e-11
6.246397356685363503e-11
4.762912286567534134e-11
