# bin_12_10
5.362899715624251527e-10
6.100643624964899681e-10
6.835827144849486793e-10
7.516252637278153660e-10
8.072311346459287540e-10
8.415960726862303041e-10
8.467306123970112781e-10
8.118310631458006926e-10
7.345599468137545428e-10
6.283132958818592884e-10
5.156721555063081779e-10
4.267552740744103056e-10
3.685938920572169245e-10
3.072060356779434622e-10
2.197424978343449230e-10
1.610506958104943079e-10
1.271209601221308728e-10
8.469627436938478887e-11
6.247141831807710153e-11
4.334084623786493538e-11
2.954945136095317574e-11
2.020276718514730320e-11
1.378983878972978595e-11
9.469605186319963166e-12
6.563613742605396985e-12
4.626897460524919439e-12
3.323726780616283498e-12
2.438596480183053249e-12
1.825605862047179974e-12
1.388778066255854322e-12
1.066553813771253528e-12
