# bin_6_4
2.547077459610562038e-10
2.802794660825817598e-10
3.015017487212327802e-10
3.151652925147744560e-10
3.181525751850331958e-10
3.067715164032183277e-10
2.793697674144656848e-10
2.405907293858974308e-10
1.980872527585984747e-10
1.632843082413824530e-10
1.402196655269572853e-10
1.180518792102391724e-10
8.647962683230893732e-11
6.233409910114084747e-11
4.986394573141358865e-11
3.387573256740259140e-11
2.546196965400864306e-11
1.789958414932109305e-11
1.269960073407520867e-11
9.110864923652799684e-12
6.593508577802174722e-12
4.842524728734389826e-12
3.616717188016280613e-12
2.752102018999788866e-12
2.125079308991766347e-12
1.656282241970981656e-12
1.294674949507632257e-12
1.007649009154709632e-12
7.758170070346293883e-13
5.876095996330095160e-13
4.359213819119781586e-13
