# bin_1_7
6.420375650903426865e-07
6.311917948499751944e-07
5.913231043842121469e-07
5.255702421608450368e-07
4.458105485083056056e-07
3.692282972919683340e-07
3.085898672652381300e-07
2.595130143741167184e-07
2.074632213846241259e-07
1.543749869207031149e-07
1.156240939532671678e-07
8.743479846240727363e-08
6.374399274892595403e-08
4.700019680599655042e-08
3.461120528462053424e-08
2.579780024430126538e-08
1.951254948920978071e-08
1.502143157658176040e-08
1.175985284411888911e-08
9.325961478246363761e-09
7.447958981585136547e-09
5.946914895326614416e-09
4.713658419864929707e-09
3.684969981036318194e-09
2.825756901808094205e-09
2.116645418185639704e-09
1.544820627474109247e-09
1.097694288289206697e-09
7.600803316731012575e-10
5.140174526754573370e-10
3.405009891021153781e-10
