# bin_2_8
4.199372220445265317e-07
4.353469776615498675e-07
4.352617714049587890e-07
4.152575868957295651e-07
3.750973159534055334e-07
3.212993829676641834e-07
2.654901067095962311e-07
2.204832503369133998e-07
1.877448046777296115e-07
1.542284569544751685e-07
1.144433767675288353e-07
8.466754777725727023e-08
6.511901416737735011e-08
4.680572203296764042e-08
3.445655651960214368e-08
2.501110421013590219e-08
1.835725375583500899e-08
1.361889931701117813e-08
1.026614041831024753e-08
7.877090616537048495e-09
6.141380818517139451e-09
4.846582292874295975e-09
3.846131461514774211e-09
3.047430825274898531e-09
2.394288267917238996e-09
1.853525575481761719e-09
1.406366904650507030e-09
1.041758462388065149e-09
7.515645860017884015e-10
5.278494768879226300e-10
3.613648599710700503e-10
