# bin_8_9
2.592218604471472222e-08
2.911362322391047700e-08
3.211316368354883213e-08
3.463487297515214423e-08
3.631263721253836317e-08
3.677411561101462394e-08
3.561127758861528446e-08
3.256680328717729253e-08
2.816237856001559059e-08
2.322622915927740140e-08
1.911026028734032066e-08
1.638955942100890693e-08
1.389135284906255548e-08
1.025294719824743649e-08
7.296375784159853876e-09
5.873090449129221769e-09
3.946315295952056663e-09
2.963101319230050691e-09
2.042156618296345992e-09
1.422057109533457207e-09
9.973106251794606957e-10
7.008813235160170655e-10
4.971766175189482374e-10
3.574608755982407425e-10
2.621084492065848584e-10
1.958639786989245187e-10
1.488451310906024323e-10
1.145461012328742961e-10
8.866675424118581021e-11
6.853805617852019946e-11
5.253739610021907326e-11
