# bin_6_5
3.275730778118094188e-09
3.616155671312411373e-09
3.905379088786790212e-09
4.102757729420968221e-09
4.165319154626646555e-09
4.049573583137387630e-09
3.720594680244634152e-09
3.232549060734081765e-09
2.673354503844790354e-09
2.195415870541208001e-09
1.874983276017133005e-09
1.597096463304948381e-09
1.197402546333975858e-09
8.466076033173654491e-10
6.816097821345438501e-10
4.671166085262507984e-10
3.505801829406635962e-10
2.438297645809308239e-10
1.735141376322168377e-10
1.240991272690185578e-10
8.934992990599689977e-11
6.519906187503918823e-11
4.834322037306915354e-11
3.653639984443682750e-11
2.805814880270448202e-11
2.178806044437546245e-11
1.700570363575723688e-11
1.324462083368961335e-11
1.022420046625287387e-11
7.776803124523383952e-12
5.801563245108895203e-12
