# bin_1_2
2.619440776356594165e-07
2.542756002130870709e-07
2.346728795602961324e-07
2.055176752524329045e-07
1.724529514099222268e-07
1.426898158304552219e-07
1.199071255307071628e-07
1.002035468103319189e-07
7.821115018406262801e-08
5.763885593328500956e-08
4.370186303948679252e-08
3.265919990313951175e-08
2.383011941863444424e-08
1.760748413806700455e-08
1.302507347037625957e-08
9.767685944188336712e-09
7.447688419028300539e-09
5.781327917002820000e-09
4.559320392402439599e-09
3.635384379370323630e-09
2.911514055715755640e-09
2.324778357653815562e-09
1.837834426992547210e-09
1.429579600389055112e-09
1.088627091573204525e-09
8.086231582582251811e-10
5.848008383418039716e-10
4.117450289601703160e-10
2.826744240446055975e-10
1.897222736358533027e-10
1.248778043036006026e-10
