# bin_4_5
6.770323118227447411e-08
7.336829637771715135e-08
7.743655070149643710e-08
7.908092596518811196e-08
7.753302022402231097e-08
7.199759264464379104e-08
6.321518088318142004e-08
5.271656473309155235e-08
4.323413644296778345e-08
3.657586234799138814e-08
3.131329592625157985e-08
2.425489224186554295e-08
1.713914188241589319e-08
1.351129500265257707e-08
9.715393469005427644e-09
7.098731023458942942e-09
5.047406522926080127e-09
3.653584306799117170e-09
2.638923515242143338e-09
1.925972547121433497e-09
1.428180995941119687e-09
1.077271060447237853e-09
8.269430931634915096e-10
6.436170559141257824e-10
5.048607491528288961e-10
3.965121326074936159e-10
3.096198604020391517e-10
2.388281121778499190e-10
1.809902400171709993e-10
1.341692933932739356e-10
9.699972297146832036e-11
