# bin_4_8
1.742624623142820036e-07
1.894119068732922446e-07
2.006680740749362747e-07
2.058659047322022468e-07
2.030529670346949968e-07
1.899673364295171438e-07
1.680122669247646791e-07
1.409380984940269630e-07
1.155620611176252376e-07
9.723513825460635912e-08
8.347680723869633465e-08
6.586182216784859204e-08
4.663408316914389927e-08
3.621717042419238002e-08
2.663127956067426716e-08
1.914098631053010489e-08
1.373563780038922494e-08
9.912431836731355475e-09
7.128753213396613126e-09
5.180840386741439384e-09
3.822039111369371999e-09
2.867674727242107523e-09
2.189911006179932787e-09
1.697518200372894666e-09
1.328051184289175767e-09
1.041966587910498325e-09
8.141380644265520839e-10
6.293141357275062649e-10
4.785302534835048636e-10
3.563250814468325201e-10
2.589703731742365106e-10
