# bin_8_5
5.637229997212822187e-08
5.198796502412342635e-08
4.668149223620332734e-08
4.077848660608216891e-08
3.468253720061898089e-08
2.880897240011802004e-08
2.348819878223420735e-08
1.888270126494877425e-08
1.498148481949719890e-08
1.167734012581147634e-08
8.903235991328385559e-09
6.684292566879718346e-09
5.018464126870087581e-09
3.773873570977639284e-09
2.831008316317834548e-09
2.141498629041328271e-09
1.631380875210469981e-09
1.253646643466122960e-09
9.699683358833580030e-10
7.536878319351169345e-10
5.859549017059221211e-10
4.539451191365468397e-10
3.490433540723520678e-10
2.653993101687006021e-10
1.989443247629466276e-10
1.466662119962233842e-10
1.061552714062444146e-10
7.535613403391642441e-11
5.244600891119857507e-11
3.579921892736975208e-11
2.398948464173027227e-11
