# bin_14_5
6.283521382668550682e-08
5.838775922021213424e-08
5.282565481028549642e-08
4.647775443126893806e-08
3.977919219824880581e-08
3.320745903842257079e-08
2.717545360734576004e-08
2.191728739765148463e-08
1.745667045785488435e-08
1.367147434533927098e-08
1.046164344399903227e-08
7.855476582598609312e-09
5.888368329183895967e-09
4.425071389862914346e-09
3.309960448959129014e-09
2.494513522365346812e-09
1.892944232531088616e-09
1.449204611538977162e-09
1.117789651952555303e-09
8.667869807218727152e-10
6.733775823988938582e-10
5.219708050675795972e-10
4.020845666607078599e-10
3.066267297446919621e-10
2.307282339716008112e-10
1.708643879627828873e-10
1.242826573989846863e-10
8.868135305519556193e-11
6.204017137160653614e-11
4.255924820344200697e-11
2.865085772877676699e-11
