# bin_11_8
7.495271057775878088e-08
7.089872341984853591e-08
6.540302657638799569e-08
5.873647801041004568e-08
5.131373313483265970e-08
4.364627142438702785e-08
3.625739142465181599e-08
2.956131105144011800e-08
2.376035740407462266e-08
1.884093190330791469e-08
1.467141979967224387e-08
1.116992959940333724e-08
8.366338358877735541e-09
6.258136419654782621e-09
4.683832066887605419e-09
3.491278782662791904e-09
2.620675663309720230e-09
1.978830696171784236e-09
1.506349500669263893e-09
1.154321919704291898e-09
8.887215835362884342e-10
6.852151021907317352e-10
5.270918204826113192e-10
4.030070388502448336e-10
3.051831203751446230e-10
2.282006712226710794e-10
1.680878668455216694e-10
1.217415941718753491e-10
8.660095407147429692e-11
6.047284654513938573e-11
4.145590073013247749e-11
