# bin_13_11
8.706567306165160926e-08
8.346198597385271366e-08
7.811240807625509658e-08
7.122959925319479524e-08
6.320087969436254672e-08
5.455877487051226361e-08
4.590655950698958247e-08
3.780184291038577652e-08
3.061560951284082815e-08
2.446235111423873835e-08
1.924825522038085017e-08
1.483158368133196431e-08
1.118179874626414796e-08
8.342434811015578266e-09
6.230795060224942201e-09
4.636633739898966978e-09
3.447244916110861639e-09
2.581781907750396070e-09
1.944040950666400413e-09
1.474927238635975553e-09
1.125762633920080039e-09
8.623772077722159299e-10
6.608935212973337824e-10
5.048894823448984872e-10
3.831286234261625075e-10
2.878390852601100648e-10
2.135191338474440432e-10
1.560549579093371009e-10
1.122022198372052717e-10
7.928721126375477533e-11
5.504646256577437462e-11
