# bin_12_8
7.649426638755131772e-08
7.247318979583353837e-08
6.696826430915707242e-08
6.024531473305927295e-08
5.271908341290870327e-08
4.490801170788716675e-08
3.734992119115142561e-08
3.047928615162029682e-08
2.451673811549925834e-08
1.945842961163527393e-08
1.516993000278805894e-08
1.156068523579902099e-08
8.660113779193984950e-09
6.475443117087253425e-09
4.846015071722444333e-09
3.609874860654197504e-09
2.707206972981111517e-09
2.042193102527510862e-09
1.553030037353324927e-09
1.189018176276078640e-09
9.148098847460233667e-10
7.050452373304190740e-10
5.422935919419529637e-10
4.147180191580059894e-10
3.142072541881220399e-10
2.351225286945279036e-10
1.733497646709530465e-10
1.256906491665445841e-10
8.951796465250898524e-11
6.258878304023519179e-11
4.296107497083218310e-11
