# bin_15_15
9.754462370393745097e-08
9.444642500982930512e-08
8.936059306432080464e-08
8.244077201904033148e-08
7.403585235175439426e-08
6.467596442115667096e-08
5.501116013554012783e-08
4.570036471405538122e-08
3.726067453921371693e-08
2.994119814360122794e-08
2.372338132041454705e-08
1.844825100315079193e-08
1.402001912743077846e-08
1.047402359717597323e-08
7.801281705068528000e-09
5.804608371278293749e-09
4.295220799414690956e-09
3.194060432034472309e-09
2.386381423553280778e-09
1.795482795357197298e-09
1.359389281775973417e-09
1.034357469688423018e-09
7.888388592473173683e-10
6.009960825318606863e-10
4.558559599537466554e-10
3.430773250088763133e-10
2.554470070340334851e-10
1.877285414811525950e-10
1.359232058795222134e-10
9.684181197116542498e-11
6.785103296621259179e-11
