# bin_9_5
5.799352568242270221e-08
5.359332734027046323e-08
4.822270687511775400e-08
4.220808544993571626e-08
3.596096455466494924e-08
2.991226429487730354e-08
2.441308326241166232e-08
1.964387180374283270e-08
1.560233685674764845e-08
1.217752723004095960e-08
9.294128619620150074e-09
6.978058236001276787e-09
5.236660842446928887e-09
3.937212682632179947e-09
2.951143679538376619e-09
2.230045564381295950e-09
1.696989343127062944e-09
1.302699087739064273e-09
1.007047002774301350e-09
7.820570701652239122e-10
6.078836024295028545e-10
4.710083503644302400e-10
3.623479153257058942e-10
2.757405215857955638e-10
2.069167475173992088e-10
1.527358553113201500e-10
1.107021483107047695e-10
7.869846848168281067e-11
5.485247802661822520e-11
3.749480432803458135e-11
2.515866914170377204e-11
