# bin_5_4
4.399298085655902638e-08
3.974967460216068254e-08
3.495499338850030902e-08
2.992584529441752820e-08
2.500228705037550112e-08
2.047608789610403961e-08
1.651699052640803906e-08
1.315173122755100186e-08
1.030816027960298030e-08
7.915628042421545857e-09
5.972427430638487222e-09
4.489078567834275318e-09
3.386535917581342701e-09
2.551663545293289531e-09
1.933889219373506295e-09
1.478842827282146543e-09
1.140274786122164746e-09
8.858154609131076051e-10
6.913975220550738040e-10
5.401461160811416076e-10
4.206023472051951448e-10
3.250984827697544094e-10
2.484828413962859298e-10
1.872051881009291210e-10
1.386696901007619334e-10
1.008070747832851000e-10
7.183990401116877717e-11
5.017012338681854073e-11
3.434615134546008321e-11
2.307330911397715338e-11
1.523437469686126693e-11
