# bin_15_9
8.366397097749536820e-08
7.987966677724044070e-08
7.442621955135009826e-08
6.753755335567076123e-08
5.961643444165761183e-08
5.119928531590899997e-08
4.287702632129706273e-08
3.517394070479780683e-08
2.840827857412609300e-08
2.264488043826771461e-08
1.776020296860609369e-08
1.362251211291920354e-08
1.023280632690728619e-08
7.636352714463224508e-09
5.710670603647999547e-09
4.247322123429898314e-09
3.167925487473370417e-09
2.378826581991105429e-09
1.798428852387045767e-09
1.369450275436990363e-09
1.048916406572497584e-09
8.058316447820468885e-10
6.188048446762476574e-10
4.732316737199353602e-10
3.591142237551600931e-10
2.695424238559148930e-10
1.995792134437281943e-10
1.454809987014534689e-10
1.042502417373636021e-10
7.337946475847944698e-11
5.072286372419462168e-11
