# bin_4_3
3.542414250151632218e-08
3.143839337957015725e-08
2.715861671511406923e-08
2.287320462135045287e-08
1.885253326142670383e-08
1.528184684819548807e-08
1.222500938748493763e-08
9.642256940666262315e-09
7.463337813791730127e-09
5.665572870714143150e-09
4.263967794744071880e-09
3.219950530694283619e-09
2.433990292378403621e-09
1.845213567465000231e-09
1.412839328318392238e-09
1.090747370126846546e-09
8.492045329251326824e-10
6.648357124416450235e-10
5.214856938922297749e-10
4.080735456522353159e-10
3.171995820567304036e-10
2.439499964183596157e-10
1.849905983725122281e-10
1.379392446881690789e-10
1.009336773251455997e-10
7.238304500762402654e-11
5.084747888056940414e-11
3.499799092603399972e-11
2.362536200419783958e-11
1.566622790859378252e-11
1.022514310573792650e-11
