# bin_12_12
8.749100785887524671e-08
8.391205785868009916e-08
7.857808639018663858e-08
7.169897502982514277e-08
6.365987370914694672e-08
5.499243565203170556e-08
4.630105233235865105e-08
3.814685661073795050e-08
3.090721985515470984e-08
2.470316805555131932e-08
1.944550721967343800e-08
1.499235266758319325e-08
1.130930809422095013e-08
8.438283436902515865e-09
6.301045019630683311e-09
4.689275260796913807e-09
3.485270506177558580e-09
2.609212495344993850e-09
1.963711250815516973e-09
1.489120077685142984e-09
1.136030592825907877e-09
8.698749007678537988e-10
6.664301846563744294e-10
5.090226968513728756e-10
3.862433900812950078e-10
2.902005448553091421e-10
2.153126953954596340e-10
1.574139055012980515e-10
1.132250342095682718e-10
8.004909463404239676e-11
5.560641854090148302e-11
