# bin_12_1
2.306452395529130698e-08
1.968842199645297627e-08
1.641047750070659526e-08
1.342204727154510393e-08
1.082307228855199925e-08
8.613272467344204725e-09
6.738136532528072927e-09
5.164659079495448225e-09
3.904791561623526865e-09
2.951304329297078861e-09
2.237914856070832448e-09
1.700843157926665080e-09
1.304039067342940952e-09
1.010029883279356048e-09
7.897902347847198677e-10
6.221487930109948713e-10
4.918749130103325870e-10
3.885320007739374450e-10
3.051944008961181697e-10
2.373555141221728996e-10
1.820657405290767859e-10
1.373109189064050914e-10
1.015808995895672254e-10
7.360142408040398907e-11
5.219591060335461424e-11
3.623664327247307717e-11
2.465195538129853977e-11
1.646113957770918779e-11
1.081134243784708713e-11
7.000073885577608327e-12
4.478382506875052265e-12
