# bin_7_1
2.178456949135477768e-08
1.855553464353346486e-08
1.543965166103134707e-08
1.261115213218754489e-08
1.015689507302258714e-08
8.072065441758092751e-09
6.305625696381748368e-09
4.828643685001578014e-09
3.650904681754369884e-09
2.760936698174209278e-09
2.094780284687725676e-09
1.593680686945515227e-09
1.223401379333594016e-09
9.486652417876012915e-10
7.425113721143745158e-10
5.852376710076050400e-10
4.627436502083888943e-10
3.653889955720006533e-10
2.867873795369596078e-10
2.227815792347847662e-10
1.706406714331505149e-10
1.284842157848693568e-10
9.488560585982786499e-11
6.862887316656324847e-11
4.858599954439445196e-11
3.367643930562245955e-11
2.287722969503770441e-11
1.525698218332304076e-11
1.000994642507351258e-11
6.475629954679540778e-12
4.140039117152892652e-12
