# bin_9_7
6.759483162194435722e-08
6.336994331905883138e-08
5.790336008265227858e-08
5.149165126987131447e-08
4.455124519517640390e-08
3.756265766100474914e-08
3.098164765599055790e-08
2.512460924064720480e-08
2.010358343312945251e-08
1.585409259229935940e-08
1.225631132106938274e-08
9.272993901619978067e-09
6.939929624465471675e-09
5.204215881518200984e-09
3.896197364911214978e-09
2.915812955275449196e-09
2.200993317749465895e-09
1.671891876038936659e-09
1.280402962569246553e-09
9.866034027203943064e-10
7.627707891062474234e-10
5.895767755644021348e-10
4.538286353303792376e-10
3.465853485437893280e-10
2.617019867069801360e-10
1.948326982719798620e-10
1.427009065452410139e-10
1.026677292962511500e-10
7.249373997468711048e-11
5.022560234379829748e-11
3.415627364515203732e-11
