# bin_8_1
2.215400193597267863e-08
1.888251921760525887e-08
1.571986053537889664e-08
1.284520031655031691e-08
1.034917341555004549e-08
8.228273712781749199e-09
6.430461050978916210e-09
4.925627618926088600e-09
3.724183907846269944e-09
2.815882398657485803e-09
2.136093133596053043e-09
1.624610928560781053e-09
1.246675787607044390e-09
9.663768815690612071e-10
7.561574417243834840e-10
5.958913057946680916e-10
4.711517889757440029e-10
3.720687472705241151e-10
2.921001871930709758e-10
2.269880455472821694e-10
1.739382825651689040e-10
1.310318621268502805e-10
9.681806477654874693e-11
7.006409782441487742e-11
4.962792623366212713e-11
3.441538961936094762e-11
2.338946784005442386e-11
1.560453750745435967e-11
1.024125294396395432e-11
6.626999938441541865e-12
4.237694997719385855e-12
