# bin_12_6
6.733563552384335826e-08
6.302933635737027055e-08
5.748267290115151738e-08
5.100237550992054379e-08
4.401671195864240257e-08
3.701750948355511522e-08
3.046629648197762028e-08
2.466997758991008863e-08
1.972133213139492880e-08
1.553224830741321031e-08
1.197617318089048321e-08
9.034560076838641657e-09
6.758950977012377415e-09
5.073999159008037601e-09
3.795013357091550439e-09
2.844117383146249505e-09
2.149549377407244572e-09
1.636082189266408913e-09
1.255286546110106915e-09
9.690820520889879333e-10
7.504463387417274493e-10
5.807559822699557051e-10
4.473671020507574789e-10
3.417175513863833265e-10
2.579380032865168631e-10
1.918653599806676669e-10
1.403374632318992763e-10
1.007856113184481099e-10
7.100917923073872959e-11
4.907446129256233286e-11
3.328344266089340857e-11
