# bin_7_2
3.239276531690440585e-08
2.843272491250314322e-08
2.429125727935972272e-08
2.025560630154834456e-08
1.656696231973092273e-08
1.335723533655844228e-08
1.063337767249469577e-08
8.324541124927606628e-09
6.379581439550939994e-09
4.813502129832019212e-09
3.629880838729828911e-09
2.746070993113512246e-09
2.077791477736811194e-09
1.585362903522801433e-09
1.220981561434083211e-09
9.491319383419104312e-10
7.433594517791383556e-10
5.846403868254378076e-10
4.597775237252355515e-10
3.599256099488585800e-10
2.792600584407766778e-10
2.139243724930096358e-10
1.612791758322121258e-10
1.193701932666694832e-10
8.659194780924537342e-11
6.150897250707853429e-11
4.278143761062911188e-11
2.915732053710760045e-11
1.950022490553821117e-11
1.282272556041502997e-11
8.308809859480691341e-12
