# bin_4_4
1.409989436251902882e-10
1.537177630560973935e-10
1.634544722136526984e-10
1.683804154025385577e-10
1.670551199378086227e-10
1.572494293424764256e-10
1.398476932385251228e-10
1.176456344515849370e-10
9.622986089780445000e-11
8.062256197694295523e-11
6.969725644370263542e-11
5.584883735774474570e-11
3.905821941361506170e-11
3.032915461870834078e-11
2.260753428323866957e-11
1.606827889909724630e-11
1.148622166630547677e-11
8.353518897239849660e-12
5.986425633444084934e-12
4.330117786397558950e-12
3.182744593365077332e-12
2.379745075036495929e-12
1.811708170748823299e-12
1.401347446867832773e-12
1.095227371116846324e-12
8.595030893867938155e-13
6.725317409051758862e-13
5.211126291676939691e-13
3.975285324735095656e-13
2.971355450898426462e-13
2.168214124557904290e-13
