# bin_15_12
4.382903794772775509e-12
5.019462775787130295e-12
5.672576759985485440e-12
6.301962621703976710e-12
6.854967285891249497e-12
7.262074988963510731e-12
7.440503396901958589e-12
7.326018722783109500e-12
6.823781831054467788e-12
6.007475322257300413e-12
5.006724545289635448e-12
4.096745712357802317e-12
3.469710021664982839e-12
2.996670441737766885e-12
2.321782683760745959e-12
1.602779708133340403e-12
1.285369752511978956e-12
8.951526237537538344e-13
6.551653172455140145e-13
4.380292218050600291e-13
3.055099876472371096e-13
2.079565524954337737e-13
1.401786148183529930e-13
9.418115103991552583e-14
6.321197422630829107e-14
4.278312069992982133e-14
2.932635768974815532e-14
2.045225993951217548e-14
1.457973259230174021e-14
1.063815832185287925e-14
7.931577913582279470e-15
