# bin_15_4
4.058257490819233933e-43
4.585127772521435689e-43
5.093855509212018381e-43
5.542428274345460262e-43
5.875165369354984903e-43
6.025150963630806921e-43
5.941359116805667117e-43
5.545313565367909226e-43
4.891584526601071308e-43
4.083280214829929642e-43
3.339709302964940898e-43
2.822219612778945897e-43
2.439912133126373953e-43
1.904655765329699767e-43
1.315261486602887986e-43
1.050302860393890539e-43
7.425744895902835370e-44
5.410548169730361452e-44
3.666310107713382716e-44
2.604596848863402443e-44
1.808101902638018563e-44
1.252867909488397298e-44
8.744799024348750866e-45
6.160790091221891114e-45
4.415068909528937064e-45
3.226306742477009853e-45
2.403652314853972631e-45
1.822917688295655004e-45
1.399934465171388143e-45
1.081302826147310122e-45
8.337034112334997240e-46
