# bin_7_4
1.143322862849379480e-15
1.269272226304466909e-15
1.380305807766026286e-15
1.462627849607198601e-15
1.499665120278610744e-15
1.478740176275373723e-15
1.380408145878143019e-15
1.217945897618993898e-15
1.016947928801779120e-15
8.315363690510225784e-16
7.020144884599896087e-16
6.067354263172658829e-16
4.747596824748619665e-16
3.285695702876194857e-16
2.621156339459691265e-16
1.870120503513430981e-16
1.366741281485669054e-16
9.409160731153063837e-17
6.789448002844237922e-17
4.813720299910064924e-17
3.427423485410587829e-17
2.472793332205826396e-17
1.810135157336863367e-17
1.350496648270882412e-17
1.025917859047141789e-17
7.904324094856942613e-18
6.145182810691424156e-18
4.786961277520730085e-18
3.709749057067380740e-18
2.841594662478258608e-18
2.140155490108056860e-18
