# bin_10_2
1.655552970971460629e-47
1.855302969947961485e-47
2.041008681949820744e-47
2.194016955900902860e-47
2.290709619045024273e-47
2.308852960018933377e-47
2.219969531217544220e-47
2.014337796711126901e-47
1.728102262476198485e-47
1.419291005283805819e-47
1.171595152436785721e-47
1.010342857958398331e-47
8.475785829544076054e-48
6.113247226815480678e-48
4.435351015359100251e-48
3.548144570606809037e-48
2.362219381057447817e-48
1.774188814325726801e-48
1.239393537495194434e-48
8.605626121034428648e-49
6.042489102367301126e-49
4.259201311370588203e-49
3.040936106578291718e-49
2.204576739694163686e-49
1.630572070192272847e-49
1.228361701198456663e-49
9.398706085655661036e-50
7.266769567925149224e-50
5.637167636827564256e-50
4.355808033045540103e-50
3.330136625791227694e-50
