# bin_13_4
2.512213432407338278e-34
2.824897804404038497e-34
3.120479726092940071e-34
3.371537664215245144e-34
3.542806702609689276e-34
3.596717882539176336e-34
3.495726297090931409e-34
3.208139646762791980e-34
2.784217139109170511e-34
2.298903590241582359e-34
1.887322611362203397e-34
1.615935528843488454e-34
1.378564319428538968e-34
1.025957079520101058e-34
7.214549124314001678e-35
5.866468050208106038e-35
3.917550471235270175e-35
2.968081608220088742e-35
2.030379270180095712e-35
1.410318973067827843e-35
9.897136561677240672e-36
6.948515510243925793e-36
4.914859000682285490e-36
3.520569035552759610e-36
2.572019893889598717e-36
1.915532410881022907e-36
1.451774284767496857e-36
1.115436983596277507e-36
8.630787404429294135e-37
6.676584598950171081e-37
5.126784475919590789e-37
