# bin_11_7
1.269138080332141187e-14
1.432941064197400071e-14
1.590637434568658091e-14
1.728987808903792376e-14
1.830516697492393464e-14
1.874471835491520467e-14
1.844675812089671983e-14
1.717475624932192172e-14
1.511507085412898193e-14
1.259436333849693756e-14
1.030354891654109200e-14
8.724701579646007015e-15
7.534303592488900648e-15
5.840399355112157207e-15
4.035947034962485896e-15
3.239536962951648836e-15
2.265741577416286993e-15
1.665610929118690406e-15
1.126248459668929663e-15
7.973149301612171687e-16
5.546869309730780774e-16
3.853966603879832608e-16
2.695344287136083229e-16
1.903330399289804781e-16
1.367952449906049057e-16
1.002568691216108492e-16
7.489874223629238945e-17
5.692869938629611356e-17
4.378128978232701128e-17
3.383366517857568095e-17
2.607639733552265980e-17
