# bin_13_9
6.300836488094735773e-14
7.164369894935946661e-14
8.022972558372548536e-14
8.815154297084269286e-14
9.458745960301533617e-14
9.850049672940054190e-14
9.897190175426048005e-14
9.470567088928685350e-14
8.551630326648281891e-14
7.299072525959313588e-14
5.985238743695844694e-14
4.959028335443267988e-14
4.288543120444421176e-14
3.561867620467823772e-14
2.532669152917063767e-14
1.869328613909456951e-14
1.467614334527233655e-14
9.797064512640181632e-15
7.193739088614847998e-15
5.011838473602354706e-15
3.419249703502330363e-15
2.336414914604466264e-15
1.595998190339139814e-15
1.098020042426904774e-15
7.630702822492718429e-16
5.395351335404000277e-16
3.888459842237401921e-16
2.862358827669097015e-16
2.149084457497937861e-16
1.638479046669587499e-16
1.259974872259038543e-16
