# bin_12_3
9.785661824471037909e-38
1.094319346375662764e-37
1.200746990537299756e-37
1.286629276605655508e-37
1.337840358182834607e-37
1.342145824110464742e-37
1.281865714837599775e-37
1.155575199243302091e-37
9.847389721141221303e-38
8.071225739328635931e-38
6.692509372680315337e-38
5.786132113564517565e-38
4.790931310961855822e-38
3.403463421754695706e-38
2.526236944670347801e-38
1.978261706490746217e-38
1.335527005461888683e-38
9.840689730505210086e-39
6.965722677408909355e-39
4.854873663407834117e-39
3.409914408062686503e-39
2.414451173884932239e-39
1.733948751158418768e-39
1.265822847060940125e-39
9.425731447964325989e-40
7.143165798066575334e-40
5.490712757886842202e-40
4.256318670266382854e-40
3.303457286843983256e-40
2.548737450514770186e-40
1.942458998545053365e-40
