# bin_8_4
2.402176164709255404e-19
2.679071323213697432e-19
2.929891651269885944e-19
3.126498734584564867e-19
3.233740608253826303e-19
3.224135409790161078e-19
3.052836280377349490e-19
2.729543574719041456e-19
2.306612529074433053e-19
1.887012882915944812e-19
1.574754699228496072e-19
1.363985842078898513e-19
1.108217552597623865e-19
7.744535529642531742e-20
5.923176932407267579e-20
4.492387896957740972e-20
3.108915629184614920e-20
2.223855300509233915e-20
1.599553783462090900e-20
1.121158133784075760e-20
7.889841233115855630e-21
5.625694692279552042e-21
4.070660161936829525e-21
2.997521524818468239e-21
2.250393857438430373e-21
1.717443040152899952e-21
1.326965614309922337e-21
1.031365700381971109e-21
8.005320117438436265e-22
6.162219259478073994e-22
4.676561148076441675e-22
