# bin_12_7
1.406115128541880989e-16
1.590139059212728661e-16
1.768552366488508083e-16
1.926948478062823425e-16
2.046138305321556432e-16
2.102740086532653212e-16
2.079249099796414848e-16
1.947321995296854268e-16
1.723266659666578181e-16
1.442358148627673085e-16
1.179471954478165264e-16
9.938805469806165586e-17
8.602503503836263487e-17
6.780890837739166922e-17
4.683072999972545093e-17
3.708336619758347861e-17
2.663129099310092524e-17
1.914356713194039712e-17
1.304593261143980046e-17
9.302100512845334631e-18
6.438261780063934804e-18
4.444004888494820996e-18
3.093034812755594092e-18
2.172058258751772862e-18
1.550237148360052672e-18
1.128090967996981343e-18
8.370985203566564998e-19
6.327649945790388202e-19
4.848748578089044865e-19
3.741764246316603052e-19
2.886063347740860926e-19
