# bin_13_1
7.022327115285427998e-66
7.845709812458566749e-66
8.598974747975265366e-66
9.201008053494632760e-66
9.549963985241088233e-66
9.560629511861488704e-66
9.104521931990132554e-66
8.184690334664441829e-66
6.954945698308160216e-66
5.696657943807150967e-66
4.733604585650866686e-66
4.095373346847675893e-66
3.369868299846329572e-66
2.380490711678518669e-66
1.784642167105664126e-66
1.383004588400694462e-66
9.410732535967080945e-67
6.868132758958066423e-67
4.887643597510388935e-67
3.412831928121474063e-67
2.398439710357960986e-67
1.702133326163946700e-67
1.225501175167728108e-67
8.972814955660235906e-68
6.700200212962273774e-68
5.089972038640217924e-68
3.919531986623532800e-68
3.041219787232912094e-68
2.360512595893368578e-68
1.819830765375372105e-68
1.384957721810960043e-68
