# bin_12_2
1.753337511179546249e-47
1.955273055170312288e-47
2.138108291398906347e-47
2.281298537488408016e-47
2.359226372392263046e-47
2.351729417458476416e-47
2.226360495524115864e-47
1.990300384219621636e-47
1.681850590420500566e-47
1.376079693077437821e-47
1.148578077885092227e-47
9.945642436116786492e-48
8.074658324976517800e-48
5.647641599956071950e-48
4.319791545022220716e-48
3.272965981640105875e-48
2.268093363839401210e-48
1.622404564768853661e-48
1.165533193095704199e-48
8.171109154213810159e-49
5.753780480213619788e-49
4.103212724939299290e-49
2.969243321913261559e-49
2.186681989470517937e-49
1.641769087090876201e-49
1.252995471265518787e-49
9.680927037821390240e-50
7.523820020897241269e-50
5.839239920451606986e-50
4.494239066423476377e-50
3.410221189590702812e-50
