# bin_8_6
7.394047199448824405e-07
8.282624713852366162e-07
9.106906033137625246e-07
9.783324868237525822e-07
1.020610020415358221e-06
1.027719618744216420e-06
9.869543806414990658e-07
8.946641592916293056e-07
7.667910087986357111e-07
6.298226177235240835e-07
5.204640007610345335e-07
4.487261186300479567e-07
3.753063498104243764e-07
2.705065393191484059e-07
1.971043536610470901e-07
1.566283557296728882e-07
1.050107642933751460e-07
7.832038037983044950e-08
5.481244357140988900e-08
3.812253490948854475e-08
2.677304444907269020e-08
1.889822104815125798e-08
1.350536449227641069e-08
9.800488776081148178e-09
7.255040294092369427e-09
5.469300572994402482e-09
4.186614094565458060e-09
3.237238360254867597e-09
2.510653935042316971e-09
1.938935052011070043e-09
1.481284209930480861e-09
