# bin_12_3
7.785312055535773599e-21
8.800559424172905129e-21
9.783222432080165017e-21
1.065311633073009412e-20
1.130382327271828614e-20
1.160699168848964394e-20
1.146372745540868657e-20
1.072200868449001572e-20
9.476673658257519940e-21
7.925670397513625570e-21
6.483353588871230370e-21
5.468927331690213258e-21
4.728572422586032315e-21
3.713456921232990371e-21
2.569483870247343703e-21
2.036919621832049179e-21
1.455604059554488633e-21
1.050083804051203461e-21
7.171376319609186305e-22
5.093637070572965109e-22
3.529471035314386782e-22
2.440184326760861641e-22
1.699839168691031635e-22
1.195126327643242836e-22
8.542218907818507540e-23
6.225196116779906995e-23
4.625603160199652347e-23
3.500045563766639075e-23
2.683499612607889855e-23
2.070935838455433012e-23
1.596637999667490715e-23
