# bin_8_3
4.874725644297304658e-12
5.418587431593779341e-12
5.901821756412827750e-12
6.266112638497401450e-12
6.440951835077594089e-12
6.371006785213663593e-12
5.972359988928384006e-12
5.290403537979156666e-12
4.434400046681290592e-12
3.627416597977608392e-12
3.051597316614901749e-12
2.637509662556749865e-12
2.087617078243799548e-12
1.451756774440832996e-12
1.141086713458286779e-12
8.305784228010128214e-13
5.959967267392396420e-13
4.164734512901381765e-13
2.997401747775716111e-13
2.117293496894438398e-13
1.502129244196577718e-13
1.079715301264040251e-13
7.875610456580273885e-14
5.852066260895870849e-14
4.429405684576843644e-14
3.402613964975825556e-14
2.640092070876052571e-14
2.054896211803561539e-14
1.592991601952842589e-14
1.221836538104724581e-14
9.222283740046449472e-15
