# bin_12_10
1.371755924239778014e-06
1.562295354617111083e-06
1.753236370740882152e-06
1.931331740240066907e-06
2.078989528071761100e-06
2.173843284641234160e-06
2.194377338695133117e-06
2.114100914812041531e-06
1.922068603117186075e-06
1.652173698992125374e-06
1.358298425988465729e-06
1.120672682281769246e-06
9.657577144180660873e-07
8.121489636778963232e-07
5.879315459578998098e-07
4.240561527078130414e-07
3.394009657717332419e-07
2.245384496061353306e-07
1.676705149917374126e-07
1.152566319990088121e-07
7.844507044719336174e-08
5.366479960497867447e-08
3.654011760138546075e-08
2.498271348043237997e-08
1.721050333910554568e-08
1.204714029977490298e-08
8.587925726860994684e-09
6.252634696563512055e-09
4.649633321668064820e-09
3.519621402002480933e-09
2.695754153441137524e-09
