# bin_14_1
2.371378679264581642e-08
2.027185889146522736e-08
1.691633980071924002e-08
1.384773741133794131e-08
1.117443928438567959e-08
8.900546151462036617e-09
6.970260742395401179e-09
5.347027116520646612e-09
4.043047949478229132e-09
3.054773171578875665e-09
2.315759758584002904e-09
1.758962725318065766e-09
1.347501188364006400e-09
1.042877124675547643e-09
8.149017374471303211e-10
6.416175366775412900e-10
5.071616800927661055e-10
4.006458089867224699e-10
3.148326447869748668e-10
2.450105637663802115e-10
1.880999845807723153e-10
1.420072526880926994e-10
1.051740992127465542e-10
7.629507772406569180e-11
5.416997497291407153e-11
3.764942039394600279e-11
2.563943335574096853e-11
1.713602512053641432e-11
1.126325644398855959e-11
7.297300647313827076e-12
4.670906836228026972e-12
