# bin_9_5
5.730914850946150679e-08
5.289386652241685515e-08
4.753064068808022830e-08
4.154777415871835380e-08
3.535537350651691223e-08
2.937889403734031972e-08
2.395968809745703403e-08
1.926778493736150179e-08
1.529366185541838712e-08
1.192591573479232662e-08
9.094215583676018571e-09
6.826783698033252584e-09
5.125529450401907633e-09
3.854458209390821631e-09
2.890713946736114313e-09
2.186459731325987637e-09
1.665312219349426249e-09
1.279597142091906563e-09
9.900130323387653258e-10
7.693018128085522026e-10
5.981772190731504507e-10
4.635148365843482606e-10
3.565021584918340201e-10
2.711587434970594236e-10
2.033323682708562404e-10
1.499540192973350180e-10
1.085716942312967745e-10
7.709526026860159859e-11
5.367063001513254783e-11
3.664292956685971984e-11
2.455874123619176330e-11
