# bin_8_6
6.050747287920970929e-08
5.616152186133601814e-08
5.077605093518809339e-08
4.466751324770184861e-08
3.824599764396900025e-08
3.195232284938675644e-08
2.616548131285080926e-08
2.110442246970542883e-08
1.680184673593383384e-08
1.316150331868814697e-08
1.009192152461261695e-08
7.595870812647246631e-09
5.692618031986098956e-09
4.278741789844244748e-09
3.206160101514503648e-09
2.414791591979239246e-09
1.833192316361897900e-09
1.402611829258313739e-09
1.081045998083116331e-09
8.374884924125520427e-10
6.498919728407079029e-10
5.031832143751903285e-10
3.871815420805585763e-10
2.949782753129351612e-10
2.217975606081276374e-10
1.641738771201186925e-10
1.193995172687632288e-10
8.521549555022732927e-11
5.964990005689656115e-11
4.095661612335382395e-11
2.760422928796753900e-11
