# bin_2_2
2.264073021578195500e-08
1.943376123767875899e-08
1.627987009357483239e-08
1.336364038365546459e-08
1.079931126050923744e-08
8.613833175405592710e-09
6.769822264207951976e-09
5.222084045326827281e-09
3.961551395044588700e-09
2.991102395044802748e-09
2.268153333324632459e-09
1.723281255472690888e-09
1.317156990295617664e-09
1.017183489048185017e-09
7.925275792151690972e-10
6.222746984067373456e-10
4.906914993277790097e-10
3.869653035348408109e-10
3.038157208152671973e-10
2.364516981559251283e-10
1.817162317693895058e-10
1.374565476685908958e-10
1.020893094038043605e-10
7.431768594157194584e-11
5.297851554566918460e-11
3.697922881175960536e-11
2.529089631185197739e-11
1.697129832199268758e-11
1.119530406894926116e-11
7.275763256977678772e-12
4.669057877125249828e-12
