# bin_8_5
5.570527418278123590e-08
5.130767856170128489e-08
4.600997379413116809e-08
4.013938762573639211e-08
3.409788953559910221e-08
2.829521251156129116e-08
2.305218253049077123e-08
1.852132548805517818e-08
1.468500825957069703e-08
1.143596154183209185e-08
8.711938781937852099e-09
6.539844257554583604e-09
4.912303198513301120e-09
3.694828382346135235e-09
2.773353001455593309e-09
2.099863932632908607e-09
1.601110708170354576e-09
1.231538277600105913e-09
9.536392681957322260e-10
7.414376568283357880e-10
5.766159036669956281e-10
4.467242332484852536e-10
3.434043514246987820e-10
2.609775464818964306e-10
1.954855562126007544e-10
1.439836185600174673e-10
1.041030794070036946e-10
7.381404087903522823e-11
5.131111427991427305e-11
3.498266072953144596e-11
2.341547813529489405e-11
