# bin_4_2
2.870635953380269227e-08
2.502570210158182863e-08
2.125330512958832142e-08
1.763807522577798827e-08
1.437356991027458947e-08
1.155183913682747696e-08
9.162425234519940499e-09
7.142999018285271156e-09
5.457636878218082089e-09
4.117622673456048484e-09
3.110158931757376986e-09
2.356205415661809445e-09
1.787840778506670431e-09
1.369163561261809010e-09
1.058176985524215860e-09
8.251664370171066996e-10
6.476919768687179182e-10
5.099004948903963971e-10
4.008658332761213666e-10
3.133054027868311011e-10
2.424263332898057580e-10
1.850317678505255352e-10
1.388919816969144756e-10
1.023069344236553827e-10
7.384053917241068461e-11
5.218681756820780530e-11
3.612191713130548269e-11
2.450876350825980703e-11
1.632649296836525452e-11
1.069948830696395392e-11
6.913622413893331174e-12
