# bin_15_1
2.383212965441132813e-08
2.037673770531832650e-08
1.700630959477794226e-08
1.392293878521738448e-08
1.123624575196660230e-08
8.950782320117653182e-09
7.010443605815426655e-09
5.378278873086187181e-09
4.066672470634076561e-09
3.072483968090052194e-09
2.329076639491620079e-09
1.768931417534854256e-09
1.354998191878411135e-09
1.048578868763317260e-09
8.192915789504507786e-10
6.450425099097590325e-10
5.098634023563157747e-10
4.027915484912654620e-10
3.165392133423883096e-10
2.463620326975035076e-10
1.891599027724422757e-10
1.428266121840545576e-10
1.057960662055356702e-10
7.675739226347184518e-11
5.450589266548384527e-11
3.788786391719004331e-11
2.580485606631613527e-11
1.724834707115045818e-11
1.133805666751536927e-11
7.346276696815884745e-12
4.702517080195887729e-12
