# bin_10_6
6.263833464436143544e-09
7.059610898346732373e-09
7.819741601981734723e-09
8.477540146983594612e-09
8.946017002643215905e-09
9.126339885591460966e-09
8.933088901868377534e-09
8.265210965197399102e-09
7.230503002640377810e-09
6.000399743986708797e-09
4.915552191548579387e-09
4.182644574201090511e-09
3.594713966648829941e-09
2.738339116269851036e-09
1.904369412421606160e-09
1.539334804487454180e-09
1.053675376113989152e-09
7.861641683931117745e-10
5.335450887117016916e-10
3.743141912588946266e-10
2.615102858498734208e-10
1.826171481724323839e-10
1.283368941553912514e-10
9.117947107686043385e-11
6.600051288785087554e-11
4.871503470542024371e-11
3.662812991833176034e-11
2.797706815665321299e-11
2.157729388170887164e-11
1.668451689877767657e-11
1.283945531037641696e-11
