# bin_12_7
7.873558587905323067e-10
8.936348536559663984e-10
9.984038017094909074e-10
1.093870145262994417e-09
1.169589442084361428e-09
1.212471029217726702e-09
1.211877805558562601e-09
1.151198318350430299e-09
1.032374049470328411e-09
8.750380629382295478e-10
7.164766478376807661e-10
5.968750369175245182e-10
5.168905394503236839e-10
4.224874744092442303e-10
2.964337175648690495e-10
2.242624878204215427e-10
1.712737369359089854e-10
1.167673724491498535e-10
8.348881639182131876e-11
5.891658346720096773e-11
4.036600496528398530e-11
2.761035281769358291e-11
1.897467703748555260e-11
1.314532697190676371e-11
9.218838911595844439e-12
6.584309157298933638e-12
4.795639417882402869e-12
3.565524548219486602e-12
2.698678995284380851e-12
2.068275571839460432e-12
1.593591048726718095e-12
