# bin_14_5
7.155610635352255842e-18
8.139926482143569000e-18
9.120788338099955071e-18
1.002855270830777236e-17
1.077033335544029793e-17
1.122865342208152728e-17
1.129696937579689452e-17
1.083091297277459641e-17
9.799452008556003545e-18
8.381511030360532659e-18
6.878525921443708466e-18
5.692484289683395858e-18
4.917123248519715248e-18
4.098143665801479400e-18
2.930463712314269425e-18
2.148139269483085816e-18
1.695662319681300075e-18
1.129472429857079627e-18
8.331823995429232512e-19
5.781283576168159801e-19
3.941515254220006067e-19
2.694597184546167656e-19
1.839165009975487276e-19
1.263020332208566653e-19
8.754911599438877391e-20
6.172136108958788818e-20
4.434183368131531936e-20
3.253689251368354803e-20
2.436079375107260084e-20
1.853370881418812562e-20
1.423475756525306770e-20
