# bin_10_9
3.070597550049005607e-06
3.478336947159875450e-06
3.876709420827960681e-06
4.234785481271882167e-06
4.511175068209606650e-06
4.654649325914214909e-06
4.625999596279900411e-06
4.361067767853352786e-06
3.883159106356631402e-06
3.268725823701208083e-06
2.673927796040215392e-06
2.241030907369098635e-06
1.941108337437145655e-06
1.557299264023089462e-06
1.081627552687282684e-06
8.390046243880574248e-07
6.207370185926464745e-07
4.346144691361988849e-07
3.024836358679400994e-07
2.152397267349013748e-07
1.482251403863766436e-07
1.017614629236424208e-07
7.040603399261029219e-08
4.913192821645499120e-08
3.478291226327875734e-08
2.509647628122565020e-08
1.846773371994506146e-08
1.385886517849866943e-08
1.056419883580262520e-08
8.130087981795078804e-09
6.270062507408775638e-09
