# bin_3_3
7.776647542373041027e-06
8.319866369597195534e-06
8.640856378650893662e-06
8.658482948298101982e-06
8.268085718670039220e-06
7.460276035619760409e-06
6.368848231832563989e-06
5.231838190049504286e-06
4.337501800089212204e-06
3.729904255554803554e-06
3.082968933857461006e-06
2.229465983537859521e-06
1.651935460346316941e-06
1.290762842853173180e-06
8.983107325846559257e-07
6.677632912447419302e-07
4.799618409623156355e-07
3.469119717733399464e-07
2.540392936175330164e-07
1.887045038177130788e-07
1.426371329239805811e-07
1.096707447413968356e-07
8.559561531791830612e-08
6.739917568452560634e-08
5.318278383860594962e-08
4.176273192965199674e-08
3.241700993706683002e-08
2.473062977940061799e-08
1.845626896243268888e-08
1.342803915114003151e-08
9.509833712009107776e-09
