# bin_6_2
1.103450655603731441e-10
1.206621156490453673e-10
1.287891300628314540e-10
1.333044726028031580e-10
1.330218311590207167e-10
1.262048816530694151e-10
1.130945548287210031e-10
9.585011316670994624e-11
7.851585660357915547e-11
6.539405399216142398e-11
5.647536676918365374e-11
4.608149706545142426e-11
3.263148879446145837e-11
2.469627607895728296e-11
1.894178279009337125e-11
1.316748730862670551e-11
9.612960205712201521e-12
6.922601165215119257e-12
4.936105854008376374e-12
3.558363639647564712e-12
2.601006868304181609e-12
1.933516292470489024e-12
1.463115688435080895e-12
1.126080328876360171e-12
8.769797411265971101e-13
6.869658541301274170e-13
5.375390135215988386e-13
4.172272630772950902e-13
3.193009189939602082e-13
2.397283136358642977e-13
1.758924052752926000e-13
