# bin_8_4
1.194171693249338848e-09
1.330831506758459867e-09
1.454110812090339326e-09
1.549961421894728547e-09
1.600995616450406777e-09
1.593432350304503869e-09
1.505669392907965442e-09
1.343762305054431949e-09
1.133955409123986889e-09
9.279291353049145866e-10
7.757054340734761694e-10
6.712281749831549886e-10
5.422017566298390528e-10
3.793099264632449528e-10
2.914359744545485611e-10
2.190832934809206777e-10
1.529532314090567974e-10
1.089834727191967677e-10
7.819880823748413117e-11
5.490423597840952783e-11
3.873728538210749224e-11
2.766582019069304909e-11
2.004759508333468791e-11
1.478695665277820636e-11
1.111755699185838073e-11
8.494174556600593262e-12
6.567072269305844070e-12
5.104500940751490726e-12
3.960242720469966029e-12
3.045748636514992724e-12
2.308641161593799012e-12
