# bin_1_1
1.744538876193341853e-05
1.724586668342932021e-05
1.622612840203160520e-05
1.445217060330354831e-05
1.223296831960992765e-05
1.007579349039624206e-05
8.422693348583093099e-06
7.168975336666594380e-06
5.756748646533928853e-06
4.205786043737798641e-06
3.174128941046334480e-06
2.411643559316315620e-06
1.740686570249334633e-06
1.288553834468229509e-06
9.465365637186395115e-07
7.042290748449927389e-07
5.322172042076064049e-07
4.095444324986391737e-07
3.206822478511328863e-07
2.545274785675823786e-07
2.035760799958442131e-07
1.628538812986711514e-07
1.293565287670216790e-07
1.013449540441489095e-07
7.786336663714682995e-08
5.840406831541849938e-08
4.265367839953727123e-08
3.030499467133529567e-08
2.097035572529271919e-08
1.416768177675846084e-08
9.375114391731649482e-09
