# bin_10_1
7.369465057117228193e-25
8.246917275694469100e-25
9.056688615445200891e-25
9.714797235138542079e-25
1.011529794569582707e-24
1.016351132117084823e-24
9.729908763971008340e-25
8.792953801190207758e-25
7.512605891433662217e-25
6.164461397442083489e-25
5.104445591264355388e-25
4.406299750668486052e-25
3.663251769942588778e-25
2.621603073327637701e-25
1.929822036222114063e-25
1.519700394219829567e-25
1.024331142620277059e-25
7.581709714698528299e-26
5.336909397031206148e-26
3.717001902367028263e-26
2.611342387145732927e-26
1.846870520603058664e-26
1.323421702746967237e-26
9.635129401037655915e-27
7.155437485050389897e-27
5.409546874195951756e-27
4.150020248760065637e-27
3.213047621879770090e-27
2.492605381986997307e-27
1.923731848980208565e-27
1.467550341462272055e-27
