# bin_4_4
6.242219462970053268e-06
6.798075494845312216e-06
7.219258988013713836e-06
7.425897150934085443e-06
7.352096935516401137e-06
6.904915388941852434e-06
6.128280458367978530e-06
5.149180566675964258e-06
4.214833299852158826e-06
3.537350506269875321e-06
3.051621145181267674e-06
2.430542895533198477e-06
1.706152882414070826e-06
1.326932546042655794e-06
9.823725670065706686e-07
7.023175265337642477e-07
5.024070297580736622e-07
3.641139356688727253e-07
2.613218659072404750e-07
1.894048887060487982e-07
1.394115764860441828e-07
1.043726642567915670e-07
7.955408768422320604e-08
6.158757528578643040e-08
4.815549326223604537e-08
3.779040018451979933e-08
2.955595401699384863e-08
2.288231056180710484e-08
1.743568440637980922e-08
1.301442174329366913e-08
9.482538791531531521e-09
