# bin_8_2
1.856057715628115249e-19
2.058773240911058757e-19
2.236528196141743583e-19
2.366819284429229596e-19
2.423324093409709245e-19
2.384191652395886266e-19
2.220383530694293662e-19
1.954458480095054901e-19
1.630650401459595121e-19
1.335033168257758275e-19
1.129449947604002193e-19
9.733989836373841397e-20
7.565698334176579307e-20
5.266681799844857659e-20
4.200018000412234174e-20
2.979146142914721341e-20
2.184388103425930557e-20
1.514079195917004145e-20
1.086547309999149672e-20
7.715322612054451063e-21
5.504601178377464252e-21
3.977916595944819175e-21
2.917923903883696951e-21
2.181457842533498637e-21
1.660005969157451401e-21
1.280527013280883970e-21
9.960933558262096820e-22
7.758430560645908759e-22
6.008280429967206507e-22
4.596775551967475230e-22
3.456682956673495885e-22
