# bin_3_12
3.414768749900275677e-07
3.648993650947780812e-07
3.784988881581241609e-07
3.785907374876706736e-07
3.609451771069187858e-07
3.254390505620300537e-07
2.778894159473016414e-07
2.289484458407535671e-07
1.902476154611295312e-07
1.629376360605678612e-07
1.338329944982751874e-07
9.774110527150518665e-08
7.257696697967381792e-08
5.601365234536493516e-08
3.960505481849041876e-08
2.918190184483879548e-08
2.097604090704329087e-08
1.521172940693053335e-08
1.114384848637198938e-08
8.280264822650258631e-09
6.259419904304708964e-09
4.812320763340436408e-09
3.754162208134823019e-09
2.954095981484724105e-09
2.329003083382294160e-09
1.827104551425933056e-09
1.416815012563545190e-09
1.079843386093707252e-09
8.052461470153734265e-10
5.856163269705474545e-10
4.147503885914911943e-10
