# bin_2_1
6.601265991939070607e-09
6.635789788032617905e-09
6.375105381792717954e-09
5.799342677658148185e-09
4.997019968626423009e-09
4.136017691251234547e-09
3.422097718632065963e-09
2.914351494183245288e-09
2.424706130442177174e-09
1.814750931119172030e-09
1.329871191085378430e-09
1.034537934986332733e-09
7.442625971163595392e-10
5.514200161965671200e-10
4.019911674301624379e-10
2.971969492364291910e-10
2.223260625141052467e-10
1.691691960322967471e-10
1.310932793623814634e-10
1.031893757441315133e-10
8.212796234779631320e-11
6.562748001441436188e-11
5.226441921464567936e-11
4.119322650549783025e-11
3.193096623155023430e-11
2.421642325468599087e-11
1.790270616318234521e-11
1.287758599908899058e-11
9.014130449904873764e-12
6.151944749947977340e-12
4.105593414702684661e-12
