# bin_15_6
7.658733844440593684e-21
8.732890278681428015e-21
9.815061987661654728e-21
1.083188552775467922e-20
1.168623632599698264e-20
1.225378911373071286e-20
1.240885306923877289e-20
1.200976388008415193e-20
1.097142711596192398e-20
9.471883026157488254e-21
7.809379059731532677e-21
6.429574765173342374e-21
5.526845862309035220e-21
4.682053297792265539e-21
3.431866146463208359e-21
2.443234301044427759e-21
1.973002242473626372e-21
1.304053672046807195e-21
9.802729272610305425e-22
6.684930198322373528e-22
4.549599153321580779e-22
3.114640921508558265e-22
2.118200537646585811e-22
1.442871603647246423e-22
9.885578306189648112e-23
6.874857313264977914e-23
4.865150694485837079e-23
3.515458532219777798e-23
2.596229561948274265e-23
1.954647812324797187e-23
1.492112241420674867e-23
