# bin_14_10
1.174071246800298237e-11
1.340156882859824247e-11
1.508287258911826316e-11
1.667297092091926673e-11
1.802477945190385710e-11
1.894874978614695294e-11
1.924377677094452367e-11
1.870520240573526857e-11
1.716644190402853275e-11
1.489033264863499643e-11
1.230435954598613357e-11
1.010945026383426339e-11
8.663646524451307591e-12
7.385850157494972219e-12
5.483765938984103227e-12
3.859714673701718412e-12
3.131953166574843165e-12
2.078676603671687769e-12
1.565456967917882903e-12
1.059224205599675499e-12
7.221921947333777270e-13
4.945428046508927994e-13
3.360562656949130680e-13
2.281047639937332718e-13
1.554455950573081328e-13
1.073957806130192951e-13
7.543435087800983587e-14
5.407448342103586352e-14
3.963618027619370377e-14
2.965717477082215616e-14
2.254543066736249709e-14
