# bin_14_4
1.707099161689790872e-25
1.940819719857438238e-25
2.173039954855643560e-25
2.387078534984537663e-25
2.560612953425905002e-25
2.665457368042283190e-25
2.676938790980454385e-25
2.559763691135571427e-25
2.310387622429984692e-25
1.970025693080786416e-25
1.616623125607090409e-25
1.340898385672729506e-25
1.159609777028772327e-25
9.611105217505155926e-26
6.829836436338411023e-26
5.057200747425962185e-26
3.954361770991128300e-26
2.650723820900152244e-26
1.938106935160745457e-26
1.352472068290685890e-26
9.234526933862968139e-27
6.312799856932504391e-27
4.317076085029312998e-27
2.972822036175637212e-27
2.068271131045655180e-27
1.464141683952406035e-27
1.056495550598289698e-27
7.785624079192597378e-28
5.850352926721688798e-28
4.462337077389416334e-28
3.431561016308712246e-28
