# bin_8_13
8.265713359399529062e-08
9.308308950948612796e-08
1.030059586185672065e-07
1.115372200149133836e-07
1.175231038567745832e-07
1.196975170307847366e-07
1.168637800918401721e-07
1.078544267614019175e-07
9.408868133286738865e-08
7.805218530832206981e-08
6.405115563930429967e-08
5.459936955544733432e-08
4.672330493419672564e-08
3.535707726629509331e-08
2.479752240509733978e-08
1.994343888476463469e-08
1.366104291670430150e-08
1.015631948547675094e-08
6.947111755609937416e-09
4.869598183528708214e-09
3.402132182345177297e-09
2.377276343488300586e-09
1.674145769353794128e-09
1.192834741180261547e-09
8.659760639105322942e-10
6.409445382759210161e-10
4.830325419383216576e-10
3.694981794279004074e-10
2.851269366487756589e-10
2.203770574430086939e-10
1.693770869434362712e-10
