# bin_15_3
1.432924294978361006e-31
1.632066974387917511e-31
1.831649056347745043e-31
2.017841694043668906e-31
2.172251260080659765e-31
2.271473201127714925e-31
2.293083072839950052e-31
2.209158441214485089e-31
2.008692335449470321e-31
1.725750886557252125e-31
1.419952609786319670e-31
1.172098815038537875e-31
1.010292934505312661e-31
8.493065309236789520e-32
6.146647574851782653e-32
4.438752828089741330e-32
3.549390183234340114e-32
2.350506631436485005e-32
1.753674413548299583e-32
1.206296085492825421e-32
8.212978798770114103e-33
5.618719094668754350e-33
3.826640374197222698e-33
2.617030314885913831e-33
1.803478353029389559e-33
1.262863771531091992e-33
9.005663525649675450e-34
6.559038437087423728e-34
4.878861574464803673e-34
3.693857050690433163e-34
2.829444948503062922e-34
