# bin_14_2
4.968915755191370187e-34
5.645892223032300673e-34
6.316653216022431672e-34
6.932427219086385192e-34
7.427871046369500779e-34
7.720670312192866304e-34
7.740762734481974119e-34
7.384312254390326951e-34
6.649750490742751325e-34
5.657245585438036308e-34
4.639441958536381453e-34
3.854733089859563443e-34
3.335690509284216783e-34
2.750823396595342907e-34
1.945389716601171768e-34
1.452193641484106672e-34
1.125842256020884087e-34
7.592891369421985910e-35
5.506733274645315802e-35
3.859407142116187706e-35
2.638557974838078109e-35
1.803998746448670900e-35
1.235901910128349112e-35
8.529911713005345540e-36
5.952348118071688913e-36
4.227871799445876836e-36
3.061581918110414165e-36
2.263857628637607111e-36
1.705909431212098613e-36
1.303640937197275976e-36
1.003320690832368032e-36
