# bin_8_15
1.001912247058415205e-07
1.128467631871284561e-07
1.249004792079977585e-07
1.352771594223097912e-07
1.425794449374426682e-07
1.452677151653118992e-07
1.418982739582396933e-07
1.310332748216352408e-07
1.143735989628533736e-07
9.491365979979928579e-08
7.787762312424498957e-08
6.635729852922290211e-08
5.681216517230408643e-08
4.306019972234304393e-08
3.018107168508757014e-08
2.426105802749783602e-08
1.664639008750311337e-08
1.236178714296693085e-08
8.455026884661487905e-09
5.929229616521371932e-09
4.141122071223997540e-09
2.892443385788465743e-09
2.035984354205803521e-09
1.449819110205693172e-09
1.051855429362806061e-09
7.780243170507636053e-10
5.860038087640011456e-10
4.480726023733284529e-10
3.456733149833066562e-10
2.671598792816767373e-10
2.053604707859617653e-10
