# bin_8_3
4.643990725370995191e-16
5.162790617214865348e-16
5.624050254156628511e-16
5.972188573520370855e-16
6.140062154489406260e-16
6.074458534384122655e-16
5.695664932347727009e-16
5.046402142217364674e-16
4.231426079521496131e-16
3.462906985520014593e-16
2.913929353190987740e-16
2.518404281902598376e-16
1.993504974410523779e-16
1.387377612218754531e-16
1.090254729397760957e-16
7.937432539158647962e-17
5.696382042425132523e-17
3.983575872544762571e-17
2.865903434378908938e-17
2.024754745459659006e-17
1.436790544254494765e-17
1.032865918452900670e-17
7.534727697248135163e-18
5.599392615375632309e-18
4.238549086539470514e-18
3.256245167393270048e-18
2.526681304272075776e-18
1.966722854892475464e-18
1.524706510508301687e-18
1.169510369795067588e-18
8.827682075230468599e-19
