# bin_5_8
1.103319569530034500e-07
1.215242206316901207e-07
1.308791601541657287e-07
1.370134669083490076e-07
1.385485469617151463e-07
1.339350132931188306e-07
1.223733245987243825e-07
1.057095914553606610e-07
8.731217209018135771e-08
7.196872084223113487e-08
6.162485450865688768e-08
5.195959826323278070e-08
3.849001558755487667e-08
2.767319226494794275e-08
2.199643535704222154e-08
1.516020334068998218e-08
1.128240090214871757e-08
7.924310515009698513e-09
5.642775901504669001e-09
4.040918741555202444e-09
2.918228864297560264e-09
2.138175792604992563e-09
1.592727556573724873e-09
1.208712828957458623e-09
9.311946771550995670e-10
7.245250759284134170e-10
5.657867225734412275e-10
4.402693068447265306e-10
3.391594790625839275e-10
2.571873902050908751e-10
1.911308040143423446e-10
