# bin_15_10
1.195171502499651058e-12
1.366191094194432151e-12
1.540382482845693970e-12
1.706507063865485447e-12
1.849849208312777598e-12
1.951250113175695343e-12
1.989181260067773691e-12
1.944445066588165529e-12
1.795717105495352880e-12
1.567577724591163125e-12
1.299798482311696319e-12
1.065659443958951363e-12
9.091046140021545101e-13
7.803619476592694389e-13
5.897598587234262599e-13
4.104598323641696270e-13
3.329890730318105187e-13
2.242191384833797769e-13
1.679123032591677009e-13
1.126138910005650887e-13
7.730481870271743294e-14
5.287958297731924272e-14
3.586959264347183391e-14
2.423905586998042109e-14
1.640616047699661075e-14
1.123600551729264924e-14
7.811912955599620102e-15
5.537353594889953196e-15
4.014375894216816836e-15
2.975133760079570035e-15
2.246031152616562209e-15
