# bin_15_12
1.372457425424253688e-10
1.570765862578418862e-10
1.773730938660207740e-10
1.968618110172006758e-10
2.138782715677155411e-10
2.262355121191827219e-10
2.313795861942949937e-10
2.272280813021451645e-10
2.109893775714284474e-10
1.851726726922384613e-10
1.540594770568635854e-10
1.261553896936559301e-10
1.071642321419666126e-10
9.237931352798321285e-11
7.090103794099753025e-11
4.906439738544327734e-11
3.957179180553356605e-11
2.717449751766775065e-11
2.009960045486366767e-11
1.343220530972557675e-11
9.309475621611966691e-12
6.351171409799068594e-12
4.293751765557984300e-12
2.891209539478743547e-12
1.946562701161875823e-12
1.323416458020648161e-12
9.120996232008099778e-13
6.401253060934652944e-13
4.593633891989917290e-13
3.372872469747918847e-13
2.527746705063367431e-13
