# bin_6_6
1.568279151959766920e-08
1.737565358447582992e-08
1.884932599261965992e-08
1.991255730369645231e-08
2.034748434518211451e-08
1.996235545910880570e-08
1.853289424622722075e-08
1.626345079765459179e-08
1.354537346299446210e-08
1.109990150470475865e-08
9.411132577642001168e-09
8.086323787837761023e-09
6.234476140675232013e-09
4.359714247672257242e-09
3.480283284953133553e-09
2.452059034267374663e-09
1.805357735856157990e-09
1.254301394212666137e-09
8.980084234788906422e-10
6.385834762025416839e-10
4.565062813311399680e-10
3.306051613744755728e-10
2.431047505686408996e-10
1.821947180081431434e-10
1.389306033469038562e-10
1.073304821597872411e-10
8.355018155426002682e-11
6.507060624803410248e-11
5.035120872981466125e-11
3.846813639992208432e-11
2.887270325724369273e-11
