# bin_13_1
7.300350795428631906e-37
8.271904320598305879e-37
9.222206075094322421e-37
1.007781633535129343e-36
1.074040113332193001e-36
1.108816248027168578e-36
1.102677173655200595e-36
1.040373162789194554e-36
9.271575885637327141e-37
7.810223211877252302e-37
6.392654868625001554e-37
5.356679320844934752e-37
4.639765748924849290e-37
3.727990412928121303e-37
2.593061471181144660e-37
2.007433081587734148e-37
1.488903178506899698e-37
1.040696751974931527e-37
7.263067008345330910e-38
5.161865526189752273e-38
3.554068565525365005e-38
2.440006811006974734e-38
1.687401956362631794e-38
1.176932658124930220e-38
8.326591693810057695e-39
6.003353537265628231e-39
4.414316205372671284e-39
3.310347981841230393e-39
2.522003434084385215e-39
1.940261687968795017e-39
1.496222966289852761e-39
