# bin_9_5
4.660890215767400241e-13
5.227130951414970901e-13
5.755479012157448740e-13
6.193723123035526192e-13
6.475450408501420304e-13
6.536748527644721941e-13
6.299473883070105758e-13
5.731323090206264377e-13
4.927801576705895391e-13
4.056398227299819130e-13
3.346649804857194528e-13
2.880787617564013464e-13
2.423594514948461535e-13
1.762201727401187421e-13
1.271485815572608504e-13
1.017838434084443129e-13
6.809448595878327058e-14
5.106755597402093784e-14
3.552262015629644767e-14
2.469397181862638616e-14
1.733776775606462825e-14
1.221705796442509487e-14
8.705883681362875052e-15
6.295289882280119426e-15
4.643674322110460870e-15
3.489351894344087247e-15
2.664067937292599293e-15
2.056634730568605408e-15
1.594216625680356159e-15
1.231873949978224004e-15
9.424990488472501856e-16
