# bin_13_15
2.017193878811885141e-08
2.305344642206350897e-08
2.598552749236405934e-08
2.877832180103100588e-08
3.118281628220366709e-08
3.287528946897384443e-08
3.349579221899494635e-08
3.271494955423071625e-08
3.018688259997266653e-08
2.632852611498928018e-08
2.182333061674205861e-08
1.789994142509285739e-08
1.527817855756892038e-08
1.309733198882372587e-08
9.876672978560307048e-09
6.890293149519158221e-09
5.582053631827576166e-09
3.758883127286413564e-09
2.811552686691172151e-09
1.889429342876079398e-09
1.297148370727838899e-09
8.870472213357643149e-10
6.015895673327198587e-10
4.067836441908315753e-10
2.756087010644698738e-10
1.889843336877586903e-10
1.315784994298231238e-10
9.341066435615843178e-11
6.781871028895569135e-11
5.032284305531705742e-11
3.802053328236276051e-11
