# bin_1_9
7.118343535174746655e-07
6.977844823955984246e-07
6.516391484193632165e-07
5.775246150314699321e-07
4.891238100928470718e-07
4.053992748397593999e-07
3.391873057717007748e-07
2.845945589697055524e-07
2.264931361773956245e-07
1.685288189292724230e-07
1.264314915661454234e-07
9.539369127818807074e-08
6.961498382749848437e-08
5.134049717591997313e-08
3.785137237539706002e-08
2.825096801105491391e-08
2.140323712645108958e-08
1.650413906071390360e-08
1.293877836143766017e-08
1.027098132114400745e-08
8.206191532097956848e-09
6.551387851875427512e-09
5.189293062305408573e-09
4.052266985508399078e-09
3.102889808559744556e-09
2.320388706306796484e-09
1.690633465565692082e-09
1.199351875352403733e-09
8.292685271813716591e-10
5.601175304427632954e-10
3.706662197855967887e-10
