# bin_3_1
1.288307482602547260e-10
1.335638125183823596e-10
1.335695796388421141e-10
1.273009130422350338e-10
1.147188008842830723e-10
9.786894146080630209e-11
8.052733795819866697e-11
6.686579906539286260e-11
5.735255284067173524e-11
4.718385429089967312e-11
3.433932658921026912e-11
2.554801175475249119e-11
1.983234018305863141e-11
1.401781740032045560e-11
1.041726394773185646e-11
7.556058497843125299e-12
5.538192692500525098e-12
4.115771598402875448e-12
3.108986424264970074e-12
2.391142411418135431e-12
1.868772346208261089e-12
1.478232410983384170e-12
1.175284504515361656e-12
9.324613947108147544e-13
7.331421657578357777e-13
5.675760034162743113e-13
4.303400695512610427e-13
3.182862315923090320e-13
2.290910008990109877e-13
1.604403806158649741e-13
1.095014098368330191e-13
