# bin_2_7
3.982363514092823457e-07
4.125435727042030760e-07
4.120681217790534941e-07
3.926609538081144167e-07
3.542607592851807973e-07
3.031554506405043795e-07
2.505749457715106338e-07
2.083109560468390336e-07
1.773693407449160787e-07
1.453588811132889526e-07
1.077555940259772549e-07
7.989397528700040106e-08
6.133712931861466583e-08
4.411974931864090074e-08
3.247255213446929789e-08
2.358518257448144277e-08
1.731827875794444309e-08
1.285668678925269707e-08
9.698951860202439123e-09
7.447380585697725608e-09
5.810079187413837361e-09
4.587181019379081287e-09
3.641034636325294568e-09
2.884833500962053377e-09
2.265954196120280266e-09
1.753375636923171031e-09
1.329564511426251011e-09
9.841684502240545312e-10
7.094906930561534693e-10
4.979483931107653968e-10
3.406820657735555304e-10
