# bin_10_5
1.013518021754387517e-14
1.140745892580247939e-14
1.261531044643064047e-14
1.364909709352288141e-14
1.436695391162932965e-14
1.461447964015657474e-14
1.424354758960199889e-14
1.311494867817821024e-14
1.141486996557936947e-14
9.451460746389851250e-15
7.756125963006647110e-15
6.625860681531883298e-15
5.666913223087366335e-15
4.256482155658897353e-15
2.984141138836352662e-15
2.417589161392566747e-15
1.633361741233039946e-15
1.228207311075713000e-15
8.380124162435081108e-16
5.849367330917624221e-16
4.096649159821599670e-16
2.869993376407742011e-16
2.025142588315793194e-16
1.446228471996006345e-16
1.052906434292716395e-16
7.815041251958388859e-17
5.905133778258783544e-17
4.526843586301367475e-17
3.498213073014478826e-17
2.705524081659015146e-17
2.079075437055618713e-17
