# bin_8_7
2.841789476977077680e-09
3.186881578448649715e-09
3.508802762974677567e-09
3.775712924076667174e-09
3.947111207906329194e-09
3.984063573073255121e-09
3.839035306635123571e-09
3.492656868160626315e-09
3.002970261865651218e-09
2.472202207582263488e-09
2.039967738081442045e-09
1.755685589616902429e-09
1.476394426721343075e-09
1.073918744570772922e-09
7.752805893796377809e-10
6.197861476481645286e-10
4.153933422154509034e-10
3.110545855170461781e-10
2.163785232051525410e-10
1.504964671185344970e-10
1.056638422511274923e-10
7.446779697892434645e-11
5.306851202244725639e-11
3.837551010924083891e-11
2.830740033948484181e-11
2.127027716940617223e-11
1.623866346271713872e-11
1.253504060863313483e-11
9.715626200767521927e-12
7.506563006709140769e-12
5.742612425058931863e-12
