# bin_7
0.000000000000000000e+00
1.316364706887048244e-208
1.289883549543574393e-177
9.112183151788002840e-152
5.868506123751740080e-130
1.893086288318251415e-111
1.136837305403745970e-95
3.605997127892253165e-82
1.400376598623240471e-70
1.320154297780665177e-60
5.298676412371668750e-52
1.440639496885559814e-44
3.904227922041441858e-38
1.456888265161926070e-32
9.822575154651521897e-28
1.505381291274757878e-23
6.372984800392730724e-20
8.800249335529282466e-17
4.569867166170948013e-14
1.008539500697494057e-11
1.051248003101973461e-09
5.670863548188355648e-08
1.714162504611570463e-06
3.112083355150581387e-05
3.606257061614476732e-04
2.813847887187016956e-03
1.549844901096227370e-02
6.282799467111552238e-02
1.945003657766046778e-01
4.749895589313462008e-01
9.412868557740240449e-01
1.550903383452993500e+00
2.168723029382233936e+00
2.618512912745658117e+00
2.769322893923054529e+00
2.596641913099566157e+00
2.181130962275041885e+00
1.656385926591673163e+00
1.146701531006049768e+00
7.292349130439839122e-01
4.290526795571358298e-01
2.351187825127981357e-01
1.207616713251289109e-01
5.847877984599125778e-02
2.684675017911272721e-02
1.174476251005292585e-02
4.919638205174217509e-03
1.981909685669957892e-03
7.710391455623202828e-04
2.907724254458520104e-04
1.066662022997289416e-04
3.818460835490322246e-05
1.337874913320661055e-05
4.600243943589542840e-06
1.556178587472304472e-06
5.190822608408858761e-07
1.710854134356681562e-07
5.582325363234721327e-08
1.806331938263298264e-08
5.805643372803057162e-09
1.856111828031643080e-09
5.910644726523579243e-10
1.877017183486139816e-10
5.950917952284068420e-11
1.885468687816750733e-11
5.975480140447283679e-12
1.895864142028923640e-12
6.026325529052817528e-13
1.920476087067902663e-13
6.139719222162151903e-14
1.970236620576827460e-14
1.117854891516697619e-14
