# bin_7_5
-3.268076870176622153e-10
-3.593691230252768946e-10
-3.862532085722329247e-10
-4.033399116030682591e-10
-4.066667920588098137e-10
-3.915266269051641972e-10
-3.561545642413792422e-10
-3.064164650982007449e-10
-2.523982249374602134e-10
-2.083571795060523984e-10
-1.788010189302998415e-10
-1.498972818402630117e-10
-1.098691735648700454e-10
-7.964381405373526856e-11
-6.310911648661809782e-11
-4.332824798897205124e-11
-3.227220745606277023e-11
-2.274422550211231893e-11
-1.618056915909373598e-11
-1.160746197647191320e-11
-8.404862785899747401e-12
-6.177346918876807601e-12
-4.616969689327709774e-12
-3.514904350881142015e-12
-2.714666014901465972e-12
-2.115607954305463918e-12
-1.653061802097311652e-12
-1.285758014565735784e-12
-9.891145178384604919e-13
-7.484386302799005178e-13
-5.546543282909090238e-13
