# bin_9_7
-1.865381160861621902e-10
-2.085041192388310409e-10
-2.286503498923025724e-10
-2.448324767213139315e-10
-2.543627118199108409e-10
-2.549020000739708696e-10
-2.431749299003815932e-10
-2.190593749651259865e-10
-1.865916837783114227e-10
-1.530475927038608402e-10
-1.270636581056414109e-10
-1.096938146422805192e-10
-9.047639205245097203e-11
-6.448272609787021672e-11
-4.797408149812268527e-11
-3.728380511900560108e-11
-2.541409059669445899e-11
-1.861224110406242504e-11
-1.315050613184842868e-11
-9.182859639165716484e-12
-6.460847671646193128e-12
-4.582045664096503586e-12
-3.292795996428197338e-12
-2.405165948748843304e-12
-1.791722189619291471e-12
-1.358087453137071027e-12
-1.043783228775010043e-12
-8.087708285415865838e-13
-6.272771349669500057e-13
-4.835503091554347123e-13
-3.681800231331966566e-13
