# bin_12_1
-3.428879537893952532e-09
-3.369580737735529637e-09
-3.155523328941175340e-09
-2.803838155751889247e-09
-2.378206797209071948e-09
-1.970076261016185356e-09
-1.646599124860325188e-09
-1.383955614573416397e-09
-1.105865871612902348e-09
-8.233097122762149032e-10
-6.166158180561810622e-10
-4.661114744926296542e-10
-3.399515474872064801e-10
-2.506191530880232667e-10
-1.845922720467745810e-10
-1.376031999474577274e-10
-1.040914781541251122e-10
-8.014216944689939514e-11
-6.274546560841362509e-11
-4.976019158828736037e-11
-3.973823090467813905e-11
-3.172658947008646933e-11
-2.514383529322199536e-11
-1.965334637386717129e-11
-1.506820305733504114e-11
-1.128502051399156801e-11
-8.235133678586642181e-12
-5.850964065255942713e-12
-4.051108980233565582e-12
-2.739510586675491005e-12
-1.814691350805411572e-12
