# bin_8_4
-7.195306265295597180e-10
-7.821170711589733655e-10
-8.286391734932675498e-10
-8.501546650423709867e-10
-8.386057775510101816e-10
-7.846400321485341439e-10
-6.940212568756038683e-10
-5.822294257234311608e-10
-4.773974720439548415e-10
-4.016593740159622072e-10
-3.448387326446371412e-10
-2.721358475674794432e-10
-1.926956792322704396e-10
-1.496248678667844381e-10
-1.100527947537575228e-10
-7.908505740004206179e-11
-5.675829203295539504e-11
-4.095849800001151476e-11
-2.945478876155615828e-11
-2.140511006430038233e-11
-1.578995353953944995e-11
-1.184593890597422118e-11
-9.045208647621699446e-12
-7.010795732632869617e-12
-5.484366406495108934e-12
-4.302591570630594359e-12
-3.361598143599565890e-12
-2.598310505260176364e-12
-1.975661722201848190e-12
-1.471066656271432782e-12
-1.069106522749573444e-12
