# bin_10_6
-4.001104763127410328e-10
-4.444605215409862207e-10
-4.837174302330467516e-10
-5.130836066625114169e-10
-5.268823537579017565e-10
-5.203497092816261232e-10
-4.870888101430674975e-10
-4.309169193708775253e-10
-3.610980091803998262e-10
-2.956821087728241016e-10
-2.489791076156856106e-10
-2.146230119444712474e-10
-1.692296026046880882e-10
-1.184122693631721415e-10
-9.276800867831320882e-11
-6.742829901104470981e-11
-4.840670627994506352e-11
-3.404831618968038416e-11
-2.437811600450384217e-11
-1.722996024519265849e-11
-1.224285824866991458e-11
-8.807037382266358097e-12
-6.430099078373573437e-12
-4.782120409819165856e-12
-3.621980329089738132e-12
-2.783313174901639417e-12
-2.159442951806881154e-12
-1.680053993157155837e-12
-1.301438137332864776e-12
-9.972529254420875355e-13
-7.518774063245182904e-13
