# bin_8_8
-3.903119070299392753e-11
-4.379109071932009987e-11
-4.824201174093979315e-11
-5.194910963200915809e-11
-5.435833367181940207e-11
-5.492588012823258658e-11
-5.301434180369476244e-11
-4.831165176552246206e-11
-4.162985517697451943e-11
-3.427363173476229858e-11
-2.824440500488497726e-11
-2.427714203244715517e-11
-2.047623251472598596e-11
-1.496884775122891563e-11
-1.074337695026846784e-11
-8.616971059108755776e-12
-5.773293625307117866e-12
-4.331690909602074723e-12
-3.002146521212613918e-12
-2.087998261874216657e-12
-1.465571044776021201e-12
-1.031861237661046487e-12
-7.341354229998011690e-13
-5.297606178342725001e-13
-3.899574280219725606e-13
-2.924500382106974894e-13
-2.229107640642313471e-13
-1.718882165063240038e-13
-1.331663731957798958e-13
-1.029032036240466761e-13
-7.877444057051929970e-14
