# bin_3_7
-2.618217306526496896e-16
-2.890987411184126603e-16
-3.123094684699455409e-16
-3.282088853483333815e-16
-3.333398839579021027e-16
-3.242538479262406186e-16
-2.980507177473644457e-16
-2.590753854504523012e-16
-2.142652619145786248e-16
-1.758864665534328126e-16
-1.502011499889621055e-16
-1.280905715803560366e-16
-9.610678328334401658e-17
-6.780876411702876475e-17
-5.472412761441075382e-17
-3.742292085798417421e-17
-2.815371239171975879e-17
-1.955028145810986089e-17
-1.390557795698587015e-17
-9.947064369321381962e-18
-7.161196380247991268e-18
-5.223997346008616422e-18
-3.871770340357463100e-18
-2.925258308259499564e-18
-2.245900866886806603e-18
-1.743739594476701988e-18
-1.360951079139966377e-18
-1.060028955302872675e-18
-8.184166832517417952e-19
-6.226441483041459812e-19
-4.646195789895001825e-19
