# bin_6_2
-1.578452474768873563e-09
-1.635067340431395121e-09
-1.633126029603880390e-09
-1.556079770525437612e-09
-1.403698397279264132e-09
-1.200927187306242703e-09
-9.918830485313551240e-10
-8.242310218896975739e-10
-7.020072169692364587e-10
-5.755141848637290677e-10
-4.261699479414252560e-10
-3.158647478020848984e-10
-2.426922625876897414e-10
-1.743680081679936890e-10
-1.284032627123234049e-10
-9.323036848086854053e-11
-6.845261546264060192e-11
-5.081719255503770617e-11
-3.833558234416218359e-11
-2.943624621627142634e-11
-2.296446580207833672e-11
-1.813094533588937569e-11
-1.439099008116590798e-11
-1.140161954908586867e-11
-8.955002347423179975e-12
-6.928583255486000163e-12
-5.253116865631662524e-12
-3.887726586598451977e-12
-2.802013358409998610e-12
-1.966016188617704334e-12
-1.344687197081438609e-12
