# bin_1_5
-1.556855475557296242e-17
-1.673451129932528850e-17
-1.748246667974381942e-17
-1.764024685388552809e-17
-1.700604590749151053e-17
-1.549182650958017916e-17
-1.334799362631882636e-17
-1.099893940836860513e-17
-9.067059392415846753e-18
-7.772125005078052264e-18
-6.536587754247179115e-18
-4.815659956129817261e-18
-3.480812100340592182e-18
-2.773932505589831639e-18
-1.914973559555215869e-18
-1.437990642584420560e-18
-1.022744044041099629e-18
-7.379226656694233007e-19
-5.384288400994771051e-19
-3.977231836658554939e-19
-2.987880127276541525e-19
-2.283258925774578188e-19
-1.773408073888109175e-19
-1.392067187557973791e-19
-1.097137013871666631e-19
-8.622393847624266901e-20
-6.710410073205739712e-20
-5.140811550389269837e-20
-3.857573217685289536e-20
-2.824528042777252450e-20
-2.013772868627227574e-20
