# bin_8_3
-1.156579275131044980e-09
-1.234554350629373380e-09
-1.278841231752846590e-09
-1.277081444360493252e-09
-1.214963481515632390e-09
-1.093027295242376270e-09
-9.314823321456153241e-10
-7.664574583777260571e-10
-6.373890031844276030e-10
-5.461352084801967634e-10
-4.470425706202976349e-10
-3.251898623517935312e-10
-2.423851306681311475e-10
-1.865589112304135359e-10
-1.319029567655315961e-10
-9.714551440069511993e-11
-6.990464468240966337e-11
-5.070841487844047237e-11
-3.718428666167858074e-11
-2.766416332758369201e-11
-2.094030339877738978e-11
-1.611929917204841451e-11
-1.258737874341135709e-11
-9.910646270811403203e-12
-7.814695980425013067e-12
-6.128833575229136594e-12
-4.749216050778955715e-12
-3.615837651769672066e-12
-2.692706326004054731e-12
-1.955209241965997070e-12
-1.382432473400172325e-12
