# bin_1_7
-4.360586635858694023e-23
-4.786701378403837675e-23
-5.133605677004680506e-23
-5.345747711801958366e-23
-5.372708051416184471e-23
-5.147865797232930321e-23
-4.657807638038291972e-23
-3.985184722549881133e-23
-3.272672260518022956e-23
-2.707462425182499508e-23
-2.332419472695432283e-23
-1.942343415984964202e-23
-1.400737475874626666e-23
-1.028301373195677185e-23
-8.123914552632583713e-24
-5.537407233720798922e-24
-4.130201715967378039e-24
-2.933502428276288217e-24
-2.082333190578907404e-24
-1.496274135026244747e-24
-1.086814050678344439e-24
-8.020470478836587152e-25
-6.021903188800060514e-25
-4.604069811455321335e-25
-3.568047889158176241e-25
-2.787186137689462708e-25
-2.180052466463100769e-25
-1.695171791820083851e-25
-1.302160526883076323e-25
-9.828792641464419676e-26
-7.259592594366252862e-26
