# bin_9_5
-5.242988526434260305e-10
-5.771164465395823180e-10
-6.210625470098257446e-10
-6.495555309231150767e-10
-6.561159147235960529e-10
-6.333366976812073845e-10
-5.777404271184893133e-10
-4.984459437020506351e-10
-4.111536705231744528e-10
-3.390027621619899302e-10
-2.904440708612897326e-10
-2.444198656352240333e-10
-1.804328978998131993e-10
-1.300426439726034926e-10
-1.032493743181055065e-10
-7.107381244202596784e-11
-5.289777721010176471e-11
-3.719363314073018907e-11
-2.647578308884068152e-11
-1.896954225405014694e-11
-1.371037699294957277e-11
-1.005533725308818862e-11
-7.497966189098751937e-12
-5.695783634482114606e-12
-4.391387840474858840e-12
-3.418341083505623960e-12
-2.669709431258480435e-12
-2.076956407935672326e-12
-1.599097827525189831e-12
-1.211629644677252861e-12
-8.995149586769116721e-13
