# bin_2_7
-3.133235137457452607e-19
-3.449174348583876031e-19
-3.712152896611140867e-19
-3.882758261433691915e-19
-3.922305068263917699e-19
-3.785709878447169047e-19
-3.450824847846366343e-19
-2.974623731246951278e-19
-2.449820820546051614e-19
-2.018159961824185784e-19
-1.732499595362663941e-19
-1.461257059043582106e-19
-1.072531645710896547e-19
-7.708444004929299089e-20
-6.182153279328210479e-20
-4.193587333458928194e-20
-3.158148299657988523e-20
-2.216808400099647239e-20
-1.572241777898139794e-20
-1.127721290522993581e-20
-8.156806248032416217e-21
-5.986531792913021044e-21
-4.467452879583159339e-21
-3.397124343057886906e-21
-2.621705742602119999e-21
-2.042622677365455682e-21
-1.596477590726610748e-21
-1.242666547197586899e-21
-9.570393190151539033e-22
-7.251879004179699669e-22
-5.382869519351081319e-22
