# bin_7_4
-6.048871898246773740e-10
-6.572183220685619835e-10
-6.959358879128927964e-10
-7.135372576603402075e-10
-7.032436274422173207e-10
-6.572824501367342831e-10
-5.807615716999265027e-10
-4.867854572360030439e-10
-3.991298980664515303e-10
-3.360676364926981520e-10
-2.884404329611653428e-10
-2.270442072556967048e-10
-1.606745543649390110e-10
-1.250483159418059643e-10
-9.168751866068441682e-11
-6.603420551357673978e-11
-4.732699370177723570e-11
-3.417223444140296228e-11
-2.458856951654183896e-11
-1.787915397525823310e-11
-1.319867811282125241e-11
-9.909556390329279973e-12
-7.572446513771917133e-12
-5.872854980968512830e-12
-4.596042488125817159e-12
-3.606305468092943760e-12
-2.817396252530546177e-12
-2.177050879731897194e-12
-1.654562306990820299e-12
-1.231196091240605250e-12
-8.941044449820305293e-13
