# bin_7_1
-2.924381575350418391e-09
-2.875016050398501546e-09
-2.693472936552042447e-09
-2.394033678976905080e-09
-2.030786447283853073e-09
-1.681976028060230768e-09
-1.405737059283567168e-09
-1.182150817434192270e-09
-9.450823879461563488e-10
-7.033108647088870708e-10
-5.267609102939299135e-10
-3.983335127620983722e-10
-2.904239193058920215e-10
-2.141340896113686639e-10
-1.576921274712866390e-10
-1.175356203996654901e-10
-8.889692270644198766e-11
-6.843257582633402869e-11
-5.357034910716164585e-11
-4.247960910060223480e-11
-3.392249123527362550e-11
-2.708335785683999505e-11
-2.146477356035704813e-11
-1.677869602459831830e-11
-1.286511533490231658e-11
-9.635638208891927535e-12
-7.031746857098496472e-12
-4.995958481539195127e-12
-3.458984590199653060e-12
-2.338936518294166066e-12
-1.549210860672872241e-12
