# bin_4_6
-1.009163703655099918e-12
-1.110629089226064781e-12
-1.194919365709780620e-12
-1.249327059661480462e-12
-1.261460747888878958e-12
-1.216748688190861096e-12
-1.108451003978251000e-12
-9.549273292405625361e-13
-7.863487750913923266e-13
-6.480761219525668465e-13
-5.564262406024077645e-13
-4.687086796651148531e-13
-3.436617073966204554e-13
-2.474870034190599060e-13
-1.980751993890123665e-13
-1.345733152541640077e-13
-1.011712267332504331e-13
-7.108624552921979978e-14
-5.043731412384819759e-14
-3.618088528124469803e-14
-2.617871214020933228e-14
-1.922172034313121476e-14
-1.435106269546265947e-14
-1.091719647006783477e-14
-8.427784409455565917e-15
-6.567337671535111058e-15
-5.132974229851920840e-15
-3.994887267288166211e-15
-3.075887637102176661e-15
-2.329914556589495556e-15
-1.728697710112891010e-15
