# bin_10_4
-8.936180398092886679e-10
-9.717784388506588096e-10
-1.030153425229286877e-09
-1.057614653312357769e-09
-1.044162064758369208e-09
-9.780441544397756621e-10
-8.660196987273138488e-10
-7.271753056827631886e-10
-5.962594839138200882e-10
-5.012701435535882499e-10
-4.304871759619949310e-10
-3.406156728373314547e-10
-2.413278573817396965e-10
-1.869490163711020307e-10
-1.379445005537187125e-10
-9.890588150366690607e-11
-7.108189850176713790e-11
-5.126489180096127344e-11
-3.684519243544614753e-11
-2.675997622874156882e-11
-1.972526372615931103e-11
-1.478663263194007631e-11
-1.128178785359393508e-11
-8.738880565665977189e-12
-6.833366469204180089e-12
-5.359957409838867713e-12
-4.188009872164064153e-12
-3.238026240168548811e-12
-2.463279127586794796e-12
-1.835334341117605843e-12
-1.334868117167751386e-12
