# bin_3_15
-2.303382212141721487e-34
-2.622769851312215159e-34
-2.942509630391652002e-34
-3.240326466238134218e-34
-3.486616187651746471e-34
-3.643775609205463906e-34
-3.676007224735591235e-34
-3.538467786199769705e-34
-3.214294765278520165e-34
-2.760516541535749505e-34
-2.268796991407891136e-34
-1.872893090922528863e-34
-1.614667715660626466e-34
-1.355702271436819968e-34
-9.793139768724229008e-35
-7.083711257476922791e-35
-5.655562787984517466e-35
-3.746261593439348479e-35
-2.791362075836939979e-35
-1.921921569676510306e-35
-1.308514768228185303e-35
-8.950435382482015600e-36
-6.096871570811552751e-36
-4.171696294373150702e-36
-2.876993538700912154e-36
-2.016391236173310102e-36
-1.439387304272083842e-36
-1.049438890177816378e-36
-7.813468429166963332e-37
-5.919922402809789860e-37
-4.536455734901644205e-37
