# bin_5_5
-2.070208911989379230e-08
-2.283460025357337868e-08
-2.463555071941491539e-08
-2.584688388933066131e-08
-2.620202787525980139e-08
-2.541790612644077985e-08
-2.329708376438301268e-08
-2.019406874335055970e-08
-1.668159872998719927e-08
-1.371592661637494016e-08
-1.173721435698939078e-08
-9.968064930797329988e-09
-7.420701404429764619e-09
-5.273930422468298278e-09
-4.245483775430943800e-09
-2.895984491344836967e-09
-2.179155247052217692e-09
-1.519698928263313030e-09
-1.079859057261823084e-09
-7.732874030289866377e-10
-5.577166450679778672e-10
-4.077903450561654927e-10
-3.030434100080540107e-10
-2.295292023695131078e-10
-1.765809361624354440e-10
-1.372921296563654698e-10
-1.072206564198990801e-10
-8.350046049620729945e-11
-6.441432165503760007e-11
-4.893703202817857994e-11
-3.644859644794003268e-11
