# bin_9_9
-1.403983600690842982e-08
-1.588804210775507127e-08
-1.768554140392335709e-08
-1.928937405784971157e-08
-2.050885894973023233e-08
-2.111075515779400686e-08
-2.091683250146757309e-08
-1.964187708982962278e-08
-1.742749154211419423e-08
-1.462410661731626183e-08
-1.196570895590353851e-08
-1.006451169833243960e-08
-8.711707561419641060e-09
-6.913381205996337659e-09
-4.790523418177109463e-09
-3.761283084065881533e-09
-2.732822061735122336e-09
-1.944298261927911611e-09
-1.338155135648737074e-09
-9.524880816265936136e-10
-6.580770602839288144e-10
-4.534135133799800387e-10
-3.148739883348258281e-10
-2.206238829624907799e-10
-1.570013572020042802e-10
-1.138950565359463500e-10
-8.425823499409814124e-11
-6.352105128902987919e-11
-4.857947926854025508e-11
-3.744860312191352214e-11
-2.888078140214725752e-11
