# bin_8_5
-1.952012303881829702e-10
-2.182648134810215372e-10
-2.394563155944667291e-10
-2.565353095866310362e-10
-2.666830621304101163e-10
-2.674609412608377772e-10
-2.553699042620870222e-10
-2.302059616127674237e-10
-1.961930632562400170e-10
-1.609144185250920501e-10
-1.335386678905913457e-10
-1.153882033892442013e-10
-9.538202532839628381e-11
-6.786841889049043026e-11
-5.044901147351557569e-11
-3.936752863191226329e-11
-2.670312949443259228e-11
-1.961298551159150674e-11
-1.387876475194067804e-11
-9.681526962924411215e-12
-6.805656912864407934e-12
-4.823134927611466026e-12
-3.465001713115529870e-12
-2.530350853006038670e-12
-1.884629358083191827e-12
-1.428437647001308899e-12
-1.097991490363122415e-12
-8.510255764170152486e-13
-6.603383805376654850e-13
-5.093066023540657867e-13
-3.880136993868095527e-13
