# bin_2_7
-1.912783786968683643e-15
-2.108582071495157322e-15
-2.273235129182745945e-15
-2.382830565762394232e-15
-2.413042711428849721e-15
-2.337245694114660076e-15
-2.138587204848570278e-15
-1.850591803413984926e-15
-1.527229363665662176e-15
-1.256463898545390186e-15
-1.076479887160023542e-15
-9.124681179419778191e-16
-6.760588104174190446e-16
-4.820106074653475157e-16
-3.879698583850891633e-16
-2.638133248021241364e-16
-1.988278095137151194e-16
-1.389080358276158240e-16
-9.860424694640525048e-17
-7.066053425572659853e-17
-5.101441355065303359e-17
-3.734731711346292191e-17
-2.779323173477950089e-17
-2.107951582271601092e-17
-1.623479608161064479e-17
-1.263230592113565587e-17
-9.868879112815667672e-18
-7.685039729520955758e-18
-5.925730893152107098e-18
-4.498419724227202274e-18
-3.346951408340254400e-18
