# bin_6_1
-1.604612124966071357e-16
-1.747289050652324675e-16
-1.855247522394975324e-16
-1.907932838760419673e-16
-1.888455229311057247e-16
-1.772838244097851619e-16
-1.572938437363972880e-16
-1.321204401148843132e-16
-1.081666506706778711e-16
-9.084724437972945801e-17
-7.838789605988894625e-17
-6.234034832432946447e-17
-4.372109840097716166e-17
-3.409522705526783010e-17
-2.517013784292942576e-17
-1.804221721038791880e-17
-1.287815149135927636e-17
-9.342743721900668440e-18
-6.709347763626565638e-18
-4.864978846538125055e-18
-3.582951603343999422e-18
-2.683978252599292403e-18
-2.046978094340119788e-18
-1.585469521710870772e-18
-1.240136658195357876e-18
-9.734188790455154075e-19
-7.613543839309672884e-19
-5.893865573790620862e-19
-4.489912386827572601e-19
-3.350185718173957999e-19
-2.439865083293639515e-19
