# bin_4_1
-1.439369561126560605e-11
-1.527903178303153478e-11
-1.571550153577344456e-11
-1.555968759557255428e-11
-1.462391062785128995e-11
-1.299260282360506108e-11
-1.093525244631713269e-11
-8.960929731205722323e-12
-7.513348272091783118e-12
-6.467327958660733785e-12
-5.164766933430197739e-12
-3.657605260217516565e-12
-2.826945850294552446e-12
-2.112683588581631034e-12
-1.513738200125896789e-12
-1.098921773939606094e-12
-8.014590786009962699e-13
-5.832867904464185485e-13
-4.302458987417384980e-13
-3.227736440893869749e-13
-2.464797668232813729e-13
-1.913679854634572706e-13
-1.504474851043861617e-13
-1.189673658971466028e-13
-9.396794433462970341e-14
-7.362430286670644531e-14
-5.685431275747503155e-14
-4.304100445752351106e-14
-3.181058645221118887e-14
-2.289094177800061473e-14
-1.602918846436187062e-14
