# bin_3_4
-1.366773310932472398e-08
-1.477538404409371945e-08
-1.554678671218009226e-08
-1.581804201586901660e-08
-1.542958557401660933e-08
-1.423752998945452971e-08
-1.242446366081231669e-08
-1.031120734611578441e-08
-8.463090160045644521e-09
-7.198628346366889034e-09
-6.145195013389312732e-09
-4.675227020234744507e-09
-3.306470993669188450e-09
-2.642794857549666311e-09
-1.856258562427824268e-09
-1.381896056249241516e-09
-9.752953288901668225e-10
-7.058739902491508885e-10
-5.121937330891862717e-10
-3.755056477362089999e-10
-2.797904094602383242e-10
-2.120490010104563568e-10
-1.635203640870169945e-10
-1.277177567199622077e-10
-1.004077624794960050e-10
-7.892379908126980981e-11
-6.158987006909021540e-11
-4.741736122921737441e-11
-3.582476359284359743e-11
-2.645032167351702882e-11
-1.903169950342308006e-11
