# bin_10_9
-9.670843064689941665e-09
-1.096465313061793107e-08
-1.223375488180478618e-08
-1.338153512125264661e-08
-1.427847476265008518e-08
-1.476324449723058749e-08
-1.470972123485902006e-08
-1.391367510516226584e-08
-1.242914151806141962e-08
-1.049509342014934118e-08
-8.591003904009440600e-09
-7.183785950293444407e-09
-6.223042705680837475e-09
-5.032592105404523640e-09
-3.509479047916199968e-09
-2.695401598142054438e-09
-2.021094552325826224e-09
-1.399344376111816767e-09
-9.845242464804599602e-10
-6.988462517291335599e-10
-4.802654810649029771e-10
-3.291413105810742763e-10
-2.271121010816618253e-10
-1.580358832063815235e-10
-1.114651691568931307e-10
-8.010282325360921482e-11
-5.870893153431914563e-11
-4.389976946154057767e-11
-3.337396099054494661e-11
-2.564587316905869757e-11
-1.977406729541880117e-11
