# bin_3_3
-3.306444774819404016e-08
-3.536911191461792738e-08
-3.672722762520784114e-08
-3.679426215704877837e-08
-3.512428423285793532e-08
-3.168640399184128573e-08
-2.704738459009032409e-08
-2.222514605350822838e-08
-1.843727510873372853e-08
-1.585583873777689822e-08
-1.309210871093434727e-08
-9.464956710805779778e-09
-7.024402716590091419e-09
-5.480139284678962187e-09
-3.819121690163608283e-09
-2.836527553472990977e-09
-2.040062022938944166e-09
-1.475038105686377558e-09
-1.080484238358583368e-09
-8.029174113657694857e-10
-6.071473474369579180e-10
-4.670049978112998293e-10
-3.645971715312888680e-10
-2.871464207110168601e-10
-2.265995434070121259e-10
-1.779371727736873375e-10
-1.381006828305806992e-10
-1.053326829579787507e-10
-7.858585931189606661e-11
-5.715632721713774671e-11
-4.046413376826284103e-11
