# bin_6_8
-2.494751322414461192e-09
-2.796759974087320924e-09
-3.078034676271696524e-09
-3.310560617862559572e-09
-3.458762083050110964e-09
-3.488833690610871161e-09
-3.358578397452239567e-09
-3.052330307286564985e-09
-2.622968597303282077e-09
-2.157191420828094017e-09
-1.780792469380330518e-09
-1.533683795383194388e-09
-1.287841786823072322e-09
-9.338823089064933249e-10
-6.759806281181275974e-10
-5.398613010316734488e-10
-3.614331579183574674e-10
-2.706048490860743230e-10
-1.886069159364842504e-10
-1.311282085924525168e-10
-9.208174274329546824e-11
-6.492635175663218361e-11
-4.631151661801686879e-11
-3.352877696861472336e-11
-2.476224826467161289e-11
-1.862755704486192376e-11
-1.423459098981030899e-11
-1.099510980767483242e-11
-8.524519905140253862e-12
-6.585834316765198183e-12
-5.036297404830293289e-12
