# bin_4_2
-1.345043162592936963e-09
-1.441629664859963462e-09
-1.500639299346448408e-09
-1.507804338449386665e-09
-1.445029796351568184e-09
-1.308587510498259892e-09
-1.121029387244852434e-09
-9.219859800363077679e-10
-7.629097761471500336e-10
-6.556526125668692918e-10
-5.456027545303362855e-10
-3.968164052127904986e-10
-2.914987860075109925e-10
-2.296846086703125556e-10
-1.591137845490592460e-10
-1.188377490156585157e-10
-8.514277473778323729e-11
-6.147539302851765944e-11
-4.496133017483446243e-11
-3.333484652988138817e-11
-2.514583072444453339e-11
-1.929583519145100795e-11
-1.503723304949695895e-11
-1.182994829700945645e-11
-9.332614886408264721e-12
-7.331984154176327070e-12
-5.697332078342476816e-12
-4.353389192265273032e-12
-3.255430239461314833e-12
-2.373906410423660217e-12
-1.685148121781712536e-12
