# bin_3_2
2.713872771942493370e-08
2.359029544693572317e-08
1.998381534430486017e-08
1.655128953809406446e-08
1.346684626250802192e-08
1.080752982840316595e-08
8.557696865716785422e-09
6.659409715644589523e-09
5.082004246542084088e-09
3.834162225504728868e-09
2.897623786519522488e-09
2.196334539618027808e-09
1.668317230403392979e-09
1.279364013721828744e-09
9.900136277198175143e-10
7.728402404735760225e-10
6.070253642206130072e-10
4.779701316558859410e-10
3.756359712456964123e-10
2.933445361454985104e-10
2.266988940968033681e-10
1.727546767123933883e-10
1.294403083956598396e-10
9.515716052855110486e-11
6.854094239918470156e-11
4.834453138080353853e-11
3.339908820125072877e-11
2.262223910620094192e-11
1.504697411652407374e-11
9.848306342699693251e-12
6.356919326721149549e-12
