# bin_9_4
5.231758780012784572e-08
4.787653282350357855e-08
4.263501498470724938e-08
3.693030556204590149e-08
3.116109392309021614e-08
2.571468415634184491e-08
2.086519481511667055e-08
1.671300173449984158e-08
1.320060725947411638e-08
1.021953484555587255e-08
7.740363515263416473e-09
5.805477593536691682e-09
4.370339041963224976e-09
3.285132240611956342e-09
2.473091122847593467e-09
1.879571592266819610e-09
1.439278995190776787e-09
1.111675067352562739e-09
8.640755607316296189e-10
6.736676461100035540e-10
5.247089880608133887e-10
4.065819670014630866e-10
3.121772117422858519e-10
2.366659831242828367e-10
1.766440598532323759e-10
1.295186180493476301e-10
9.315016102531045241e-11
6.566305759549322612e-11
4.536532885377389913e-11
3.073851653984768296e-11
2.045299244499433417e-11
