# bin_10_2
3.531159361934784880e-08
3.116392277570730240e-08
2.675653708575600509e-08
2.240192722438474611e-08
1.837834015567932540e-08
1.485375264074053850e-08
1.185676397555096385e-08
9.314944910182449414e-09
7.161579954248882679e-09
5.407819423375395220e-09
4.073042960831456910e-09
3.079090552895051631e-09
2.325824599606135838e-09
1.769580838220312664e-09
1.359212150777810923e-09
1.053797288141443394e-09
8.236666437336384455e-10
6.470478952724169266e-10
5.087709339612494584e-10
3.986107917229626585e-10
3.098185613288171268e-10
2.379383373060570568e-10
1.799533975555666036e-10
1.336761037773281463e-10
9.734949898997828700e-11
6.942828695876724315e-11
4.847989434128197741e-11
3.316338654354210094e-11
2.225340547476740352e-11
1.467538661357439634e-11
9.532227364882486311e-12
