# bin_8_8
6.910179136084452094e-08
6.492384402623046247e-08
5.946431411967639487e-08
5.301309474974639889e-08
4.598437106967802129e-08
3.886299289817739160e-08
3.211691127278394683e-08
2.608330454971235588e-08
2.089509099888573020e-08
1.650190735923570369e-08
1.278327110684165364e-08
9.690378436717896501e-09
7.254508740088903073e-09
5.435780614238064054e-09
4.069944406967950139e-09
3.042510991438066044e-09
2.293159659099877055e-09
1.738998161644605007e-09
1.329597610983950925e-09
1.022909934715101788e-09
7.898786763395606418e-10
6.100568705525606564e-10
4.694574519712012443e-10
3.585960655134995890e-10
2.709555730099200775e-10
2.019447991385861118e-10
1.481288000652776966e-10
1.067637733533457100e-10
7.553930529152274417e-11
5.245080181322734304e-11
3.575098491178026927e-11
