# bin_7_1
2.294913784851023547e-08
1.961539006889120381e-08
1.636818765777060993e-08
1.339808399769242640e-08
1.080914147918954181e-08
8.607483486900565177e-09
6.741462997354753461e-09
5.174393988415692438e-09
3.914444467259998380e-09
2.957908124848270670e-09
2.242921538041609554e-09
1.704241094387089273e-09
1.305668202033005162e-09
1.010517966372494958e-09
7.894899220672606139e-10
6.214347601903923695e-10
4.910213165278472504e-10
3.877265083032130722e-10
3.045446969797100671e-10
2.369056880033541185e-10
1.818139214324776817e-10
1.372258887167444579e-10
1.016174564994129302e-10
7.371221839739714473e-11
5.233971035086082313e-11
3.638298304496241461e-11
2.478227269035743355e-11
1.656713895198640500e-11
1.089197615510029468e-11
7.058342893900460687e-12
4.518845253764744497e-12
