# bin_14_7
7.497768990991613881e-08
7.086040376885120402e-08
6.529382583117348883e-08
5.855584126373575582e-08
5.107090968738417268e-08
4.336138967688485512e-08
3.596074721488124295e-08
2.928300919333904327e-08
2.351938042601470043e-08
1.863737040643475281e-08
1.449158319791503947e-08
1.100740954698253240e-08
8.234186087085984389e-09
6.164423909099179575e-09
4.612204825216175944e-09
3.437682066963079981e-09
2.583974979931033379e-09
1.952960668322881519e-09
1.488726195258533640e-09
1.142518060943785515e-09
8.808167744727498767e-10
6.798838628566144409e-10
5.234224731016056059e-10
4.003915678903342816e-10
3.032310024982442733e-10
2.266775428714377761e-10
1.668577094988464890e-10
1.207297687760737767e-10
8.576761354607337882e-11
5.979493217821102062e-11
4.091631611927251547e-11
