# bin_3_1
1.961644670736280102e-08
1.665156534679962041e-08
1.381806578727524193e-08
1.126203440346976582e-08
9.051350701922723836e-09
7.177080276379185407e-09
5.594786242570306251e-09
4.279825125134498939e-09
3.236938473902953492e-09
2.450172287395976799e-09
1.861200003472239456e-09
1.418507265861287970e-09
1.091107959991499251e-09
8.475981715490707129e-10
6.643043733239328527e-10
5.239470224248053089e-10
4.142377947157714448e-10
3.268031046625044948e-10
2.561051048831189333e-10
1.985308617421238640e-10
1.516874383687011299e-10
1.139011422738538863e-10
8.387725670768103933e-11
6.049599863914162589e-11
4.271353491321025094e-11
2.953328447357047409e-11
2.001900163702762328e-11
1.332588403824373884e-11
8.729382917087088661e-12
5.640096493081417906e-12
3.602275953606025177e-12
