# bin_14_11
8.856485783847563481e-08
8.501949465560896104e-08
7.969118672284942876e-08
7.278525803696103286e-08
6.468533387596018464e-08
5.592603752432074884e-08
4.711995007917826923e-08
3.884161010494580664e-08
3.148276019508670373e-08
2.517415598756328099e-08
1.982795667225726391e-08
1.529631275930351845e-08
1.154095098632065432e-08
8.609291009096157431e-09
6.428313146202938525e-09
4.783131220002960335e-09
3.553079452529862966e-09
2.658806136556779650e-09
1.999853231176306244e-09
1.515716017835861908e-09
1.155812134158518118e-09
8.847496040304620883e-10
6.777266398536874864e-10
5.176633367768606947e-10
3.928745267581859928e-10
2.952818145983998911e-10
2.191831728352498710e-10
1.603325186550838734e-10
1.153961512758637178e-10
8.163803401017193484e-11
5.674833973568707168e-11
