# bin_7_6
5.958020292616475010e-08
5.525474224145976270e-08
4.991510747039307520e-08
4.387649332795721118e-08
3.754410340841928756e-08
3.135018460809894731e-08
2.566288332547002307e-08
2.069211378118443112e-08
1.646645588139376467e-08
1.289192909615462871e-08
9.881441585550839917e-09
7.437411837294061217e-09
5.574304597517828979e-09
4.189457994079274347e-09
3.139916372182295406e-09
2.365334733673973477e-09
1.796066293846391501e-09
1.374455619400905298e-09
1.059495138955782883e-09
8.208346772019789742e-10
6.369368348557729321e-10
4.930795812011289164e-10
3.793171275749650665e-10
2.888974656613350187e-10
2.171470282952141540e-10
1.606684527904374153e-10
1.168028028776599058e-10
8.332902351451419560e-11
5.830756769774278405e-11
4.002153404916814037e-11
2.696628467603358475e-11
