# bin_14_2
3.659376224739618214e-08
3.235218341373618079e-08
2.781923906960562652e-08
2.332003791146949468e-08
1.914914675759275494e-08
1.548880765552373643e-08
1.237457085617182251e-08
9.731755869453243038e-09
7.488009672460969084e-09
5.654866679126798399e-09
4.257584213700000834e-09
3.217675765936144755e-09
2.429050049925769244e-09
1.846542698050332760e-09
1.417170946778127038e-09
1.097901303953004852e-09
8.576723668008493133e-10
6.735859313059515234e-10
5.296663334252407456e-10
4.151315845747257895e-10
3.228633414754231363e-10
2.481682400741787135e-10
1.878810544054219261e-10
1.397215874206098402e-10
1.018711901612145754e-10
7.273774009315976873e-11
5.084726781595197498e-11
3.481827131043700588e-11
2.338486646872539549e-11
1.543334063484671329e-11
1.003085993731053434e-11
