# bin_11_9
7.861087552839926769e-08
7.468570010141125275e-08
6.922535815457521571e-08
6.248356680072594008e-08
5.486759156968318953e-08
4.689662006375785503e-08
3.911956681991728802e-08
3.199630857820668256e-08
2.578035833443978719e-08
2.049563536529404915e-08
1.601829724555876590e-08
1.224483362795077008e-08
9.187745612414686543e-09
6.863926856226819738e-09
5.135121245177248272e-09
3.824282699345641389e-09
2.860947161945948486e-09
2.154318876561909434e-09
1.634067837528044997e-09
1.248046799245210781e-09
9.582488450011646688e-10
7.373700193224319528e-10
5.666214789172017907e-10
4.332036686062782415e-10
3.283450414486140987e-10
2.459543549088575966e-10
1.816252425409351013e-10
1.319669749530557452e-10
9.422427419394305149e-11
6.606641684883455635e-11
4.548712295532075956e-11
