# bin_4_1
2.090778349149583204e-08
1.779997048057639576e-08
1.480616692440345163e-08
1.208968978814870687e-08
9.732439089437772190e-09
7.731314702278139057e-09
6.039085236013819493e-09
4.626439842042556375e-09
3.499447225960046387e-09
2.646899934465015407e-09
2.009101983071871845e-09
1.529218102467521160e-09
1.174241531610263877e-09
9.107233603540747752e-10
7.128090921262097811e-10
5.617200404771479408e-10
4.439887795424511736e-10
3.504089194456590496e-10
2.748739042968149265e-10
2.133999097683005785e-10
1.633605173045345039e-10
1.229387536304052160e-10
9.075101880978702338e-11
6.561684850458498639e-11
4.644334681886098759e-11
3.218729472056555155e-11
2.186458680037058742e-11
1.458173885482970420e-11
9.567295053279690154e-12
6.189602972345528443e-12
3.957403324998778193e-12
