# bin_9_7
3.878868757618642374e-10
4.362720601546955535e-10
4.820610125489467586e-10
5.210337244109364141e-10
5.477507279908717022e-10
5.563916169234710336e-10
5.412041644208023413e-10
4.972287239756353030e-10
4.319852282462138611e-10
3.570225858947552308e-10
2.931073447004670906e-10
2.506871968058816416e-10
2.139100566416120201e-10
1.597879973318712195e-10
1.123881090102357523e-10
9.102145417753527914e-11
6.125897772243588294e-11
4.613034571276198399e-11
3.154750419579912188e-11
2.198551722811492573e-11
1.540779877130221341e-11
1.080503571573804144e-11
7.635891278708242224e-12
5.463726395826540722e-12
3.986303593357320584e-12
2.964895449114384628e-12
2.244324974225187753e-12
1.722667498827616824e-12
1.332049093908747234e-12
1.030149575987318785e-12
7.910960256704114679e-13
