# bin_8_1
2.298260125948833772e-23
2.543932104107829898e-23
2.756498661763698204e-23
2.907823445336089335e-23
2.966149848290535033e-23
2.903420077166766189e-23
2.687689557274898309e-23
2.352414515068243916e-23
1.953860016703605671e-23
1.600686964014424147e-23
1.359977991916665931e-23
1.167574392583407284e-23
8.930782265098522923e-24
6.238695072100017361e-24
5.017323049442225490e-24
3.489794892943638177e-24
2.596893947862767675e-24
1.795925502643629136e-24
1.283558145623552518e-24
9.148423898713188980e-25
6.555412267160864499e-25
4.757350644366757114e-25
3.505728925046092777e-25
2.633524754039160442e-25
2.012283427397874563e-25
1.557050025516663972e-25
1.213226270370260992e-25
9.451150726590351383e-26
7.310100927644210649e-26
5.579197279168057262e-26
4.181238832357123617e-26
