# bin_9_10
2.227853934499801410e-08
2.514983246225522728e-08
2.791270003090590972e-08
3.033419101774366952e-08
3.210758194043151246e-08
3.287297185824673039e-08
3.233748290038192292e-08
3.010127668364137829e-08
2.648535460546369914e-08
2.207671663875367846e-08
1.807137993318452128e-08
1.530139425379683175e-08
1.319365881116182396e-08
1.022623955005309786e-08
7.093327406472952523e-09
5.668242465154914366e-09
3.978357496095829032e-09
2.910226515657410141e-09
1.982865409758095397e-09
1.401066831454770964e-09
9.741578683722281833e-10
6.763576161330097100e-10
4.729485171168536299e-10
3.340407692616956882e-10
2.400817999126469016e-10
1.759449331688728121e-10
1.314208087613218345e-10
9.985724172833447623e-11
7.676132743706928383e-11
5.928878589528955205e-11
4.567016554783181353e-11
