# bin_4_6
1.073074102203906020e-07
1.166674751572934468e-07
1.236411486211594318e-07
1.268883260188961759e-07
1.252194206771150073e-07
1.172071035585817286e-07
1.037036097495660153e-07
8.700260269013212473e-08
7.131375302132383264e-08
5.998627248614104655e-08
5.154270338197159371e-08
4.071374568978453432e-08
2.877908732116030133e-08
2.236722773017808902e-08
1.645615918008146078e-08
1.182111245479909749e-08
8.477933496461574647e-09
6.122408242897428990e-09
4.401744362990074824e-09
3.197915808926707310e-09
2.358567424673285640e-09
1.769210749759776375e-09
1.350819666267423662e-09
1.046992788581256148e-09
8.191055412899336358e-10
6.427126085416530672e-10
5.022689130285543786e-10
3.883379082339974860e-10
2.953773037361074254e-10
2.200150938712582605e-10
1.599528821833733504e-10
