# bin_1_1
9.063112515729848131e-08
8.730393892814055952e-08
7.983230691488675294e-08
6.927445599075495490e-08
5.774965819909927761e-08
4.780809145237728123e-08
4.035524617376358007e-08
3.354028391549459246e-08
2.571008210840871573e-08
1.890915111663255498e-08
1.446684819117304090e-08
1.067986447364088409e-08
7.835178437572868764e-09
5.781720994301471360e-09
4.294445853947285321e-09
3.233263089629708848e-09
2.477760985929269669e-09
1.933274590517357901e-09
1.531313993804228813e-09
1.224823676070483432e-09
9.823685293623608526e-10
7.841977549921316190e-10
6.187811229231051513e-10
4.797227788440155602e-10
3.636504556031971537e-10
2.686571691579294522e-10
1.931644749581893676e-10
1.352193682188274739e-10
9.233872656469847392e-11
6.168730862063916402e-11
4.044565508414052018e-11
