# bin_2_5
2.940888110330297154e-07
3.055298424660952510e-07
3.062775603399846818e-07
2.931582472753542179e-07
2.656668079790713354e-07
2.281787339925951412e-07
1.886576612811418112e-07
1.564158494379818085e-07
1.332145949619858284e-07
1.100378156186888124e-07
8.192733250067490472e-08
6.033867150680338984e-08
4.658523234699705681e-08
3.345966212624249320e-08
2.463687104963970356e-08
1.786304424484434297e-08
1.309874778850487720e-08
9.702221988777499429e-09
7.300251527719751205e-09
5.591308763049048181e-09
4.352434195548832068e-09
3.431116705401374649e-09
2.721577430055182410e-09
2.156719044403671185e-09
1.695716312917395209e-09
1.314356455022505956e-09
9.989061551674785881e-10
7.413404421174607124e-10
5.358989615458368861e-10
3.771030850547968502e-10
2.586088674503747159e-10
