# bin_2_6
3.401937940162664498e-07
3.537097772779399854e-07
3.549227151371903329e-07
3.401559485053195428e-07
3.086845750341476117e-07
2.654669347746006217e-07
2.196179592615585183e-07
1.819871108200876404e-07
1.549262823037435376e-07
1.282088734588082033e-07
9.569570844391706196e-08
7.036129409911133669e-08
5.435112124495835191e-08
3.907625732289515128e-08
2.875342844913284129e-08
2.084591559574469482e-08
1.528016416848216334e-08
1.131002829819103950e-08
8.503142295959403832e-09
6.507203459346449700e-09
5.061582290646486601e-09
3.987866111732136927e-09
3.162187097369127372e-09
2.505748120435851656e-09
1.970546565485499893e-09
1.528057306923854067e-09
1.162068390612564429e-09
8.631220213488847857e-10
6.244900467503802216e-10
4.398429177950656875e-10
3.018933963217293140e-10
