# bin_6_2
2.089915038168120097e-14
2.284895130874008778e-14
2.438230852525553991e-14
2.522996427382165429e-14
2.516763614388179634e-14
2.386687645610660940e-14
2.137821710454097549e-14
1.811117175657422488e-14
1.483498131798786597e-14
1.235992713223689969e-14
1.067424158600624354e-14
8.700538603810142386e-15
6.157835079579157684e-15
4.666541971903691694e-15
3.573510771453801840e-15
2.487241670916693703e-15
1.813955986344780976e-15
1.306800567788221130e-15
9.320693958650111155e-16
6.720624066563781251e-16
4.914005832063892953e-16
3.654112898560977883e-16
2.766037116394147965e-16
2.129451961653416823e-16
1.658712874213112837e-16
1.299443246181955695e-16
1.016778971950636886e-16
7.891182467081268410e-17
6.037904679400675700e-17
4.532025811030100580e-17
3.324175451059877734e-17
