# bin_4_5
6.539441651985259796e-08
7.097919548707837768e-08
7.506390106403329652e-08
7.683816598051733847e-08
7.557453075116500637e-08
7.044186444265225755e-08
6.207184271129386355e-08
5.189752043776719260e-08
4.253855269675370914e-08
3.589293407983359114e-08
3.080221067676644821e-08
2.408063246413216421e-08
1.698900995322746998e-08
1.332729866504889778e-08
9.676574931727971256e-09
7.019886670719992166e-09
5.004429146677867291e-09
3.621407567659919633e-09
2.610125422159526867e-09
1.900709802304665066e-09
1.405913412939971381e-09
1.057776688392407960e-09
8.100286544150279511e-10
6.293074675469199699e-10
4.930917610500454891e-10
3.871505434487925917e-10
3.024589326329898686e-10
2.335833917573258647e-10
1.773340963009117462e-10
1.317600676890928250e-10
9.550759575003289159e-11
