# bin_7_5
3.008261164048404837e-10
3.342996018372428971e-10
3.639944355596212459e-10
3.863068476652884717e-10
3.969007838503264060e-10
3.923379911138934091e-10
3.675138869699437017e-10
3.253213776694177607e-10
2.725491692764564109e-10
2.229784194198735835e-10
1.876898868535973740e-10
1.621433140073057193e-10
1.280852753754289620e-10
8.912130563950512735e-11
7.012230524588483179e-11
5.091534295696252008e-11
3.660556042549894705e-11
2.557649278313448706e-11
1.839406348899032024e-11
1.299961126327724292e-11
9.228314003766054143e-12
6.636713892315510416e-12
4.843727207000510303e-12
3.601415102234906927e-12
2.727362749620178065e-12
2.095978140010651745e-12
1.626638372358735255e-12
1.266114018410918393e-12
9.813580949888226025e-13
7.524732610832399322e-13
5.677113372432120943e-13
