# bin_7_7
1.276286680631511908e-08
1.424290242169576051e-08
1.558844023152252475e-08
1.665089353452350996e-08
1.724532529276250981e-08
1.721869656639184305e-08
1.634243863767608427e-08
1.464728320827951678e-08
1.241320558412344711e-08
1.016725244764952449e-08
8.471188787698248528e-09
7.324266501753648232e-09
5.976254747632165904e-09
4.214286182182628000e-09
3.189058490593939918e-09
2.437695717951341970e-09
1.679899081561158852e-09
1.214016118425780164e-09
8.650816304127805971e-10
6.056031567679341056e-10
4.266263938241993855e-10
3.036318085752453597e-10
2.191728479094757258e-10
1.609408531093081796e-10
1.204985509117932023e-10
9.173840809945830654e-11
7.074260474010563286e-11
5.491580735528779823e-11
4.260525912701461580e-11
3.280579249406353672e-11
2.492028062245465466e-11
