# bin_1_2
2.472209255167994510e-07
2.419169634466952454e-07
2.252592086385912736e-07
1.988854647083987334e-07
1.677090291514062748e-07
1.386300800559325669e-07
1.162135770326086228e-07
9.776074826610419839e-08
7.731837330994123472e-08
5.701343213455492364e-08
4.303660969010901082e-08
3.239131406676301399e-08
2.356915771891714064e-08
1.741135122410006165e-08
1.283753614369657346e-08
9.592526275436145261e-09
7.281487734003989540e-09
5.627127496639823416e-09
4.421101935689924880e-09
3.516163443756964599e-09
2.813170483694929546e-09
2.247479980214129031e-09
1.780257625742549986e-09
1.389267153558417488e-09
1.062364289105002491e-09
7.928980866241361195e-10
5.762932417714659508e-10
4.077110749883507252e-10
2.811248449666735971e-10
1.893895607127513767e-10
1.250454378046591403e-10
