# bin_14_4
1.107945229963775135e-25
1.259362164934883967e-25
1.409681592377546425e-25
1.548061251915460673e-25
1.660006855981434793e-25
1.727242189794346127e-25
1.733837208247008963e-25
1.656957252788413270e-25
1.494469968210130108e-25
1.274112840136179252e-25
1.044649584264878664e-25
8.664295680190068714e-26
7.492853668292111933e-26
6.204800205088322853e-26
4.404703770626645579e-26
3.264452254080793686e-26
2.549376242130201427e-26
1.709748631832779591e-26
1.248615124392795904e-26
8.717733890830358998e-27
5.952648112655916601e-27
4.068838349611788978e-27
2.783043152801303662e-27
1.916999451339162363e-27
1.334248430762743559e-27
9.449822957225907911e-28
6.822504323801618520e-28
5.030367753115471942e-28
3.781659595176767147e-28
2.885325785600288861e-28
2.219122615805146611e-28
