# bin_1_12
7.505245095995555672e-07
7.377966205360654176e-07
6.912072201997689957e-07
6.144203310262516174e-07
5.213095183568278749e-07
4.318689369485682361e-07
3.609060926853233781e-07
3.033774854352826511e-07
2.425664299354425909e-07
1.806482547002271943e-07
1.352534403520725878e-07
1.022667428149018267e-07
7.458999629725159517e-08
5.498451367828317821e-08
4.049466786504173066e-08
3.018158085472147557e-08
2.282630508947325489e-08
1.757048486124605086e-08
1.375360763023937658e-08
1.090558377912484640e-08
8.708389961092671034e-09
6.952616611580023662e-09
5.510404855155745840e-09
4.307685961088941333e-09
3.303301993064677629e-09
2.474490401917991468e-09
1.806176224259431503e-09
1.283583516193307575e-09
8.889378426705324733e-10
6.012566770107397134e-10
3.983505706659982977e-10
