# bin_10_8
4.242939829215195022e-10
4.793215279195324472e-10
5.324346961397038391e-10
5.792329489370059981e-10
6.138953693605909088e-10
6.294745264362172509e-10
6.205331767390387794e-10
5.790393013959156555e-10
5.106697460463928395e-10
4.263384256320791179e-10
3.488141980113856389e-10
2.947925042104398355e-10
2.546440511058720403e-10
1.986930233443808359e-10
1.375040972036339241e-10
1.095720842754252466e-10
7.753444995488704228e-11
5.639149994918234504e-11
3.838986482773446333e-11
2.721256252849272244e-11
1.889088131834851744e-11
1.308986844849479963e-11
9.136043100309619688e-12
6.437604389218067524e-12
4.613979275304091950e-12
3.371940975329291419e-12
2.512189953031948941e-12
1.905045842022054102e-12
1.462711300720733896e-12
1.129464977335706786e-12
8.705417047939443406e-13
