# bin_6_1
9.388296114514813023e-18
1.022342275328402632e-17
1.085561458738480268e-17
1.116444358017556382e-17
1.105160564502707329e-17
1.037612973643295014e-17
9.206142741418103354e-18
7.731982190419763997e-18
6.327720499920092252e-18
5.312050826899664999e-18
4.584249036985654752e-18
3.648519185950479247e-18
2.557487437816167917e-18
1.993010154733063821e-18
1.472898315065480658e-18
1.054558828682045244e-18
7.528927292950559698e-19
5.462169087485012218e-19
3.921285796352202811e-19
2.842410781380272284e-19
2.092734992169888663e-19
1.567193985388703888e-19
1.194900992077859965e-19
9.252893516700137969e-20
7.236350537179903438e-20
5.679549170375645380e-20
4.442217253372082016e-20
3.439082970690989989e-20
2.620219060802763839e-20
1.955466214404874259e-20
1.424450277797392890e-20
