# bin_10_5
1.134667629597536329e-14
1.276280716594547595e-14
1.410332152091367871e-14
1.524483048873794203e-14
1.602826449154173144e-14
1.628299330411109353e-14
1.584121740632596429e-14
1.455617089603229299e-14
1.264810092065876315e-14
1.045343122060341994e-14
8.580917470354126241e-15
7.338743504491823664e-15
6.264421453360776890e-15
4.680733944524797206e-15
3.289892350633387337e-15
2.666594107050041094e-15
1.793261120321998891e-15
1.351570214332603115e-15
9.238681188472502850e-16
6.436452048413888576e-16
4.511308484409558923e-16
3.163719853713242128e-16
2.235535145182793391e-16
1.599347831958057578e-16
1.166711426796669632e-16
8.676582398493929719e-17
6.567279807295282290e-17
5.040617208251688804e-17
3.897698226909936069e-17
3.014500152920618783e-17
2.315193687923356722e-17
