# bin_6_4
4.717477921748087108e-07
5.208993862227222927e-07
5.626896407959581666e-07
5.912520751189025280e-07
6.003713452924737308e-07
5.837715260663333428e-07
5.363562266494403715e-07
4.660130092177453683e-07
3.853908374809161948e-07
3.165557706403405815e-07
2.705194034344556077e-07
2.305125883074278903e-07
1.726832081097564104e-07
1.220845232627447906e-07
9.846447515816531411e-08
6.732981364597333677e-08
5.064836898707469393e-08
3.521914979754217246e-08
2.505110272492791339e-08
1.792640447795813749e-08
1.291277937932835982e-08
9.426092258870866827e-09
6.991672734285899107e-09
5.286141067099864362e-09
4.060893480617845413e-09
3.154353683584848806e-09
2.462601706189366815e-09
1.918333475665965390e-09
1.481085224334451336e-09
1.126683825568828595e-09
8.405836632134041277e-10
