# bin_8_8
4.371884726963452002e-06
4.927165223749753513e-06
5.457198212112773863e-06
5.915215465560970662e-06
6.240274972521123094e-06
6.363719337888940644e-06
6.224781325767705784e-06
5.754875129489002753e-06
5.030597208861239164e-06
4.173393537869244153e-06
3.420959354104994063e-06
2.913960550592085571e-06
2.502272355299950399e-06
1.901069948907116527e-06
1.324747418773438124e-06
1.071343532058809455e-06
7.316872242266530443e-07
5.467664496992650335e-07
3.716752810983847146e-07
2.605433661289692994e-07
1.821563197265642414e-07
1.273128247870360353e-07
8.957007699483214817e-08
6.372262070440849955e-08
4.619288030928364191e-08
3.414263864050856721e-08
2.570292554528069690e-08
1.965022893659605429e-08
1.516328483581195378e-08
1.172652571024392455e-08
9.022162195385334802e-09
