# bin_10_10
4.390341389713618720e-06
4.986983476417850301e-06
5.576950990801443534e-06
6.116926207869166475e-06
6.548831278701500030e-06
6.799648052443471205e-06
6.808550985455676505e-06
6.483016100094476335e-06
5.827008085011991305e-06
4.950213066004045660e-06
4.056018019978236696e-06
3.374585358070938044e-06
2.922118845109487064e-06
2.400275702334862905e-06
1.690891620900995586e-06
1.270486792194107446e-06
9.783757646705949153e-07
6.630644242140414839e-07
4.778236036087624404e-07
3.361094631256815519e-07
2.300604367337677049e-07
1.573430219812074708e-07
1.079770077659947114e-07
7.467900648716048960e-08
5.225248923305301305e-08
3.722424989724371004e-08
2.703897395927595600e-08
2.005208303327285357e-08
1.514612468543662222e-08
1.159312312251335440e-08
8.928756961765240848e-09
