# bin_8_3
-1.415029300667234260e-14
-1.573822869210793375e-14
-1.715410213485715507e-14
-1.822925748068241160e-14
-1.875860592500127606e-14
-1.858120013594263263e-14
-1.745012562220477494e-14
-1.548410291802783548e-14
-1.299840651567139672e-14
-1.063337916728737259e-14
-8.932406590487847511e-15
-7.723029752191248552e-15
-6.141928464989241785e-15
-4.275950556664924360e-15
-3.343977933626316603e-15
-2.452271661440528649e-15
-1.748546599703408618e-15
-1.226978677140878678e-15
-8.827443319898383588e-16
-6.226946036001180320e-16
-4.412058900485641262e-16
-3.166904312934285638e-16
-2.306693302783987081e-16
-1.711288625562659130e-16
-1.293429310198882259e-16
-9.924696354994179531e-17
-7.695004934628654924e-17
-5.987926873814961539e-17
-4.643003667398802597e-17
-3.563494740981525398e-17
-2.692294284220951111e-17
