# bin_15_4
-8.156996065300779727e-26
-9.292277498492660663e-26
-1.043125579949907781e-25
-1.149528307953651546e-25
-1.238002341722157934e-25
-1.295264905051091389e-25
-1.308386646291865903e-25
-1.261793057020596463e-25
-1.148373685730255283e-25
-9.881724976253850979e-26
-8.127680840198137331e-26
-6.701989332971618941e-26
-5.772027184518690181e-26
-4.862209148563134976e-26
-3.529866440484038787e-26
-2.537900569100808110e-26
-2.035686939996152204e-26
-1.346193371737005371e-26
-1.006922237638955286e-26
-6.908237227409785567e-27
-4.701370882875886209e-27
-3.216764155192395939e-27
-2.189595897636376992e-27
-1.495719776843266566e-27
-1.029070643312204499e-27
-7.192474706637885620e-28
-5.118630590539169845e-28
-3.720310907707249566e-28
-2.762226351821462965e-28
-2.088386422343410151e-28
-1.598362139315780413e-28
