# bin_8_5
-1.949140091799735726e-10
-2.179301549498956633e-10
-2.390717893545254230e-10
-2.561017001602394625e-10
-2.662065128155058439e-10
-2.669495777192026278e-10
-2.548496341400576392e-10
-2.296853447831750284e-10
-1.957012558843301471e-10
-1.604551729511969187e-10
-1.331154959860938137e-10
-1.150133602919061443e-10
-9.508249622964474056e-11
-6.764473009293564365e-11
-5.025500146925900493e-11
-3.923005262914790722e-11
-2.659509119425571917e-11
-1.953881368985454390e-11
-1.382179645224105715e-11
-9.640121379144262019e-12
-6.775891120138015287e-12
-4.801286969243121318e-12
-3.448816173882895060e-12
-2.518115945134006914e-12
-1.875263099148716040e-12
-1.421169692444643882e-12
-1.092301403240867893e-12
-8.465639228041103492e-13
-6.568569387339162242e-13
-5.066214310278971934e-13
-3.859774929997909107e-13
