# bin_3_3
-3.303296366297145053e-08
-3.533149685863110451e-08
-3.668326779654012947e-08
-3.674420077993859952e-08
-3.507004906278048206e-08
-3.162898326572636143e-08
-2.699024859227341705e-08
-2.217042365635826561e-08
-1.838690478259496904e-08
-1.581131023172293373e-08
-1.305521410836207521e-08
-9.435914410418875927e-09
-7.000440709240877669e-09
-5.461946153972419662e-09
-3.805239246698596601e-09
-2.826182285815432580e-09
-2.032197791670833650e-09
-1.469186819191276754e-09
-1.076054386077850887e-09
-7.995130890365351523e-10
-6.044922277999041486e-10
-4.648982345948115359e-10
-3.629105479670889876e-10
-2.857898271905649257e-10
-2.255112741357127868e-10
-1.770729751639142206e-10
-1.374257731377309940e-10
-1.048173223877870645e-10
-7.820283743179182264e-11
-5.688004075160069230e-11
-4.027069270814031296e-11
