# bin_1_1
-8.189951052201423737e-08
-8.053036585198567564e-08
-7.529288525911577381e-08
-6.665444078839039839e-08
-5.616875710872080496e-08
-4.627149697890958188e-08
-3.880656151742642790e-08
-3.293385780736279416e-08
-2.613817294781318616e-08
-1.905986083490093238e-08
-1.448503758392946632e-08
-1.090889591212303847e-08
-7.908327116544673144e-09
-5.844394891845234377e-09
-4.304913951274621831e-09
-3.210607739961823757e-09
-2.433908947615378915e-09
-1.879034287934256375e-09
-1.475522598826735384e-09
-1.173599324701001663e-09
-9.396326383154654645e-10
-7.516047379415762360e-10
-5.963225866073267029e-10
-4.662166879628554751e-10
-3.571762539563452560e-10
-2.670137869566108477e-10
-1.943109639766762594e-10
-1.375761496813370882e-10
-9.489924862970638462e-11
-6.394039880955449039e-11
-4.221601806891876219e-11
