# bin_6_4
-1.858066009040722558e-09
-2.050944515756085994e-09
-2.214680976100500058e-09
-2.326208760105611765e-09
-2.361159354181027359e-09
-2.294852639772538943e-09
-2.107499756354500246e-09
-1.830271882301402195e-09
-1.513055491045334728e-09
-1.242533201928915742e-09
-1.061667627956788929e-09
-9.042602655298793683e-10
-6.769234038636284200e-10
-4.785938648583259332e-10
-3.859105792187590992e-10
-2.637383755277665737e-10
-1.983850121284161346e-10
-1.379391152613959531e-10
-9.808435574819376821e-11
-7.017889664527208590e-11
-5.054661434056431977e-11
-3.689607911810392522e-11
-2.736629919937216120e-11
-2.069050427829959396e-11
-1.589449918730837936e-11
-1.234571926098244347e-11
-9.637449161665950534e-12
-7.506370681973807514e-12
-5.794272292008298942e-12
-4.406673728911890570e-12
-3.286712947671034942e-12
