# bin_5_3
-1.582215558340447403e-09
-1.725623102616388654e-09
-1.835860833086403684e-09
-1.892579881223365360e-09
-1.879103898340207359e-09
-1.771144586742686331e-09
-1.577297494506407091e-09
-1.329170290169674928e-09
-1.088061596324863791e-09
-9.106837484481740763e-10
-7.862659237816432550e-10
-6.317758155798385483e-10
-4.443309888764728033e-10
-3.425499125636971919e-10
-2.567759614824600770e-10
-1.817558589530210477e-10
-1.308204904081846346e-10
-9.468523032827156093e-11
-6.779414670534969891e-11
-4.903222082741545396e-11
-3.600029847558586715e-11
-2.688441266156064843e-11
-2.043986364568833701e-11
-1.579193642723438953e-11
-1.233119878654844049e-11
-9.671517873466010069e-12
-7.565954567042047023e-12
-5.863227469288925336e-12
-4.474717470846144833e-12
-3.347078143064047401e-12
-2.444823758003298190e-12
