# bin_7_7
-1.606964893862481147e-08
-1.800664221916072119e-08
-1.980644153941120120e-08
-2.128794916090621883e-08
-2.222163088695939362e-08
-2.239222490420292470e-08
-2.152626475366353447e-08
-1.953437894138335778e-08
-1.676076622619225249e-08
-1.377319443427227926e-08
-1.137500376072211493e-08
-9.801222119704060136e-09
-8.212172456216300912e-09
-5.936088650331144703e-09
-4.311318174558918134e-09
-3.433389342379117260e-09
-2.300802240126127472e-09
-1.718639602802904865e-09
-1.200307757338477841e-09
-8.347107980010862570e-10
-5.861579061412343572e-10
-4.135284371017662875e-10
-2.952477801741129623e-10
-2.140040113814913877e-10
-1.582377725196493826e-10
-1.191632933220539437e-10
-9.113833314652413261e-11
-7.043310965988725065e-11
-5.461399878903365368e-11
-4.218353576309281888e-11
-3.224095227853512877e-11
