# bin_10_3
-6.747034529208846811e-19
-7.572839422405879177e-19
-8.346557032313968035e-19
-8.993270122467373892e-19
-9.417402436707614954e-19
-9.523726805216834499e-19
-9.203370997643721956e-19
-8.396482544334384271e-19
-7.243539166642331282e-19
-5.965489719295951564e-19
-4.912227714216247707e-19
-4.220555774807997826e-19
-3.567868829590438774e-19
-2.614527152406919671e-19
-1.869286242016520904e-19
-1.504856248472694712e-19
-1.005669573395100506e-19
-7.570091868515678330e-20
-5.235433755220791106e-20
-3.638427479131865650e-20
-2.553648474641194401e-20
-1.796653695737801246e-20
-1.276948467261532119e-20
-9.203530263443358345e-21
-6.766524588950090873e-21
-5.069156658802142123e-21
-3.860650990318392111e-21
-2.975644309142497446e-21
-2.305204317856277200e-21
-1.781926162080888818e-21
-1.364986080082166423e-21
