# bin_7_8
-9.928457109578077926e-09
-1.115806015341114879e-08
-1.231732504532887528e-08
-1.329736476537061342e-08
-1.395841816716252708e-08
-1.415483382546994653e-08
-1.373426777866404914e-08
-1.258419751014564366e-08
-1.090345886867030182e-08
-8.998413641791297080e-09
-7.395201208900172050e-09
-6.336636427947781618e-09
-5.389150185224245814e-09
-3.995561643983509996e-09
-2.826311319708806390e-09
-2.286183021776707720e-09
-1.532322422686326905e-09
-1.155225150761874554e-09
-7.931975338160200873e-10
-5.518904364034447936e-10
-3.870605560493390909e-10
-2.717863894093430978e-10
-1.924871574330954636e-10
-1.381114908436635006e-10
-1.010653363721090748e-10
-7.538175188710571056e-11
-5.719947672634313560e-11
-4.397839141349896234e-11
-3.403350309435468670e-11
-2.631732282154183332e-11
-2.019178489281362914e-11
