# bin_12_4
-1.086436575645455893e-19
-1.229060586627957529e-19
-1.367578587395730271e-19
-1.490894182381212014e-19
-1.584227155427011902e-19
-1.629553116740281815e-19
-1.613134985135587627e-19
-1.513087360493786616e-19
-1.340934264031760760e-19
-1.124007936373005573e-19
-9.193645147040178306e-20
-7.737012804522492652e-20
-6.695589300972022997e-20
-5.299754678359546912e-20
-3.669238910484666506e-20
-2.887865218574877180e-20
-2.089674378163928613e-20
-1.491551809785667740e-20
-1.024166557925944986e-20
-7.287155078650080877e-21
-5.037804236541988788e-21
-3.473462895701757199e-21
-2.413776441838454927e-21
-1.692489403806345278e-21
-1.205577474705137477e-21
-8.754679397535673087e-22
-6.483070201484092685e-22
-4.891635713712418827e-22
-3.743204578177964730e-22
-2.886292488758015484e-22
-2.225791028616402385e-22
