# bin_4_7
-1.186971623466262013e-10
-1.317326900760220170e-10
-1.432040471871154639e-10
-1.516783917477147622e-10
-1.554610806997634189e-10
-1.531805375636295742e-10
-1.429165602367189682e-10
-1.260326887976954792e-10
-1.052587548003023591e-10
-8.613026706308769185e-11
-7.273146485647562334e-11
-6.274285632350907297e-11
-4.903513034635971494e-11
-3.410041686554188725e-11
-2.708428823016690745e-11
-1.935696103575514544e-11
-1.410242862583534471e-11
-9.791578580450785963e-12
-7.034818261589800337e-12
-4.987165189138153748e-12
-3.551893247434567571e-12
-2.562597058564202678e-12
-1.876506691036404878e-12
-1.400307600920975690e-12
-1.063879956238306867e-12
-8.196635935106334164e-13
-6.371233556960512541e-13
-4.961486512276865710e-13
-3.843461660184057473e-13
-2.942727006827580894e-13
-2.215309614404562213e-13
