# bin_10
0.000000000000000000e+00
0.000000000000000000e+00
0.000000000000000000e+00
4.207677424339882483e-292
8.602589948032968593e-255
8.360440671350139967e-223
3.059357732216215847e-195
2.191736561265114709e-171
1.165497177641246060e-150
1.366145038089862753e-132
8.648554560373159775e-117
6.216754665465692805e-103
9.432621612414862985e-91
5.083120339642021483e-80
1.509080873212968027e-70
3.581157135130783533e-62
9.327012866952514540e-55
3.496581483454245396e-48
2.381665521489657003e-42
3.603014815684410497e-37
1.440332722413548209e-32
1.769260731324773657e-28
7.615984262755521852e-25
1.288645988126387648e-21
9.477991861838689595e-19
3.310399714672948488e-16
5.935680592499044114e-14
5.853155611958002792e-12
3.373870120837505553e-10
1.200077939485173065e-08
2.764241148531101216e-07
4.304448729654918969e-06
4.709260675037912908e-05
3.746874065228598754e-04
2.236286040783158190e-03
1.029514286284214861e-02
3.748646695632402992e-02
1.104192356246710000e-01
2.684901920080056681e-01
5.487615059261728989e-01
9.581000700477476650e-01
1.449508799460407671e+00
1.924444256397515929e+00
2.267320095654579593e+00
2.394023087911338887e+00
2.285353263114326960e+00
1.987842806976390486e+00
1.586607654083287633e+00
1.169472187059917401e+00
8.007242352840665545e-01
5.120247982397579944e-01
6.564692642592853122e-01
4.277108608320984162e-01
2.642755371943575904e-01
1.554927944956445707e-01
8.745227418931644792e-02
4.718385114919072115e-02
2.450364293873803778e-02
1.228689114627564555e-02
5.966195387901792810e-03
2.813086267204577273e-03
1.291235837313516217e-03
5.783587362684241119e-04
2.533497021360416263e-04
1.087605001038980675e-04
4.584418901726583203e-05
1.900800245369914127e-05
7.765160694816610628e-06
3.130389243081995511e-06
1.247110961713341231e-06
4.916449503363404615e-07
3.075990108218784347e-07
