# bin_7
0.000000000000000000e+00
3.876856761040839094e-204
2.122771882524320461e-173
6.591942057567343147e-148
1.922764976645314751e-126
3.009017876981021883e-108
9.426189590945679214e-93
1.668879341581326943e-79
3.842942538928863309e-68
2.265327745802207916e-58
5.954851850670104589e-50
1.103896467249496868e-42
2.112222055916597165e-36
5.736110855041881625e-31
2.889503909024443855e-26
3.385099231388768924e-22
1.117429041353322421e-18
1.224137670312253268e-15
5.119591466862872895e-13
9.219811062330174608e-11
7.932466596222918954e-09
3.567604804116456449e-07
9.070151253259924856e-06
1.395709199058835302e-04
1.380160262594849144e-03
9.245026604245743657e-03
4.394779519527743789e-02
1.544820215481923220e-01
4.163809791316868125e-01
8.883681722723406615e-01
1.542269464321222694e+00
2.230580935812086718e+00
2.741364810997605428e+00
2.910529269553904452e+00
2.706503713438274783e+00
2.230125043591737022e+00
1.644788138969033087e+00
1.095589256245663501e+00
6.645046209051703734e-01
3.697942455512496229e-01
1.901625245540654319e-01
9.096985244223976252e-02
4.073872918243030133e-02
1.717962139600364216e-02
6.859722872022546575e-03
2.606830430345621202e-03
9.473250348124454077e-04
3.306576999737961451e-04
1.113060666190911788e-04
3.627008265169372008e-05
1.148066022126527765e-05
2.834508449287058635e-05
9.755253787867361505e-06
3.294841701275882613e-06
1.094815144492163378e-06
3.587090317088535966e-07
1.161290883795901080e-07
3.721879294096832257e-08
1.182935458941046039e-08
3.734457200385920166e-09
1.172714378886747913e-09
3.668016908682008569e-10
1.144117179090642148e-10
3.562783812859293241e-11
1.108729458481961163e-11
3.451257528504039021e-12
1.075493153176837120e-12
3.357735786768851079e-13
1.050978863242216714e-13
3.300064441485320535e-14
1.040108984321378895e-14
5.848416887352665091e-15
