# bin_5
0.000000000000000000e+00
1.476267917610175278e-114
5.386027315594934717e-95
4.326150515810228283e-79
6.722718950219506455e-66
6.973002083893701106e-55
1.201407413313719930e-45
6.992656439013871909e-38
2.420455571423204111e-31
7.867311441138417517e-26
3.485171940543862247e-21
2.858328257454073146e-17
5.592650472526596785e-14
3.224708054527154630e-11
6.540632686013943367e-09
5.417628391711982001e-07
2.079635577151835730e-05
4.120861439348568562e-04
4.623785389678745916e-03
3.182211448158035055e-02
1.439962882027739643e-01
4.551590059155145584e-01
1.059204331803743848e+00
1.897778811629041051e+00
2.716442538496837145e+00
3.198451983798503040e+00
3.167953847584008553e+00
2.684904341755174340e+00
1.973714920757678737e+00
1.273178199241723707e+00
7.283896255669607411e-01
3.733469478931252805e-01
1.731352632865034435e-01
7.332765849561262428e-02
2.861856970335020442e-02
1.037974857627640621e-02
3.526126107748554957e-03
1.130154617605883286e-03
3.440394845075430579e-04
1.000835396338876210e-04
2.797813757111121614e-05
7.553939834942849397e-06
1.978875385260237939e-06
5.050753383917033421e-07
1.260712357027916503e-07
3.087942200301986134e-08
7.444624959172144462e-09
1.771468341897019758e-09
4.170792846457013182e-10
9.737976076006819996e-11
2.259209244389884577e-11
7.756903520893732027e-11
2.026006916638279917e-11
5.292873971052668385e-12
1.384896077737584572e-12
3.633577914574124043e-13
9.569858686361936073e-14
2.532462419189028284e-14
6.739300964764705175e-15
1.804880373059175559e-15
4.867818201693031199e-16
1.322908993474661529e-16
3.624619605772410729e-17
1.001685885662686568e-17
2.793266273780109054e-18
7.862439583893798062e-19
2.234594202086469915e-19
6.414311865319103216e-20
1.859980925349575600e-20
5.449488161827150836e-21
1.613465889622999749e-21
8.814313111758655241e-22
