# bin_9_6
-3.132025031452311169e-10
-3.519341358490186030e-10
-3.884224814925803345e-10
-4.192267338415274954e-10
-4.399348233093093511e-10
-4.459697306740725297e-10
-4.324986467777394712e-10
-3.960478375514792500e-10
-3.429506777573054468e-10
-2.829280438307399839e-10
-2.325601387724431875e-10
-1.993617382398042401e-10
-1.694519704482206687e-10
-1.254129636552387348e-10
-8.879829974771671862e-11
-7.184879944039137251e-11
-4.807726228546331207e-11
-3.627976162702174273e-11
-2.492888909026153469e-11
-1.733391107679767977e-11
-1.216033677708911049e-11
-8.541719897800051386e-12
-6.052475969068423308e-12
-4.345487166810356053e-12
-3.182075690146241295e-12
-2.374994081292392899e-12
-1.803186191183618772e-12
-1.386983128620968187e-12
-1.073587773433567105e-12
-8.302015196250001791e-13
-6.368635715973375378e-13
