# bin_6_7
-1.057343274491280408e-08
-1.180232071482129985e-08
-1.292093561989243610e-08
-1.380633495068650506e-08
-1.430498810206168404e-08
-1.429064993651772742e-08
-1.357156555331063358e-08
-1.216995619793688422e-08
-1.031727539409598757e-08
-8.449112931532293374e-09
-7.036019354501197257e-09
-6.086163814324791220e-09
-4.974615342255499696e-09
-3.505122618086489373e-09
-2.649742278887961355e-09
-2.030810074956242522e-09
-1.395655220127162189e-09
-1.009630424821065415e-09
-7.201491397658651160e-10
-5.038646607717435179e-10
-3.546814643730180555e-10
-2.522976619690996907e-10
-1.820456635459143030e-10
-1.336205561676219836e-10
-1.000066170501643853e-10
-7.611701149527007934e-11
-5.868936575499499832e-11
-4.556108491636265192e-11
-3.535421100996411470e-11
-2.723074621035557778e-11
-2.069319170575556064e-11
