# bin_1_4
-1.841978875751251440e-11
-1.955633797905330929e-11
-2.011926578414950710e-11
-1.992593803916221691e-11
-1.873443834841039893e-11
-1.664876451019717523e-11
-1.401390914671349503e-11
-1.147938601184295297e-11
-9.618771046014559413e-12
-8.281437371440554179e-12
-6.622186458209291030e-12
-4.688127217599787938e-12
-3.618965681126558650e-12
-2.709190701768821626e-12
-1.938076155803682099e-12
-1.407803855779910313e-12
-1.026480250024848363e-12
-7.467136054696538626e-13
-5.505592171046437365e-13
-4.128455181004089569e-13
-3.151235285424889616e-13
-2.445654089021121049e-13
-1.922132662286613183e-13
-1.519672413066167976e-13
-1.200271912644262780e-13
-9.404869309530299521e-14
-7.263980731374257564e-14
-5.500671207404475888e-14
-4.066864576101781620e-14
-2.927676364179586848e-14
-2.050887221430061593e-14
