# bin_7_11
-3.996504534016839920e-11
-4.526068771540207732e-11
-5.042892518934552651e-11
-5.506617393122464160e-11
-5.863276634446291548e-11
-6.046244792133095712e-11
-6.004634885072240600e-11
-5.655417108125708430e-11
-5.031234970756869736e-11
-4.231756546727415893e-11
-3.461563812951249707e-11
-2.903358730098667313e-11
-2.514495964872611128e-11
-2.012342876992167661e-11
-1.396648308322398418e-11
-1.086395724261290566e-11
-8.004938149584910994e-12
-5.624534170800891183e-12
-3.904113788935119768e-12
-2.778545022559597943e-12
-1.914789142173079797e-12
-1.315542659736919273e-12
-9.109277626165037826e-13
-6.362440121676981795e-13
-4.509471416406898713e-13
-3.257621689042735839e-13
-2.400066514599371669e-13
-1.802986035431191510e-13
-1.375406594205201667e-13
-1.058915744406750420e-13
-8.166654121233616753e-14
