# bin_1_15
-1.654671780425209029e-39
-1.884207897928787039e-39
-2.114054546866453668e-39
-2.328215416489689237e-39
-2.505436365799492027e-39
-2.618711055830893820e-39
-2.642263706482108454e-39
-2.543977603938630475e-39
-2.311482746857461878e-39
-1.985661783035165039e-39
-1.632170861941461465e-39
-1.347206434300081688e-39
-1.161256582782740505e-39
-9.753478407708781467e-40
-7.050884392319270804e-40
-5.096599439286730374e-40
-4.070350730309991573e-40
-2.696710006822004014e-40
-2.009635873962560154e-40
-1.383056434408368225e-40
-9.416848325773983381e-41
-6.441557926017806028e-41
-4.387780685356164681e-41
-3.001693892609704583e-41
-2.069496436718896533e-41
-1.449934190852092911e-41
-1.034621297826067088e-41
-7.540223155744517298e-42
-5.611877271521994698e-42
-4.250583350272916547e-42
-3.256578648941870572e-42
