# bin_7_4
-1.308172682793131663e-10
-1.450894702010128805e-10
-1.575980610006328085e-10
-1.667581006571790117e-10
-1.707124134789508238e-10
-1.679377912023937914e-10
-1.563758431978278351e-10
-1.376427722664343065e-10
-1.147827874606410017e-10
-9.393843855653859709e-11
-7.945060871095267276e-11
-6.848011988467863795e-11
-5.323093111964511735e-11
-3.702529482388806328e-11
-2.953235103125253189e-11
-2.094485110436032083e-11
-1.535610179383986097e-11
-1.063569253322419531e-11
-7.634452199246499961e-12
-5.420211900897811124e-12
-3.866390675480440104e-12
-2.793637015594844251e-12
-2.048873221031205371e-12
-1.531496332833578303e-12
-1.165246985721209470e-12
-8.987680945622549366e-13
-6.990715966390258103e-13
-5.444655463113082755e-13
-4.216296932446520859e-13
-3.225718220469324987e-13
-2.425669716863346771e-13
