# bin_12_5
-1.095902580552742114e-16
-1.240998848725311770e-16
-1.382543996491748691e-16
-1.509460250997633863e-16
-1.606939083012814122e-16
-1.656716310198063353e-16
-1.644852194033201158e-16
-1.548631788700259120e-16
-1.377247917387692906e-16
-1.158047015584571814e-16
-9.472667047287928842e-17
-7.947457490474148571e-17
-6.882641049962019219e-17
-5.502890795846773129e-17
-3.818247770391645431e-17
-2.973227464149534072e-17
-2.187305228030755081e-17
-1.539007988573377830e-17
-1.067151631838328036e-17
-7.595226181792344507e-18
-5.235556333594357794e-18
-3.598127283414461146e-18
-2.492260594473968764e-18
-1.741330927054333708e-18
-1.234737027787172126e-18
-8.923825083176577458e-19
-6.577670873316718766e-19
-4.943259428767939732e-19
-3.772037334551926965e-19
-2.904486829901493991e-19
-2.240020987963458692e-19
