# bin_1_7
-5.077092614453007378e-19
-5.576059974074457872e-19
-5.983953390176773941e-19
-6.236233383335080894e-19
-6.273456994904175387e-19
-6.018903972347276732e-19
-5.452997775547197177e-19
-4.671724730696750263e-19
-3.838156365818366010e-19
-3.172662432678404744e-19
-2.731783381603345679e-19
-2.280467987682574199e-19
-1.649393414913039691e-19
-1.206027306661099042e-19
-9.559040844945557975e-20
-6.504966749942428910e-20
-4.863055505472741825e-20
-3.446837286019546634e-20
-2.445846124366471046e-20
-1.756922254848545704e-20
-1.275169494815461378e-20
-9.401528767674330272e-21
-7.051738850769926979e-21
-5.386625464344544723e-21
-4.171816170113736785e-21
-3.257670220729449755e-21
-2.547988129209723102e-21
-1.981846217441943394e-21
-1.523235234203347851e-21
-1.150663418677455532e-21
-8.507237648492634354e-22
