# bin_5_5
-2.094489408476203041e-08
-2.308671517539106120e-08
-2.488676607857449317e-08
-2.608324549733907565e-08
-2.640950613971825101e-08
-2.557596926515228237e-08
-2.339719844491865156e-08
-2.024141343903199470e-08
-1.669984246610788417e-08
-1.373547556824268304e-08
-1.176523798689625429e-08
-9.971854887822428962e-09
-7.389093107504841702e-09
-5.266594432645562027e-09
-4.237319862297736723e-09
-2.882796404376676420e-09
-2.171213838270120220e-09
-1.516575435549484068e-09
-1.076782057519230494e-09
-7.714883940349253556e-10
-5.569105839799886079e-10
-4.076621967579938484e-10
-3.033346881458707091e-10
-2.300310453539384689e-10
-1.771417146240870821e-10
-1.378194564156171232e-10
-1.076609586310822523e-10
-8.383183721449371366e-11
-6.463788527207782035e-11
-4.906790911605591473e-11
-3.650815723492373450e-11
