# bin_4_14
2.652141215693856559e-07
2.887507157630700531e-07
3.065401238826119443e-07
3.152635626590149620e-07
3.119416584415451515e-07
2.930014207345679947e-07
2.601293103624795697e-07
2.189415890327835837e-07
1.796357696058507351e-07
1.507832410510947562e-07
1.295727853374826813e-07
1.031439769864566939e-07
7.323034509008279642e-08
5.641824153541922390e-08
4.193912242715603032e-08
2.992313204703435492e-08
2.157871810955058964e-08
1.554000992213379184e-08
1.115529826645778026e-08
8.091385476549130119e-09
5.954102838603864483e-09
4.455349680911726067e-09
3.393235099416246905e-09
2.624656330863740652e-09
2.050471305505785971e-09
1.607804117498303825e-09
1.256588598297217554e-09
9.723352654883716469e-10
7.406360437269746198e-10
5.527535893063920431e-10
4.028171952319817439e-10
