# bin_2_14
5.185818431656395070e-07
5.378301835341301567e-07
5.379770780314065445e-07
5.135783822955819713e-07
4.642451309390540846e-07
3.979506500024497404e-07
3.291338869396805617e-07
2.733890887678237353e-07
2.327140525333081483e-07
1.912677950578043209e-07
1.421975066038681004e-07
1.051667315578444591e-07
8.085357856554987824e-08
5.819279295916627593e-08
4.281100460803720130e-08
3.108255851636859508e-08
2.281102928401197452e-08
1.691793279916366889e-08
1.274847201225165096e-08
9.777992214291163811e-09
7.620709148230890605e-09
6.012336935171698332e-09
4.770468660216632187e-09
3.779675122646926775e-09
2.969859029790860142e-09
2.299582327453322934e-09
1.745369608541998695e-09
1.293407247302044486e-09
9.335670699732149506e-10
6.560175518607662796e-10
4.493395297737402494e-10
