# bin_13_13
6.821710014088570809e-09
7.790313187397131962e-09
8.772804885938224943e-09
9.704546429683368883e-09
1.050055492047615917e-08
1.105094731497511128e-08
1.123693174954484111e-08
1.094264531250712823e-08
1.006333720599315396e-08
8.747552569090592798e-09
7.236774676620246914e-09
5.941753950278242567e-09
5.084187804205405796e-09
4.344001809436095560e-09
3.244672812270952853e-09
2.275411750902068420e-09
1.845761387941917387e-09
1.231423136203961051e-09
9.253637950352679285e-10
6.242621548200689409e-10
4.266643508275253857e-10
2.920554816204199874e-10
1.983454509972465320e-10
1.344313665530272324e-10
9.140336123456621443e-11
6.296619709822659784e-11
4.407820213460127252e-11
3.148071674491053795e-11
2.299220393340152925e-11
1.715010059758890760e-11
1.300799805205230779e-11
