# bin_11_5
2.080931028732186027e-16
2.349428318339692839e-16
2.607894188938912363e-16
2.834572731094384101e-16
3.000783010331221663e-16
3.072738016495987906e-16
3.023193024276588194e-16
2.814293438994267618e-16
2.476128252087506195e-16
2.064287247592391996e-16
1.689821109052352203e-16
1.431506652744611000e-16
1.235148207761895106e-16
9.567676996895019904e-17
6.627834395315522972e-17
5.311194621871361265e-17
3.717079579165049030e-17
2.728640297128998972e-17
1.852964387791091018e-17
1.309798859356812257e-17
9.113225204902606779e-18
6.331858044564316276e-18
4.429291973455887540e-18
3.129168743603347361e-18
2.249904712519468739e-18
1.649542687394646841e-18
1.232657384686015341e-18
9.370287114277546487e-19
7.206029377135471632e-19
5.567732253271257967e-19
4.289941907503521834e-19
