# bin_13_3
2.721178857330203532e-27
3.084818402635539586e-27
3.441279598356822292e-27
3.763320811525616306e-27
4.014423279144385752e-27
4.149155602198832406e-27
4.132070138538404010e-27
3.905832381039594843e-27
3.486874824890106954e-27
2.941837497401755164e-27
2.408286149397044182e-27
2.015012107007362793e-27
1.745598428376126459e-27
1.409242250302751136e-27
9.819422781186432846e-28
7.558676192921480663e-28
5.650908913432567033e-28
3.922880031981331688e-28
2.753733342883726686e-28
1.955250544884603897e-28
1.344439788926572674e-28
9.218294186665099566e-29
6.364563947782554055e-29
4.431388737376216919e-29
3.128010360136653686e-29
2.249797872881069729e-29
1.650306207875458261e-29
1.234947414028500156e-29
9.393704403204026030e-30
7.220735232552372286e-30
5.567750616277152429e-30
