# bin_7_15
1.270361449631465726e-07
1.423099585777496738e-07
1.564807987106205859e-07
1.681132790407062305e-07
1.753897181424403364e-07
1.766174587120206795e-07
1.696470852751998938e-07
1.538903348523935053e-07
1.319454122346319582e-07
1.085616573961379363e-07
8.978773140150110794e-08
7.731238940805450190e-08
6.457135418079424927e-08
4.674610346680187249e-08
3.409906287808982689e-08
2.693697783045629167e-08
1.823464652823313244e-08
1.351019878761627778e-08
9.444564401898805981e-09
6.586679365386678616e-09
4.626633854545354741e-09
3.267233523818701283e-09
2.334279997158770593e-09
1.693126515988889263e-09
1.252530478331115431e-09
9.435234000909378719e-10
7.216605685452934191e-10
5.575760563440100444e-10
4.321372074774711031e-10
3.335615421112136138e-10
2.547539130512564044e-10
