# bin_1_13
7.700742709876787356e-07
7.554030350619765529e-07
7.060200060816664040e-07
6.262141269581232560e-07
5.306570861833082325e-07
4.398459561254783020e-07
3.679137746727759781e-07
3.088076943545011521e-07
2.460586996635717121e-07
1.831754658552873529e-07
1.373448881682693227e-07
1.036824114358722328e-07
7.566418490485575813e-08
5.579402005597936485e-08
4.112586146598602317e-08
3.068485267963710048e-08
2.323735685954653478e-08
1.791059707749615736e-08
1.403595327206803549e-08
1.113872681196290633e-08
8.898163801605480416e-09
7.103824324553575705e-09
5.627669662092510111e-09
4.395765501340311169e-09
3.367157483129477091e-09
2.519124669396116176e-09
1.836308992251162823e-09
1.303316521655490544e-09
9.015525034980676336e-10
6.091785899156941498e-10
4.032657254605762084e-10
