# bin_9_8
2.723743879538285010e-09
3.070220912186616270e-09
3.401381254650620417e-09
3.688232925299322639e-09
3.892927636943125043e-09
3.972588319267698029e-09
3.889539672718238505e-09
3.600292049711514986e-09
3.150105864644399684e-09
2.616713221992118535e-09
2.144505639546832500e-09
1.824654362721395973e-09
1.567733426841073445e-09
1.195340258406305080e-09
8.324911037808600065e-10
6.715512665060207257e-10
4.611019589102944236e-10
3.430952004517635586e-10
2.332815708899418651e-10
1.638116754185572336e-10
1.143857429580089486e-10
7.983344870837878478e-11
5.609604464139402099e-11
3.985001951545644326e-11
2.883887447838549640e-11
2.128019993246257923e-11
1.599568935286912210e-11
1.221437689236405073e-11
9.418204926709462452e-12
7.281451500556089025e-12
5.603028583367066587e-12
