# bin_12_2
2.082586478894770213e-29
2.352678802974703813e-29
2.613358044646874416e-29
2.842992977386467699e-29
3.012974100528681859e-29
3.089238194092610081e-29
3.044818383292792865e-29
2.840569094452982853e-29
2.504464448483066369e-29
2.091170274267460565e-29
1.711496671903798471e-29
1.447321829133906810e-29
1.250044722451294023e-29
9.742323759904584437e-30
6.745536216601156049e-30
5.381080849454743980e-30
3.800523130391633622e-30
2.769279806028052458e-30
1.884844962784584117e-30
1.335310180629879648e-30
9.274749923106965268e-31
6.430537515814939570e-31
4.490299422539008389e-31
3.165685778280760898e-31
2.270356556602124798e-31
1.660231304412674384e-31
1.237635119473437119e-31
9.389689707150195874e-32
7.211791165649257810e-32
5.569545162846670457e-32
4.292646579822643278e-32
