# bin_13_6
2.124409875504864153e-17
2.413120992550320362e-17
2.698769086899769961e-17
2.960456492833061910e-17
3.170165376990090879e-17
3.292641074327907887e-17
3.298322948582269246e-17
3.142540375298828067e-17
2.826548899069426888e-17
2.401771023818180794e-17
1.968966063314798275e-17
1.637388175521507281e-17
1.417439750190114045e-17
1.165867068929029805e-17
8.223017354456814674e-18
6.164870065188845403e-18
4.758220189930001182e-18
3.218922320369691661e-18
2.324612078856214202e-18
1.633096892923510819e-18
1.117239517757232485e-18
7.638815731876422752e-19
5.238101258173056623e-19
3.619530211245823908e-19
2.529785933994721068e-19
1.800042998639733162e-19
1.305908568334951895e-19
9.673602356314446388e-20
7.300163663475598756e-20
5.584296395702415461e-20
4.299756597626461514e-20
