# bin_3_10
3.134100790248629786e-07
3.348363768757988566e-07
3.472244071607150324e-07
3.471966701204697665e-07
3.308731311366288757e-07
2.981937941526950500e-07
2.545225722058117922e-07
2.096687762506020604e-07
1.742684030677789034e-07
1.492655481842074409e-07
1.225091674759019399e-07
8.940609325659100899e-08
6.644550917358433184e-08
5.124800301627235757e-08
3.623988141601193116e-08
2.669881028441319464e-08
1.919592491146521250e-08
1.392199356322681085e-08
1.020118953059940669e-08
7.581914657073889537e-09
5.733154003451958938e-09
4.408942734146698844e-09
3.440239059876581398e-09
2.707450286168714513e-09
2.134655000640710329e-09
1.674570300967041790e-09
1.298372566519895040e-09
9.893770870353166620e-10
7.375970485873078700e-10
5.362599414977617785e-10
3.796761000943493307e-10
