# bin_12_11
2.510667722111227711e-09
2.858694748695123870e-09
3.206975989004746779e-09
3.531229434803004953e-09
3.799122163110422146e-09
3.969570328886643842e-09
4.003805639434799964e-09
3.852357524234089233e-09
3.498369582540625671e-09
3.001726499594055588e-09
2.468667391757957813e-09
2.039381986009842042e-09
1.758894446490494226e-09
1.475167200094679425e-09
1.064277145146601188e-09
7.717466199911606296e-10
6.149263652820024192e-10
4.079351586832258006e-10
3.034047950564651219e-10
2.092009753932355234e-10
1.424908123484665519e-10
9.746817631287916123e-11
6.642309174206520985e-11
4.547854091313948808e-11
3.139101409947626047e-11
2.202198911555107936e-11
1.573615060106740518e-11
1.148452891670575168e-11
8.558000680859824272e-12
6.488044292508542198e-12
4.973391097381812918e-12
