# bin_3_2
4.996464412684495906e-09
5.241128521289178871e-09
5.315456286986251792e-09
5.163657750419651099e-09
4.748068876824472342e-09
4.129408769403311831e-09
3.426927614990329533e-09
2.819695006233976946e-09
2.398279858527389289e-09
2.031418217605015513e-09
1.540944016478180495e-09
1.105335343042655209e-09
8.728133617709820943e-10
6.223606544610032517e-10
4.610913851397779354e-10
3.313004154029649867e-10
2.423299964979439646e-10
1.783906882275913530e-10
1.331920867508679632e-10
1.012321532159603833e-10
7.826383082723450586e-11
6.140504850421432276e-11
4.860274784675884811e-11
3.853643606194854586e-11
3.039410527606360253e-11
2.368550807848399125e-11
1.813007169903855348e-11
1.356726360461302810e-11
9.892944873035651667e-12
7.019214187073982123e-12
4.848847836508064080e-12
