# bin_4_10
2.163742667106038266e-07
2.354959312369165392e-07
2.498976590251397386e-07
2.568754666588250043e-07
2.539984908388298564e-07
2.383743905475528545e-07
2.114543895019510003e-07
1.778510703662945124e-07
1.459147755256359017e-07
1.225514325705396107e-07
1.052929344010403227e-07
8.365180243827641645e-08
5.935726234658827717e-08
4.581475911996756222e-08
3.397514907453708222e-08
2.428101298764645627e-08
1.749111350663375595e-08
1.260259441886478214e-08
9.050490839086366047e-09
6.567582158672161173e-09
4.835575337121843968e-09
3.620578257686350624e-09
2.759148856445062090e-09
2.135241807443149736e-09
1.668678196279816526e-09
1.308629654957138057e-09
1.022722458514492351e-09
7.912000633821259160e-10
6.024415879589365847e-10
4.493936621098729978e-10
3.273010070881315606e-10
