# bin_6_2
1.433027142270092936e-14
1.566012804329464156e-14
1.670133156296916603e-14
1.726910684615718407e-14
1.721001483963655018e-14
1.629924225520128156e-14
1.458269482066388348e-14
1.233814057844542618e-14
1.011025087947410548e-14
8.435482819565792660e-15
7.285680995995836224e-15
5.918128765333762327e-15
4.182583524758532411e-15
3.184506764214194690e-15
2.425474319594972738e-15
1.695934048340665194e-15
1.232565118998085238e-15
8.891494658070738890e-16
6.348586761287610200e-16
4.581177534518572660e-16
3.353186993353321601e-16
2.496116028673695995e-16
1.891560332844605903e-16
1.457545383677098437e-16
1.136061224761680625e-16
8.902893451300814243e-17
6.966244573055804263e-17
5.404838034374883905e-17
4.133146125971738586e-17
3.099885066836056125e-17
2.271538881068927020e-17
