# bin_8_6
3.384260215932074953e-10
3.788045191297323749e-10
4.161071314736031415e-10
4.464790959765626523e-10
4.650522813478126755e-10
4.674569868442641789e-10
4.477424272110079146e-10
4.048902608735203612e-10
3.459889361786489033e-10
2.841724661012931011e-10
2.353460391431884421e-10
2.031276826921068720e-10
1.689626061894434331e-10
1.210842090743245337e-10
8.907405118012068659e-11
7.017005760778331338e-11
4.732567884278195542e-11
3.503841009297787556e-11
2.464788369151734673e-11
1.716927128142258645e-11
1.206372818744040795e-11
8.531536648043529131e-12
6.111944124775184451e-12
4.448292619306758709e-12
3.302310829155718606e-12
2.495716958038109476e-12
1.914095471095986910e-12
1.481669337614223735e-12
1.149366613860881383e-12
8.870961734585424053e-13
6.768400544439599867e-13
