# bin_7_14
1.195444494035028213e-07
1.339107580158343639e-07
1.472361694012382498e-07
1.581693470673840450e-07
1.649994373569792077e-07
1.661358638116551129e-07
1.595536187882358818e-07
1.447105720738094589e-07
1.240542079918560897e-07
1.020621627908143611e-07
8.442001182644780771e-08
7.269617894554894235e-08
6.069883335304475795e-08
4.392501339150824214e-08
3.205594219604616014e-08
2.531475753912922218e-08
1.713781369034911125e-08
1.269498050850898785e-08
8.876926860998914417e-09
6.190838081477014347e-09
4.348772020185625502e-09
3.071328813757186954e-09
2.194627411672127970e-09
1.592107680132091852e-09
1.178004977884614335e-09
8.875240446828510732e-10
6.789151686906983663e-10
5.245912791730082531e-10
4.065839796673138028e-10
3.138297257518116955e-10
2.396676775583535644e-10
