# bin_14_11
1.030749988790598447e-10
1.177314157593910542e-10
1.326099230621016530e-10
1.467349175566031215e-10
1.588249758839121325e-10
1.672213430945291391e-10
1.701159476444723347e-10
1.657777707150332878e-10
1.525676661201607338e-10
1.327186347800133343e-10
1.098330895651095317e-10
9.014650102934611581e-11
7.710043826576315764e-11
6.594626916695686872e-11
4.935313863125901830e-11
3.454301362340979204e-11
2.805004815826767967e-11
1.871764654782491681e-11
1.407534330814645592e-11
9.482746680320203413e-12
6.481436362884564483e-12
4.437206219809710726e-12
3.013353704748552277e-12
2.041209381844727300e-12
1.386684616908635720e-12
9.542682494906778071e-13
6.672139936010633889e-13
4.759091649397538282e-13
3.471575600263151296e-13
2.586859521896099540e-13
1.960770109057652488e-13
