# bin_12_5
2.970827514265403615e-18
3.363635333574805959e-18
3.746522212750229546e-18
4.089376094988622217e-18
4.351949494204830222e-18
4.484729302835941755e-18
4.449828441695129444e-18
4.186011213448315815e-18
3.720056737452033194e-18
3.125900731796553595e-18
2.557846704793328462e-18
2.148452573819085019e-18
1.860481249057309047e-18
1.483457466530707355e-18
1.028842870426328272e-18
8.038785671836693996e-19
5.885914602814020240e-19
4.160011281634399096e-19
2.875959751336251462e-19
2.047196697594406426e-19
1.412615691624071641e-19
9.718116246527298504e-20
6.738420447254277121e-20
4.713265008289421923e-20
3.346753998842369900e-20
2.422309830070802387e-20
1.787985637748667257e-20
1.345356812595440772e-20
1.027509050737053907e-20
7.915588758886778291e-21
6.104951727715360438e-21
