# bin_13_12
3.686343271346472177e-06
4.212315257101310291e-06
4.747370396853798450e-06
5.256736073057120397e-06
5.694971284095606428e-06
6.003052971679844672e-06
6.114975215414449291e-06
5.971912711462436365e-06
5.509191709983773724e-06
4.805446973636835592e-06
3.978884524488508793e-06
3.260857361881815720e-06
2.781883460354514341e-06
2.386230665280556665e-06
1.799967992108203654e-06
1.252637654350385434e-06
1.016517329717530502e-06
6.829560558414737696e-07
5.118248630391299558e-07
3.433436230821591943e-07
2.353813524027085417e-07
1.610349699067470287e-07
1.092465308151490269e-07
7.384370367861605357e-08
5.000380372409548760e-08
3.426934526123099750e-08
2.384729003304870918e-08
1.692116032095135293e-08
1.228024068475960459e-08
9.109833164525527236e-09
6.882392128843030364e-09
