# bin_13_1
1.980592631821893004e-32
2.243992244030568690e-32
2.501594413088541418e-32
2.733497542765589996e-32
2.913089492238873617e-32
3.007405017758960816e-32
2.990972187340966882e-32
2.822483321800831915e-32
2.515429297707202708e-32
2.119231035232700917e-32
1.733357120881293868e-32
1.450906332335885068e-32
1.256466571708307395e-32
1.011035480275728633e-32
7.033456169702318868e-33
5.430536057625721134e-33
4.039554565373203620e-33
2.814472032375506324e-33
1.968521833988927568e-33
1.398190406194503095e-33
9.618964019644734230e-34
6.599550369685083373e-34
4.560481800165728801e-34
3.178553397395914467e-34
2.246707215430546179e-34
1.618362219684552665e-34
1.188938941744293491e-34
8.908965142868903394e-35
6.783319721756957667e-35
5.216811738201678343e-35
4.022542407307745957e-35
