# bin_14_3
4.943899131912570603e-25
5.618446115067106115e-25
6.287580393401150043e-25
6.902873891184151128e-25
7.399634005958589119e-25
7.696373369785702794e-25
7.722438727490249470e-25
7.376051319146896946e-25
6.649043342176963163e-25
5.665372729945369563e-25
4.643292909466982452e-25
3.850910124521380567e-25
3.329918490749544748e-25
2.755476738371986852e-25
1.954586428060320168e-25
1.449509386615797949e-25
1.130767243349696021e-25
7.587280640032701696e-26
5.535120608181817948e-26
3.865751316399705276e-26
2.639736610077604038e-26
1.804251665528281093e-26
1.234310846804447943e-26
8.503961995607320466e-27
5.920638748217230407e-27
4.194890563847793352e-27
3.029857563178665912e-27
2.234865003252899859e-27
1.680644148532033971e-27
1.282558777636044296e-27
9.864869399156735390e-28
