# bin_9_9
4.357348544222986185e-06
4.931203589013057543e-06
5.489519534058168764e-06
5.988018888147130474e-06
6.367659492217072576e-06
6.556067800110497866e-06
6.498243860166944436e-06
6.105219696993450097e-06
5.418655522047892631e-06
4.547769450410671042e-06
3.718667900632634606e-06
3.123862032597743297e-06
2.704119943410828451e-06
2.151125685650743157e-06
1.490354757487187992e-06
1.166449567054658279e-06
8.511764154432827232e-07
6.029196798391275906e-07
4.159873335936544445e-07
2.960569878169596723e-07
2.043360941914967134e-07
1.406366243234755065e-07
9.756477957971398744e-08
6.828759631300249617e-08
4.853066940484802295e-08
3.515909679835007424e-08
2.597684856934375971e-08
1.956203929165968118e-08
1.494888793701967362e-08
1.151903189562122251e-08
8.883466811994184173e-09
