# bin_9_3
3.230459471829797081e-14
3.610960473708064235e-14
3.960023627209003315e-14
4.240546955875678761e-14
4.405929897478747264e-14
4.416042777835885377e-14
4.213248988931418724e-14
3.794758619232108683e-14
3.231134508299704749e-14
2.648111314350210649e-14
2.196899756292938830e-14
1.898041614248637518e-14
1.567702744335318061e-14
1.114239139193219857e-14
8.285765474842128190e-15
6.459552543062852800e-15
4.381990486050742163e-15
3.215636970772434533e-15
2.275833804981658442e-15
1.587490768876771866e-15
1.115848312653507684e-15
7.908662176626285677e-16
5.682584009787694853e-16
4.150585768151872779e-16
3.092085744717964967e-16
2.344080487522649706e-16
1.802046813587314051e-16
1.396776851184326801e-16
1.083738698604251067e-16
8.357403772372255061e-17
6.365611464307700397e-17
