# bin_9_1
2.166719991855100420e-22
2.414195238663170769e-22
2.637223342992540221e-22
2.810322343103409066e-22
2.902020048007975224e-22
2.887306869410476969e-22
2.727285614614323731e-22
2.433128994716996185e-22
2.052585625389435984e-22
1.679285332812585492e-22
1.403593869528716567e-22
1.214125492250341808e-22
9.802344005855467612e-23
6.859721973426293227e-23
5.268504597765155045e-23
3.958538501815281943e-23
2.764492319116430181e-23
1.970301108537030169e-23
1.412587435902164549e-23
9.918227546044508411e-24
6.999561174472249576e-24
4.999458294274704086e-24
3.623078547265698187e-24
2.672577684044806378e-24
2.009536344434673296e-24
1.535426206072501341e-24
1.187070655121180045e-24
9.226409031704781076e-25
7.157391775970530832e-25
5.503836660646116166e-25
4.171151951006320054e-25
