# bin_12_7
9.722091269020497334e-10
1.103423609216717505e-09
1.232782709496526421e-09
1.350669838343241978e-09
1.444207834031764095e-09
1.497260910352904798e-09
1.496682612201480702e-09
1.422021037442053037e-09
1.275419963387607309e-09
1.081169861348730290e-09
8.850458665139354712e-10
7.368596791571830873e-10
6.379802166830195484e-10
5.219354601437500309e-10
3.663980926463146311e-10
2.766843181977538035e-10
2.116821441958568879e-10
1.440666017736762140e-10
1.031772335844817608e-10
7.274742820739192114e-11
4.982182207315217690e-11
3.407152268774639374e-11
2.340472231416632443e-11
1.620688970910463730e-11
1.135919427674083657e-11
8.108056582951795603e-12
5.901820743176308860e-12
4.385451724930517076e-12
3.317762652302822869e-12
2.541995350422378307e-12
1.958365145519675462e-12
