# bin_12_9
3.049257701094163542e-07
3.468771625827013029e-07
3.886915106327172467e-07
4.274024438860552226e-07
4.590589155502652836e-07
4.786650493022928480e-07
4.816647485680030406e-07
4.619467855421241826e-07
4.180716620846873909e-07
3.576774417949619067e-07
2.934954453657689121e-07
2.427277660486002090e-07
2.095843834680900130e-07
1.748553426527166371e-07
1.251728419249854266e-07
9.154525296589011035e-08
7.239517600331425192e-08
4.815316842832758941e-08
3.558191613635433842e-08
2.465635443680195668e-08
1.680359837222125719e-08
1.148730384977355167e-08
7.837309033404309497e-09
5.378941418799814445e-09
3.725592998715028560e-09
2.624262809617081241e-09
1.883622927564568289e-09
1.380928014418467271e-09
1.033140624879951075e-09
7.855870495995990512e-10
6.031976704383882578e-10
