# bin_13_8
2.373399101775476406e-09
2.701459601893553085e-09
3.029335173211677616e-09
3.334022359764381117e-09
3.584944659700991896e-09
3.743345127297594654e-09
3.772854753421761767e-09
3.626863453693795176e-09
3.290012163751651200e-09
2.821472465512636807e-09
2.317092212243171577e-09
1.913444502350670438e-09
1.650363920245664127e-09
1.382899351520779467e-09
9.957674895812958063e-10
7.225744751472632720e-10
5.753411911477514887e-10
3.813366112125436837e-10
2.835066144272502203e-10
1.955648566982605136e-10
1.331623698018861528e-10
9.106164997610125550e-11
6.205201988060050904e-11
4.249687908318125977e-11
2.934702360464501491e-11
2.060127879427329307e-11
1.473230071688882822e-11
1.076063868695600044e-11
8.024690963947703356e-12
6.087453075582648610e-12
4.668180768756449672e-12
