# bin_14_1
1.127259151975452146e-34
1.280690213628157654e-34
1.432681711503191300e-34
1.572167311696477122e-34
1.684356080650340495e-34
1.750638819627210803e-34
1.755100355734399475e-34
1.674422265855781016e-34
1.507717208937748252e-34
1.283222310982039584e-34
1.051444945553659632e-34
8.727561978906050584e-35
7.548854875373893239e-35
6.231033671541825580e-35
4.410093226636198553e-35
3.283382658907349189e-35
2.550521426198104165e-35
1.716701537511991948e-35
1.247341274897433705e-35
8.729355499059005573e-36
5.964690269426206638e-36
4.077336410426635775e-36
2.791872673157413330e-36
1.925625041536698269e-36
1.342619514527144212e-36
9.528219776634039206e-37
6.893776697303053741e-37
5.093268359214277123e-37
3.835322623603329607e-37
2.929468152257134325e-37
2.254023949610460553e-37
