# bin_7_1
7.561858159719479840e-17
8.310816139433840420e-17
8.926641650973030675e-17
9.313665053529366638e-17
9.381753926324874470e-17
9.019011405309714424e-17
8.187467582808678796e-17
7.028533136422890228e-17
5.777883185426228886e-17
4.768600247080872285e-17
4.100642136285917128e-17
3.436114131459781961e-17
2.498620101411675052e-17
1.814522052502372289e-17
1.444540541431526720e-17
9.816346372242163267e-18
7.358260412176593435e-18
5.195557259655726031e-18
3.685701502407325765e-18
2.645936602663313670e-18
1.917849065928078208e-18
1.411535100700545506e-18
1.056709295130707774e-18
8.058138221071035119e-19
6.232563370385553158e-19
4.862697017951984803e-19
3.802226707406868590e-19
2.958101464724228236e-19
2.275192648169099851e-19
1.720595892332876854e-19
1.273925322436294154e-19
