# bin_15_13
2.303982508149633830e-06
2.640786700672579965e-06
2.987336848562963947e-06
3.322781717195830034e-06
3.619750033609247040e-06
3.841918801700450004e-06
3.945256941255315767e-06
3.896723394327839283e-06
3.643605668510987405e-06
3.219176528042392738e-06
2.690390581534366546e-06
2.199870827910538872e-06
1.856340080210726588e-06
1.605818976088105780e-06
1.258714225859357223e-06
8.679557552138115552e-07
6.897005725897892518e-07
4.894528977279161389e-07
3.527006394942016546e-07
2.370048360003054193e-07
1.664369636442936739e-07
1.129563671612040981e-07
7.583235966775337384e-08
5.081334340930995757e-08
3.398458172494929946e-08
2.287862456530201864e-08
1.557978992562221270e-08
1.078097119253425968e-08
7.620784022717812271e-09
5.514889129759091733e-09
4.082814452935608221e-09
