# bin_10_4
3.038445623204475882e-13
3.415956039475940766e-13
3.772504000231699547e-13
4.074933662224115454e-13
4.280613135008962112e-13
4.344414912988471227e-13
4.220832764701187870e-13
3.872745734580583355e-13
3.360092799855750560e-13
2.774497782168539211e-13
2.277963892894829083e-13
1.949357457677419026e-13
1.661221454863836787e-13
1.237043286657862057e-13
8.715207781089135243e-14
7.056839471079753483e-14
4.738873266362714293e-14
3.571086028072150144e-14
2.445380157974699298e-14
1.702594249773301203e-14
1.193578424186020904e-14
8.374156456587115790e-15
5.922789571233262763e-15
4.242398450321915156e-15
3.098827844027509927e-15
2.307410268376383946e-15
1.748323289185298750e-15
1.342867411872525974e-15
1.038706066017487182e-15
8.032540892231877025e-16
6.166187537521558353e-16
