# bin_5_1
1.604739895844864977e-11
1.728143221659561827e-11
1.809677196269240488e-11
1.831044044436829260e-11
1.772296896249665146e-11
1.621278955780603010e-11
1.402714559254273973e-11
1.157934522684737017e-11
9.523482053866311754e-12
8.141592030954271629e-12
6.889419165164080023e-12
5.130316516451294667e-12
3.671352803311724315e-12
2.937308824685286312e-12
2.033057324398087056e-12
1.526320247454845273e-12
1.080788811072530220e-12
7.802195076230375221e-13
5.682733670887542400e-13
4.186638169998682725e-13
3.135984886709406303e-13
2.389410502773987241e-13
1.851256581263533547e-13
1.450734030148180453e-13
1.142475691393726076e-13
8.980086898559356452e-14
6.996078085416713790e-14
5.369434770363229991e-14
4.039135626748485500e-14
2.966352301267274113e-14
2.121813383034097409e-14
