# bin_13_9
4.727441929979327762e-08
5.386154727844094597e-08
6.047548001958185130e-08
6.666091466470604433e-08
7.181503880743420037e-08
7.516998201615320120e-08
7.596982487381502540e-08
7.332494796085164573e-08
6.678772236476685037e-08
5.751721424160208632e-08
4.731313392898873933e-08
3.897845739443467284e-08
3.354363380033894374e-08
2.830540168680590179e-08
2.060392406423400174e-08
1.475802457093538304e-08
1.186743902368227256e-08
7.839443251298544286e-09
5.875488561392875930e-09
4.021892306667141047e-09
2.736076934573190129e-09
1.872306476808610385e-09
1.273901158864285685e-09
8.693410400645063351e-10
5.972743201153384024e-10
4.167820699691373746e-10
2.960884195578173697e-10
2.148154075763895895e-10
1.592382998598140683e-10
1.202432356030007107e-10
9.196122927855085161e-11
