# bin_2_5
-1.072196374689606476e-14
-1.159051349987710497e-14
-1.219520452335286062e-14
-1.240700213348140042e-14
-1.210186027883071697e-14
-1.116477208568716391e-14
-9.740583317264402746e-15
-8.079841078996793522e-15
-6.628255880069071184e-15
-5.637682205669623131e-15
-4.815270070936645156e-15
-3.662237265484227894e-15
-2.586051372272079580e-15
-2.070301261472319646e-15
-1.451358708423836403e-15
-1.082025424178984323e-15
-7.625065728235248390e-16
-5.517290408926853237e-16
-4.002885716037636900e-16
-2.933805085034438943e-16
-2.185210212176578738e-16
-1.655500198307066478e-16
-1.276239495684172998e-16
-9.965807008852852587e-17
-7.833728422724873410e-17
-6.157316110569709423e-17
-4.805214797834879873e-17
-3.699944657962017813e-17
-2.795919216023284999e-17
-2.064801982411909094e-17
-1.486072656684083159e-17
