# bin_2_3
-2.271848630692673487e-11
-2.382425200258979620e-11
-2.415415696606229896e-11
-2.345569779869082214e-11
-2.155762131743404424e-11
-1.874397091437493478e-11
-1.554358955314733312e-11
-1.278497039987937706e-11
-1.087453129889559317e-11
-9.210101251157471265e-12
-6.980388747102171837e-12
-5.004681027155434588e-12
-3.954317891730068417e-12
-2.816242017218340071e-12
-2.087684136556855180e-12
-1.499184465671540756e-12
-1.096422025522689739e-12
-8.070807714398839858e-13
-6.025377138677654254e-13
-4.579199807387979597e-13
-3.539938685041556019e-13
-2.777198053856917727e-13
-2.198023259608312817e-13
-1.742659653796840163e-13
-1.374362954587091211e-13
-1.070947802200126489e-13
-8.197139771073223249e-14
-6.133883311831514680e-14
-4.472502960460930264e-14
-3.173174267465858128e-14
-2.191906572335301285e-14
