# bin_6_3
-8.836516609509304465e-10
-9.421370864719000265e-10
-9.745394418311047149e-10
-9.714828871623185383e-10
-9.220836080415336162e-10
-8.275529153790968332e-10
-7.036992137501545767e-10
-5.786401025800943178e-10
-4.818535974188048763e-10
-4.130421036418922410e-10
-3.366275601770181943e-10
-2.439249025856557857e-10
-1.827074894599140229e-10
-1.400651644951281496e-10
-9.912629276604320520e-11
-7.292418250742254953e-11
-5.254440790384486662e-11
-3.812708135745185558e-11
-2.798462917467903858e-11
-2.084590776403174816e-11
-1.580005733010118376e-11
-1.217824735710504507e-11
-9.519514909877729723e-12
-7.500024634854563346e-12
-5.915346037121313209e-12
-4.638464183930751606e-12
-3.592399196955227998e-12
-2.732744911606609733e-12
-2.032799673445063417e-12
-1.474136884871489653e-12
-1.040873319735252772e-12
