# bin_5_4
-2.823594765917344329e-10
-3.059445129767375549e-10
-3.228541786353258890e-10
-3.296409018409924431e-10
-3.231027047150940316e-10
-2.999392622744026933e-10
-2.632685569241694838e-10
-2.194986559086535574e-10
-1.800264532979941537e-10
-1.523372117165281578e-10
-1.303897608380245549e-10
-1.009151284417944809e-10
-7.132031981530181005e-11
-5.624537843539425777e-11
-4.040676667098264993e-11
-2.953992229651360752e-11
-2.099667028039301705e-11
-1.519628056387810983e-11
-1.097576358035642433e-11
-8.010048835796608451e-12
-5.939436412251851403e-12
-4.479798610878788969e-12
-3.438650766679179523e-12
-2.676205907410910249e-12
-2.099150874613626376e-12
-1.648585529919972932e-12
-1.287267309626279929e-12
-9.929176267678956175e-13
-7.524441430913789869e-13
-5.577864051119420877e-13
-4.032605106322201520e-13
