# bin_13_14
-6.518543768764328809e-12
-7.454084608685121691e-12
-8.408504007030098826e-12
-9.320755711718420453e-12
-1.011107820622767475e-11
-1.067531342748997887e-11
-1.089452743029938526e-11
-1.066729104067294777e-11
-9.870669536345136030e-12
-8.635389987685852716e-12
-7.165071681243344835e-12
-5.870118542959855713e-12
-4.998026590563599824e-12
-4.297201654139337851e-12
-3.267732562551202921e-12
-2.268030865511651189e-12
-1.835396097990588668e-12
-1.245690753547447810e-12
-9.279742471385851219e-13
-6.213004286362457155e-13
-4.281182984616437124e-13
-2.925121173492045131e-13
-1.981309929572515913e-13
-1.336838589717433659e-13
-9.028194681895659049e-14
-6.164332076736454493e-14
-4.270510520096656871e-14
-3.014928368403232171e-14
-2.176813095856758361e-14
-1.607315941588670289e-14
-1.209919216105028989e-14
