# bin_2_2
-2.530050288910430268e-10
-2.582649013845338816e-10
-2.532117575195694588e-10
-2.356687831830882609e-10
-2.075671477432436502e-10
-1.740142514331535221e-10
-1.431293987863080183e-10
-1.204984994293783054e-10
-1.024284390440270750e-10
-8.033936869262976062e-11
-5.797532042343285992e-11
-4.462161390995945609e-11
-3.312567608952910316e-11
-2.403964056455317927e-11
-1.761018181565498704e-11
-1.291749866416887796e-11
-9.554843916160858593e-12
-7.179562724219787850e-12
-5.491986618345733423e-12
-4.273905354990913025e-12
-3.372722678364057643e-12
-2.683428628526967291e-12
-2.136882047143555968e-12
-1.691028157212170653e-12
-1.321013830557763557e-12
-1.012788274933639741e-12
-7.585765454326241135e-13
-5.534402922824622221e-13
-3.928612893845499691e-13
-2.715897394798204019e-13
-1.832734207861898356e-13
