# bin_15_5
-8.336071362065349841e-10
-9.186188450544322086e-10
-9.899506657612841415e-10
-1.037190293829937911e-09
-1.049810788627421077e-09
-1.016322556951176345e-09
-9.300305870667987138e-10
-8.048928600821796914e-10
-6.650227505988429805e-10
-5.476299510757213840e-10
-4.683126876652200604e-10
-3.956850882926122601e-10
-2.944447139427610020e-10
-2.109552182283958955e-10
-1.677455142227858187e-10
-1.158908418908329886e-10
-8.612334530441619882e-11
-6.042447991086036544e-11
-4.304123744085052558e-11
-3.079425120530668943e-11
-2.221071803365077780e-11
-1.625065286339330706e-11
-1.208651010041491228e-11
-9.158826627380594432e-12
-7.047472087126057063e-12
-5.478685520384992750e-12
-4.276554912023213576e-12
-3.327893188743485602e-12
-2.564705000194118677e-12
-1.946312561755624972e-12
-1.447926746762045126e-12
