# bin_7_7
-4.794303808967004307e-11
-5.346167783236587898e-11
-5.845727221329918354e-11
-6.236855009827994264e-11
-6.450026828541223046e-11
-6.428592475595676013e-11
-6.086856374753421845e-11
-5.443080725494105233e-11
-4.602813815824685615e-11
-3.768650915204957650e-11
-3.145633983430199812e-11
-2.720196071798794527e-11
-2.207270681489728669e-11
-1.551271253866864696e-11
-1.182702960550660648e-11
-8.960395529864823978e-12
-6.218116855213906772e-12
-4.463780371374275528e-12
-3.189042515408513797e-12
-2.235798736655958619e-12
-1.576494559653200860e-12
-1.123878049893281724e-12
-8.127537937547565047e-13
-5.980930681268878167e-13
-4.486964457364225053e-13
-3.421801440854326882e-13
-2.641846903917487218e-13
-2.051978283672030751e-13
-1.591889236971458407e-13
-1.224966980246056287e-13
-9.294977736485096441e-14
