# bin_5_7
-1.126814361995432161e-12
-1.251116576682170999e-12
-1.360806438375039047e-12
-1.442316696120533601e-12
-1.479507562288655788e-12
-1.459409765076714261e-12
-1.363492577994357821e-12
-1.203972334232986461e-12
-1.006614237339391769e-12
-8.236381454339699402e-13
-6.947399587082857650e-13
-5.996113897807828209e-13
-4.703614929294828575e-13
-3.271659895234730690e-13
-2.589863462874494322e-13
-1.861287521073728378e-13
-1.349571298328578041e-13
-9.390384617788809423e-14
-6.748812225202738535e-14
-4.778552960722833340e-14
-3.398849535607329184e-14
-2.449032450175010361e-14
-1.790959946535308928e-14
-1.334547592879140200e-14
-1.012630830538396836e-14
-7.794070364427560706e-15
-6.054641430650653114e-15
-4.714126410937947531e-15
-3.652701676656187503e-15
-2.798325795362320878e-15
-2.108454596772042446e-15
