# bin_6_1
-2.759007647731295502e-09
-2.710099657326943635e-09
-2.536381712092610044e-09
-2.252103300378500814e-09
-1.908919295225115470e-09
-1.580839483558872054e-09
-1.321698629720632149e-09
-1.111124660309890666e-09
-8.869076571685664599e-10
-6.594520219679136888e-10
-4.942895555328022723e-10
-3.735173777320157556e-10
-2.722718375398039809e-10
-2.007701748798489135e-10
-1.478620777116383935e-10
-1.102327649444481174e-10
-8.340089901654327582e-11
-6.422482827931456287e-11
-5.029333820919654519e-11
-3.989180545120158731e-11
-3.186109201357143987e-11
-2.543871373923691378e-11
-2.016010196541922864e-11
-1.575642194730843500e-11
-1.207851998486179559e-11
-9.043980558591473381e-12
-6.597996610329900569e-12
-4.686406787100378246e-12
-3.243816172605047189e-12
-2.192970792358076313e-12
-1.452295670648940625e-12
