# bin_8_10
-1.371618368709865214e-12
-1.548792926767505214e-12
-1.719456928227668916e-12
-1.869311428412568608e-12
-1.979491332218133563e-12
-2.027669790771196664e-12
-1.996109825732035822e-12
-1.859509053097768248e-12
-1.637351675879726618e-12
-1.365271062472985066e-12
-1.117214077896644507e-12
-9.454771776643932939e-13
-8.160511047581671170e-13
-6.337534081779264215e-13
-4.387851187338078292e-13
-3.508391762102124677e-13
-2.465256034664654954e-13
-1.803066458366406912e-13
-1.225447398329986570e-13
-8.669971461609923115e-14
-6.025867802211185794e-14
-4.181512354158104400e-14
-2.921858875100243788e-14
-2.061636124049933965e-14
-1.480130650527565457e-14
-1.083561725365366731e-14
-8.085979603400941643e-15
-6.139857032726745922e-15
-4.718266058307663769e-15
-3.644471592146199773e-15
-2.808414484351867733e-15
