# bin_5_8
-5.608852786581682118e-14
-6.257396684517292462e-14
-6.845991154655930219e-14
-7.309161515871979899e-14
-7.565375526373967457e-14
-7.548460172113330481e-14
-7.156671245062008415e-14
-6.407412875415113908e-14
-5.423623753091895193e-14
-4.440357675504637497e-14
-3.702385373110535981e-14
-3.203101121713092668e-14
-2.608038451184067081e-14
-1.833025701835035964e-14
-1.393181005215350770e-14
-1.061045041248451052e-14
-7.328389802551231374e-15
-5.274730700428715428e-15
-3.769936782520028456e-15
-2.640373723581625793e-15
-1.859655657236840658e-15
-1.324350841314053100e-15
-9.567641479487863542e-16
-7.032716676762480751e-16
-5.270644445021592679e-16
-4.016174693475395234e-16
-3.099180953134531539e-16
-2.406876103213329333e-16
-1.867616876712304128e-16
-1.437884523672485621e-16
-1.091875287140095588e-16
