# bin_10_1
-3.243891634419313830e-09
-3.191150760627578376e-09
-2.991852295142537851e-09
-2.661139889976261054e-09
-2.258537921679197093e-09
-1.870716534740153515e-09
-1.563103119503182453e-09
-1.314882256155257326e-09
-1.052332366162845246e-09
-7.834571863546238242e-10
-5.864614000780044666e-10
-4.436748697692846040e-10
-3.234479017295951706e-10
-2.384268525465268543e-10
-1.755186161874098985e-10
-1.307593931984934663e-10
-9.884033631800930679e-11
-7.604112942882672977e-11
-5.949497167830204790e-11
-4.715945287552254894e-11
-3.765218286617061725e-11
-3.006153432436763043e-11
-2.383033726956100157e-11
-1.863535636921069396e-11
-1.429673174383572609e-11
-1.071513747810808236e-11
-7.825343856744343673e-12
-5.564003994295114653e-12
-3.855055422585204245e-12
-2.608465330078188825e-12
-1.728726932334282818e-12
