# bin_15_4
-1.140666090570782856e-09
-1.241370061745248815e-09
-1.317181322255470566e-09
-1.353847523720620706e-09
-1.338618839167410947e-09
-1.256231038100036024e-09
-1.114389043356896600e-09
-9.372042512221429564e-10
-7.685460264378659035e-10
-6.452387890871363221e-10
-5.543483625349116218e-10
-4.405630428148453980e-10
-3.125477572487264249e-10
-2.410987031096473985e-10
-1.788807514675392141e-10
-1.277647327388336629e-10
-9.205186505186998112e-11
-6.631389570220577882e-11
-4.761510336845694407e-11
-3.454796293047493946e-11
-2.543353424273920831e-11
-1.904054444808388348e-11
-1.450831094763795764e-11
-1.122637028796494348e-11
-8.772559000142032486e-12
-6.879257641623319014e-12
-5.376077432731620812e-12
-4.158985105843305459e-12
-3.166794178545721072e-12
-2.362357094682656825e-12
-1.720632576315424355e-12
