# bin_1_7
-4.366990497182108113e-23
-4.792769981148816797e-23
-5.138843102045840159e-23
-5.349534705768814737e-23
-5.374530076113554852e-23
-5.147039611607758860e-23
-4.654612310453675083e-23
-3.980442141018151175e-23
-3.268198097907633760e-23
-2.704623095936301212e-23
-2.330495698883717859e-23
-1.938836512375778477e-23
-1.396584169577232576e-23
-1.026832928917019051e-23
-8.101774868106224175e-24
-5.525363081030328395e-24
-4.117166344662761345e-24
-2.926328238787870419e-24
-2.077182703961412233e-24
-1.492488084126442265e-24
-1.084164471132061763e-24
-8.002130888547812855e-25
-6.009490903014781830e-25
-4.595397647668544963e-25
-3.561889073650411055e-25
-2.782711007483671738e-25
-2.176693854694098279e-25
-1.692589334866242159e-25
-1.300146681630380689e-25
-9.813068830448010475e-26
-7.247428245393382466e-26
