# bin_10_2
-2.094945253644627080e-09
-2.170890257179205809e-09
-2.169303308721677569e-09
-2.068357409424153586e-09
-1.867303721979478341e-09
-1.598911717155569502e-09
-1.321322338208069772e-09
-1.097721815695776282e-09
-9.343977261469484727e-10
-7.666652769299905684e-10
-5.689697456942208956e-10
-4.212786206687990705e-10
-3.236030977740663859e-10
-2.328033505917390009e-10
-1.712935490228358822e-10
-1.243859640092150436e-10
-9.130869525596624107e-11
-6.775487869719653045e-11
-5.108787089734629171e-11
-3.920822601544147461e-11
-3.057416849461400399e-11
-2.413036156669131758e-11
-1.914918523905782504e-11
-1.517110220544735340e-11
-1.191738674697571107e-11
-9.223516512267415500e-12
-6.996359784004456068e-12
-5.180972268574372938e-12
-3.736716668496355800e-12
-2.623809031526804956e-12
-1.795927746153975593e-12
