# bin_10_13
-2.791172211198442691e-13
-3.180691383124384140e-13
-3.572073190531734244e-13
-3.938466060711586369e-13
-4.244293419704785477e-13
-4.444180981423817600e-13
-4.493283124329207718e-13
-4.339082525494907218e-13
-3.954548926894999226e-13
-3.407697376562203297e-13
-2.804501267447299022e-13
-2.310830092262826611e-13
-1.988545194764696960e-13
-1.678871805993690259e-13
-1.223435707197446363e-13
-8.759405380580970618e-14
-7.046094181864136176e-14
-4.657213333336156026e-14
-3.490993615241485482e-14
-2.388992514361395221e-14
-1.625615031810892098e-14
-1.112522346491744563e-14
-7.569735762975709346e-15
-5.164887287746380482e-15
-3.547375176085413588e-15
-2.474359166492843524e-15
-1.756947332711007640e-15
-1.274005943285255721e-15
-9.439165806151649624e-16
-7.124696963516276430e-16
-5.447394975211857909e-16
