# bin_6_5
-2.007759791232732944e-10
-2.206482644746566967e-10
-2.369788907270347971e-10
-2.472304094523455330e-10
-2.489959513439499851e-10
-2.393536383378342615e-10
-2.173632304436140445e-10
-1.866963683426306523e-10
-1.536584624808076167e-10
-1.269426705572921871e-10
-1.090393377471919283e-10
-9.119448007087023559e-11
-6.655717255792618547e-11
-4.842707482138380054e-11
-3.831429585607235676e-11
-2.627191463267947647e-11
-1.957002678014353196e-11
-1.381589178998881625e-11
-9.824835164679724718e-12
-7.052864894316623261e-12
-5.112412230922746972e-12
-3.762217442888673182e-12
-2.815870918318105214e-12
-2.146515395761708089e-12
-1.659564085362015781e-12
-1.294276985110983940e-12
-1.011628423602528945e-12
-7.867918691455785203e-13
-6.050115620729118239e-13
-4.574692466806438964e-13
-3.386958327619615348e-13
