# bin_11_6
-4.519147964599387315e-10
-5.024876909824361442e-10
-5.475134359566462727e-10
-5.816058785902034812e-10
-5.983193214120808799e-10
-5.922772133305127923e-10
-5.560621788595637454e-10
-4.933280530019083296e-10
-4.144117271718164658e-10
-3.393584609829825313e-10
-2.851069887613397802e-10
-2.459343556712476685e-10
-1.953710173147277785e-10
-1.369383124964966568e-10
-1.064888324751217613e-10
-7.823952195016211098e-11
-5.569060449121965913e-11
-3.938608623928921317e-11
-2.816848782515449539e-11
-1.986826413227472104e-11
-1.409130902770435100e-11
-1.011312058191964083e-11
-7.365218837499779602e-12
-5.462437295957493578e-12
-4.126977248172637947e-12
-3.165122162570678488e-12
-2.452550691201119564e-12
-1.907256048717789105e-12
-1.477978310491663800e-12
-1.133753042430329087e-12
-8.562125068123846461e-13
