# bin_3_15
-4.166471804106900615e-34
-4.744844660412720123e-34
-5.324216102407988685e-34
-5.864333406426434240e-34
-6.311722115072350571e-34
-6.598411551897720428e-34
-6.659297689512362285e-34
-6.413653353427988421e-34
-5.829370613785702693e-34
-5.009281989205772420e-34
-4.117936758295979733e-34
-3.398257596629485776e-34
-2.928814818037600583e-34
-2.461473030190694727e-34
-1.780737505959171191e-34
-1.285769871747535458e-34
-1.027943405835311871e-34
-6.805931725611156136e-35
-5.076828467439946465e-35
-3.491813052048292003e-35
-2.377074740158023287e-35
-1.626092441067173017e-35
-1.107422449024062037e-35
-7.573642904075881012e-36
-5.219366915102541657e-36
-3.655057502355534926e-36
-2.606745615867626785e-36
-1.898765899369408255e-36
-1.412523705376861214e-36
-1.069523320962557138e-36
-8.192699273833776468e-37
