# bin_1_11
-2.192084626003674329e-34
-2.465653350538562798e-34
-2.724602911351619527e-34
-2.945097413256853863e-34
-3.096403885401120778e-34
-3.145612885397126494e-34
-3.060220124691959534e-34
-2.812106819052396328e-34
-2.443572670828710674e-34
-2.019821217683828287e-34
-1.658175724077028823e-34
-1.417966998115368614e-34
-1.210094944585230852e-34
-9.044505026140911760e-35
-6.360704000421659584e-35
-5.149657679751935677e-35
-3.468747029368351674e-35
-2.610395159925732262e-35
-1.785222047591756287e-35
-1.244515356369066596e-35
-8.720154866634748675e-36
-6.113852953133490656e-36
-4.319896139065860611e-36
-3.090348739056951306e-36
-2.254153400317682635e-36
-1.676172216258880316e-36
-1.268530218901230254e-36
-9.735187274294682544e-37
-7.526948858672914510e-37
-5.820834092013006481e-37
-4.470225306703774598e-37
