# bin_5_3
-6.963608434894777315e-10
-7.418964312016817872e-10
-7.667084719103399591e-10
-7.634297942884727161e-10
-7.235311238413947196e-10
-6.483768354901354834e-10
-5.505937136625705073e-10
-4.525855502426185500e-10
-3.772132054653197946e-10
-3.233775121589079975e-10
-2.628041110770919548e-10
-1.900381034711930129e-10
-1.427740613850192296e-10
-1.091683365700576117e-10
-7.733609338176687281e-11
-5.685891726445006159e-11
-4.101029890853849152e-11
-2.977394735531150448e-11
-2.187442146194048385e-11
-1.631363253439197879e-11
-1.237990779372873205e-11
-9.553056942125317254e-12
-7.474168633525455994e-12
-5.891868538162958583e-12
-4.647857285539658686e-12
-3.643913709528762486e-12
-2.820671762490087306e-12
-2.143942539170603229e-12
-1.593130048790968226e-12
-1.153895972711768070e-12
-8.137163269720250246e-13
