# bin_15_13
-5.460218198130716273e-11
-6.239243092502286770e-11
-7.031529521004075200e-11
-7.785612013780856072e-11
-8.434070770448821201e-11
-8.889342072265149117e-11
-9.054172610257435685e-11
-8.839945415699273579e-11
-8.153470444229283033e-11
-7.110629997887604035e-11
-5.888885080019693229e-11
-4.829249312226869418e-11
-4.121597711488770832e-11
-3.532290035284220821e-11
-2.662090566678196166e-11
-1.856901367318013839e-11
-1.504302178971396070e-11
-1.012367288879863546e-11
-7.572601613179989302e-12
-5.089002391522261038e-12
-3.492420720422619366e-12
-2.388257731337697974e-12
-1.619663485780045514e-12
-1.095246605629274321e-12
-7.421388526955980945e-13
-5.089711994353391572e-13
-3.544522393611531960e-13
-2.517047098409346430e-13
-1.827980341796843405e-13
-1.356749066491626551e-13
-1.025265166791188696e-13
