# bin_10_11
-8.657746788449226208e-12
-9.830008551400004809e-12
-1.098767427059955890e-11
-1.204528483002977118e-11
-1.288839707775299099e-11
-1.337340624433280298e-11
-1.338130416116142580e-11
-1.273079889850262538e-11
-1.143370968292303759e-11
-9.706043281373419331e-12
-7.950342618871500155e-12
-6.615711457497885684e-12
-5.726691721611973116e-12
-4.696296260443466989e-12
-3.306053698544822240e-12
-2.487456607161695454e-12
-1.910682199069849690e-12
-1.297264893619219903e-12
-9.328608648910449450e-13
-6.562290063164870183e-13
-4.492203855134779475e-13
-3.072582946677812950e-13
-2.108996179838532119e-13
-1.458892787526475586e-13
-1.021116057514962888e-13
-7.277304093774922240e-14
-5.288417992756155621e-14
-3.923481917207232080e-14
-2.964418473243427602e-14
-2.269273546158513282e-14
-1.747576261624826364e-14
