# bin_4_13
-6.202263300464531695e-26
-7.033889746985754701e-26
-7.850682277729108409e-26
-8.590830950608110378e-26
-9.171497908646104812e-26
-9.489318940210520752e-26
-9.462697892517184892e-26
-8.960710640047024870e-26
-8.012245617788705083e-26
-6.771543917141401693e-26
-5.541969295968002927e-26
-4.628169459511208814e-26
-4.008896824833949146e-26
-3.252398433822260352e-26
-2.271384275679011601e-26
-1.736430512278232084e-26
-1.309362131314655764e-26
-9.020507406628782828e-27
-6.376960229902325497e-27
-4.518677310450629779e-27
-3.102192976748868220e-27
-2.124482028187568940e-27
-1.464023229573852709e-27
-1.017306015549094114e-27
-7.162365730981771607e-28
-5.137360667595283716e-28
-3.758064198432010809e-28
-2.805247686414100011e-28
-2.129819591670174216e-28
-1.635357060603807797e-28
-1.260683412376515518e-28
