# bin_6_2
-1.618970744206887600e-09
-1.675586992589596889e-09
-1.671790207127189303e-09
-1.590853832939740798e-09
-1.433245477110787900e-09
-1.224982475785085604e-09
-1.011636117763970866e-09
-8.412206336773467332e-10
-7.162735473264356725e-10
-5.858468982802027321e-10
-4.334324841715466952e-10
-3.218039619165018193e-10
-2.468046801486339425e-10
-1.774463477046872191e-10
-1.306239390276029034e-10
-9.489337626181134141e-11
-6.970035869669304110e-11
-5.177520524650762160e-11
-3.908631670951579602e-11
-3.003382678592757452e-11
-2.344523892767402709e-11
-1.851838502933222454e-11
-1.470149261937724594e-11
-1.164739638663076703e-11
-9.145929750717522477e-12
-7.073418761980790743e-12
-5.360030006609972943e-12
-3.964405399885183694e-12
-2.855485264207123953e-12
-2.002376311029556899e-12
-1.368885907169969937e-12
