# bin_15_9
-2.541696366402056208e-10
-2.874590495834170215e-10
-3.197608556524139689e-10
-3.484684151655487313e-10
-3.701227220356839172e-10
-3.805514070001119132e-10
-3.764461208878298172e-10
-3.528732184213973678e-10
-3.125493996735831940e-10
-2.619787245859226043e-10
-2.143932530377013991e-10
-1.805030786137663634e-10
-1.560003832983941088e-10
-1.232512242988931807e-10
-8.562916731855208432e-11
-6.725852728851915500e-11
-4.862203207204542733e-11
-3.471217715262563968e-11
-2.395954789743252955e-11
-1.697233101545889939e-11
-1.173811008790524055e-11
-8.102159360764198963e-12
-5.631625987708363497e-12
-3.950706887667456875e-12
-2.815619889423312062e-12
-2.045657055100989691e-12
-1.515417096904610945e-12
-1.143561538643378990e-12
-8.749557911929841263e-13
-6.743793724403199300e-13
-5.197322788589588622e-13
