# bin_2_5
-9.103780092293773788e-15
-9.846972989505765428e-15
-1.036825713574796311e-14
-1.055737517801646178e-14
-1.031001132970491734e-14
-9.524883654408348408e-15
-8.321124318479720498e-15
-6.908724786830292098e-15
-5.665815546438327966e-15
-4.814133967932671736e-15
-4.116327850006351086e-15
-3.142350825379263144e-15
-2.216187548618775428e-15
-1.771679180220368863e-15
-1.246750211270610723e-15
-9.270149280264752668e-16
-6.535464329417322200e-16
-4.731613528227622758e-16
-3.430744331706284661e-16
-2.512746304950512322e-16
-1.870293292430681180e-16
-1.415934218924314835e-16
-1.090851967830568471e-16
-8.514199152399481212e-17
-6.690944513407684598e-17
-5.258927109733808769e-17
-4.104909373600932941e-17
-3.161955351400534218e-17
-2.390713425350224228e-17
-1.766782489443726469e-17
-1.272578629927561085e-17
