# bin_13_2
-2.273042858509354530e-09
-2.356220202496852143e-09
-2.355460132060848130e-09
-2.247027189092597280e-09
-2.029717370361185898e-09
-1.738826619652084236e-09
-1.437199125243624223e-09
-1.193698098684036438e-09
-1.016014300626311190e-09
-8.343229668630144778e-10
-6.196843853421564013e-10
-4.584995405871748681e-10
-3.523391366750117566e-10
-2.535165522609496280e-10
-1.865110952262578885e-10
-1.354213502575041163e-10
-9.939399220060860087e-11
-7.373407093069711963e-11
-5.557855062730862520e-11
-4.264105526852166701e-11
-3.324163435265604593e-11
-2.623022173051767341e-11
-2.081339966844079294e-11
-1.648958406418756278e-11
-1.295439607732065679e-11
-1.002802890047292214e-11
-7.608633169468276787e-12
-5.636180969260128378e-12
-4.066451297221153222e-12
-2.856333540204243082e-12
-1.955716080815773022e-12
