# bin_12_2
-2.221244625324241048e-09
-2.302318498318282159e-09
-2.301317931922163173e-09
-2.195062529246650600e-09
-1.982480669342741155e-09
-1.698133494099584709e-09
-1.403497291204030128e-09
-1.165784167354382179e-09
-9.922767748848132548e-10
-8.146452681992561333e-10
-6.049344363572771429e-10
-4.476741318679638774e-10
-3.439814889192765920e-10
-2.474922817622944536e-10
-1.820851937251985476e-10
-1.322117956816192463e-10
-9.704244794613646673e-11
-7.199507059205445326e-11
-5.427247235445307939e-11
-4.164264441260340129e-11
-3.246582334629569761e-11
-2.561949430525009271e-11
-2.032937630913895095e-11
-1.610611423814625378e-11
-1.265279026259618802e-11
-9.794042940778501901e-12
-7.430558368923224730e-12
-5.503787163649326562e-12
-3.970550614303177227e-12
-2.788705639554775656e-12
-1.909242913754548359e-12
