# bin_13_9
-1.967573178186289058e-10
-2.224813361035848160e-10
-2.474186650852958229e-10
-2.695472471060534302e-10
-2.861856556273348122e-10
-2.941079496749047831e-10
-2.907549192861105102e-10
-2.723318755448227767e-10
-2.410305628430950457e-10
-2.018981183734920100e-10
-1.652236456543071313e-10
-1.391949196745544051e-10
-1.202788750598773303e-10
-9.482898921526370066e-11
-6.585185314430114175e-11
-5.183614218571524488e-11
-3.734781390338313680e-11
-2.673685352242942470e-11
-1.842052829161518426e-11
-1.304937099259376077e-11
-9.030266825926674766e-12
-6.236706903062260409e-12
-4.337955850738329635e-12
-3.045511341909046320e-12
-2.172603379518301815e-12
-1.580073082780744084e-12
-1.171659072540075070e-12
-8.848941811826124159e-13
-6.774461896395639726e-13
-5.223013691218460474e-13
-4.025251089717478423e-13
