# bin_7_13
-1.167166978959229386e-17
-1.326699053464915871e-17
-1.485082690562474143e-17
-1.630898435155677160e-17
-1.748878938816153494e-17
-1.819771746674305692e-17
-1.826792747658236448e-17
-1.745868833029851143e-17
-1.574734966372074914e-17
-1.342591051430460799e-17
-1.100795099109186482e-17
-9.129606215512558885e-18
-7.895305989974500842e-18
-6.538873324152435409e-18
-4.642001662458870386e-18
-3.439809626803378886e-18
-2.686925064786961038e-18
-1.801597306825981171e-18
-1.315998549307257967e-18
-9.187608061865678746e-19
-6.273251228884269606e-19
-4.287891845019162322e-19
-2.932708418816112500e-19
-2.020009734345059905e-19
-1.405862548248848047e-19
-9.956497668410526474e-20
-7.187881955527336422e-20
-5.299481389791264018e-20
-3.983813934798882119e-20
-3.039504390489050419e-20
-2.337705851217409223e-20
