# bin_7_14
-3.368206018750645432e-19
-3.835688172260190134e-19
-4.303931768770977863e-19
-4.740392020039289783e-19
-5.101828806591785203e-19
-5.333290781870835733e-19
-5.382196353964068302e-19
-5.183175428154162864e-19
-4.710462023581639709e-19
-4.047318108449815439e-19
-3.326898522912152946e-19
-2.745557238937662476e-19
-2.366521983575608797e-19
-1.988682146303847097e-19
-1.438130883926331812e-19
-1.038659474775232861e-19
-8.304122814419724129e-20
-5.496318842377004329e-20
-4.100522589931669572e-20
-2.820872134295537980e-20
-1.920158702778153988e-20
-1.313503407396729653e-20
-8.945106896856294102e-21
-6.118033372708250472e-21
-4.216793452319310267e-21
-2.953449323344762797e-21
-2.106756164283009362e-21
-1.534875224106471346e-21
-1.142036722033141500e-21
-8.648604738689328735e-22
-6.625768667003407119e-22
