# bin_2_10
-5.153933629351466103e-27
-5.776453517739349944e-27
-6.355534192473279093e-27
-6.833205476196932558e-27
-7.135930866661279986e-27
-7.194186670816128037e-27
-6.920807789254930315e-27
-6.284848856526140995e-27
-5.396368346505788460e-27
-4.435684435772859288e-27
-3.661818985671657290e-27
-3.154102256483438269e-27
-2.646024900971148164e-27
-1.916015500576270466e-27
-1.388581177398676572e-27
-1.107622536956611967e-27
-7.417860726562075284e-28
-5.547791934152587739e-28
-3.869574928520539477e-28
-2.690567010866058274e-28
-1.889231436730773820e-28
-1.332301829090156524e-28
-9.506469733625803304e-29
-6.885403757939038644e-29
-5.087365671997864779e-29
-3.828526928649257038e-29
-2.926548656860356975e-29
-2.260932446569571050e-29
-1.752952521238278973e-29
-1.354131326742775360e-29
-1.035282657154861932e-29
