# bin_4_15
-4.939413856663799728e-30
-5.626541482357382186e-30
-6.315697395121484644e-30
-6.959242518008371023e-30
-7.493954840721792901e-30
-7.839370830486446988e-30
-7.917439740109150713e-30
-7.633502881693772053e-30
-6.945566067503113542e-30
-5.975036369046177470e-30
-4.913938726945950038e-30
-4.052589711931894474e-30
-3.490739741509893286e-30
-2.939217291270230697e-30
-2.132356613037788524e-30
-1.534379138943507141e-30
-1.229979495241430786e-30
-8.135536130137159739e-31
-6.082102854341001725e-31
-4.174791088133230087e-31
-2.841292703103987637e-31
-1.943977848134054999e-31
-1.323352450650981031e-31
-9.041865242076220819e-32
-6.222788468703072918e-32
-4.350890510742401880e-32
-3.097621378867790927e-32
-2.252328022360002108e-32
-1.672901653692621872e-32
-1.265151188839434861e-32
-9.684465151551218016e-33
