# bin_3_9
-1.029950867725625517e-20
-1.150632751822848788e-20
-1.260998290056022802e-20
-1.349149475642833389e-20
-1.400172178107270629e-20
-1.401489178701805553e-20
-1.334530382617335049e-20
-1.199785977839027038e-20
-1.019732816734390345e-20
-8.355639199588097875e-21
-6.944611269192039838e-21
-6.003995276787948486e-21
-4.936488047536729901e-21
-3.494806148106261621e-21
-2.618618708880356233e-21
-2.026247587608399044e-21
-1.382469189192393393e-21
-1.008095205950875885e-21
-7.161450315546644783e-22
-5.002371061998583848e-22
-3.518370336193956723e-22
-2.497754757553020574e-22
-1.798161006086657943e-22
-1.316340507216455042e-22
-9.827358582840108402e-23
-7.463761489386065225e-23
-5.745833255869716005e-23
-4.456983301329883332e-23
-3.458468534826319215e-23
-2.665714957963990889e-23
-2.028389218567182379e-23
