# bin_13_5
-7.546927003488968610e-10
-8.317355048613352662e-10
-8.964249115051467823e-10
-9.393383739519996805e-10
-9.509316350150839354e-10
-9.208154712163899916e-10
-8.428567143251006192e-10
-7.296382771105778475e-10
-6.029336314523347108e-10
-4.964539905742403277e-10
-4.244774213824145879e-10
-3.587599651952659708e-10
-2.671501465324682804e-10
-1.913130927200756749e-10
-1.521333281796185001e-10
-1.051462502131694976e-10
-7.812225294776386660e-11
-5.480282238878747138e-11
-3.903941899313201217e-11
-2.792748731184137263e-11
-2.013942558220990313e-11
-1.473220467239578425e-11
-1.095467853291652911e-11
-8.299419510461038880e-12
-6.385105323848689159e-12
-4.963195971135180942e-12
-3.873995012348679869e-12
-3.014699128772813958e-12
-2.323529102726855598e-12
-1.763525876233962533e-12
-1.312178430820182607e-12
