# bin_13_10
-1.301592271476062113e-10
-1.476757881201026692e-10
-1.649187768323815384e-10
-1.805944138876770626e-10
-1.929721734103396038e-10
-1.998926237368290857e-10
-1.995955212796479808e-10
-1.893789544392623219e-10
-1.696609249639852246e-10
-1.436892535464268519e-10
-1.176725816100095930e-10
-9.812808663083355983e-11
-8.492944496209179292e-11
-6.918796231728286502e-11
-4.857263048934057892e-11
-3.684726963667826246e-11
-2.799123975288370514e-11
-1.918672955402043818e-11
-1.367613899875519714e-11
-9.640049673079393770e-12
-6.611165456022594794e-12
-4.528908234969131589e-12
-3.115987837936854657e-12
-2.160876143416470087e-12
-1.517395937148264117e-12
-1.085251205093022452e-12
-7.914941944007957474e-13
-5.891216960198267030e-13
-4.462096268828492803e-13
-3.420450651757719828e-13
-2.634621220526773084e-13
