# bin_2_14
-1.509428440649331489e-36
-1.714824595716671296e-36
-1.918227269035093917e-36
-2.104808757856572839e-36
-2.254724181775710818e-36
-2.343000729898781192e-36
-2.348417517072778846e-36
-2.239550278585163479e-36
-2.015883339650180268e-36
-1.715120030118516074e-36
-1.405532848502631006e-36
-1.167524631527295850e-36
-1.010211034537745691e-36
-8.328180731710339890e-37
-5.887301945538510683e-37
-4.394612293110664151e-37
-3.405937210813946380e-37
-2.296741726865826160e-37
-1.665195063961712167e-37
-1.167055077211476395e-37
-7.978060229405785113e-38
-5.454128802034566599e-38
-3.736565762792415655e-38
-2.578959918320930148e-38
-1.799738125399878429e-38
-1.278448874412644727e-38
-9.258869157367397203e-39
-6.847154491641050527e-39
-5.160096400369980208e-39
-3.943513793924963947e-39
-3.035067554986997756e-39
