# bin_11_14
-2.826294824227087893e-13
-3.227743810821142452e-13
-3.635099453696241336e-13
-4.021578410595253776e-13
-4.352046138592949252e-13
-4.581058730546338642e-13
-4.659095485724085663e-13
-4.539036576166738310e-13
-4.176005804828661064e-13
-3.632910590484319978e-13
-3.003899911202434836e-13
-2.464925478362232001e-13
-2.107900397264815237e-13
-1.802600474439754150e-13
-1.348582990467825086e-13
-9.436279878210245229e-14
-7.662168466879443813e-14
-5.111172863799027963e-14
-3.843202302060877847e-14
-2.588945008239700301e-14
-1.769051038723416800e-14
-1.211081568753320969e-14
-8.224103016530671694e-15
-5.570868097637167614e-15
-3.784547614281446294e-15
-2.604510531398953403e-15
-1.821206626340181278e-15
-1.299165914734729854e-15
-9.478026536311630883e-16
-7.063301033832883077e-16
-5.354172126073014914e-16
