# bin_9_12
-2.243971856559278248e-13
-2.550487458831122404e-13
-2.854688174177264860e-13
-3.134605359148905302e-13
-3.360865306116634507e-13
-3.496439166860883481e-13
-3.509154060386553100e-13
-3.352692727388640612e-13
-3.023206395376249239e-13
-2.576810377192255429e-13
-2.112624255893059673e-13
-1.752531829516951808e-13
-1.515658958024425329e-13
-1.254428766854461689e-13
-8.900897201278116193e-14
-6.602243314455607531e-14
-5.151312748493229108e-14
-3.457085619204974161e-14
-2.522542925637710847e-14
-1.761943443206443402e-14
-1.203259187885119193e-14
-8.225037542053392792e-15
-5.626943057926258350e-15
-3.876855699795992322e-15
-2.699169331833762946e-15
-1.912374954097998935e-15
-1.381196398934824488e-15
-1.018745887191768367e-15
-7.660813234674563267e-16
-5.846152665967162857e-16
-4.496646109761967848e-16
