# bin_5_15
-1.812517324624159905e-26
-2.065450605992978877e-26
-2.319587065291110880e-26
-2.557489446550745139e-26
-2.756053533177826528e-26
-2.885814349625620655e-26
-2.917657544970646061e-26
-2.817456945201752793e-26
-2.567684762146152953e-26
-2.212538096461306319e-26
-1.820848352491464206e-26
-1.500335137816846808e-26
-1.291137066891089564e-26
-1.090047977591500757e-26
-7.942373346106127592e-27
-5.686854799387999144e-27
-4.574781789166398910e-27
-3.023285931725945122e-27
-2.266443592889962967e-27
-1.551084077432018507e-27
-1.055410862435015324e-27
-7.222831313330833500e-28
-4.914353836483167289e-28
-3.353153762485527010e-28
-2.303105572579622587e-28
-1.606524963370611068e-28
-1.140786696315628303e-28
-8.272572872008194244e-29
-6.129519850606769169e-29
-4.626804059726002175e-29
-3.537703764501965838e-29
