# bin_13_1
-3.527366932127681586e-09
-3.458484115624158708e-09
-3.230664192442850816e-09
-2.864031946170247530e-09
-2.425816274990254423e-09
-2.009810055052445368e-09
-1.680878856105705205e-09
-1.410460555477045604e-09
-1.123162200035902901e-09
-8.357785826240431006e-10
-6.266902410797235768e-10
-4.729468070567623011e-10
-3.450988881644834241e-10
-2.544680857166461741e-10
-1.875752489869688074e-10
-1.399665695870525486e-10
-1.060109992034409285e-10
-8.172286739141660288e-11
-6.405222839184356768e-11
-5.083517684721779910e-11
-4.061038700986636445e-11
-3.241948690942436665e-11
-2.567974897146521826e-11
-2.005486878072366479e-11
-1.535860645659592295e-11
-1.148754056117500576e-11
-8.371538137728010060e-12
-5.940080764777033856e-12
-4.107937923366098143e-12
-2.775110005401793813e-12
-1.836725418043946388e-12
