# bin_11_2
-2.160917862123857773e-09
-2.239541935225432296e-09
-2.238261283120868076e-09
-2.134541958146282041e-09
-1.927466517008891300e-09
-1.650740312005895578e-09
-1.364246507249239289e-09
-1.133274253575261412e-09
-9.646309055484176508e-10
-7.917276730145948878e-10
-5.877559371565176890e-10
-4.350663421743935044e-10
-3.342477704775271812e-10
-2.404761282393536739e-10
-1.769305752864583902e-10
-1.284737949223491406e-10
-9.430372665122531719e-11
-6.996974715030978841e-11
-5.275135065127962393e-11
-4.047984691030045128e-11
-3.156227631463068375e-11
-2.490821155952852716e-11
-1.976565924051667799e-11
-1.565950668810231582e-11
-1.230152551717365631e-11
-9.521531567420247810e-12
-7.223163850719733862e-12
-5.349594951429125819e-12
-3.858860062352887881e-12
-2.709942937642738478e-12
-1.855118035356325853e-12
