# bin_6_9
-8.100163213823234098e-14
-9.099414658428716902e-14
-1.003956251135369056e-13
-1.083140101707475090e-13
-1.136066555873388621e-13
-1.151002437228440741e-13
-1.115305682883286650e-13
-1.020459632613827429e-13
-8.829037307832255118e-14
-7.281414816971893560e-14
-5.987938579503216708e-14
-5.135422298707895095e-14
-4.358916333065217761e-14
-3.219408728474318296e-14
-2.285198047994651379e-14
-1.845669808301033648e-14
-1.235808303911412980e-14
-9.312614197737765939e-15
-6.409218002395823432e-15
-4.457559411576015413e-15
-3.127047561247812928e-15
-2.197190511432752073e-15
-1.557923735676537169e-15
-1.119482598408200498e-15
-8.204722255399693654e-16
-6.128585174366331049e-16
-4.656056777183958220e-16
-3.582811664154129528e-16
-2.773614969093116641e-16
-2.144523121175194753e-16
-1.644497824097379482e-16
