# bin_4_8
-6.748548064534689538e-16
-7.518817157775180606e-16
-8.212592737389446962e-16
-8.750347693943774517e-16
-9.033918481953658360e-16
-8.985467430965129229e-16
-8.483689463269200623e-16
-7.565812333515272607e-16
-6.380367182997185002e-16
-5.221102235218246228e-16
-4.367396844895099452e-16
-3.778494349504275564e-16
-3.045880257019285280e-16
-2.130010277589109997e-16
-1.640060836704638799e-16
-1.228930491261130575e-16
-8.604081179332170238e-17
-6.119660855448455466e-17
-4.391385919582234002e-17
-3.085236040622373083e-17
-2.178219459603786940e-17
-1.556749048319882098e-17
-1.128870080526462898e-17
-8.333060281803611994e-18
-6.269762683445745639e-18
-4.793133433147205431e-18
-3.707150990357303108e-18
-2.881960174430400812e-18
-2.235744266484383701e-18
-1.718984690264999770e-18
-1.302394148848282516e-18
