# bin_2_10
-4.470996368139565605e-27
-5.008922101138299639e-27
-5.508253666972502267e-27
-5.918519529819208716e-27
-6.175792426176173094e-27
-6.220575170729232905e-27
-5.976287817529481796e-27
-5.419902846218856212e-27
-4.647346845618680756e-27
-3.818042076694370494e-27
-3.154423322771724984e-27
-2.718855403006512231e-27
-2.275548587804640288e-27
-1.642213791795017816e-27
-1.195083346548440893e-27
-9.503003039571872816e-28
-6.371899481743103439e-28
-4.754046898254579694e-28
-3.324209315828577614e-28
-2.312023096713243163e-28
-1.623571584913698019e-28
-1.145742858922244134e-28
-8.184177058376860446e-29
-5.936027439001874088e-29
-4.391828652018473306e-29
-3.309214820471514274e-29
-2.532140853566036066e-29
-1.957462437077785130e-29
-1.517998657662268651e-29
-1.172424464649737731e-29
-8.959002601161729950e-30
