# bin_5_9
-1.609430624097015267e-15
-1.803922358472625564e-15
-1.984897588454902330e-15
-2.134262302036640137e-15
-2.229059631377223388e-15
-2.247544131441717732e-15
-2.162514467772519981e-15
-1.964133701251059591e-15
-1.686747770364531493e-15
-1.386528017887106897e-15
-1.144492702568443044e-15
-9.857531457615954266e-16
-8.272631040317180948e-16
-5.992340350053287947e-16
-4.340145462643954749e-16
-3.464141841030493522e-16
-2.318811701518320776e-16
-1.735227013318147999e-16
-1.209889127172926172e-16
-8.411025155277792201e-17
-5.905747996133988918e-17
-4.164144672726706178e-17
-2.970623512142860702e-17
-2.151174262583575219e-17
-1.589044302149933663e-17
-1.195621347166034756e-17
-9.138229456049346401e-18
-7.059390283595142440e-18
-5.473394886002306687e-18
-4.228502165894226731e-18
-3.233332366260554920e-18
