# bin_7_6
-1.496329601640537557e-10
-1.659610616950668146e-10
-1.802752916638975627e-10
-1.907645220377557626e-10
-1.953269956406588706e-10
-1.921718679003618943e-10
-1.790292886879817322e-10
-1.576563510086405689e-10
-1.316037387399381731e-10
-1.077730358320375785e-10
-9.109024859143080985e-11
-7.840073865183977271e-11
-6.104974343562200223e-11
-4.264936940222320997e-11
-3.379331395078802098e-11
-2.413026638890661323e-11
-1.757072938022696947e-11
-1.225851876166691184e-11
-8.784172753782528206e-12
-6.229265166418153629e-12
-4.440248130981384929e-12
-3.206042709711156010e-12
-2.350203280019327206e-12
-1.755508357058290278e-12
-1.334780006581177083e-12
-1.028906605904207167e-12
-7.998835588631749838e-13
-6.227636739774724513e-13
-4.821836327817467921e-13
-3.689098972477376423e-13
-2.774671845944154316e-13
