# bin_10_5
-6.075492674913886674e-10
-6.690056501246272782e-10
-7.202879016016346173e-10
-7.537830186486911447e-10
-7.619250024041933499e-10
-7.362102036848814337e-10
-6.723221905464604788e-10
-5.806840623744380746e-10
-4.792820662296880634e-10
-3.950136309038870383e-10
-3.381959234162638425e-10
-2.849775645606933635e-10
-2.109896272825313554e-10
-1.517641573424860839e-10
-1.205246566746334249e-10
-8.310110334358855670e-11
-6.179740670096806125e-11
-4.342107485747231875e-11
-3.091783935104809265e-11
-2.214050623211887264e-11
-1.599045612630970670e-11
-1.171763232652204479e-11
-8.730192358634993068e-12
-6.626241615467737809e-12
-5.105486452187270173e-12
-3.972670288669004962e-12
-3.102309974827298099e-12
-2.413955195615121632e-12
-1.859401087744223617e-12
-1.409816248830956506e-12
-1.047558110014588177e-12
