# bin_3_9
-9.545790061075511626e-21
-1.065971897894282867e-20
-1.167606703908712188e-20
-1.248419678951659890e-20
-1.294566850688782650e-20
-1.294529054074889084e-20
-1.231022654941564316e-20
-1.105308558543662608e-20
-9.382204298555992212e-21
-7.685441721634406897e-21
-6.393835698183986767e-21
-5.529396495049623089e-21
-4.532996319732063901e-21
-3.201227236582033415e-21
-2.409400463113656685e-21
-1.855528896206609700e-21
-1.270468269260393917e-21
-9.227156631855269718e-22
-6.568698866915932278e-22
-4.591955195095635365e-22
-3.230848772800010141e-22
-2.295848345609365583e-22
-1.654646385882893091e-22
-1.212898387381818377e-22
-9.066254409665248403e-23
-6.893200297700564094e-23
-5.310924344539547179e-23
-4.121430318746803632e-23
-3.198269501129593650e-23
-2.464428392967734927e-23
-1.874132179544860959e-23
