# bin_2_1
-1.274093536928838180e-09
-1.229319024902821736e-09
-1.127183514745856484e-09
-9.814881257235869022e-10
-8.211376200302526480e-10
-6.802818218314085782e-10
-5.723381778616584688e-10
-4.753493026869125875e-10
-3.676646390738289161e-10
-2.713706143285052884e-10
-2.060788520927549259e-10
-1.532872948057988951e-10
-1.121316129087198944e-10
-8.285620639193418078e-11
-6.144767231830145723e-11
-4.621089889641860511e-11
-3.535138736211380861e-11
-2.752985102667805023e-11
-2.176759560282718474e-11
-1.738579269573867438e-11
-1.393165989143906110e-11
-1.111785768682139274e-11
-8.775301854639355392e-12
-6.809427198687193277e-12
-5.169576616483540205e-12
-3.826853938997285612e-12
-2.758005175643897018e-12
-1.935491862116318786e-12
-1.324911989930717074e-12
-8.870601479853164408e-13
-5.827119564290669992e-13
