# bin_10_1
-3.375766400785050967e-09
-3.303201324850653716e-09
-3.078452574425943528e-09
-2.722969667017200499e-09
-2.302687567914430522e-09
-1.907583969967200476e-09
-1.596549614826631085e-09
-1.338238271044101355e-09
-1.061976199120018501e-09
-7.892279656969951080e-10
-5.926819750785695163e-10
-4.465904381180530586e-10
-3.258791294732435974e-10
-2.403810522474766851e-10
-1.773033827833431922e-10
-1.324273096241765244e-10
-1.004237201548519097e-10
-7.751443403877321194e-11
-6.082329386609943204e-11
-4.831447675219312084e-11
-3.861506967671118100e-11
-3.082850424352289730e-11
-2.441148574875916707e-11
-1.905151763290806095e-11
-1.457626886698242126e-11
-1.088987882137957361e-11
-7.926172699253100623e-12
-5.617178513449693868e-12
-3.880262087224528925e-12
-2.618754905524607566e-12
-1.731856078980530240e-12
