# bin_5_4
-2.890109421596522753e-10
-3.131781095012769944e-10
-3.305237224164818481e-10
-3.375199859509672856e-10
-3.308845521587136673e-10
-3.072413139320134950e-10
-2.697467030064684383e-10
-2.249552396721221066e-10
-1.845082859296576178e-10
-1.560936756225120981e-10
-1.336017226239454718e-10
-1.034758723611738445e-10
-7.315572024209541578e-11
-5.764067319992211096e-11
-4.146054094453818650e-11
-3.028373519144235977e-11
-2.154169563971582389e-11
-1.559043534119634148e-11
-1.126052090176505508e-11
-8.218634774401831710e-12
-6.094618713452705472e-12
-4.597418850528237373e-12
-3.529263612245834534e-12
-2.746971451383588807e-12
-2.154859902201838783e-12
-1.692479822280947642e-12
-1.321648571838128678e-12
-1.019518650378831464e-12
-7.726645142045438265e-13
-5.728219906580982456e-13
-4.141664544518728410e-13
