# bin_4_4
-1.107785987723038959e-10
-1.196442675878177053e-10
-1.257465628514565004e-10
-1.277751547096672549e-10
-1.244187467239392520e-10
-1.146152799122487159e-10
-9.985442376039773046e-11
-8.282362066009683718e-11
-6.802999744188498990e-11
-5.787817569142072342e-11
-4.925704095731282516e-11
-3.738049573468954731e-11
-2.655988099710102184e-11
-2.112395220305928623e-11
-1.488340856485263482e-11
-1.103780220818368003e-11
-7.816942190445148764e-12
-5.656531561978134280e-12
-4.104517635642311290e-12
-3.010687951073098012e-12
-2.244789738031043511e-12
-1.702598841727819642e-12
-1.313669488901598481e-12
-1.026371190811410259e-12
-8.069523064415928096e-13
-6.341558851648892699e-13
-4.946554637224050662e-13
-3.805872774903784319e-13
-2.873207712968353080e-13
-2.119603763377336643e-13
-1.523909509772951257e-13
