# bin_5_5
-8.037069662599809045e-11
-8.806971627854681915e-11
-9.424815147201228591e-11
-9.788011480395802428e-11
-9.805624067556425734e-11
-9.355450925478122001e-11
-8.431148212198358184e-11
-7.186833532151906326e-11
-5.898372215027876415e-11
-4.894498667452344535e-11
-4.217559844733550954e-11
-3.479892290117230291e-11
-2.496554991414248659e-11
-1.855008751273011772e-11
-1.445156935753609401e-11
-9.958471203408883966e-12
-7.355251676800900576e-12
-5.246444026331043778e-12
-3.733774211450021199e-12
-2.687385710166682093e-12
-1.957329838914094750e-12
-1.448738672842067926e-12
-1.091208394947102845e-12
-8.364833289576405789e-13
-6.495104339494855242e-13
-5.079022230338585882e-13
-3.972946466565385135e-13
-3.086795235718187844e-13
-2.367429821428883218e-13
-1.783059828710546110e-13
-1.313493864682116540e-13
