# bin_6_6
-6.123872057753370160e-11
-6.780101305054568338e-11
-7.348852500684350232e-11
-7.755271504830426190e-11
-7.914983615362361020e-11
-7.752694442712003056e-11
-7.183967125405914661e-11
-6.293890080497150087e-11
-5.233323966242786795e-11
-4.288464159450168102e-11
-3.639716367369933935e-11
-3.123480113761951589e-11
-2.397186871834795992e-11
-1.677739288099246866e-11
-1.342011650476998867e-11
-9.406364973226659630e-12
-6.950540441736313255e-12
-4.825404198747806091e-12
-3.451519644837803711e-12
-2.456675219904061404e-12
-1.758156824266658179e-12
-1.274742844166671538e-12
-9.385940823741668014e-13
-7.043710320263908406e-13
-5.377317020835243209e-13
-4.157877687152978576e-13
-3.238208937574439070e-13
-2.522124098757278769e-13
-1.950951743154959144e-13
-1.489530110027715204e-13
-1.116945502360404260e-13
