# bin_8_3
-1.187882623738013807e-09
-1.267144580873165612e-09
-1.311568236704577650e-09
-1.308477230727037247e-09
-1.243297468677459732e-09
-1.117155992974776217e-09
-9.510592322609963622e-10
-7.824352678394695465e-10
-6.511697924802020444e-10
-5.578911815737278736e-10
-4.555411352910902348e-10
-3.309721194181060764e-10
-2.472784009950795670e-10
-1.898435349759894726e-10
-1.343979720264381543e-10
-9.889120227729546238e-11
-7.121215262756716467e-11
-5.167620975672398383e-11
-3.791587057754161099e-11
-2.822969610313061824e-11
-2.138546849986799168e-11
-1.647525022119562655e-11
-1.287327104979115581e-11
-1.014005376419895461e-11
-7.997245419702333340e-12
-6.271877856184277414e-12
-4.859012239140361750e-12
-3.698032590285567492e-12
-2.752539574884832931e-12
-1.997522363867926820e-12
-1.411546606078168412e-12
