# bin_10_14
-2.549877052361329760e-14
-2.909854840962509363e-14
-3.273921574610669879e-14
-3.617777380439610752e-14
-3.909437329592466140e-14
-4.107750600041161610e-14
-4.169266794257809790e-14
-4.049604099113448201e-14
-3.713369308974975238e-14
-3.219761418550566361e-14
-2.657515407736472849e-14
-2.183371093291747523e-14
-1.871525093582524513e-14
-1.594156370520655018e-14
-1.181524243205629398e-14
-8.323035759655708387e-15
-6.751444663736370121e-15
-4.475973339174043923e-15
-3.370894348356482694e-15
-2.282398967777441552e-15
-1.555238280457800358e-15
-1.064993382232119164e-15
-7.237252527774212734e-16
-4.914224400188530464e-16
-3.350868621119019417e-16
-2.316866324005163951e-16
-1.628863337170147078e-16
-1.168817118900305371e-16
-8.575735225610660003e-17
-6.421968668144150730e-17
-4.884805404401347638e-17
