# bin_7_8
-1.016001649324877495e-11
-1.138705112801098133e-11
-1.252842616544640762e-11
-1.346987578305203128e-11
-1.406644114465249731e-11
-1.418101905778338662e-11
-1.364227358354043852e-11
-1.238959551465017105e-11
-1.063901283117774139e-11
-8.746267390399847797e-12
-7.220908337446793894e-12
-6.218372660219830809e-12
-5.215724667628498169e-12
-3.779153778818205795e-12
-2.738942953286863280e-12
-2.183017059605984270e-12
-1.463875809084701532e-12
-1.093796595402544797e-12
-7.627167448052740951e-13
-5.304867973887489973e-13
-3.724954165911497900e-13
-2.627021465199330843e-13
-1.874256693207566814e-13
-1.357363056086619138e-13
-1.002725552310543921e-13
-7.544891500404739546e-14
-5.766553702239289359e-14
-4.454473377507660082e-14
-3.453380315924317535e-14
-2.667605829509891383e-14
-2.039523754330912567e-14
