# bin_10_7
-2.555140962408785269e-10
-2.858587158542753241e-10
-3.138238786458667949e-10
-3.364942486781534423e-10
-3.502008210682120715e-10
-3.516546599831857934e-10
-3.364469356513561938e-10
-3.039578290390737472e-10
-2.596636949223920847e-10
-2.131906471462730696e-10
-1.766692987306132643e-10
-1.523486212193748591e-10
-1.263616069932315889e-10
-9.065464874562003517e-11
-6.683832162334936919e-11
-5.234685707401318129e-11
-3.554065170969919573e-11
-2.617744372273081145e-11
-1.840583986294889066e-11
-1.284109487725204663e-11
-9.027754627051321104e-12
-6.389957499649162064e-12
-4.579876110928000848e-12
-3.334962463361532404e-12
-2.476703471826288658e-12
-1.872247077741293263e-12
-1.435992680909998230e-12
-1.111365896555155241e-12
-8.617725908156583189e-13
-6.647662298586020858e-13
-5.068895306953572300e-13
