# bin_2_1
5.887358119357137007e-06
5.983169794235661574e-06
5.833025392107911668e-06
5.398087556751367564e-06
4.731072280920826177e-06
3.958903934450787113e-06
3.264643126656605964e-06
2.753152851184585339e-06
2.321896393166143075e-06
1.804744207071553334e-06
1.313419007769490485e-06
1.007786319937478849e-06
7.454452291074188648e-07
5.429097394130877925e-07
3.978120129082315867e-07
2.921707230076706548e-07
2.167418554778017031e-07
1.633366443019152403e-07
1.253018978927025711e-07
9.774868516056759502e-08
7.726435170277718693e-08
6.151070070204663301e-08
4.896184718653777074e-08
3.869254465049011019e-08
3.015964234944563783e-08
2.305768229096110964e-08
1.721599598912974047e-08
1.252068409373546374e-08
8.862169054311406305e-09
6.111412213104373905e-09
4.115875384534945489e-09
