# bin_14_2
8.283392216266189886e-20
9.448045300053294225e-20
1.062322071499635414e-19
1.172972494936503042e-19
1.266307049260605422e-19
1.328922752425190140e-19
1.346995429386177370e-19
1.305696736214080946e-19
1.194799403620655720e-19
1.033803034735167212e-19
8.525026537539297127e-20
7.011497762643011527e-20
6.017615976202943050e-20
5.109292848142736073e-20
3.765915929311801781e-20
2.668649123202845080e-20
2.156631733581438390e-20
1.430165658874187248e-20
1.074155880352075642e-20
7.300258414216914905e-21
4.975098338843942528e-21
3.405526075597419634e-21
2.315079543904475409e-21
1.574583306228448280e-21
1.076340175220102110e-21
7.464330266653803957e-22
5.265601817331425376e-22
3.791985209114151534e-22
2.791494187698283114e-22
2.096010805132554385e-22
1.597007602937946282e-22
