# bin_13_6
8.550552787781390836e-11
9.740302420826698713e-11
1.093374754860123893e-10
1.204842866710442873e-10
1.297495464523752291e-10
1.357404248783546585e-10
1.371033694336482954e-10
1.322076948488968452e-10
1.203189121197195786e-10
1.035297530748720816e-10
8.516012803899321916e-11
7.023193448903326668e-11
6.047944204932644254e-11
5.092756292834738023e-11
3.698065533466980012e-11
2.660298320643832842e-11
2.131195509300558328e-11
1.411612075791232533e-11
1.054321556521709065e-11
7.234416288732523410e-12
4.925738775075725064e-12
3.370170075708823921e-12
2.294580129766632899e-12
1.567600042773634991e-12
1.078628828711843093e-12
7.539436402487468189e-13
5.365918667884949681e-13
3.900186999149327185e-13
2.895733204314775873e-13
2.189149846416932206e-13
1.675245187429786941e-13
