# bin_11_6
6.163650152470568414e-09
6.988805091744251592e-09
7.798646011682675989e-09
8.531611221108173583e-09
9.105284104650873326e-09
9.417074018217883365e-09
9.385812311156947774e-09
8.882460694234476031e-09
7.937879532780485395e-09
6.705752974570633753e-09
5.488447210212545904e-09
4.585808892988719488e-09
3.971241784325176150e-09
3.216309183129106899e-09
2.246499798169469969e-09
1.719942409019581016e-09
1.293389803018341891e-09
8.933926188474156759e-10
6.306885732428444005e-10
4.466292328748145925e-10
3.067710539579993537e-10
2.102448051574776795e-10
1.449608755680253440e-10
1.007812264047005025e-10
7.100373076487113428e-11
5.096513190288020779e-11
3.730777239507388585e-11
2.786489974996938220e-11
2.116374552588256052e-11
1.625239941951844873e-11
1.252726923436622641e-11
