# bin_4_1
7.779373054338308544e-08
8.258032916640379606e-08
8.496357680128843283e-08
8.412791664982514533e-08
7.916053425441790665e-08
7.043405171959867367e-08
5.944150956648064279e-08
4.881228838829459351e-08
4.087170537904166430e-08
3.502214425177835364e-08
2.803960740168675911e-08
2.012233916355067547e-08
1.534931045414928472e-08
1.154859533428711591e-08
8.254041919216786144e-09
6.029857427936596750e-09
4.371129944620167807e-09
3.181357948164257124e-09
2.345406308843657310e-09
1.756988214472941771e-09
1.339410158698410956e-09
1.037986583987600452e-09
8.146784445948577139e-10
6.433648917928913408e-10
5.077021862411702693e-10
3.976023338689433832e-10
3.070409935262485883e-10
2.325618889711331230e-10
1.720603476215336878e-10
1.240133188579832250e-10
8.701500831314160363e-11
