# bin_12_7
1.173048174619676121e-08
1.334147899587925649e-08
1.494536993700996604e-08
1.642780975753568288e-08
1.763624646597547139e-08
1.837785970923891010e-08
1.847936209280058806e-08
1.770362976764184788e-08
1.600677687529696803e-08
1.368132898048700709e-08
1.122687422037228867e-08
9.296449533361565914e-09
8.030731058149780816e-09
6.681938812964154637e-09
4.772837949683600520e-09
3.507339250566534944e-09
2.760079668663795004e-09
1.843270136350299627e-09
1.355574207953639787e-09
9.417672552036090803e-10
6.424179653311653493e-10
4.392375161792937379e-10
3.000083837860928812e-10
2.061711050678607426e-10
1.430411411209400715e-10
1.009440317488858444e-10
7.259695695271289668e-11
5.332320478745806618e-11
3.995576451831154072e-11
3.041343128624496377e-11
2.336218007457578858e-11
