# bin_10_7
4.848164713056932705e-07
5.476647963701515471e-07
6.083262461136632283e-07
6.617662195645597661e-07
7.013382947268900696e-07
7.191731668383346572e-07
7.089023673375164891e-07
6.615978225911231004e-07
5.835626830386771761e-07
4.874685116010844459e-07
3.990126029012908998e-07
3.371249587279940895e-07
2.908957635645057167e-07
2.271130680620712481e-07
1.576919785377155531e-07
1.251296553043608040e-07
8.885639723600439201e-08
6.436416394572404035e-08
4.410267484208714493e-08
3.118780602840575160e-08
2.163916298629245763e-08
1.498956770091466991e-08
1.045752092423793998e-08
7.367301395278986612e-09
5.278240421050398996e-09
3.855623183929668810e-09
2.871021261167548173e-09
2.175845234837059543e-09
1.669618690823159094e-09
1.288506305122632328e-09
9.926607263745382106e-10
