# bin_13_9
1.448988518559054270e-07
1.653135626149891116e-07
1.859364522008201595e-07
2.053845397755587234e-07
2.218352172235471029e-07
2.329470151183279909e-07
2.362767330338807915e-07
2.292655124852414185e-07
2.100156036547045959e-07
1.819110269163956367e-07
1.500810723346361175e-07
1.233714786167165497e-07
1.058142448525851511e-07
8.998459307284272983e-08
6.651438834289737374e-08
4.699867879858149745e-08
3.804447800447767414e-08
2.523455955166768052e-08
1.897316550496130561e-08
1.287090969496275387e-08
8.772598103842066481e-09
6.005710920493094253e-09
4.081723485882505304e-09
2.773821979032239187e-09
1.893722423457331628e-09
1.311286063223174555e-09
9.234326590896193332e-10
6.637909919005788812e-10
4.878243723540663818e-10
3.657834760661700732e-10
2.784540471084501206e-10
