# bin_4_2
9.341705681742311326e-07
1.000786898038471099e-06
1.041292897923603934e-06
1.045572800498683664e-06
1.001732852465476401e-06
9.074513057784183670e-07
7.780573971859407265e-07
6.410539490064288919e-07
5.308497195261162033e-07
4.547538797278739484e-07
3.772788692806011846e-07
2.767357214871845697e-07
2.033832942351870588e-07
1.587101946528823668e-07
1.114699936819807351e-07
8.250657852703815711e-08
5.911671594959472502e-08
4.279353002386291822e-08
3.127876471923868031e-08
2.317352113548376936e-08
1.746537556027105633e-08
1.338926247658820550e-08
1.042274562849807781e-08
8.191354645007065115e-09
6.456364301759712965e-09
5.068669950831633757e-09
3.936713969533440614e-09
3.007376363924277927e-09
2.249048746169096853e-09
1.640802267718863076e-09
1.165760986699671137e-09
