# bin_10_3
9.449443328736335723e-12
1.060716087980235326e-11
1.169242302891359111e-11
1.260052876591785528e-11
1.319768753629284811e-11
1.335026609850200458e-11
1.290770979748729189e-11
1.178658329795774028e-11
1.017741693834463816e-11
8.390644132270790598e-12
6.911184213710205676e-12
5.930206932169126582e-12
5.010214840531670138e-12
3.687002954575640059e-12
2.638178147087399437e-12
2.111849467779992629e-12
1.425029253563902225e-12
1.064441065291606192e-12
7.362008888631500697e-13
5.132704374927381814e-13
3.599004542309441850e-13
2.530749008077858953e-13
1.797419025922398594e-13
1.294302583531458160e-13
9.504693613404015795e-14
7.111999332527356551e-14
5.410240159002429318e-14
4.165835883613634995e-14
3.224790314149892121e-14
2.491626770824717721e-14
1.908373717015090916e-14
