# bin_4_3
3.399910098640473634e-06
3.673537989124950186e-06
3.863008318395843914e-06
3.928132156023291602e-06
3.828653043363105550e-06
3.532374860012187235e-06
3.082268611888225293e-06
2.561096103527999552e-06
2.104607808884619280e-06
1.787602561608270577e-06
1.520223904605995498e-06
1.159637069093389811e-06
8.263012481001958531e-07
6.522504710711713034e-07
4.640431166437942659e-07
3.414427383614657497e-07
2.429347399364798423e-07
1.756963381317942989e-07
1.273118008637204868e-07
9.328066833500742017e-08
6.946307432727772353e-08
5.261792415953732286e-08
4.054464947143048118e-08
3.164280140740205590e-08
2.485768944572470484e-08
1.952510264202974581e-08
1.522786110179522959e-08
1.171846448095780131e-08
8.851133556669856421e-09
6.534785949410981109e-09
4.703287389705969505e-09
