# bin_7_2
5.908444906355539283e-10
6.514216471846871860e-10
7.024322039196230445e-10
7.365081343725012405e-10
7.461199697488267878e-10
7.231850141793509967e-10
6.625543798414763390e-10
5.740502306281481242e-10
4.744608082482391089e-10
3.904295243495369803e-10
3.337485639132193793e-10
2.825954523068645396e-10
2.107533797790902589e-10
1.505146169003528880e-10
1.200128726061062134e-10
8.279782491019806006e-11
6.164004437143996697e-11
4.317655823367201224e-11
3.074774647067349896e-11
2.199167143242094520e-11
1.585131227163040984e-11
1.158818836295361444e-11
8.610872339575366852e-12
6.519772839200679117e-12
5.013665511677201482e-12
3.896155670844432574e-12
3.041023602415591510e-12
2.366913264181914987e-12
1.824917107648815739e-12
1.385784157549211910e-12
1.031746164491365156e-12
