# bin_7_1
5.829248358257008845e-12
6.408744772860232736e-12
6.886481195004654101e-12
7.188956496373886667e-12
7.245695848019300818e-12
6.972833743663530370e-12
6.340526903887889104e-12
5.453282119529945868e-12
4.492300176253955981e-12
3.709957864366392955e-12
3.183375325095074314e-12
2.665532951675994683e-12
1.953458173152466046e-12
1.418608469301672393e-12
1.121229331018508252e-12
7.717333959759688016e-13
5.734715673490957961e-13
4.046450780962866582e-13
2.879889981903141034e-13
2.065861427339240074e-13
1.496075100467175415e-13
1.099819809670255939e-13
8.222558943876295797e-14
6.261076999266939757e-14
4.836308010551965910e-14
3.769312663536506374e-14
2.945141044955594721e-14
2.290529939036781052e-14
1.761812994187463071e-14
1.332878051468654249e-14
9.875709023691694573e-15
