# bin_8_3
4.216470198438312617e-08
3.785317053861668665e-08
3.305557874457235404e-08
2.810123308610093495e-08
2.333217992769375828e-08
1.901921699547817363e-08
1.529347816773072504e-08
1.213931789990799018e-08
9.464004803076151804e-09
7.217047611133073983e-09
5.427385988780957807e-09
4.088562608426935365e-09
3.085081871371833672e-09
2.326811246631630525e-09
1.771580574795509759e-09
1.359831629272584680e-09
1.053419221220778281e-09
8.217513830152603025e-10
6.434821610117182388e-10
5.037316751704279435e-10
3.924919765135565923e-10
3.031237042985290711e-10
2.311749126201149779e-10
1.735614870173950962e-10
1.279755243905084337e-10
9.252239664191767612e-11
6.552934933951299742e-11
4.546259512020494565e-11
3.091644735646698293e-11
2.063624939502306660e-11
1.354523572221131859e-11
