# bin_8_5
5.554061780580915190e-08
5.115622328578333780e-08
4.587427632505545107e-08
4.002108602511548554e-08
3.399743480110133102e-08
2.821182473680137478e-08
2.298413298854821572e-08
1.846641787723742611e-08
1.464113094915284109e-08
1.140137739357829930e-08
8.685095762472185863e-09
6.519159228036655526e-09
4.896244634095329220e-09
3.682260231047132953e-09
2.763474547769872238e-09
2.092015727863857956e-09
1.594834955236466339e-09
1.226497441845728865e-09
9.495907386845150405e-10
7.382010305614689331e-10
5.740519979957610362e-10
4.447202584525253589e-10
3.418644854751346314e-10
2.598177304882828631e-10
1.946311617791905877e-10
1.433688869719357802e-10
1.036713525049663322e-10
7.351800897095324533e-11
5.111272048157809506e-11
3.485247045433154812e-11
2.333159530032966881e-11
