# bin_10_1
2.318426522155384805e-08
1.980671526541282592e-08
1.652002379061098654e-08
1.351787733405364404e-08
1.090406499361010796e-08
8.681672392496869043e-09
6.796429135767903861e-09
5.212752418231602251e-09
3.941676265516879303e-09
2.978665279237975244e-09
2.258567871801237287e-09
1.716051372701688912e-09
1.315099100381561935e-09
1.018124208097844760e-09
7.957516773490760836e-10
6.266131549823959039e-10
4.952901820222467299e-10
3.912044311632535895e-10
3.073266107595997574e-10
2.390786943777326460e-10
1.834641481442266906e-10
1.384402119057543580e-10
1.024811149008140864e-10
7.430510197907732232e-11
5.273265278917510887e-11
3.663497886915898005e-11
2.493930691185547941e-11
1.666279171319784732e-11
1.094930867272016176e-11
7.092378525744815227e-12
4.538971123507580623e-12
