# bin_8_7
6.417398084177589983e-08
5.990190518268924609e-08
5.448468037976491084e-08
4.822726692014107338e-08
4.154195262480103582e-08
3.488936330068888985e-08
2.868874393285247636e-08
2.321121090325887779e-08
1.853253245180889703e-08
1.457424109715894009e-08
1.122912506737447563e-08
8.477101734494326287e-09
6.346692235974217198e-09
4.763895884351366148e-09
3.567868481410606253e-09
2.676634241798503193e-09
2.025296825422994778e-09
1.542905338870626242e-09
1.184707793567342345e-09
9.149027078570906953e-10
7.084246139610896913e-10
5.479577180223224267e-10
4.217278209711163034e-10
3.217517465450762613e-10
2.425290484609893658e-10
1.801308489402854905e-10
1.315518135264564969e-10
9.433626599960204573e-11
6.637567577651722064e-11
4.581915460001749977e-11
3.104672625975009499e-11
