# bin_15_15
9.828794060057413348e-08
9.522666879687058048e-08
9.016154841826722364e-08
8.324199752583931187e-08
7.481390178485589387e-08
6.540671160006111080e-08
5.567315437149141992e-08
4.627851002660108591e-08
3.774961599476195543e-08
3.034546016652050911e-08
2.405382769049332028e-08
1.871596645296931406e-08
1.423173035784484086e-08
1.063443077848883016e-08
7.919437957466065487e-09
5.892297884064947590e-09
4.359285354495507751e-09
3.240073861474370229e-09
2.419630156337160017e-09
1.819431004106785789e-09
1.376735271224902044e-09
1.047033901997222889e-09
7.981941839966474340e-10
6.079677438855096843e-10
4.610940995447445764e-10
3.470333465274112329e-10
2.584380001794124477e-10
1.899834125831174102e-10
1.376116062433947287e-10
9.809322047457020798e-11
6.876664204505642360e-11
