# bin_9_11
3.492301189956485330e-08
3.947478476318761591e-08
4.388007830365767024e-08
4.777871947277901018e-08
5.069360319887651974e-08
5.205330158317623805e-08
5.140411675499860107e-08
4.807963661530014575e-08
4.249750011650402892e-08
3.555540672506965269e-08
2.909559759234316168e-08
2.453994051000320030e-08
2.119962488517191645e-08
1.665175863876581110e-08
1.155201550165887577e-08
9.129941928193843404e-09
6.538268484323977729e-09
4.704548504756011200e-09
3.229552672183420136e-09
2.288442246207272566e-09
1.585343519880376441e-09
1.096078350317638901e-09
7.633531215938172885e-10
5.366629537922712416e-10
3.835182110315319363e-10
2.794324851941715414e-10
2.075683818218087234e-10
1.569993509985323692e-10
1.203195083529188619e-10
9.281189457174241378e-11
7.152496210113040108e-11
