# bin_3_12
3.400818467189768500e-07
3.634399726906732939e-07
3.770330379645805671e-07
3.771943618303645517e-07
3.597200773587333382e-07
3.244386916861844363e-07
2.771480864693890340e-07
2.282473531468668333e-07
1.895572807565269122e-07
1.623040555760081159e-07
1.334254380142174936e-07
9.751119289388890452e-08
7.230905400967478370e-08
5.585008154840247189e-08
3.947691199222150632e-08
2.909067948955039372e-08
2.090280798264573120e-08
1.515649802563611732e-08
1.110041048837995399e-08
8.245223737945736552e-09
6.230714051491490533e-09
4.788440371108756051e-09
3.734352389233605303e-09
2.937773536179714660e-09
2.315725191189025500e-09
1.816517343834518348e-09
1.408580039808658733e-09
1.073619911916139769e-09
8.006911333806890466e-10
5.823906739581159741e-10
4.125356823090430324e-10
