# bin_9_13
6.021767143017960667e-08
6.810640470512255366e-08
7.576185495089753031e-08
8.256669167589868013e-08
8.770149624870672544e-08
9.017740292708505489e-08
8.921089578736120346e-08
8.363063605288481243e-08
7.407982152735189820e-08
6.209558855539728336e-08
5.081499800451168933e-08
4.277993239858018241e-08
3.697585264559645426e-08
2.922035316397336572e-08
2.029702544445916909e-08
1.594241348356113119e-08
1.152801326606365806e-08
8.228446151826611731e-09
5.678854977486948727e-09
4.023772565606696658e-09
2.782773371237871047e-09
1.920651331386202413e-09
1.334981985440747605e-09
9.364781486275252662e-10
6.673895463185355618e-10
4.848682775277190608e-10
3.591718200308715722e-10
2.710272583138954491e-10
2.073617844515588698e-10
1.598236580215521154e-10
1.231727444247048547e-10
