# bin_7_9
5.121832018829521759e-08
5.731424274961443460e-08
6.293880576671017542e-08
6.750864031496524777e-08
7.028871873276272116e-08
7.061650403547714486e-08
6.760875046388067711e-08
6.112023639223565590e-08
5.224647377642028914e-08
4.290144766528716732e-08
3.553468923864671243e-08
3.063898289406756332e-08
2.545050262596352951e-08
1.827896691540607228e-08
1.344774915841417978e-08
1.055720083455652159e-08
7.154984246326017079e-09
5.280284114513985190e-09
3.709229695053918535e-09
2.586797705939879642e-09
1.818398035024852105e-09
1.286587654314523075e-09
9.217048096805584136e-10
6.707316446843111784e-10
4.978447548012578588e-10
3.761470880607889480e-10
2.883816489570926478e-10
2.231354078715189759e-10
1.730109158852840249e-10
1.334707313984592544e-10
1.017933741287151719e-10
