# bin_14_4
1.697697521652152030e-25
1.930150846938976412e-25
2.161157699537126467e-25
2.374136301648296954e-25
2.546924632562336256e-25
2.651550714101200911e-25
2.663393500238934328e-25
2.547577996530558894e-25
2.299824073029348208e-25
1.962475014237124381e-25
1.609464394807423069e-25
1.334054655481929388e-25
1.153307085194751186e-25
9.568297481682269940e-26
6.806102868860976523e-26
5.028519733640610652e-26
3.939198353348370677e-26
2.636522550756607955e-26
1.931088924012725161e-26
1.345926602236915518e-26
9.186459846514529008e-27
6.279683922371393680e-27
4.292782563486011730e-27
2.954609712257315739e-27
2.054157180456256100e-27
1.453114333172628894e-27
1.047739936709050818e-27
7.715333121535307795e-28
5.793902344542483093e-28
4.417280363894354954e-28
3.396096403096943840e-28
