# bin_9_4
2.491580642196382064e-15
2.789161552516616431e-15
3.064259853189663861e-15
3.288558951261374908e-15
3.426292232865027141e-15
3.445149391603874219e-15
3.301557265182352346e-15
2.986753469523572618e-15
2.554509065807834134e-15
2.096836235959421958e-15
1.735117287475594395e-15
1.497141631158207957e-15
1.247187184214053317e-15
8.947155444560010122e-16
6.563803683813012642e-16
5.184273370803454352e-16
3.488518842166008664e-16
2.588527166296308891e-16
1.818566376938983864e-16
1.266067696182921384e-16
8.893788161740949745e-17
6.286233508697517972e-17
4.500651040637259550e-17
3.273095964355105878e-17
2.428212212568836337e-17
1.834002324981506534e-17
1.405922177748551290e-17
1.088000428495830527e-17
8.439217528663352341e-18
6.514172702029394726e-18
4.971435824700001921e-18
