# bin_6_14
1.532473118029099015e-07
1.704976048169678986e-07
1.859098695001759230e-07
1.976645737448935617e-07
2.035707977375253465e-07
2.018007568377359499e-07
1.898052882534561439e-07
1.686870835876874634e-07
1.419188860839287081e-07
1.162260776676394946e-07
9.751086758330547983e-08
8.414025548742281615e-08
6.714313526328728213e-08
4.712349496330166242e-08
3.647371793027198541e-08
2.697371886363077620e-08
1.910258002935021194e-08
1.355761727707146346e-08
9.687714964408630722e-09
6.825141478087541719e-09
4.835660387262533142e-09
3.465761908650127538e-09
2.520248897422586191e-09
1.865995171749925979e-09
1.407644274307149413e-09
1.078210246459217012e-09
8.347541274102965739e-10
6.489190073337325018e-10
5.029167338239757025e-10
3.859898460810456100e-10
2.917539500405532206e-10
