# bin_10_10
8.742349936328823393e-09
9.905711178580181282e-09
1.104377127396754356e-08
1.206863101327412156e-08
1.286274268480151393e-08
1.328067186135553253e-08
1.320895676975647238e-08
1.246608762361581662e-08
1.111188653991052064e-08
9.364196604451904397e-09
7.662293337316916854e-09
6.416129993141646450e-09
5.555728511039977359e-09
4.468951532807842205e-09
3.111731055286444593e-09
2.402859971852494746e-09
1.786407000982737212e-09
1.245755752892219576e-09
8.719167955760683440e-10
6.187178698833899016e-10
4.257925924162305966e-10
2.922828396769818694e-10
2.020117747208438681e-10
1.408193613451678623e-10
9.955412025819288150e-11
7.172341444419545127e-11
5.269764045189901551e-11
3.948932269973838873e-11
3.006670258410765899e-11
2.312115159216740335e-11
1.782546006562923465e-11
