# bin_8_10
4.240934516882776178e-08
4.772276829019608383e-08
5.276248451867445945e-08
5.706968579318408793e-08
6.005101601232052236e-08
6.106592960076340473e-08
5.949203264894853989e-08
5.476848231151335260e-08
4.767524293529092109e-08
3.946473295236714913e-08
3.239395317539652885e-08
2.765504861282411927e-08
2.361910631969761593e-08
1.775713933407427053e-08
1.248051437283770325e-08
1.005731454390107212e-08
6.841252332788594967e-09
5.109116792848638600e-09
3.495499272074666615e-09
2.445204973212263064e-09
1.710478113584489503e-09
1.197195570799684173e-09
8.446690420150353442e-10
6.031619236779731723e-10
4.390160758679548675e-10
3.257544976590906790e-10
2.460457241764044144e-10
1.885275580170596370e-10
1.456133138088464594e-10
1.125595289847606477e-10
8.645675719993473679e-11
