# bin_7_12
9.768490072075677134e-08
1.094081696464353757e-07
1.202749463922827683e-07
1.291811522083918029e-07
1.347301536602705090e-07
1.356254482726890314e-07
1.302170157145510473e-07
1.180629680773406390e-07
1.012189490114366007e-07
8.321056539639241410e-08
6.880803380143107935e-08
5.924575360156382214e-08
4.946176666940809473e-08
3.577971571196894328e-08
2.610414753197386824e-08
2.061606296009607041e-08
1.395024880431424890e-08
1.033474988660404415e-08
7.225789587184686399e-09
5.038469498620726083e-09
3.539253091289048971e-09
2.499635647603292278e-09
1.786207917044277927e-09
1.295844870011474779e-09
9.588694445841218440e-10
7.224656825173961636e-10
5.526672117422551571e-10
4.270386466482474485e-10
3.309598725258443415e-10
2.554344077977952101e-10
1.950461581298101061e-10
