# bin_5_1
2.552096831870211687e-15
2.744713823459174876e-15
2.869350964938796421e-15
2.897543964122085593e-15
2.796540847072950272e-15
2.550642521347711178e-15
2.200341713546626592e-15
1.814220026776634783e-15
1.494784089090501809e-15
1.280383257784735317e-15
1.078595578135179778e-15
7.970886886724951463e-16
5.746781094710073770e-16
4.583588705902539543e-16
3.167724737730545747e-16
2.377996121788495579e-16
1.689440711109076474e-16
1.219238012010565284e-16
8.891767390747900634e-17
6.563339627240231693e-17
4.926706854771437773e-17
3.761790444828656162e-17
2.919768125670315158e-17
2.290836117707831248e-17
1.805072346717830408e-17
1.418644347546489725e-17
1.104364821825158592e-17
8.464586688256827933e-18
6.355909010294356374e-18
4.657595416277378278e-18
3.323632788221823460e-18
