# bin_8_7
2.826992971175972662e-09
3.170408781743266968e-09
3.490857542130961478e-09
3.756721313467224807e-09
3.927787076946288191e-09
3.965181952050828430e-09
3.822063088259868258e-09
3.478160192782957075e-09
2.992856059265823200e-09
2.462458246163824234e-09
2.030719811322259764e-09
1.746899623794925358e-09
1.470216256630335435e-09
1.070792436736887144e-09
7.714798416101272436e-10
6.174043613194969467e-10
4.136167264211735355e-10
3.099353705639951813e-10
2.153397268725942885e-10
1.497540180221571500e-10
1.051332595194252130e-10
7.407161154863806383e-11
5.276152230684367602e-11
3.812956526316741112e-11
2.810959079546600985e-11
2.111018041995698865e-11
1.610894109095635282e-11
1.243092953183937684e-11
9.633331087015849664e-12
7.442866599119572288e-12
5.694520904538227848e-12
