# bin_9_15
7.803433382076543590e-08
8.827562190493974996e-08
9.822359515516316785e-08
1.070799532586406815e-07
1.137843726985426663e-07
1.170539947276801967e-07
1.158722852979556398e-07
1.087122098832982309e-07
9.637087357837572125e-08
8.083564595738950103e-08
6.615220144208750911e-08
5.565573603644019195e-08
4.811201509560866105e-08
3.810177841118491273e-08
2.648091277886036317e-08
2.075258770719173642e-08
1.505757313015233754e-08
1.071761839940991206e-08
7.411482512984599942e-09
5.250674161479778499e-09
3.629126667131963100e-09
2.503368412587015596e-09
1.738797057704587828e-09
1.218796199823543555e-09
8.677246712089564128e-10
6.297629041825270968e-10
4.660343724058647583e-10
3.513601799872275973e-10
2.686578352839103099e-10
2.070020584881944445e-10
1.595315433049217631e-10
