# bin_1_10
7.287720603740440206e-07
7.146523067232958439e-07
6.677069058771004307e-07
5.920570569068419274e-07
5.015563230521313327e-07
4.155658198918472723e-07
3.475267964416681913e-07
2.916250508864087712e-07
2.322986668929038185e-07
1.729037240166219387e-07
1.296254740512193642e-07
9.783661964674693676e-08
7.139519305361030048e-08
5.264213396336257473e-08
3.880256582796996495e-08
2.895133480676079843e-08
2.192482330172824934e-08
1.689896443833851764e-08
1.324278303486388125e-08
1.050852894905943400e-08
8.393807640205003296e-09
6.700150970250676513e-09
5.306860827763082550e-09
4.144256538026588399e-09
3.173714261006291837e-09
2.373771572115905598e-09
1.729881527637890654e-09
1.227446273063043259e-09
8.488470656953793859e-10
5.734238649340266825e-10
3.795104154764065607e-10
