# bin_3_8
2.707925689535667720e-07
2.892163018149024139e-07
2.998084422783007702e-07
2.996605887228036939e-07
2.854293244374469017e-07
2.571100595145524577e-07
2.193776763950895285e-07
1.805989788875856167e-07
1.500876476537780429e-07
1.285444848376516586e-07
1.054427775535769781e-07
7.689686810511170778e-08
5.716436348112222629e-08
4.407227406881060132e-08
3.116077471994549796e-08
2.295475831138834487e-08
1.650539316403969020e-08
1.197083209524329412e-08
8.772672680854286089e-09
6.521352771834352996e-09
4.932101197526887885e-09
3.793451959554063220e-09
2.960273226481565624e-09
2.329748808089594547e-09
1.836713964244183093e-09
1.440604288895548706e-09
1.116691877120420813e-09
8.506658768458043695e-10
6.339524415018121423e-10
4.607205978018427152e-10
3.260576237889503804e-10
