# bin_7_13
1.092025635905036639e-07
1.223215099283564687e-07
1.344888664908797841e-07
1.444715664477208492e-07
1.507090349251759394e-07
1.517473711224839930e-07
1.457468354283150196e-07
1.321908154194018121e-07
1.133722239344720981e-07
9.321528714101802883e-08
7.706578376175736630e-08
6.634418571021945548e-08
5.542149451371813953e-08
4.012649535417721216e-08
2.924633565377474071e-08
2.311338362375016833e-08
1.563814253567819727e-08
1.158992659929538239e-08
8.098890189504585150e-09
5.647273070115639753e-09
3.966530232288528695e-09
2.800775638168686164e-09
2.000777154458071417e-09
1.450959099308546330e-09
1.073236455236675124e-09
8.083558339430148037e-10
6.181983905157554447e-10
4.775899974038694545e-10
3.701152653465319735e-10
2.856690166237657408e-10
2.181649182309100091e-10
