# bin_9_2
5.144897870863755955e-22
5.739644030932071059e-22
6.279326679349804146e-22
6.703877347448679419e-22
6.938521220297903679e-22
6.922549893693645993e-22
6.562687973556445477e-22
5.875379089522447158e-22
4.973025463997190999e-22
4.071565761056013593e-22
3.395136239495488075e-22
2.937050248967050901e-22
2.390896697396152198e-22
1.680637851398318417e-22
1.277566843868615965e-22
9.726417285194465265e-23
6.721377069183692374e-23
4.837106154593023755e-23
3.457088594708341547e-23
2.421885973539857346e-23
1.706320240710486183e-23
1.215546473490336253e-23
8.784351139042834384e-24
6.458955914972760634e-24
4.842111681289626711e-24
3.690463467508254585e-24
2.848211137384468335e-24
2.212033440410936758e-24
1.716299484174703135e-24
1.321164491940151669e-24
1.003001224562811222e-24
