# bin_7_1
6.481736690002783148e-21
7.121251520149330474e-21
7.645503046981112749e-21
7.972227396638740048e-21
8.024959638492449747e-21
7.706344013565352467e-21
6.988599920214732607e-21
5.993134276209156111e-21
4.925892689391367084e-21
4.069755768761091357e-21
3.502327325279521133e-21
2.928271122700284774e-21
2.123213834636509262e-21
1.548353175010573913e-21
1.229180996262564290e-21
8.363830598600915981e-22
6.258145050287699226e-22
4.428687797913810980e-22
3.142657485083415943e-22
2.256892496332243594e-22
1.637124660023327013e-22
1.206110377425138987e-22
9.038701606524066636e-23
6.899120479239502486e-23
5.339866764857040245e-23
4.167971216018530307e-23
3.259347627307232853e-23
2.535229811453390015e-23
1.949014864268032172e-23
1.472887435168289057e-23
1.089542330642217470e-23
