# bin_2_14
5.168425357322431467e-07
5.360815870629289956e-07
5.363126406163134120e-07
5.121162343906163969e-07
4.630619324046339246e-07
3.970588258563673124e-07
3.282965708574525048e-07
2.725543883380051868e-07
2.319438675077949511e-07
1.907551487467438201e-07
1.419037429554416122e-07
1.048569344709727611e-07
8.063494945704976094e-08
5.804160017626519000e-08
4.268953746592558862e-08
3.099082270077511863e-08
2.273966518675951477e-08
1.686039319095463412e-08
1.270120549426898008e-08
9.738590993794771335e-09
7.587532352579986756e-09
5.984521296652543918e-09
4.747398781157553560e-09
3.760845685716192418e-09
2.954832615520832191e-09
2.287913594025651756e-09
1.736580503610835661e-09
1.286996920610341349e-09
9.290365505411334562e-10
6.529018792224213650e-10
4.472448679705460538e-10
