# bin_7_10
6.963819960581593538e-08
7.796321782970102632e-08
8.566348082231681535e-08
9.194904490549181200e-08
9.582251464228211583e-08
9.637056921618863744e-08
9.240529908411580983e-08
8.366630717817964534e-08
7.163106850728160971e-08
5.885418680466362985e-08
4.870437796467394694e-08
4.196390013368730170e-08
3.495283942377301907e-08
2.519893939951706555e-08
1.845505955409264526e-08
1.453661818461610370e-08
9.841781080141025772e-09
7.279298731270823018e-09
5.100403841247727539e-09
3.556505788053188053e-09
2.499137437471791410e-09
1.766547304342565074e-09
1.263844188917711409e-09
9.182049455440324475e-10
6.804177543129607833e-10
5.133367979511750775e-10
3.931023280544125785e-10
3.039449526408952493e-10
2.356139157099639427e-10
1.818109132841328380e-10
1.387508541551828837e-10
