# bin_13_6
7.140202271903970155e-16
8.132550101784572348e-16
9.127313682518932000e-16
1.005556931315803103e-15
1.082582959306350259e-15
1.132169464306430250e-15
1.143082467211900482e-15
1.101618087475343453e-15
1.001950788257879869e-15
8.616086065174686806e-16
7.085516303698277037e-16
5.845411834820957491e-16
5.035421526572460115e-16
4.235911286020268915e-16
3.070928857629734483e-16
2.213197722462582125e-16
1.770719109830484954e-16
1.173195450021510604e-16
8.753647651675120187e-17
6.013155382026102477e-17
4.094416560822255687e-17
2.801168704419457518e-17
1.907578607704602828e-17
1.303882602428214932e-17
8.978403853463231543e-18
6.281262846779726069e-18
4.474807004177075421e-18
3.255734069136127091e-18
2.419422362048182815e-18
1.830333737405575925e-18
1.401246998304305811e-18
