# bin_7_6
3.562697237471628206e-11
3.977602323300823099e-11
4.355747645766721291e-11
4.655824289314649419e-11
4.826422118541027599e-11
4.823857523152660396e-11
4.585645723966682657e-11
4.116870987158497606e-11
3.495363764986648540e-11
2.865232172103118522e-11
2.384904845469192551e-11
2.059712248840938210e-11
1.685478015928404930e-11
1.194995678677452652e-11
8.987557613652045661e-12
6.898827166592013595e-12
4.746978894554316017e-12
3.444552775168594480e-12
2.443834743217287012e-12
1.710174871009157234e-12
1.204821526285375847e-12
8.566127929589871523e-13
6.173821698797232146e-13
4.525067120775687748e-13
3.381788761193476669e-13
2.570424119432711097e-13
1.979533397232500846e-13
1.535376675494484790e-13
1.190808710807752515e-13
9.170886521730428604e-14
6.970888120495774448e-14
