# bin_10_1
3.809940891251968342e-21
4.266833247756460965e-21
4.690176273134762856e-21
5.036881067320885835e-21
5.252460110102314455e-21
5.286419216133612689e-21
5.074440753636690376e-21
4.599664075720048807e-21
3.942523989542914601e-21
3.240852187496823054e-21
2.680325867096857362e-21
2.308070849881640549e-21
1.925953269669018074e-21
1.392485721270065753e-21
1.016741794016547535e-21
8.023823555319121367e-22
5.432015567498891346e-22
4.021563309806492132e-22
2.813083149083842467e-22
1.961704874071635577e-22
1.377974681705796632e-22
9.732991988412126279e-23
6.956137540981022159e-23
5.047698654048291640e-23
3.735821637741823980e-23
2.815335824382587465e-23
2.154025937326815998e-23
1.664575874364782252e-23
1.290137227515504004e-23
9.957276419568248076e-24
7.602912620022666217e-24
