# bin_14_13
2.639572594542388856e-11
3.022386421353841462e-11
3.414901028530804476e-11
3.792788756701736264e-11
4.124270000683388102e-11
4.367439853376901411e-11
4.472603453298310838e-11
4.400877860085334445e-11
4.095894807747142278e-11
3.603204133478210098e-11
3.001234354663442722e-11
2.456016809344537929e-11
2.081484816631541304e-11
1.796960465155601069e-11
1.389079716704547956e-11
9.592578245059157816e-12
7.704397191645120553e-12
5.346554025788624599e-12
3.923694310678568366e-12
2.622136096676715600e-12
1.826061427565064472e-12
1.243649695343956928e-12
8.389283857204050427e-13
5.639303167219865737e-13
3.787622355401817580e-13
2.566217335293831781e-13
1.761305705608452813e-13
1.230183626808751061e-13
8.783610832249397552e-14
6.418823999939490298e-14
4.791868576128330238e-14
