# bin_7_1
9.323098045801094985e-17
1.024605795924821591e-16
1.100470036152925642e-16
1.148130973181097481e-16
1.156396039897591989e-16
1.111772157667303223e-16
1.009936240385449355e-16
8.677515451457707889e-17
7.145314965282281582e-17
5.903971678916372009e-17
5.068391802292685483e-17
4.237170134212362699e-17
3.098026387224143781e-17
2.255170360601678638e-17
1.779906296230078480e-17
1.225019926860278892e-17
9.098921022685443238e-18
6.426981959703468187e-18
4.574013349636971640e-18
3.282432488388380666e-18
2.378632631093340224e-18
1.749944028274962623e-18
1.309386411878841187e-18
9.977846727104261784e-19
7.711823264082860120e-19
6.012689465471118399e-19
4.698595780547095438e-19
3.653828095585839246e-19
2.809497953507028252e-19
2.124409476172259644e-19
1.573007892655662836e-19
