# bin_8_8
3.807959954246260987e-11
4.287965213162228860e-11
4.744686027439585381e-11
5.137215391379985941e-11
5.412459580091482926e-11
5.511975036291741953e-11
5.381263690866924685e-11
4.965826196633308146e-11
4.332805623566119377e-11
3.591876548323947767e-11
2.946365420689354589e-11
2.510997291140099640e-11
2.149358279481573456e-11
1.626656027001595071e-11
1.139582582181835876e-11
9.171977043147651734e-12
6.277045352094374800e-12
4.670004423323416599e-12
3.191636282750522992e-12
2.236591050178276875e-12
1.562636802012867951e-12
1.091862625108019625e-12
7.688054999625456012e-13
5.476746325604818634e-13
3.975359644282252387e-13
2.941942792391014935e-13
2.216909547026367471e-13
1.695751940673695945e-13
1.308537561516494826e-13
1.011414940730148397e-13
7.773985464730143740e-14
