# bin_2_1
1.201302541555368717e-10
1.220221137696649940e-10
1.188804156688881975e-10
1.099308755701188145e-10
9.627521440983328341e-11
8.052142592588273602e-11
6.640692667438688847e-11
5.602357504804368376e-11
4.722244092446623485e-11
3.664969173929806862e-11
2.667370089994629853e-11
2.047972519897458975e-11
1.513239895403060942e-11
1.102732887602866188e-11
8.078633172047691919e-12
5.935174194342804803e-12
4.404372577769629715e-12
3.320501634133462122e-12
2.548406050652009552e-12
1.988813140437701732e-12
1.572518004818319298e-12
1.252106363791683445e-12
9.966892006870023871e-13
7.875535549198323288e-13
6.137256294046258416e-13
4.690424852561481991e-13
3.500598382004660564e-13
2.544672824909964658e-13
1.800261583904905544e-13
1.240914722507897283e-13
8.353931482744093694e-14
