# bin_15_8
4.413233422641591758e-15
5.048804641616306053e-15
5.698285228953745435e-15
6.320561525427942862e-15
6.861916109151169883e-15
7.251982357265330373e-15
7.409395677310422966e-15
7.266681593455021130e-15
6.736975058540560951e-15
5.904771105662164026e-15
4.905697292537374765e-15
4.017539082411522907e-15
3.415408956463297740e-15
2.940547157801067330e-15
2.248458625713480224e-15
1.557904772683476288e-15
1.257579702152725552e-15
8.598600006531153314e-16
6.373516896844408312e-16
4.265101409261254902e-16
2.948978781253421753e-16
2.012788295931621483e-16
1.361501686135534880e-16
9.174752836983615912e-17
6.184653361591462941e-17
4.211883038736890452e-17
2.908850588727362001e-17
2.046339986703785656e-17
1.472088578041821036e-17
1.083302781087039562e-17
8.132779523355849854e-18
