# bin_8_3
2.454561145580931669e-14
2.729241519793285659e-14
2.973787849289721142e-14
3.158938510119914553e-14
3.249606619770175967e-14
3.216774169057327908e-14
3.019831465790497217e-14
2.678878962812273869e-14
2.249897464768572072e-14
1.842147813696092683e-14
1.547795959677293297e-14
1.335554317834926625e-14
1.060754359026498680e-14
7.427435885362009653e-15
5.782723954707793593e-15
4.244879195202990289e-15
3.023834251816806318e-15
2.135699350433399878e-15
1.528505913833998312e-15
1.078220050515972211e-15
7.646749749279972637e-16
5.488322487706538334e-16
3.997324155032189549e-16
2.964930804179306184e-16
2.240290878877285668e-16
1.718335128038457592e-16
1.331613948598967981e-16
1.035627174116221668e-16
8.025740996920346879e-17
6.156650372459474289e-17
4.649472293996131482e-17
