# bin_10_5
1.064277911203344525e-13
1.197880743763880990e-13
1.324732744393042372e-13
1.433346443454185908e-13
1.508848779925463393e-13
1.535082526853387829e-13
1.496564187308339799e-13
1.378854287963452856e-13
1.201226825728900567e-13
9.949015608269207085e-14
8.165080197332639635e-14
6.966318125679094053e-14
5.953286211845789251e-14
4.486174205825889836e-14
3.150725927641462488e-14
2.536587979178566747e-14
1.730036500066916550e-14
1.289521115453473037e-14
8.824011209392571741e-15
6.176481771298406881e-15
4.318293656300509323e-15
3.020390508473555791e-15
2.129440195978677909e-15
1.519364944560911144e-15
1.104803393267329643e-15
8.190065765090224737e-16
6.180961758445062896e-16
4.733119734120583318e-16
3.654465989832354270e-16
2.824767529080275549e-16
2.170184040658337416e-16
