# bin_13_3
2.444942725436135316e-21
2.782244270318159233e-21
3.118937337680930785e-21
3.431278564112113055e-21
3.687648265889630426e-21
3.847984543264569788e-21
3.875286932191564905e-21
3.721011920016909274e-21
3.371912666100672764e-21
2.888689631893929270e-21
2.372283954950213916e-21
1.961511759284117233e-21
1.692770958578081223e-21
1.414529578532194194e-21
1.015973646078395986e-21
7.409841106891203867e-22
5.870339622634490933e-22
3.906410368921987210e-22
2.890138952961697091e-22
1.999210513625835261e-22
1.362637040489784821e-22
9.318478681545430894e-23
6.356811172250456512e-23
4.359433282056641194e-23
3.015872875470378821e-23
2.121305464139117057e-23
1.520181097679394164e-23
1.112649186011218748e-23
8.311844276606293208e-24
6.312758317080147507e-24
4.843473078416045795e-24
