# bin_8_5
3.962536484720363139e-12
4.428165606253574679e-12
4.854719450423591016e-12
5.196580582041470269e-12
5.396660411648388867e-12
5.405379300821108161e-12
5.153515025314009143e-12
4.639830755539762313e-12
3.950236824713399006e-12
3.240161108427904182e-12
2.691438028157956022e-12
2.323226577439303957e-12
1.913147838933332492e-12
1.363133231746221849e-12
1.016062251261394394e-12
7.873868485638721228e-13
5.382013264107602973e-13
3.932490411439145382e-13
2.779633676612278454e-13
1.942252420351647759e-13
1.366862384600412177e-13
9.698033606986092535e-14
6.972187397463174350e-14
5.095286235382992342e-14
3.797328261348347284e-14
2.879342359042342911e-14
2.213511531403931326e-14
1.715274445858735159e-14
1.330269776908702071e-14
1.025271768846371104e-14
7.804308745638415890e-15
