# bin_7_5
-2.165723484084484726e-09
-2.412158684440433312e-09
-2.633719655164873737e-09
-2.804830666810066898e-09
-2.894001770750340042e-09
-2.876339450753506785e-09
-2.713082855221580079e-09
-2.417339759955732617e-09
-2.036867058651508195e-09
-1.666657784272075135e-09
-1.395202102159289381e-09
-1.206981077072594739e-09
-9.706199815219194949e-10
-6.781311230443831744e-10
-5.236514790889876541e-10
-3.908738940895103536e-10
-2.745498955836124687e-10
-1.947757233357086066e-10
-1.398550948081655856e-10
-9.832769263108325398e-11
-6.946255068355736912e-11
-4.968290597337020669e-11
-3.605649152300026426e-11
-2.664045359379585915e-11
-2.006095718688418198e-11
-1.534682152249055728e-11
-1.187520449903360374e-11
-9.233612113780859169e-12
-7.162626177802002390e-12
-5.505349555464239921e-12
-4.169026644780844697e-12
