# bin_6_13
-9.857329192612004174e-16
-1.119993319859546349e-15
-1.253018840270295703e-15
-1.375135645597754708e-15
-1.473397086452602921e-15
-1.531502875563749597e-15
-1.535538428767230681e-15
-1.464988403165781504e-15
-1.319200681685245815e-15
-1.122818242779188812e-15
-9.201951075913614693e-16
-7.641149079927637488e-16
-6.611419909146578593e-16
-5.455913711628841243e-16
-3.859180983009291605e-16
-2.876674715029376097e-16
-2.233352347803385910e-16
-1.503840539852188962e-16
-1.092106569365114500e-16
-7.649345586387972165e-17
-5.227698272167217934e-17
-3.573364209795318851e-17
-2.447115172062543577e-17
-1.688306278482401354e-17
-1.177574712679565154e-17
-8.360110346228529526e-18
-6.050994326734724044e-18
-4.472367150117292944e-18
-3.368959878020252666e-18
-2.573991633389912422e-18
-1.980900880140862601e-18
