# bin_15_2
-3.384336040377878621e-34
-3.854211612967755526e-34
-4.324942323182748658e-34
-4.763835846582964906e-34
-5.127465852057613252e-34
-5.360625799859231208e-34
-5.410386901203187592e-34
-5.211257928095160795e-34
-4.736965885101590150e-34
-4.070959055734192461e-34
-3.346755606774263951e-34
-2.761745725465195138e-34
-2.380057629605493805e-34
-2.000524729913032098e-34
-1.447706900356557212e-34
-1.045043358934801849e-34
-8.355517066426471368e-35
-5.532856792514146431e-35
-4.127203068019425069e-35
-2.838174168934334072e-35
-1.932178017048090905e-35
-1.321770684852869875e-35
-9.001690056139966973e-36
-6.155776250839844126e-36
-4.241750899968343109e-36
-2.970027515464932557e-36
-2.117855774568966355e-36
-1.542400347752814996e-36
-1.147239528923638615e-36
-8.685460550364781773e-37
-6.652592237904157778e-37
