# bin_8_11
-6.746096256753365092e-10
-7.651729492852426057e-10
-8.541783239632419346e-10
-9.349117559186292464e-10
-9.983735492389870444e-10
-1.033322964200584097e-09
-1.030851264627745731e-09
-9.767013958925341449e-10
-8.737665523315880642e-10
-7.388239738897600058e-10
-6.047034343362182566e-10
-5.047753699543412233e-10
-4.372352460417855354e-10
-3.552077556796311691e-10
-2.482321252660757601e-10
-1.894337572880096354e-10
-1.431713104865746765e-10
-9.844113291131357165e-11
-6.972551349658289047e-11
-4.938116887301266491e-11
-3.388891598641841799e-11
-2.320131319536761090e-11
-1.598069445070566703e-11
-1.109875219997192695e-11
-7.808827885283607465e-12
-5.596977935795358743e-12
-4.091271092323375390e-12
-3.051948996121917547e-12
-2.315957903011261515e-12
-1.777770014178784474e-12
-1.370394119705478360e-12
