# bin_11_3
-5.529205774741314129e-21
-6.230016027375768994e-21
-6.898647114779437352e-21
-7.476064432091453476e-21
-7.885387005345613847e-21
-8.039983235240992303e-21
-7.863439026486809656e-21
-7.269107725781815154e-21
-6.353611875677911214e-21
-5.270091414305902124e-21
-4.318502484847713317e-21
-3.676939618350808756e-21
-3.157153352289320931e-21
-2.399258791427861622e-21
-1.671063096883710722e-21
-1.350888956999006830e-21
-9.228780157916704099e-22
-6.892192906542846992e-22
-4.683433961501853445e-22
-3.282803928488691636e-22
-2.294273973897935257e-22
-1.602846959494884974e-22
-1.127182429393541555e-22
-8.015227563522672354e-23
-5.807492626580093380e-23
-4.290573077795597620e-23
-3.228705796334852817e-23
-2.467617372952265614e-23
-1.903739640320664283e-23
-1.472056829073324492e-23
-1.132494256544842172e-23
