# bin_6_9
-3.015231500189991808e-10
-3.391629971306585412e-10
-3.747964529472746565e-10
-4.051456154981769169e-10
-4.259837801128287763e-10
-4.327779351598637500e-10
-4.210658638374861676e-10
-3.869522274687391793e-10
-3.362644910961539286e-10
-2.779472662776394170e-10
-2.281627946383320097e-10
-1.951099571113021725e-10
-1.665450368958583297e-10
-1.244906809891815635e-10
-8.750936297357499553e-11
-7.089049366396938021e-11
-4.771963469515749424e-11
-3.593653674342116764e-11
-2.456703687862038063e-11
-1.712195996866593500e-11
-1.199855797700749723e-11
-8.413006667658684432e-12
-5.944141124862412154e-12
-4.251981300126009098e-12
-3.101294048963526457e-12
-2.305993320000916452e-12
-1.745130965158926648e-12
-1.339278240661884075e-12
-1.035514211411541290e-12
-8.008342274824372233e-13
-6.150543018353693335e-13
