# bin_10_3
-7.451888062935565765e-19
-8.365716612821110319e-19
-9.222785292787440932e-19
-9.940513169221382934e-19
-1.041344777696871245e-18
-1.053573684429810135e-18
-1.018807235109734695e-18
-9.301328980810860310e-19
-8.029800664826531525e-19
-6.615186733382391552e-19
-5.445400400165302802e-19
-4.676655507323897779e-19
-3.957474627862561191e-19
-2.905490705405577910e-19
-2.073532720350261397e-19
-1.670836329039205441e-19
-1.116903563723227199e-19
-8.411048233776260433e-20
-5.810010432037712981e-20
-4.038216412778217961e-20
-2.833955388739521268e-20
-1.993225078244577897e-20
-1.415840188687943006e-20
-1.019711911299531526e-20
-7.491351875621382021e-21
-5.608221931059563328e-21
-4.268707464498316374e-21
-3.288888491124960259e-21
-2.547466934956218528e-21
-1.969329513644489188e-21
-1.508941263747208244e-21
