# bin_11_15
-2.795637331647831329e-10
-3.199296162772242430e-10
-3.612328122866999706e-10
-4.008766847843375567e-10
-4.354722891026326085e-10
-4.605688794151904078e-10
-4.709633777957002114e-10
-4.624550112858214240e-10
-4.293415311447166173e-10
-3.768131789643056269e-10
-3.133175301197536443e-10
-2.564988685519389380e-10
-2.178253834509201299e-10
-1.877753296110793754e-10
-1.441305851074323496e-10
-9.968401090798296214e-11
-8.039136011021224232e-11
-5.520589542161017573e-11
-4.082488151611470424e-11
-2.727250059183231433e-11
-1.890101835828682021e-11
-1.289346668888534991e-11
-8.715892649126489849e-12
-5.868126321238257887e-12
-3.950162249063968284e-12
-2.685116703219526982e-12
-1.850261877067347813e-12
-1.298305902064608078e-12
-9.315290790362100691e-13
-6.838779871740365747e-13
-5.124720030690564399e-13
