# bin_11_9
-3.887528717309694114e-09
-4.415482922544071644e-09
-4.937714376973285313e-09
-5.415970747977373100e-09
-5.799024530498194562e-09
-6.022466936432642371e-09
-6.032230611272295176e-09
-5.746928980139615815e-09
-5.168034812583408832e-09
-4.392640336648397858e-09
-3.598768097530425177e-09
-2.991452669772063917e-09
-2.589211494100927607e-09
-2.130183043518773052e-09
-1.502548391987997505e-09
-1.125461197924213134e-09
-8.692291110281524882e-10
-5.875262644090572541e-10
-4.245551864108088907e-10
-2.981302016064344786e-10
-2.039084881474048030e-10
-1.393985873530901837e-10
-9.556870856375526899e-11
-6.602392232173847549e-11
-4.613349545292684276e-11
-3.281737863329948201e-11
-2.380263452854294958e-11
-1.762782317579357895e-11
-1.330031093906793947e-11
-1.017282462887031680e-11
-7.832307002657129563e-12
