# bin_3_8
-1.485646855323631376e-14
-1.652754294925615999e-14
-1.801963549848728772e-14
-1.915593895318905660e-14
-1.972095898164903904e-14
-1.954556329155724439e-14
-1.836916595195932716e-14
-1.631079241288778912e-14
-1.370075734095007753e-14
-1.120819405368653206e-14
-9.409793904911000215e-15
-8.136842281614931872e-15
-6.483239578582909290e-15
-4.515736259903741785e-15
-3.524306880566483817e-15
-2.592194075809354011e-15
-1.843660393292532652e-15
-1.295916016750128437e-15
-9.321551152365334706e-16
-6.571804079635676888e-16
-4.653956132855259270e-16
-3.338568924459454098e-16
-2.430262910298881885e-16
-1.801746645713783685e-16
-1.360972408108587468e-16
-1.043785657633576179e-16
-8.090290514764635037e-17
-6.294784255550909617e-17
-4.881318951253659573e-17
-3.747338115121734290e-17
-2.832292131607002335e-17
