# bin_2_5
-3.343959963772112056e-11
-3.625444191935738933e-11
-3.828587237334909984e-11
-3.911801116186137608e-11
-3.838407116635520924e-11
-3.565596406265611963e-11
-3.131544415897583707e-11
-2.609247321194460116e-11
-2.137259681096587138e-11
-1.808839383863636807e-11
-1.553385949620143671e-11
-1.202879377462284627e-11
-8.440521579093671783e-12
-6.712618538464272966e-12
-4.790108139352253088e-12
-3.525948881590553142e-12
-2.487963105363705265e-12
-1.804252545048924953e-12
-1.304209779278633143e-12
-9.518842379140071295e-13
-7.059277704848576788e-13
-5.324739835547349383e-13
-4.088348601989384966e-13
-3.182996449846450296e-13
-2.497752221282339333e-13
-1.962609049758891252e-13
-1.533247400853534896e-13
-1.183233195479891664e-13
-8.970578551986010519e-14
-6.652105233662140344e-14
-4.809922250762527090e-14
