# bin_5_8
-1.973205687154600885e-10
-2.206697130740910147e-10
-2.421426509204727514e-10
-2.594786033909074823e-10
-2.698322706705754368e-10
-2.707200751762720282e-10
-2.586308419058601490e-10
-2.332529267284922704e-10
-1.988790693429504662e-10
-1.630929171624106832e-10
-1.352387165156393184e-10
-1.168215947145949911e-10
-9.671586949594687968e-11
-6.890920570176099130e-11
-5.107475579654958082e-11
-3.995964314151495512e-11
-2.704912568129166802e-11
-1.991047425116149053e-11
-1.406711920568265718e-11
-9.807618788759392452e-12
-6.892731122485453027e-12
-4.881717026839763806e-12
-3.504439363974432877e-12
-2.556867195100968486e-12
-1.902786838691774205e-12
-1.441143500445975010e-12
-1.107136286405777721e-12
-8.578390882011313798e-13
-6.655778163691154308e-13
-5.134311932811522182e-13
-3.912953658933355018e-13
