# bin_5_9
-9.690742285535698149e-12
-1.087734536076646616e-11
-1.198935695844349858e-11
-1.291921865058541646e-11
-1.352968658488863718e-11
-1.368378526342025811e-11
-1.322540806429651268e-11
-1.206767947802931052e-11
-1.041220008112515979e-11
-8.575603072832793348e-12
-7.060937694499905952e-12
-6.066211423799723240e-12
-5.129336136481237637e-12
-3.760208512012673225e-12
-2.687232634827697266e-12
-2.163969848242988439e-12
-1.446045615821291490e-12
-1.088725448494360382e-12
-7.527452469683601166e-13
-5.231168055931547483e-13
-3.671506126574387196e-13
-2.582976206074031761e-13
-1.835590768602407428e-13
-1.322784767548955733e-13
-9.723704584080360253e-14
-7.283474821611106484e-14
-5.546407663061774513e-14
-4.274638304200880793e-14
-3.311433872856112109e-14
-2.559797051428634240e-14
-1.960970503754413145e-14
