# bin_5_14
-3.142974706205469939e-20
-3.575574561112028018e-20
-4.006794404440894937e-20
-4.406061630820619821e-20
-4.732605609268016912e-20
-4.934845666961856386e-20
-4.965857920043539932e-20
-4.762326562967727360e-20
-4.310027971783070543e-20
-3.687441395203118573e-20
-3.026499344825828939e-20
-2.504192344108920216e-20
-2.162824120561224726e-20
-1.803575469104346532e-20
-1.290583890850370195e-20
-9.451353931784894644e-21
-7.467053536615556427e-21
-4.971353932134924971e-21
-3.670153603940673233e-21
-2.545224955852161413e-21
-1.735059386225199348e-21
-1.186200339296915181e-21
-8.094927238614500720e-22
-5.557590281950120169e-22
-3.850907587912211128e-22
-2.713710551671592098e-22
-1.948683481821051722e-22
-1.429237051592932400e-22
-1.069664478851069110e-22
-8.135652975833079311e-23
-6.247587124737491431e-23
