# bin_15_13
-5.748274486327809826e-09
-6.589108933264594636e-09
-7.454490156696936975e-09
-8.292411675814555380e-09
-9.034555706946100455e-09
-9.590211170021260356e-09
-9.849408284472697092e-09
-9.729294200264896431e-09
-9.098365361721966173e-09
-8.039776046446101325e-09
-6.720524180056694421e-09
-5.496990552217171427e-09
-4.640238393880801139e-09
-4.014269882397985757e-09
-3.145720225705403330e-09
-2.169880329420209234e-09
-1.725190819902556519e-09
-1.223531283452008669e-09
-8.824640138459356715e-10
-5.928687254802463273e-10
-4.162739128882886163e-10
-2.825975554816587429e-10
-1.897726919039537431e-10
-1.271878498921174392e-10
-8.508066860773997746e-11
-5.729187914049028330e-11
-3.902523459163225580e-11
-2.701326240817063980e-11
-1.910119477625590538e-11
-1.382724023885584202e-11
-1.023944757114922723e-11
