# bin_4_9
-7.639275817667331244e-14
-8.556761464960519131e-14
-9.407558646143036670e-14
-1.010528368020800081e-13
-1.054060482098018687e-13
-1.061248125891518543e-13
-1.018940538958575218e-13
-9.234911650196691140e-14
-7.913472092523307764e-14
-6.499719910383018172e-14
-5.371975371069968078e-14
-4.631672804918545921e-14
-3.872152801752571319e-14
-2.789990141243409990e-14
-2.034350538582734859e-14
-1.615277329385615423e-14
-1.083705948726540925e-14
-8.076374195978664745e-15
-5.654199420461427976e-15
-3.933268704137666513e-15
-2.762323987201121862e-15
-1.950113629450921834e-15
-1.393846318131528939e-15
-1.011656685448900470e-15
-7.490335999484542584e-16
-5.647514278018941060e-16
-4.323487572855203472e-16
-3.343235443003059460e-16
-2.592831797967390068e-16
-2.002269655320789701e-16
-1.529506820713553935e-16
