# bin_10_4
-1.045806468575218373e-15
-1.175835992829179945e-15
-1.298679507578918949e-15
-1.402916573116058313e-15
-1.473856325807162993e-15
-1.495966101240111472e-15
-1.453479689705483081e-15
-1.333708766377411446e-15
-1.157263336531953270e-15
-9.557808778966690051e-16
-7.850245013326654860e-16
-6.720052563195911535e-16
-5.725960492964587374e-16
-4.262202675432654242e-16
-3.005158229194496327e-16
-2.433318135043340419e-16
-1.633783520235710852e-16
-1.231476382332506445e-16
-8.436739893436432792e-17
-5.874087149104285651e-17
-4.118279938173116470e-17
-2.889770807308741039e-17
-2.044213406420772368e-17
-1.464539006774868356e-17
-1.069987104071946368e-17
-7.968665462362372800e-18
-6.038817218614761588e-18
-4.638888592313753686e-18
-3.588423463052795274e-18
-2.775064142233078967e-18
-2.130237373207216227e-18
