# bin_10_7
-4.346879065730397543e-10
-4.912478424105848665e-10
-5.459294574265164885e-10
-5.942430844648752501e-10
-6.302377204677531252e-10
-6.467639579425337158e-10
-6.382861472904214126e-10
-5.964114550595937927e-10
-5.266636133972689005e-10
-4.401316800765563381e-10
-3.600514673177099018e-10
-3.039563572043964718e-10
-2.627242768510628273e-10
-2.057714241886386408e-10
-1.423593983807889388e-10
-1.131238449082998260e-10
-8.049805782424668319e-11
-5.828029500637166918e-11
-3.973243893224548144e-11
-2.820288534792640052e-11
-1.955761155476733994e-11
-1.353425581321943845e-11
-9.435810441157111506e-12
-6.640264045142487407e-12
-4.751688512602297231e-12
-3.466979019734450219e-12
-2.579064809015707728e-12
-1.953348175208484763e-12
-1.498603117643014518e-12
-1.156840125251481503e-12
-8.918205871184642213e-13
