# bin_15_2
2.067580807721468485e-36
2.354146561689244366e-36
2.640956019332701186e-36
2.908007320864473692e-36
3.128712600596434687e-36
3.269307096298148002e-36
3.297731892763068056e-36
3.173664068535023272e-36
2.882311728312323825e-36
2.474873037469010883e-36
2.033899961961514529e-36
1.679221682056108644e-36
1.447823933864551647e-36
1.215119478006427199e-36
8.773331200306889260e-37
6.350608128655461391e-37
5.066782362623235565e-37
3.357672140986387825e-37
2.500233490723076686e-37
1.722163532581366485e-37
1.172638090589639212e-37
8.020805912440176841e-38
5.464321444709709591e-38
3.739611658194553395e-38
2.579699416733368514e-38
1.808582852109980208e-38
1.291477112345769801e-38
9.419145009687260350e-39
7.014935870257867888e-39
5.316018144293935836e-39
4.074112403272345877e-39
