# bin_10_14
5.397011450707471495e-08
6.123886086843087060e-08
6.839735216579001684e-08
7.490948925797864066e-08
8.005832605742169291e-08
8.294880841723656027e-08
8.284828661866692912e-08
7.863832534332526402e-08
7.047676491823674099e-08
5.971119370983479532e-08
4.890438460026587492e-08
4.077011972728529422e-08
3.528297588026431393e-08
2.876783980512125563e-08
2.021212823573383563e-08
1.531239409412149204e-08
1.164872314761362616e-08
7.976667572114799372e-09
5.692901258447384353e-09
4.010200802711775478e-09
2.749617445921037442e-09
1.883472315883325480e-09
1.295487319895108839e-09
8.980482392304771157e-10
6.303018489705689252e-10
4.505411785471153750e-10
3.283971438863075183e-10
2.442973721823994585e-10
1.849521666955284220e-10
1.417343368443660978e-10
1.091578414408631897e-10
