# bin_5_1
3.667542413034269845e-15
3.941112507921126887e-15
4.115931343610202569e-15
4.151547473654875251e-15
4.000572911993762034e-15
3.642557845521055410e-15
3.136914258804900133e-15
2.583783603868334551e-15
2.129564242098707899e-15
1.825322140566843356e-15
1.534494210506033212e-15
1.129714672212717484e-15
8.166931356661391865e-16
6.506516319635984809e-16
4.490513341601882709e-16
3.371537056772193766e-16
2.398168765321392979e-16
1.730128043308741413e-16
1.262457535015488799e-16
9.326434344203552400e-17
7.007370818839728305e-17
5.355727080643011954e-17
4.160311112512888506e-17
3.266014557825074874e-17
2.574190582329067087e-17
2.023053700318657818e-17
1.574382342667895439e-17
1.206035952664382937e-17
9.048990334270148535e-18
6.624963838141588456e-18
4.722799272130969609e-18
