# bin_15_5
3.539799376349673528e-24
4.033467483719424218e-24
4.529321103086152083e-24
4.993285881714815990e-24
5.380204493037514589e-24
5.632512638014409967e-24
5.693502228634605638e-24
5.496354510220666188e-24
5.007527516264327383e-24
4.313564363152289864e-24
3.549434470985583696e-24
2.925119027284777086e-24
2.517736646740208927e-24
2.124560878867926464e-24
1.546696181902689294e-24
1.108466754767277648e-24
8.911828655595423467e-25
5.889751280361903196e-25
4.413456196161296034e-25
3.022134993788626630e-25
2.056374712030924124e-25
1.407243045421650608e-25
9.575575403372578281e-26
6.535274450351025303e-26
4.490515033523322856e-26
3.133775325399569416e-26
2.226426187464397374e-26
1.615389173103595097e-26
1.197499338495745560e-26
9.042704751561798262e-27
6.915842548739194374e-27
