# bin_1_1
9.617416847395083900e-08
9.177263641385178839e-08
8.309571914934839084e-08
7.150054134089025134e-08
5.939103412880866738e-08
4.929592498991347153e-08
4.163139946104601089e-08
3.420011443696578035e-08
2.588927233247946863e-08
1.914982947165984228e-08
1.463116855099818904e-08
1.074466621275465759e-08
7.911624113497393177e-09
5.841749158002570161e-09
4.355333614211444760e-09
3.293824024002529107e-09
2.536478935552739275e-09
1.988032635533243287e-09
1.580147323369664177e-09
1.266366248172633831e-09
1.015924772088535811e-09
8.098371886842895793e-10
6.371687611367189811e-10
4.919559472736686147e-10
3.710761609679032986e-10
2.726658468275340706e-10
1.949887663524809058e-10
1.358097886189684226e-10
9.233050315475212094e-11
6.145083425146354769e-11
4.016730386487617902e-11
