# bin_2_5
3.080617082784108580e-07
3.187965434907818770e-07
3.180388893354866697e-07
3.025821203157831085e-07
2.725121403496104967e-07
2.327973088522761033e-07
1.921252304050703943e-07
1.597024209434988805e-07
1.360330076936490549e-07
1.112862007482833901e-07
8.221497508184569736e-08
6.102788905042166439e-08
4.684345109302471132e-08
3.363264723137993117e-08
2.477399352124383805e-08
1.799073519549388768e-08
1.321367892733862559e-08
9.816035978882833263e-09
7.410910602798479178e-09
5.695132555332830870e-09
4.446269127894737498e-09
3.512303080366099416e-09
2.788596050149862430e-09
2.209392908533930617e-09
1.734901483697357598e-09
1.341714513955740584e-09
1.016624453853275220e-09
7.518138298660445238e-10
5.414103926260050801e-10
3.795665348325395443e-10
2.594156936799941455e-10
