# bin_4_1
1.104397303197673126e-12
1.168904852658812510e-12
1.198088012876385416e-12
1.180865153179176417e-12
1.103707324697876946e-12
9.752496414567977627e-13
8.170539708519233969e-13
6.691752529474179624e-13
5.628915607419887941e-13
4.836257891555585992e-13
3.814882052632470361e-13
2.695937795355057403e-13
2.104320659726342886e-13
1.549413430468158387e-13
1.121976203665735560e-13
8.095497025525017035e-14
5.914302332386609306e-14
4.315908060002733629e-14
3.191796155224316128e-14
2.401699814102221771e-14
1.839318622714807544e-14
1.431748834141853615e-14
1.127567541321532081e-14
8.923400788979570221e-15
7.046892927861063486e-15
5.514918476467502525e-15
4.250301604292410865e-15
3.209028979643646867e-15
2.364146224285841716e-15
1.695400813589561617e-15
1.183168553522828490e-15
