# bin_6_7
3.857585967731932045e-08
4.276405184171807824e-08
4.642469404427430184e-08
4.909021400150507852e-08
5.022098086911348526e-08
4.935597337736018261e-08
4.591934623321777705e-08
4.038416185541714527e-08
3.367208871711413411e-08
2.756816855738303271e-08
2.331519116645574702e-08
2.005608999391671852e-08
1.557038819436704011e-08
1.087351113913442759e-08
8.634353128166627950e-09
6.140376604518163902e-09
4.484646531463941216e-09
3.123861429959146755e-09
2.238090515303784139e-09
1.588252757868938787e-09
1.132961786729539302e-09
8.187363575182104480e-10
6.006984457616579864e-10
4.491252666692613631e-10
3.417728139594653925e-10
2.636150159057204178e-10
2.050056757751478655e-10
1.596139793871555864e-10
1.235486364263598975e-10
9.447356470516154630e-11
7.100259214896022014e-11
