# bin_8_6
3.413236457566172154e-10
3.815792334036804811e-10
4.185364020320805074e-10
4.482795267442166974e-10
4.658890203661673272e-10
4.671030520882017506e-10
4.458532090066163606e-10
4.017456484106459089e-10
3.422335310815118961e-10
2.805219279823136434e-10
2.326527321714408781e-10
2.009666973738603091e-10
1.661381545477345884e-10
1.182106758447972397e-10
8.776509869888130503e-11
6.851972888767686505e-11
4.643933681034376601e-11
3.412393393948333418e-11
2.412759200232398103e-11
1.682596356137604973e-11
1.182670767462834839e-11
8.379699281610187192e-12
6.018615610365331129e-12
4.393930977896583543e-12
3.271866393830866609e-12
2.479366066548748514e-12
1.905454991886561180e-12
1.476665345183687114e-12
1.145679889402759925e-12
8.835918983129359193e-13
6.731478599569184212e-13
