# bin_2_11
4.821776189267071250e-07
5.001302885067223778e-07
5.003524899744694046e-07
4.777723847103193827e-07
4.319757298957847220e-07
3.703582447221712102e-07
3.061683280425485472e-07
2.541740499650262010e-07
2.163520803368548947e-07
1.779461447779038524e-07
1.322978829139689384e-07
9.776059396500334551e-08
7.520656072555820371e-08
5.410254993426562460e-08
3.980533117185859206e-08
2.889243560114243052e-08
2.120005164484303379e-08
1.571968424396353094e-08
1.184269618618001856e-08
9.081212425984208301e-09
7.076229576301973956e-09
5.581954420565253856e-09
4.428624163276424643e-09
3.508768558663018327e-09
2.757114533454398801e-09
2.135058384886775114e-09
1.620718589415385644e-09
1.201227400936459852e-09
8.671753962444742665e-10
6.094551241578319910e-10
4.174986849292749619e-10
