# bin_14_6
2.706964223487320348e-19
3.080362256966736042e-19
3.453046354908448092e-19
3.798729463362472972e-19
4.082391458721761563e-19
4.259680449509419249e-19
4.289685667735909060e-19
4.118386401742844682e-19
3.731240743491928031e-19
3.195809676172648003e-19
2.623926954228055785e-19
2.169538983581824919e-19
1.872924684142492625e-19
1.565094338614394148e-19
1.122875502636748780e-19
8.192887324847348174e-20
6.494748442159377223e-20
4.315672755943579078e-20
3.195969259844413222e-20
2.211698617524738372e-20
1.507000143267478855e-20
1.030407246241130963e-20
7.027326773697503769e-21
4.819761513682364690e-21
3.335069143248526971e-21
2.346491034987531196e-21
1.682119067509810304e-21
1.231646657736411306e-21
9.204467529345411383e-22
6.993399923464853480e-22
5.367523750472408919e-22
