# bin_10_1
3.565387866837651615e-29
3.988251527315152545e-29
4.377694961720801988e-29
4.693008988192164148e-29
4.882925546227631008e-29
4.902158552021739988e-29
4.687829084287531458e-29
4.231639638773558153e-29
3.611267534678601253e-29
2.961483542927255986e-29
2.452968060812324200e-29
2.117806060924431809e-29
1.757512545576228581e-29
1.255060726455212428e-29
9.261971075348524719e-30
7.274697299143582402e-30
4.909817074523901295e-30
3.626034300442835998e-30
2.556003576457530904e-30
1.780709193636675889e-30
1.251101534546751616e-30
8.853097587410336327e-31
6.348499606806383067e-31
4.626034350838558119e-31
3.438458726243146352e-31
2.601490543487458076e-31
1.996931705291066924e-31
1.546559723296528114e-31
1.199817702985688617e-31
9.257670636243687608e-32
7.059077091056933788e-32
