# bin_4_4
2.595792902964235848e-08
2.803493699707263330e-08
2.946488435454583872e-08
2.994042566569273750e-08
2.915643612872309721e-08
2.686037375579706983e-08
2.340146644420327662e-08
1.940647750803798553e-08
1.593292271885941155e-08
1.355054419005541498e-08
1.153645619163064583e-08
8.759495262501719021e-09
6.217344752351009658e-09
4.946417622420701579e-09
3.484882405989958928e-09
2.584337482654129489e-09
1.829393673314697216e-09
1.323804576093186522e-09
9.604339822600599980e-10
7.043330618109845344e-10
5.250411868002362672e-10
3.981212145203719373e-10
3.071086248082705080e-10
2.398988105659454896e-10
1.885823877799296758e-10
1.481826414013409167e-10
1.155764678364494420e-10
8.892011901737454021e-11
6.712810690324959947e-11
4.952149134074729704e-11
3.560440854934952476e-11
