# bin_1_9
-4.734200526564002431e-29
-5.274812759364555351e-29
-5.761509460577764848e-29
-6.138314781619583398e-29
-6.336215260673266115e-29
-6.300480593314387556e-29
-5.946022905569340502e-29
-5.300579193646555739e-29
-4.468581735851201201e-29
-3.657568591897833044e-29
-3.062130642894518000e-29
-2.649686022315680838e-29
-2.132543504743086347e-29
-1.490849270071378071e-29
-1.150620316939144308e-29
-8.598451366951556644e-30
-6.036711832128463959e-30
-4.286581857392659341e-30
-3.077649645526944963e-30
-2.163914466466513088e-30
-1.528835122755968863e-30
-1.093493863879687887e-30
-7.935541153665937272e-31
-5.862675364378187866e-31
-4.414311205654877238e-31
-3.376735045765031462e-31
-2.612806348528402308e-31
-2.031687473555225779e-31
-1.576207155305035551e-31
-1.211766602261712017e-31
-9.178997475297600470e-32
