# bin_6_8
-1.219009800045187526e-12
-1.364556424046779710e-12
-1.498991175223350407e-12
-1.608402405918243290e-12
-1.675227694544771130e-12
-1.683719275841920224e-12
-1.612440601380596034e-12
-1.457721371583937293e-12
-1.245965816724138755e-12
-1.022787665764471307e-12
-8.471635372433892469e-13
-7.313501536881248067e-13
-6.081445693027370735e-13
-4.356157191559358747e-13
-3.206667276372821286e-13
-2.525001208988284820e-13
-1.703596415476461739e-13
-1.260851244044461995e-13
-8.873832481873122549e-14
-6.182769514329536399e-14
-4.345242542527472393e-14
-3.074095315822582237e-14
-2.203172578341067200e-14
-1.604185713643414088e-14
-1.191416628717090258e-14
-9.007555360551223682e-15
-6.910448995762135372e-15
-5.350372922225638193e-15
-4.150886632339540271e-15
-3.203830441062376491e-15
-2.444428098136604549e-15
