# bin_15_15
-1.303227973643130096e-11
-1.493837856304130851e-11
-1.689915104677856504e-11
-1.879599560643001838e-11
-2.047322850154857332e-11
-2.172433936362202924e-11
-2.230026298350420575e-11
-2.201114553548113265e-11
-2.056279004851274329e-11
-1.815324093828209648e-11
-1.516405476744804268e-11
-1.240844300575855203e-11
-1.048880230562263987e-11
-9.071192070629516744e-12
-7.084226957072711147e-12
-4.889240283642393171e-12
-3.899081863491049057e-12
-2.749981612386375841e-12
-1.993068931347830766e-12
-1.337324456411741828e-12
-9.373494110018158702e-13
-6.370540905864472799e-13
-4.284217421223076281e-13
-2.874642778657282187e-13
-1.925804164873192904e-13
-1.299501174599125110e-13
-8.873935614098500475e-14
-6.160492006972852138e-14
-4.369733393611377112e-14
-3.172807432816804929e-14
-2.355635981105175361e-14
