# bin_3_3
-1.609805333978068344e-10
-1.702688104020520368e-10
-1.743938963288297342e-10
-1.716707853707547527e-10
-1.603077699466309067e-10
-1.415547900747334977e-10
-1.186781326626218492e-10
-9.739766311803638183e-11
-8.201157017848180574e-11
-7.022483736840944088e-11
-5.526131620426273521e-11
-3.936514108365481926e-11
-3.056015265674440895e-11
-2.254982599125630224e-11
-1.631151827673060862e-11
-1.182398449711436472e-11
-8.619077625377000394e-12
-6.294556064213143897e-12
-4.660200081239345729e-12
-3.509316378683135740e-12
-2.689310368483827970e-12
-2.094217767671561722e-12
-1.649554614477725646e-12
-1.305355178920380150e-12
-1.030582574062704512e-12
-8.062010379208970324e-13
-6.210114772912474228e-13
-4.686172214676593787e-13
-3.450732869743447873e-13
-2.473905295661770014e-13
-1.726336532426273459e-13
