# bin_13_11
-8.139602309353031642e-11
-9.260490808294400911e-11
-1.037736289301924851e-10
-1.141080057024398627e-10
-1.225480800030768366e-10
-1.277527246923381467e-10
-1.285107695730158262e-10
-1.231787480314484852e-10
-1.114345287239426946e-10
-9.530166251776592336e-11
-7.824275055262626524e-11
-6.480279441311515147e-11
-5.597733632304485175e-11
-4.659820551045771555e-11
-3.333353879447980722e-11
-2.448101978422013689e-11
-1.927152894386965843e-11
-1.288238243270133713e-11
-9.475886406131309347e-12
-6.580119022334105816e-12
-4.490253084048840059e-12
-3.071709285450164085e-12
-2.098865659195712177e-12
-1.442539575044041701e-12
-1.000827824727708383e-12
-7.062291301717289893e-13
-5.078299710181344399e-13
-3.729234990952679145e-13
-2.793653682913462757e-13
-2.125935440012134059e-13
-1.632715897442555597e-13
