# bin_1_6
-1.914188249520287646e-20
-2.083208826494118133e-20
-2.210218437435489662e-20
-2.270719236099074206e-20
-2.244467567848778403e-20
-2.103318486477719373e-20
-1.862850709120283695e-20
-1.562362669586234483e-20
-1.279069632966687812e-20
-1.075850013974936367e-20
-9.279879149189739686e-21
-7.347036200798630236e-21
-5.149264353991152342e-21
-4.032873950850866049e-21
-2.958754541996877741e-21
-2.131791781420267780e-21
-1.517573011854974026e-21
-1.101420495350243372e-21
-7.920189317313226568e-22
-5.750164694132830621e-22
-4.240643026700052294e-22
-3.180920533030703836e-22
-2.429190010075348438e-22
-1.883497072610783422e-22
-1.474310763678976978e-22
-1.157625646078700935e-22
-9.053962192344858594e-23
-7.006349498074592730e-23
-5.333913612475324665e-23
-3.976407089319668610e-23
-2.892843627467214786e-23
