# bin_11_4
-9.542230090361596450e-10
-1.038585990293020411e-09
-1.102092728743858853e-09
-1.132802538937266266e-09
-1.120001068744171984e-09
-1.050928754624976726e-09
-9.321541464536056172e-10
-7.839099031601290734e-10
-6.430219855999971845e-10
-5.401586139087386237e-10
-4.641199806463512893e-10
-3.685857487081513564e-10
-2.615171373875007588e-10
-2.019382758736196910e-10
-1.496900904993757237e-10
-1.070244519875122809e-10
-7.709090930724497159e-11
-5.555750471789008517e-11
-3.990836896574483176e-11
-2.896826424301960298e-11
-2.133563481763719145e-11
-1.598001023864808066e-11
-1.218164986802005958e-11
-9.429537006572905699e-12
-7.370630155406408614e-12
-5.781109726696971562e-12
-4.518475229192737417e-12
-3.495760761370240997e-12
-2.661813249893674780e-12
-1.985568478982289320e-12
-1.446074084312468045e-12
