# bin_2_12
-6.847666469733039911e-32
-7.736528525867041868e-32
-8.594336100339017755e-32
-9.349825876367278905e-32
-9.908754694686108898e-32
-1.015893646984703246e-31
-1.001183716107682380e-31
-9.338600466870767832e-32
-8.232950272267441004e-32
-6.871851861241135897e-32
-5.624311811395275234e-32
-4.757253393436189883e-32
-4.109061438214072407e-32
-3.200828567497055008e-32
-2.216191467767487541e-32
-1.768878539137782799e-32
-1.248381205858121537e-32
-9.103038212466306044e-33
-6.195396413625179708e-33
-4.389037484843639411e-33
-3.049444177333149660e-33
-2.115118882196173681e-33
-1.477530359653555347e-33
-1.042144350619634060e-33
-7.477684707718766352e-34
-5.470861599530640609e-34
-4.080146188681290180e-34
-3.096651952541842728e-34
-2.378999264303693319e-34
-1.837515632883881284e-34
-1.416291488037991384e-34
