# bin_12_11
-5.046104135964324694e-11
-5.738572115450932525e-11
-6.427169943151664775e-11
-7.062518283921962226e-11
-7.578625999963936564e-11
-7.892154642921970099e-11
-7.929393912256265092e-11
-7.587112994407412335e-11
-6.851812939155669510e-11
-5.849386762809378684e-11
-4.799503360503537612e-11
-3.979625032346145736e-11
-3.440229017586160566e-11
-2.854157354538362249e-11
-2.032979945016689798e-11
-1.501897666295842323e-11
-1.176078661014436377e-11
-7.884203144961813404e-12
-5.772139699904282832e-12
-4.021649907244095078e-12
-2.746123868655732538e-12
-1.878364517839777470e-12
-1.284718246378567132e-12
-8.844149853487159957e-13
-6.149782243309326150e-13
-4.350619892208856025e-13
-3.136976235310565381e-13
-2.309849119611431255e-13
-1.734361498397768118e-13
-1.322033720773296297e-13
-1.016208985858303377e-13
