# bin_2_11
-1.956672324905056661e-29
-2.202585651202237499e-29
-2.436062162104994629e-29
-2.635903456333961905e-29
-2.774679254826160450e-29
-2.822516471074573794e-29
-2.750892175545491852e-29
-2.532822705347797461e-29
-2.205178175768022105e-29
-1.824957378952165582e-29
-1.497723206574083220e-29
-1.279619711538844948e-29
-1.094429300425658156e-29
-8.219971588884566110e-30
-5.763749844451660073e-30
-4.669202505196134067e-30
-3.155360885083095517e-30
-2.372332622661252721e-30
-1.619201849334851441e-30
-1.130391594000435164e-30
-7.918310654970949045e-31
-5.548394734070872937e-31
-3.916182512161475094e-31
-2.797531311433826882e-31
-2.037278708149202224e-31
-1.512543904062792266e-31
-1.143148587792431789e-31
-8.764749838583445050e-32
-6.773861176124598189e-32
-5.239232499775498970e-32
-4.026244430316451550e-32
