# bin_2_4
-6.991663104459508286e-13
-7.466869210161439461e-13
-7.737356313471577704e-13
-7.731482471811237626e-13
-7.354118370564176758e-13
-6.609900236539794439e-13
-5.622068700920946817e-13
-4.614540367732511761e-13
-3.837059885352653514e-13
-3.303549023392948959e-13
-2.708790687700214367e-13
-1.945115731750862360e-13
-1.457844271885319531e-13
-1.127925372382189246e-13
-7.893604469217834770e-14
-5.837048181739562295e-14
-4.215457787644511344e-14
-3.051140719494895502e-14
-2.238485668735782680e-14
-1.667260976697504206e-14
-1.263854788545643711e-14
-9.744673698396470568e-15
-7.622109924704623193e-15
-6.010156743363751434e-15
-4.745086038103429962e-15
-3.725057769189055955e-15
-2.888372810073090252e-15
-2.199676517440220629e-15
-1.637842467987732537e-15
-1.188444514088220579e-15
-8.393039012993218896e-16
