# bin_7_4
-6.101662637078451196e-10
-6.634608733378912689e-10
-7.031685159793170819e-10
-7.216842019793237078e-10
-7.121543478240213769e-10
-6.666067529420757136e-10
-5.898575107168616439e-10
-4.950492444427043389e-10
-4.060363852301924235e-10
-3.416744301559253608e-10
-2.934080042559045908e-10
-2.316815038771269315e-10
-1.641250971979759471e-10
-1.274099897211662399e-10
-9.378503921419205323e-11
-6.738028225669183685e-11
-4.838396665112730415e-11
-3.491837210199572951e-11
-2.511385176560692378e-11
-1.825289128353195535e-11
-1.346595589261778115e-11
-1.010349482164749974e-11
-7.715467634198342401e-12
-5.980769265349987135e-12
-4.679308483979094127e-12
-3.671722314244943714e-12
-2.869408047815015815e-12
-2.218542349693772425e-12
-1.687486558600127096e-12
-1.256975850496290989e-12
-9.138866509297057128e-13
