# bin_10_7
-2.515739186023611843e-10
-2.816419287775177720e-10
-3.094309310125161594e-10
-3.320751498509649662e-10
-3.459584586859034260e-10
-3.477941901949434099e-10
-3.332569846953535220e-10
-3.015257948207573289e-10
-2.579737825369830235e-10
-2.119468128898344230e-10
-1.755508324545343179e-10
-1.513569277079227505e-10
-1.258655088830509169e-10
-9.056514827372224051e-11
-6.654175733421300464e-11
-5.229505569856619415e-11
-3.545632789667859462e-11
-2.618333649811625184e-11
-1.837929837650209065e-11
-1.282172207173276462e-11
-9.013933423520604944e-12
-6.376982837839386569e-12
-4.567075744229878382e-12
-3.322205238866920319e-12
-2.464758210982370225e-12
-1.861511521464525739e-12
-1.426743830822249100e-12
-1.103785997896137600e-12
-8.558747713239918864e-13
-6.604333980782761566e-13
-5.039043015434044798e-13
