# bin_1_11
-2.184397914360552889e-34
-2.457633645640315731e-34
-2.716418456168915640e-34
-2.936957861107353534e-34
-3.088551447389709159e-34
-3.138314074860246095e-34
-3.053694728119683422e-34
-2.806590617617793746e-34
-2.439197747849398558e-34
-2.016648654389281793e-34
-1.656105473214603294e-34
-1.416704941965006469e-34
-1.209170835213981720e-34
-9.037013257397568949e-35
-6.358544823192495482e-35
-5.149056798326897943e-35
-3.468473472237820935e-35
-2.611056494233830979e-35
-1.786420843144399918e-35
-1.245565633210298350e-35
-8.730207876671164804e-36
-6.122947913860699093e-36
-4.327874600617785928e-36
-3.097263365710816751e-36
-2.260027577526322425e-36
-1.681103706401437221e-36
-1.272629543767646249e-36
-9.768850426239853238e-37
-7.554225525017047035e-37
-5.842605876697435366e-37
-4.487316939180480707e-37
