# bin_1_7
-2.611649283056466177e-23
-2.869296048825812224e-23
-3.080280228071011648e-23
-3.211343918984002438e-23
-3.231748866674947724e-23
-3.101980710608765576e-23
-2.811643891785271631e-23
-2.409960321621558093e-23
-1.980766048881713308e-23
-1.637693494440046798e-23
-1.410245656834191436e-23
-1.177746967585463912e-23
-8.526134806492132513e-24
-6.233362444400488764e-24
-4.941214668525894479e-24
-3.365124029375565988e-24
-2.515659064315571400e-24
-1.782868740739922669e-24
-1.265575764811822595e-24
-9.092504031765122918e-25
-6.600031315446283078e-25
-4.866234364344548056e-25
-3.649987160321997560e-25
-2.788099987956955871e-25
-2.159340475162939260e-25
-1.686252445504455605e-25
-1.319031275828683326e-25
-1.026116419641813801e-25
-7.888403302262658974e-26
-5.960584762686573672e-26
-4.408238633656536313e-26
