# bin_5_15
-1.806230541334365300e-26
-2.058821983299017998e-26
-2.312733800039151585e-26
-2.550568764339290595e-26
-2.749254445274184347e-26
-2.879346435195912441e-26
-2.911740498060884356e-26
-2.812259924953875894e-26
-2.563387607873285671e-26
-2.209218780718840218e-26
-1.818543263080697007e-26
-1.498952246985964834e-26
-1.290399492193036704e-26
-1.089512409068813446e-26
-7.938092325318497122e-27
-5.687286580399459624e-27
-4.575225152464628938e-27
-3.024489926759113839e-27
-2.267526330202293810e-27
-1.552576823054139754e-27
-1.056729132910167205e-27
-7.233883244271821941e-28
-4.923602417094013856e-28
-3.360915744956809417e-28
-2.309614139253284396e-28
-1.611915210229320539e-28
-1.145234553462892628e-28
-8.309147595809423633e-29
-6.159411444941898024e-29
-4.651021995455962570e-29
-3.557085309723415043e-29
