# bin_13_3
-1.518934937026687841e-09
-1.623035279112805652e-09
-1.683333888967920935e-09
-1.683444767393135833e-09
-1.604557027920760238e-09
-1.446312879140820061e-09
-1.234854447570955286e-09
-1.016989837719619317e-09
-8.452326651461948341e-10
-7.240231510216055062e-10
-5.944207917219648399e-10
-4.339082898739931853e-10
-3.223959237019125857e-10
-2.487326541200607914e-10
-1.758988136717370527e-10
-1.296087497351642404e-10
-9.319364929291738236e-11
-6.759837409014063356e-11
-4.953833350873042791e-11
-3.682316873443437755e-11
-2.784741485268882970e-11
-2.141748870251439956e-11
-1.671335045417086752e-11
-1.315463102483406451e-11
-1.037271892530424943e-11
-8.138067807052197600e-12
-6.310710543364047126e-12
-4.809602712964449368e-12
-3.586254457899101216e-12
-2.607804525689652185e-12
-1.846681348293505328e-12
