# bin_5_12
-9.492863562469704613e-21
-1.074921250837503650e-20
-1.197376506016094383e-20
-1.307011734655672629e-20
-1.390942447466980407e-20
-1.433320553089688987e-20
-1.422052020212946235e-20
-1.337540396615186481e-20
-1.188440402180200143e-20
-9.985001083796224257e-21
-8.169577751259363709e-21
-6.863246357269370477e-21
-5.944082407415452733e-21
-4.737602167440842878e-21
-3.285211836045506312e-21
-2.568417612599787479e-21
-1.879377365405333548e-21
-1.329174223941483270e-21
-9.186040404649708779e-22
-6.540497947904847087e-22
-4.514207831402521446e-22
-3.106611684310844509e-22
-2.154919501503990087e-22
-1.507959174344304856e-22
-1.071281602718508801e-22
-7.757620982214354453e-23
-5.728902660343547707e-23
-4.312414897862894988e-23
-3.294569008153543519e-23
-2.538484882154336299e-23
-1.957961717819933532e-23
