# bin_5_9
-1.651682652207849274e-15
-1.852502928040670170e-15
-2.039860000910197552e-15
-2.195216749727126304e-15
-2.295001763403539288e-15
-2.316538552485134147e-15
-2.232155366415754086e-15
-2.030367296925424866e-15
-1.746252113169499683e-15
-1.436539449123637626e-15
-1.185308204220009100e-15
-1.020547616402610687e-15
-8.583982263617963117e-16
-6.238579500354304242e-16
-4.503599894790368372e-16
-3.604464788081817583e-16
-2.411698572850608522e-16
-1.808457521935822367e-16
-1.258511478051928103e-16
-8.750010458285690848e-17
-6.144937879027084982e-17
-4.331480914935627114e-17
-3.087859898184604917e-17
-2.233840071553829446e-17
-1.648485409919924509e-17
-1.239196876001623880e-17
-9.464132597137375847e-18
-7.307896527054183894e-18
-5.665533520020244602e-18
-4.378073828555396737e-18
-3.349615487752068565e-18
