# bin_10_10
-2.779153755187829366e-11
-3.149202121801993863e-11
-3.511083070911958239e-11
-3.836759858970221753e-11
-4.088726071914546282e-11
-4.220622385775250318e-11
-4.196368710112843797e-11
-3.958226565753833102e-11
-3.526421830825929339e-11
-2.970480657089853294e-11
-2.431141010789618309e-11
-2.037679423801252854e-11
-1.764812424506704678e-11
-1.416916812727466755e-11
-9.860375700773065691e-12
-7.635806082554692749e-12
-5.657965102406181535e-12
-3.958525337235073428e-12
-2.764069731837705768e-12
-1.962909805303733100e-12
-1.351997350692874612e-12
-9.288122592281301535e-13
-6.425971460284316120e-13
-4.484320881385712474e-13
-3.174414157501709633e-13
-2.290060624934967565e-13
-1.684828475125650653e-13
-1.264019840193576801e-13
-9.632662657266174107e-14
-7.411508109460401107e-14
-5.715064825963858318e-14
