# bin_12_7
-3.516648918475968419e-10
-3.938563667923727037e-10
-4.329326002796845765e-10
-4.649018002147599432e-10
-4.847177105346497307e-10
-4.877320849887418784e-10
-4.679541966679773371e-10
-4.239633415344559067e-10
-3.632146777326607104e-10
-2.985667671303865000e-10
-2.471067550386120747e-10
-2.129186172133385101e-10
-1.774728597917088184e-10
-1.281140989271029299e-10
-9.377044599572316793e-11
-7.390049781726324115e-11
-5.006478466191849700e-11
-3.703810812701821863e-11
-2.594368779736891864e-11
-1.809716474829333648e-11
-1.271835427159251658e-11
-8.990168086821978427e-12
-6.431145775707672099e-12
-4.671614081953369544e-12
-3.461020991220387273e-12
-2.610634369371600433e-12
-1.998887402718575826e-12
-1.545455735816182909e-12
-1.198102625256235769e-12
-9.247022458023968307e-13
-7.059300578770764163e-13
