# bin_14_10
-1.609181789862958539e-10
-1.826552974895709412e-10
-2.040824012606159095e-10
-2.236001784594360112e-10
-2.390678983672084246e-10
-2.478097432661882288e-10
-2.476267998087856885e-10
-2.351705558158080338e-10
-2.108742408670885967e-10
-1.787559079728457558e-10
-1.464523942307750880e-10
-1.221044761754609272e-10
-1.056955955007709593e-10
-8.625045946923804132e-11
-6.064094687105141601e-11
-4.591463080367899954e-11
-3.497106895345746768e-11
-2.393599625393134151e-11
-1.710140186148653783e-11
-1.204568585660203277e-11
-8.260323027600869725e-12
-5.659562610899889850e-12
-3.893204401021745495e-12
-2.699050379990762833e-12
-1.894372601869461729e-12
-1.354061085078184207e-12
-9.869017232679192913e-13
-7.341024695838072295e-13
-5.557363922727705882e-13
-4.258695522433095042e-13
-3.280038006461621908e-13
