# bin_10_9
-7.220490691219855424e-11
-8.157312514032685805e-11
-9.061293654954350116e-11
-9.857225476235760627e-11
-1.044575569609914149e-10
-1.070923537745531168e-10
-1.055295147638537718e-10
-9.843334073974129385e-11
-8.677854506984837490e-11
-7.245092800428012834e-11
-5.931403699527912258e-11
-5.016461774138874233e-11
-4.329986015121347409e-11
-3.373560331539295519e-11
-2.340136625920871735e-11
-1.863376088008058377e-11
-1.317780954716747399e-11
-9.584917299998401349e-12
-6.547112868066175481e-12
-4.633721646296653341e-12
-3.218352487014161582e-12
-2.231569066917218602e-12
-1.558611786267610123e-12
-1.099310987146517262e-12
-7.886870083201316988e-13
-5.769296296635352738e-13
-4.301818761766777627e-13
-3.264029331849634954e-13
-2.506856919496647251e-13
-1.935703928162938850e-13
-1.491577515859134746e-13
