# bin_3_10
3.109050743653699324e-07
3.320545450718771860e-07
3.442008697223758503e-07
3.440056484694347753e-07
3.276076633731320947e-07
2.950317062151722660e-07
2.516387907027863070e-07
2.072226916411344244e-07
1.722959313578805102e-07
1.476275420103661842e-07
1.210281743429377920e-07
8.817352034997684664e-08
6.563070535238074333e-08
5.058105852867210684e-08
3.575731796331760631e-08
2.634441256755609704e-08
1.894901516533961498e-08
1.374369574570364406e-08
1.007427338778171604e-08
7.491180958957354876e-09
5.667436904710753748e-09
4.360584803170638844e-09
3.403916766132362210e-09
2.679610411008588745e-09
2.112976279262739555e-09
1.657518213849932217e-09
1.284926576155985290e-09
9.788316592352700469e-10
7.294299073561819164e-10
5.300529724115579535e-10
3.750721952387478323e-10
