# bin_5_1
3.647572075096155682e-15
3.920854696271514942e-15
4.096140979382782760e-15
4.133119169559353883e-15
3.984223665772041616e-15
3.629326605195497057e-15
3.125784801793967127e-15
2.577155901677002126e-15
2.125414149060555804e-15
1.822480829965730534e-15
1.532182105488472529e-15
1.128117532342084176e-15
8.162905204722223956e-16
6.502884650523326797e-16
4.489552891128803182e-16
3.371171788788908576e-16
2.398728629506665402e-16
1.730728033198151004e-16
1.262970933789363784e-16
9.330840762214127889e-17
7.011083541569873857e-17
5.358957649259737874e-17
4.163136554552837616e-17
3.268507934060769769e-17
2.576422927335775114e-17
2.025050271218532699e-17
1.576138589796039881e-17
1.207540295206888667e-17
9.061424750489853385e-18
6.634825020606763672e-18
4.730305355367253928e-18
