# bin_9_7
3.818122630603286266e-10
4.292823238340026487e-10
4.741246864949639315e-10
5.121636210948974250e-10
5.380269248637704918e-10
5.460630693684780020e-10
5.304422423280758779e-10
4.866430108172468504e-10
4.220047669570685076e-10
3.487396296050654943e-10
2.865678780182655973e-10
2.454247552543492003e-10
2.090149537571990585e-10
1.554213772967953811e-10
1.097418317982752296e-10
8.882324086114513266e-11
5.962863704132868359e-11
4.494636883173464342e-11
3.081903012217167387e-11
2.145797075626003111e-11
1.504599049900117747e-11
1.056074370403460071e-11
7.473659096367552833e-12
5.357096030979738318e-12
3.915903166887285304e-12
2.917728352595024500e-12
2.212012177391552449e-12
1.699700990673242021e-12
1.314997158471581271e-12
1.016940246417154065e-12
7.805464279347171562e-13
