# bin_1_1
9.575276866016441892e-08
9.140348648705141315e-08
8.279212418012261929e-08
7.126667820762422180e-08
5.923609172046424946e-08
4.919789793747339976e-08
4.156348334083836002e-08
3.414828952769779251e-08
2.585528601014904033e-08
1.913458862961446568e-08
1.462260244389566961e-08
1.073985740445952069e-08
7.909977016344559810e-09
5.841057980129417150e-09
4.355369942187529347e-09
3.294181601869601877e-09
2.536984247234356954e-09
1.988623732556020740e-09
1.580796338657251352e-09
1.267046149620991320e-09
1.016604946947231955e-09
8.104909652855386298e-10
6.377714074559497113e-10
4.924875962756551526e-10
3.715249550291271726e-10
2.730292290114483611e-10
1.952712724824212706e-10
1.360213329545861038e-10
9.248348005630907220e-11
6.155800544430327411e-11
4.024030892379109937e-11
