# bin_1_4
4.930925797601801626e-07
4.835026070843033253e-07
4.515557049078307308e-07
4.000951377271608753e-07
3.386281857212679198e-07
2.804720015481806408e-07
2.347417370668324322e-07
1.972078489780306483e-07
1.568787234352959085e-07
1.164674653266713844e-07
8.747130046761548963e-08
6.600834388318176376e-08
4.811759886562596768e-08
3.550459372641297924e-08
2.616907990259921152e-08
1.953254915988374422e-08
1.480018374652321763e-08
1.141495804068463010e-08
8.951468949850804722e-09
7.107950536101748380e-09
5.680739885026490226e-09
4.536379353287986070e-09
3.593951526488313457e-09
2.806832034384065581e-09
2.149292805565922351e-09
1.607125254064740867e-09
1.170703425053107225e-09
8.302516417194818127e-10
5.738525771972871473e-10
3.874551064961762039e-10
2.563143586442280230e-10
