# bin_9_5
4.782397184199043769e-13
5.358196240738242035e-13
5.892819552330430389e-13
6.332231327605497283e-13
6.607950118462732853e-13
6.656403645513644864e-13
6.395010058493133141e-13
5.800004257456549509e-13
4.970819698216076003e-13
4.086510454302616892e-13
3.377572285173359772e-13
2.912183665319888607e-13
2.436866677582793000e-13
1.757557662069485004e-13
1.280322758128464281e-13
1.017918539627882779e-13
6.824763270588414476e-14
5.092337780433387872e-14
3.563278288987761082e-14
2.478418040002176415e-14
1.740610657059976204e-14
1.228535790208938813e-14
8.778295698879125546e-15
6.368963844274560509e-15
4.713821770688970035e-15
3.552884749923822258e-15
2.719246822086601328e-15
2.102451779072918191e-15
1.630565024641931988e-15
1.259351563255757696e-15
9.622392633984997197e-16
