# bin_8_12
7.219374024992903639e-08
8.126228138857828716e-08
8.987541700506151786e-08
9.725452612359047886e-08
1.023910609711970977e-07
1.041873879360244185e-07
1.015958665379013072e-07
9.362994167517523937e-08
8.158949000758866834e-08
6.758769858138589114e-08
5.546566554108097824e-08
4.731217971846658196e-08
4.044012733416859377e-08
3.049840595672982142e-08
2.141359097460451728e-08
1.723377684971639931e-08
1.176565577439017596e-08
8.763669538563221822e-09
5.996103099393570070e-09
4.198607320569724260e-09
2.934946173522631959e-09
2.052386438462648482e-09
1.446665047129211371e-09
1.031927217389694467e-09
7.501333125800090396e-10
5.559170991698689224e-10
4.194315537240322541e-10
3.211168412565772643e-10
2.479059760688338124e-10
1.916166901664023941e-10
1.472219326759363637e-10
