# bin_10_1
3.544202475986673826e-29
3.965546323677033201e-29
4.354003258844044554e-29
4.669069670238233695e-29
4.859654933079810355e-29
4.880607550478711213e-29
4.668909626468445896e-29
4.216713001310099292e-29
3.598553197486328542e-29
2.954118771089105299e-29
2.448457928959140564e-29
2.114608529617651548e-29
1.754875568233854010e-29
1.253421086982583818e-29
9.259579283590277132e-30
7.270369319016991579e-30
4.910908002658449540e-30
3.625894349677533797e-30
2.557333283369336708e-30
1.782142336661704343e-30
1.252277761295104719e-30
8.862681186791169562e-31
6.356357402267815637e-31
4.632538297640858132e-31
3.443741137046361863e-31
2.605754301192353586e-31
2.000404937678155477e-31
1.549382148950233414e-31
1.202104434451900306e-31
9.275996112583401107e-32
7.073552668633490405e-32
