# bin_5_6
4.961365101346712376e-08
5.449168270699243460e-08
5.848029957274040959e-08
6.095006444079309402e-08
6.131441857508933682e-08
5.883784219119640923e-08
5.333885302088242090e-08
4.571657927045752723e-08
3.762104604816172887e-08
3.112211922088556663e-08
2.676320068872676136e-08
2.231223337670513133e-08
1.620862705969056396e-08
1.185871629393095210e-08
9.352636373898561616e-09
6.415519969978729733e-09
4.772871404078418469e-09
3.378677029951231462e-09
2.402686538258776121e-09
1.726113120501492712e-09
1.252827673697644645e-09
9.233771850133770018e-10
6.922843209849599623e-10
5.285298197352367102e-10
4.091175398255954108e-10
3.193152724560724413e-10
2.496541398902711288e-10
1.941319156687533269e-10
1.491889506466372046e-10
1.126981742119546422e-10
8.333300327895665116e-11
