# bin_6_4
2.535458483592943261e-10
2.790507197511623428e-10
3.002406343976807080e-10
3.139184226886098885e-10
3.169736200727529011e-10
3.057209669016155010e-10
2.785064157068311146e-10
2.398226903396787659e-10
1.976114272003887747e-10
1.629328046604607216e-10
1.399378981129882432e-10
1.178353082856880820e-10
8.634759844474298857e-11
6.225319364832655395e-11
4.980385251304561681e-11
3.384271309457292805e-11
2.543936941847207978e-11
1.788522030283691867e-11
1.269068293203599130e-11
9.104505455876067460e-12
6.588812935331794170e-12
4.838943848091361293e-12
3.613877236485679433e-12
2.749860521373588150e-12
2.123303240427296768e-12
1.654905082489729927e-12
1.293645370197362506e-12
1.006914351900346569e-12
7.753223163294775735e-13
5.873004098105153036e-13
4.357458343877146250e-13
