# bin_6_2
1.806508084479526252e-14
1.972802287800310365e-14
2.102175443817948066e-14
2.171318388708510771e-14
2.161056254874518124e-14
2.043095682190185446e-14
1.824817531737737029e-14
1.541503023551096562e-14
1.262749050890194459e-14
1.054938346811730498e-14
9.112748413749541777e-15
7.372642839505845015e-15
5.197523133914123029e-15
3.978539091691145339e-15
3.011908432067517217e-15
2.115706891710410173e-15
1.531306236399576622e-15
1.106765689107123666e-15
7.910706840056891751e-16
5.712857405912805724e-16
4.186563357566154783e-16
3.120472888778537509e-16
2.367852294425779361e-16
1.826560881476081454e-16
1.424793732033187411e-16
1.117003933513577192e-16
8.740094933485400760e-17
6.778459245829693029e-17
5.179845745231772683e-17
3.881058098911856110e-17
2.840513177054704193e-17
