# bin_7_6
3.005112982761920306e-09
3.345358209253138835e-09
3.650316915808395624e-09
3.884338679832811250e-09
4.003817631226061087e-09
3.974052639172071737e-09
3.742052490286632191e-09
3.328915581589080002e-09
2.801080453435268415e-09
2.292965422986054659e-09
1.922957766560747145e-09
1.662969255476449402e-09
1.330839866977132731e-09
9.291940527606015801e-10
7.213151234059170226e-10
5.343611053304551020e-10
3.778563282378110925e-10
2.670203768585390649e-10
1.917889174365023878e-10
1.350545456487840900e-10
9.555041111702588804e-11
6.845106913327881390e-11
4.975829918764636621e-11
3.683123560074874665e-11
2.778028459400532140e-11
2.128027197775920885e-11
1.648080831351863755e-11
1.281896465667309299e-11
9.942004475363002642e-12
7.636775187061034220e-12
5.777317893233132135e-12
