# bin_6_10
1.055950152785815809e-07
1.173134342687051344e-07
1.276919391913471184e-07
1.354634811241275147e-07
1.391285331152617301e-07
1.374241551946995558e-07
1.286609928519880244e-07
1.138332988671089053e-07
9.541560368401088326e-08
7.816193423234515506e-08
6.583656825291857580e-08
5.675636399119067771e-08
4.474799437269940973e-08
3.132007830657608126e-08
2.454645946982378898e-08
1.783691170992477387e-08
1.281152135911180271e-08
9.010650902408488533e-09
6.452009268636509175e-09
4.560834202866131555e-09
3.241089028042173550e-09
2.331720850462588919e-09
1.702583195860499440e-09
1.266359709535909396e-09
9.592243152864470758e-10
7.371893378893324187e-10
5.720086813765747286e-10
4.450687683427794652e-10
3.448038685652965468e-10
2.642406752628032604e-10
1.992452269803930030e-10
