# bin_5_9
1.320752851426408757e-07
1.453992410673853269e-07
1.564935357756608450e-07
1.636986277993660482e-07
1.653801654274007340e-07
1.596645775551959458e-07
1.456788614477534106e-07
1.256676094331111022e-07
1.037273606044719688e-07
8.555165580579388089e-08
7.331255401310505507e-08
6.169528690915864766e-08
4.554465260577017402e-08
3.284144060014079364e-08
2.607399090133084211e-08
1.795155522072545167e-08
1.336170051960706700e-08
9.396676873669301828e-09
6.689417037083687372e-09
4.793189616672145722e-09
3.464571492618296692e-09
2.541119509510165249e-09
1.895043375540136887e-09
1.439678410776738814e-09
1.110078650463548438e-09
8.641994118341798801e-10
6.750117628843613334e-10
5.252025502200495769e-10
4.044174220104434226e-10
3.064660265284426761e-10
2.275510172758579789e-10
