# bin_3_13
3.537621708789208222e-07
3.780227352178617588e-07
3.921116252738143062e-07
3.922200110599882376e-07
3.739731355035122733e-07
3.372115419447354629e-07
2.879912538845096213e-07
2.371469898892455876e-07
1.969676286934357988e-07
1.686726208065984686e-07
1.386136533715924919e-07
1.012413973278767500e-07
7.511019519932924082e-08
5.800370406401747901e-08
4.099037542231965135e-08
3.020799477616303693e-08
2.170784888833339637e-08
1.574009362721038159e-08
1.152916635432616068e-08
8.565047957518221920e-09
6.473564647239417842e-09
4.976094795666279804e-09
3.881378065580036886e-09
3.053898675676528236e-09
2.407548163434501153e-09
1.888694845418308537e-09
1.464611559158250971e-09
1.116340156279829417e-09
8.325378364820744693e-10
6.055308470199998890e-10
4.289041785644839294e-10
