# bin_8_7
2.821686147845607698e-09
3.161150272441455167e-09
3.476203654244459326e-09
3.734947284662706366e-09
3.896965809335031764e-09
3.924804025527288321e-09
3.769848402652098695e-09
3.418550291738937338e-09
2.929477113562788338e-09
2.408467725962672131e-09
1.991080122886019748e-09
1.716493126151761009e-09
1.435407933080054358e-09
1.035449182372368725e-09
7.548504985452309304e-10
5.992692477808610578e-10
4.024774658844143954e-10
2.998721000604222008e-10
2.098549510298028258e-10
1.460250849282073775e-10
1.025655627518853581e-10
7.241088044740891609e-11
5.174780095949465799e-11
3.755056031765079922e-11
2.779550361380975055e-11
2.095180181668489764e-11
1.603631220689775009e-11
1.239853273635783528e-11
9.614934477376398483e-12
7.425065762313262324e-12
5.672445482878433621e-12
