# bin_7_5
8.734695386395232532e-12
9.718455931372345228e-12
1.059753725484711130e-11
1.126806768701669221e-11
1.160322330856135023e-11
1.150371202112757862e-11
1.081559129402172570e-11
9.607077780088489005e-12
8.072161376781852653e-12
6.603422558445270106e-12
5.542097194128878789e-12
4.793033334067884389e-12
3.822991343301621477e-12
2.662866062017110387e-12
2.076377845112999225e-12
1.529685928937551158e-12
1.086547637844788609e-12
7.642908397598772714e-13
5.499357234215378804e-13
3.876591805441214237e-13
2.744925479010853701e-13
1.969014520141602327e-13
1.433291847963607400e-13
1.062563571491486055e-13
8.025920360774867933e-14
6.155300303030143082e-14
4.770932589419865151e-14
3.712213074027153406e-14
2.878803977651754428e-14
2.210185780741081353e-14
1.670629887041018985e-14
