# bin_8_8
5.357192645442122331e-11
6.029821830991675509e-11
6.668497657152158648e-11
7.215368153797507355e-11
7.595566857315801741e-11
7.727125100728041736e-11
7.533005344767739646e-11
6.937848062963342777e-11
6.042123060416894117e-11
5.000229947677899287e-11
4.101401498982435378e-11
3.501880844790715653e-11
2.996703449367187926e-11
2.253576394866304949e-11
1.577506844362988297e-11
1.278476311118236381e-11
8.640900341390403550e-12
6.497222270734380797e-12
4.428683430710559726e-12
3.091882086013698956e-12
2.165535956121724772e-12
1.517079538174365426e-12
1.070311973732254470e-12
7.641646070770617464e-13
5.561996139178395427e-13
4.127416902235608606e-13
3.118149880242746478e-13
2.390071057524974652e-13
1.846887247848483130e-13
1.428418460551833155e-13
1.097764732981595948e-13
