# bin_14_8
9.290539824961721042e-16
1.059071809803268286e-15
1.189923975759322295e-15
1.312692249207155571e-15
1.415579147315039703e-15
1.483510149189064295e-15
1.501331770690776069e-15
1.451869140020925739e-15
1.325121887962022993e-15
1.143571282863840920e-15
9.417252707237951491e-16
7.753410425861976501e-16
6.666481456630142546e-16
5.641608871408818395e-16
4.127134682301758877e-16
2.941993234872613475e-16
2.373770223605652530e-16
1.567970022320577494e-16
1.178070954051228368e-16
8.040701342909976964e-17
5.470495769887068911e-17
3.744702121448539306e-17
2.546839824068400462e-17
1.735614071153469331e-17
1.189960119944378352e-17
8.282753051350051840e-18
5.867486636762011198e-18
4.244339429024695800e-18
3.137721306199678762e-18
2.364279515928302494e-18
1.805787241284800803e-18
