# bin_8_4
1.662496000986063772e-14
1.852450589772828815e-14
2.023647418182579459e-14
2.156506757423336804e-14
2.226820074419664683e-14
2.215453937918734290e-14
2.092371251487192892e-14
1.866481769385212599e-14
1.574344120112360601e-14
1.288225579631583377e-14
1.077314832974356562e-14
9.322087983268797758e-15
7.520910621367014752e-15
5.258318447230708626e-15
4.046612747365484617e-15
3.036012106602543141e-15
2.123316627875611952e-15
1.510860986422726303e-15
1.084743872079132298e-15
7.620456713257117320e-16
5.379463661493620149e-16
3.844734228772022617e-16
2.788190547772465212e-16
2.058299147940448845e-16
1.548754995627355203e-16
1.184083055050229038e-16
9.158726591453166096e-17
7.120580936803370996e-17
5.524336746171567080e-17
4.247730146222774954e-17
3.218467662295723573e-17
