# bin_12_3
8.300612275575761315e-26
9.381721070322137246e-26
1.042746950769283620e-25
1.135223270556352017e-25
1.204245163637222802e-25
1.236145358662263718e-25
1.220367302650449143e-25
1.140802255667061987e-25
1.007798489309503258e-25
8.425060628562166986e-26
6.892039388174516141e-26
5.816198869632207520e-26
5.027926166254246174e-26
3.942732938575059588e-26
2.727944450001680089e-26
2.165356562165799698e-26
1.543793243596640262e-26
1.115894077442567477e-26
7.613749278257437738e-27
5.405810330789405396e-27
3.747395939400493257e-27
2.592189436987497582e-27
1.806536725880584980e-27
1.270785420678764703e-27
9.088762476277658078e-28
6.627816082527719279e-28
4.927833255390591349e-28
3.730656912242309774e-28
2.861304133866037538e-28
2.208480777765957370e-28
1.702596207382165887e-28
