# bin_14_14
3.198756928012515692e-11
3.666088015672750362e-11
4.146816024563555217e-11
4.611917413007728512e-11
5.023306838303071732e-11
5.330460138197952753e-11
5.472291203144627938e-11
5.402622383418744354e-11
5.048885952275617397e-11
4.458644704178035192e-11
3.725103804044008995e-11
3.047065268314515253e-11
2.573596727421590294e-11
2.225878045672790386e-11
1.740930780123390044e-11
1.200920938945426300e-11
9.563154843372382628e-12
6.761096844849661837e-12
4.889124155420051330e-12
3.281086027139641024e-12
2.301396927964043913e-12
1.563043107931348748e-12
1.050310270115248220e-12
7.042146625487500902e-13
4.713315568142270061e-13
3.176527383873111799e-13
2.165992722539090422e-13
1.501179024698734817e-13
1.062947098345244518e-13
7.705044625291890902e-14
5.712530210685015452e-14
