# bin_4_4
1.072006602639305554e-10
1.167200241544571606e-10
1.239163329651574399e-10
1.274188946190207722e-10
1.260960697754279365e-10
1.183590070998932978e-10
1.049893837525671926e-10
8.817376851511944489e-11
7.217272709742213880e-11
6.059785922423129435e-11
5.227038680203872996e-11
4.157376618972515128e-11
2.917410351073336139e-11
2.272261899590072209e-11
1.678936528106337331e-11
1.202324900187708033e-11
8.593016401324454308e-12
6.229998559795063950e-12
4.473716011818317716e-12
3.244312299137921141e-12
2.389506928666764252e-12
1.790112145904155786e-12
1.365318515026181956e-12
1.057521786266454333e-12
8.271723070808071178e-13
6.492371039688336931e-13
5.077546062376375936e-13
3.930242350654860843e-13
2.993655109047365486e-13
2.233435719580303013e-13
1.626349639087477760e-13
