# bin_10_7
1.457312547081490144e-12
1.645061511166730381e-12
1.825664864469475536e-12
1.983880645468432172e-12
2.099630049682014122e-12
2.149257269241743840e-12
2.113863720068928953e-12
1.966940590122765594e-12
1.730067102660838143e-12
1.441263398349784577e-12
1.179466377211430360e-12
9.991147025814037602e-13
8.620003552054906729e-13
6.672398489832102510e-13
4.619352086677989564e-13
3.704218007264355573e-13
2.589207101607294197e-13
1.902440365288257548e-13
1.290762896495995377e-13
9.123911312744287725e-14
6.349691624832524105e-14
4.413345754248708548e-14
3.088384853423684865e-14
2.182809386560796106e-14
1.570284470975687555e-14
1.151913068497306726e-14
8.612466405998645011e-15
6.549762109409847409e-15
5.038400494929145989e-15
3.893363715009660335e-15
2.999668451415573001e-15
