# bin_15_4
2.354535952429647088e-28
2.682085701847515152e-28
3.010614568221759575e-28
3.317412233762384262e-28
3.572343637956101085e-28
3.737056059314850774e-28
3.774319500926075230e-28
3.639060386164547592e-28
3.311159927317973292e-28
2.848544968976649088e-28
2.342679947800358694e-28
1.932002436254789803e-28
1.664149099666020451e-28
1.401281645482937082e-28
1.016644376587756750e-28
7.314853596946672957e-29
5.864294177295160888e-29
3.878514341133798153e-29
2.899864726058646198e-29
1.990407351306408182e-29
1.354603615632618163e-29
9.268097760758625776e-30
6.309117773614868082e-30
4.310658997361466875e-30
2.966659296593063298e-30
2.074208728723085826e-30
1.476713084109336963e-30
1.073728574665976025e-30
7.974993431978299591e-31
6.031187339153888576e-31
4.616790489446841498e-31
