# bin_8_1
3.381418094805481385e-24
3.740895421049676929e-24
4.050841266307741079e-24
4.269747692596814936e-24
4.351288621888705783e-24
4.253570891461813831e-24
3.931456307545132735e-24
3.435885617198100060e-24
2.850939904343850234e-24
2.336441665429909473e-24
1.987373679265370050e-24
1.704045395794334011e-24
1.297935386840408420e-24
9.082513560318390969e-25
7.314919825615884362e-25
5.065811249650748348e-25
3.781691195018919770e-25
2.616614023152290316e-25
1.868217521488891508e-25
1.333016461312751160e-25
9.564709906816663552e-26
6.951071574701328694e-26
5.130295622244785975e-26
3.859971315400589884e-26
2.953357793975519796e-26
2.287481977565455072e-26
1.783316282531830393e-26
1.389297371942235680e-26
1.074158821345558628e-26
8.192018483128688022e-27
6.132909574798440879e-27
