# bin_5_1
2.731300835625789963e-11
2.946048380369184507e-11
3.091174933354979116e-11
3.134790649330479715e-11
3.043817677685038245e-11
2.793907784070105377e-11
2.425411053901407842e-11
2.005903465586561836e-11
1.648099174703415667e-11
1.406627894782308713e-11
1.195242903626090449e-11
8.970772976241197690e-12
6.381796567382762503e-12
5.116270039625186927e-12
3.551902513973004781e-12
2.664653527151214021e-12
1.881841791299862361e-12
1.359481932589786905e-12
9.889908154316279282e-13
7.273239444179422149e-13
5.437090371595071985e-13
4.134279444799249033e-13
3.197602549572085781e-13
2.502841747133311345e-13
1.969956100484552335e-13
1.548628186901178539e-13
1.207407827313370131e-13
9.278968526326088409e-14
6.992464623154034703e-14
5.146230103670233883e-14
3.689576956817096177e-14
