# bin_10_6
6.809467772965764116e-09
7.678002103768241138e-09
8.509287520215209858e-09
9.231188884000307710e-09
9.749344563488577786e-09
9.955343430602224141e-09
9.757804599642806216e-09
9.042595768444152011e-09
7.922679317891993958e-09
6.581611330258237011e-09
5.389829013150891967e-09
4.580556785803263718e-09
3.941543187754712486e-09
3.016005068303083197e-09
2.094046001281068458e-09
1.689673189193961050e-09
1.162825358682801537e-09
8.643689873689755961e-10
5.862046682785025444e-10
4.120980113129183668e-10
2.876121758922139380e-10
2.005937901623824359e-10
1.407932267117975770e-10
9.987320285339846409e-11
7.216240167122658675e-11
5.316772668878333254e-11
3.991131638376865970e-11
3.044724907353856392e-11
2.346562479847851302e-11
1.814191852203513251e-11
1.396627223322738283e-11
