# bin_13_3
6.706543964666695970e-23
7.601434031586929259e-23
8.478686258388450564e-23
9.271363125543478468e-23
9.889869137662735989e-23
1.022272310268273700e-22
1.018274937173301199e-22
9.629350104901492046e-23
8.598868050454460723e-23
7.258221997739978644e-23
5.937879091328135274e-23
4.961662113225639548e-23
4.296617599206006432e-23
3.475589480938232820e-23
2.423351330427692951e-23
1.858620271352741221e-23
1.394813131163108341e-23
9.643597495362202049e-24
6.790187120258838234e-24
4.815209316330008652e-24
3.307253471256921362e-24
2.265540646843643972e-24
1.562228290479773763e-24
1.086308956149433149e-24
7.655929867645260117e-25
5.497543172289264802e-25
4.026243332778869929e-25
3.008637219107475859e-25
2.286057541697753206e-25
1.756060502761805328e-25
1.353729697117658244e-25
