# bin_12_7
9.739336249547198064e-10
1.105182575617570250e-09
1.234544632310313286e-09
1.352398422926491384e-09
1.445861289958018689e-09
1.498793283821864235e-09
1.498045691684215872e-09
1.423178757113588096e-09
1.276382453391876691e-09
1.081948907390430948e-09
8.857066067270903652e-10
7.374286139215666256e-10
6.383964475062032680e-10
5.221266720495902813e-10
3.664964342739149895e-10
2.768256310143189426e-10
2.116886845111660412e-10
1.441096147428544126e-10
1.031600529740741116e-10
7.273245041974107544e-11
4.980569336741370035e-11
3.405376809664856983e-11
2.338762158530844814e-11
1.619108324326917114e-11
1.134544242976924872e-11
8.096178649049413541e-12
5.891744294137477521e-12
4.377058946814276773e-12
3.310847886035429233e-12
2.536368824987209956e-12
1.953837497610813861e-12
