# bin_6_2
8.609354450231205795e-11
9.417826004598420640e-11
1.005753075897540843e-10
1.041797626191433967e-10
1.040586165883100994e-10
9.886688198913195830e-11
8.871899701526064320e-11
7.529299327409632066e-11
6.168298237982374971e-11
5.129787617802085646e-11
4.427524929890456931e-11
3.625154790979396321e-11
2.574073716492080062e-11
1.937185011983092994e-11
1.493710572445533177e-11
1.034059366350499189e-11
7.577718771204900445e-12
5.443311188057544810e-12
3.877015360049601959e-12
2.792568438950470889e-12
2.038540896040280380e-12
1.513215971912200596e-12
1.143357911559513510e-12
8.788655881056726584e-13
6.837998667731452670e-13
5.353291446025433236e-13
4.188085163288232254e-13
3.251279497971276207e-13
2.489394956582419161e-13
1.870418760061314755e-13
1.373692039525248525e-13
