# bin_14_6
7.747477002308206978e-15
8.817334148431429847e-15
9.886665804471842778e-15
1.088051738943214165e-14
1.169927950563285691e-14
1.221667018733955924e-14
1.231386751249698252e-14
1.183936032165349654e-14
1.074202447656608073e-14
9.214415260392760844e-15
7.568177354693445822e-15
6.248972820686620330e-15
5.388565345608546989e-15
4.516224727555681931e-15
3.253707182421062126e-15
2.359582922618435870e-15
1.879386150510987273e-15
1.245444865948503368e-15
9.261375617360490963e-16
6.385716726590865569e-16
4.347151353470423257e-16
2.972161870489485845e-16
2.024563907658399959e-16
1.385855338061265810e-16
9.564499081587552180e-17
6.709538322691778562e-17
4.794575824109107666e-17
3.499524162294370148e-17
2.608122505990073040e-17
1.977552042986032855e-17
1.516028988632832944e-17
