# bin_10_3
2.137704103298015397e-16
2.399256756552884873e-16
2.644429720444071113e-16
2.849578861685485197e-16
2.984532045069366541e-16
3.018978191216069644e-16
2.918932807308405772e-16
2.664499488328552739e-16
2.299945315512165661e-16
1.894356952778131339e-16
1.558822302176808406e-16
1.338274794846658235e-16
1.132418035199721662e-16
8.315158452151520094e-17
5.930344107618948185e-17
4.778420357642836910e-17
3.193619217836925804e-17
2.404646310669194314e-17
1.660169488111619424e-17
1.153622159981472268e-17
8.093582564742455338e-18
5.690571632375308436e-18
4.040554437926300063e-18
2.908882204291273869e-18
2.136157766724747194e-18
1.598604083206558328e-18
1.216408700285112824e-18
9.369784330495415689e-19
7.256302892117027283e-19
5.608870098265758923e-19
4.297294984387831281e-19
