# bin_15_1
9.074408468693750020e-37
1.033201289987945713e-36
1.159160984569701486e-36
1.276565551249625912e-36
1.373801803854007925e-36
1.436113188395282611e-36
1.449312852248294750e-36
1.395999574084617524e-36
1.268982313712889637e-36
1.090614754218872428e-36
8.964732397856618844e-37
7.394349981922954984e-37
6.369403091699763295e-37
5.354969615852045842e-37
3.877673061891738138e-37
2.795701890657408583e-37
2.236058645620042387e-37
1.480243622991897111e-37
1.104369484180289235e-37
7.587850556387432713e-38
5.164201144755234307e-38
3.531830720351551516e-38
2.404298292552313266e-38
1.643138763888105052e-38
1.131371455351671602e-38
7.914989833535951752e-39
5.638965298216953229e-39
4.103180116769892885e-39
3.049589756652080832e-39
2.307367678690185314e-39
1.766612285093742332e-39
