# bin_15_10
1.143714861828719433e-08
1.307588153042141763e-08
1.474736314678092119e-08
1.634460053631912353e-08
1.772802062544972523e-08
1.871540247982199115e-08
1.909806605144296900e-08
1.870013933919328494e-08
1.730427336410706664e-08
1.513930182148854529e-08
1.255975532423283446e-08
1.028539212426969097e-08
8.753053011838176525e-09
7.527101504487836416e-09
5.727122756673504602e-09
3.970762062863344132e-09
3.213597344359447680e-09
2.181028560199841936e-09
1.624767630567817050e-09
1.086600497545130503e-09
7.486275424838257147e-10
5.113823587584326238e-10
3.462945765129086471e-10
2.335156472863772301e-10
1.575802564999669674e-10
1.074980788967880735e-10
7.439854521421083038e-11
5.246960739390528188e-11
3.784576493649540743e-11
2.792069687121869386e-11
2.100452823956224099e-11
