# bin_10_4
3.043505199774806015e-13
3.421060700450458071e-13
3.777556904807973213e-13
4.079820668693693113e-13
4.285206561084219604e-13
4.348596172853817178e-13
4.224441157168374127e-13
3.875774672973638656e-13
3.362550271842630804e-13
2.776547296989535912e-13
2.279732989374653729e-13
1.950797104813217037e-13
1.662061443082963264e-13
1.237358555577672521e-13
8.719379176719526113e-14
7.058879239996958954e-14
4.739398538374767549e-14
3.571210230128909044e-14
2.445448258288148807e-14
1.702357495034448426e-14
1.193134279128539424e-14
8.369211420875166932e-15
5.917986496603764069e-15
4.238084367565518875e-15
3.095047204240921141e-15
2.304150094323477781e-15
1.745571614309829921e-15
1.340573564449078830e-15
1.036816742019982624e-15
8.017132203731957738e-16
6.153749207324079286e-16
