# bin_15_3
4.510258229299849813e-27
5.135821258816927827e-27
5.762660524479241170e-27
6.347291632895215154e-27
6.832049937582360973e-27
7.143633191418048277e-27
7.211235180789257845e-27
6.948662635727502598e-27
6.318815421730051297e-27
5.432746409834468843e-27
4.466212980582632279e-27
3.682933419671673444e-27
3.171905296919456317e-27
2.668665344889827049e-27
1.934194339450856934e-27
1.392701947618387390e-27
1.115251665725902513e-27
7.377574387874763803e-28
5.510250703955286430e-28
3.783229311983885166e-28
2.574328662987528281e-28
1.760702173140716393e-28
1.198347630049709248e-28
8.186863477955653147e-29
5.634277411414258562e-29
3.939501231031397302e-29
2.804947004509313963e-29
2.039755921828806819e-29
1.515184580250070899e-29
1.145961310025392488e-29
8.772127834663305013e-30
