# bin_14_9
5.256806019665547944e-09
5.996974253579422199e-09
6.744999237929169982e-09
7.450814057184913432e-09
8.048564555633150399e-09
8.453621040862320996e-09
8.576859708740072658e-09
8.327021664231470555e-09
7.632131475039526251e-09
6.614588493656343138e-09
5.457420267551793668e-09
4.482694716377634951e-09
3.841856941360515884e-09
3.270995621333396024e-09
2.422478555823643969e-09
1.706523284064723910e-09
1.383996867316909705e-09
9.168964250063028119e-10
6.904750853747992606e-10
4.675067894312695317e-10
3.184107627360696175e-10
2.179785989814916064e-10
1.480835422028284183e-10
1.005266330474912976e-10
6.853165504440538210e-11
4.737577582624770736e-11
3.330232762908485634e-11
2.389402156674792353e-11
1.753000447403722637e-11
1.312677900356900420e-11
9.984353355977276452e-12
