# bin_13_4
4.361254671888887310e-19
4.946142260864620708e-19
5.521079786493518894e-19
6.042770820392897538e-19
6.453238236716813293e-19
6.680066948804406290e-19
6.665553920292055575e-19
6.318034724458967071e-19
5.654257913371638862e-19
4.782829469055855292e-19
3.913937801931217687e-19
3.264451712109261884e-19
2.826665968112327437e-19
2.299541216739302875e-19
1.608433170614483961e-19
1.224188124983750759e-19
9.276204315655722548e-20
6.361924502828671522e-20
4.516640657673591245e-20
3.194575767083348838e-20
2.190737229450500082e-20
1.499055210798513291e-20
1.031564293263695227e-20
7.157051996596602139e-21
5.029397594438303263e-21
3.600166478015097166e-21
2.628267451057333967e-21
1.958316799287061028e-21
1.484694750326782746e-21
1.138995299884985126e-21
8.777671764027145776e-22
