# bin_15_7
6.499810282740141952e-14
7.414998964909200709e-14
8.339902104078825770e-14
9.212615216818203331e-14
9.951713538867601510e-14
1.045255609407013461e-13
1.060494947596895006e-13
1.029605325228354401e-13
9.436901725834143231e-14
8.178783426687383695e-14
6.748030268838124551e-14
5.542822694368128958e-14
4.750387590850859601e-14
4.044481819253001052e-14
2.995394025341508310e-14
2.110183537745467776e-14
1.711237200408662575e-14
1.133825145455320390e-14
8.537524684178065984e-15
5.780616630600370738e-15
3.937303820207376943e-15
2.695363975115227487e-15
1.831076301418345522e-15
1.243025479924143166e-15
8.474011115701703620e-16
5.858023925323503342e-16
4.117803317169221324e-16
2.954441759532235381e-16
2.167516748736259778e-16
1.623051260697489401e-16
1.234489701643389820e-16
