# bin_14_5
9.399859009148801696e-23
1.069142381931406394e-22
1.197761822798817930e-22
1.316688009331764455e-22
1.413702488900543386e-22
1.473359066309864806e-22
1.481755101246478855e-22
1.419820776100965855e-22
1.283914162258894086e-22
1.097507501542748553e-22
9.005431472948969023e-23
7.455470313941833309e-23
6.441422336161788681e-23
5.362772624843734685e-23
3.829640309532878756e-23
2.812625251582516099e-23
2.216244677856942583e-23
1.477748609322224080e-23
1.088306337608211334e-23
7.559615054762945686e-24
5.155026922920402453e-24
3.523858586111919882e-24
2.405829632093676668e-24
1.652872562614345168e-24
1.146468496898494886e-24
8.087995333396207358e-25
5.814992006093475497e-25
4.270134335175437754e-25
3.199179809334373353e-25
2.435085898036393409e-25
1.870725607700603955e-25
