# bin_2_1
1.046826408422081509e-10
1.065060458582080803e-10
1.039629744571056093e-10
9.620299965386377935e-11
8.423418342114380354e-11
7.025232971277169494e-11
5.775452974457171138e-11
4.883456577048202106e-11
4.147512697710965697e-11
3.206942923985973885e-11
2.303971278189450695e-11
1.796800454044420961e-11
1.312813657721595898e-11
9.624308084461288123e-12
7.010558500630557509e-12
5.161801095050156775e-12
3.829374369732622478e-12
2.887096608553973813e-12
2.217011143705710411e-12
1.731553537780570385e-12
1.370618202755768812e-12
1.092640972958006748e-12
8.707901802679237310e-13
6.888480159368578989e-13
5.373205112304574631e-13
4.109268550192976218e-13
3.067618540583878536e-13
2.229365603036378086e-13
1.576044501061826206e-13
1.085250780996087048e-13
7.297788176467286942e-14
