# bin_7_3
5.163961412452888183e-15
5.711120593850375936e-15
6.181894242025847641e-15
6.512792589825604346e-15
6.633499553081919708e-15
6.479318425776189459e-15
5.983262835525047284e-15
5.224475245905709461e-15
4.332687419950682265e-15
3.551695723034146878e-15
3.023050233791692722e-15
2.589893055197327843e-15
1.967830376466471716e-15
1.378715441649944669e-15
1.110881458628135339e-15
7.676001549790135989e-16
5.737855500668212655e-16
3.971686995445510974e-16
2.833490154508089996e-16
2.022291144890733261e-16
1.451556604917538184e-16
1.055299035709848583e-16
7.792503107917631092e-17
5.865716516885872696e-17
4.489783596362807900e-17
3.478560821431769371e-17
2.712324574786147306e-17
2.113082235367759021e-17
1.633586324099607038e-17
1.245578502084831569e-17
9.322169949579585835e-18
