# bin_8_4
1.462326033682396557e-14
1.630579531096068120e-14
1.782844459789090839e-14
1.901987243822862380e-14
1.966733469022532863e-14
1.960012400102009136e-14
1.855318101595501363e-14
1.658601966090459521e-14
1.401896705268490193e-14
1.147482464929660242e-14
9.579448559735028082e-15
8.288339842383914904e-15
6.723291049905352711e-15
4.715026705574972533e-15
3.602054566788322620e-15
2.726523515498514867e-15
1.892800050311193698e-15
1.355892817829265330e-15
9.709163321958521903e-16
6.808405217811703597e-16
4.799559884275176512e-16
3.422945687122439361e-16
2.476694823069499926e-16
1.823714475110774352e-16
1.368996141711243337e-16
1.044608188658409091e-16
8.068966695095603580e-17
6.269513622057198891e-17
4.864723961393566689e-17
3.743580091949790044e-17
2.840334273983248043e-17
