# bin_8_1
1.881399869753862722e-24
2.082772168136059465e-24
2.257158098567787418e-24
2.381540891206619317e-24
2.429904303726213847e-24
2.379283988626649065e-24
2.203399989021448292e-24
1.929301649722477180e-24
1.602948746335045267e-24
1.313165292970918703e-24
1.115310144306304545e-24
9.576887038538756857e-25
7.334034906792715015e-25
5.123053574704064962e-25
4.116095545429999447e-25
2.868047457564395120e-25
2.131053360150454503e-25
1.474517041326252639e-25
1.054135116917327372e-25
7.510693229616416604e-26
5.379964517144326252e-26
3.903068312372498398e-26
2.875407954875642681e-26
2.159319541203653040e-26
1.649501434693093074e-26
1.276117556279896154e-26
9.942550713929074349e-27
7.745645747178780044e-27
5.991836894925306194e-27
4.574175172817874945e-27
3.429132587374069279e-27
