# bin_11_10
3.024686754125665098e-11
3.439359370585331781e-11
3.851774320109775515e-11
4.232414601839986175e-11
4.541857721782579645e-11
4.730320039121955540e-11
4.753601900296462891e-11
4.549850098171089956e-11
4.109854817453439926e-11
3.509215491600721639e-11
2.878427998821122407e-11
2.384784721342998973e-11
2.061331673079708993e-11
1.712416161810142248e-11
1.219665521857923620e-11
8.991694216775379565e-12
7.059827308888355248e-12
4.717499054254020152e-12
3.462748724182302110e-12
2.410520127928273272e-12
1.644596372815137725e-12
1.124107940823439403e-12
7.679887425610097837e-13
5.281822554563087589e-13
3.668796846571667028e-13
2.592407747697659664e-13
1.867085642360168836e-13
1.373398995410482391e-13
1.030443716995615832e-13
7.851452152517962737e-14
6.034937647803562427e-14
