# bin_15_12
4.409394271035492254e-12
5.049235659118532428e-12
5.705457708257183134e-12
6.337467797774470963e-12
6.892224853632889062e-12
7.299752902173036920e-12
7.476950625876450689e-12
7.358921481712726932e-12
6.851062876563779833e-12
6.028753444554716179e-12
5.022667505591090884e-12
4.110038918867336161e-12
3.482391065641414948e-12
3.006901827845263699e-12
2.326443323165812448e-12
1.606299370528648718e-12
1.289405791962389239e-12
8.960084333483563148e-13
6.568886535939012152e-13
4.390338583820621213e-13
3.059221113623232613e-13
2.083001915438768348e-13
1.404673773256694664e-13
9.439569440416440237e-14
6.338019162082137838e-14
4.291905291619410131e-14
2.943820143103107505e-14
2.054617089519204402e-14
1.465878852625823036e-14
1.070436630384367813e-14
7.986329027712075319e-15
