# bin_14_6
6.641188424848811426e-20
7.558737136012350720e-20
8.475382970203689532e-20
9.326723246910699982e-20
1.002701231169180399e-19
1.046755462255106343e-19
1.054717787064400361e-19
1.013406716605114913e-19
9.188832683869318727e-20
7.876654048490400333e-20
6.469001794748331801e-20
5.346060381104647100e-20
4.613410062945528328e-20
3.860974941999428084e-20
2.775585287486031207e-20
2.019727461028839569e-20
1.604876847182865637e-20
1.065091303825774095e-20
7.904141605632636252e-21
5.461278169347043491e-21
3.719941331415804256e-21
2.543655238972400388e-21
1.733923652348339084e-21
1.188238642916058865e-21
8.213214838544388358e-22
5.771130241067608021e-22
4.131378428250276296e-22
3.020824849989927613e-22
2.254847487326349376e-22
1.711695335442873252e-22
1.313139500102053618e-22
