# bin_13_8
2.043263034973044860e-14
2.325413494073664675e-14
2.607200860257432851e-14
2.868802439390207157e-14
3.083819902707674835e-14
3.218799432742883672e-14
3.242701412321543016e-14
3.114869008574597535e-14
2.823581887316675743e-14
2.419703956858819310e-14
1.987067867646359565e-14
1.642401613283789447e-14
1.417516732239896076e-14
1.185757714734236411e-14
8.518194574319707300e-15
6.203949120998381893e-15
4.926171968957464872e-15
3.270270600761359714e-15
2.425430410009164173e-15
1.676691037754612989e-15
1.142163834636767128e-15
7.809669832079998998e-16
5.324209828717050485e-16
3.649505322569553045e-16
2.523433379338382110e-16
1.773826007232240889e-16
1.270376869784663670e-16
9.292917571729410186e-17
6.939209801184836431e-17
5.269196961787937874e-17
4.042967336543825431e-17
