# bin_8_8
5.036836077110715001e-11
5.674337362430463277e-11
6.282146537265459344e-11
6.806397619778768926e-11
7.177002363243798024e-11
7.315321611746235722e-11
7.151298302779876501e-11
6.607205083871346694e-11
5.772027785077852486e-11
4.786059182553070581e-11
3.922402727165059754e-11
3.341063668553730276e-11
2.867427165052826963e-11
2.175752223027862525e-11
1.516401838512170480e-11
1.226395283918546540e-11
8.364549633897325237e-12
6.253399462213863447e-12
4.250641079686775427e-12
2.977609271946453335e-12
2.081548039758103541e-12
1.454734076175135603e-12
1.023390162555529383e-12
7.281090018481386261e-13
5.278479803356709454e-13
3.901892996707558389e-13
2.937739279214531009e-13
2.246122208850168329e-13
1.733267024978597150e-13
1.340330816634532055e-13
1.031062205021529442e-13
