# bin_10_8
1.034675561355856593e-11
1.171019208407066650e-11
1.303699249541697027e-11
1.422197689534074301e-11
1.512479474447550195e-11
1.557338566246276401e-11
1.543670756891921496e-11
1.450335195660031918e-11
1.287331953353609442e-11
1.080543762317730095e-11
8.838159639918536937e-12
7.427772507899583527e-12
6.430378255874623897e-12
5.112824647438033706e-12
3.542563064486341716e-12
2.775383588194647825e-12
2.023105406693915506e-12
1.434852537159160734e-12
9.892079153837369931e-13
7.041237907902865795e-13
4.861314349372225955e-13
3.346622242002686488e-13
2.322190932242607098e-13
1.625681535143787662e-13
1.155621078500074400e-13
8.373915923064591285e-14
6.188369979293515755e-14
4.661151668973773802e-14
3.562525143764925618e-14
2.745454491274807242e-14
2.117423490810720954e-14
