# bin_10_10
4.112637037160842418e-11
4.669790023645615068e-11
5.220155567238007211e-11
5.723174385716882787e-11
6.124506934163997686e-11
6.355912769009788096e-11
6.360874858013412865e-11
6.052941540829032899e-11
5.437234639792683274e-11
4.616259823768890072e-11
3.781065287959150458e-11
3.145740075525031009e-11
2.723376837106579416e-11
2.234796361901311765e-11
1.572917541913707470e-11
1.182876102228939291e-11
9.095351966074250189e-12
6.168275486041532619e-12
4.438572180508392177e-12
3.123048759370485541e-12
2.137417010930009467e-12
1.461414259104596218e-12
1.002811411255567204e-12
6.935172817046261216e-13
4.852726888171320967e-13
3.457241792893357282e-13
2.511595693867633887e-13
1.862883700042628377e-13
1.407290173771475993e-13
1.077247014657309829e-13
8.296669405216179369e-14
