# bin_12_7
9.253863753079626369e-15
1.050137455087423898e-14
1.173029611045479688e-14
1.284893283151995964e-14
1.373436471635012689e-14
1.423263441159321848e-14
1.421945672068451189e-14
1.349928090807584140e-14
1.209919955988502741e-14
1.024938585833126952e-14
8.391290852070762015e-15
6.993812127038392475e-15
6.057054742020393491e-15
4.943959770379846008e-15
3.465363869158305197e-15
2.627037283684355415e-15
2.001533861340565077e-15
1.367145042515578074e-15
9.753426957058191905e-16
6.889068618030111761e-16
4.721601181601585869e-16
3.229998585983221623e-16
2.220796274432286582e-16
1.539331055899785216e-16
1.080299382623984193e-16
7.721454225669918380e-17
5.628319158013553202e-17
4.187714717042979377e-17
3.171467646787361764e-17
2.431544975722772006e-17
1.873756544085663145e-17
