# bin_15_8
6.615708411073330422e-17
7.552876266078833411e-17
8.502474024458750309e-17
9.401650163016146127e-17
1.016783419545016341e-16
1.069448109002660511e-16
1.086706860893349905e-16
1.057307777178750520e-16
9.713146693443106212e-17
8.437576750826660927e-17
6.970894550854266622e-17
5.722970827491980869e-17
4.899300230271691079e-17
4.182965541523603090e-17
3.116314254035689621e-17
2.186327017903853583e-17
1.775432839403797868e-17
1.180243571667472239e-17
8.886390063488158341e-18
5.998973905352708748e-18
4.092484000458334058e-18
2.802266388823283746e-18
1.903561553680233876e-18
1.290655156496189295e-18
8.781856043482119558e-19
6.055329674996137786e-19
4.243822095662946818e-19
3.034961048647182141e-19
2.219581567955843359e-19
1.657617739430721217e-19
1.258472413199927577e-19
