# bin_9_1
3.909352526596893390e-22
4.352175185022413981e-22
4.749237243821092598e-22
5.054227393831751334e-22
5.210321299124432644e-22
5.172839399801994651e-22
4.872149706581449641e-22
4.335208547298108365e-22
3.648170684951973606e-22
2.984691889819328801e-22
2.501428195279472112e-22
2.163827595938727952e-22
1.733852429848725947e-22
1.209450503654931186e-22
9.381365043612948464e-23
6.961764622870353456e-23
4.914290059251372620e-23
3.472220841559610154e-23
2.495984359687716815e-23
1.756832176423520503e-23
1.242256533508022355e-23
8.896267660234548946e-24
6.464684835130150650e-24
4.783432987686546984e-24
3.606837184901907773e-24
2.762309423363374137e-24
2.139062940628313479e-24
1.663784278126179960e-24
1.290504399390509554e-24
9.914510593929879392e-25
7.502198045430858102e-25
