# bin_10_6
6.286842386802462073e-09
7.085279863307429523e-09
7.847842267242614978e-09
8.507569287397842986e-09
8.977141855845203609e-09
9.157541422653389350e-09
8.962578613641277276e-09
8.291471071225069086e-09
7.252646687581825690e-09
6.018305153856350114e-09
4.930344439545748064e-09
4.195611597868802491e-09
3.605569978282090111e-09
2.745662227040731596e-09
1.909696048493566497e-09
1.543830040476441769e-09
1.056334092014965270e-09
7.883623190237265447e-10
5.350703670181451943e-10
3.753260645426462376e-10
2.622366542962375834e-10
1.831418121669225526e-10
1.287168266460113458e-10
9.146145367290945600e-11
6.621355974312992725e-11
4.887883399619921730e-11
3.675587597204386893e-11
2.807727271916023405e-11
2.165575364100723385e-11
1.674538719602529053e-11
1.288593160682994865e-11
