# bin_3_1
3.012491023678226801e-07
3.142127660296699569e-07
3.165438134673508674e-07
3.046775430524454546e-07
2.773138321475272158e-07
2.388340502526735834e-07
1.970122855547213137e-07
1.626070460925267851e-07
1.390892212718047895e-07
1.164818355860703754e-07
8.625302680424337047e-08
6.274843144482962471e-08
4.953591551123933861e-08
3.483752417242600166e-08
2.602419227556308166e-08
1.873491974541515168e-08
1.370448958922947685e-08
1.013874481220607105e-08
7.614529236936262488e-09
5.822570784791367851e-09
4.526859044858301071e-09
3.567518442327638454e-09
2.831137460634278851e-09
2.246339356126570406e-09
1.769562470990426236e-09
1.374857168592334798e-09
1.047620716908643708e-09
7.794611047268544932e-10
5.646447937154667647e-10
3.979324710554128042e-10
2.731405851108054134e-10
