# bin_9_3
4.027034092528691754e-14
4.497583631117785910e-14
4.927233579713336490e-14
5.269356453748552109e-14
5.465555561533412697e-14
5.467140618862403385e-14
5.201037357073358824e-14
4.671733317727566493e-14
3.966895238490232777e-14
3.249611540708249342e-14
2.702628715320732594e-14
2.337237497880784567e-14
1.917988339033615311e-14
1.355068721124158247e-14
1.018610973439924083e-14
7.857454588896293539e-15
5.372390581051798116e-15
3.906979915879908322e-15
2.780381270154469810e-15
1.943196370226537940e-15
1.366998877634563628e-15
9.711399225764759759e-16
6.997422487003258196e-16
5.127732258881504482e-16
3.831905604093711017e-16
2.912766784769253239e-16
2.243784938199069153e-16
1.741103826583042808e-16
1.351121070093146682e-16
1.041190453311512017e-16
7.919051748927361567e-17
