# bin_11_10
3.263289795617088163e-06
3.711186794223979961e-06
4.156937737303321600e-06
4.568724353922589681e-06
4.904071945154637260e-06
5.109319065295530176e-06
5.136458211523739953e-06
4.919097589886985464e-06
4.445786748303967577e-06
3.798227099715003013e-06
3.116005034153102211e-06
2.580614962266726623e-06
2.230139635881959011e-06
1.854706932301566762e-06
1.322733473674533243e-06
9.732762612109023431e-07
7.655879991471329143e-07
5.109949358468615354e-07
3.757363204920344971e-07
2.612802860180503246e-07
1.782188345414429376e-07
1.218254830562995263e-07
8.320552642532415958e-08
5.719923358428187087e-08
3.970498651685031876e-08
2.803663205800952455e-08
2.017688495271893755e-08
1.483052751087606238e-08
1.111999697099226354e-08
8.468954291877137594e-09
6.508031008187809473e-09
