# bin_8_4
1.198609851672727130e-09
1.335726009498880448e-09
1.459391228012450592e-09
1.555501694118356635e-09
1.606606123126294364e-09
1.598877211287638708e-09
1.510620156788199946e-09
1.348063635999656411e-09
1.137451427213543669e-09
9.307782182737452991e-10
7.781637549524119962e-10
6.733482484930816683e-10
5.437686449340325914e-10
3.803452569459989928e-10
2.923407209873779910e-10
2.196663710266103047e-10
1.534224433765588197e-10
1.092851297728616560e-10
7.842666396803323774e-11
5.507295850512419848e-11
3.886236809918829898e-11
2.776080320589397331e-11
2.012102711211695105e-11
1.484487680085892834e-11
1.116370947716140840e-11
8.531197875190570846e-12
6.596716173181812988e-12
5.128007995098368144e-12
3.978591486320881062e-12
3.059771492794863928e-12
2.319093558074796580e-12
