# bin_8_7
3.452779581732091318e-11
3.879640174214184554e-11
4.281969619843476710e-11
4.621993272258664452e-11
4.851243457972355322e-11
4.919081152211677409e-11
4.773028467390527486e-11
4.373540378376005209e-11
3.789600638829814218e-11
3.127136459372183969e-11
2.568917799509787996e-11
2.200108094325249421e-11
1.871429949679646808e-11
1.388414119008315876e-11
9.811328955496149233e-12
7.936058167568005722e-12
5.320137888949155789e-12
4.009598627353937327e-12
2.750926147144918333e-12
1.913864257722458957e-12
1.341784208317191366e-12
9.417625016066408677e-13
6.666162181132549833e-13
4.780136344710306786e-13
3.495776791361013070e-13
2.605916129855056686e-13
1.976404967394547013e-13
1.519027398304532942e-13
1.175255717673271997e-13
9.086983162372270144e-14
6.971829793365492557e-14
