# bin_8_5
7.218226451016064156e-13
8.069049819243718915e-13
8.850361265958668915e-13
9.479514814214835293e-13
9.852632242849102647e-13
9.879528925486091188e-13
9.432111488683840390e-13
8.500991402167218365e-13
7.243480778587529969e-13
5.937775236630629790e-13
4.923558267762994285e-13
4.252453393645018199e-13
3.516983529770095572e-13
2.503156588879200743e-13
1.857153367183742491e-13
1.450928092521050351e-13
9.826623975548150801e-14
7.224184267143697757e-14
5.106164953760705851e-14
3.559776042741390131e-14
2.501291779353850717e-14
1.771503687403681719e-14
1.271796279206688260e-14
9.280523440010172905e-15
6.907501227348326210e-15
5.232359883411043733e-15
4.020022668906792323e-15
3.114800487955790775e-15
2.416425722211895852e-15
1.863623169093805028e-15
1.419832242955758895e-15
