# bin_15_10
8.073437703479814505e-14
9.229283783993103215e-14
1.040775788740210816e-13
1.153325279759508986e-13
1.250712273066012580e-13
1.320067716440828076e-13
1.346700463157121560e-13
1.318137445385655669e-13
1.219200685832413567e-13
1.066204365071915823e-13
8.842820365943601494e-14
7.242255569185499179e-14
6.165463475058698320e-14
5.300066235280815278e-14
4.027520779885245148e-14
2.793699540151190577e-14
2.262082271932646675e-14
1.532748716669281329e-14
1.142999028401651698e-14
7.646440680708775289e-15
5.263869134779409482e-15
3.596523677405291769e-15
2.436141476896024337e-15
1.643238841442952287e-15
1.109370721378732424e-15
7.572477071163642679e-16
5.244635035894718414e-16
3.701817054634198106e-16
2.672321566825442297e-16
1.973014311852368221e-16
1.485174652525297174e-16
