# bin_13_2
2.402405183490805706e-32
2.721492960144065605e-32
3.033516147609421976e-32
3.314372758142196444e-32
3.531830984147735457e-32
3.645953862967523742e-32
3.625906119454152814e-32
3.421638197733354667e-32
3.049466299741095878e-32
2.569230124966935671e-32
2.101444258810411967e-32
1.758915115179410131e-32
1.523060665113232426e-32
1.225520240846926247e-32
8.524510671646221729e-33
6.581977020587250014e-33
4.895528775568988461e-33
3.410615621234466902e-33
2.384594394633647103e-33
1.693829813287475826e-33
1.165095325115639646e-33
7.991225648547126884e-34
5.520733214787431175e-34
3.846612864398003718e-34
2.718035459739954868e-34
1.957210495527678092e-34
1.437424666035105369e-34
1.076814968459536292e-34
8.197341640921649532e-35
6.303530535181708268e-35
4.860184106365161026e-35
