# bin_10_9
3.027721886316108963e-11
3.431865303586051098e-11
3.828109972573727962e-11
4.186250380803165472e-11
4.465848679023134881e-11
4.616565682759397700e-11
4.599042260443501865e-11
4.349710329469202402e-11
3.884718775014234666e-11
3.279403327422197851e-11
2.682828013344292360e-11
2.241496404021597317e-11
1.941137662970420169e-11
1.570818802609925842e-11
1.095267251077909058e-11
8.397176840814332337e-12
6.305653886306677379e-12
4.357075626028542696e-12
3.069025932349993274e-12
2.176545752113963474e-12
1.494764626806804219e-12
1.023785403860865098e-12
7.058734913036504945e-13
4.907742598103212387e-13
3.458243821917470352e-13
2.482856962140930759e-13
1.818066883665985819e-13
1.358368326837925032e-13
1.032030708559131427e-13
7.927342443747928789e-14
6.111226221690241851e-14
