# bin_14_2
1.339700244161951479e-34
1.521643030949161840e-34
1.701760547428520623e-34
1.866910716537488162e-34
1.999524052085592896e-34
2.077505502054890868e-34
2.082050327286936505e-34
1.985433909732080153e-34
1.787025504444508695e-34
1.520326075925757740e-34
1.245612908746831293e-34
1.034211591611997278e-34
8.945663074708155618e-35
7.376599906111497997e-35
5.215677016909973664e-35
3.889079251998338453e-35
3.016027874095516609e-35
2.031976408951704412e-35
1.474074869476156041e-35
1.032388474103133603e-35
7.054473403086917036e-36
4.821122294856165942e-36
3.301199632908018785e-36
2.277154052627031706e-36
1.588077232682216543e-36
1.127310212108995934e-36
8.158661819307846933e-37
6.029711739548566925e-37
4.541703374036334729e-37
3.469635240146617473e-37
2.669789221033882591e-37
