# bin_14_14
3.329988435302259244e-11
3.815365946450891243e-11
4.314379847355927950e-11
4.796831953121009263e-11
5.223132977254221337e-11
5.540811116228299488e-11
5.686483745563004692e-11
5.612337779362426052e-11
5.243207803212523055e-11
4.628793884095539404e-11
3.866053572189350092e-11
3.161444306703563495e-11
2.669502580849687034e-11
2.308188583395512670e-11
1.804694809709497811e-11
1.244525662341471875e-11
9.908645771518298832e-12
7.002655382200073005e-12
5.063008824741634477e-12
3.396510391554230141e-12
2.381736190042261386e-12
1.617162399810934623e-12
1.086347465121213849e-12
7.281372133877822671e-13
4.871655756710521939e-13
3.281969085206014276e-13
2.236977818334065658e-13
1.549737706586956856e-13
1.096898523061273814e-13
7.948384194066332973e-14
5.891289847463933709e-14
