# bin_13_3
4.579168057990918395e-08
4.131254686837999232e-08
3.624337936975477041e-08
3.093434942358638661e-08
2.576499882731022724e-08
2.105204107043218122e-08
1.696380750319797827e-08
1.349940403512781659e-08
1.055533875226348264e-08
8.065531815808226060e-09
6.064679706851714544e-09
4.564027510500329167e-09
3.441556160318906364e-09
2.590570456977894868e-09
1.967800595384766817e-09
1.506875010548141131e-09
1.164845319280064390e-09
9.072381465402014809e-10
7.098525589609275749e-10
5.557168732410702793e-10
4.333829551835836769e-10
3.352554292636201400e-10
2.562614538759375662e-10
1.929256522229680563e-10
1.426921617333906103e-10
1.034984205313615778e-10
7.354437728056041767e-11
5.118566461201126153e-11
3.491127167869209834e-11
2.336420430734061180e-11
1.537056039218212349e-11
