# bin_7_2
3.240625995324089210e-08
2.844554451165447601e-08
2.430300006157950633e-08
2.026595156038807946e-08
1.657576836331000486e-08
1.336454370181897615e-08
1.063937151704773365e-08
8.329439009006295180e-09
6.383512991456468909e-09
4.816531292090691420e-09
3.632144177179759796e-09
2.747780732013800920e-09
2.079072324720145209e-09
1.586314512566555848e-09
1.221695823510852740e-09
9.496709994198210994e-10
7.437710557965965940e-10
5.849583088360594087e-10
4.600254476573825360e-10
3.601200829794022421e-10
2.794128511716764690e-10
2.140439567623871424e-10
1.613719387945723272e-10
1.194412345032300903e-10
8.664548410553100135e-11
6.154857273827994458e-11
4.281013936029858928e-11
2.917767942580295024e-11
1.951435264472583771e-11
1.283232299658015677e-11
8.315203086239167241e-12
