# bin_15_13
9.433802107231807576e-08
9.107155108002539213e-08
8.588900526672626848e-08
7.896305207363041063e-08
7.065589946876044577e-08
6.150064824737942281e-08
5.213559548094202294e-08
4.319119743693303151e-08
3.514048082190064904e-08
2.818885918053187740e-08
2.229041062269874419e-08
1.728698810537891636e-08
1.310288953997080760e-08
9.780930724731435834e-09
7.291123245922429039e-09
5.425471904595508255e-09
4.018779322865240238e-09
2.995308300557301301e-09
2.242775068446514426e-09
1.691850811796315959e-09
1.284207792863294720e-09
9.792880099596309628e-10
7.480846273262499392e-10
5.705363704804062725e-10
4.329053729798160100e-10
3.257011156760191727e-10
2.422833549937487057e-10
1.777906118260708573e-10
1.284757079807597879e-10
9.132031506492602214e-11
6.381210043688572322e-11
