# bin_5_3
3.805098705131725310e-08
3.394006478711724990e-08
2.946009524733716186e-08
2.491513811288928161e-08
2.060326113511969473e-08
1.674308476750984473e-08
1.342494791415447580e-08
1.061893085636379588e-08
8.246275839434019306e-09
6.273216791106641872e-09
4.719783665651329150e-09
3.560158569738622793e-09
2.689059400038873386e-09
2.033876385495054296e-09
1.553322545381544123e-09
1.196088124703313862e-09
9.291160376616076942e-10
7.262097295272681973e-10
5.691822696067738184e-10
4.454609867882800850e-10
3.466217978806812177e-10
2.670726347033584961e-10
2.030394672191338574e-10
1.518637638369673875e-10
1.115078903832241649e-10
8.026165708537753357e-11
5.659401963545912834e-11
3.909610352114349476e-11
2.648222749124591053e-11
1.761463162207484557e-11
1.152732016075782020e-11
