# bin_13_10
8.461441132242679830e-08
8.090149354953166220e-08
7.550115916016316040e-08
6.863936293099453194e-08
6.071142128014480369e-08
5.224884919120508331e-08
4.384209519049868619e-08
3.602280624927101861e-08
2.912673465280980248e-08
2.323829964279211003e-08
1.824930337177418305e-08
1.402631296734104645e-08
1.055482114837594100e-08
7.875727672702569685e-09
5.886290422818418750e-09
4.380051762617478186e-09
3.262233745540838238e-09
2.447279365609789912e-09
1.846957547591394445e-09
1.404212062564446147e-09
1.073906048382365438e-09
8.239572119905547189e-10
6.321152727398854459e-10
4.831324668238429695e-10
3.665715710589339459e-10
2.752102114395288011e-10
2.039070844726734589e-10
1.487853027023534226e-10
1.067599229159088600e-10
7.526701878249747885e-11
5.212325810164729172e-11
