# bin_10_4
5.252841752430620401e-08
4.806260926597679202e-08
4.279060150975208836e-08
3.705303442988153438e-08
3.125311961075839086e-08
2.578234560994551990e-08
2.091602603009163806e-08
1.675254668358919056e-08
1.322994993599519177e-08
1.023766856721037754e-08
7.749703995874294276e-09
5.812032073793537305e-09
4.375992712030162382e-09
3.288570137747410745e-09
2.476155502006232764e-09
1.882173221070655640e-09
1.441677734647996052e-09
1.113838727919775673e-09
8.660166043807755372e-10
6.753646053181616555e-10
5.261453662190136066e-10
4.077555097409836960e-10
3.130986060071282998e-10
2.373589868900315705e-10
1.771414167125084205e-10
1.298572906503351401e-10
9.336741097022478856e-11
6.579301243459907191e-11
4.543667881980772746e-11
3.077346386078281165e-11
2.046727922159557377e-11
