# bin_13_1
2.322292066692317987e-08
1.982886969205861769e-08
1.653101177041225379e-08
1.352283181338248600e-08
1.090592127166498758e-08
8.680621056972173943e-09
6.792027584085668114e-09
5.206605924381138639e-09
3.936529693528888064e-09
2.975107362760044351e-09
2.255819412796242940e-09
1.714256070931579182e-09
1.314130663659834289e-09
1.017709073046222253e-09
7.957050252792427349e-10
6.267652302875573946e-10
4.955175572178941757e-10
3.914256605071962499e-10
3.074961910282024156e-10
2.391786012111478374e-10
1.834956931711507787e-10
1.384164333829732509e-10
1.024201679600384913e-10
7.422533652786958049e-11
5.264931615917152162e-11
3.655854830763278950e-11
2.487533680584534478e-11
1.661285895298204645e-11
1.091240936129981463e-11
7.066267359448939092e-12
4.521116617929654424e-12
