# bin_9_2
7.169762977222455160e-36
7.996893579049817750e-36
8.746495846773959504e-36
9.334639203771505364e-36
9.656436640076700536e-36
9.629673755120476032e-36
9.120499175821774352e-36
8.156699786614222409e-36
6.894562290713567306e-36
5.640572517150077176e-36
4.706177419368423182e-36
4.076232717122407204e-36
3.314012494368697374e-36
2.316833675495390624e-36
1.770339418422419269e-36
1.344161872088289726e-36
9.293487818556819736e-37
6.654263102051704790e-37
4.784361625515860499e-37
3.352821785454575151e-37
2.359179617185959481e-37
1.681785702660962640e-37
1.216645836134888592e-37
8.956811519785120092e-38
6.722793953958847292e-38
5.129683567996844775e-38
3.962875251604882369e-38
3.079914176989910606e-38
2.390629407872279114e-38
1.840380397583718331e-38
1.396873589040045573e-38
