# bin_14_6
7.351380824993401153e-21
8.322106945017046653e-21
9.267583238413206015e-21
1.011332495177910447e-20
1.075968931205454868e-20
1.108376640315167890e-20
1.099380843522918975e-20
1.033649228513997039e-20
9.180516934018533470e-21
7.708630047771234247e-21
6.303679447242620664e-21
5.294725288320242667e-21
4.586641847963834083e-21
3.654647151858016984e-21
2.528404467492529527e-21
1.980073067850829247e-21
1.447588780727785596e-21
1.024105976485797091e-21
7.049518738582882913e-22
5.034207779365854130e-22
3.473345755999016583e-22
2.387966161256396203e-22
1.656419826566803847e-22
1.158962482245633358e-22
8.232804020305325241e-23
5.961597449274692081e-23
4.402810075237619731e-23
3.314698667437846316e-23
2.532863609790347111e-23
1.952031810804363349e-23
1.505931617435652690e-23
