# bin_4_1
3.402591929414661359e-13
3.610050127950937979e-13
3.709816777478560368e-13
3.670389469708880924e-13
3.443452229637504908e-13
3.053141757315287418e-13
2.561578928388150532e-13
2.094554977509079309e-13
1.758131294955441402e-13
1.518563417396834349e-13
1.208737125489710879e-13
8.453902319704266565e-14
6.623530954081954361e-14
4.904568340137697646e-14
3.537499871034075258e-14
2.535025168868106340e-14
1.864893169276817246e-14
1.358618525168822471e-14
1.002040220831579427e-14
7.527528397449903545e-15
5.756469235733408300e-15
4.476192088962832786e-15
3.523495381853506603e-15
2.788806116744962255e-15
2.203985712532828573e-15
1.727065354940336799e-15
1.333312817330140745e-15
1.008672607834866527e-15
7.446552578431475133e-16
5.350211747428220264e-16
3.739491125636655166e-16
