# bin_10_2
1.298808374475486781e-42
1.455601308576115817e-42
1.601414379052298706e-42
1.721621269127898271e-42
1.797698692110981135e-42
1.812169603656868702e-42
1.742735296434518244e-42
1.581609837017308419e-42
1.357130450064863535e-42
1.114694463110597505e-42
9.200522913367825919e-43
7.933409469341828847e-43
6.657596963707030841e-43
4.804252942539732121e-43
3.483417418457926585e-43
2.788020859865788198e-43
1.855719191212845475e-43
1.394336758407757119e-43
9.736746526017922651e-44
6.760059115796233415e-44
4.746647367024266737e-44
3.345474553592573121e-44
2.388170212007197422e-44
1.730990308693899304e-44
1.280035380195397804e-44
9.641159771481039984e-45
7.375783244744684049e-45
5.702210441762940144e-45
4.423353225248526464e-45
3.418018421543588439e-45
2.613392787743920127e-45
