# bin_8_8
6.406464476091584463e-06
7.221910041534596107e-06
8.001523635728061918e-06
8.677256650660488337e-06
9.160211077625954207e-06
9.348318274223869895e-06
9.155957663687382838e-06
8.476040400560123244e-06
7.419164849497111690e-06
6.157292512575194082e-06
5.041921007674934943e-06
4.289182259513337190e-06
3.691059058828791712e-06
2.814914980378851643e-06
1.952592983218474160e-06
1.582104058505408852e-06
1.080939532249503864e-06
8.088639150130997537e-07
5.469727233492501714e-07
3.836178112592379709e-07
2.681541059709018715e-07
1.873785041785840067e-07
1.316396751022339569e-07
9.347150508620166542e-08
6.762486644538672074e-08
4.989074236361471753e-08
3.749881322309341081e-08
2.863739111540327185e-08
2.208749003878310934e-08
1.708307266772148999e-08
1.315124795742379072e-08
