# bin_13_6
9.475196303319183456e-18
1.070794859440444675e-17
1.189952283872660010e-17
1.295210149068594920e-17
1.373585366791978710e-17
1.409411170461298453e-17
1.390825360930017490e-17
1.299275264168749516e-17
1.147062794501782765e-17
9.581614990345686352e-18
7.836158708073671126e-18
6.617052017404213248e-18
5.722823146430757497e-18
4.478713472186196080e-18
3.092239473727973990e-18
2.464468046015291678e-18
1.749353099002318567e-18
1.270369991765294216e-18
8.616669853044994543e-19
6.128938456475014854e-19
4.251326631846876206e-19
2.942844255233714448e-19
2.052577412234475402e-19
1.444846325145380876e-19
1.034347107234315914e-19
7.550372968243986173e-20
5.619462677996413510e-20
4.258268702466794874e-20
3.268446861451302625e-20
2.524025370462707433e-20
1.946315296419727475e-20
