# bin_14_8
5.494790822805371621e-13
6.244069612837177728e-13
6.986883467612652704e-13
7.669391139302877252e-13
8.219505743414155733e-13
8.546423138108599390e-13
8.572269081572927049e-13
8.182221515830188666e-13
7.370506209846070470e-13
6.275216702763710700e-13
5.142161932886934570e-13
4.268004149905297475e-13
3.694011331411281125e-13
3.052477888901373232e-13
2.158476016345538361e-13
1.607001916692455945e-13
1.250562031785198615e-13
8.398145938462892045e-14
6.113562167304192942e-14
4.281088706112415587e-14
2.924584708076039709e-14
1.998053207378816144e-14
1.367400660060328742e-14
9.430149374045858261e-15
6.574377134521420841e-15
4.665100432127007963e-15
3.374939052558784084e-15
2.493491637781840987e-15
1.877883597006219419e-15
1.434743304834552711e-15
1.104374968047690083e-15
