# bin_11_6
2.429085605242106869e-12
2.734914038487934374e-12
3.025712078286241177e-12
3.275322492355534085e-12
3.449847540925673267e-12
3.511676363063288346e-12
3.426590595127602246e-12
3.158562287875476517e-12
2.753190781968823740e-12
2.278922710299987648e-12
1.868178186116977024e-12
1.594465713919177701e-12
1.366843206812115364e-12
1.029897126075168028e-12
7.184649607683714898e-13
5.840323610740597100e-13
3.937928861366772873e-13
2.970556518829727232e-13
2.018527384493154488e-13
1.407524360512845888e-13
9.862767515330274819e-14
6.911007843400695441e-14
4.871450311145542953e-14
3.473823761394909356e-14
2.525451644027790373e-14
1.872013391985929486e-14
1.412987981517005868e-14
1.082462578087264751e-14
8.363225796665077886e-15
6.469748568712758197e-15
4.974834966649763265e-15
