# bin_9_9
6.450423685674997537e-06
7.303078564905990852e-06
8.133993071745673943e-06
8.877902130429074756e-06
9.447440576033056496e-06
9.734666603638494523e-06
9.659131952692752093e-06
9.085644243553097659e-06
8.072865772346707699e-06
6.780914453996714226e-06
5.544968526717756053e-06
4.655768115650957549e-06
4.033621010456478332e-06
3.217987324061199519e-06
2.226452888960402354e-06
1.741587452116264154e-06
1.275801086069158597e-06
9.009201188409996915e-07
6.207438627251745708e-07
4.434659947054590797e-07
3.058571632591935570e-07
2.101699232519890400e-07
1.457308948906403829e-07
1.019228139735712278e-07
7.236292501895139946e-08
5.237052971943005259e-08
3.865606215416135175e-08
2.908921654501991147e-08
2.222095325377337304e-08
1.712288689387907114e-08
1.321027892459880797e-08
