# bin_9_5
1.671510310084003686e-13
1.876286118603110875e-13
2.068257588609884213e-13
2.228863139399848176e-13
2.334448891714218324e-13
2.361319071941752374e-13
2.282419291406490472e-13
2.082228681882493074e-13
1.796267470422838273e-13
1.478643887962755723e-13
1.216935855593673224e-13
1.046170881079641792e-13
8.855394289040317783e-14
6.480635327735848094e-14
4.622189671559275732e-14
3.741829188284387957e-14
2.481761609796923406e-14
1.880390990651440617e-14
1.300007652177341163e-14
9.011113595379972161e-15
6.328433624929971541e-15
4.451043275809772075e-15
3.163416543315695457e-15
2.280158632139577546e-15
1.676750925776321283e-15
1.256489849732826280e-15
9.572747857775368059e-16
7.381333612120474204e-16
5.720680989323651093e-16
4.423856738432687169e-16
3.389859376648996418e-16
