# bin_15_11
1.072970219066009707e-07
1.227919745180320531e-07
1.386481126944682790e-07
1.538690851654459199e-07
1.671545628952494139e-07
1.767965215147357291e-07
1.807966617045830113e-07
1.775453787851068589e-07
1.648487908132998091e-07
1.446933886524566566e-07
1.203197500884285997e-07
9.849880034669160758e-08
8.364104866031996897e-08
7.210650242920651521e-08
5.536223326002846190e-08
3.828735580832343039e-08
3.087251869129361800e-08
2.120919290176874556e-08
1.567966099797429085e-08
1.047457692426782510e-08
7.260712962947756337e-09
4.952628393792526072e-09
3.347661022452456091e-09
2.253707384540404286e-09
1.516964920440500248e-09
1.031011932203863773e-09
7.103320460091149321e-10
4.983373331746609311e-10
3.574841985365987804e-10
2.623968347193172053e-10
1.966006526623555050e-10
