# bin_6_5
2.237202280948874002e-06
2.481723118080542773e-06
2.696246918520588842e-06
2.853671407653322049e-06
2.921864711309316450e-06
2.875550523679216485e-06
2.678157102148518403e-06
2.357843452716453260e-06
1.965533055807024844e-06
1.607681597344140093e-06
1.359778165201447495e-06
1.173735283646700830e-06
9.125930364651109756e-07
6.323609433696515959e-07
5.065276871318158999e-07
3.581579457084026472e-07
2.636520590010919972e-07
1.813778419390819005e-07
1.305003288160366857e-07
9.269765561536046939e-08
6.614615567716952443e-08
4.780212578300949571e-08
3.505588567329490869e-08
2.620551722182169440e-08
1.994107330578363185e-08
1.538366222430739597e-08
1.196869900579381075e-08
9.324441958289114789e-09
7.222919879870488328e-09
5.527476096273735824e-09
4.157569188008398951e-09
