# bin_10_6
1.108948032650097809e-12
1.251251392233480408e-12
1.387848466127612804e-12
1.507084395864658749e-12
1.593636447393730628e-12
1.629509444216020019e-12
1.600398058345251536e-12
1.486363836302182629e-12
1.305082317253906794e-12
1.085394350484957020e-12
8.881824218172637046e-13
7.536516487548946305e-13
6.501367636092549000e-13
5.003486686565753645e-13
3.459701554579858003e-13
2.792280260926834088e-13
1.930484230392674337e-13
1.432957620888524945e-13
9.666048943308445588e-14
6.815774948598524990e-14
4.752953067771894532e-14
3.312301079082069071e-14
2.321179467222062767e-14
1.642963285332952686e-14
1.184271337981476490e-14
8.705122363867550832e-15
6.521244041082762376e-15
4.967614629607679187e-15
3.825810462447166094e-15
2.958088478560550705e-15
2.279054293710808248e-15
