# bin_10_1
-3.524331599526120699e-09
-3.421238530509510100e-09
-3.160836925076694809e-09
-2.773939765961195168e-09
-2.334882311272221006e-09
-1.935437212348098857e-09
-1.622535514009987892e-09
-1.351586306036109751e-09
-1.060256756657362791e-09
-7.866963412573735858e-10
-5.928428113267953227e-10
-4.443911411209722784e-10
-3.246966944538700651e-10
-2.397575048367535880e-10
-1.773329589678138130e-10
-1.329212987961579577e-10
-1.012373527186794226e-10
-7.847993575737350100e-11
-6.180349222674541380e-11
-4.921251464553619066e-11
-3.936941266744158534e-11
-3.141141589989526261e-11
-2.482255343072279196e-11
-1.930955953339733653e-11
-1.471209957318751929e-11
-1.093914277645072471e-11
-7.922577078345836406e-12
-5.587645654350368053e-12
-3.842952001987872776e-12
-2.583702831344710772e-12
-1.703237019804240899e-12
