# bin_9_4
-8.547618547646856706e-10
-9.280061965225133820e-10
-9.817542174897417883e-10
-1.005480773039115796e-09
-9.895155614609614166e-10
-9.233249162897540190e-10
-8.145549655088370884e-10
-6.820810704015055035e-10
-5.594857337254415692e-10
-4.715937876373356491e-10
-4.041841867387035841e-10
-3.169164862551889188e-10
-2.246346134310055580e-10
-1.750117303168405237e-10
-1.278895175749583380e-10
-9.233221467708785465e-11
-6.614571194377524657e-11
-4.775235540922858840e-11
-3.439011871839785163e-11
-2.503038764242824292e-11
-1.849747582569940713e-11
-1.390319418948626689e-11
-1.063511435042317437e-11
-8.254479049915136075e-12
-6.462962748752452229e-12
-5.071888152028896583e-12
-3.961586641752376760e-12
-3.059704518425730621e-12
-2.323701497735554644e-12
-1.727551695535119591e-12
-1.253296504319650977e-12
