# bin_8_15
-9.296593192261074128e-19
-1.061016602582308095e-18
-1.193929434822542181e-18
-1.319544788253062551e-18
-1.426215613388674336e-18
-1.498946715676492602e-18
-1.521829808837357576e-18
-1.478783742695909934e-18
-1.356621376974440394e-18
-1.176829363875528463e-18
-9.715473747736775919e-19
-7.980493061673060416e-19
-6.838574462488428553e-19
-5.828653218509802550e-19
-4.325425803385700848e-19
-3.043612950242781882e-19
-2.469996135455046497e-19
-1.638255861661682028e-19
-1.233958153531058439e-19
-8.348671917697861979e-20
-5.689914599261499691e-20
-3.896423245953601170e-20
-2.647639440530302236e-20
-1.797173961007510703e-20
-1.224796425628251115e-20
-8.463022388905329514e-21
-5.945465704697589217e-21
-4.262859103460730396e-21
-3.125334926267720917e-21
-2.338945199913861870e-21
-1.778337307551536198e-21
