# bin_11_1
-3.367638552505077729e-09
-3.308897120819739307e-09
-3.098145736035223385e-09
-2.752377434456867224e-09
-2.334261876888000395e-09
-1.933642758844897122e-09
-1.616243928657799704e-09
-1.358349403658579300e-09
-1.085118141317735379e-09
-8.077671834180873531e-10
-6.050519215181385019e-10
-4.573177978191609078e-10
-3.335357414723536399e-10
-2.458971813836778461e-10
-1.811224967895016926e-10
-1.350262198848321734e-10
-1.021514808432326522e-10
-7.865606918507782537e-11
-6.158724026152668324e-11
-4.884480946862573434e-11
-3.900855454085594204e-11
-3.114407531044984904e-11
-2.468145848296824544e-11
-1.929083414526036543e-11
-1.478908388113454595e-11
-1.107491634690371892e-11
-8.080969416176995247e-12
-5.740832460054966890e-12
-3.974468507019121533e-12
-2.687452429990328140e-12
-1.780078305920687055e-12
