# bin_9_6
-3.388160855951184598e-10
-3.761415519315625113e-10
-4.090573143614595950e-10
-4.334862322435179559e-10
-4.446460557386771609e-10
-4.384832644151605452e-10
-4.097179831989077149e-10
-3.618410187751497830e-10
-3.028072293190197120e-10
-2.479865522809603879e-10
-2.091017442302166484e-10
-1.800994173172560475e-10
-1.413511616449807959e-10
-9.891569797493246353e-11
-7.775804065193745380e-11
-5.618194137496918793e-11
-4.051904451123430215e-11
-2.843998513987129002e-11
-2.036087593596966745e-11
-1.440661877527430161e-11
-1.024826442097697874e-11
-7.381720283877567220e-12
-5.397124018712775687e-12
-4.020016738180456023e-12
-3.048839513225803210e-12
-2.345370287625037857e-12
-1.820856428600065655e-12
-1.416903215720355274e-12
-1.097325268749409125e-12
-8.403288700653624437e-13
-6.329836866168554522e-13
