# bin_8_1
-3.330987322277872544e-09
-3.231682562582456611e-09
-2.983777255433620157e-09
-2.616979542019599322e-09
-2.201939428928132840e-09
-1.825299878997410958e-09
-1.530436672807687153e-09
-1.274304589543019531e-09
-9.987012536253815195e-10
-7.409060913202032461e-10
-5.585138690345979629e-10
-4.184734389141724424e-10
-3.057924813130760379e-10
-2.258151047790987681e-10
-1.670567063134860082e-10
-1.252531222157632770e-10
-9.542930609344278135e-11
-7.400247520216310031e-11
-5.829411792654098378e-11
-4.642726722557276760e-11
-3.714437246795911476e-11
-2.963516536892027964e-11
-2.341558931443564746e-11
-1.821079677521677915e-11
-1.387065405041058611e-11
-1.030979682774868173e-11
-7.463956917466500914e-12
-5.262242086800276687e-12
-3.617925600558274210e-12
-2.431694066788223479e-12
-1.602633625512383541e-12
