# bin_8_3
-1.230256016548144390e-09
-1.309505264949541010e-09
-1.351843482335149016e-09
-1.344196845608504538e-09
-1.271902924288645791e-09
-1.138114027049403612e-09
-9.654670729109622646e-10
-7.938058970412824905e-10
-6.623157404692276020e-10
-5.672657588462519757e-10
-4.593786833012762043e-10
-3.323457600400032587e-10
-2.502650311090416235e-10
-1.905951582185259729e-10
-1.354483372197168754e-10
-9.940859430530599070e-11
-7.175755261253776598e-11
-5.213918961857324637e-11
-3.833316349953952436e-11
-2.861318600854677834e-11
-2.173231199740292335e-11
-1.678280067129330141e-11
-1.313721802449153768e-11
-1.035826128636405672e-11
-8.170503142518809481e-12
-6.403247709015177437e-12
-4.953531428786357268e-12
-3.762025481467741051e-12
-2.792876875744582836e-12
-2.020904629330055687e-12
-1.423822519543421834e-12
