# bin_7_4
-6.391738336591627663e-10
-6.934529387687553950e-10
-7.329659387044774912e-10
-7.498747458979338779e-10
-7.369263991748354830e-10
-6.864345581232455000e-10
-6.045405466415871897e-10
-5.055330862815390341e-10
-4.146943033637001491e-10
-3.499810562470458183e-10
-2.997470748669653405e-10
-2.340392016432567945e-10
-1.658208188108013987e-10
-1.296117057789674091e-10
-9.425337054964194045e-11
-6.828344992195078868e-11
-4.882506780384137872e-11
-3.527381317862178420e-11
-2.542727204682723580e-11
-1.852492530813002949e-11
-1.370631159052391311e-11
-1.031481833803842442e-11
-7.899777049044364461e-12
-6.137252294338874076e-12
-4.808200070164612021e-12
-3.774191906400633897e-12
-2.947536601997928588e-12
-2.275387775501384531e-12
-1.726679432632862559e-12
-1.282358839518487641e-12
-9.291796902633940452e-13
