# bin_5_6
-1.287153427176802221e-11
-1.420309750037563664e-11
-1.533095838128917234e-11
-1.609508936181611214e-11
-1.632796399232402657e-11
-1.585720791756393433e-11
-1.455212894106703777e-11
-1.262887028285165557e-11
-1.043830760813687270e-11
-8.576363242187945018e-12
-7.329809150110601641e-12
-6.233806615901981949e-12
-4.660091613348987716e-12
-3.303114222906135323e-12
-2.656944717767879213e-12
-1.819019065017946591e-12
-1.365311965654104993e-12
-9.509402748974121782e-13
-6.764477495745195016e-13
-4.839777240633160255e-13
-3.486758155090301691e-13
-2.546366634403655224e-13
-1.889760320491193530e-13
-1.429453574730003257e-13
-1.098504547109847339e-13
-8.534126003448809577e-14
-6.662090417677023536e-14
-5.188102141083512565e-14
-4.003528344125524432e-14
-3.043477364135979569e-14
-2.268802271168842121e-14
