# bin_10_10
-2.841079140320092073e-11
-3.216744998418099011e-11
-3.583008852554162802e-11
-3.911092047412193828e-11
-4.162583078886174790e-11
-4.290289235860398307e-11
-4.257770759700162352e-11
-4.006890361377634161e-11
-3.562015218010511669e-11
-2.994413166851356318e-11
-2.449754556661386062e-11
-2.056043510121595266e-11
-1.779828422718762129e-11
-1.421168200883849939e-11
-9.869961935602956574e-12
-7.687531220399517450e-12
-5.645888414046455939e-12
-3.978145268445892644e-12
-2.760710613339938709e-12
-1.961552200780135841e-12
-1.352660261445898829e-12
-9.302936725657265747e-13
-6.445523423910519671e-13
-4.505131901954415233e-13
-3.195979876345811555e-13
-2.310925710378289482e-13
-1.704095548239951492e-13
-1.281062818625599041e-13
-9.776803758835999391e-14
-7.527907533955279924e-14
-5.804532189458502124e-14
