# bin_6_4
-4.874277826444222582e-10
-5.283735517641931303e-10
-5.578889313379279490e-10
-5.700273260586178076e-10
-5.592351967727788743e-10
-5.198309142431598230e-10
-4.568793124395094876e-10
-3.814352849110119247e-10
-3.129270253924744601e-10
-2.644903591078154348e-10
-2.263256195777882102e-10
-1.758068486802893894e-10
-1.245186587360495438e-10
-9.770594786394301101e-11
-7.062954116439137334e-11
-5.138914852139906484e-11
-3.666049786292394816e-11
-2.650732251238798248e-11
-1.913034319485573194e-11
-1.395385078036021277e-11
-1.033913770711981959e-11
-7.792405031558641840e-12
-5.976568147423874816e-12
-4.648350836848571597e-12
-3.644355090138634689e-12
-2.861408818903713772e-12
-2.234255324732421552e-12
-1.723725531434713119e-12
-1.306796066927817236e-12
-9.693026057787821143e-13
-7.013061185615275726e-13
