# bin_6_9
-8.139067087376868034e-14
-9.134021937777962823e-14
-1.006560577237574330e-13
-1.084332869858973189e-13
-1.135182038133776107e-13
-1.147666586318390968e-13
-1.108589871824636092e-13
-1.010936891852836735e-13
-8.717223424783449726e-14
-7.177562214883203046e-14
-5.911519420885641407e-14
-5.080586551825279278e-14
-4.292154781569280433e-14
-3.141383341000602501e-14
-2.248474130374156487e-14
-1.809247449300360634e-14
-1.208661966267477176e-14
-9.096979733329866889e-15
-6.296102157946677399e-15
-4.374870069738846037e-15
-3.070840944034323266e-15
-2.161035367337916451e-15
-1.536509750177165971e-15
-1.107958195685749184e-15
-8.149863048172871242e-16
-6.108309273098927441e-16
-4.653861271460319608e-16
-3.587947986409981408e-16
-2.779859678395910052e-16
-2.148757442559326432e-16
-1.645712472880064775e-16
