# bin_1_9
-8.233383065717694830e-29
-9.162524197899827402e-29
-9.993774054214202686e-29
-1.062935077067159944e-28
-1.094966659494067879e-28
-1.086094715154822828e-28
-1.021759424557325315e-28
-9.081274216255975795e-29
-7.634443536517228118e-29
-6.245607134967099691e-29
-5.239248059739909716e-29
-4.531464482215212209e-29
-3.620037596803076203e-29
-2.522812288497026021e-29
-1.963579083623314588e-29
-1.450144931539542652e-29
-1.027822206342825852e-29
-7.240488980964145963e-30
-5.207383987565376157e-30
-3.668428153147857322e-30
-2.595914594652228691e-30
-1.860708377504183790e-30
-1.353356036346053474e-30
-1.002423033645194400e-30
-7.565635862084354036e-31
-5.798523742011581840e-31
-4.492444575389314668e-31
-3.494893812868926892e-31
-2.710452704019861191e-31
-2.081526371428885460e-31
-1.574105278746418845e-31
