# bin_4_3
-4.251458339877543528e-10
-4.517003040492469951e-10
-4.652145478990570338e-10
-4.612603950720410406e-10
-4.346924852854007633e-10
-3.873109373227215137e-10
-3.271707817898354480e-10
-2.685695643865565607e-10
-2.246366266360817188e-10
-1.927003188982058621e-10
-1.548423569081987093e-10
-1.110022598549190253e-10
-8.449564000018737824e-11
-6.384754102731378833e-11
-4.546192117844794617e-11
-3.327886099849547681e-11
-2.410983119657771223e-11
-1.752986857138985977e-11
-1.291448336258172128e-11
-9.666491027063767289e-12
-7.363188508282661047e-12
-5.702188720217258290e-12
-4.473513542172902831e-12
-3.532254840774102422e-12
-2.787787513850134815e-12
-2.184102730481397058e-12
-1.687686738567452332e-12
-1.279329728662774337e-12
-9.473734859169671740e-13
-6.834574854649094720e-13
-4.799642935771957514e-13
