# bin_2_6
-7.430832082715535695e-17
-8.113210357243512856e-17
-8.643239278808340591e-17
-8.925124361813903380e-17
-8.880309943801761593e-17
-8.392736263359447844e-17
-7.493262597330293270e-17
-6.328750364898508630e-17
-5.181464587459707525e-17
-4.327904480519448203e-17
-3.738087181682508280e-17
-3.023190091344928571e-17
-2.130475479724795591e-17
-1.630859659120342228e-17
-1.234182591387361745e-17
-8.669289153420596015e-18
-6.273138394025188509e-18
-4.533960559928535701e-18
-3.240550052759993851e-18
-2.340209642256667603e-18
-1.715046182133463818e-18
-1.278384240933352041e-18
-9.700988293914271694e-19
-7.483631977733129036e-19
-5.837617229483770402e-19
-4.576441307494332164e-19
-3.580667523829754146e-19
-2.776766624958409397e-19
-2.121656756861281736e-19
-1.589464174313996223e-19
-1.163149152640238101e-19
