# bin_1_8
-5.868516077637106087e-26
-6.489999107482648755e-26
-7.024516529333007923e-26
-7.399896127215103580e-26
-7.536272868046428052e-26
-7.360078397081118207e-26
-6.795425090027412805e-26
-5.932650567621706213e-26
-4.919371490981335253e-26
-4.032732568916560471e-26
-3.432965417352452022e-26
-2.940751564726651318e-26
-2.233315804967486098e-26
-1.564901859855438955e-26
-1.261270319305526410e-26
-8.709544759938799692e-27
-6.513790851869769336e-27
-4.508560536366045674e-27
-3.216052554457530917e-27
-2.295641727590890856e-27
-1.648007774270075983e-27
-1.198305231718786419e-27
-8.849369404702385399e-28
-6.662217178586756273e-28
-5.099998947544894618e-28
-3.951548799749100060e-28
-3.081145140638004929e-28
-2.400303765056139505e-28
-1.855446317887571303e-28
-1.414536911818124481e-28
-1.058474949550152638e-28
