# bin_9_7
-1.873492525826004298e-10
-2.093836474077282294e-10
-2.295785645877299669e-10
-2.457781757344137446e-10
-2.552820719282326502e-10
-2.557475758345816800e-10
-2.438848196572497572e-10
-2.196093735261602801e-10
-1.869881513747736064e-10
-1.533562692692689114e-10
-1.273547830369205410e-10
-1.099579422242784961e-10
-9.061637114018768650e-11
-6.453256875203132338e-11
-4.807240489600106381e-11
-3.731266357424522547e-11
-2.545471728212493318e-11
-1.862355957052969627e-11
-1.316629964851221343e-11
-9.195355745307526037e-12
-6.470200624143918143e-12
-4.589795148556679003e-12
-3.299388275975140882e-12
-2.410943390887902942e-12
-1.796680351506871220e-12
-1.362306996824905956e-12
-1.047310048286442184e-12
-8.116390786260463150e-13
-6.295406816274671420e-13
-4.852778050890120992e-13
-3.694526135021608156e-13
