# bin_2_11
-1.629617283496418067e-29
-1.833688122650276285e-29
-2.027196977231627895e-29
-2.192492908408966457e-29
-2.306770501660089545e-29
-2.345300979730032171e-29
-2.284332067365801566e-29
-2.101822836756730380e-29
-1.828706768449352509e-29
-1.512620806975346501e-29
-1.241191918873316140e-29
-1.060454978234256854e-29
-9.063797908327255019e-30
-6.798363076338711929e-30
-4.768709018358670254e-30
-3.862578123895363642e-30
-2.607152676728429985e-30
-1.960693200242937763e-30
-1.338461973953043565e-30
-9.338288153747437068e-31
-6.540809498863058700e-31
-4.583032188816334685e-31
-3.234973208027665757e-31
-2.311240270740792670e-31
-1.683491102346434691e-31
-1.250155165484398351e-31
-9.450282320926137425e-32
-7.246629895525821173e-32
-5.600679192854292856e-32
-4.331370153764846571e-32
-3.327790699247464166e-32
