# bin_1_5
-1.561703188881692940e-17
-1.678335061353239607e-17
-1.752920132143425510e-17
-1.768227859749205828e-17
-1.703985762815706354e-17
-1.551598599521501049e-17
-1.336326901219533980e-17
-1.100941793532403056e-17
-9.077516100051628749e-18
-7.782858582469682091e-18
-6.541422711975528269e-18
-4.814350742353520537e-18
-3.483220642758763729e-18
-2.774473012290963118e-18
-1.915038757799776856e-18
-1.437859180583194071e-18
-1.023082961268688110e-18
-7.381148736122276568e-19
-5.386384827694273480e-19
-3.979651516293570597e-19
-2.990454679623223445e-19
-2.285891097915827174e-19
-1.775877400355422668e-19
-1.394267611034010656e-19
-1.099009512398538423e-19
-8.637570892197812237e-20
-6.722143179671764225e-20
-5.149455856030172131e-20
-3.863624426018514500e-20
-2.828541356784291465e-20
-2.016306601610930820e-20
