# bin_9_8
-9.034195398375026816e-11
-1.014607259073725574e-10
-1.119087426366120696e-10
-1.206891225496890686e-10
-1.265257141583948210e-10
-1.281209585674244353e-10
-1.240551316232828628e-10
-1.134330803366828499e-10
-9.807918559996673882e-11
-8.088276866625087101e-11
-6.655331434613691242e-11
-5.708356016082798168e-11
-4.837214207989473777e-11
-3.568996237241737096e-11
-2.540667101124142027e-11
-2.044756265806609148e-11
-1.373819538665109128e-11
-1.031480753104653673e-11
-7.110426891747972956e-12
-4.951110280712664458e-12
-3.472373572391658119e-12
-2.440428132087633728e-12
-1.731333266084529145e-12
-1.244931645688311132e-12
-9.129762518626409710e-13
-6.823200933139802131e-13
-5.185766620864485583e-13
-3.991071009288444570e-13
-3.089463848905496006e-13
-2.388082796437514006e-13
-1.830485279771877330e-13
