# bin_12_5
-7.146972986982668944e-10
-7.874388435998660629e-10
-8.483929550747459371e-10
-8.886253736623582029e-10
-8.991402772730882327e-10
-8.700519194391510525e-10
-7.957743659201289738e-10
-6.883562332412699521e-10
-5.685848736994117406e-10
-4.683079381899279533e-10
-4.006013582281428885e-10
-3.382606337259017820e-10
-2.513901606602528112e-10
-1.802744718920822026e-10
-1.433205346306723168e-10
-9.895421937158575551e-11
-7.355802142024387954e-11
-5.162465128381931172e-11
-3.676899444475030366e-11
-2.631288864448203586e-11
-1.898481986415693183e-11
-1.389574077355316050e-11
-1.033937380849600960e-11
-7.838041072868652634e-12
-6.033123391248635903e-12
-4.691177040833434588e-12
-3.662197405592292259e-12
-2.849734849640950086e-12
-2.195890068648333612e-12
-1.666028360689209939e-12
-1.239021478993707715e-12
