# bin_7_1
-2.929787831981674653e-09
-2.879541966258470651e-09
-2.696829539844115849e-09
-2.396214732568628776e-09
-2.032111597650688380e-09
-1.682981691369958740e-09
-1.406739517560596993e-09
-1.182883394559333880e-09
-9.451860525104798234e-10
-7.031734228724396814e-10
-5.267925057324696628e-10
-3.982752591276089238e-10
-2.903606469779048537e-10
-2.141033182148470894e-10
-1.576809377892208902e-10
-1.175441938167010346e-10
-8.892127588874846130e-11
-6.846671781707098759e-11
-5.360904105647917987e-11
-4.251872179896951817e-11
-3.395878172972901601e-11
-2.711496269625079030e-11
-2.149084531177057491e-11
-1.679911127797037107e-11
-1.288032560869399680e-11
-9.646457102339648472e-12
-7.039142419412626011e-12
-5.000869492948008195e-12
-3.462197954019098898e-12
-2.341033166893325446e-12
-1.550585731085223359e-12
