# bin_2_2
1.074512303027853550e-05
1.117628975188932766e-05
1.122044677060433874e-05
1.075044804566084168e-05
9.740737767134468244e-06
8.354919141394249917e-06
6.885728646756180970e-06
5.701195415300704884e-06
4.881768556599215109e-06
4.052845483176403403e-06
2.980945445947892669e-06
2.192152857998079184e-06
1.714784798837321497e-06
1.211396691952351246e-06
9.017286213375581299e-07
6.516131799148214048e-07
4.773395109085439843e-07
3.539217937876608358e-07
2.665462938241900179e-07
2.043877187637942251e-07
1.593042528534848990e-07
1.257687123361246768e-07
9.989961575630812929e-08
7.926608130990549873e-08
6.239010243130625605e-08
4.839703514552675314e-08
3.679680013423118818e-08
2.730659800753946194e-08
1.972628737256822891e-08
1.386520831001463991e-08
9.494751852361297368e-09
