# bin_10_8
9.911547199359827325e-07
1.121223377844283636e-06
1.247441445199217285e-06
1.359638220061624631e-06
1.444270803207331381e-06
1.484872260501623208e-06
1.468872263081133580e-06
1.376411773600772624e-06
1.218699606589242838e-06
1.020749312523733995e-06
8.351275575196081990e-07
7.037478790941613382e-07
6.090292292968055895e-07
4.805105240579924823e-07
3.325231559093451631e-07
2.627447323948197337e-07
1.890777155179005270e-07
1.356737502652942602e-07
9.286995525762070935e-08
6.608687373365281343e-08
4.574742934692283816e-08
3.158790722237637531e-08
2.198300528066162148e-08
1.543801874249969946e-08
1.101745005329335411e-08
8.016142728593797045e-09
5.947159478992112813e-09
4.494340705868091052e-09
3.443069126194018993e-09
2.656471317642830264e-09
2.048730958650760011e-09
