# bin_2_1
5.286989319246468225e-06
5.391440332568650423e-06
5.278320914761586155e-06
4.900496855309778638e-06
4.304430511197307073e-06
3.597589549850689768e-06
2.956478095763018965e-06
2.496205661296298921e-06
2.125871352866524973e-06
1.654891844705784363e-06
1.187028718288700186e-06
9.240375942807674555e-07
6.786436498520563780e-07
4.959557999221824081e-07
3.616646181990267429e-07
2.661145222965754417e-07
1.971623712995599232e-07
1.484305240315420590e-07
1.138052748492962924e-07
8.876300071435125676e-08
7.018855877455225071e-08
5.592595650479892638e-08
4.457304286998025265e-08
3.528063292107916979e-08
2.754932458863397090e-08
2.109981824853792135e-08
1.577876425894497266e-08
1.148863173962168621e-08
8.136819272934328393e-09
5.612367093986473495e-09
3.779491844537893889e-09
