# bin_4_2
3.479868824248727851e-07
3.731028564626011245e-07
3.885144746874020242e-07
3.905115961350734722e-07
3.744144853662253812e-07
3.391691050637083869e-07
2.906339607850951131e-07
2.390244883146840228e-07
1.977388411064810415e-07
1.699629877045113991e-07
1.415634566723937008e-07
1.030030072513590238e-07
7.558883742425509339e-08
5.963562534034944026e-08
4.128038103543626069e-08
3.085728433419045110e-08
2.210035642660486861e-08
1.595637901601393785e-08
1.166972333659559270e-08
8.651140845614558292e-09
6.525109823532121233e-09
5.006436841712393650e-09
3.901216094500071862e-09
3.069108279774968154e-09
2.421397524330671060e-09
1.902643289166348283e-09
1.478830365304890732e-09
1.130365380915522873e-09
8.456107752597693276e-10
6.168962280356419499e-10
4.381025843497008501e-10
