# bin_8_4
1.188767716859063483e-09
1.325194401131911890e-09
1.448373796443214982e-09
1.544297024558825511e-09
1.595610206975759995e-09
1.588534524259911878e-09
1.501475980674163935e-09
1.340405303911139559e-09
1.131445641507689356e-09
9.261367400370171843e-10
7.744208119850057776e-10
6.702923133597544488e-10
5.415843305270953684e-10
3.789797997425707503e-10
2.912533113304529752e-10
2.189976044292172017e-10
1.529324384496849081e-10
1.089955998748667323e-10
7.822613021131953343e-11
5.493739626201326763e-11
3.877062635082560408e-11
2.769655928650690997e-11
2.007467606847733554e-11
1.481020890775449142e-11
1.113723323582111340e-11
8.510684619168085962e-12
6.580847743122041359e-12
5.115938956019506317e-12
3.969683875975643699e-12
3.053477044586960711e-12
2.314888751364862682e-12
