# bin_8_8
4.538757679701079817e-06
5.110854587247625177e-06
5.654828516558040708e-06
6.121672634058316335e-06
6.447857325429474310e-06
6.563461515955729483e-06
6.403296265193020666e-06
5.902075804968904577e-06
5.144102084308147146e-06
4.259559348737510923e-06
3.494342514858581397e-06
2.983281157586279815e-06
2.554879093371807399e-06
1.924532745858578053e-06
1.346459380283674698e-06
1.091272795747026022e-06
7.386676190722331449e-07
5.551205348489189077e-07
3.782440076211924247e-07
2.642375859268237323e-07
1.850452166954207892e-07
1.296015922046381047e-07
9.139852755900138025e-08
6.521898148414637113e-08
4.743889769791346102e-08
3.518026799883255774e-08
2.656244246585915617e-08
2.035196971258959740e-08
1.572390997062891101e-08
1.216215295924240490e-08
9.349863394867214080e-09
