# bin_4_3
3.523699714771321757e-08
3.125893242473309122e-08
2.699236874961051905e-08
2.272476468325529297e-08
1.872464076157907047e-08
1.517480186701702336e-08
1.213698905470410872e-08
9.570459504337986493e-09
7.405493551209148764e-09
5.620436715012889985e-09
4.230111159196328050e-09
3.194738932726050701e-09
2.415045473037317184e-09
1.831240741932942590e-09
1.402455978730368558e-09
1.082989314240325751e-09
8.433381543957028485e-10
6.603447845778466495e-10
5.180041697085463601e-10
4.053480286540107910e-10
3.150547164559999811e-10
2.422621933361046453e-10
1.836699254866049697e-10
1.369169772839202686e-10
1.001543519053104409e-10
7.179996908397891886e-11
5.042042489011213029e-11
3.469224387095516660e-11
2.341146814429288912e-11
1.551990918304545771e-11
1.012711136993375183e-11
