# bin_11_1
2.324468210710665302e-08
1.985612495983687011e-08
1.655970441380608692e-08
1.354964324059045343e-08
1.092944179554283985e-08
8.701412700188887184e-09
6.810978048127464290e-09
5.223146845845974578e-09
3.949401626875878261e-09
2.984568533356914851e-09
2.262972363882743052e-09
1.719447369343843696e-09
1.317783472592708008e-09
1.020275720064711866e-09
7.975006436320533349e-10
6.280411284178006703e-10
4.964521994774458691e-10
3.921402138879348469e-10
3.080678995174732418e-10
2.396534141514152179e-10
1.838985262878926853e-10
1.387593560232793544e-10
1.027086557318326979e-10
7.446248791783080758e-11
5.283841542106960681e-11
3.670424317108231523e-11
2.498370668131770712e-11
1.669078698469513403e-11
1.096675240400321456e-11
7.103162236043699535e-12
4.545605538713604724e-12
