# bin_8_4
4.998500762462712860e-08
4.558126596996006429e-08
4.044737931734672021e-08
3.491752645762307235e-08
2.937674490347938505e-08
2.418719282379114581e-08
1.959242416233210791e-08
1.566865131034206639e-08
1.234985125453852939e-08
9.537094633355067253e-09
7.212488931550837265e-09
5.412044209159666177e-09
4.076998596768720114e-09
3.065729075388121451e-09
2.312283833436796998e-09
1.760361740671975272e-09
1.350747226549726453e-09
1.045122950024624045e-09
8.134564724304956876e-10
6.347061597185556526e-10
4.944341428025050318e-10
3.829309567220390279e-10
2.936930994304828415e-10
2.222917159855351419e-10
1.655761125476800476e-10
1.211161619684351096e-10
8.688246673727112381e-11
6.108072470020778284e-11
4.208691045222733112e-11
2.844452896092856764e-11
1.888249739303412231e-11
