# bin_9_7
6.737966330981441728e-08
6.315063863923753215e-08
5.768589996985404355e-08
5.128268768294681610e-08
4.435734097930908705e-08
3.738928804771100082e-08
3.083212804340799887e-08
2.499938642249557891e-08
2.000058458286884946e-08
1.577004503608712342e-08
1.218856231950305629e-08
9.220153333164600703e-09
6.900421196086783895e-09
5.174962669441130503e-09
3.874329593124460352e-09
2.899876348596325159e-09
2.189310688690039284e-09
1.663330265834267405e-09
1.274065967445857103e-09
9.818698484603660329e-10
7.591931898329835334e-10
5.868434086228683607e-10
4.517238392132199341e-10
3.449584043012167343e-10
2.604457993843957689e-10
1.938686599441020298e-10
1.419687557523325162e-10
1.021194706160128111e-10
7.209007067042631442e-11
4.993395091902591524e-11
3.394973307031578437e-11
