# bin_5_1
2.051864692929378239e-08
1.743157432171416124e-08
1.447410028670168528e-08
1.180337768435700496e-08
9.492623647599395478e-09
7.531707011346393567e-09
5.872800289560754765e-09
4.491569835437277677e-09
3.396029951065568163e-09
2.569923005471919981e-09
1.951150682987425191e-09
1.486217226752873687e-09
1.142654302646703031e-09
8.873145849904743567e-10
6.953272632916768552e-10
5.484593187622830905e-10
4.337518268018044519e-10
3.423712289982604210e-10
2.684800291942940473e-10
2.082778484145824080e-10
1.592577718138884280e-10
1.196764227601179879e-10
8.819224354773769240e-11
6.364762981369901867e-11
4.496221822151615681e-11
3.110118837184447373e-11
2.108873606307035902e-11
1.404148293435482600e-11
9.199870345198133196e-12
5.944896141069999680e-12
3.797323287752028058e-12
