# bin_12_7
7.219558323452329564e-08
6.802818094352405198e-08
6.248879417327897768e-08
5.586344895195152290e-08
4.857505488857990062e-08
4.113178410622000082e-08
3.403918067962481532e-08
2.767416493650489141e-08
2.219629454263102127e-08
1.755817040902654443e-08
1.362233577436447737e-08
1.032974629400462210e-08
7.727321107308969638e-09
5.789041835571074849e-09
4.331894075467925398e-09
3.233344997316298803e-09
2.434318222813043833e-09
1.843323424656160102e-09
1.407667640910782715e-09
1.082039939494477523e-09
8.351673446174564531e-10
6.450557550616430036e-10
4.966388530714517907e-10
3.797102760378660578e-10
2.872744429902180137e-10
2.144357002240294200e-10
1.575591737372241562e-10
1.137633858059841860e-10
8.063494352493075608e-11
5.608377426526691175e-11
3.828621575134395441e-11
