# bin_7_5
5.415608361898505786e-08
4.979158516239494022e-08
4.457093468019475495e-08
3.881887893897334364e-08
3.292845871329624783e-08
2.729392868556300652e-08
2.221742175632780691e-08
1.783657316592819477e-08
1.412802816209925260e-08
1.098935943162261396e-08
8.365054581412426105e-09
6.279622809681232075e-09
4.717997533569980831e-09
3.548905760234684823e-09
2.665522075860481615e-09
2.019582782488562271e-09
1.541071432397097756e-09
1.186158365255061165e-09
9.189808770453484433e-10
7.146952086583275080e-10
5.558257152635485026e-10
4.305061750800051321e-10
3.307686930788328718e-10
2.511935113130094912e-10
1.879898340949198893e-10
1.383232103930363660e-10
9.990256682624131686e-11
7.075750663486343809e-11
4.913316404854419297e-11
3.346365304267360359e-11
2.237807830768212665e-11
