# bin_8_7
3.603767125267509945e-11
4.049613469578966736e-11
4.469729853594789873e-11
4.824548978859716877e-11
5.063314367423700684e-11
5.133310867214117091e-11
4.979043478292305241e-11
4.560353672130686626e-11
3.949761713503461145e-11
3.259010430769563555e-11
2.678780679047799369e-11
2.295929808033808752e-11
1.951662279883838931e-11
1.445446667911238658e-11
1.023328758372813207e-11
8.275566175274061598e-12
5.544044568134419180e-12
4.179992198260543278e-12
2.871774015586791148e-12
1.997757484343289279e-12
1.401247898181488368e-12
9.841241960698300965e-13
6.972132211646670871e-13
5.004720105272265817e-13
3.663911853688918816e-13
2.733961596713520761e-13
2.075273921236706862e-13
1.595995405937593248e-13
1.235238885630290309e-13
9.551684847779997962e-14
7.327489887571413896e-14
