# bin_11_8
1.872430144808767972e-12
2.123387189455273108e-12
2.369811130057052907e-12
2.593034793099626870e-12
2.768038341156903123e-12
2.863606716885115732e-12
2.855164381011798669e-12
2.703157860945121322e-12
2.416550197251031995e-12
2.041934469917124298e-12
1.671079414142947959e-12
1.395754313724489285e-12
1.209058835019848815e-12
9.804563218632254412e-13
6.844256016556432211e-13
5.236231193267742270e-13
3.945212750222947471e-13
2.719588436461883013e-13
1.920995897682131477e-13
1.361803240757809054e-13
9.350223625968994972e-14
6.403349750842279820e-14
4.413398911975304084e-14
3.067317072637527770e-14
2.160083651187589862e-14
1.549771509951104962e-14
1.133993088700171984e-14
8.466970361754695199e-15
6.429657002267772548e-15
4.937588437706537705e-15
3.806539893591700803e-15
