# bin_12_5
3.494993834603530528e-19
3.957469770074712729e-19
4.408494129759421883e-19
4.812715206475266392e-19
5.122883972067996909e-19
5.280761613987841407e-19
5.241934262931394153e-19
4.934058170674304572e-19
4.386990556728733988e-19
3.687970162378622067e-19
3.016668815506610846e-19
2.531465189758338058e-19
2.192232148545622732e-19
1.751608341902587817e-19
1.215114703290000977e-19
9.469192725395424678e-20
6.958519864394362614e-20
4.900755359428049459e-20
3.395599370016198430e-20
2.416951963306256456e-20
1.666369507668317596e-20
1.145427656900660335e-20
7.935623618609858620e-21
5.545902862521681101e-21
3.933675890119120877e-21
2.843908511485888520e-21
2.096888202481214418e-21
1.576294492427565959e-21
1.203060968468421664e-21
9.264607327192614276e-22
7.145160408091731420e-22
