# bin_9_6
1.074778773917411914e-12
1.208563882692609118e-12
1.335032182928904684e-12
1.442461997118534752e-12
1.515764877017692618e-12
1.538913285107017412e-12
1.495810247393945274e-12
1.373140934381811091e-12
1.191993459534702334e-12
9.846813466831111330e-13
8.086198633089071741e-13
6.920056274185882591e-13
5.899601500964783482e-13
4.396633517564656573e-13
3.096976661835993980e-13
2.508386046009611981e-13
1.685084256762169251e-13
1.270068398828586181e-13
8.695170805838380364e-14
6.055309898876411723e-14
4.244983406658047555e-14
2.978167668689424811e-14
2.106046009471924188e-14
1.508211166306394734e-14
1.101394043267267729e-14
8.199062575454200752e-15
6.211166473032232378e-15
4.770096880026237233e-15
3.689507153220952990e-15
2.853316428814136403e-15
2.190639021593533950e-15
