# bin_9_2
9.530610838198551549e-23
1.063135254910787390e-22
1.162967782215335595e-22
1.241423648022325827e-22
1.284646437587489925e-22
1.281417514079574149e-22
1.214462401987080287e-22
1.086946123283001469e-22
9.197590355129851398e-23
7.529842551311334101e-23
6.280198194556788536e-23
5.433243495219539774e-23
4.419949614872253454e-23
3.105248919266588242e-23
2.362881316188234131e-23
1.796944826944549904e-23
1.242769025257157473e-23
8.935097357952528073e-24
6.388841653793016368e-24
4.476328249685992073e-24
3.153835940760472142e-24
2.247067564074012067e-24
1.624166416371139516e-24
1.194490150676258011e-24
8.956526140976325828e-25
6.827598652542206596e-25
5.270173975875212966e-25
4.093401859652836722e-25
3.176151930584551809e-25
2.444882243827423393e-25
1.855996991857132953e-25
