# bin_7_5
5.810685450482067268e-07
6.472203336959985933e-07
7.067132529038552502e-07
7.526877352100654296e-07
7.766943243814870864e-07
7.720503441842818233e-07
7.283511824361719202e-07
6.490537533479532074e-07
5.469776331993344686e-07
4.475691182717532168e-07
3.746233286103466409e-07
3.240877184202559984e-07
2.607275772861127787e-07
1.821911590311960525e-07
1.406172369635198334e-07
1.050300169474354417e-07
7.373202778849324965e-08
5.233061182378150801e-08
3.756964020608332383e-08
2.640988827761111467e-08
1.865427283665341230e-08
1.333986456558373004e-08
9.679198766902208125e-09
7.149883145334193763e-09
5.382879409085296632e-09
4.117205392299493479e-09
3.185427548385583198e-09
2.476663953227461079e-09
1.921157139066685177e-09
1.476706235746857695e-09
1.118359803501806042e-09
