# bin_6_2
8.572669648778916003e-11
9.380418516156647540e-11
1.002049561643622919e-10
1.038263162109177417e-10
1.037356523113191745e-10
9.858845479245826354e-11
8.849448171646028203e-11
7.512381248216065636e-11
6.156165957847746507e-11
5.121103472646014710e-11
4.421176541208230380e-11
3.620858597144460870e-11
2.571691855740894629e-11
1.935857237564654397e-11
1.493007928803035820e-11
1.033826925623215575e-11
7.577623754613151865e-12
5.444396498451039785e-12
3.878620116869825490e-12
2.794291838526055806e-12
2.040185438229874411e-12
1.514700189460741275e-12
1.144661078946242328e-12
8.799951880775867742e-13
6.847745802466056210e-13
5.361687604769362636e-13
4.195298972913371797e-13
3.257437141236307947e-13
2.494582595641522189e-13
1.874696889534571633e-13
1.377118004996005604e-13
