# bin_14_1
1.123777469004727246e-34
1.276875976547716408e-34
1.428595324763753079e-34
1.567906568698133335e-34
1.680055782387766931e-34
1.746467211741471413e-34
1.751234125757569596e-34
1.671055279181673562e-34
1.505030168738097563e-34
1.281256179113371926e-34
1.050158357869211352e-34
8.719594524082297591e-35
7.543225510759283777e-35
6.226290973403520953e-35
4.407341939921523162e-35
3.283050790651035596e-35
2.549746090782169239e-35
1.717011914198606804e-35
1.247334996358990997e-35
8.731774717106232094e-36
5.967277012507579792e-36
4.079508317293057957e-36
2.793649908468810525e-36
1.927057066847394098e-36
1.343784702132138834e-36
9.537430236042511616e-37
6.901042423732855349e-37
5.099059340576817476e-37
3.839939020507358387e-37
2.933150472438294108e-37
2.256940676705466206e-37
