# bin_7_3
3.388095019067678796e-10
3.748498097710998765e-10
4.059363595687305321e-10
4.279114405926687855e-10
4.361311177093461130e-10
4.264008087613688792e-10
3.941856764188110789e-10
3.445610033312551660e-10
2.859454779291089856e-10
2.343406461787232410e-10
1.992983398011483632e-10
1.708977923865148407e-10
1.302418615844824240e-10
9.113687524099081950e-11
7.336297493326809348e-11
5.084874296679112400e-11
3.792824193392647824e-11
2.624568443335817767e-11
1.873947290238894363e-11
1.336612190978687010e-11
9.586442528106845081e-12
6.963855577646388721e-12
5.137359570089130879e-12
3.863491168080561476e-12
2.954854524717796371e-12
2.287930590106594605e-12
1.783328881840467003e-12
1.389223491973048234e-12
1.074165655897435441e-12
8.193408140149853157e-13
6.135484375695337117e-13
