# bin_11_8
2.172957735261999347e-07
2.464739271068139389e-07
2.751545617960689867e-07
3.011755659019056011e-07
3.216388585456199259e-07
3.329241406756742931e-07
3.321585547715631852e-07
3.147512173256336674e-07
2.816113752947088119e-07
2.381485532663759175e-07
1.949204575004148009e-07
1.626931963371876790e-07
1.409233478250440369e-07
1.145198343700459198e-07
8.004615481234036075e-08
6.105976399844648503e-08
4.617186478612029449e-08
3.173320166357536984e-08
2.248678993975519920e-08
1.592293254043469239e-08
1.092649570830684770e-08
7.480158500109286155e-09
5.151580205551545516e-09
3.577335678553826655e-09
2.516494301419777754e-09
1.803343940176547923e-09
1.317947286866128754e-09
9.829664270617107286e-10
7.458135771648112113e-10
5.724490134886621073e-10
4.412594099446223181e-10
