# bin_10_12
3.060921162213285274e-08
3.471543323335844970e-08
3.875045005710222065e-08
4.240906323956801891e-08
4.528297943485930936e-08
4.686383688223319070e-08
4.674292157026833480e-08
4.428342473509929330e-08
3.961578090653100137e-08
3.350336848912430108e-08
2.742943553363390337e-08
2.289981014920220890e-08
1.982415461931549351e-08
1.609390338558507488e-08
1.126932510736775489e-08
8.592377812305335433e-09
6.489066388810632624e-09
4.467905042201583761e-09
3.168563535639751201e-09
2.238169998285162707e-09
1.536298072490865656e-09
1.052832736014626415e-09
7.252097226110227088e-10
5.036201960316054839e-10
3.543045924872835897e-10
2.539037120771290546e-10
1.855601518540447183e-10
1.383812196547552312e-10
1.049720493807918202e-10
8.054585676975953861e-11
6.206343453275493579e-11
