# bin_5_5
1.985828238095459544e-08
2.177042071969659892e-08
2.331077760089242994e-08
2.422616961528419583e-08
2.429007729824844599e-08
2.320178967186614050e-08
2.093357376232838885e-08
1.786421032003314602e-08
1.466645196611574786e-08
1.216118311683060353e-08
1.047564130724644341e-08
8.663175485728390752e-09
6.229268295450891490e-09
4.612896615058938666e-09
3.604562319558900774e-09
2.479746257221313101e-09
1.835075086640557400e-09
1.306914273215484290e-09
9.297694259929425496e-10
6.689346969726370732e-10
4.868561588958154891e-10
3.600405017129193918e-10
2.709354989732616095e-10
2.075234298662481265e-10
1.610410115434256246e-10
1.258868276703299541e-10
9.846595558303437225e-11
7.651910888573675390e-11
5.871233720585287335e-11
4.424787085156009438e-11
3.262102071377210229e-11
