# bin_6_5
3.274864545052840589e-09
3.617853986947569601e-09
3.910756007545166229e-09
4.113087122079718488e-09
4.181265327205652428e-09
4.072783324412524228e-09
3.749851668084742728e-09
3.264779260478693538e-09
2.703421202905177143e-09
2.218677835114427623e-09
1.892014705104294793e-09
1.615022965400168211e-09
1.217887144048844886e-09
8.583324930613609123e-10
6.905521953518018950e-10
4.754786983296813186e-10
3.558071071179585411e-10
2.471481986031253289e-10
1.760963330704685900e-10
1.258093679350401365e-10
9.045114034535116987e-11
6.589702088189342591e-11
4.877595709471185458e-11
3.679975789931323723e-11
2.822036447791810426e-11
2.189247913468729667e-11
1.707949700134606960e-11
1.330344550742291248e-11
1.027580439636818800e-11
7.824082994012965312e-12
5.844876647132437968e-12
