# bin_7_14
1.209089168048367575e-07
1.354000946565103608e-07
1.488231890387443517e-07
1.598100980099898382e-07
1.666313299338534875e-07
1.676871844237961438e-07
1.609329839789387879e-07
1.458501690038068341e-07
1.249902319677381337e-07
1.027390181385886094e-07
8.497930116118505222e-08
7.318129374316553481e-08
6.104552834091195243e-08
4.411989235169912355e-08
3.222998077530458758e-08
2.542490679307642657e-08
1.721449984419289019e-08
1.274186513512946484e-08
8.914401527331134572e-09
6.216373194102080530e-09
4.366823233378774451e-09
3.084700058564952651e-09
2.204848287820817000e-09
1.600216020507743865e-09
1.184484548988147419e-09
8.927593658490752465e-10
6.831387260448334288e-10
5.279564495862593643e-10
4.092141138996799082e-10
3.158350128277232507e-10
2.411527923675273563e-10
