# bin_3_13
3.563863054328010338e-07
3.807088380557011439e-07
3.947494332280259999e-07
3.946750158090825958e-07
3.760872977217111041e-07
3.389170206624903122e-07
2.892950998011905043e-07
2.381914536084233101e-07
1.979049607303140420e-07
1.694791962614930482e-07
1.391194829436993561e-07
1.015336575474660616e-07
7.541426740612477486e-08
5.817522671028923440e-08
4.112909794277463477e-08
3.029995940136966250e-08
2.178137875575375163e-08
1.579581697122595249e-08
1.157330783981075298e-08
8.601073330920569409e-09
6.503403125682439994e-09
5.001085308092548948e-09
3.902122893731212822e-09
3.070918586449022100e-09
2.421256605360692153e-09
1.899461170970452032e-09
1.472823630461570014e-09
1.122402085785490352e-09
8.368580028303117136e-10
6.085038114459293218e-10
4.308871663692225904e-10
