# bin_15_4
1.727716043668242708e-27
1.967883964630714993e-27
2.208665568607559987e-27
2.433388113476799339e-27
2.619918025256843835e-27
2.740096389030377076e-27
2.766730823891695702e-27
2.666561750708740627e-27
2.425385308645220208e-27
2.085701968279557681e-27
1.715056639710799285e-27
1.414723795102221535e-27
1.218829138912396494e-27
1.025640665913610486e-27
7.433689708867104209e-28
5.355097400126135525e-28
4.289138517228769596e-28
2.837661406096583445e-28
2.119993518557599116e-28
1.456128029657259204e-28
9.910477045351344386e-29
6.779956122437654488e-29
4.615733952996746838e-29
3.154380154678390442e-29
2.171790850389111850e-29
1.519087634563824451e-29
1.082024419471034023e-29
7.871473099937300712e-30
5.849081098684299293e-30
4.424982843928282658e-30
3.387973214803655000e-30
