# bin_8_7
2.874131988534169629e-09
3.222230834505219895e-09
3.546531679431794947e-09
3.814798065649254541e-09
3.986084400365680530e-09
4.021232060442575805e-09
3.872216510531950813e-09
3.520143033803061569e-09
3.025813381969953872e-09
2.488501589147305921e-09
2.053358922673837112e-09
1.767366835636488735e-09
1.484886533830043393e-09
1.078615152502393250e-09
7.794375823321753765e-10
6.225175203502048542e-10
4.172045774216080291e-10
3.121897359597819999e-10
2.173016812880558736e-10
1.511197994212616158e-10
1.060997468785121547e-10
7.478723032382254473e-11
5.331192240768187071e-11
3.856879123421745934e-11
2.846187806286724475e-11
2.139523858002868016e-11
1.633969674215257921e-11
1.261575842332996016e-11
9.778904499811885918e-12
7.554961464967253572e-12
5.778568268704281403e-12
