# bin_15_3
1.450050888429541464e-31
1.651194776323876940e-31
1.852607099490056024e-31
2.040270878068475877e-31
2.195559323575782196e-31
2.294804577788070988e-31
2.315437892126374597e-31
2.229245289881744654e-31
2.025455798894589377e-31
1.739875630860556933e-31
1.430089396858046520e-31
1.180406233934129252e-31
1.017531517174185862e-31
8.546461955733107946e-32
6.177135382659929703e-32
4.465209489069763628e-32
3.566680004025166329e-32
2.362216490807137474e-32
1.760768199527346725e-32
1.211831818316629580e-32
8.250050493727433448e-33
5.643090668087065461e-33
3.843449375423476440e-33
2.629079730228903839e-33
1.812552094906352967e-33
1.269798009468321508e-33
9.060203716558850937e-34
6.602666012782255815e-34
4.913925702854734569e-34
3.721921034867516774e-34
2.851624175164053709e-34
