# bin_8_5
1.491926041199336098e-11
1.665855250482045820e-11
1.824461059563470829e-11
1.950439981435223376e-11
2.022158313107034019e-11
2.021627837750373701e-11
1.921887321413554561e-11
1.725161626245953340e-11
1.464024889560766339e-11
1.199250712482705717e-11
9.979373632277926192e-12
8.629739572191853590e-12
7.069495693721789683e-12
4.991688680858453526e-12
3.760018663784788400e-12
2.892278819320362636e-12
1.982415620725349756e-12
1.438660680596098822e-12
1.024259078004412064e-12
7.161835906366729568e-13
5.040053708564276906e-13
3.582331292765762390e-13
2.582425454676556603e-13
1.893479281106568543e-13
1.415691123499153018e-13
1.076581903633289139e-13
8.295692032437660640e-14
6.437993959013836535e-14
4.995770678285317301e-14
3.849085729296045983e-14
2.926655366531741157e-14
