# bin_15_7
3.322284624360051255e-18
3.789508304028020245e-18
4.261031184166417088e-18
4.705093306078796257e-18
5.079793161463535541e-18
5.331386320886266880e-18
5.404355078509597340e-18
5.239161159795673582e-18
4.794283399990276284e-18
4.148358003995821521e-18
3.420408965153135854e-18
2.812634596102756055e-18
2.414260860657424027e-18
2.050841523461971382e-18
1.511221855144465586e-18
1.069808989548170706e-18
8.662311774413961355e-19
5.729494107928487446e-19
4.313103167686539420e-19
2.930422387216526352e-19
1.994801139937445722e-19
1.365820054613938100e-19
9.284136178296067672e-20
6.313281262275145903e-20
4.314890671704135619e-20
2.991767624428854211e-20
2.110133412548650685e-20
1.519410735974798662e-20
1.118467355603880145e-20
8.398541555376810600e-21
6.400156989487378491e-21
