# bin_11_10
2.856321294863373747e-09
3.242785261527010675e-09
3.624291726149393346e-09
3.972627840453303305e-09
4.250008379610544042e-09
4.409037518338585429e-09
4.410583600109952356e-09
4.194761756008951649e-09
3.766204362210735381e-09
3.196090330988941049e-09
2.617787729146993914e-09
2.178892145224324404e-09
1.886206216621048632e-09
1.545673575859515104e-09
1.087443316091726933e-09
8.191175202568308697e-10
6.283817504672443374e-10
4.270524861886192956e-10
3.067264635851497017e-10
2.158824718305187452e-10
1.478063750833308850e-10
1.010989820197899849e-10
6.940846111182121502e-11
4.802494669150224610e-11
3.362614820995992406e-11
2.397322469924563975e-11
1.742834654453292602e-11
1.293508228235296836e-11
9.776243369720567685e-12
7.485330930729658871e-12
5.765028635393302392e-12
