# bin_9_11
3.552748325525541306e-08
4.014651135370180961e-08
4.461130095837948921e-08
4.855434620194966509e-08
5.148943839791786015e-08
5.283677465428202324e-08
5.213394273036024372e-08
4.871149670237143060e-08
4.301331370758104927e-08
3.595801328725170686e-08
2.942692816394684299e-08
2.484033058015719004e-08
2.145061184023087867e-08
1.680078762967170756e-08
1.165455134054153304e-08
9.233020657152887007e-09
6.583696624857763069e-09
4.753798822353281672e-09
3.257820038606380991e-09
2.307193327262528810e-09
1.599490293202296642e-09
1.106762411365549454e-09
7.713935534097716147e-10
5.428399952631679642e-10
3.883795232960366418e-10
2.833068979949536632e-10
2.106923641493894836e-10
1.595185878260535021e-10
1.223335660567478820e-10
9.439710580783172810e-11
7.274562952214579130e-11
