# bin_13_8
2.645233427131721468e-13
3.009071577742478972e-13
3.371614155436070317e-13
3.707116138281879804e-13
3.981236409457567059e-13
4.150540843325539504e-13
4.175686034650597440e-13
4.003211843827305156e-13
3.621846335903284405e-13
3.097615492510098879e-13
2.542115625296512014e-13
2.103860642105935015e-13
1.817326861342831927e-13
1.514521624408975688e-13
1.082859945997607482e-13
7.938979837484033679e-14
6.265952255131799146e-14
4.173887548883719964e-14
3.078626275399533411e-14
2.136332572411908846e-14
1.456462017450852266e-14
9.956557776338499566e-15
6.795459797406597116e-15
4.666436357369237251e-15
3.234634030169422009e-15
2.280247836472770495e-15
1.638112551326655628e-15
1.201972134151007083e-15
8.999111730600064888e-16
6.846465774978472155e-16
5.258438224310504836e-16
