# bin_4_4
2.621639166857102324e-08
2.833003797264742854e-08
2.979544573634003409e-08
3.030054536170720729e-08
2.953766965026173081e-08
2.724468746177845030e-08
2.376518222505430473e-08
1.972703733065943505e-08
1.619787685014299154e-08
1.376917098768555443e-08
1.173216777946760305e-08
8.931869669905624140e-09
6.337095418342212834e-09
5.036807087629860122e-09
3.557945293332127950e-09
2.634014970044365934e-09
1.865465728687913265e-09
1.350153614880783639e-09
9.790487974490821886e-10
7.175701515831266856e-10
5.345714853454214664e-10
4.051096798018985992e-10
3.123294617716049463e-10
2.438870887191705184e-10
1.916890616758469437e-10
1.506354384358507441e-10
1.175246642445543996e-10
9.046378270359246440e-11
6.833867345048114934e-11
5.045471935425226708e-11
3.630749767828222602e-11
