# bin_12_2
2.106865897500931325e-29
2.379482969267366443e-29
2.642316298420356528e-29
2.873451105107854537e-29
3.043942171908890883e-29
3.119416784107500871e-29
3.072700965357592319e-29
2.864512287395263727e-29
2.524046699765580628e-29
2.105759542018010875e-29
1.723027747953322692e-29
1.457303296567916495e-29
1.258261189513061676e-29
9.791888785370197227e-30
6.778227690017799087e-30
5.411624805180726119e-30
3.814198999718180331e-30
2.782933118039112490e-30
1.892996298400392199e-30
1.340318645170097643e-30
9.311311125474896130e-31
6.457800377258490262e-31
4.510403060885856308e-31
3.181030590480006814e-31
2.282334760399415993e-31
1.669750972715080148e-31
1.245300828243605342e-31
9.451335058082297070e-32
7.260846647100786967e-32
5.607889925475837191e-32
4.321895531369238252e-32
