# bin_13_9
7.443408983593926634e-12
8.474417121826228057e-12
9.505933053951499352e-12
1.046592071338846216e-11
1.125858515825091418e-11
1.176231625451478507e-11
1.186216042899020362e-11
1.141217402992345790e-11
1.036109659144860360e-11
8.893334689656032445e-12
7.307596372231875229e-12
6.034340897749819962e-12
5.203897643301204559e-12
4.365265211104973731e-12
3.148694559876179254e-12
2.281481795792317933e-12
1.819197113341118396e-12
1.205480547544618500e-12
8.972857319022481356e-13
6.184286758198287458e-13
4.210742094603332410e-13
2.879853101255764743e-13
1.961972598052962045e-13
1.342958748543323380e-13
9.267475372839462264e-14
6.499605789931968052e-14
4.643238806829923944e-14
3.387998401314940846e-14
2.524266363217887799e-14
1.913569521495174438e-14
1.466862553023182601e-14
