# bin_1_3
4.210466315287691944e-07
4.098631786420547651e-07
3.796605314069423882e-07
3.338206642072762486e-07
2.810865026491980273e-07
2.327661259605977098e-07
1.952018433264559106e-07
1.631751147831166288e-07
1.282850352939199114e-07
9.497646681857211007e-08
7.163369279084799373e-08
5.375221084665901325e-08
3.922210278609953266e-08
2.896353731947181861e-08
2.139970239519244032e-08
1.602422824066294991e-08
1.219156620736840903e-08
9.442133428264563620e-09
7.431017296367458897e-09
5.915721321786538076e-09
4.733460431230887726e-09
3.778951099901486515e-09
2.989118603945000615e-09
2.328044373911995181e-09
1.776135082730662823e-09
1.322432810323262037e-09
9.589721694791952962e-10
6.770895628623690605e-10
4.660993728344120816e-10
3.135993300311499635e-10
2.068527458893356260e-10
