# bin_15_9
3.793280702541718842e-14
4.332223117176289516e-14
4.879187537332208377e-14
5.398235946127044661e-14
5.842233484057284672e-14
6.150199647290931125e-14
6.255585435993240630e-14
6.095251749173219451e-14
5.608592863631540590e-14
4.879913221236905758e-14
4.035268691175427237e-14
3.311005857647566226e-14
2.831167002726469304e-14
2.421657585073349501e-14
1.812423963110753045e-14
1.267673486462417514e-14
1.029567896835649930e-14
6.867984771129157314e-15
5.164948179708418840e-15
3.478346273528681809e-15
2.376702447014209691e-15
1.627073973368498489e-15
1.104838667233886910e-15
7.482370597621989085e-16
5.082113420772428180e-16
3.496314980112724870e-16
2.443906559927815909e-16
1.742721681385553903e-16
1.270941300692759712e-16
9.468647803207586778e-17
7.176140701612147170e-17
