# bin_12_6
1.021118731362746709e-15
1.156990340137583288e-15
1.289890281446620514e-15
1.409557023334335498e-15
1.502252953919129772e-15
1.550946307704914866e-15
1.542513859036468515e-15
1.455560291406089616e-15
1.297227385723245088e-15
1.092896870310693303e-15
8.941083822263291076e-16
7.487787952997917279e-16
6.485854292265686110e-16
5.216153337888472932e-16
3.626931349063667074e-16
2.804558255786281309e-16
2.083621308076442589e-16
1.453601746429409230e-16
1.015149471970169841e-16
7.217173893617678668e-17
4.966619734048014892e-17
3.407679755337786104e-17
2.355511932561413487e-17
1.642200849609811584e-17
1.161175667622992285e-17
8.367031000060212785e-18
6.149115181613801965e-18
4.609278388419749819e-18
3.510567895129287174e-18
2.700477836137813491e-18
2.082578067782359779e-18
