# bin_11_2
5.780990444866202479e-27
6.505145057407200797e-27
7.191940860160566449e-27
7.778787516094564336e-27
8.184796882997998073e-27
8.322214109844909973e-27
8.106753642952022796e-27
7.460046033461810729e-27
6.491502021152936129e-27
5.369911671294937352e-27
4.406164326479895923e-27
3.764178023439361124e-27
3.217708162228143027e-27
2.414361594019882307e-27
1.693220566518680959e-27
1.371374579328483340e-27
9.259765493536286183e-28
6.962114015086475640e-28
4.751978983705493750e-28
3.315750545360791222e-28
2.322191427317146978e-28
1.626889508379126891e-28
1.148131667893234263e-28
8.201538871238512533e-29
5.972542002643774433e-29
4.434247290202230792e-29
3.351410949689304472e-29
2.569614169219508597e-29
1.985870542329312149e-29
1.535838572250321624e-29
1.180090262223479020e-29
