# bin_10_1
2.233787306704013489e-29
2.501199559378702612e-29
2.748737421340013389e-29
2.951069839575596726e-29
3.076173252414204988e-29
3.094819366445292306e-29
2.968265814445844778e-29
2.687443060043494270e-29
2.300474528978886501e-29
1.888913895727642887e-29
1.562287197125571611e-29
1.347484071481068967e-29
1.124165613316074346e-29
8.081588336468157245e-30
5.913260722032922484e-30
4.679818938263633625e-30
3.146358842208357473e-30
2.338242322605650588e-30
1.640067036948718688e-30
1.141478626310756637e-30
8.017383536081403152e-31
5.663692254030371548e-31
4.051564891774194567e-31
2.943817000113243256e-31
2.181799931593856296e-31
1.646525134557248989e-31
1.261414115722821916e-31
9.758240554611490814e-32
7.568731285939752889e-32
5.843680925045652979e-32
4.461947652933882072e-32
