# bin_6_4
2.466656460021488796e-10
2.716106935573150176e-10
2.924176182810320458e-10
3.059883684959068064e-10
3.092553067342640265e-10
2.987119789691535886e-10
2.725273753283602831e-10
2.351320018738976070e-10
1.937609935965051781e-10
1.595810010122707939e-10
1.368928101378571311e-10
1.155528948546126822e-10
8.505371123208574443e-11
6.103519139571321378e-11
4.892321891781096704e-11
3.327011827701686972e-11
2.501796844085102355e-11
1.754293282936826394e-11
1.245153241770964503e-11
8.927820162047082983e-12
6.454304574153599847e-12
4.733877233808496935e-12
3.530362956966181905e-12
2.682697598603314923e-12
2.069274293044393512e-12
1.611696976985839274e-12
1.259552224411503698e-12
9.805494743323705289e-13
7.554424826882350249e-13
5.727442596439377794e-13
4.254352858652037962e-13
