# bin_15_13
7.418686031363015233e-10
8.493766132475032392e-10
9.595676304772530375e-10
1.065596853110393025e-09
1.158521718543939049e-09
1.226558936023157756e-09
1.255777957610785778e-09
1.235190065529843647e-09
1.149101528067858377e-09
1.010473599520646804e-09
8.414240140961224500e-10
6.886219811216570932e-10
5.838062657170096486e-10
5.038566415844599959e-10
3.890320691473316448e-10
2.687453584960493032e-10
2.159646739849846233e-10
1.496363900314664512e-10
1.099270067700305286e-10
7.347124064581323486e-11
5.112810111257770252e-11
3.482764448859434721e-11
2.349881647305146521e-11
1.579883156926323885e-11
1.061497240763363358e-11
7.195078437756328631e-12
4.940937606062385278e-12
3.453237942548668552e-12
2.467312441147682838e-12
1.804194530622511006e-12
1.347591089151630618e-12
