# bin_5_7
8.353932237044773649e-08
9.192172426206750613e-08
9.887722041829819139e-08
1.033554913570958250e-07
1.043301652607857063e-07
1.006147637158210506e-07
9.168758867003789010e-08
7.902288780964776440e-08
6.514670803675630043e-08
5.373512257462035887e-08
4.606767820410836057e-08
3.871903054604056414e-08
2.850561382731541951e-08
2.058181547079855008e-08
1.633747148657365666e-08
1.122874208466241345e-08
8.363985827102948402e-09
5.883925138883652172e-09
4.187175729197713195e-09
3.001592694957445573e-09
2.170970036365100561e-09
1.593476925233890296e-09
1.189333144111511983e-09
9.042477523647454462e-10
6.976815443125044161e-10
5.433947224175802595e-10
4.245256306729999407e-10
3.302967753265792734e-10
2.542715821353384709e-10
1.926022392117359474e-10
1.429237534483688284e-10
