# bin_9_1
1.283609464444462441e-26
1.429650136397638247e-26
1.560944435391964553e-26
1.662333304971791978e-26
1.715156201233454729e-26
1.704649639667795780e-26
1.607858776604510888e-26
1.432577659077489324e-26
1.207092072443755842e-26
9.877151683005149178e-27
8.268626566453618982e-27
7.152894221351177863e-27
5.751689837487973090e-27
4.018826722083598309e-27
3.103346725801027396e-27
2.316156265877630781e-27
1.627100819615889441e-27
1.154300237176598478e-27
8.287013119604551390e-28
5.826337419921105837e-28
4.116056312053990819e-28
2.943931964755904457e-28
2.136468256721578838e-28
1.578515518561933938e-28
1.188624606659034537e-28
9.093067511477433408e-29
7.036162253700858346e-29
5.471078538148974107e-29
4.244111267598735283e-29
3.262262825094610224e-29
2.470554240159147248e-29
