# bin_6_2
1.447429798183610187e-14
1.581190246268007207e-14
1.685611059137870638e-14
1.742043989604638962e-14
1.735076004695786238e-14
1.642073741505143525e-14
1.468048230198568147e-14
1.241480251618410235e-14
1.016659188069765819e-14
8.483174398364524250e-15
7.326171598107491324e-15
5.943757426163178403e-15
4.196963267637485901e-15
3.199148359170212427e-15
2.432608997031435637e-15
1.702569490602288071e-15
1.236022611540108567e-15
8.919971361950199664e-16
6.370244908137534363e-16
4.597745218350001657e-16
3.366476888990024435e-16
2.506993918025917614e-16
1.900602363034965607e-16
1.465014011077659957e-16
1.142186647960465743e-16
8.952223731176799100e-17
7.004991927861191017e-17
5.434404933873606750e-17
4.154986346812346781e-17
3.115452875710765790e-17
2.282223353630076575e-17
