# bin_1_12
7.640375986620160962e-07
7.490218043163707752e-07
6.995743011270562075e-07
6.200866196557266982e-07
5.251444555030494429e-07
4.350732611464214651e-07
3.638853607372865556e-07
3.053314169152386307e-07
2.430821290960186728e-07
1.808540872845307389e-07
1.356235848015183436e-07
1.023429915463224196e-07
7.467279556154220683e-08
5.506414541134027492e-08
4.059014930430546627e-08
3.029002275699897870e-08
2.294405210014190639e-08
1.768941971116899652e-08
1.386623851645615426e-08
1.100630756631443593e-08
8.793420080313149035e-09
7.020410382911017934e-09
5.561289801577053620e-09
4.343359559030350645e-09
3.326395388104075514e-09
2.488068474305439602e-09
1.813230684758765187e-09
1.286631750916685144e-09
8.898225577269450688e-10
6.011483969215792569e-10
3.978982023072951417e-10
