# bin_7_3
4.104408051075643928e-08
3.678643291546450883e-08
3.207467307823312702e-08
2.723134561228754808e-08
2.258661928190130649e-08
1.839707708367282682e-08
1.478263313168326203e-08
1.172357215096158892e-08
9.130850861857348313e-09
6.958617970328358402e-09
5.233555510891018612e-09
3.943857619137986205e-09
2.976614472612136678e-09
2.246577194674733895e-09
1.711823252915819094e-09
1.315014241573687187e-09
1.019412475086619729e-09
7.956257258479737140e-10
6.231736605734037700e-10
4.878095948509945268e-10
3.799605717998511328e-10
2.932751272617417422e-10
2.234878422275357281e-10
1.676318033571337892e-10
1.234734891208660339e-10
8.916892492441057534e-11
6.308413350985858584e-11
4.371937904433649519e-11
2.970161884395057025e-11
1.980797756821098660e-11
1.299182181651916529e-11
