# bin_15_8
7.984000415606578764e-08
7.588709317724499567e-08
7.035850438938744058e-08
6.350949644827016687e-08
5.575548698231534672e-08
4.763055769011788277e-08
3.970452776595883992e-08
3.245595844250197211e-08
2.614467893275058390e-08
2.078708662472522651e-08
1.624185020505923450e-08
1.239977759728651054e-08
9.290241164857140618e-09
6.941689604300244536e-09
5.193989725523432949e-09
3.864166747525123691e-09
2.892889377087207193e-09
2.178175636970347645e-09
1.653286771152803228e-09
1.263595487099090444e-09
9.709299829734094759e-10
7.477351818540156162e-10
5.750397817813309300e-10
4.399555127723244686e-10
3.336582861699402959e-10
2.500417072964139492e-10
1.846883257325767866e-10
1.341964809376709492e-10
9.579702771364493357e-11
6.714002682298838602e-11
4.619579715741903935e-11
