# bin_6_4
4.607425744202345402e-08
4.177167283665057301e-08
3.685571971897843585e-08
3.164981547153895969e-08
2.651017420870610879e-08
2.175334722658265449e-08
1.757446840541270547e-08
1.401677193251908621e-08
1.100937376253697307e-08
8.471568204747724911e-09
6.396749369765233059e-09
4.804810684656944343e-09
3.622873749725465659e-09
2.727484011687531634e-09
2.063399473863912062e-09
1.575258331091290699e-09
1.212439208301656547e-09
9.405007461626295638e-10
7.333479119892588944e-10
5.726800067187239965e-10
4.460241472106533023e-10
3.450195449975890823e-10
2.640561876247298829e-10
1.992867842210812044e-10
1.479280692043061570e-10
1.077884975089341181e-10
7.700473848652318334e-11
5.391121691939242794e-11
3.699655466529965032e-11
2.490973834225977727e-11
1.647994643386895119e-11
