# bin_12_11
8.534898095816863208e-08
8.167906752714757111e-08
7.630584380799768012e-08
6.945036648190168115e-08
6.150410629141481005e-08
5.299703464710820303e-08
4.452153294012643711e-08
3.661567040138140744e-08
2.962673812997923770e-08
2.365070642403363364e-08
1.858731966381194069e-08
1.430204530091577579e-08
1.077290119134408414e-08
8.038721234731062851e-09
6.005911188495135253e-09
4.469854303599311364e-09
3.326723542492539945e-09
2.494002850527445461e-09
1.880381919487351037e-09
1.428349704539736817e-09
1.091400971742300816e-09
8.367570792011096191e-10
6.415894863715786092e-10
4.902227007236831758e-10
3.719285039796469022e-10
2.792811914854002463e-10
2.070054376163342006e-10
1.511366827821502621e-10
1.085316116743308105e-10
7.658736198312985140e-11
5.309350807436945342e-11
