# bin_4_2
2.862185561225692749e-08
2.495216298570294052e-08
2.119089342465814825e-08
1.758627615047140424e-08
1.433131114074106648e-08
1.151776633825948322e-08
9.135227955617004141e-09
7.121545730188442791e-09
5.440936144320786409e-09
4.104702120865528742e-09
3.100072263461014429e-09
2.348249211768081632e-09
1.781520310668961643e-09
1.364089154405971049e-09
1.054071511112983680e-09
8.218327701987174018e-10
6.449885988093509853e-10
5.077220502900242180e-10
3.991296202925964359e-10
3.119424763726824174e-10
2.413762627332572768e-10
1.842400676257929152e-10
1.383091989147711045e-10
1.018886864484804103e-10
7.354800875193759610e-11
5.198726897789335893e-11
3.598890104654745199e-11
2.442187255854715536e-11
1.627068335492560631e-11
1.066412055194100588e-11
6.891439610752642495e-12
