# bin_3_3
1.410231605833415294e-10
1.508598799309463598e-10
1.566638941842396866e-10
1.569629060026882374e-10
1.498653593284869774e-10
1.352007128117497970e-10
1.153976955725221566e-10
9.477227200569245581e-11
7.854956991818440581e-11
6.753171493030127013e-11
5.581992706400136547e-11
4.037576312147162535e-11
2.990004955026947928e-11
2.336131014381624576e-11
1.626050695299265949e-11
1.208518985582845115e-11
8.683441787593063702e-12
6.276560623304348430e-12
4.595770877132182041e-12
3.413357229573464564e-12
2.579710691679247361e-12
1.983187740539843576e-12
1.547622551598944043e-12
1.218476194198336232e-12
9.613741749340957165e-13
7.548864693043562200e-13
5.859365792937263038e-13
4.470045925420363950e-13
3.336069075124303993e-13
2.427357704358571616e-13
1.719240239844438104e-13
