# bin_15_11
7.324764953409728768e-13
8.381125857319542800e-13
9.461439065851968472e-13
1.049755191494644011e-12
1.140055859895639336e-12
1.205380874757084317e-12
1.232125423967698897e-12
1.209279012110843741e-12
1.122014843813760915e-12
9.841070962388746571e-13
8.177821086295965519e-13
6.692957774490441714e-13
5.684513626597037620e-13
4.899234962978642077e-13
3.756099383647558535e-13
2.597262089051304916e-13
2.095753675626956034e-13
1.436889722975497758e-13
1.063535028347583441e-13
7.102732741546058478e-14
4.919357037856831912e-14
3.356003295107911736e-14
2.268951035228822093e-14
1.527746773384626385e-14
1.028610547104759963e-14
6.994189430652454495e-15
4.821567745215790123e-15
3.384937550286993694e-15
2.429988483441989995e-15
1.784876366270375871e-15
1.338076115167822813e-15
