# bin_6_6
6.669280763699991468e-11
7.422384316764389849e-11
8.096452132899069649e-11
8.612361082418272786e-11
8.873331749955748984e-11
8.803171432368140826e-11
8.284149003409024789e-11
7.364376161193111476e-11
6.192097172332869675e-11
5.064353023088096710e-11
4.245614579678098726e-11
3.671714618298002617e-11
2.936794909167737373e-11
2.047683040403063376e-11
1.590432252418459507e-11
1.177233428813992178e-11
8.325253282893076318e-12
5.875931323907144507e-12
4.222050522486388423e-12
2.972659527814840398e-12
2.102710631868943341e-12
1.506284629701857336e-12
1.094904110854180041e-12
8.104435533329423809e-13
6.112916677655554776e-13
4.682676626434643865e-13
3.626541505004179640e-13
2.820668526939811231e-13
2.187469812124429519e-13
1.680088520871342310e-13
1.270837473018900385e-13
