# bin_6_2
1.423598208787269957e-15
1.557223610660905724e-15
1.662813602018929977e-15
1.722049561678137816e-15
1.719522034898769633e-15
1.632899866881125005e-15
1.464488952574339935e-15
1.242122254827728896e-15
1.017390839192028543e-15
8.464666377043894634e-16
7.308207171868718006e-16
5.977594296851486310e-16
4.239971243485879134e-16
3.196546521127425886e-16
2.460905361472580885e-16
1.705703846782094210e-16
1.248573250836135958e-16
8.975858994360730255e-17
6.395552762156420465e-17
4.608039912032655230e-17
3.365318552942216899e-17
2.499290800910199851e-17
1.889341166681124330e-17
1.452891458335287945e-17
1.130785135827199206e-17
8.854531147021347774e-18
6.927970111374927511e-18
5.378361015278109881e-18
4.117764671613204147e-18
3.093512447695215749e-18
2.271560623998642456e-18
