# bin_8_8
4.998879210678442946e-11
5.631938249439364255e-11
6.235687331073840027e-11
6.756730908142260254e-11
7.125560023256508728e-11
7.263891634704130132e-11
7.102783146444893195e-11
6.564035084002033045e-11
5.735352636337189420e-11
4.755422713406556001e-11
3.895520928073086395e-11
3.316385775503430918e-11
2.847494611854735563e-11
2.163326504268117696e-11
1.506127995857716319e-11
1.217625143738609461e-11
8.316054930316039288e-12
6.210300429583696304e-12
4.218815894138650733e-12
2.957190906216735224e-12
2.066433858576290089e-12
1.443525031510890633e-12
1.015063273394746354e-12
7.217533349240382392e-13
5.229242117890067248e-13
3.863214105162918676e-13
2.907028874908058088e-13
2.221715974230161066e-13
1.713994110073657576e-13
1.325311794824889258e-13
1.019580150493992014e-13
