# bin_11_8
2.106422629274203911e-12
2.388778031915414821e-12
2.666069518799796529e-12
2.917303324921791850e-12
3.114352480154862923e-12
3.222120240687810438e-12
3.212917095489775847e-12
3.042279275190132213e-12
2.719867368283251321e-12
2.298204637619047661e-12
1.880222415194198764e-12
1.569610822097832666e-12
1.359593164881057239e-12
1.103433212515945755e-12
7.703795450249095212e-13
5.885412055029448595e-13
4.441195867039992034e-13
3.056627137210520547e-13
2.161966222166563360e-13
1.531609192544141225e-13
1.051222386836337508e-13
7.197272138936074410e-14
4.958419931224606833e-14
3.444479430355737867e-14
2.424290365019537451e-14
1.738287690631678509e-14
1.271172550627217350e-14
9.486093035078918958e-15
7.200551746000737415e-15
5.528166442862941793e-15
4.261486756061235192e-15
