# bin_12_1
5.018454410152657797e-35
5.666610517476250169e-35
6.290930127246746192e-35
6.839110817679367546e-35
7.242158264186726974e-35
7.418389518283230811e-35
7.303004125864774817e-35
6.803306872903316984e-35
5.990148754150993544e-35
4.994030558356216300e-35
4.085246439370876582e-35
3.455884291055736444e-35
2.982988265938639291e-35
2.318037297834986057e-35
1.604374682923347851e-35
1.281818772235396380e-35
9.017436471487743045e-36
6.587106444152012043e-36
4.479309866765162713e-36
3.169577730744732392e-36
2.202519057175563434e-36
1.528075155569925699e-36
1.067645826056447866e-36
7.532585232130959711e-37
5.407337019225362314e-37
3.958161674339758109e-37
2.953443892505953316e-37
2.242404414289937967e-37
1.723077103639893617e-37
1.330859738352782482e-37
1.025520571125206279e-37
