# bin_8_5
7.181226729689262673e-13
8.029225583109761705e-13
8.808215230637257356e-13
9.435813970974542342e-13
9.808430182863279211e-13
9.836124057626034755e-13
9.390997892566416086e-13
8.463729498730193385e-13
7.211105460429786407e-13
5.910702629677720246e-13
4.901289823221203538e-13
4.234166175947179189e-13
3.502388504468740493e-13
2.492427163739548011e-13
1.849323411133757224e-13
1.445131690226248952e-13
9.786889902338345894e-14
7.196279716661388388e-14
5.087020039447118047e-14
3.546890772645098927e-14
2.492638422461885810e-14
1.765641118518803513e-14
1.267801862136619302e-14
9.252772121157447767e-15
6.887829744901164201e-15
5.218106333601297325e-15
4.009493545299138176e-15
3.106937211331897827e-15
2.410549687173031108e-15
1.859282780761683467e-15
1.416696257190631047e-15
