# bin_10_1
5.565401793830796828e-30
6.232681071404854100e-30
6.850911926541962158e-30
7.357101671553857646e-30
7.671577360537681752e-30
7.720978271828868438e-30
7.409567798284040524e-30
6.711950106975249886e-30
5.748215680172706380e-30
4.719398124352578222e-30
3.900262659498503527e-30
3.362629720236370382e-30
2.809438070782651463e-30
2.022901318699903580e-30
1.475863541035980740e-30
1.170671304341245538e-30
7.858848540882975531e-31
5.850912526350158560e-31
4.097092014796628172e-31
2.850439539431333718e-31
2.001708996189778918e-31
1.413249625509340524e-31
1.010228280294799638e-31
7.333258273366576487e-32
5.430267213381005561e-32
4.094729650765135345e-32
3.134953110523940704e-32
2.424184486453897471e-32
1.879951874344096160e-32
1.451588439267977877e-32
1.108668130545886265e-32
