# bin_4_8
-4.460339339437534852e-12
-4.970184301648507741e-12
-5.429801759060144335e-12
-5.786678124395159987e-12
-5.975870680934455487e-12
-5.945992066391238315e-12
-5.616361959978923567e-12
-5.010798302564736742e-12
-4.226991413523483288e-12
-3.458853902784318799e-12
-2.892293622949838971e-12
-2.502712913263395224e-12
-2.019847848002588731e-12
-1.412376424728947940e-12
-1.086442070692683697e-12
-8.155397119748850193e-13
-5.700794116270741331e-13
-4.057765471177646755e-13
-2.912673664763280602e-13
-2.045722133013628946e-13
-1.443771788387643242e-13
-1.031551516338416291e-13
-7.478285556393121072e-14
-5.518666253906736528e-14
-4.151101455898737869e-14
-3.172820480833778867e-14
-2.453686252523107436e-14
-1.907499394938374781e-14
-1.479921660183605771e-14
-1.138057781162138647e-14
-8.624564247371195867e-15
