# bin_1_10
-2.668800224869874272e-27
-2.986208697960260178e-27
-3.278954918173423751e-27
-3.516595781958187319e-27
-3.660736453552485297e-27
-3.677263326257033134e-27
-3.519013718495921353e-27
-3.179046947881774014e-27
-2.715087355432859281e-27
-2.227613412740929375e-27
-1.845032741135286924e-27
-1.592883724300238294e-27
-1.323339332476271698e-27
-9.462284594654757188e-28
-6.974017947477374011e-28
-5.485886721707456439e-28
-3.700105609239179126e-28
-2.736174488016017576e-28
-1.927382668721750002e-28
-1.342614879738287276e-28
-9.433019754658298860e-29
-6.673226690293755738e-29
-4.783516261792733191e-29
-3.484099009097006182e-29
-2.588465740113939966e-29
-1.957593160348494412e-29
-1.502214718363380388e-29
-1.163235959810657504e-29
-9.024419908735934810e-30
-6.964252275539296715e-30
-5.311835012528689790e-30
