# bin_9_8
-1.023429565873153157e-08
-1.154698796719503293e-08
-1.280695341487901401e-08
-1.390653882636983992e-08
-1.470438310170697177e-08
-1.503584402815473295e-08
-1.476581645685386294e-08
-1.371479150432373470e-08
-1.204264569664519723e-08
-1.001977372166992386e-08
-8.202038834245742617e-09
-6.957887184630896316e-09
-5.996500882478970872e-09
-4.618209281522657132e-09
-3.200741986860065642e-09
-2.574129194263945237e-09
-1.786727116906716827e-09
-1.319758030191227317e-09
-8.949859351739069842e-10
-6.310744549251401203e-10
-4.397155807009694100e-10
-3.060649674016168205e-10
-2.144296562955250450e-10
-1.517726901257168724e-10
-1.093736558242235867e-10
-8.037324328872176477e-11
-6.018951424998494606e-11
-4.583186716649748910e-11
-3.528318960675012277e-11
-2.727040333846638658e-11
-2.100388650840187349e-11
