# bin_4_6
-2.011219808200084549e-09
-2.218611934410376653e-09
-2.393894474049957084e-09
-2.512022159563772534e-09
-2.546976171095345874e-09
-2.471461574348097046e-09
-2.265682760776150877e-09
-1.964184293014603098e-09
-1.622140815357796515e-09
-1.332937359934580329e-09
-1.140296308353335054e-09
-9.693263077345285993e-10
-7.221186405960002008e-10
-5.121791304502662903e-10
-4.129592920069708770e-10
-2.813085615547920261e-10
-2.119601659384897798e-10
-1.476276247187109552e-10
-1.048686318721503255e-10
-7.509088820042270051e-11
-5.414416811714992152e-11
-3.957365908832223359e-11
-2.939603762053054874e-11
-2.225667603927564029e-11
-1.711756426438136460e-11
-1.330655756603998083e-11
-1.039138616458056040e-11
-8.092981478087484915e-12
-6.244099044126550218e-12
-4.744900692635630906e-12
-3.535098165723439949e-12
