# bin_14_5
-2.122163149928591489e-20
-2.413947055270372514e-20
-2.704627434206759538e-20
-2.973541973816826590e-20
-3.193127237389814188e-20
-3.328530764684971121e-20
-3.348235389782968343e-20
-3.209346503573736263e-20
-2.903035090701433562e-20
-2.482381989829502029e-20
-2.037078640676487287e-20
-1.686092945187526000e-20
-1.456580648194853532e-20
-1.213426970283366407e-20
-8.671909419824339953e-21
-6.361930485249854206e-21
-5.018189131252980944e-21
-3.343991004764876609e-21
-2.465116477679585321e-21
-1.711283210371715159e-21
-1.166820680843961556e-21
-7.976710412840230719e-22
-5.445155762368078218e-22
-3.740203180319002690e-22
-2.593386992750036091e-22
-1.828941732087738721e-22
-1.314433130724654396e-22
-9.648497362094638970e-23
-7.226221088558625615e-23
-5.498958423616036803e-23
-4.223952456771374732e-23
