# bin_6_8
-2.656037486174198726e-09
-2.974886270887419194e-09
-3.270493627720510865e-09
-3.512812197277330743e-09
-3.663816630344202623e-09
-3.688473764479225598e-09
-3.540842392296978449e-09
-3.208649513392508575e-09
-2.748995274725905910e-09
-2.257673423208208896e-09
-1.866093386250755607e-09
-1.609123028540992134e-09
-1.344993610015645995e-09
-9.685477881411405048e-10
-7.065486133448791525e-10
-5.609386633747219045e-10
-3.762405946322725665e-10
-2.804069046483672611e-10
-1.963771046022421122e-10
-1.365998416457691806e-10
-9.593626729580377169e-11
-6.773294217208948546e-11
-4.841995187897913109e-11
-3.515132478784781697e-11
-2.603161656216696785e-11
-1.963112495267035156e-11
-1.503130811101392057e-11
-1.162466088046850311e-11
-9.015966745341601260e-12
-6.962394704016905851e-12
-5.318161137543890131e-12
