# bin_1_1
-7.983835039825974019e-08
-7.890822417941146420e-08
-7.422224179368363774e-08
-6.609055279473162288e-08
-5.592948511435665080e-08
-4.606537437908679901e-08
-3.851332572625534304e-08
-3.277913311716847737e-08
-2.630904026721297801e-08
-1.921616367606524349e-08
-1.450839534142423915e-08
-1.101907661678640849e-08
-7.954501846846994253e-09
-5.888103880887606861e-09
-4.325838361523293381e-09
-3.218803831266320037e-09
-2.432974576604214575e-09
-1.872505283041597131e-09
-1.466437892625473812e-09
-1.164063666611071865e-09
-9.311065250528507738e-10
-7.448665802244157534e-10
-5.916355147409708865e-10
-4.634819342218118710e-10
-3.560501405475116530e-10
-2.670269869461086726e-10
-1.949823060206437219e-10
-1.385091679706606594e-10
-9.582978446249049528e-11
-6.473395535388738972e-11
-4.283099942492338242e-11
