# bin_9_4
-8.794175381715931043e-14
-9.840402075112654326e-14
-1.080549557089118107e-13
-1.158915951993468883e-13
-1.206488326118090183e-13
-1.212021586438316488e-13
-1.159955919769502128e-13
-1.047951850223014588e-13
-8.950504178301423900e-14
-7.343248332783002846e-14
-6.081564998742697128e-14
-5.250793048250859855e-14
-4.363359988969507024e-14
-3.119578154404319096e-14
-2.298667055541076219e-14
-1.809165625985301322e-14
-1.219427780015294851e-14
-9.022354192750885380e-15
-6.355398124768381989e-15
-4.426527840606440134e-15
-3.109810819369533480e-15
-2.199743291326355942e-15
-1.576743993748558682e-15
-1.148374645329697625e-15
-8.531383086931595184e-16
-6.451923137470247278e-16
-4.951047696999426812e-16
-3.833899946165335846e-16
-2.974460763276812515e-16
-2.295542655873818601e-16
-1.750977323274607022e-16
