# bin_9_5
-1.057130782202217572e-11
-1.185340651885015215e-11
-1.304875382575270033e-11
-1.403889511615314856e-11
-1.467332986508033374e-11
-1.480760548304950453e-11
-1.426451490131694562e-11
-1.297157466868249219e-11
-1.115314753060629433e-11
-9.171882827794659897e-12
-7.565152347648344173e-12
-6.512326829536888724e-12
-5.477544636049621953e-12
-3.978940707033676295e-12
-2.870801866929809170e-12
-2.298823011387306988e-12
-1.536131268196874224e-12
-1.152641692999591676e-12
-8.018879969226804029e-13
-5.572184505380055975e-13
-3.912344793966806350e-13
-2.756863695116439505e-13
-1.964812244566711929e-13
-1.421082783550680926e-13
-1.048500123228213961e-13
-7.880579948487051523e-14
-6.017986460167437425e-14
-4.646528549712915507e-14
-3.602049887977667592e-14
-2.783322120516158047e-14
-2.129304896260569291e-14
