# bin_3_7
-1.581970783162042546e-12
-1.748610075298138835e-12
-1.891439487318103845e-12
-1.990953781186207002e-12
-2.025830087274628939e-12
-1.975887235541627277e-12
-1.821600632920370072e-12
-1.588023445054528350e-12
-1.315567858922857032e-12
-1.078866221323447606e-12
-9.194189570863516317e-13
-7.865784550086014096e-13
-5.949103511685755165e-13
-4.176314496032925163e-13
-3.369743708305627789e-13
-2.317632424970963433e-13
-1.738109448207922531e-13
-1.203762251720540267e-13
-8.577443128228058495e-14
-6.127845493073084248e-14
-4.403750458646094648e-14
-3.205640796625901900e-14
-2.370323521850262905e-14
-1.786718336386699887e-14
-1.369187217991306296e-14
-1.061677613977022654e-14
-8.281490984651673157e-15
-6.451562300934294353e-15
-4.985359464676410356e-15
-3.798236966938869157e-15
-2.839628347464220284e-15
