# bin_2_6
-4.519561315756676947e-13
-4.941446908475787673e-13
-5.273367186161588819e-13
-5.457083764396898576e-13
-5.444116987283743674e-13
-5.163236691809201668e-13
-4.625401000795650645e-13
-3.918793094765719101e-13
-3.209886126686840436e-13
-2.674148452627787293e-13
-2.309523167242613532e-13
-1.883035686913586861e-13
-1.332668860919260389e-13
-1.009700605921391143e-13
-7.735173360743863974e-14
-5.381844508138754992e-14
-3.925750871361075858e-14
-2.828226572530799845e-14
-2.017044917057305101e-14
-1.454248908198566420e-14
-1.063229987929952509e-14
-7.905670860449413641e-15
-5.983863474828531948e-15
-4.606398610595793827e-15
-3.587941485631313756e-15
-2.810750703057151197e-15
-2.199342159192872196e-15
-1.706942889542775979e-15
-1.306115946783532615e-15
-9.804210982161392339e-16
-7.191727016545409040e-16
