# bin_4_2
1.576390948911625337e-10
1.678640002550636085e-10
1.733318516923202389e-10
1.724590147064731743e-10
1.631304772847843978e-10
1.458260727038128890e-10
1.234095653681982705e-10
1.011717685153156185e-10
8.440693756546333417e-11
7.267668343236322781e-11
5.891294107481020628e-11
4.199874922268549180e-11
3.190543084607973923e-11
2.432531288499031698e-11
1.717969325385719947e-11
1.260286692022413726e-11
9.143182310176646705e-12
6.631113610092968303e-12
4.875264965057216753e-12
3.642101795849464393e-12
2.769516483999380219e-12
2.141767259836397351e-12
1.678926908353716821e-12
1.325453415455710121e-12
1.046606283915580431e-12
8.208571684349364563e-13
6.352813529405728211e-13
4.824914304148206309e-13
3.580451121538186329e-13
2.588233233053888475e-13
1.820809502853796951e-13
