# bin_3_3
3.859137203830624189e-08
4.067700875915599556e-08
4.149299324100968002e-08
4.062834890800127037e-08
3.770482163896873857e-08
3.309538017561733438e-08
2.762601930971132196e-08
2.268379258649365920e-08
1.916901474160375781e-08
1.634949008831233044e-08
1.268881820414636222e-08
9.050659122981027881e-09
7.075950671216686355e-09
5.152379441631450735e-09
3.760259230276888455e-09
2.714851696360610148e-09
1.982110660416021738e-09
1.451620354673840438e-09
1.077939949680400869e-09
8.144972572039489199e-10
6.262215168200314001e-10
4.890234451199420934e-10
3.858867702165796993e-10
3.055767139012063519e-10
2.411424174469735061e-10
1.883451137198044433e-10
1.447154920050510759e-10
1.088421540884604251e-10
7.983852465120786992e-11
5.700471959461672881e-11
3.962087081091262531e-11
