# bin_5_10
1.563472981973795740e-07
1.720432132994365553e-07
1.850722420367208458e-07
1.934703592769002882e-07
1.953138682123927923e-07
1.883927348355847141e-07
1.717306208991241126e-07
1.480606541796118611e-07
1.221114602876645932e-07
1.007319373923562505e-07
8.631751628878460424e-08
7.253112969979444836e-08
5.348068047653426905e-08
3.862688222162834894e-08
3.060374154058423629e-08
2.109562967569866960e-08
1.567771108793614852e-08
1.103517157824335754e-08
7.857010784373596000e-09
5.630548580070869157e-09
4.071190082930282589e-09
2.987348775885371166e-09
2.228901549198052226e-09
1.694006126234391113e-09
1.306565752325222132e-09
1.017304689123388727e-09
7.945655235191471438e-10
6.180935725217622163e-10
4.757782407142202102e-10
3.603762459923847344e-10
2.674339282371766376e-10
