# bin_10_2
8.072737359388484034e-25
9.041170242200064723e-25
9.938652986225398659e-25
1.067380944274302759e-24
1.113103917445455544e-24
1.120392841771034722e-24
1.075328206052263943e-24
9.742404906030342814e-25
8.345320415007907918e-25
6.853697663747027350e-25
5.665949217240741646e-25
4.885752034553812005e-25
4.081524502339888834e-25
2.938571343925565031e-25
2.145316935553304829e-25
1.701377972221007415e-25
1.142386146392466487e-25
8.504930100345057324e-26
5.958230534216948251e-26
4.145643618530541697e-26
2.911623480043463882e-26
2.056036862388626770e-26
1.470034676965684597e-26
1.067381172426640146e-26
7.905929438637825150e-27
5.962891776288577441e-27
4.566130815296887521e-27
3.531392837270292605e-27
2.738835689265308936e-27
2.114838790414441898e-27
1.615207200993022425e-27
