# bin_4_1
7.609798997180357150e-13
8.030626160094496668e-13
8.202255646661777072e-13
8.045857595983220878e-13
7.477518233318148651e-13
6.571415724742935287e-13
5.483795566054406585e-13
4.495723738598226847e-13
3.798598946657309921e-13
3.253362655176718718e-13
2.529622070405053971e-13
1.790682432133239002e-13
1.410589566429341766e-13
1.022362898400541985e-13
7.492176447972494198e-14
5.380779386310959141e-14
3.935070202795865424e-14
2.881292574366628407e-14
2.138026264506891367e-14
1.614629007694317179e-14
1.240818185142370309e-14
9.687916737851641897e-15
7.645169247450699426e-15
6.055923193944408873e-15
4.781513792137134609e-15
3.737259124562061176e-15
2.873889148882341080e-15
2.163295605362328420e-15
1.588026094794331936e-15
1.134472641250078285e-15
7.887609205257701272e-16
