# bin_1_1
1.068124954109487144e-07
1.002205882128418655e-07
8.924494191172691548e-08
7.581972334912558106e-08
6.281187572870835068e-08
5.244916906800210750e-08
4.413517298002776054e-08
3.540033283463871049e-08
2.640165966368086784e-08
1.977830695368445226e-08
1.498266205324733724e-08
1.097182112756073467e-08
8.115194381219239040e-09
6.011568505734065731e-09
4.512339864722302099e-09
3.441269549699400404e-09
2.672823722241527841e-09
2.110642799168307661e-09
1.686649823271070416e-09
1.355194023578643344e-09
1.086689359142188001e-09
8.634266089121389804e-10
6.754664038213272428e-10
5.175552197325730516e-10
3.869187578671451393e-10
2.816394857836100139e-10
1.995579998822392747e-10
1.378261541156352422e-10
9.301773877084106183e-11
6.153084522681328225e-11
4.002073796200889403e-11
