# bin_8_9
2.638873095510127414e-08
2.964753844671554154e-08
3.271527920479212376e-08
3.530184590372880736e-08
3.703515359348218380e-08
3.753212020849056904e-08
3.638413164863728598e-08
3.331185377053862294e-08
2.884029392607259217e-08
2.380029625296186313e-08
1.957394206061020204e-08
1.677404852142111161e-08
1.423671716901905813e-08
1.054229485509551187e-08
7.484596611258832385e-09
6.027019097948170487e-09
4.057683023657834238e-09
3.044571715942994844e-09
2.095103258788599760e-09
1.460031011256356164e-09
1.023536254457699076e-09
7.188335888698583412e-10
5.094296716732116847e-10
3.658281668358611553e-10
2.679005263060327158e-10
1.999494056403786514e-10
1.517919736612143141e-10
1.167292863414359701e-10
9.032502760863217123e-11
6.982216985498368065e-11
5.354191205166891481e-11
