# bin_8_6
3.309245315715303544e-10
3.700521087504726709e-10
4.060202633050632928e-10
4.350353963324867813e-10
4.523259211297234730e-10
4.537288269520097933e-10
4.333708727342474503e-10
3.907706647097139414e-10
3.331301857780446505e-10
2.731931856619571132e-10
2.265785051406511200e-10
1.957073994122797870e-10
1.619285323033492925e-10
1.153731439434178253e-10
8.556626092653792332e-11
6.687487685539789642e-11
4.531700267915313249e-11
3.332943908775257532e-11
2.354881875635439531e-11
1.642183428650820172e-11
1.154310782509328848e-11
8.177012371120918209e-12
5.870937584205104799e-12
4.284239844034929430e-12
3.188753347925415306e-12
2.415408631691390039e-12
1.855732401247033320e-12
1.437884510759391775e-12
1.115567292312213394e-12
8.604718481321494622e-13
6.556938889401151139e-13
