# bin_1_5
6.124662749776627005e-07
5.932413065483289057e-07
5.467350187310610782e-07
4.787120400475809293e-07
4.023648906558523847e-07
3.335729020308031808e-07
2.798048285672669591e-07
2.326849710537906117e-07
1.818806452208914178e-07
1.348712882372962831e-07
1.017602459818854047e-07
7.615045092003794420e-08
5.566216499502097694e-08
4.111301484164003748e-08
3.043377810133332596e-08
2.283603731441313955e-08
1.741531141350501136e-08
1.351796191283755536e-08
1.065714428309108369e-08
8.492423161296791661e-09
6.796014547223694614e-09
5.421604468306603120e-09
4.282052756581793583e-09
3.328025961139880867e-09
2.532643709524680759e-09
1.880556283330857328e-09
1.360001100471516107e-09
9.578205967158726197e-10
6.578906169658316794e-10
4.418118102298765895e-10
2.909756979092827899e-10
