# bin_6_6
4.787641969324631946e-06
5.328445979522153160e-06
5.812561927755072809e-06
6.183175846903303241e-06
6.370805005857378080e-06
6.320694412680646829e-06
5.948352925969245296e-06
5.288556165168136657e-06
4.447580140805484232e-06
3.638796480209664943e-06
3.051602535765167762e-06
2.639069463380895619e-06
2.110053446844424329e-06
1.471662275542490805e-06
1.143807102409095413e-06
8.460748984060800206e-07
5.989124490344702678e-07
4.226031773656305291e-07
3.037594448927679185e-07
2.139661993169383468e-07
1.514209863264107821e-07
1.085291310216423707e-07
7.893457498740908545e-08
5.846222776359425342e-08
4.412030014539785450e-08
3.381285965097971820e-08
2.619515525835573319e-08
2.037769122274816803e-08
1.580359324696229234e-08
1.213668717773169007e-08
9.178371092970690661e-09
