# bin_5_5
5.268840147485951596e-06
5.811501329068142341e-06
6.269779250705226500e-06
6.578029668459480647e-06
6.668218127130505078e-06
6.468893858337339736e-06
5.928958179848960290e-06
5.138879654818333073e-06
4.244014326520617816e-06
3.488121215862873829e-06
2.984053913138375904e-06
2.534990665405363493e-06
1.887995686711393736e-06
1.340632887149504596e-06
1.079419080855839507e-06
7.363931933521006183e-07
5.540682463659165666e-07
3.862523503317757205e-07
2.745212054557409184e-07
1.965812492713227403e-07
1.417777903746175726e-07
1.036649543810050157e-07
7.703611879695236940e-08
5.834770405488109011e-08
4.488767910190191979e-08
3.489986649523707447e-08
2.725522268251175879e-08
2.122520312046566269e-08
1.637328495025975567e-08
1.243885977288512843e-08
9.264317663551214204e-09
