# bin_6_3
1.659351788666985182e-08
1.823581538811404593e-08
1.958512603308399202e-08
2.043112576053936857e-08
2.057655930865974361e-08
1.977416282072233137e-08
1.794512065276316950e-08
1.540021583023792633e-08
1.266079156579096284e-08
1.045550450432289750e-08
8.995133655173952758e-09
7.530692739142219062e-09
5.469220904818620032e-09
3.979724780585269345e-09
3.165098585051081260e-09
2.151852203726432578e-09
1.612313577737900919e-09
1.139766936924841199e-09
8.087523716850689970e-10
5.808331366206444703e-10
4.212615021041690798e-10
3.102731362844010889e-10
2.324597402825306690e-10
1.773903149027372360e-10
1.372786005764679942e-10
1.071464467414688714e-10
8.379402754780499460e-11
6.518929807673884292e-11
5.012938887092151741e-11
3.789642578075942141e-11
2.804469269935459442e-11
