# bin_14_6
5.319702514736800881e-15
6.055481574251826224e-15
6.791000802064043476e-15
7.474712559666719541e-15
8.038025904195730400e-15
8.393948032171895209e-15
8.460909229093425074e-15
8.134003720464166703e-15
7.379277752182296806e-15
6.329098452068850556e-15
5.199033429167749151e-15
4.295054709495294866e-15
3.705466037704954113e-15
3.104196066752915740e-15
2.234676195979092890e-15
1.623158873268563847e-15
1.291756945516324518e-15
8.566642552047366441e-16
6.366037069765573155e-16
4.393982823931455012e-16
2.992490067411948062e-16
2.046488054482548272e-16
1.394738618947628601e-16
9.554200575602654644e-17
6.599767784473657813e-17
4.634328318236065765e-17
3.315070373024703661e-17
2.422081053192489430e-17
1.806708589603020562e-17
1.370811717351752391e-17
1.051325967036234858e-17
