# bin_12_2
3.875349729630511932e-25
4.377971157236068308e-25
4.863119586695740267e-25
5.290602739513754306e-25
5.607257719180495433e-25
5.749636041251067448e-25
5.668051106568571160e-25
5.289157193585538351e-25
4.664748321559707375e-25
3.894516760381838483e-25
3.186371061706387264e-25
2.692840640478735469e-25
2.326076450986157375e-25
1.815092409636246928e-25
1.256206375429213661e-25
1.000909986102567789e-25
7.083247634152943380e-26
5.151165008456740300e-26
3.507511289341294582e-26
2.485987243783420588e-26
1.725754468768502807e-26
1.195808449110555125e-26
8.345862821934761252e-27
5.880663814997903806e-27
4.214670003059592581e-27
3.080017053878116045e-27
2.294620587712828825e-27
1.740004398134863143e-27
1.335958091742738440e-27
1.031572869939037073e-27
7.950851047384504287e-28
