# bin_5_1
1.556971824757348326e-11
1.676337102123323161e-11
1.754901173395592725e-11
1.774983635645241685e-11
1.717035398936391592e-11
1.569770364280475867e-11
1.357363354593025061e-11
1.120349948610798123e-11
9.220305958729949885e-12
7.887967521147781262e-12
6.667895133922900165e-12
4.955355418846818887e-12
3.553596365881051523e-12
2.841938630098873288e-12
1.965765218259414729e-12
1.476538791151396957e-12
1.046559584689349229e-12
7.555460252355335949e-13
5.506305891026878654e-13
4.059816887304936819e-13
3.043553418208042961e-13
2.320963281740804177e-13
1.799549852990775009e-13
1.410976394211519627e-13
1.111519689501235093e-13
8.737463820253094553e-14
6.806042408040639759e-14
5.221733319189539239e-14
3.925928339985921456e-14
2.881238782127515419e-14
2.059339235304457742e-14
