# bin_13_11
1.580833266002601599e-06
1.804738002290334364e-06
2.031594057586424304e-06
2.246379122139712228e-06
2.429357820747304846e-06
2.555069074896659071e-06
2.596150741139023681e-06
2.525737378440025227e-06
2.320112391170175039e-06
2.015259616339011852e-06
1.664869726497600533e-06
1.366865143846820627e-06
1.170216730103929410e-06
9.990088567258083739e-07
7.440871510328443142e-07
5.221187006729959615e-07
4.239883040421490631e-07
2.818059288903607530e-07
2.121930369836611594e-07
1.432657667117897695e-07
9.773042882784192666e-08
6.692275182941616393e-08
4.546375400465513128e-08
3.083050390186950654e-08
2.098053706132340434e-08
1.447032277409855985e-08
1.014416405526965821e-08
7.256596652363422630e-09
5.308464263110927066e-09
3.965344577875249709e-09
3.010977815262629187e-09
