# bin_9_3
3.000192365789863462e-14
3.353250395860937761e-14
3.676926503568695400e-14
3.936685537959992932e-14
4.089157309110394674e-14
4.097228789324235500e-14
3.907076615385667819e-14
3.517394524868118039e-14
2.993645188367069404e-14
2.453765096549982038e-14
2.037286519183018820e-14
1.760785929833095713e-14
1.452191712874333002e-14
1.030810772174423674e-14
7.687360948274330649e-15
5.978204890083728021e-15
4.064032812681582941e-15
2.976191833241852699e-15
2.109712416113911119e-15
1.472626215860823085e-15
1.035551151431628937e-15
7.345555586019780013e-16
5.283086648838814927e-16
3.863060760401013461e-16
2.880892176997964347e-16
2.185959564189017567e-16
1.681656980649216991e-16
1.303985986723284000e-16
1.011846883086771833e-16
7.801612345459481695e-17
5.939856034667264258e-17
