# bin_8_8
4.405902275000378121e-06
4.963470284210536167e-06
5.495060301764252423e-06
5.953615217095601735e-06
6.277910229558020444e-06
6.399070941650673562e-06
6.256400438848031639e-06
5.781204862273825291e-06
5.050979553846770634e-06
4.187902225448840308e-06
3.430786287412035110e-06
2.920784544236737555e-06
2.507340412053482259e-06
1.904436377040574214e-06
1.326147014648831652e-06
1.072055327567692832e-06
7.320116445172256703e-07
5.467097224386137778e-07
3.714740332838627591e-07
2.603210443336455033e-07
1.819356004712473099e-07
1.271108321506460324e-07
8.939702723394825843e-08
6.357766425997573362e-08
4.607333239316366171e-08
3.404522949319208865e-08
2.562371276859180602e-08
1.958596804160818128e-08
1.511129376128788427e-08
1.168466762953170444e-08
8.988710370041002792e-09
