# bin_14_2
9.993411474758238687e-30
1.135414908682156500e-29
1.270220547416754101e-29
1.393946351894228461e-29
1.493463734566208792e-29
1.552246964016280867e-29
1.556194661029068108e-29
1.484542247647926504e-29
1.336687691101162360e-29
1.137622615519510732e-29
9.323465714814558798e-30
7.742809931004429203e-30
6.699010202810194178e-30
5.526505787668625378e-30
3.909290806617747557e-30
2.914868845961796473e-30
2.261780764379577305e-30
1.523890217723970152e-30
1.106099870539960289e-30
7.747600513486755117e-31
5.295351576279835197e-31
3.620012141673349284e-31
2.479411913179510180e-31
1.710744776616186986e-31
1.193367194507042124e-31
8.473221931315191087e-32
6.133603566610663386e-32
4.533884212885238447e-32
3.415518515872666488e-32
2.609608173191352943e-32
2.008246586220702909e-32
