# bin_6_4
4.751984577725040349e-07
5.244855138023125549e-07
5.663124747191708038e-07
5.947868337821039483e-07
6.036759872441690702e-07
5.867073762194126632e-07
5.387824844173832359e-07
4.678771015364111925e-07
3.867104717084294664e-07
3.174503697570066218e-07
2.711474432069778260e-07
2.309812172169340732e-07
1.729877353249837565e-07
1.222114639145325200e-07
9.853892298950923728e-08
6.735945867859981862e-08
5.065097205916358946e-08
3.520583265018729833e-08
2.503456571226563698e-08
1.790980178401657026e-08
1.289744724742713651e-08
9.412695242390538184e-09
6.980193780540145166e-09
5.276452520022819814e-09
4.052762897527790069e-09
3.147511130384445310e-09
2.456833545461992011e-09
1.913478117139213423e-09
1.477023859089501582e-09
1.123331473773694135e-09
8.378761509452480499e-10
