# bin_10_8
1.002015274681600455e-06
1.134032524331612652e-06
1.262501173050410427e-06
1.377244517827735992e-06
1.464689096333897395e-06
1.508185200189153799e-06
1.495089717652311040e-06
1.404903856237282620e-06
1.247112068282254498e-06
1.046813979376010918e-06
8.559630675851293058e-07
7.189510222120226341e-07
6.223822096806564176e-07
4.953345060630779773e-07
3.431869584054107417e-07
2.684895855648905813e-07
1.960649631867737829e-07
1.387924758367826497e-07
9.578915471807149392e-08
6.818210667487902833e-08
4.705229105270241001e-08
3.237870685248976565e-08
2.245915060790427770e-08
1.571714617373282473e-08
1.116762081501612502e-08
8.088930117822505996e-09
5.975193985209834825e-09
4.498897410939201223e-09
3.437565200530286745e-09
2.648724238562019914e-09
2.042729296148776750e-09
