# bin_5_3
3.862978099921623593e-07
4.212778511849927477e-07
4.481564865689846107e-07
4.619701785478707147e-07
4.586593549074871626e-07
4.322982697404399858e-07
3.849581071282757179e-07
3.243646551890350682e-07
2.654471218413771727e-07
2.220794292733961435e-07
1.917181658880663859e-07
1.541151565330537527e-07
1.083836221227062798e-07
8.348297921334342962e-08
6.262951088998427571e-08
4.429064818284801266e-08
3.189390140411903445e-08
2.307858581962756463e-08
1.652041388224471666e-08
1.194661972497470912e-08
8.769965015319377210e-09
6.548256908498232066e-09
4.977733159036300619e-09
3.845290492430060573e-09
3.002283004351570371e-09
2.354533837219181610e-09
1.841842077476450500e-09
1.427303446036384686e-09
1.089303051889031840e-09
8.148246406974009119e-10
5.952121891138073819e-10
