# bin_2_7
-2.360001848422639977e-19
-2.599396091267660751e-19
-2.799489745886136609e-19
-2.930675292248925260e-19
-2.963450132240916452e-19
-2.864348335483093227e-19
-2.614970497486885317e-19
-2.257581641998442333e-19
-1.860677975399288218e-19
-1.531769427883995012e-19
-1.313723449448526437e-19
-1.110409137538080698e-19
-8.183186355299336845e-20
-5.860108630084456594e-20
-4.706735522639103443e-20
-3.196282023737081693e-20
-2.407497715602689536e-20
-1.686319557637593852e-20
-1.196491857922624891e-20
-8.578083751951930492e-21
-6.199277832263102786e-21
-4.544711771033901970e-21
-3.387415065197720762e-21
-2.572879620965075255e-21
-1.983832155959740490e-21
-1.544773906504114210e-21
-1.207149510055571910e-21
-9.398103727935183316e-22
-7.241875334574262296e-22
-5.492005735823831542e-22
-4.080909185935304578e-22
