# bin_15_14
-2.882183323532182588e-11
-3.298421840102080961e-11
-3.724336357891138107e-11
-4.133201121092912908e-11
-4.490084856828988265e-11
-4.749113724474955947e-11
-4.856761943924120497e-11
-4.769424650531257825e-11
-4.428634409578253810e-11
-3.887374201085543919e-11
-3.233021895001351776e-11
-2.646902778771139946e-11
-2.247367310805094090e-11
-1.936987585795269322e-11
-1.487696028763123073e-11
-1.029442429113943730e-11
-8.291982509756771630e-12
-5.705034506768175291e-12
-4.210707800196157199e-12
-2.816443651585732446e-12
-1.953304229163244636e-12
-1.331949780113481979e-12
-8.998921730514104280e-13
-6.057956959600486213e-13
-4.077702028064930594e-13
-2.771220380693086716e-13
-1.909080380407381945e-13
-1.339142765606146116e-13
-9.604609688447776445e-14
-7.048285408329643862e-14
-5.279575506846940349e-14
