# bin_3_5
-8.378148755606072497e-13
-9.110883564064514068e-13
-9.657785126108289746e-13
-9.912499749454933493e-13
-9.785728798201974971e-13
-9.157748501594045473e-13
-8.100326085856469713e-13
-6.787116750029845958e-13
-5.556128479330910491e-13
-4.675744065489346268e-13
-4.028895801418743621e-13
-3.180406736770555857e-13
-2.230496923184230846e-13
-1.748423563671175335e-13
-1.278899353491015621e-13
-9.231580337695685187e-14
-6.569322355881748086e-14
-4.764536233987437822e-14
-3.427473305962824314e-14
-2.489636844736120247e-14
-1.836987200256521719e-14
-1.378663025997026123e-14
-1.053377426914624345e-14
-8.170253104129377625e-15
-6.396180761889734831e-15
-5.021784946712437976e-15
-3.926287627850853953e-15
-3.036660253493636455e-15
-2.310111637612092483e-15
-1.720680241126047018e-15
-1.250615136319139009e-15
