# bin_12_9
-1.588463425271260873e-10
-1.795631368926661485e-10
-1.996210715500192297e-10
-2.173830264458329844e-10
-2.306803026513553390e-10
-2.369145159120671420e-10
-2.340163923265252249e-10
-2.189541072019855145e-10
-1.935952502942372108e-10
-1.620217646839143881e-10
-1.325910438128268759e-10
-1.117997283338791523e-10
-9.658038183220374221e-11
-7.592863670674814710e-11
-5.269971370302962244e-11
-4.159996231062544324e-11
-2.983866259370621606e-11
-2.144039030579517068e-11
-1.473711059947527501e-11
-1.043924514784131588e-11
-7.229808640725563625e-12
-4.997316214586006718e-12
-3.479065444555989797e-12
-2.445074685909195247e-12
-1.746527660039127676e-12
-1.271899024379253563e-12
-9.443657841360266262e-13
-7.140138202523603122e-13
-5.470441724679647498e-13
-4.219185635222718585e-13
-3.251505857364569609e-13
