# bin_7_5
-3.302892808003991947e-10
-3.634232358975645936e-10
-3.909123768684488849e-10
-4.086036404610288534e-10
-4.124433962043292197e-10
-3.977300905796473503e-10
-3.624222295063578766e-10
-3.123422452666910955e-10
-2.574897752135365073e-10
-2.123925637157050381e-10
-1.820907318795186080e-10
-1.530325185113203579e-10
-1.126489427442005709e-10
-8.134720971736280268e-11
-6.456725914000796111e-11
-4.437686327132814432e-11
-3.305466032593204456e-11
-2.325527267838244619e-11
-1.654924884733416625e-11
-1.186372331313795512e-11
-8.581054713335300925e-12
-6.298734764189550817e-12
-4.701313867093344540e-12
-3.574505002261008362e-12
-2.757952077240010312e-12
-2.147998497982956102e-12
-1.678037415197000080e-12
-1.305480368806936136e-12
-1.004897191967344077e-12
-7.610861017788661564e-13
-5.646999334673145488e-13
