# bin_3_4
-1.760916851758912586e-11
-1.893119301348741248e-11
-1.978214995040116043e-11
-1.996609281716348375e-11
-1.925795467301074636e-11
-1.755696166729200481e-11
-1.514045327002370046e-11
-1.248706941712341101e-11
-1.029494606952567229e-11
-8.814634249740589620e-12
-7.411897679574849427e-12
-5.480653707236804656e-12
-3.960355475298934625e-12
-3.145969073912962339e-12
-2.183806942651068962e-12
-1.633421880595612284e-12
-1.161804612782477125e-12
-8.391913480492337217e-13
-6.119996641892606582e-13
-4.518091763782926227e-13
-3.392128344328032802e-13
-2.590680341791253091e-13
-2.010987446110629868e-13
-1.577852568808605883e-13
-1.243211720517958855e-13
-9.769382463960684819e-14
-7.603729217206994287e-14
-5.826729281650204452e-14
-4.374202290297448863e-14
-3.204794556403936271e-14
-2.286660398412365731e-14
