# bin_10_1
-3.348351474901042292e-09
-3.281214400020322836e-09
-3.063164098413801003e-09
-2.713898530692878506e-09
-2.297641850576668249e-09
-1.903524104138869873e-09
-1.592310345492942612e-09
-1.335800211166596169e-09
-1.062727225694752154e-09
-7.904828097830077265e-10
-5.929787833900460891e-10
-4.473267299963141937e-10
-3.263954681449131250e-10
-2.407026275695909905e-10
-1.774553391655936532e-10
-1.324475587374414855e-10
-1.003478630509375578e-10
-7.738266233574678858e-11
-6.066832928529860687e-11
-4.816017698162596343e-11
-3.847781459511007438e-11
-3.071708005865885985e-11
-2.432868316263143478e-11
-1.899588463919352173e-11
-1.454348678119054662e-11
-1.087416081575694879e-11
-7.921593896996521134e-12
-5.618718401932279369e-12
-3.884333923693877484e-12
-2.623238959043651907e-12
-1.735750985508929328e-12
