# bin_6_9
-8.119024572868413963e-14
-9.119930437111612091e-14
-1.006132983674895773e-13
-1.085374651231538527e-13
-1.138260637093393476e-13
-1.153068422267988391e-13
-1.117050053633337526e-13
-1.021824775859642036e-13
-8.838720747825450368e-14
-7.288588444562578538e-14
-5.994466683685688199e-14
-5.141740587486995252e-14
-4.362995036571550752e-14
-3.220338438116150370e-14
-2.287134344678535471e-14
-1.846827673166917781e-14
-1.236313685950481519e-14
-9.316172996440703308e-15
-6.414101836070180834e-15
-4.460612967334192065e-15
-3.129353743668758543e-15
-2.199075267285560286e-15
-1.559555265031818022e-15
-1.120963216245712924e-15
-8.217707228936534324e-16
-6.139812991847816075e-16
-4.665581451973655744e-16
-3.590651841769388824e-16
-2.779858515115941790e-16
-2.149312557435800621e-16
-1.648023121382032079e-16
