# bin_8_11
-1.748125204748315246e-13
-1.980577319511377491e-13
-2.207866237340875987e-13
-2.412409652817846107e-13
-2.570677650110493300e-13
-2.653528665568209932e-13
-2.638488279361680671e-13
-2.489019742795299362e-13
-2.217709529272600290e-13
-1.867954031054800408e-13
-1.528196118910436862e-13
-1.280102821909717787e-13
-1.108726239377011610e-13
-8.910043406254012680e-14
-6.194761568666384629e-14
-4.793738512533649200e-14
-3.557132936698921358e-14
-2.484262901846972474e-14
-1.733867717064641636e-14
-1.232531899405308199e-14
-8.483993315006741829e-15
-5.822793394038296001e-15
-4.026045924611110465e-15
-2.807696298823127725e-15
-1.986040629492227303e-15
-1.431668032575670308e-15
-1.052570275413779054e-15
-7.892442262661627838e-16
-6.012425523085431799e-16
-4.625389362685123096e-16
-3.566845890520534816e-16
