# bin_6_8
-1.225971687952502975e-12
-1.371898966873860718e-12
-1.506550332299586444e-12
-1.615952880946502509e-12
-1.682481875139473423e-12
-1.690399620445351022e-12
-1.618158114686488335e-12
-1.462334667067871234e-12
-1.249389560604895027e-12
-1.025276880490499227e-12
-8.490597785169338577e-13
-7.328102027449152551e-13
-6.090803252723485619e-13
-4.360506925882583950e-13
-3.210259585675847695e-13
-2.526422996343642950e-13
-1.704425051263689546e-13
-1.260847571130351844e-13
-8.873480713824786426e-14
-6.181370164673490303e-14
-4.343311349533104351e-14
-3.072254927331674120e-14
-2.201595422570732656e-14
-1.602931905700935424e-14
-1.190417230938599475e-14
-8.999621423961430530e-15
-6.904044942235536318e-15
-5.345032006876659502e-15
-4.146289847852158749e-15
-3.199781145976344242e-15
-2.440834357976730998e-15
