# bin_14_12
-6.848181602048636260e-11
-7.808161174793125192e-11
-8.775158733851930924e-11
-9.683562572397496751e-11
-1.044663384896888626e-10
-1.095333666705780680e-10
-1.109125544952566032e-10
-1.073502927281882349e-10
-9.808207646438602836e-11
-8.473259238634139815e-11
-6.982519045809860259e-11
-5.747355182971562808e-11
-4.937141828728145296e-11
-4.182155848935067859e-11
-3.069897685047401035e-11
-2.184629787821740977e-11
-1.760934362606189255e-11
-1.167570937014652198e-11
-8.754514712682233703e-12
-5.965393832901749507e-12
-4.064475231938821668e-12
-2.781872211535606567e-12
-1.892050642022458705e-12
-1.288451182339991507e-12
-8.823739074140753006e-13
-6.132669729865783125e-13
-4.336985328438129777e-13
-3.131433449627033520e-13
-2.310799432164596986e-13
-1.738432897891132415e-13
-1.326182356739236344e-13
