# bin_14_6
-5.822163911187616012e-10
-6.474984492684311365e-10
-7.056902142645744966e-10
-7.498616942007678932e-10
-7.717048329236533747e-10
-7.642789391017883591e-10
-7.179898501102919955e-10
-6.373782844581242549e-10
-5.357012450584862030e-10
-4.386988225993489119e-10
-3.683923969080919246e-10
-3.178048519316730848e-10
-2.528575746948004901e-10
-1.773210823135584815e-10
-1.376630659374725567e-10
-1.013742008681538950e-10
-7.203181850969526306e-11
-5.100815112162040331e-11
-3.646808155584177923e-11
-2.571265871938427091e-11
-1.823063182987274982e-11
-1.307816226647940132e-11
-9.520175709049945059e-12
-7.056944272983679061e-12
-5.329072927578231197e-12
-4.085476769654549897e-12
-3.164897712196103079e-12
-2.460985751903773919e-12
-1.907191241470315057e-12
-1.463291707798611852e-12
-1.105424764880906180e-12
