# bin_12_3
-1.476401754345125090e-09
-1.576946732522808359e-09
-1.634829134447253309e-09
-1.634182357102659701e-09
-1.556777151479142447e-09
-1.402523225844582245e-09
-1.196857810534386495e-09
-9.853522232992866754e-10
-8.188261470470560659e-10
-7.012548945214434683e-10
-5.753532771793271545e-10
-4.197127366014070604e-10
-3.119242001622667687e-10
-2.405169228511417413e-10
-1.700613600233149534e-10
-1.252732467772481623e-10
-9.006979401278171392e-11
-6.532275778797811501e-11
-4.786730188422495658e-11
-3.558003445404551455e-11
-2.690697162766648752e-11
-2.069406672478407296e-11
-1.614819016882408878e-11
-1.270872857268156390e-11
-1.001969421923522332e-11
-7.859485606881525089e-12
-6.093069954963300950e-12
-4.642271498976051201e-12
-3.460269058931344545e-12
-2.515258434276730229e-12
-1.780480027603745774e-12
