# bin_3_9
-1.032104631968302091e-20
-1.152952066157484008e-20
-1.263426564280751878e-20
-1.351598647701522091e-20
-1.402517755537017223e-20
-1.403614008904591484e-20
-1.336235000910888081e-20
-1.201078622232883024e-20
-1.020596117970011990e-20
-8.362307774825406001e-21
-6.951345441068838326e-21
-6.010052221467794631e-21
-4.939138381470462399e-21
-3.495132589839004972e-21
-2.620862153459753678e-21
-2.026394798474224174e-21
-1.383380674828391498e-21
-1.008101670765124644e-21
-7.164185556952303198e-22
-5.005101863882928979e-22
-3.520613724315829773e-22
-2.499857914700652496e-22
-1.800100808179149218e-22
-1.318138048793266151e-22
-9.843296984421281471e-23
-7.477584966254097313e-23
-5.757469159812635129e-23
-4.466426456074600358e-23
-3.465845609900033637e-23
-2.671242064783937812e-23
-2.032349120220915955e-23
