# bin_8_1
-3.158666510985576369e-09
-3.093657778333489024e-09
-2.886259631313398746e-09
-2.555606890238087426e-09
-2.162691982713375163e-09
-1.791657461579324002e-09
-1.499032854777088207e-09
-1.257194656784010861e-09
-9.992559681317041827e-10
-7.429996052615423261e-10
-5.575944169973384890e-10
-4.204601329652256442e-10
-3.067928249431949775e-10
-2.262702140491977739e-10
-1.668435955840408009e-10
-1.245589746123996217e-10
-9.440201423704564355e-11
-7.282217736161037684e-11
-5.710996862530667162e-11
-4.534547816098318715e-11
-3.623312064403502347e-11
-2.892507370613414865e-11
-2.290683011439863326e-11
-1.788198219871558012e-11
-1.368674096544186507e-11
-1.023006846884704264e-11
-7.449629763721693963e-12
-5.282008309138923502e-12
-3.650306128724428981e-12
-2.464445888925092562e-12
-1.630265399424710070e-12
