# bin_13_13
-1.856234999657565438e-11
-2.119428341019669821e-11
-2.386235726386157054e-11
-2.639040472564174576e-11
-2.854708510880677073e-11
-3.003360899311737376e-11
-3.052745441874817870e-11
-2.971523514947187036e-11
-2.731384473443778118e-11
-2.374008850613697536e-11
-1.962131116926129960e-11
-1.610739626778231286e-11
-1.378242844785893607e-11
-1.177117192673264017e-11
-8.785015749358060621e-12
-6.161108070366406725e-12
-4.997259521137291290e-12
-3.331737887095874702e-12
-2.503706554423442503e-12
-1.689271092370468277e-12
-1.154080087934413524e-12
-7.899814967320831306e-13
-5.365014546507459659e-13
-3.636635784528085193e-13
-2.473166207795985705e-13
-1.704225690836982486e-13
-1.193465838862987140e-13
-8.527429909674798541e-14
-6.230768893411190863e-14
-4.649316487051351595e-14
-3.527352918933646822e-14
