# bin_1_9
-4.712335299109070644e-29
-5.248916926477134588e-29
-5.731543136003929225e-29
-6.104593439855925681e-29
-6.299552025813870156e-29
-6.262181638712464630e-29
-5.908142819667355257e-29
-5.265275613356409235e-29
-4.437535645476562917e-29
-3.631131074155200763e-29
-3.039169413736591646e-29
-2.629128774079953995e-29
-2.115434856050296462e-29
-1.478484637529851519e-29
-1.140816280425798071e-29
-8.523018007267492026e-30
-5.982329051645973651e-30
-4.246858792639980021e-30
-3.048416916817905743e-30
-2.142826248577668841e-30
-1.513554996713020184e-30
-1.082300797024792672e-30
-7.852484142232701175e-31
-5.800073462913876849e-31
-4.366344499323836326e-31
-3.339481419810721329e-31
-2.583592292589930839e-31
-2.008685652546002079e-31
-1.558136821336945830e-31
-1.197686781179931220e-31
-9.070776571012729671e-32
