# bin_5_6
-1.260885361446162247e-11
-1.393048017261802915e-11
-1.505966947218841783e-11
-1.584061089684888535e-11
-1.610520609111598810e-11
-1.569036716245417982e-11
-1.444928016648436593e-11
-1.258274068637604669e-11
-1.042050712883053685e-11
-8.551491463094969025e-12
-7.291369831096702151e-12
-6.225170489286995373e-12
-4.697081005143630976e-12
-3.309364694374740709e-12
-2.662292127431491325e-12
-1.833980313569189512e-12
-1.372003982920122778e-12
-9.529049232295428091e-13
-6.790471056895503647e-13
-4.850856390966190423e-13
-3.487050443173228652e-13
-2.540068775009304065e-13
-1.879704269107222368e-13
-1.417900470258340638e-13
-1.087141549613987273e-13
-8.432376442990011736e-14
-6.577814871781490932e-14
-5.123204724983139401e-14
-3.957136813992340976e-14
-3.013007719691603863e-14
-2.250893130369844189e-14
