# bin_12_7
-3.498634743070521282e-10
-3.917240149525164368e-10
-4.304619480926507870e-10
-4.621121491780747063e-10
-4.816664195921696921e-10
-4.845182045338851356e-10
-4.647325498399764233e-10
-4.209201671890056308e-10
-3.605016360458559819e-10
-2.962517576877489653e-10
-2.451232628030307758e-10
-2.111534456132486298e-10
-1.759536420351346963e-10
-1.269816894039901738e-10
-9.291952263034397346e-11
-7.321175563553968954e-11
-4.958536330769479166e-11
-3.667448511138253067e-11
-2.568283256781175504e-11
-1.791064498622500666e-11
-1.258407667360644011e-11
-8.893036791332461875e-12
-6.360145169669674949e-12
-4.619013337680438902e-12
-3.421376818022598139e-12
-2.580289433892043128e-12
-1.975362573786955028e-12
-1.527068065820809028e-12
-1.183699789357971827e-12
-9.134663257974956563e-13
-6.972505823436974738e-13
