# bin_5_2
-1.399161394002311474e-09
-1.446821279470877676e-09
-1.441968261806753990e-09
-1.370235556417669868e-09
-1.232660038778971953e-09
-1.052156018866805437e-09
-8.684951526084937484e-10
-7.226730423644635671e-10
-6.154641223853152063e-10
-5.022522459393496844e-10
-3.707563684613353698e-10
-2.758167147552593136e-10
-2.112931731663573862e-10
-1.518487607013573740e-10
-1.118177266975160583e-10
-8.125602859356457427e-11
-5.970880165916437716e-11
-4.438671976878889989e-11
-3.353756540029605777e-11
-2.579249019207622871e-11
-2.014979517725619497e-11
-1.592430357329491454e-11
-1.264564854148354381e-11
-1.001865074973683656e-11
-7.864858814177545500e-12
-6.079509636168530024e-12
-4.603556562687755318e-12
-3.401930448041487616e-12
-2.448002902954912632e-12
-1.714988902224255060e-12
-1.171372184784643866e-12
