# bin_5_5
-7.905837388895070670e-11
-8.667612840911145184e-11
-9.281573949196516355e-11
-9.646942929474346839e-11
-9.673414733095199811e-11
-9.241464734336732002e-11
-8.339220648400984887e-11
-7.117594607770412452e-11
-5.843791629752271982e-11
-4.845095966830600574e-11
-4.173368666545057198e-11
-3.452296352791119569e-11
-2.483184163141409970e-11
-1.838038201059094877e-11
-1.436803037736263537e-11
-9.882732482802980967e-12
-7.315227282143238302e-12
-5.208756998418892319e-12
-3.705520011816681115e-12
-2.665852407780356401e-12
-1.940037456061493522e-12
-1.434525593258235298e-12
-1.079320652313328582e-12
-8.265998429507192065e-13
-6.413715086511650485e-13
-5.013109816717045649e-13
-3.920850934632190398e-13
-3.046788867268328923e-13
-2.337702044490949148e-13
-1.761760534821081746e-13
-1.298831168450483674e-13
