# bin_15_6
-6.038974331126014226e-10
-6.716638360959069406e-10
-7.320978536594106569e-10
-7.780149184609212633e-10
-8.007913092396961401e-10
-7.932361425173749014e-10
-7.453786621847518032e-10
-6.618335782164968585e-10
-5.563726019602147870e-10
-4.556319336025842279e-10
-3.825405310850083508e-10
-3.300256315044570931e-10
-2.627338104751574587e-10
-1.842814789607031984e-10
-1.429777286059601926e-10
-1.053765937153555841e-10
-7.482440173888498299e-11
-5.300818544016361157e-11
-3.789229556099433526e-11
-2.671094013949229779e-11
-1.893429423091906466e-11
-1.357921586795487567e-11
-9.881812342897294137e-12
-7.322509111952848256e-12
-5.527894369009399966e-12
-4.236780494441063488e-12
-3.281492242568394172e-12
-2.551403368767744336e-12
-1.977248261026862907e-12
-1.517153330012726380e-12
-1.146272829219954526e-12
