# bin_13_10
-1.288316227048825295e-10
-1.461645972467403254e-10
-1.632245213616933293e-10
-1.787304078755280740e-10
-1.909689223115498217e-10
-1.978025393601879428e-10
-1.974904922921948120e-10
-1.873592175155436192e-10
-1.678310383532734804e-10
-1.421236834832297464e-10
-1.163880426647689391e-10
-9.706578867543707466e-11
-8.401131250855406297e-11
-6.842035867620519158e-11
-4.802462755088228840e-11
-3.644618497594381283e-11
-2.767322467627035653e-11
-1.897585857144991516e-11
-1.352033275704186164e-11
-9.531684748330222791e-12
-6.537312911155645111e-12
-4.478477375042732498e-12
-3.081571785333598614e-12
-2.137238562182280116e-12
-1.501015176938772457e-12
-1.073696897395585881e-12
-7.831911691932896306e-13
-5.830263401920189107e-13
-4.416426210587795035e-13
-3.385674799652438130e-13
-2.607885656938342330e-13
