# bin_4_1
-2.342950446410703882e-09
-2.287249357361916277e-09
-2.125821579402560131e-09
-1.875318250780742231e-09
-1.582815114106979092e-09
-1.310980652621915169e-09
-1.098199413910052202e-09
-9.194299925459571374e-10
-7.266071647392235801e-10
-5.390665848079190125e-10
-4.055989174490001914e-10
-3.050675528000379685e-10
-2.225996105352739576e-10
-1.642795515422062735e-10
-1.212603638438709583e-10
-9.066933263236317452e-11
-6.885470705579334184e-11
-5.322429737763978679e-11
-4.181632659742168112e-11
-3.324661968969122787e-11
-2.658370117747324275e-11
-2.122144468462652114e-11
-1.679455608354720076e-11
-1.309381807156177182e-11
-1.000433291051018241e-11
-7.462018177006607992e-12
-5.421605580474358265e-12
-3.835382171699667096e-12
-2.644981234714144364e-12
-1.782396912455712711e-12
-1.177232233636860453e-12
