# bin_12_12
-2.099943922435482213e-11
-2.392242671835258677e-11
-2.685512231217760444e-11
-2.959506538489725358e-11
-3.187372337782971737e-11
-3.334911367686557618e-11
-3.368814256874054997e-11
-3.249118803744495724e-11
-2.957478527289857183e-11
-2.545272493114694254e-11
-2.093793202096216488e-11
-1.726559644286183666e-11
-1.486663903696468328e-11
-1.252290307882799845e-11
-9.097740136220854893e-12
-6.540306372645012712e-12
-5.242631429802177520e-12
-3.471255028803077017e-12
-2.594056056280370918e-12
-1.779309228654549959e-12
-1.211311777342183947e-12
-8.288325584974176900e-13
-5.642798252580463175e-13
-3.854395807454120332e-13
-2.651499829592163409e-13
-1.852860438935407510e-13
-1.318317704807843691e-13
-9.579247276347412234e-14
-7.110328081998498701e-14
-5.374284983776752801e-14
-4.112220684446052196e-14
