# bin_13_7
-3.907455443905130345e-10
-4.375449626087997387e-10
-4.808776669138371727e-10
-5.163193638423127520e-10
-5.382791516020745846e-10
-5.415962938863152586e-10
-5.196586773894726381e-10
-4.708344051065382724e-10
-4.033944611824261012e-10
-3.315460742302959782e-10
-2.742711464992866337e-10
-2.362228043540047929e-10
-1.969645182287385178e-10
-1.422665518383023367e-10
-1.040000062974392911e-10
-8.200158555278714026e-11
-5.552766046942190953e-11
-4.108853351632910147e-11
-2.875807865683447016e-11
-2.005484675754816774e-11
-1.408931852568058380e-11
-9.954568216873945529e-12
-7.117159382687535885e-12
-5.166871886698579171e-12
-3.825757926266948339e-12
-2.884290259801926039e-12
-2.207499990257494245e-12
-1.706239513757052330e-12
-1.322511575409733179e-12
-1.020643089116886617e-12
-7.791732923694770419e-13
