# bin_8_12
-1.329428350670879470e-14
-1.509504365292394546e-14
-1.687371789696588434e-14
-1.849916295148583301e-14
-1.979569809398312096e-14
-2.054274345175365354e-14
-2.055761973524889489e-14
-1.956118043662710805e-14
-1.757011031910792157e-14
-1.491642251568042315e-14
-1.221759876521189099e-14
-1.016519211068663107e-14
-8.800324655223015846e-15
-7.220256308143355294e-15
-5.081596079240718514e-15
-3.822267314127919964e-15
-2.938174358759384269e-15
-1.993148751188995890e-15
-1.433903591764776936e-15
-1.008981361234299331e-15
-6.905991938082177055e-16
-4.722229009145067063e-16
-3.240721888863398742e-16
-2.241483354889396945e-16
-1.568631152161272348e-16
-1.117748240179679233e-16
-8.121432316711585679e-17
-6.024599261909785564e-17
-4.551668099844286165e-17
-3.484362745308722743e-17
-2.683537543036790132e-17
