# bin_15_4
-1.122073987291810699e-09
-1.221240433512264991e-09
-1.295960557575312511e-09
-1.332212744372934044e-09
-1.317448148316508436e-09
-1.236638726657773747e-09
-1.097251371054915856e-09
-9.229787702999024501e-10
-7.569054853500269285e-10
-6.353636298998604864e-10
-5.458649440319646113e-10
-4.340454920696725685e-10
-3.080084815731042292e-10
-2.374542035944435449e-10
-1.762984331682266371e-10
-1.258616163708521793e-10
-9.071321907931295257e-11
-6.533727266733150649e-11
-4.690879207737007691e-11
-3.403167547291183713e-11
-2.504956941099283969e-11
-1.874996954939867208e-11
-1.428446913595387658e-11
-1.105161893031801999e-11
-8.635159573872719523e-12
-6.771178688489776010e-12
-5.291629918744639779e-12
-4.093862308607241396e-12
-3.117495976383309823e-12
-2.325879956616676439e-12
-1.694330316905371374e-12
