# bin_2_1
-1.257774057605459760e-09
-1.215515449382022415e-09
-1.116497222834490338e-09
-9.737484953405029940e-10
-8.154103675356060029e-10
-6.753524024235660817e-10
-5.679521447326607366e-10
-4.724266561958793927e-10
-3.663825350383292251e-10
-2.703833174723410901e-10
-2.051835629849527618e-10
-1.528432449813885572e-10
-1.117297544730183721e-10
-8.255856186507722037e-11
-6.118284175658803116e-11
-4.597501141950108183e-11
-3.513711918966650312e-11
-2.733693111288019911e-11
-2.159766898252252045e-11
-1.724042366336871600e-11
-1.381175064021810575e-11
-1.102279007113487598e-11
-8.703195629504027730e-12
-6.757371295509051325e-12
-5.133952220128745916e-12
-3.803786427595125537e-12
-2.743848414080403037e-12
-1.927206532171505901e-12
-1.320241325126471588e-12
-8.844937430507054692e-13
-5.813196960062285378e-13
