# bin_3_1
-1.912636897331040510e-09
-1.861791830839019762e-09
-1.724560373519547506e-09
-1.516315095268794366e-09
-1.276784094148271720e-09
-1.057316794473462024e-09
-8.866883717483545265e-10
-7.411816517208729853e-10
-5.826873252149881251e-10
-4.314217825661862619e-10
-3.253884253134617110e-10
-2.441578222510914081e-10
-1.781649250102390498e-10
-1.315634609123661694e-10
-9.720564130564449363e-11
-7.278667030848368902e-11
-5.537563119173661298e-11
-4.288527713696440496e-11
-3.374877512464453480e-11
-2.686481403900860822e-11
-2.149409327604944665e-11
-1.715818273137041745e-11
-1.357059384094638868e-11
-1.056815789306425058e-11
-8.061814231711692167e-12
-6.001723907736069583e-12
-4.351627577733763990e-12
-3.072088883595523991e-12
-2.114500053897351884e-12
-1.422480636243898954e-12
-9.381579690017467970e-13
