# bin_11_2
-2.150606543286201397e-09
-2.228740724867568510e-09
-2.227326017261481325e-09
-2.123946268081285108e-09
-1.917732924456081035e-09
-1.642278418862696794e-09
-1.357211496952047657e-09
-1.127470515306588657e-09
-9.597071452904578418e-10
-7.875868724797371174e-10
-5.846016106871624722e-10
-4.327788165685121542e-10
-3.324719587742703627e-10
-2.391889705736226032e-10
-1.759878589606968649e-10
-1.277907029653036548e-10
-9.380429777654125598e-11
-6.960200969973354852e-11
-5.247657509323072842e-11
-4.027094759231238170e-11
-3.140084443660071842e-11
-2.478163356895490687e-11
-1.966557934662726872e-11
-1.558027250242013826e-11
-1.223913183872068233e-11
-9.472984481313892687e-12
-7.186052297167363386e-12
-5.321844635040307082e-12
-3.838625040006704340e-12
-2.695573708820222539e-12
-1.845177008609418100e-12
