# bin_5_14
-1.390239455056108865e-24
-1.581109467781546131e-24
-1.771097232261098306e-24
-1.946650455295678900e-24
-2.089680388169939224e-24
-2.177330508204078778e-24
-2.189115447288892891e-24
-2.096789244132118825e-24
-1.895323836655615525e-24
-1.619510156026916681e-24
-1.328698343527819339e-24
-1.100300501966585183e-24
-9.507926886574486929e-25
-7.909476125035708280e-25
-5.643146164035630317e-25
-4.150141026925832713e-25
-3.265900032980599002e-25
-2.179439082279323785e-25
-1.603130199985271072e-25
-1.114450239570496284e-25
-7.601274684241798104e-26
-5.196150853960879326e-26
-3.548668600771847154e-26
-2.439172940979746357e-26
-1.692825464077090884e-26
-1.195075837149887708e-26
-8.598410949972951490e-27
-6.318519721501772894e-27
-4.736653235700857954e-27
-3.606850893920896564e-27
-2.771463510038206452e-27
