# bin_14_8
-3.128519119126505314e-10
-3.522540146177151674e-10
-3.897285788329714983e-10
-4.219117364776296089e-10
-4.444395045554042089e-10
-4.525260708772711612e-10
-4.416718863147344180e-10
-4.074687164112907941e-10
-3.554341646977984306e-10
-2.946347602657307921e-10
-2.417278166516127501e-10
-2.060320894183235329e-10
-1.762668969557723728e-10
-1.333264088260178947e-10
-9.349476820064380303e-11
-7.518313275380460403e-11
-5.148267638450722383e-11
-3.827054024224840724e-11
-2.617798342022706311e-11
-1.834585829635961707e-11
-1.281684398852117711e-11
-8.955842037018753650e-12
-6.307210005765724873e-12
-4.494266582409670302e-12
-3.263059980775449372e-12
-2.415384268921913813e-12
-1.820463470004907592e-12
-1.392650218091174728e-12
-1.074660124557949570e-12
-8.305779160424692193e-13
-6.383064237947407866e-13
