# bin_13_5
-7.492572524443703136e-10
-8.257096761752456361e-10
-8.898840791449407227e-10
-9.324241105858304846e-10
-9.438590622484903547e-10
-9.138735124264582170e-10
-8.364057304299022182e-10
-7.239732119631091420e-10
-5.982167719137070719e-10
-4.925917965390662945e-10
-4.212043116386514854e-10
-3.559418091397870787e-10
-2.649765865572886708e-10
-1.897964416012112969e-10
-1.509200343851349969e-10
-1.042940854240481265e-10
-7.749377400309452425e-11
-5.436607225981957867e-11
-3.872755464819713438e-11
-2.770594095797468827e-11
-1.998122212642818748e-11
-1.461774432453143404e-11
-1.087066405706025710e-11
-8.236490556025022518e-12
-6.337128672871741147e-12
-4.926123336631760376e-12
-3.845109279985937717e-12
-2.992168801061188590e-12
-2.306062050523372221e-12
-1.750151178840981914e-12
-1.302115257693822552e-12
