# bin_2_8
-7.081916293628733527e-22
-7.853621796598589802e-22
-8.529467338236560914e-22
-9.023603400613908948e-22
-9.235724420920487613e-22
-9.082958210907709574e-22
-8.454921913739084570e-22
-7.439795825519679688e-22
-6.203106924400000441e-22
-5.077148617902841762e-22
-4.295109760132531984e-22
-3.700851937315174961e-22
-2.874299024164152289e-22
-2.000348955807085067e-22
-1.595652801833462626e-22
-1.130784543290648156e-22
-8.294593350502459903e-23
-5.747517044054655729e-23
-4.123675364441305625e-23
-2.928160658563456157e-23
-2.089229251570954821e-23
-1.509869071922663477e-23
-1.107617374126989311e-23
-8.281264904441281343e-24
-6.302132262879862976e-24
-4.861610041373832368e-24
-3.781662765626545289e-24
-2.945266597470073443e-24
-2.280587556957577768e-24
-1.744526155140600243e-24
-1.311589153447455533e-24
