# bin_15_14
-2.839093698924666463e-11
-3.249198425721468453e-11
-3.668883220307772837e-11
-4.071823834514816751e-11
-4.423623626932309177e-11
-4.679098339140371265e-11
-4.785445637679398629e-11
-4.699910138848184999e-11
-4.364625797965477300e-11
-3.831594414010219870e-11
-3.186897585835330019e-11
-2.609097955215855255e-11
-2.215056098410373074e-11
-1.909257368096808449e-11
-1.466893575497787020e-11
-1.014977892813092808e-11
-8.174001769549698786e-12
-5.626501651859061012e-12
-4.151343855540846069e-12
-2.776766308500154398e-12
-1.926207622786601572e-12
-1.313384928528518454e-12
-8.872676954938401109e-13
-5.972592834430766453e-13
-4.019759723814829989e-13
-2.731431662891335346e-13
-1.881323845066439368e-13
-1.319382592613078226e-13
-9.460715617464925538e-14
-6.941186772138741304e-14
-5.198423100698183401e-14
