# bin_5_11
1.673145588129117580e-07
1.843615334167597912e-07
1.986562627255011891e-07
2.081080381721616488e-07
2.106071287100356538e-07
2.038435896542891179e-07
1.864897728232848610e-07
1.613576200994620292e-07
1.332987741235490285e-07
1.097775190489387389e-07
9.389262718841649956e-08
7.930942125052408023e-08
5.897882328442827187e-08
4.227196442528100675e-08
3.361363553031294051e-08
2.321290078763814535e-08
1.725471399447174631e-08
1.210710509586752236e-08
8.623524129745355766e-09
6.170553255220440408e-09
4.451331129586702972e-09
3.257473386714825238e-09
2.423264717641732992e-09
1.836652427324006746e-09
1.413486959176235177e-09
1.098967038735278096e-09
8.578785883255071263e-10
6.675713053977401028e-10
5.144436588144829907e-10
3.903591715064117094e-10
2.903571938974826358e-10
