# bin_12_13
1.523004496519272870e-08
1.736055262068463927e-08
1.950419456166599499e-08
2.151473170493561128e-08
2.319870770696094582e-08
2.430888729887166440e-08
2.459741461271260628e-08
2.378299481681588730e-08
2.170509181647328299e-08
1.872983881625004373e-08
1.542589072821138376e-08
1.270340661377995574e-08
1.092084689883298198e-08
9.236313413566173748e-09
6.758558832048275216e-09
4.822935915844257338e-09
3.883061032762503521e-09
2.571880718776262298e-09
1.927616486209853352e-09
1.315989674906660135e-09
8.961747835770861160e-10
6.133665862178506846e-10
4.172900052177990695e-10
2.844226802822665253e-10
1.950386378873981859e-10
1.357767709994038344e-10
9.619699317008066789e-11
6.959173128570798944e-11
5.144735749296323630e-11
3.876162615733641399e-11
2.959901241924668833e-11
