# bin_3_1
1.481911893634151481e-10
1.536683790220788196e-10
1.537203177481919813e-10
1.465693057105499528e-10
1.321339458837082320e-10
1.127835937353513477e-10
9.275245918394264143e-11
7.696342233545678651e-11
6.600496398569030631e-11
5.436764857707173772e-11
3.958704330402169882e-11
2.940182773299696006e-11
2.285801836825488479e-11
1.613870620160623110e-11
1.200107171883834420e-11
8.699918579633355606e-12
6.374830759169830071e-12
4.736184127641909538e-12
3.576377742954280790e-12
2.749669855368298222e-12
2.148297677604607890e-12
1.698958497479409224e-12
1.350607865642264283e-12
1.071537724520923480e-12
8.425549105165319506e-13
6.523881963566921614e-13
4.947637509247621239e-13
3.660402550504655996e-13
2.635429716417685451e-13
1.846214333645996087e-13
1.260367017699782945e-13
