# bin_10_8
4.163308855797872916e-10
4.701440927768021094e-10
5.219968581141982186e-10
5.675526050067033607e-10
6.010875206386329137e-10
6.158181718914391142e-10
6.063687633583205136e-10
5.650266834768104707e-10
4.976504624000300278e-10
4.150385534724497198e-10
3.396194469054153187e-10
2.873492006415018798e-10
2.480467575015443120e-10
1.927842193936130330e-10
1.334668972092255562e-10
1.066580589283482654e-10
7.503329519362086130e-11
5.483059806039801000e-11
3.727785615285206488e-11
2.638409530581462648e-11
1.833617718951384261e-11
1.272286820282742174e-11
8.890121211255910243e-12
6.272751237316370965e-12
4.503268906405202620e-12
3.296566912588748839e-12
2.459906951631256333e-12
1.867770342016296305e-12
1.435264087202837003e-12
1.108600400026205197e-12
8.542794924767229446e-13
