# bin_2_5
3.072814102743568987e-07
3.180425832213081699e-07
3.173430592455249807e-07
3.019777959314181845e-07
2.720273510026702257e-07
2.324410147137915225e-07
1.918874270349236615e-07
1.595505466451609528e-07
1.359258070761193143e-07
1.112012549750060193e-07
8.216297844121425317e-08
6.100916518578592054e-08
4.683007588839565441e-08
3.362763790240275170e-08
2.477244785254311027e-08
1.799092125130916980e-08
1.321453586328056637e-08
9.817078352911912814e-09
7.411951722252765643e-09
5.696131379630762499e-09
4.447247308622477238e-09
3.513253485589637249e-09
2.789512558911951485e-09
2.210265494490102244e-09
1.735709781485791586e-09
1.342435703535439466e-09
1.017241713594326473e-09
7.523191597052996647e-10
5.418060859501151059e-10
3.798642382072700561e-10
2.596313625581715096e-10
