# bin_6_3
5.145550725721740162e-12
5.641328662489141023e-12
6.040823964961470154e-12
6.278204067935916723e-12
6.295427310695596803e-12
6.012875328476135495e-12
5.423386748657994896e-12
4.625860182716283199e-12
3.795268201285479480e-12
3.146319911861163543e-12
2.713242661854487496e-12
2.245335827777569317e-12
1.608966828200371023e-12
1.192659981924907969e-12
9.340365834677911513e-13
6.400009370967553434e-13
4.743608365813289799e-13
3.385099458807702104e-13
2.405749288629438301e-13
1.730294524874430790e-13
1.259295824841803938e-13
9.315475522464253949e-14
7.012488156800396596e-14
5.373423773077789344e-14
4.171359517933921156e-14
3.261790009807163282e-14
2.551886771106361335e-14
1.983343336964132181e-14
1.521819388337104618e-14
1.146797036741322253e-14
8.452797461094625833e-15
