# bin_11_7
2.011107838577601328e-12
2.275803284899212015e-12
2.533223909318437001e-12
2.762894156243459629e-12
2.937508930616961323e-12
3.023650127798386764e-12
2.995862906947762775e-12
2.813250085332176510e-12
2.495817260848443633e-12
2.094019963436035214e-12
1.712780839427312831e-12
1.440067464452342834e-12
1.246535749141744809e-12
9.897175107642995419e-13
6.856123290460461995e-13
5.378959535178566148e-13
3.911969580787267977e-13
2.780017309913912172e-13
1.914292295609074973e-13
1.362404027512277456e-13
9.410200282653188206e-14
6.481439508214692708e-14
4.499631479225135223e-14
3.151651358164488304e-14
2.241863999007857150e-14
1.625664751663020951e-14
1.202170459990745206e-14
9.059908839331440720e-15
6.927102092039634293e-15
5.339181368862116921e-15
4.117535237401742560e-15
