# bin_9_4
2.727999561391778849e-15
3.050412958057673050e-15
3.346717363042098666e-15
3.585622828501592196e-15
3.727764460818850674e-15
3.738960286575116465e-15
3.570497019006367845e-15
3.218736656796085735e-15
2.743164260261149060e-15
2.249166095022976495e-15
1.865522924935291570e-15
1.611848721908061639e-15
1.333402391374443297e-15
9.489075624465281639e-16
7.043519665419739258e-16
5.504527592104281308e-16
3.727876509138439035e-16
2.741429754635847214e-16
1.938698419696147805e-16
1.351852873699980344e-16
9.500677643583527001e-17
6.730364670187647546e-17
4.833349227403417175e-17
3.528091409826599101e-17
2.626736339793842202e-17
1.990256052375696751e-17
1.529474184972295617e-17
1.185309680271719710e-17
9.197109346594976951e-18
7.094219693173347313e-18
5.405655621341091285e-18
