# bin_4_13
-1.360635266094884296e-21
-1.543258527092928769e-21
-1.722727950226045297e-21
-1.885499076785676897e-21
-2.013417662003484224e-21
-2.083813802070908438e-21
-2.078720507979059889e-21
-1.969396221002704390e-21
-1.761752085633077811e-21
-1.489596566216139249e-21
-1.219195278577022088e-21
-1.017782113405826338e-21
-8.815792268856523155e-22
-7.160615580447760522e-22
-5.004085887150228737e-22
-3.819438002871488187e-22
-2.885815012097745779e-22
-1.984781801806159821e-22
-1.405523623276816037e-22
-9.953659681318665650e-23
-6.831054734273262192e-23
-4.676900678455486216e-23
-3.221396912895950291e-23
-2.237280185315179758e-23
-1.574126024679476331e-23
-1.128231730796223080e-23
-8.247210063153331421e-24
-6.152196826783279617e-24
-4.668585534523973133e-24
-3.583705128299363904e-24
-2.762514437390905524e-24
