# bin_6_4
-1.884773261217278515e-09
-2.080515387079947909e-09
-2.246740581009147668e-09
-2.360055903029849831e-09
-2.395723846664166356e-09
-2.328728530169717556e-09
-2.138905274889758903e-09
-1.857796503258952912e-09
-1.535930431752973295e-09
-1.261259960248304186e-09
-1.077565166897908531e-09
-9.179433352006079502e-10
-6.874195448910183648e-10
-4.858958265569644924e-10
-3.917973430372790184e-10
-2.678277088982531494e-10
-2.014323973334071692e-10
-1.400395163163614489e-10
-9.958470958660607002e-11
-7.124768671376803217e-11
-5.131191113910996839e-11
-3.745033195105558257e-11
-2.777562293702911817e-11
-2.099786266234430776e-11
-1.612959625619396206e-11
-1.252812627184827155e-11
-9.780058481541247106e-12
-7.617943944189415674e-12
-5.881024961561746917e-12
-4.473284195047972696e-12
-3.336964801597597061e-12
