# bin_15_9
-1.292668071458194253e-12
-1.476936887536806696e-12
-1.664278385332540954e-12
-1.842485530403382060e-12
-1.995576004056803087e-12
-2.102810565689875746e-12
-2.141183874935067721e-12
-2.089687472889931638e-12
-1.926330427849171290e-12
-1.679066246480388387e-12
-1.389874005878330246e-12
-1.139744820652886492e-12
-9.732778357498076316e-13
-8.341124286932978753e-13
-6.274672989455306201e-13
-4.375076330757908897e-13
-3.552360705918756700e-13
-2.380153788416200651e-13
-1.786648578552557262e-13
-1.200214064430880136e-13
-8.217932814265782474e-14
-5.623962907893547253e-14
-3.816871474187961973e-14
-2.581643684239817034e-14
-1.750075822399443224e-14
-1.200960696510634759e-14
-8.369937865037009481e-15
-5.949124223570435686e-15
-4.324732975096740207e-15
-3.212985333852603612e-15
-2.430092937486286713e-15
