# bin_5_5
-2.075812706345225761e-08
-2.289612841906843871e-08
-2.470173245975399469e-08
-2.591631281300717265e-08
-2.627194641323534778e-08
-2.548671801846010168e-08
-2.335973269622262470e-08
-2.024703561949209822e-08
-1.672142601927549016e-08
-1.374322652968769296e-08
-1.175716286243759402e-08
-9.988080788236192140e-09
-7.438886152709276816e-09
-5.281969939698573991e-09
-4.252785909951195034e-09
-2.901052738158963788e-09
-2.182655324151515917e-09
-1.521348680345794622e-09
-1.081091072814511861e-09
-7.740054412634642593e-10
-5.580958226066610297e-10
-4.079557589471935590e-10
-3.030915458428712373e-10
-2.295072113770085959e-10
-1.765304957634977526e-10
-1.372371528365735003e-10
-1.071735963209447963e-10
-8.346725633445007545e-11
-6.439613327337541409e-11
-4.893200795667145403e-11
-3.645349928092877070e-11
