# bin_6_13
-9.974842068655546934e-16
-1.133167872156626420e-15
-1.267507387171614203e-15
-1.390702507456257307e-15
-1.489633255888558838e-15
-1.547790158500312135e-15
-1.551187540351583391e-15
-1.478997544756145168e-15
-1.331034567185167804e-15
-1.132199858928751900e-15
-9.277477269687709622e-16
-7.707363840444556815e-16
-6.669782579117418683e-16
-5.496832669605425911e-16
-3.883209615721384421e-16
-2.900762971745120444e-16
-2.246971820565637796e-16
-1.515441843290935996e-16
-1.098147269741029838e-16
-7.700332233741908285e-17
-5.264164748478611746e-17
-3.598269324371278417e-17
-2.465205029716475475e-17
-1.701656440080471516e-17
-1.187752774614562725e-17
-8.438764314828898347e-18
-6.113004958598962304e-18
-4.521831199886865895e-18
-3.408470769377666746e-18
-2.605358921920765892e-18
-2.005455062462424259e-18
