# bin_13_8
-6.989767052833847599e-12
-7.955406140153503839e-12
-8.920054460473375485e-12
-9.815925250650879508e-12
-1.055276362058674105e-11
-1.101616436040522475e-11
-1.109968705633014448e-11
-1.066453104270491343e-11
-9.669422022869718074e-12
-8.288262924776427922e-12
-6.806910945800106626e-12
-5.625423546022246464e-12
-4.854626954565466014e-12
-4.062604768916728393e-12
-2.920166086616673523e-12
-2.125197489615209914e-12
-1.688574892491535111e-12
-1.120620146161109920e-12
-8.315910229573825710e-13
-5.746230713817648683e-13
-3.914028687022710813e-13
-2.676348593705240357e-13
-1.824386764389808375e-13
-1.250276321744443290e-13
-8.642481956142631981e-14
-6.073140012777443634e-14
-4.347879083491083552e-14
-3.179355140216137222e-14
-2.373334781802604616e-14
-1.801735542489055088e-14
-1.382262229704529402e-14
