# bin_14_14
-1.327213620095408507e-08
-1.521011465577304854e-08
-1.720319503709738077e-08
-1.913080891007958422e-08
-2.083481168917569862e-08
-2.210548664126247021e-08
-2.268963006536503411e-08
-2.239531107582127042e-08
-2.092264152350299180e-08
-1.847162950926232935e-08
-1.542901614649003087e-08
-1.262086428826044503e-08
-1.066249339650163472e-08
-9.220973804454849252e-09
-7.205855845472075875e-09
-4.970588283248679980e-09
-3.961061738553001235e-09
-2.796531036575444285e-09
-2.024581456664050013e-09
-1.357956845883300516e-09
-9.520813746537638141e-10
-6.467341064048603754e-10
-4.346823294123272390e-10
-2.914775476751971582e-10
-1.951242061058684995e-10
-1.315378913145015099e-10
-8.972127662574255377e-11
-6.220894617920715127e-11
-4.406882016959903176e-11
-3.195901928115457480e-11
-2.370407931982777667e-11
