# bin_11_15
-2.826952472760913492e-10
-3.234674677696982165e-10
-3.651647437254900914e-10
-4.051568458749974238e-10
-4.400111290475264247e-10
-4.652239676798867770e-10
-4.755509339955839523e-10
-4.667188109096358272e-10
-4.330340597764660143e-10
-3.798326316495117250e-10
-3.156962849267663403e-10
-2.584745032496105469e-10
-2.196128006466419999e-10
-1.892410233931162289e-10
-1.450008843405980633e-10
-1.003319364431084246e-10
-8.098729002209128879e-11
-5.547571754617411197e-11
-4.109592222894323432e-11
-2.745588456822590267e-11
-1.900482219653491522e-11
-1.296876311535969540e-11
-8.770567454766026070e-12
-5.906649766711123935e-12
-3.978219036752362250e-12
-2.706035927387582237e-12
-1.866235579225676598e-12
-1.310818202757898956e-12
-9.414809943302959886e-13
-6.918559289047701121e-13
-5.188617775005868708e-13
