# bin_8_15
-2.412290546262296860e-14
-2.754152927789294405e-14
-3.100627743719192012e-14
-3.428806122583974504e-14
-3.708598904444569735e-14
-3.901166330619447301e-14
-3.964670141238069312e-14
-3.858206605902336034e-14
-3.545216047338206177e-14
-3.080342160045480160e-14
-2.545210481827880123e-14
-2.089397850525953113e-14
-1.788393699768334253e-14
-1.527313175783654445e-14
-1.138582080245459982e-14
-7.984443106060824117e-15
-6.484149579831582474e-15
-4.312387052061931327e-15
-3.246476057148701079e-15
-2.190855240042163763e-15
-1.494903399703358395e-15
-1.023589385746260884e-15
-6.952832811826790346e-16
-4.713395520537530855e-16
-3.206275726195160646e-16
-2.210109127073022668e-16
-1.548361647187816065e-16
-1.106861572998089627e-16
-8.091732512630024724e-17
-6.041008600030407756e-17
-4.585271143653486368e-17
