# bin_6_2
-3.529974455976314390e-13
-3.861375203467496807e-13
-4.123261866012791105e-13
-4.270199340148358420e-13
-4.263987807433698319e-13
-4.049169068719477186e-13
-3.631829599625226150e-13
-3.080767467371497513e-13
-2.524175210060145881e-13
-2.100972154768542611e-13
-1.814059744186079027e-13
-1.483121929013784816e-13
-1.051984571439649720e-13
-7.938401711367691483e-14
-6.106595676310416233e-14
-4.236309730929451984e-14
-3.099366436097499306e-14
-2.229074090157654920e-14
-1.588680339575293410e-14
-1.144892703042314360e-14
-8.363683235097175500e-15
-6.213230903593357688e-15
-4.698467441594635452e-15
-3.614081157063728302e-15
-2.813529230119853537e-15
-2.203539327485014828e-15
-1.724318311690351911e-15
-1.338733298160726387e-15
-1.024983574460289856e-15
-7.700154204074984988e-16
-5.653884329472645983e-16
