# bin_14_15
-1.165845205123228925e-08
-1.337288976754837742e-08
-1.514129610543767671e-08
-1.685964406937308937e-08
-1.839047185358985493e-08
-1.955058011733519199e-08
-2.011542096148309942e-08
-1.991760456622314487e-08
-1.868143824031830611e-08
-1.655371900622210911e-08
-1.386994968282599503e-08
-1.134338240277238238e-08
-9.551748500446733119e-09
-8.270363551588006307e-09
-6.535728926799715677e-09
-4.510334916291811427e-09
-3.558748695281505710e-09
-2.559357646376362669e-09
-1.824062961247646401e-09
-1.233268077749802330e-09
-8.689858170525564434e-10
-5.888277668124079296e-10
-3.943115246396071019e-10
-2.637583039510251487e-10
-1.760097396243177010e-10
-1.180635909320132911e-10
-8.003025160772654902e-11
-5.507335849870537858e-11
-3.869010952559927493e-11
-2.782538048284315430e-11
-2.048654161225650859e-11
