# bin_1_15
-2.641507310792823417e-39
-3.007917784146591059e-39
-3.374814133832088701e-39
-3.716661523409436609e-39
-3.999528666396240663e-39
-4.180297994141018865e-39
-4.217858496192322571e-39
-4.060851480969049311e-39
-3.689687657727991539e-39
-3.169517337940847939e-39
-2.605275558627457683e-39
-2.150459856234484226e-39
-1.853638588467860402e-39
-1.556830332294738659e-39
-1.125399322503758324e-39
-8.135367044455983420e-40
-6.496658167769040343e-40
-4.304428021680587556e-40
-3.207441539770009042e-40
-2.207443465712362643e-40
-1.502965114890439299e-40
-1.028047495133792406e-40
-7.002393272671271564e-41
-4.789948737536311121e-41
-3.302270300278436701e-41
-2.313382524743506882e-41
-1.650586483460655582e-41
-1.202826011772387614e-41
-8.951405013270127583e-42
-6.779625678293658110e-42
-5.194042039808679293e-42
