# bin_3_8
-1.504995380233481217e-14
-1.673913653142031478e-14
-1.824549507684534017e-14
-1.938967632592008064e-14
-1.995355240159183033e-14
-1.976587054058066095e-14
-1.856391579562432157e-14
-1.647354808304236513e-14
-1.382981020975378601e-14
-1.131356690428627683e-14
-9.503302185981384011e-15
-8.216701456975820580e-15
-6.535674306883052763e-15
-4.550308061720911042e-15
-3.557813841819294904e-15
-2.609804867924315893e-15
-1.860409279919411866e-15
-1.305686153155682671e-15
-9.393168660155192005e-16
-6.625500077865897024e-16
-4.694100936965069991e-16
-3.369031216838909927e-16
-2.453750035988094016e-16
-1.820237286015505443e-16
-1.375658637521558486e-16
-1.055522323482431192e-16
-8.183771970104387249e-17
-6.368386073753851610e-17
-4.938280133221988007e-17
-3.790446867403284878e-17
-2.864086059802373119e-17
