# bin_12_4
-1.438958516414052790e-19
-1.627797507571500387e-19
-1.811171441796685833e-19
-1.974378089931887432e-19
-2.097836832796458226e-19
-2.157684647110233540e-19
-2.135712261209324971e-19
-2.002976711086972816e-19
-1.774877785218741691e-19
-1.487586832004105333e-19
-1.216752041969891861e-19
-1.024088965026535599e-19
-8.862111571614010101e-20
-7.012026700382219486e-20
-4.854479653848049044e-20
-3.822047146814349278e-20
-2.764012170162527893e-20
-1.973865064374560649e-20
-1.354956225522813602e-20
-9.639886363215012019e-21
-6.664880018605017330e-21
-4.595758302587387471e-21
-3.193901121705450774e-21
-2.239747076307786061e-21
-1.595592016181632557e-21
-1.158828754247007427e-21
-8.582666957587778967e-22
-6.476667699367021095e-22
-4.956609842560337633e-22
-3.822183293606323845e-22
-2.947617144870164667e-22
