# bin_6_12
-3.777910071909375853e-14
-4.282594885878946401e-14
-4.777287904127128438e-14
-5.224192951965616369e-14
-5.572668588163127271e-14
-5.759698501498818884e-14
-5.736226686401558613e-14
-5.422621992455808744e-14
-4.840898073002346806e-14
-4.084877939157977090e-14
-3.342412183291879377e-14
-2.795090137054516324e-14
-2.421256071080028973e-14
-1.956158981893016425e-14
-1.362875641846758490e-14
-1.047837441490589669e-14
-7.844978520305793448e-15
-5.436881785671157907e-15
-3.819915421271721080e-15
-2.712113684567652882e-15
-1.864019461243021503e-15
-1.277502595526103642e-15
-8.816438385984949870e-16
-6.136036495828105010e-16
-4.329079640792316802e-16
-3.111987974458892969e-16
-2.281639023372723735e-16
-1.706666121668450222e-16
-1.297797442212156659e-16
-9.974415193783083497e-17
-7.691123577512863733e-17
