# bin_2_13
-7.646976098221482122e-30
-8.664598606786318768e-30
-9.660048184241215457e-30
-1.055647565399864854e-29
-1.125102431434989226e-29
-1.161621454259967972e-29
-1.155353881696146341e-29
-1.090308303892754643e-29
-9.717821783804822358e-30
-8.187971138002680245e-30
-6.698949538439401015e-30
-5.609765315498254626e-30
-4.858782126116324978e-30
-3.908149032952901474e-30
-2.718446887272654674e-30
-2.101157654148277643e-30
-1.561516980344725202e-30
-1.089149452533861888e-30
-7.610755384384022906e-31
-5.408249969447321408e-31
-3.721654757477046808e-31
-2.553707710672052751e-31
-1.765070459715106343e-31
-1.230451389311747479e-31
-8.699365840051182958e-32
-6.267683068295543060e-32
-4.605649459481281411e-32
-3.451866675687044231e-32
-2.628742390495742340e-32
-2.021956925040034117e-32
-1.559219586056282528e-32
