# bin_8_2
-8.209792879960503973e-18
-9.108754434683412792e-18
-9.898438993063172304e-18
-1.047958567213915103e-17
-1.073532620730333808e-17
-1.057032281868982525e-17
-9.853541305349099874e-18
-8.682387421831745223e-18
-7.246642311040711201e-18
-5.930228862126080265e-18
-5.011138849228953021e-18
-4.321157397719454822e-18
-3.369166744523786729e-18
-2.343468235670134414e-18
-1.864508715484695661e-18
-1.328189253201813888e-18
-9.702287780192079387e-19
-6.730566546193857288e-19
-4.833091792935736067e-19
-3.428453434619226538e-19
-2.443464324945326589e-19
-1.763999379493105370e-19
-1.292639026909993112e-19
-9.653228345361311057e-20
-7.338774795153902529e-20
-5.657119718067774926e-20
-4.398720153679534511e-20
-3.425801196157810281e-20
-2.653586285479852239e-20
-2.031168134982004115e-20
-1.528465393367009887e-20
