# bin_15_13
-5.811639218816362283e-09
-6.660808935757453205e-09
-7.534370913799528855e-09
-8.379611910571568368e-09
-9.127352108724645500e-09
-9.685804820922761495e-09
-9.943976081813226778e-09
-9.817930332608372873e-09
-9.175714158163091047e-09
-8.103605297061105917e-09
-6.770708569992462027e-09
-5.538250486578429734e-09
-4.677440028236820125e-09
-4.045628219345763569e-09
-3.164846680036566327e-09
-2.183041708526609668e-09
-1.738182328178967596e-09
-1.229272285510165897e-09
-8.886892952962030600e-10
-5.964106595978723021e-10
-4.183918167591568499e-10
-2.841375222269018635e-10
-1.909063791403732996e-10
-1.279835208756092424e-10
-8.565000631803281197e-11
-5.771149949043101627e-11
-3.934161063056308525e-11
-2.725866871060405344e-11
-1.929522479676969835e-11
-1.398244471868877817e-11
-1.036399706982005101e-11
