# bin_4_13
2.570869444986648792e-07
2.798451954894903824e-07
2.970167499526119593e-07
3.053870857466474968e-07
3.020815441073465020e-07
2.836454591130277792e-07
2.517544732315967948e-07
2.118251412868886178e-07
1.737117809805423962e-07
1.457828177018227279e-07
1.252576712912833214e-07
9.967594771272149207e-08
7.074671226561888379e-08
5.450418696153698124e-08
4.050653488809978166e-08
2.890128062413795940e-08
2.084090975087568780e-08
1.501025843814548330e-08
1.077668253782366320e-08
7.818652959598019624e-09
5.755164288311978821e-09
4.307911047739930177e-09
3.281957962721654294e-09
2.539220940057915770e-09
1.984052023825267679e-09
1.555811119059634871e-09
1.215891969482181125e-09
9.407049121863148960e-10
7.163770736081812067e-10
5.344882299886264281e-10
3.893698605372329913e-10
