# bin_15_1
2.862110430246244998e-41
3.259363838657409350e-41
3.657286165461674199e-41
4.028218827088206635e-41
4.335424996121473145e-41
4.532209284962516519e-41
4.573853077390675587e-41
4.404971193309764761e-41
4.003565619517856769e-41
3.440259903914320750e-41
2.828155354434964870e-41
2.333990219646717209e-41
2.011510553298292012e-41
1.690320602897864605e-41
1.222906939103893783e-41
8.831514452111223468e-42
7.058036192593949280e-42
4.675304574880848837e-42
3.486129043836909704e-42
2.398024012472267545e-42
1.632827052994262676e-42
1.117125648299427315e-42
7.610081320883674979e-43
5.205990770836691483e-43
3.588976452478628952e-43
2.514295947740093880e-43
1.793928876457420872e-43
1.307246599293570775e-43
9.728256533980127587e-44
7.367804391590149888e-44
5.644534401851148208e-44
