# bin_6_6
1.577567346861081708e-08
1.747621427495051691e-08
1.895556770380220911e-08
2.002148933380057502e-08
2.045487490943951551e-08
2.006430984337878038e-08
1.862381067345786137e-08
1.634285297760741245e-08
1.360461519676606774e-08
1.114491824430488906e-08
9.446812446384007175e-09
8.116335110295307250e-09
6.257677591370876981e-09
4.374416065509302572e-09
3.491310989287853408e-09
2.460164518527604225e-09
1.810776378331349054e-09
1.258131114812923365e-09
9.008208175726802964e-10
6.406125686890260515e-10
4.580051731205098519e-10
3.317447484749060617e-10
2.439908211853827343e-10
1.828924756806477014e-10
1.394856513704039348e-10
1.077717198547519222e-10
8.389751684304301881e-11
6.533956910295156534e-11
5.055476662627058531e-11
3.861802346168961246e-11
2.897970436981834788e-11
