# bin_12_5
2.988865217533744159e-18
3.383669985837049729e-18
3.768344484094913291e-18
4.112591832564284456e-18
4.375947752315997153e-18
4.508649325310862219e-18
4.472774906420214621e-18
4.206802333643639657e-18
3.737658551903023905e-18
3.140064659963430131e-18
2.568441634678533330e-18
2.156687250947107938e-18
1.867418938207968069e-18
1.489001311235383137e-18
1.032440924013290703e-18
8.063679812251853002e-19
5.905673788567921956e-19
4.171746857367863061e-19
2.884666792631079762e-19
2.053467515913683019e-19
1.416816307906348234e-19
9.747290364777496185e-20
6.759318855406439239e-20
4.728786215810872265e-20
3.358480663624272838e-20
2.431403653220657513e-20
1.795149655186485702e-20
1.351033303447582230e-20
1.031997240094716923e-20
7.950687539382652823e-21
6.131897570633149557e-21
