# bin_5_4
3.605374776101902392e-09
3.939358219935122015e-09
4.200601295792770964e-09
4.342835465366921427e-09
4.327099359932023663e-09
4.097942835618242162e-09
3.666250134477654998e-09
3.103203350253429144e-09
2.542386126574817006e-09
2.120438911361468227e-09
1.829893213098271164e-09
1.486437915341023411e-09
1.052818339708070113e-09
7.998021166419644563e-10
6.095345983506651187e-10
4.261605774651005187e-10
3.102214234399228159e-10
2.233762303709088369e-10
1.595165925604914884e-10
1.151558339826946759e-10
8.429657373581103197e-11
6.275081240201054674e-11
4.754955518448250051e-11
3.663614688906137426e-11
2.855219747435636989e-11
2.237188294787842297e-11
1.750236944311560877e-11
1.357705572128442814e-11
1.038080707415135833e-11
7.784464514043148561e-12
5.703642342364405083e-12
