# bin_15_14
2.424119263730276140e-09
2.777042785460131268e-09
3.139532596938496001e-09
3.489423448680525737e-09
3.797700376056013038e-09
4.025980184689508333e-09
4.128276055871638303e-09
4.069272315346897654e-09
3.795486420636252714e-09
3.345710186224750412e-09
2.791250791834689759e-09
2.283632635447242241e-09
1.931879975254540581e-09
1.669445468006144767e-09
1.298598854221811858e-09
8.961861852644900163e-10
7.165616023802664427e-10
5.022546464202311748e-10
3.656921889395488101e-10
2.448952479127728212e-10
1.712478860793944344e-10
1.164615083596947548e-10
7.840309616793039429e-11
5.264049098273710671e-11
3.529834662433296427e-11
2.385559549163372007e-11
1.632260962775285530e-11
1.135889979041777649e-11
8.078511868347801345e-12
5.881143763695114296e-12
4.376354506731337533e-12
