# bin_6_9
8.689332904089546365e-08
9.658491979667082820e-08
1.051960989329702988e-07
1.116889478173998782e-07
1.148253410005889166e-07
1.135740149604443918e-07
1.065174444980178217e-07
9.440386165353363209e-08
7.922979771564153418e-08
6.487530555761801336e-08
5.454760610311493221e-08
4.704683143069554777e-08
3.727703019685974106e-08
2.610327506818877990e-08
2.035812516567864809e-08
1.490048877945965258e-08
1.063860130990176930e-08
7.508093440800132936e-09
5.374025320706346212e-09
3.793804043726310184e-09
2.692896196332178702e-09
1.934725443155707635e-09
1.410706034188830708e-09
1.047612303483540221e-09
7.924219887602270880e-10
6.083185048773698367e-10
4.716699500425219125e-10
3.668993504874499293e-10
2.842931066970655976e-10
2.179899746239924704e-10
1.645143419593324357e-10
