# bin_6_13
1.452432826083914890e-07
1.615536027512468393e-07
1.761054558951549905e-07
1.871716790380692642e-07
1.926773117122125811e-07
1.908930331966183184e-07
1.794157912596593855e-07
1.593395827739844439e-07
1.339731220503409652e-07
1.097147230005165456e-07
9.209838077028273332e-08
7.945942945953381483e-08
6.329320971323444516e-08
4.439928656164853333e-08
3.442998048794463005e-08
2.539668410835222720e-08
1.802325475667130723e-08
1.277472524546821443e-08
9.132529965241432770e-09
6.437990027066491582e-09
4.564143220824651292e-09
3.273705939707023347e-09
2.382681465724681456e-09
1.765831136247157871e-09
1.333235858085820934e-09
1.021959358792989111e-09
7.916033456146009311e-10
6.155200097343300635e-10
4.770224896323685729e-10
3.660252308608879909e-10
2.765438260369762472e-10
