# bin_5_13
1.916960132914618325e-07
2.112991967876166975e-07
2.277786806175232506e-07
2.387428084381662269e-07
2.417596128357072542e-07
2.342005406990010948e-07
2.144681467991579688e-07
1.857410704797373437e-07
1.535216937902986949e-07
1.263863542730159421e-07
1.080335482401570029e-07
9.135912255832553602e-08
6.810776975600890668e-08
4.873459606619877099e-08
3.876265470691545676e-08
2.680654342591759002e-08
1.991381350505910672e-08
1.396728154799202884e-08
9.952261894160911692e-09
7.119479620827146150e-09
5.133820585692513934e-09
3.755178854886629334e-09
2.792070744460029075e-09
2.115115184615300205e-09
1.627137816955862886e-09
1.264735576041713579e-09
9.871759314154232419e-10
7.682327917148315022e-10
5.921402813004243833e-10
4.494663141437367240e-10
3.344687283314027509e-10
