# bin_9_13
6.091693086670373863e-08
6.888755365797296430e-08
7.661771101727175827e-08
8.348198621211214591e-08
8.865069412553484147e-08
9.112421303404960710e-08
9.011081258923035511e-08
8.443115192814225665e-08
7.475143861292519635e-08
6.263294959042867285e-08
5.125523219950922641e-08
4.316819377058578041e-08
3.730570521171547350e-08
2.944016855526401947e-08
2.044655872661489124e-08
1.608068024194915534e-08
1.160339985972391902e-08
8.297047676555742776e-09
5.720705039603684552e-09
4.053374824896983672e-09
2.804650679673474132e-09
1.936862409452451156e-09
1.347121276059077585e-09
9.457340385222670709e-10
6.746119856416245230e-10
4.905846725883439814e-10
3.637491764701465577e-10
2.747012715148961586e-10
2.102926270963755138e-10
1.621305635336567438e-10
1.249527712512033225e-10
