# bin_9_7
3.905391832387593019e-10
4.394932804191366871e-10
4.859370767529598899e-10
5.256458173533323678e-10
5.531569238477808674e-10
5.625305029085377167e-10
5.480977736010567558e-10
5.045195237065085021e-10
4.391415344355682514e-10
3.633434876481295744e-10
2.981203550059987963e-10
2.546186094290753474e-10
2.176880514213700362e-10
1.634888152719547970e-10
1.146355059140250522e-10
9.279250344828373538e-11
6.274593681172338211e-11
4.713108777325344852e-11
3.216871917123843353e-11
2.246207021556837474e-11
1.573089408327594542e-11
1.102113070255745132e-11
7.778756603226363779e-12
5.556892336353746886e-12
4.046904709216673314e-12
3.004701554122522363e-12
2.270962380678626820e-12
1.741176161169633329e-12
1.345579665730235223e-12
1.040592406374443918e-12
7.995074790575224992e-13
