# bin_10_15
6.057833656354898232e-08
6.875635584721544420e-08
7.682095895293177571e-08
8.417179084017555395e-08
9.000611344388902391e-08
9.332011712773944273e-08
9.328345155605892900e-08
8.864323433761237424e-08
7.952920236241874489e-08
6.745314890835855228e-08
5.525754802979773803e-08
4.602776045536660970e-08
3.982525295971334503e-08
3.255432937108634240e-08
2.291793597870495636e-08
1.729722671327653713e-08
1.321507336444635431e-08
9.020775746961853949e-09
6.462057350509633729e-09
4.545069063045952659e-09
3.114722486036344790e-09
2.133308190134666193e-09
1.466377711378456776e-09
1.015702039590423698e-09
7.121014767187467993e-10
5.084041074824866926e-10
3.701141929469121290e-10
2.750106009316762709e-10
2.080109193301531486e-10
1.593098880953988470e-10
1.226672318151676873e-10
