# bin_7_14
1.202612651204318616e-07
1.346969574044718456e-07
1.480797315363971566e-07
1.590506988181953687e-07
1.658907977750505963e-07
1.670009941997724881e-07
1.603569630523201756e-07
1.454018141463846385e-07
1.246706928779684562e-07
1.024951277636434963e-07
8.475090405481520598e-08
7.296836864150526659e-08
6.092409938869081848e-08
4.408548920359075577e-08
3.215709506929450995e-08
2.539774188309064716e-08
1.718970726067786994e-08
1.273459223859878212e-08
8.903286082178829389e-09
6.209288954169770159e-09
4.362276153425647706e-09
3.081355163356267701e-09
2.202225350592399789e-09
1.597970770403592103e-09
1.182614117546768071e-09
8.911906551371586664e-10
6.818309942089403988e-10
5.268933679710497721e-10
4.083731249302582008e-10
3.151907171183250262e-10
2.406757250288890991e-10
