# bin_1_6
6.282959226001154432e-07
6.149931980887014327e-07
5.733653825534035584e-07
5.073366383221067468e-07
4.291333509517063749e-07
3.554973694685840912e-07
2.974948576231236941e-07
2.494143118794099635e-07
1.980402060605847972e-07
1.472039854247031645e-07
1.105234784460156043e-07
8.330846351076317597e-08
6.079382275166914513e-08
4.484844382635054466e-08
3.308207165190633885e-08
2.471032818359162150e-08
1.873922538994172095e-08
1.446465241722587995e-08
1.135011929053961544e-08
9.015859082966686124e-09
7.205827360952377241e-09
5.752688985374084823e-09
4.555089259641657341e-09
3.554749605732650155e-09
2.719531803181317374e-09
2.031563493198036171e-09
1.478504468719160525e-09
1.047666622407551773e-09
7.236147410771310890e-10
4.882931768589414523e-10
3.228766828018657950e-10
