# bin_14_2
4.999235606051947480e-34
5.679690627191853119e-34
6.353661872054200440e-34
6.972047728827738262e-34
7.469144238417327291e-34
7.762261445893780778e-34
7.780988632975739633e-34
7.421378683995392361e-34
6.681084374706252678e-34
5.685112372056739082e-34
4.659078900977048441e-34
3.869705203807084073e-34
3.348168674858838417e-34
2.761077532960643127e-34
1.952436939286906556e-34
1.456686780439845031e-34
1.129576400107082465e-34
7.614543965432533368e-35
5.523722078722560811e-35
3.870558677219271604e-35
2.646028479992401121e-35
1.809204282570629289e-35
1.239591468270408970e-35
8.556653901964787699e-36
5.972116844050706578e-36
4.242919755808126001e-36
3.073297922112443584e-36
2.273083882267809312e-36
1.713210269185203598e-36
1.309388326066680393e-36
1.007786048677366994e-36
