# bin_1_4
5.155074127050152449e-07
5.034281874233297987e-07
4.680881397222415720e-07
4.130922413212887338e-07
3.487559437506586582e-07
2.888618010394572586e-07
2.419420906432220160e-07
2.025972093264867201e-07
1.602117581478256205e-07
1.188891595172060545e-07
8.943042939259970011e-08
6.728890502542290052e-08
4.910265982681222620e-08
3.624110838048638075e-08
2.675276204222267499e-08
2.000513673834704602e-08
1.519280353081273029e-08
1.174456146036427722e-08
9.227756950726177981e-09
7.337045833674754674e-09
5.866964767257242512e-09
4.683793696333138490e-09
3.706937365888097677e-09
2.890249645338744929e-09
2.208399795546280376e-09
1.647267926560120124e-09
1.196884350196340053e-09
8.467350254113373561e-10
5.839475327470955518e-10
3.935190812842617367e-10
2.599148618397045071e-10
