# bin_13_9
7.400417057436717212e-12
8.426450840863605949e-12
9.453562379443505316e-12
1.041017424298577486e-11
1.120115898178945497e-11
1.170569827649447455e-11
1.180884149869717524e-11
1.136640166985014301e-11
1.032444728032980473e-11
8.866335616103449017e-12
7.286740223925911869e-12
6.015330073148155482e-12
5.186213845932902948e-12
4.354131138342614718e-12
3.144664717923935909e-12
2.274975955447474008e-12
1.816322528630957688e-12
1.203001843465567885e-12
8.964344530248281390e-13
6.173204848882317598e-13
4.203171319340418444e-13
2.875406707739045040e-13
1.959024639366458249e-13
1.340816824448541214e-13
9.250301557805244767e-14
6.486029058729973598e-14
4.632185255965238317e-14
3.378854500348676252e-14
2.516742753368713199e-14
1.907445084260605367e-14
1.461972272118906695e-14
