# bin_15_8
5.443026371726927435e-16
6.213010286221918824e-16
6.992626471585665676e-16
7.730089339161043340e-16
8.357325638087779331e-16
8.786604283953240793e-16
8.924261124389359517e-16
8.676953449983123589e-16
7.965299224918881059e-16
6.914135812755225826e-16
5.710022407286434056e-16
4.689165526963217079e-16
4.016369893429671731e-16
3.425939429121869638e-16
2.547040604294342185e-16
1.789802560027668307e-16
1.452893925286123806e-16
9.647325758725565618e-17
7.265132583386463373e-17
4.910621086691263015e-17
3.348662700234484218e-17
2.293337196886362291e-17
1.558393309785418937e-17
1.057540163482886267e-17
7.204052555534511324e-18
4.974950120689653223e-18
3.492686919399026114e-18
2.502396622134097393e-18
1.833344823120267084e-18
1.371215987695629710e-18
1.042116698237190081e-18
