# bin_6_6
5.558907951679745698e-08
5.125069869699182374e-08
4.601456514545557720e-08
4.020068219258647489e-08
3.420286405732238720e-08
2.842318236550941169e-08
2.318156176162307923e-08
1.863732617815260639e-08
1.478509990844568789e-08
1.152731162964299133e-08
8.797867303553246454e-09
6.611190840605078706e-09
4.962104905636382605e-09
3.732131467660433114e-09
2.801153551757253275e-09
2.118002978458105524e-09
1.613418763678227189e-09
1.239339977014370261e-09
9.584294278249760515e-10
7.443318438592434910e-10
5.783723728827039104e-10
4.478477177887959202e-10
3.442086734702308228e-10
2.616409085609346137e-10
1.960909912801917436e-10
1.445579571842508557e-10
1.046432017824050607e-10
7.430507893588354658e-11
5.173830910521033008e-11
3.533722830995488310e-11
2.369634076627441546e-11
