# bin_4_1
1.967458552104981202e-08
1.668507475494450522e-08
1.383480727332310687e-08
1.126964136922674792e-08
9.054259438491044415e-09
7.175676223090043083e-09
5.588425242254938395e-09
4.270791937527341929e-09
3.229272724040615242e-09
2.444872978933533505e-09
1.857127214154703799e-09
1.415819174802634213e-09
1.089662321924291284e-09
8.469730181830451897e-10
6.642318196960991490e-10
5.241726459674757755e-10
4.145777646882255462e-10
3.271355714751773439e-10
2.563616235945212734e-10
1.986839904498657905e-10
1.517386095719043286e-10
1.138694118344579983e-10
8.378945524863114814e-11
6.037938814637155913e-11
4.259087712569559419e-11
2.942031927337158953e-11
1.992417127869802951e-11
1.325169658630651107e-11
8.674465440948348442e-12
5.601183634601991151e-12
3.575640814857277301e-12
