# bin_9_3
4.321608497231606347e-08
3.885364252281538026e-08
3.397532544154707789e-08
2.891684875427907882e-08
2.403136131156645950e-08
1.960284316512192936e-08
1.577279815613945299e-08
1.252931136109091545e-08
9.776373378138950723e-09
7.459412963606193910e-09
5.609380430722782119e-09
4.224432742144928406e-09
3.186872007841857489e-09
2.402182915612647112e-09
1.827693192456561052e-09
1.401930259470450611e-09
1.085358550116404802e-09
8.462857986044050508e-10
6.625499232473801914e-10
5.186770068440734529e-10
4.042511096828674908e-10
3.123624540256299611e-10
2.383839141285337658e-10
1.791210304518545547e-10
1.321957654911448454e-10
9.566565777635347675e-11
6.782129359177132536e-11
4.709672637069097600e-11
3.205550679192955537e-11
2.141310021743561650e-11
1.406447879708888645e-11
