# bin_14_6
6.908159187570332651e-08
6.477711175177428919e-08
5.918119006809077505e-08
5.259896986985103555e-08
4.546428793671699903e-08
3.828273903516864809e-08
3.153711541128096362e-08
2.555597586617132845e-08
2.044599592921383905e-08
1.611971795257700511e-08
1.244151536586067543e-08
9.388683307207059764e-09
7.021528144527383075e-09
5.270185218357375002e-09
3.940159680246837302e-09
2.950267094124917329e-09
2.227945621247149178e-09
1.694164001095189719e-09
1.298791151209446803e-09
1.002056570318030653e-09
7.757183306363010249e-10
6.002910050316892190e-10
4.625366056941940209e-10
3.534942210227463416e-10
2.670315987211018974e-10
1.988175060284305462e-10
1.455789301871143735e-10
1.046703023649636591e-10
7.383299000128493381e-11
5.108488425633166687e-11
3.468464972112359081e-11
