# bin_10_3
4.396661166105714693e-08
3.956804922898762787e-08
3.463222614655224551e-08
2.949939157606708812e-08
2.453064856617651221e-08
2.001948735980678646e-08
1.611491494835025864e-08
1.280773335845172930e-08
9.999472379285002717e-09
7.632472466630394422e-09
5.739193755234221761e-09
4.321347535270850006e-09
3.259512342857048881e-09
2.455920620447091747e-09
1.867715221488113685e-09
1.431947492371895934e-09
1.108134990303332380e-09
8.637837434787578026e-10
6.761516030255662016e-10
5.293406551760608191e-10
4.126436763723497808e-10
3.189580785090931079e-10
2.435318192508736253e-10
1.830919328021238013e-10
1.352105498914633943e-10
9.791126815273328709e-11
6.945868656411227437e-11
4.826403890213460921e-11
3.286900308762587076e-11
2.196775420540807330e-11
1.443508336124025304e-11
