# bin_15_4
5.571618135640261434e-08
5.116489073173069971e-08
4.571227792051128023e-08
3.970819043930853104e-08
3.357980331065237776e-08
2.775608406262088854e-08
2.255161604363232054e-08
1.809109361704232579e-08
1.431575341883379057e-08
1.109993901267723826e-08
8.409068037847832127e-09
6.302766111010865975e-09
4.743137432408667379e-09
3.561893640808048414e-09
2.677352534074431511e-09
2.031862066686410802e-09
1.553598194556594604e-09
1.198555820044627466e-09
9.309303880924744514e-10
7.256577840469770007e-10
5.654167465761260424e-10
4.385186177661500100e-10
3.371485112589680131e-10
2.560239040765033918e-10
1.914547545457699034e-10
1.406607848293517248e-10
1.013689722722989743e-10
7.159627918272822434e-11
4.955360115874870065e-11
3.362990037985914582e-11
2.240719891735220579e-11
