# bin_3_3
7.613379207205829311e-06
8.147888420163877454e-06
8.465795423016619982e-06
8.487254235958051164e-06
8.110281312944278321e-06
7.323267325940047959e-06
6.256482784528665832e-06
5.141091875007752958e-06
4.260570829612652449e-06
3.662485656857598135e-06
3.030933221588460239e-06
2.195651257138268074e-06
1.623781575778819261e-06
1.270279577633374251e-06
8.839304046199999381e-07
6.573926151263317303e-07
4.721001266744435580e-07
3.412222211492901831e-07
2.498018304642034840e-07
1.854746220831665289e-07
1.401270389252301027e-07
1.076882172136200128e-07
8.401515682938108339e-08
6.613758334439849012e-08
5.218157165616538435e-08
4.097835471102034563e-08
3.181416646130650728e-08
2.427839101459988305e-08
1.812643778389411874e-08
1.319475210956302390e-08
9.349740011097307049e-09
