# bin_10_9
3.079654164169956832e-06
3.492190697452679632e-06
3.897162228155367363e-06
4.263846336726288504e-06
4.551072234437949285e-06
4.707503590034608846e-06
4.692763146751078645e-06
4.441874689350046284e-06
3.970050712388618974e-06
3.353940217889287472e-06
2.744764752601749995e-06
2.292976075831157471e-06
1.986218486210395435e-06
1.609698000328797192e-06
1.123459202946828404e-06
8.601199612224587174e-07
6.474005179181735600e-07
4.466765261941230882e-07
3.152775834591205195e-07
2.235228286886335184e-07
1.534978405426479430e-07
1.051390716781233333e-07
7.248038073535631172e-08
5.038493456278654038e-08
3.549248804110417412e-08
2.547217440449336492e-08
1.864410063582515960e-08
1.392439890933628756e-08
1.057602518601308685e-08
8.122601110242019228e-09
6.261997623703487607e-09
