# bin_8_7
2.853208179290123371e-06
3.207386845140192866e-06
3.541713364359032803e-06
3.824976507563219548e-06
4.017062043844158646e-06
4.075793253381562076e-06
3.957890096350926078e-06
3.629634047010134637e-06
3.147618026469055615e-06
2.598863088714138293e-06
2.135094836673855800e-06
1.828393475701051566e-06
1.556695039207659828e-06
1.156945229371124678e-06
8.168420716675526967e-07
6.610499569406909214e-07
4.436214662384439788e-07
3.343526669932906646e-07
2.292732982143285981e-07
1.596020406401684316e-07
1.119096835512215688e-07
7.854845179333770677e-08
5.559175979422081195e-08
3.985282549041090069e-08
2.913542198173575085e-08
2.171191655473337082e-08
1.646244439961569006e-08
1.265066835412136412e-08
9.787561232038508822e-09
7.568816677666999560e-09
5.808850506547220998e-09
