# bin_13_1
1.974516554559562707e-32
2.237361435027118052e-32
2.494525553709938824e-32
2.726170016739554829e-32
2.905746017363999821e-32
3.000346595804732141e-32
2.984488554106127237e-32
2.816925955261224097e-32
2.511058221159708429e-32
2.116102892342430252e-32
1.731342686739219884e-32
1.449651011480156590e-32
1.255536624731137723e-32
1.010263865874223813e-32
7.029783699497450552e-33
5.430083188283666375e-33
4.038211662921602308e-33
2.815126087319008978e-33
1.968625105485852568e-33
1.398425278116137508e-33
9.622430127750233092e-34
6.602738320621699462e-34
4.563184138285666903e-34
3.180639574690106613e-34
2.248349129163959303e-34
1.619615804399861513e-34
1.189898677346930714e-34
8.916405099584543928e-35
6.789118726957265710e-35
5.221357847761353945e-35
4.026103073613925988e-35
