# bin_12_6
1.194859319568377349e-11
1.354744350106564156e-11
1.511603886295099683e-11
1.653504683801113552e-11
1.764455744032802816e-11
1.824532192039340365e-11
1.818134525433247958e-11
1.720055908436854406e-11
1.536613369377325758e-11
1.297536961395037442e-11
1.061790017717041522e-11
8.873764633695413263e-12
7.686855175853491525e-12
6.222008767053267939e-12
4.339287842136507423e-12
3.327866535073462903e-12
2.499539748884870392e-12
1.727601851658522258e-12
1.217098750096372013e-12
8.634598916896637178e-13
5.931563789315912655e-13
4.063721428065355241e-13
2.802709228857637199e-13
1.949269821064605622e-13
1.373993081416747976e-13
9.867629547903158815e-14
7.227552794102607731e-14
5.401342745545210311e-14
4.104495707462062339e-14
3.153255073159552389e-14
2.431140220955205103e-14
