# bin_14_8
1.546856965657058301e-10
1.763686521094809000e-10
1.982108617747778992e-10
2.187294229961781543e-10
2.359644462172133633e-10
2.474085992582880260e-10
2.505177466014707426e-10
2.424626528731119500e-10
2.214867109011837346e-10
1.913089492104306027e-10
1.576055897854144981e-10
1.297054148471513757e-10
1.114611940261404711e-10
9.444621113687882124e-11
6.925823544206501405e-11
4.925334700531339894e-11
3.979175597713923989e-11
2.629184162503010779e-11
1.976942753877556693e-11
1.347270251102120985e-11
9.167348312060585689e-12
6.275965654870369046e-12
4.267671208230751649e-12
2.906320011653707483e-12
1.990556282826841746e-12
1.383814107697943195e-12
9.789209607366843695e-13
7.070786614612331981e-13
5.220134839429102175e-13
3.929081125063233170e-13
2.998829861376321563e-13
