# bin_15_5
1.678357009811093230e-19
1.913054248700999105e-19
2.149152226537237793e-19
2.370529950559189039e-19
2.555853351208438652e-19
2.677875862576486955e-19
2.709332661839178213e-19
2.619057065289924515e-19
2.389482354037437687e-19
2.061287593415307273e-19
1.697197582797546028e-19
1.397651294524373807e-19
1.201976975326679358e-19
1.016512296598542467e-19
7.428782804498959458e-20
5.302153752436079981e-20
4.273943265286612092e-20
2.824166786604027446e-20
2.120205115174206176e-20
1.448139697648114434e-20
9.853661543413479377e-21
6.744556781407001082e-21
4.587676974597319945e-21
3.127439962569596446e-21
2.145254708995654675e-21
1.494060825123459496e-21
1.059062667281650882e-21
7.665929088100427292e-22
5.670565457596357963e-22
4.274737186136017004e-22
3.265834423130248320e-22
