# bin_13_6
3.264756627140557113e-13
3.709527413629640201e-13
4.150273705536803466e-13
4.554960057847600239e-13
4.880719423830302898e-13
5.073576757239948211e-13
5.087373217505137406e-13
4.854242072721971967e-13
4.371660333065623239e-13
3.721332923157537711e-13
3.049873943403168645e-13
2.532338997553870843e-13
2.191008371368528671e-13
1.808533958408773661e-13
1.279574011592465549e-13
9.534083493378896859e-14
7.405150704589181030e-14
4.984791062592727144e-14
3.621506051554319022e-14
2.536000262689210558e-14
1.733031535691057181e-14
1.184597487573437211e-14
8.111629504895720992e-15
5.595682836068199436e-15
3.902340562329652310e-15
2.769950468331462441e-15
2.004509380401672609e-15
1.481302588150939184e-15
1.115681844883965148e-15
8.523353545499658085e-16
6.559172321893305243e-16
