# bin_6_4
4.750407331579047914e-07
5.245292879528530449e-07
5.666406755633770290e-07
5.954874310373956499e-07
6.047953720544064711e-07
5.883235611388024058e-07
5.408110673998356453e-07
4.701171213256188564e-07
3.888489445940997229e-07
3.192212032406328939e-07
2.725748451108451774e-07
2.324068363310744065e-07
1.744320685043760569e-07
1.231187332709004758e-07
9.927630796721778739e-08
6.796851423676999671e-08
5.107765438232306911e-08
3.548413809369237195e-08
2.524551025065125263e-08
1.805551819679672153e-08
1.299685090981016946e-08
9.480253079446202045e-09
7.026120732651861092e-09
5.308063135436803452e-09
4.075084130510934521e-09
3.163827814735449141e-09
2.469260994461471298e-09
1.923303347131220589e-09
1.484989789440361188e-09
1.129850047202349847e-09
8.431831600715757235e-10
