# bin_10_8
1.001937369062311789e-06
1.134277733844878623e-06
1.263219040358580456e-06
1.378604207281188188e-06
1.466868143492088071e-06
1.511330497147466766e-06
1.499277266024667185e-06
1.410091241036252743e-06
1.252811657209629149e-06
1.052490115210801424e-06
8.608967708123034539e-07
7.228995935500550439e-07
6.259348185906337459e-07
4.990623761755092631e-07
3.460384815177507311e-07
2.702774558652587553e-07
1.979224776919516440e-07
1.398164847914470667e-07
9.667096922801728496e-08
6.880729122224449024e-08
4.746823997696813094e-08
3.265080964248422576e-08
2.263643616823846652e-08
1.583165139420194745e-08
1.124017447527861992e-08
8.134516675282337344e-09
6.003770919960268658e-09
4.517090579190910923e-09
3.449642392928352325e-09
2.657325003233481712e-09
2.049380460035934164e-09
