# bin_3_1
-1.160078864311530752e-09
-1.209620870015122055e-09
-1.218139038584837030e-09
-1.171861366133654033e-09
-1.066124164581727106e-09
-9.178576186262175276e-10
-7.572355082807716008e-10
-6.254283645031715800e-10
-5.351388137268924915e-10
-4.475905961422413680e-10
-3.310963574489694508e-10
-2.413492226146444404e-10
-1.902739477772838531e-10
-1.339041493227017250e-10
-9.998109482882262900e-11
-7.203178167501180430e-11
-5.269871131505906101e-11
-3.900057776143647649e-11
-2.930365300934281151e-11
-2.241750932227742335e-11
-1.743608554548730055e-11
-1.374529157420503378e-11
-1.091007030315026844e-11
-8.656881929630130216e-12
-6.818880929386436047e-12
-5.296780245516018403e-12
-4.034773733458353036e-12
-3.000795217499250572e-12
-2.172832246614669062e-12
-1.530637270012008688e-12
-1.050217083516306730e-12
