# bin_5_13
-2.184092355881227056e-18
-2.479610887696421380e-18
-2.771293293185145113e-18
-3.037575974003614345e-18
-3.249544341783321031e-18
-3.370903954803145701e-18
-3.371892065303032981e-18
-3.206388025941809719e-18
-2.878607086037291321e-18
-2.442637152000833109e-18
-2.001086643723346138e-18
-1.666418442418057788e-18
-1.442949400445920304e-18
-1.181712364462355549e-18
-8.306809763652204424e-19
-6.267958738544496466e-19
-4.802148061020968794e-19
-3.266944654168232023e-19
-2.342895136229314173e-19
-1.651380027048372845e-19
-1.131026775459325660e-19
-7.735686247749152677e-20
-5.313189871508536904e-20
-3.678366538811975381e-20
-2.577259470197987316e-20
-1.838818331685084246e-20
-1.337827573222790047e-20
-9.936415626490146000e-21
-7.514479731224622291e-21
-5.756089534385972633e-21
-4.434205636384827730e-21
