# bin_5_2
-3.347714448512009983e-11
-3.629859569587665367e-11
-3.833680683240733239e-11
-3.917568471761154203e-11
-3.844642490180346828e-11
-3.572119802872119131e-11
-3.138131396527703390e-11
-2.615583401655891421e-11
-2.143156668764830023e-11
-1.814203074035862110e-11
-1.557962156036757392e-11
-1.206478248331945992e-11
-8.469484739507125770e-12
-6.736267311546265597e-12
-4.807043383744039834e-12
-3.539343322959437561e-12
-2.497788798878162261e-12
-1.811514395585014699e-12
-1.309665277850275277e-12
-9.560158535820755798e-13
-7.090953833595184044e-13
-5.349472458196420230e-13
-4.107919787005512912e-13
-3.198615727693347242e-13
-2.510259150744158884e-13
-1.972581528866660654e-13
-1.541109585550206501e-13
-1.189325200652230497e-13
-9.016712506344139545e-14
-6.686100522495785573e-14
-4.834238599230749402e-14
