# bin_13_4
-1.346449282397625162e-21
-1.527497564186660781e-21
-1.705580156913788941e-21
-1.867318526196094034e-21
-1.994770591785804511e-21
-2.065502990845251433e-21
-2.061637710947095149e-21
-1.954677677490953660e-21
-1.749997296645073928e-21
-1.480881750920420848e-21
-1.212596777403039154e-21
-1.012091840347754675e-21
-8.766426614075958505e-22
-7.130143077259601369e-22
-4.988691784740833068e-22
-3.801660088505815195e-22
-2.878570552133379896e-22
-1.976937415911142377e-22
-1.402681752514316602e-22
-9.928842676611065063e-23
-6.812753747466109460e-23
-4.664049628945577806e-23
-3.211580700217343042e-23
-2.229710771392894595e-23
-1.568026041674502482e-23
-1.123262469772434188e-23
-8.206100125259632936e-24
-6.118189013727045176e-24
-4.640787099022551641e-24
-3.561414358527863836e-24
-2.745094807184057052e-24
