# bin_2_14
-4.397436077662164377e-32
-4.996836587928915328e-32
-5.590940009044205837e-32
-6.136624797055696316e-32
-6.576155347856367406e-32
-6.836796836554711280e-32
-6.856382201576457024e-32
-6.543282468580016470e-32
-5.894532245419076516e-32
-5.019268447358643789e-32
-4.115319938078516311e-32
-3.418055269026758358e-32
-2.957242202378912782e-32
-2.440797080619883783e-32
-1.727829984227580045e-32
-1.287810526704829780e-32
-9.998669213859258359e-33
-6.736060340800725341e-33
-4.892238362673737497e-33
-3.426180571580160228e-33
-2.341866209983038245e-33
-1.601078118063414169e-33
-1.096593364446577801e-33
-7.565650684805612784e-34
-5.276878697341579981e-34
-3.746045751640277262e-34
-2.711130698746956528e-34
-2.003618013691792962e-34
-1.509120417450595858e-34
-1.152894821409492707e-34
-8.871727918566195535e-35
