# bin_14_3
-1.482750099210422021e-27
-1.685278652615455983e-27
-1.886253568807791111e-27
-2.071162415961322320e-27
-2.220583756100835338e-27
-2.310026291612402045e-27
-2.318309049450301493e-27
-2.214667452799588289e-27
-1.997001699740628761e-27
-1.702132649139540069e-27
-1.395917522879755287e-27
-1.158565012939826631e-27
-1.002120233846382330e-27
-8.288818008936465377e-28
-5.879280757329763092e-28
-4.367141124186940448e-28
-3.403014611711947676e-28
-2.286610196579503635e-28
-1.666450780073149942e-28
-1.164957562722629856e-28
-7.958386150393138810e-29
-5.440519257165377061e-29
-3.723410202515784889e-29
-2.566410340533891619e-29
-1.787751310114634607e-29
-1.267329893707600642e-29
-9.158423149607404433e-30
-6.758756653087546178e-30
-5.084732159367988727e-30
-3.881450961512169214e-30
-2.985868334684197721e-30
