# bin_3_5
-1.585701916100273842e-09
-1.730150198191797169e-09
-1.841627204403894604e-09
-1.899733180840026019e-09
-1.887688593853645719e-09
-1.781033185199972177e-09
-1.587787347001631722e-09
-1.339378576809245564e-09
-1.096883478720434759e-09
-9.177264625773809921e-10
-7.924091536506320706e-10
-6.379685786287963497e-10
-4.492084331049740398e-10
-3.456023758783710032e-10
-2.597894419625410384e-10
-1.835364174949085323e-10
-1.323322172948787768e-10
-9.573779848770976601e-11
-6.852158477898652028e-11
-4.954358803670806646e-11
-3.636005788551803411e-11
-2.714098362402839338e-11
-2.062542330130598436e-11
-1.592938355971742840e-11
-1.243559229916945214e-11
-9.752605799561357168e-12
-7.630020090293855314e-12
-5.914232257178803288e-12
-4.515243525908404326e-12
-3.378926218707923710e-12
-2.469390824585430157e-12
