# bin_10_6
-2.085721683636718509e-11
-2.353140411529533332e-11
-2.609762898318005164e-11
-2.833626633035116213e-11
-2.995905091035676391e-11
-3.063133134320382236e-11
-3.007553408045473503e-11
-2.792972167378354288e-11
-2.452183368927418653e-11
-2.040489622495563301e-11
-1.671052015995145235e-11
-1.418282086375569010e-11
-1.221825808387958292e-11
-9.400344211665490193e-12
-6.521908181988795865e-12
-5.246571129093418949e-12
-3.637597231819651163e-12
-2.689365141908061136e-12
-1.825145945324035075e-12
-1.286172820531236689e-12
-8.965067127939519435e-13
-6.242787454171987041e-13
-4.375601879384112406e-13
-3.098633082023315278e-13
-2.234300189411177974e-13
-1.642797781141261958e-13
-1.230864026331163492e-13
-9.376060614283630598e-14
-7.219639597236026059e-14
-5.580329272607221572e-14
-4.297542578313586433e-14
