# bin_10_3
-7.463062327531015384e-19
-8.378742447791916493e-19
-9.237775824441993463e-19
-9.957460991221955428e-19
-1.043215332869435798e-18
-1.055600014968879491e-18
-1.020879137445140012e-18
-9.322045706018429350e-19
-8.049522568694533978e-19
-6.633646872978407887e-19
-5.462417158020233593e-19
-4.692035885956573821e-19
-3.970037376055572654e-19
-2.914751246047103034e-19
-2.081457301488930080e-19
-1.676825480683564646e-19
-1.121286487861394491e-19
-8.443365079824486188e-20
-5.834504322206965365e-20
-4.055467200958459667e-20
-2.846462509191219972e-20
-2.002336190979653375e-20
-1.422535822741186438e-20
-1.024735626913735849e-20
-7.529547709460781021e-21
-5.637684695187524843e-21
-4.291690671833061920e-21
-3.306893225761309306e-21
-2.561540073048118835e-21
-1.980229074061626476e-21
-1.517256542435543766e-21
