# bin_3_3
-3.271945181523206622e-08
-3.501713608299682658e-08
-3.638389664632458944e-08
-3.647692123179863363e-08
-3.485612957771428475e-08
-3.147597954280397139e-08
-2.689370351119027032e-08
-2.210554851109396727e-08
-1.832674935002331783e-08
-1.575630750164079813e-08
-1.303461084165944172e-08
-9.441113478995877260e-09
-6.988211792773297659e-09
-5.464007722092160432e-09
-3.804006063291693080e-09
-2.828505920441512004e-09
-2.032099521832576435e-09
-1.468943926640270106e-09
-1.075588982699977707e-09
-7.987986278356166522e-10
-6.036399883518054611e-10
-4.640106539711175527e-10
-3.620786948300272906e-10
-2.850740458905823583e-10
-2.249399866576361222e-10
-1.766520013075312926e-10
-1.371433392626668860e-10
-1.046504841188100485e-10
-7.812327666579896914e-11
-5.685904290173946842e-11
-4.028281427488859449e-11
