# bin_9_5
-9.705262862803636498e-12
-1.089427178980476915e-11
-1.200883515354093279e-11
-1.294123776629523493e-11
-1.355398457443744265e-11
-1.371009976721537477e-11
-1.325230636084538919e-11
-1.209457763164897368e-11
-1.043779553667729382e-11
-8.599560361306715195e-12
-7.083021943948959107e-12
-6.086157827781669001e-12
-5.145613975848739205e-12
-3.772206369979960483e-12
-2.697514523123401507e-12
-2.171713390739199878e-12
-1.451735457939527947e-12
-1.092904912682979103e-12
-7.559148697429880581e-13
-5.253537445389978448e-13
-3.687711942330750280e-13
-2.594782799673137720e-13
-1.844269232787154455e-13
-1.329298555763059842e-13
-9.773243703647195559e-14
-7.321697081603908725e-14
-5.576228591978478522e-14
-4.298000436577344840e-14
-3.329693098227881198e-14
-2.573936051759554025e-14
-1.971754244908468082e-14
