# bin_4_4
-2.497893115833169261e-08
-2.722258305834547011e-08
-2.893462791057493125e-08
-2.979515817950287529e-08
-2.953912491172397736e-08
-2.779102413942776233e-08
-2.470902960825223100e-08
-2.079567186037626463e-08
-1.702994981744790083e-08
-1.427903536196208932e-08
-1.232075961802816429e-08
-9.850811109975959656e-09
-6.926791822455024975e-09
-5.365433611201102131e-09
-3.994088379825261847e-09
-2.843810960686132319e-09
-2.040822900803495210e-09
-1.477781321558016113e-09
-1.059631347282432728e-09
-7.674368792770872067e-10
-5.643133721340645698e-10
-4.220550559530152915e-10
-3.213645317523278246e-10
-2.485830437443669230e-10
-1.942622722865689195e-10
-1.524152259137357112e-10
-1.192184228768247197e-10
-9.233821678696202370e-11
-7.040730900455715432e-11
-5.260104606307086818e-11
-3.836686586763334930e-11
