# bin_4_7
-1.204091286285242849e-10
-1.336751107228813884e-10
-1.453717892420711524e-10
-1.540476995472395292e-10
-1.579808691587882377e-10
-1.557781272018849721e-10
-1.454738023205230268e-10
-1.284112197846065683e-10
-1.073387849203390085e-10
-8.785755985843192314e-11
-7.416411492286699396e-11
-6.399725097504131937e-11
-5.011448643546332706e-11
-3.486530086748724253e-11
-2.765210283877391197e-11
-1.981678376404355462e-11
-1.440875498649732222e-11
-1.001478312289104532e-11
-7.197495787846904493e-12
-5.100286009103459474e-12
-3.630730357376162605e-12
-2.618204703904379105e-12
-1.916260522804134010e-12
-1.429160088825860249e-12
-1.085247385406871312e-12
-8.357974019845227598e-13
-6.495119692079596318e-13
-5.057694774621649647e-13
-3.918461473327769563e-13
-3.000956812457698220e-13
-2.260020637999222343e-13
