# bin_4_4
6.092533905954832467e-06
6.637254915274231999e-06
7.051387055103621032e-06
7.256945622067836787e-06
7.189481268335457838e-06
6.757935860082604539e-06
6.002743075955674042e-06
5.047492839435800487e-06
4.131943374764330546e-06
3.465549346993217456e-06
2.989871660673710165e-06
2.386278782657326611e-06
1.676482821646358352e-06
1.300659304812565553e-06
9.658544398116042509e-07
6.887638258813825020e-07
4.935641587603258132e-07
3.574284148759328204e-07
2.563289339731187384e-07
1.856570637399756288e-07
1.365343868543174778e-07
1.021272239005917274e-07
7.777329510055677603e-08
6.016521743901396324e-08
4.701949883170142488e-08
3.688966073520348089e-08
2.885196604390893890e-08
2.234307848407862990e-08
1.703286859857633501e-08
1.272209687912219045e-08
9.276994195260917588e-09
