# bin_2_2
1.079126476553983221e-05
1.120599770249537480e-05
1.122866400380054156e-05
1.073209750214391488e-05
9.700389593187123299e-06
8.301544778502988137e-06
6.835884350678770105e-06
5.665509718200442833e-06
4.851985043888109324e-06
4.011479696812100972e-06
2.939846335661129382e-06
2.171288186925137849e-06
1.691745489511432550e-06
1.196304976041322009e-06
8.892050897780812154e-07
6.433126316252805915e-07
4.713153896357405425e-07
3.496575891612142569e-07
2.635507176570095306e-07
2.022559261417609471e-07
1.577552173668313795e-07
1.245998365997852787e-07
9.897991055346590729e-08
7.851553715759344552e-08
6.176196868562626352e-08
4.786648210495577447e-08
3.635182859242064512e-08
2.694134427914647077e-08
1.943595120097725480e-08
1.364320851051423695e-08
9.331613063355837191e-09
