# bin_9_9
4.353916802500960384e-06
4.926982076602995341e-06
5.484305656729940308e-06
5.981560788692374149e-06
6.359634407380270402e-06
6.546172847569511467e-06
6.486076982590174626e-06
6.090782519402766703e-06
5.403583530746261858e-06
4.533698167687264872e-06
3.708283571610884761e-06
3.117823752984418098e-06
2.698843274136645006e-06
2.142862350601793047e-06
1.484402367417718891e-06
1.164571619859320962e-06
8.469653772996987644e-07
6.018583758366024766e-07
4.143989356867762787e-07
2.949107515366885023e-07
2.036702869757410083e-07
1.402571801197781624e-07
9.735076057334063966e-08
6.816953949547506206e-08
4.847718991618283303e-08
3.514233078283406753e-08
2.598030267568246552e-08
1.957500561871608307e-08
1.496447945360597046e-08
1.153333315208108808e-08
8.894594243623264763e-09
