# bin_7_5
5.776602960192793839e-07
6.432684205713893166e-07
7.021896102421207991e-07
7.475932965471480042e-07
7.710813130869660291e-07
7.660300423415514027e-07
7.221266090922576667e-07
6.430494164897557506e-07
5.415595825090846478e-07
4.431076248763381289e-07
3.711100616701893576e-07
3.210341179560645789e-07
2.577857792197094628e-07
1.799942010352630716e-07
1.392384603511126467e-07
1.036833032183171471e-07
7.296895419619361104e-08
5.167971066602955403e-08
3.711956613276820395e-08
2.610556084000344167e-08
1.844559123287847448e-08
1.319688225139922432e-08
9.580074157074617766e-09
7.080668368297721537e-09
5.333553601021323999e-09
4.081259120165209306e-09
3.158589808110638965e-09
2.456150787791484473e-09
1.905212318791079542e-09
1.464212187736620936e-09
1.108587694363586225e-09
