# bin_6_6
4.759041506981452087e-06
5.296624619968621010e-06
5.777862619444743346e-06
6.146281370823694539e-06
6.332812894224064920e-06
6.283027777126185135e-06
5.912935214212239149e-06
5.257097839674782366e-06
4.421151942542216776e-06
3.617196364513248401e-06
3.033507146301086047e-06
2.623438555105401753e-06
2.097554718582299894e-06
1.462904753808535922e-06
1.136967897930431167e-06
8.409587564767223931e-07
5.952204460879761064e-07
4.199223711461020021e-07
3.017676586005583334e-07
2.124976524661464338e-07
1.503233048988648849e-07
1.076933706796375473e-07
7.828701311123294798e-08
5.795263680718541976e-08
4.371499838589992313e-08
3.348934352081206765e-08
2.593788373568173741e-08
2.017529843898367181e-08
1.564709139585971662e-08
1.201833226570733564e-08
9.091170449868945523e-09
