# bin_9_2
6.684615016914970697e-18
7.457939531508008375e-18
8.159988694431681240e-18
8.712762419402142345e-18
9.019109913323655123e-18
9.000034843849487141e-18
8.534394839305353494e-18
7.642235787442495484e-18
6.470014692855292325e-18
5.297336655340046815e-18
4.416405931603875198e-18
3.820591116972420669e-18
3.111933893518388616e-18
2.188089398035735987e-18
1.662032521692574051e-18
1.266512320651452479e-18
8.744517507027432452e-19
6.296889996042034709e-19
4.498961983494423082e-19
3.150678023832189247e-19
2.219019570094553717e-19
1.580084455576993885e-19
1.141333149903833416e-19
8.387812784348421586e-20
6.285084915853744930e-20
4.788418223382906204e-20
3.694662081323736405e-20
2.869143174090333225e-20
2.226282384437016329e-20
1.714085006042240836e-20
1.301714597369663096e-20
