# bin_10_2
2.184699133264322930e-20
2.449051533400863543e-20
2.695201741485719591e-20
2.898618766368697885e-20
3.028162668529769459e-20
3.054168846222345772e-20
2.939929479072778246e-20
2.671426575774786986e-20
2.295229963642587869e-20
1.887076602808747510e-20
1.557285455952025391e-20
1.340963523844981948e-20
1.126176807010271815e-20
8.167325434702660342e-21
5.907692212389440090e-21
4.719103372595267117e-21
3.158464757490356933e-21
2.364695267490148408e-21
1.647296912760474930e-21
1.145052225296477511e-21
8.038296319891715512e-22
5.665484092113185864e-22
4.039294907145780557e-22
2.922844166281590462e-22
2.157520940944108458e-22
1.622253647960444645e-22
1.239205985720604821e-22
9.569466458828965187e-23
7.418334506389908016e-23
5.731290514835886969e-23
4.383361277380767948e-23
