# bin_7_6
2.810181891505613301e-06
3.139381884358083492e-06
3.440406127349633615e-06
3.680787078040953098e-06
3.819837312889371123e-06
3.823228690634604472e-06
3.640364467303419774e-06
3.272627569004856641e-06
2.781406992808986891e-06
2.279100177314881137e-06
1.894325653609898242e-06
1.637702010148861480e-06
1.346290853640254726e-06
9.531447654925725260e-07
7.142633978593340682e-07
5.525276004664912868e-07
3.770608232633558680e-07
2.748928906891284266e-07
1.952525952440764296e-07
1.363740738405620664e-07
9.590718844659695031e-08
6.807524425740602435e-08
4.899802654346602832e-08
3.586130063921440194e-08
2.676711293378923812e-08
2.032550955140438839e-08
1.564496150083266790e-08
1.213453967479059846e-08
9.415691033124027928e-09
7.257574268739349438e-09
5.522789023681228650e-09
