# bin_15_12
5.966053612798543921e-07
6.833218094774813707e-07
7.723243180670113340e-07
8.581382801252749430e-07
9.336049587525878548e-07
9.892668015049349279e-07
1.013837505153386583e-06
9.985939780943150288e-07
9.305402199619505625e-07
8.195574116548028895e-07
6.832514646413723919e-07
5.590416926695981847e-07
4.733047979554835719e-07
4.088610841860203841e-07
3.171759836576881802e-07
2.189227917905293552e-07
1.754135563473849032e-07
1.224013480873319858e-07
8.944827530232191391e-08
5.982577762438571235e-08
4.175927530587688696e-08
2.841654013525378879e-08
1.914710796880254969e-08
1.286076034378745077e-08
8.628563683470351148e-09
5.836682669207066995e-09
3.998066916134444334e-09
2.785977586013955332e-09
1.984287214237344522e-09
1.446617003902566155e-09
1.077794577536477454e-09
