# bin_7_2
4.825379585419203892e-13
5.319213780871079257e-13
5.734466114929089254e-13
6.010842753814917640e-13
6.086809092879961974e-13
5.895729978759507356e-13
5.394329723699479964e-13
4.667476866378349419e-13
3.850929326561898795e-13
3.166974537161611012e-13
2.712633970369337207e-13
2.299976822529710368e-13
1.704672312277193588e-13
1.214283274489259970e-13
9.775988844846048207e-14
6.646559762981108235e-14
5.008753461978867044e-14
3.497137526127925152e-14
2.482174166890067717e-14
1.778103799854245353e-14
1.283169479540487574e-14
9.389511057710614826e-15
6.983923563227247559e-15
5.294399825611478665e-15
4.076002257435046727e-15
3.170655899120595298e-15
2.476680466147399922e-15
1.928589772229113535e-15
1.487228336569110027e-15
1.129227084815676676e-15
8.404169524937444450e-16
