# bin_6_2
8.288010889436931423e-11
9.066231672247215451e-11
9.681275225564085188e-11
1.002646586808258523e-10
1.001209030746905288e-10
9.508022126876712509e-11
8.528222493275384819e-11
7.234474005728545161e-11
5.927487733683767475e-11
4.933591801602070175e-11
4.259883216781972553e-11
3.482960113500035429e-11
2.470548980093274496e-11
1.864111151899739020e-11
1.434054222827961550e-11
9.946951063357896910e-12
7.277220414948067479e-12
5.232996739991196740e-12
3.728860579069661825e-12
2.686584551943563288e-12
1.962043067738913815e-12
1.457103889003839338e-12
1.101492443815004544e-12
8.470310999609888269e-13
6.592424032705553130e-13
5.162211241104749288e-13
4.039113866223995744e-13
3.135775747019866025e-13
2.400905467248599561e-13
1.803793335977144527e-13
1.324592872744960608e-13
