# bin_7_4
3.105087968285365195e-08
3.446273187848657532e-08
3.746620144361309197e-08
3.968657137179360001e-08
4.068025736975819439e-08
4.008889599054268105e-08
3.740887375569972403e-08
3.299450275390336750e-08
2.755951932818476051e-08
2.255097527874240287e-08
1.904045075836192019e-08
1.642666998692455702e-08
1.284342508007242936e-08
8.931483751767531332e-09
7.091282938973363609e-09
5.071026056484181549e-09
3.692397541221720939e-09
2.563992303193774809e-09
1.842047858073323104e-09
1.305535611671256501e-09
9.295299607106635609e-10
6.704123784057840261e-10
4.907525416130794625e-10
3.660845902323818828e-10
2.780444826709963431e-10
2.141675364909436309e-10
1.664485152564240835e-10
1.296141775838781594e-10
1.004132214913872345e-10
7.689233716805998201e-11
5.789785060290965472e-11
