# bin_9_7
9.603922615249690558e-12
1.082266923109567319e-11
1.198616353247267363e-11
1.299201865506746579e-11
1.370678267807007783e-11
1.397949923182644120e-11
1.367820231447550657e-11
1.265032234073451722e-11
1.106215875366330412e-11
9.178247088217825486e-12
7.520008683287094049e-12
6.400584974168436522e-12
5.498195593704871218e-12
4.183771329932719938e-12
2.912016266575699227e-12
2.353464984610487274e-12
1.609878719562154511e-12
1.201357244791361691e-12
8.159649332097389073e-13
5.722474421359067276e-13
3.998355589820357957e-13
2.792537672731269262e-13
1.963100481320717390e-13
1.395280076067587633e-13
1.010426867742829452e-13
7.461176374962211970e-14
5.612041463958761456e-14
4.287682957399587461e-14
3.307288489102283175e-14
2.557294532966733420e-14
1.967659953176605720e-14
