# bin_12_8
2.110460919218688594e-13
2.397814674243377057e-13
2.682474619949621531e-13
2.943722076117961647e-13
3.153827826881307959e-13
3.277886105303747843e-13
3.286150695609214932e-13
3.134674542760144211e-13
2.822265326807768066e-13
2.401741682245556381e-13
1.968223507732711527e-13
1.634558104239873686e-13
1.414376674453376773e-13
1.166798781053335274e-13
8.250023845909167396e-14
6.153156433713596467e-14
4.774485719514206503e-14
3.216024790328082980e-14
2.334297940230306820e-14
1.635534801325696585e-14
1.117838872186725667e-14
7.640801244028138751e-15
5.233132932141878214e-15
3.610972896229224218e-15
2.519145892263782182e-15
1.788857429202337095e-15
1.295082697005901548e-15
9.574419931284977792e-16
7.213706924746982714e-16
5.512290464695840278e-16
4.242473800451607283e-16
