# bin_7_2
7.570214648501963609e-18
8.343696811700779767e-18
8.993370236686395777e-18
9.424572600346255123e-18
9.541120990962975655e-18
9.237922960532447964e-18
8.448711128143139743e-18
7.307180713568294571e-18
6.027518009879587057e-18
4.957844959851648670e-18
4.247691245062969657e-18
3.599532974568854729e-18
2.664893951738456840e-18
1.900067941679618652e-18
1.529288118083789358e-18
1.039351472667141390e-18
7.833495185856028986e-19
5.472933412375295281e-19
3.884503785078133538e-19
2.783533394943886399e-19
2.009638956661935249e-19
1.471346697433202573e-19
1.095032793741617230e-19
8.305896809749407178e-20
6.397356994595563382e-20
4.977933630302736499e-20
3.888926930872509289e-20
3.028207727401979439e-20
2.334766525982927627e-20
1.772195367380083901e-20
1.318386621989459840e-20
