# bin_6_1
6.642551075976644431e-19
7.231780103234009699e-19
7.676790470443438070e-19
7.892500965154476810e-19
7.809189363793222813e-19
7.327833108213575564e-19
6.498216291474724535e-19
5.455399096000655099e-19
4.464761690200861411e-19
3.749712889389762901e-19
3.235257793670249689e-19
2.571272169598910306e-19
1.802355533814670562e-19
1.406149262491267651e-19
1.037212300380420864e-19
7.437653643489618798e-20
5.306192313465361094e-20
3.849366594564487682e-20
2.764426672513744661e-20
2.004526052228261476e-20
1.476350546605163715e-20
1.105969762111836637e-20
8.435218864836484896e-21
6.533621907135872095e-21
5.110520937808425406e-21
4.011262577851351477e-21
3.137184079390914739e-21
2.428360214844488753e-21
1.849701171033441626e-21
1.379995872916686189e-21
1.004887480383986809e-21
