# bin_5_2
1.385184013730038326e-13
1.501106960040398559e-13
1.584323638326587124e-13
1.617679488571339436e-13
1.585875023450499730e-13
1.471562884250298121e-13
1.291073371513222632e-13
1.074921398905307040e-13
8.806240153945817152e-14
7.459118561342438236e-14
6.401349728282124256e-14
4.942797994393607333e-14
3.470306110152944442e-14
2.764291432114251530e-14
1.966132278328182235e-14
1.450891585728725156e-14
1.023080726182960114e-14
7.417515017865914304e-15
5.365374973097294855e-15
3.918750932654686410e-15
2.908335126064659627e-15
2.195342310893169489e-15
1.686762936276893140e-15
1.313923513827565753e-15
1.031384918171346377e-15
8.104803983522187965e-16
6.330793622785929152e-16
4.883888625332970711e-16
3.700746892327365878e-16
2.742448770189589354e-16
1.981458823154106178e-16
