# bin_14_12
1.251686965220298872e-11
1.431890993606294816e-11
1.616023858981103904e-11
1.792406866332728443e-11
1.945798639892119887e-11
2.056236394405525398e-11
2.100616269344997857e-11
2.059867154992622502e-11
1.909289243471976037e-11
1.673110992305382187e-11
1.389671125705811404e-11
1.138009077859238105e-11
9.676857938012120167e-12
8.332642513809023176e-12
6.366520490844400770e-12
4.409109258889154637e-12
3.563751548940310673e-12
2.431584601558047044e-12
1.806066624742708730e-12
1.207100375547154520e-12
8.339666936044990510e-13
5.694428523206534660e-13
3.854027056079494674e-13
2.597471311363206137e-13
1.751172457599218774e-13
1.192914740941067028e-13
8.241462070361712639e-14
5.800206931233862583e-14
4.174528557091340663e-14
3.073543903264337756e-14
2.308525958059279507e-14
