# bin_6_2
3.122553074506822640e-08
2.735713539209793190e-08
2.333443162554018507e-08
1.943319319998415263e-08
1.587995450821675326e-08
1.279381812471027896e-08
1.017544664863353177e-08
7.956694594889195073e-09
6.092090248706814655e-09
4.596552953317519023e-09
3.468249422760072361e-09
2.624842808303588751e-09
1.987682925930304400e-09
1.518307299031334765e-09
1.170583496977099661e-09
9.108619362343430353e-10
7.139165715797187981e-10
5.617126779582704696e-10
4.417616311424049322e-10
3.457074452037096461e-10
2.680505178401870218e-10
2.051440127232699687e-10
1.544804728500414875e-10
1.141883528869634634e-10
8.271737723447536068e-11
5.867364139213793705e-11
4.075348917346333448e-11
2.773991422454238565e-11
1.853130996916921084e-11
1.217379876654131385e-11
7.881999273345209962e-12
