# bin_7_7
6.211923603816218042e-08
5.784211679649257577e-08
5.247623891753898639e-08
4.632959579909759771e-08
3.981016735880178740e-08
3.336546254106486355e-08
2.739260144033964749e-08
2.213698152242437740e-08
1.765475620606050086e-08
1.386179691239365217e-08
1.066023935127888263e-08
8.039306154250458517e-09
6.021894952558815915e-09
4.522870596724690994e-09
3.388654252829254227e-09
2.546366249240407706e-09
1.929564680174832756e-09
1.472642469637510053e-09
1.132553551572984310e-09
8.757835463671656902e-10
6.787431914872363292e-10
5.252079016544149314e-10
4.041716078139594380e-10
3.081687216127912812e-10
2.320466250109442711e-10
1.721004706529269310e-10
1.254708202540901764e-10
8.980076604064666552e-11
6.305280512668585327e-11
4.343220155971169326e-11
2.936709659694155340e-11
