# bin_4_4
4.014572352821777486e-08
3.601801950258962779e-08
3.145179627364477722e-08
2.675209337000191153e-08
2.222965429052346009e-08
1.813076538989920161e-08
1.457817271221244199e-08
1.156745039451968683e-08
9.024157497997773778e-09
6.897278469612308302e-09
5.195730994204489024e-09
3.912310663332205436e-09
2.954798790207211596e-09
2.230597043974501284e-09
1.697804872342388191e-09
1.303159353560137871e-09
1.008944012878763800e-09
7.864082991432443227e-10
6.152102116890718878e-10
4.811051952369766006e-10
3.744915838570250888e-10
2.889732662639467644e-10
2.202400147953623366e-10
1.652881406693283575e-10
1.218662600996619007e-10
8.812902642878573395e-11
6.245526779754601225e-11
4.336879982909077229e-11
2.952555862855014738e-11
1.973211696072732246e-11
1.296777105108462360e-11
