# bin_15_12
9.247739833569415476e-08
8.911273673714680103e-08
8.387340408187492840e-08
7.694320588945465219e-08
6.869230612482561974e-08
5.965573166663412528e-08
5.046505461650241513e-08
4.173421517350001586e-08
3.391017473903156773e-08
2.717262767858836033e-08
2.145937405109324631e-08
1.661307223212104557e-08
1.257062087240639673e-08
9.379476011893783865e-09
6.995986764072590652e-09
5.205705882620198460e-09
3.858919897196310313e-09
2.880284368853179564e-09
2.159784065751987387e-09
1.631917901768705956e-09
1.240734930642102626e-09
9.474454536536206468e-10
7.245143731589668189e-10
5.529125573762257336e-10
4.196180103857683149e-10
3.156337635659675806e-10
2.346504667060771409e-10
1.720231823921890816e-10
1.241499368973535178e-10
8.811075835916279590e-11
6.146282087269976675e-11
