# bin_13_13
9.139320766696627578e-08
8.798861789453582048e-08
8.273657714868309043e-08
7.582603624086438502e-08
6.762953566129930617e-08
5.868016873757232272e-08
4.960230514318573597e-08
4.099721520501458283e-08
3.329689280495105569e-08
2.666974387600866462e-08
2.105010874445772180e-08
1.628570343665084014e-08
1.231868070423250795e-08
9.192810161821464644e-09
6.857614937256487522e-09
5.103153849786735973e-09
3.784914597405683388e-09
2.826287272959802165e-09
2.120610945425924140e-09
1.603212606044824665e-09
1.219514162360101366e-09
9.315898707673123048e-10
7.125428659114894926e-10
5.438000415213717751e-10
4.126489541258478481e-10
3.103034357141611188e-10
2.305912871614146047e-10
1.689582055838189792e-10
1.218636019596400790e-10
8.643069736046021194e-11
6.024921521756862927e-11
