# bin_10_1
2.246874884884350331e-08
1.916056032613972042e-08
1.595826795163951986e-08
1.304526708800103330e-08
1.051464354165000038e-08
8.363010663354143864e-09
6.537529250289111240e-09
5.008162952725655980e-09
3.786613326327915060e-09
2.863069841849932188e-09
2.171706441441281156e-09
1.651447971187423946e-09
1.267102517870258651e-09
9.821100778236338117e-10
7.684460921667942618e-10
6.056110792497149175e-10
4.789099017313732112e-10
3.782850505760922305e-10
2.970709398181302168e-10
2.309318037909714901e-10
1.770266882363959496e-10
1.334088684706936088e-10
9.861022736907822254e-11
7.138488000840018982e-11
5.057842863374901967e-11
3.508343115388803478e-11
2.384852747218435244e-11
1.591354658919275791e-11
1.044549206091191837e-11
6.759887571165454021e-12
4.323027196084106389e-12
