# bin_10_5
9.498492637287561518e-11
1.070074434057894418e-10
1.184700202169688455e-10
1.283568263517866535e-10
1.353461453208480252e-10
1.379538117105496539e-10
1.348616904200754215e-10
1.245998830516859202e-10
1.088491621413690168e-10
9.025325647390234937e-11
7.396526805086944883e-11
6.300430807723240079e-11
5.407511739403468485e-11
4.102906607718541515e-11
2.859184142247243401e-11
2.312928379350187787e-11
1.577020484426208837e-11
1.179381182865693929e-11
8.015554165587280879e-12
5.614466943310726765e-12
3.925299573432949549e-12
2.743589202411372413e-12
1.930259670374796695e-12
1.373353423939802405e-12
9.957132790826148169e-13
7.360987461768797046e-13
5.542406977337751028e-13
4.237768529222209326e-13
3.270226402052698201e-13
2.528834189834338962e-13
1.945256444840384950e-13
