# bin_6_2
9.656920682545226022e-11
1.057720912632551531e-10
1.131273660997586856e-10
1.173956125389518319e-10
1.175086103675371570e-10
1.119577495199343582e-10
1.007381423131110676e-10
8.571881636942457810e-11
7.028153226031238901e-11
5.836181332042766707e-11
5.036269850477755430e-11
4.146778464842153814e-11
2.957445227033313096e-11
2.209209935086315648e-11
1.717488156305699034e-11
1.182500082538141253e-11
8.717022272180609054e-12
6.243168456904128674e-12
4.441861475244923677e-12
3.197128068287293447e-12
2.330484833311557586e-12
1.727086881333470604e-12
1.302653508571416667e-12
9.998393122317680220e-13
7.771223698462610712e-13
6.080916263497547069e-13
4.757899701442987680e-13
3.696162545588033922e-13
2.833372477868235029e-13
2.132256520780602897e-13
1.568994914654955766e-13
