# bin_8_8
4.385941394750035637e-06
4.943951357948870086e-06
5.477360372156401344e-06
5.939560592414298260e-06
6.269693175940872125e-06
6.398400521386487685e-06
6.266078163932751528e-06
5.801215717903370575e-06
5.077994144104219207e-06
4.216064615436583896e-06
3.453574681378863664e-06
2.937108040067334624e-06
2.525032803174414727e-06
1.927042911509690483e-06
1.339857097431424148e-06
1.081594998253871879e-06
7.424814026148401123e-07
5.527035438365761737e-07
3.752497105140732776e-07
2.635119760814326653e-07
1.839953990968251491e-07
1.284008390826869173e-07
9.018877924953220727e-08
6.403736741142657465e-08
4.631940599396584624e-08
3.416320305848610443e-08
2.566937936504130742e-08
1.959607603842363793e-08
1.510831159884020883e-08
1.168101798768325714e-08
8.989898498121729755e-09
