# bin_8_4
1.140369894768450547e-09
1.272622564471183896e-09
1.392857641545274009e-09
1.487793394324228196e-09
1.540862683285486262e-09
1.538519490368745103e-09
1.460080535685994316e-09
1.308425215887404825e-09
1.108524456586912202e-09
9.077024676746768252e-10
7.562923081336316946e-10
6.542353489901414848e-10
5.338846601515811550e-10
3.757894801551440432e-10
2.847274083722123652e-10
2.176401174650283199e-10
1.498950825622889318e-10
1.082024937753409675e-10
7.724687200188987056e-11
5.407306672662316672e-11
3.807444848004575723e-11
2.709879179264449282e-11
1.956474347529629917e-11
1.437020239907833185e-11
1.076204656335724690e-11
8.195612610171224796e-12
6.321578054194571791e-12
4.908388139759474121e-12
3.808699411597253714e-12
2.932957375516595855e-12
2.228023277508241742e-12
