# bin_8_5
5.656702975854439352e-08
6.329008529179920767e-08
6.948829103415720252e-08
7.451599442382808423e-08
7.755925748716465256e-08
7.789563050055345117e-08
7.452722926586143379e-08
6.731056623633619510e-08
5.747485918261622199e-08
4.715239780588910448e-08
3.906005347344344837e-08
3.372487822200983693e-08
2.800405397432479140e-08
2.001469343704186823e-08
1.476253903282418259e-08
1.160389693342338353e-08
7.830477238570273465e-09
5.786863289905254304e-09
4.077887284323182698e-09
2.840935389348750212e-09
1.996061552331107783e-09
1.412269767422867241e-09
1.012524313732129843e-09
7.376241852620196052e-10
5.481207449203806350e-10
4.146028450008460015e-10
3.181992029604697453e-10
2.464144349976713184e-10
1.911704606977277559e-10
1.475206585057159993e-10
1.125066769464017292e-10
