# bin_6_1
5.122514434736313300e-14
5.585817012181014805e-14
5.941344185773490087e-14
6.123173030823562174e-14
6.077506547530591725e-14
5.725649357160840435e-14
5.096645258633502720e-14
4.292928660095593740e-14
3.513860621217083078e-14
2.942090315227439870e-14
2.540353667623354103e-14
2.038926867098928476e-14
1.432838705498348583e-14
1.106452065004752814e-14
8.278690392714959032e-15
5.868692338137466949e-15
4.218300787542145080e-15
3.054977944115810944e-15
2.188123226391227161e-15
1.582969716728180083e-15
1.162683268099347915e-15
8.686123039561306434e-16
6.606627428027724774e-16
5.106011346525210169e-16
3.988010704986242328e-16
3.128253771333667289e-16
2.447230550823871567e-16
1.896286929894132998e-16
1.446927291869585032e-16
1.081993591240122599e-16
7.900486341691055913e-17
