# bin_9_4
2.372609964928503872e-11
2.658700835539562692e-11
2.924584379532480172e-11
3.143530520766075970e-11
3.281657409673522731e-11
3.307136161458777547e-11
3.179626611512657669e-11
2.885685510957189321e-11
2.476207693843315433e-11
2.034834110918429775e-11
1.680365528151169867e-11
1.447892526845712301e-11
1.213476767479114606e-11
8.772481783186455881e-12
6.368866410944998244e-12
5.074666259534953411e-12
3.398913759249650586e-12
2.540222198828932692e-12
1.773829075299576905e-12
1.233394278956344792e-12
8.661084074054698578e-13
6.109726908745963063e-13
4.361819071646454760e-13
3.161315043904575409e-13
2.337331793232417201e-13
1.760048772830884853e-13
1.346064575161714504e-13
1.040249262484216308e-13
8.066285432262645009e-14
6.230646817496386470e-14
4.762409339029219382e-14
