# bin_8_4
1.910663272581159313e-11
2.122912953204659469e-11
2.311035790846587175e-11
2.452146280662107755e-11
2.519016631954166514e-11
2.489112155241612384e-11
2.331351551749804785e-11
2.063573833665192513e-11
1.729752465710328936e-11
1.416130867660932634e-11
1.191971069411027402e-11
1.028089534579885679e-11
8.118270523971996455e-12
5.675009358459473229e-12
4.445416756287800902e-12
3.235272884426034333e-12
2.320452654965568234e-12
1.631256042466182970e-12
1.168743380747173000e-12
8.257553916451653959e-13
5.864493530246686265e-13
4.216734678150229131e-13
3.077176054086046511e-13
2.287372019390217125e-13
1.731704473682464146e-13
1.330335728704428581e-13
1.032010227262153123e-13
8.029418277879339522e-14
6.221180144458411315e-14
4.768705876384526392e-14
3.596942739887313358e-14
