# bin_5_4
8.181093703230635633e-09
8.903234278518737189e-09
9.446754652677628837e-09
9.709207662874740627e-09
9.599718572465540912e-09
9.007725990626538855e-09
7.989342303221763794e-09
6.717215380062638446e-09
5.507175649352242990e-09
4.623940043396706169e-09
3.974169351868866464e-09
3.157929913601841639e-09
2.237288287846792894e-09
1.727876816667894532e-09
1.281372846580099068e-09
9.152878931868554398e-10
6.589299321495595336e-10
4.750862630202731424e-10
3.411138653209312663e-10
2.474984139958847252e-10
1.822260384017200586e-10
1.364442934177746892e-10
1.039868192601349514e-10
8.047883349779929072e-11
6.289812712852765496e-11
4.932959011916631611e-11
3.855373556685999421e-11
2.982653088364600542e-11
2.271065300125328251e-11
1.694067423398724543e-11
1.233749157389197044e-11
