# bin_1_3
3.845019646190873940e-07
3.740037853555743258e-07
3.468229823883952540e-07
3.059350264570941910e-07
2.588845271309345745e-07
2.149777553467706224e-07
1.795592269084763459e-07
1.493506506490448980e-07
1.182341279129912929e-07
8.842207330798264476e-08
6.625322713204065144e-08
4.980641838609889609e-08
3.649302845278057217e-08
2.690161731994943285e-08
1.989276535830170242e-08
1.488291363267454798e-08
1.130587592578945889e-08
8.738456798471618638e-09
6.861371560174044774e-09
5.449533256068185497e-09
4.351337460635154197e-09
3.468246165010970968e-09
2.740463851490921350e-09
2.133589192731815446e-09
1.628438878383864226e-09
1.213930450595305450e-09
8.819831249320132519e-10
6.242457692924412495e-10
4.308576269279524709e-10
2.906380973723311811e-10
1.921552727872989488e-10
