# bin_3_7
2.381795360248808685e-07
2.533955796291681153e-07
2.614826025936502923e-07
2.598438372729242047e-07
2.459202881081455208e-07
2.202643614822946364e-07
1.872730868006535323e-07
1.544110203649505628e-07
1.288164611986415725e-07
1.097874549986145967e-07
8.888130675510189247e-08
6.508246480476848048e-08
4.869921978553135255e-08
3.703633258185117268e-08
2.647823173725965917e-08
1.938764131999935888e-08
1.398617887891779605e-08
1.017174056631489437e-08
7.473755197763660312e-09
5.573463813499749182e-09
4.228313402731579201e-09
3.260996232912286388e-09
2.549061733349631017e-09
2.007318069735147870e-09
1.581663986921891044e-09
1.238561940887826879e-09
9.576978474793125106e-10
7.272717346833226778e-10
5.401116808257495354e-10
3.911675512857039376e-10
2.759733902346077927e-10
