# bin_2_4
2.379560375766723839e-07
2.447312088386698565e-07
2.422902729293683763e-07
2.286198203610478208e-07
2.044295041660606097e-07
1.739435492734158471e-07
1.438639240048403823e-07
1.200459667612564064e-07
1.015819699458313957e-07
8.195270243224582015e-08
6.076331178991197294e-08
4.536746023531607555e-08
3.443417671810173357e-08
2.491960133822554914e-08
1.829483587002979885e-08
1.333946515076797904e-08
9.825116745937347379e-09
7.325104583777564283e-09
5.552146341966340183e-09
4.281783686057577555e-09
3.351875693984628935e-09
2.651346338333173765e-09
2.104897789353386214e-09
1.665338429813591123e-09
1.304280519831907602e-09
1.005139684224518019e-09
7.584968828196433051e-10
5.585502522982697124e-10
4.006334411394100796e-10
2.799033409399572023e-10
1.907656169147520075e-10
