# bin_1_9
6.704276517347773691e-07
6.584800656033515492e-07
6.175243113798453684e-07
5.508302719448180241e-07
4.700290055830630417e-07
3.912161653721754148e-07
3.260988062544489075e-07
2.722311384370310384e-07
2.185702545723459057e-07
1.651205652895147202e-07
1.232062944066801380e-07
9.285308542780731258e-08
6.828152345378090034e-08
5.017223438367847861e-08
3.701706723488450412e-08
2.755401101327552750e-08
2.080476256858821042e-08
1.597618515863530788e-08
1.247050993044402402e-08
9.859929942702973570e-09
7.852691828798417368e-09
6.256479822778816812e-09
4.951895994958316174e-09
3.868974510213008686e-09
2.968065826656374977e-09
2.226483063245420315e-09
1.628963873112382240e-09
1.161227877646229026e-09
8.070151055276492914e-10
5.477832143305774083e-10
3.641223947144365196e-10
