# bin_4_7
1.451561336539533609e-07
1.572533144773074460e-07
1.659216979211624992e-07
1.694194554708992843e-07
1.660509937691125966e-07
1.543270635173735406e-07
1.356599848674125136e-07
1.134568767720509785e-07
9.326576125483856022e-08
7.874722862673838208e-08
6.706704442522435848e-08
5.218937105228737111e-08
3.733967346108735504e-08
2.893918914296818576e-08
2.112434035783861782e-08
1.525985884011109333e-08
1.096708325422395886e-08
7.906145846093089442e-09
5.704121293412620578e-09
4.161187221675574068e-09
3.082187436319327365e-09
2.321920477263003540e-09
1.779456633489973083e-09
1.382796609518492806e-09
1.083154485178605820e-09
8.496914728268349659e-10
6.629296094889909008e-10
5.111115274432536904e-10
3.873027875849939514e-10
2.872152322197350546e-10
2.078347178619197138e-10
