# bin_6_7
4.155934779963287422e-08
4.594546443415909964e-08
4.971065492372692653e-08
5.234385897737285827e-08
5.329127040238971557e-08
5.201609937815339501e-08
4.803782194594459327e-08
4.194930145300114189e-08
3.484550550797584687e-08
2.861207525224163303e-08
2.432137897969697917e-08
2.074798956724808960e-08
1.581001174389268423e-08
1.117998992353433558e-08
8.874220197220274079e-09
6.235688759827270894e-09
4.586333520120997278e-09
3.209919705394253972e-09
2.292037399939297636e-09
1.632255554404946798e-09
1.170109336364716117e-09
8.501979910400612930e-10
6.275690846290587052e-10
4.720252825384462156e-10
3.609807157795728619e-10
2.794028258878764456e-10
2.176342787703984924e-10
1.693912404121418237e-10
1.308464769907685040e-10
9.970446662235789266e-11
7.458681568091665063e-11
