# bin_9_3
3.988075286953853063e-19
4.456487937444016442e-19
4.885455667665442316e-19
5.228999025491003976e-19
5.429412452676419221e-19
5.437703067111699638e-19
5.181970604866085249e-19
4.662382004599596083e-19
3.965627313399452391e-19
3.249961091224400005e-19
2.699593780966198978e-19
2.333575918536811272e-19
1.922054867739669586e-19
1.362568992720574088e-19
1.018307030820790084e-19
7.901905489714664755e-20
5.379647426973699079e-20
3.932203445804716970e-20
2.790128509892565004e-20
1.948021548047119912e-20
1.369811849256654978e-20
9.719000350883753660e-21
6.992293075247761523e-21
5.114899841574046088e-21
3.815864789819092065e-21
2.896338654297330547e-21
2.228700500149387165e-21
1.728394051169578004e-21
1.341182250601246375e-21
1.033977074023179133e-21
7.870736163266464685e-22
