# bin_9_2
9.178246538623108479e-23
1.023789945050914866e-22
1.119876421497755100e-22
1.195357984869525135e-22
1.236889572467344187e-22
1.233678256185238592e-22
1.169066426438731185e-22
1.046226160559550263e-22
8.851949879346691975e-23
7.246758200633879563e-23
6.044679688833895011e-23
5.229474254257530393e-23
4.253107479568232851e-23
2.987464694169812064e-23
2.274127938638480345e-23
1.728713550652652388e-23
1.196021678684620798e-23
8.596303109020786941e-24
6.147640080156736040e-24
4.307932012035510421e-24
3.035566708807328733e-24
2.163190070002064288e-24
1.563857547260135744e-24
1.150400328985839296e-24
8.627751058799070481e-25
6.578208536684020530e-25
5.078391341995815523e-25
3.944768651867029179e-25
3.060899337955920200e-25
2.356097231410044433e-25
1.788466516615073492e-25
