# bin_5_2
1.389943385017653771e-13
1.506140484364164115e-13
1.589475426486357120e-13
1.622759291354629531e-13
1.590584229226769327e-13
1.475646439541830609e-13
1.294423334098542151e-13
1.077562969613963318e-13
8.828142882133702010e-14
7.478744470592848396e-14
6.417461303134152145e-14
4.952741273465289271e-14
3.477631430464256208e-14
2.770910317599939602e-14
1.969724534425849006e-14
1.454204568487814988e-14
1.025320659169797482e-14
7.433573045768234617e-15
5.377799296921673910e-15
3.928470739932235645e-15
2.916027750923570132e-15
2.201545668696152197e-15
1.691796955528574430e-15
1.318001802920096427e-15
1.034667208828428963e-15
8.130809635880106816e-16
6.350950138537537631e-16
4.899100903407782383e-16
3.711873564468544264e-16
2.750307446379753796e-16
1.986811803755342417e-16
