# bin_13_13
3.370150492525267071e-11
3.854966447211874222e-11
4.350161985830626468e-11
4.824256980296887721e-11
5.236164224856112933e-11
5.532108601585454759e-11
5.650037195904164815e-11
5.538376994786098239e-11
5.131273541957158836e-11
4.494650903748237591e-11
3.732147106427517394e-11
3.056552579042479605e-11
2.599990069319114833e-11
2.238099838946855852e-11
1.707888253282978256e-11
1.183281730679828940e-11
9.569218251391852643e-12
6.518359313292696422e-12
4.846773141346952224e-12
3.240138825967262612e-12
2.236732561309993421e-12
1.527634577476801140e-12
1.034218005365457229e-12
6.972232717058530781e-13
4.702542895272213597e-13
3.205296992100260329e-13
2.215997752676707098e-13
1.560840554399667459e-13
1.124302107119659189e-13
8.284131607717578331e-14
6.225947330869023820e-14
