# bin_6_6
6.754786820626156902e-11
7.516133947210084242e-11
8.196796994691247255e-11
8.716505449394337652e-11
8.977307406884339367e-11
8.901977905626069098e-11
8.371786289444930804e-11
7.438556020281373610e-11
6.252002841769796663e-11
5.114926554430759189e-11
4.291902516351171739e-11
3.711347481961491218e-11
2.962255576196229234e-11
2.064846778670128997e-11
1.607986971309242092e-11
1.186125194597072295e-11
8.415412747128414995e-12
5.927650441498297388e-12
4.261527588365228637e-12
3.002964703772603406e-12
2.125790783913160306e-12
1.524176755367995064e-12
1.108949611545574547e-12
8.216812679438838304e-13
6.203403768289893059e-13
4.755639180004004728e-13
3.685012818267229827e-13
2.866869940059378246e-13
2.223260575398070359e-13
1.707135591772860586e-13
1.290708682975575707e-13
