# bin_3_1
5.175562043439585107e-12
5.391599847468726838e-12
5.423590548882831019e-12
5.209799897497215431e-12
4.732110516570073553e-12
4.067445095347720150e-12
3.352581062723624367e-12
2.770038095063743040e-12
2.371259137325868830e-12
1.979320529961033083e-12
1.459668090558875420e-12
1.066519955454449310e-12
8.397081756588148451e-13
5.905768633754861631e-13
4.409447213452892541e-13
3.179073689063503141e-13
2.325980567783146403e-13
1.722349123483872425e-13
1.295060283188442025e-13
9.914712617214286550e-14
7.716775625557938534e-14
6.086280539918514956e-14
4.832019624973589925e-14
3.834018303163820928e-14
3.019179431167520203e-14
2.344087786279510653e-14
1.784376308522824872e-14
1.326020138324518458e-14
9.593000112937146344e-15
6.751783228895674845e-15
4.628859177605145487e-15
