# bin_14_8
-4.400518547574572840e-13
-5.017085271539335296e-13
-5.638032873156156256e-13
-6.221156334686980098e-13
-6.710667269844891033e-13
-7.035217889410484270e-13
-7.122591816038941277e-13
-6.892074077176375871e-13
-6.294381500979044129e-13
-5.435500019202669161e-13
-4.477427067611569418e-13
-3.685210157208466853e-13
-3.167314306719183087e-13
-2.682913378373016007e-13
-1.966156243398453720e-13
-1.399115614936695806e-13
-1.129983106122410696e-13
-7.465641848272958045e-14
-5.612670071844931142e-14
-3.826735034127772553e-14
-2.603978703549069987e-14
-1.782858042655364953e-14
-1.212612341323075310e-14
-8.261393047176633064e-15
-5.661468187348051982e-15
-3.938440683915169558e-15
-2.788184189260664091e-15
-2.015489107949788867e-15
-1.489043681955308664e-15
-1.121419336577122975e-15
-8.562329000621906207e-16
