# bin_7_4
-1.209360562036827529e-10
-1.342454548384924895e-10
-1.459731858711238696e-10
-1.546611197817188100e-10
-1.585792726615303826e-10
-1.563345212297981254e-10
-1.459526796274122548e-10
-1.287877328513928463e-10
-1.076121317533653666e-10
-8.805158022992967903e-11
-7.431547598980828912e-11
-6.412620310483850061e-11
-5.020350420320438652e-11
-3.491269864624157331e-11
-2.769111276184065538e-11
-1.984084066507557838e-11
-1.442623546696667992e-11
-1.002595326313563778e-11
-7.205957835715683457e-12
-5.106936676146968866e-12
-3.636132593113232345e-12
-2.622747822143069488e-12
-1.920114232175731633e-12
-1.432449541087942916e-12
-1.088037165416464411e-12
-8.381230853675559794e-13
-6.514042614342776119e-13
-5.072643927611543617e-13
-3.929871325842682123e-13
-3.009342823517423341e-13
-2.265936707673105934e-13
