# bin_1_11
-4.848590264721801907e-30
-5.454669932259803482e-30
-6.028848926807615765e-30
-6.518504609400018046e-30
-6.855719586028108299e-30
-6.967328128110873038e-30
-6.782043135722946143e-30
-6.236066550064897355e-30
-5.422174128244073978e-30
-4.483445980920804326e-30
-3.679878646706464114e-30
-3.145403295792463936e-30
-2.686168546370027181e-30
-2.011214539386175251e-30
-1.412789347179733187e-30
-1.143884315346783594e-30
-7.714897457942492443e-31
-5.802945516154409394e-31
-3.965823236754768491e-31
-2.766352192704465036e-31
-1.938255578437637927e-31
-1.358791985221934587e-31
-9.598700128519895812e-32
-6.864555783657233672e-32
-5.005310370153616046e-32
-3.720635665164070152e-32
-2.814942958460684065e-32
-2.159846069962835240e-32
-1.669769423828334189e-32
-1.291320084280684809e-32
-9.918263832721294143e-33
