# bin_11_2
-3.996790438129416483e-25
-4.499090758146962228e-25
-4.976269547794452399e-25
-5.385217789669714485e-25
-5.670109379642421341e-25
-5.769686117624236352e-25
-5.626632818352862370e-25
-5.184255532125083698e-25
-4.516752246344505518e-25
-3.739054504306142042e-25
-3.066766596967567998e-25
-2.617549503409292835e-25
-2.240451264548538672e-25
-1.687008866790520329e-25
-1.180654673444541493e-25
-9.560229187121473103e-26
-6.474317087252229854e-26
-4.860697712696486498e-26
-3.313371047041492207e-26
-2.314921545407523231e-26
-1.620746073565674907e-26
-1.134945041730288851e-26
-8.004380224200458156e-27
-5.712496558183639632e-27
-4.155828580971272581e-27
-3.082452649263848124e-27
-2.327690769567914840e-27
-1.783574651083954958e-27
-1.377937307775809626e-27
-1.065651518130844869e-27
-8.190291287663652804e-28
