# bin_15_9
-1.285326091231611369e-12
-1.468711461949898382e-12
-1.655244515830146047e-12
-1.832795843041178361e-12
-1.985495254490008719e-12
-2.092732429117135490e-12
-2.131537866322879422e-12
-2.081189463458287158e-12
-1.919443409645823494e-12
-1.673875820813249104e-12
-1.385978147115551592e-12
-1.136383893254015837e-12
-9.700498181159012228e-13
-8.317433158000350766e-13
-6.265652436611439252e-13
-4.365536152924324082e-13
-3.543872962830015396e-13
-2.377834813973219201e-13
-1.783721009296870937e-13
-1.197581766195279985e-13
-8.206239890564573220e-14
-5.615948939601316116e-14
-3.811503519920151210e-14
-2.577924148006669909e-14
-1.747187632801945593e-14
-1.198710381605268713e-14
-8.351885835334749255e-15
-5.934214419027173414e-15
-4.312382959258183145e-15
-3.202792332406705462e-15
-2.421791511770473641e-15
