# bin_3_11
-5.561214528281227213e-21
-6.265852895348572316e-21
-6.938031967209514409e-21
-7.518353977511224946e-21
-7.929479734728004651e-21
-8.084317095563128875e-21
-7.905986599991538417e-21
-7.307547888822564010e-21
-6.386447297980629835e-21
-5.296908448967842782e-21
-4.340591378560963072e-21
-3.696081816926822034e-21
-3.173250630657433762e-21
-2.410677399207832698e-21
-1.679274250493368887e-21
-1.357690876880787205e-21
-9.272081893153640845e-22
-6.926612135551156662e-22
-4.707621314559206456e-22
-3.299710471742393223e-22
-2.306651183937991670e-22
-1.611996349958405774e-22
-1.134032240865593401e-22
-8.067573520482143462e-23
-5.848232221801701013e-23
-4.322722021430374161e-23
-3.254277092383614304e-23
-2.487959295386876995e-23
-1.919797901776644724e-23
-1.484549042763603817e-23
-1.142013832077056371e-23
