# bin_9_14
-1.462090182268131245e-11
-1.668349759821073763e-11
-1.876871734831756442e-11
-2.073712154464162586e-11
-2.240511613424618363e-11
-2.353664317868646165e-11
-2.388341017827994966e-11
-2.318960212038697374e-11
-2.125576473237516152e-11
-1.842297084968704491e-11
-1.520260279220554804e-11
-1.249203430694762254e-11
-1.071084599576068791e-11
-9.119144723512696702e-12
-6.751086805332178121e-12
-4.759583719133818799e-12
-3.860447933741041481e-12
-2.557471745425892158e-12
-1.926468446747647287e-12
-1.305285956951982377e-12
-8.892121545609500364e-13
-6.089975715034491308e-13
-4.139453188873971453e-13
-2.812201842329324797e-13
-1.918958926412226991e-13
-1.328006598366079304e-13
-9.346113174710772656e-14
-6.713817707247417706e-14
-4.931163587731591880e-14
-3.695971589802902642e-14
-2.813035450970348929e-14
