# bin_8_8
-1.481801273155946144e-08
-1.669734540867213985e-08
-1.849097462257514043e-08
-2.004082251533725064e-08
-2.114092298378777528e-08
-2.155868664933930592e-08
-2.109008825750501773e-08
-1.950116258392554402e-08
-1.704941642180611518e-08
-1.414423594764653127e-08
-1.158957255423801035e-08
-9.865774377646523932e-09
-8.472856277215155861e-09
-6.443724152187359432e-09
-4.486733694109719045e-09
-3.626129370812406396e-09
-2.479537434853395213e-09
-1.850730135939427119e-09
-1.257526183356907005e-09
-8.818798782147867034e-10
-6.163260675955060546e-10
-4.305915510069837113e-10
-3.028268496871833567e-10
-2.153506737926435268e-10
-1.560405022898653903e-10
-1.152876869911289138e-10
-8.675854421377446925e-11
-6.630932209426522914e-11
-5.115815037659366391e-11
-3.955857883958602449e-11
-3.043400595884575878e-11
