# bin_12_12
-1.295179649711068832e-08
-1.478377126409708259e-08
-1.663854845832018970e-08
-1.839288697587796912e-08
-1.988477522156265985e-08
-2.090544097089579495e-08
-2.123211232077005076e-08
-2.064251075598899642e-08
-1.894815113085728340e-08
-1.644646307537723286e-08
-1.358165286025702617e-08
-1.115366097323726408e-08
-9.553888476071549110e-09
-8.148932151869375003e-09
-6.057106638819726081e-09
-4.256674348712087320e-09
-3.455691560553924399e-09
-2.293977292421307473e-09
-1.727809588370519836e-09
-1.167953186149583052e-09
-7.963485580900088858e-10
-5.453976036022293532e-10
-3.706256393753322855e-10
-2.515222848945258076e-10
-1.713517429593079479e-10
-1.183431489438471580e-10
-8.309288095525887001e-11
-5.954087999361075298e-11
-4.362723167798806177e-11
-3.263379955885456687e-11
-2.480361622855752643e-11
