# bin_3_10
-7.495136048830019372e-19
-8.413951763948405997e-19
-9.275550527913937564e-19
-9.996844242427044124e-19
-1.047175279646597920e-18
-1.059388300338547567e-18
-1.024319595971547507e-18
-9.350527849005315744e-19
-8.071325218155489421e-19
-6.649007465376459049e-19
-5.473518011012269503e-19
-4.701138751944840383e-19
-3.977497474160003422e-19
-2.919292350967168410e-19
-2.084035294596316847e-19
-1.679072617010548932e-19
-1.122414355120630661e-19
-8.452432020928006969e-20
-5.840387197064850402e-20
-4.059837586731890820e-20
-2.849707793276342423e-20
-2.004883989428077561e-20
-1.424653582454083951e-20
-1.026517910205411976e-20
-7.544721100970695890e-21
-5.650542339548566028e-21
-4.302412081697292619e-21
-3.315635198773254699e-21
-2.568459392409711815e-21
-1.985521256180147899e-21
-1.521151476647839531e-21
