# bin_6_3
-6.742024571116168555e-11
-7.410687567155469914e-11
-7.960872036319125914e-11
-8.307194012321758574e-11
-8.369156932613552936e-11
-8.046701232209951802e-11
-7.306030521358770755e-11
-6.273049209065942080e-11
-5.158198439240273988e-11
-4.258544088038387066e-11
-3.662852885034548621e-11
-3.069106315957534673e-11
-2.231621613383300555e-11
-1.621582064538069331e-11
-1.290899303743361517e-11
-8.774073214692748599e-12
-6.578051256369702834e-12
-4.646479623603954188e-12
-3.296896365971230864e-12
-2.367482881835821763e-12
-1.716581013873145385e-12
-1.263851876849168301e-12
-9.465036588964003334e-13
-7.220151072638679556e-13
-5.585952243043150867e-13
-4.359091699155234156e-13
-3.408857497803121533e-13
-2.652168685385476288e-13
-2.039819450640034807e-13
-1.542444892169572472e-13
-1.141840781314000531e-13
