# bin_8_11
-6.784766199290453321e-10
-7.695334731588388522e-10
-8.590117497033362783e-10
-9.401568559924475130e-10
-1.003915119768223122e-09
-1.038980651746650453e-09
-1.036401987099664303e-09
-9.818448837507349071e-10
-8.782632546265236607e-10
-7.425455252440487886e-10
-6.077376200269020420e-10
-5.073536357816733448e-10
-4.394721013918948839e-10
-3.569224622405830317e-10
-2.493881694301698757e-10
-1.903930933072970255e-10
-1.438281056939094282e-10
-9.893615799402574137e-11
-7.004954564193407869e-11
-4.962250661370157963e-11
-3.406149636172910698e-11
-2.332467417852317972e-11
-1.607098431081686508e-11
-1.116586987161035914e-11
-7.859822027444828311e-12
-5.636423194173390816e-12
-4.122252915767323630e-12
-3.076501145092238395e-12
-2.335433498453275124e-12
-1.793112952122616443e-12
-1.382309378180725779e-12
