# bin_12_15
-1.714323399631538785e-09
-1.963397966994856471e-09
-2.218996570934350662e-09
-2.465372120939522566e-09
-2.681942106650832590e-09
-2.841523336802314052e-09
-2.911710836990582605e-09
-2.867410850523468004e-09
-2.671404676030596670e-09
-2.352303925355610161e-09
-1.960753713517035956e-09
-1.604342397197431438e-09
-1.358544640232446164e-09
-1.173451006975037172e-09
-9.097347853866832955e-10
-6.279640045840665242e-10
-5.033930416227487117e-10
-3.509126116529616104e-10
-2.566459362785648782e-10
-1.716224825669928338e-10
-1.197541834411357481e-10
-8.150975143377367143e-11
-5.493946187649938776e-11
-3.691339672424066792e-11
-2.477659058895777243e-11
-1.676970605898355686e-11
-1.149537462160058209e-11
-8.017045261909362493e-12
-5.715157178383111392e-12
-4.170115860826432313e-12
-3.109162094279609504e-12
