# bin_13_3
-2.098041470850088729e-25
-2.378527456393345561e-25
-2.653576185915617281e-25
-2.902211193205933501e-25
-3.096331809160064964e-25
-3.200959073434258603e-25
-3.188745779564114131e-25
-3.015530962885435576e-25
-2.692938372031009843e-25
-2.273192801520594651e-25
-1.860143881847685408e-25
-1.555082967122942889e-25
-1.347014064654523330e-25
-1.089203197868431527e-25
-7.593919129503963062e-26
-5.830808136023192056e-26
-4.372128652379257742e-26
-3.026541734953549623e-26
-2.129745433867326167e-26
-1.511242691123412873e-26
-1.038590922498870893e-26
-7.118936332589031523e-27
-4.912765702157291508e-27
-3.419080549641890076e-27
-2.412022849895899019e-27
-1.733785201516329591e-27
-1.271036427591816955e-27
-9.506217174158326132e-28
-7.228010369732038872e-28
-5.554674671435069821e-28
-4.282827779378279611e-28
