# bin_15_6
-5.047343444007412389e-19
-5.755857158562888464e-19
-6.470155583830373135e-19
-7.141903868345303013e-19
-7.707278229998679452e-19
-8.084538099179291120e-19
-8.190065000525733993e-19
-7.932429359632288308e-19
-7.251715555826949247e-19
-6.268510714199516841e-19
-5.166068330493064410e-19
-4.250023987182122080e-19
-3.650400877411778322e-19
-3.096540589602379402e-19
-2.275586859797883262e-19
-1.615050420876404976e-19
-1.306090961254011320e-19
-8.634043162404096729e-20
-6.495606063347924369e-20
-4.421050087744307260e-20
-3.009109303771874850e-20
-2.060440509624279121e-20
-1.401147573378466370e-20
-9.538369299872385350e-21
-6.528856285070309605e-21
-4.535365573696889804e-21
-3.205597969467959687e-21
-2.313290844658051531e-21
-1.706363381258013827e-21
-1.283443529455993027e-21
-9.791246603753739497e-22
