# bin_1_6
-1.697730896686760103e-16
-1.849034252709005359e-16
-1.963751293743305898e-16
-2.020108091792059856e-16
-2.000292442530094464e-16
-1.878800151923425856e-16
-1.667608224327608706e-16
-1.401109746116806259e-16
-1.146709864448222834e-16
-9.623382768897633976e-17
-8.304650167386062433e-17
-6.616124651654370903e-17
-4.640466512535070448e-17
-3.611506544028943601e-17
-2.673348761366343284e-17
-1.911811844047426728e-17
-1.366538383433692634e-17
-9.911177942528130429e-18
-7.114577980879862692e-18
-5.157241858400627017e-18
-3.796892587132559697e-18
-2.843301546490145571e-18
-2.167743606483828823e-18
-1.678557700834888005e-18
-1.312708909431895006e-18
-1.030292565986045567e-18
-8.058513433686555672e-19
-6.239001930762282774e-19
-4.753737153221661008e-19
-3.547958099952289262e-19
-2.584702967703339361e-19
