# bin_7_8
-9.928153109054847184e-09
-1.115967414439706883e-08
-1.232172638133312585e-08
-1.330561855042501384e-08
-1.397171439437947575e-08
-1.417358089436355538e-08
-1.376013258272637576e-08
-1.261546700904265485e-08
-1.093714865313483833e-08
-9.029048377179703073e-09
-7.418570486601608551e-09
-6.354064392129178810e-09
-5.408038407896550034e-09
-4.016287502915869585e-09
-2.837290116919525578e-09
-2.295878885831905915e-09
-1.540184479641201570e-09
-1.161002351520301870e-09
-7.965215904754894785e-10
-5.544619638050296912e-10
-3.888723377705619305e-10
-2.730413852044747948e-10
-1.933343984193575245e-10
-1.386781047401687315e-10
-1.014455896395063749e-10
-7.564140800252051803e-11
-5.738089884972935051e-11
-4.410977026347659286e-11
-3.413255080244639480e-11
-2.639482374927146366e-11
-2.025392805756772234e-11
