# bin_6_11
1.199536831078947969e-07
1.333958671760992940e-07
1.453736789638865804e-07
1.544587133682183096e-07
1.589386729826359797e-07
1.573867747775002566e-07
1.478268593929579954e-07
1.312025037920445848e-07
1.102535558566239439e-07
9.028668599817859354e-08
7.582823325976848177e-08
6.541612133710662964e-08
5.202231968050362285e-08
3.647235492056025532e-08
2.833224651739127652e-08
2.084813647671361305e-08
1.482161819520502196e-08
1.049036127185557604e-08
7.501246660332975282e-09
5.289252254743465159e-09
3.750230622759850948e-09
2.690480581920954606e-09
1.958639142607521926e-09
1.451978853068417208e-09
1.096545549459516808e-09
8.406968718288821868e-10
6.512803676170767473e-10
5.064257220350624561e-10
3.924513697066431634e-10
3.010893014206902766e-10
2.274346288265635547e-10
