# bin_9_4
2.511847986285461812e-15
2.811388288329119659e-15
3.088064566576273756e-15
3.313291675239367949e-15
3.450988219792735494e-15
3.468709511112250098e-15
3.322477593957394827e-15
3.004108004782190951e-15
2.568052783450880590e-15
2.107587403200229297e-15
1.744580743580652966e-15
1.505640910134783967e-15
1.253007272636842834e-15
8.978323421357492056e-16
6.597669082394553700e-16
5.203370660313983860e-16
3.504280597052382385e-16
2.597001398269193163e-16
1.826242748467242441e-16
1.271644913991821853e-16
8.933272084889622017e-17
6.315961942300936649e-17
4.523756031315657702e-17
3.291659843550178727e-17
2.443179863258837099e-17
1.846156088319932481e-17
1.415770092114946452e-17
1.095880055138895810e-17
8.501113835793457526e-18
6.561647505467123202e-18
5.006863411750037331e-18
