# bin_12_1
1.878717051336353024e-34
2.121503121555505262e-34
2.355424035233534561e-34
2.560904697642788058e-34
2.712114729606566682e-34
2.778469559733068017e-34
2.735659536160740049e-34
2.548979740670882441e-34
2.244892383407682207e-34
1.872197248896579215e-34
1.532045162199251208e-34
1.296306118898826983e-34
1.118886420451082408e-34
8.694677338724137807e-35
6.020805419238027112e-35
4.810826002468731035e-35
3.384087821906680681e-35
2.472821120772311094e-35
1.681927496839407386e-35
1.190095954851374912e-35
8.271082268664036147e-36
5.739256232945086567e-36
4.010422967962854382e-36
2.829863411794097839e-36
2.031707624679800830e-36
1.487373478791353416e-36
1.109934469020275620e-36
8.427794858642607737e-37
6.476255378663017932e-37
5.002171042982144318e-37
3.854484100193929728e-37
