# bin_1_12
7.603274931775400558e-07
7.456158280335035768e-07
6.966512824142137486e-07
6.177242809211616871e-07
5.232927184195700235e-07
4.335624328754368805e-07
3.625763143546075685e-07
3.042685519146461302e-07
2.423718807243646924e-07
1.803845052811047329e-07
1.352342334650906010e-07
1.020718011280663740e-07
7.447958340408049397e-08
5.491652737880325815e-08
4.047743911948219959e-08
3.020050080229092627e-08
2.287074824408174451e-08
1.762829065499167262e-08
1.381479293069107594e-08
1.096304377236723526e-08
8.757458541581635692e-09
6.991026413878479011e-09
5.537810373727754077e-09
4.325100236563326481e-09
3.312615124361282750e-09
2.477987155374692018e-09
1.806073865182937094e-09
1.281685598833359757e-09
8.864786134137134195e-10
5.989263694214850579e-10
3.964410557175138064e-10
