# bin_3_13
3.539406360042614583e-07
3.781884753063762645e-07
3.922533083249876598e-07
3.923231735619259759e-07
3.740293608782066475e-07
3.372291238234149203e-07
2.879867977258683266e-07
2.371493091348799490e-07
1.969852384546243970e-07
1.686757533825562352e-07
1.385808040911722630e-07
1.012235404685145755e-07
7.511056415425257118e-08
5.798477922986252558e-08
4.098882486996543863e-08
3.020153271565764522e-08
2.170475462975683918e-08
1.573878028338101567e-08
1.152868516553523600e-08
8.565148201902148331e-09
6.473980866296891028e-09
4.976648905888345818e-09
3.881922865341348916e-09
3.054357922664457140e-09
2.407886442286966115e-09
1.888905810525706773e-09
1.464710316075534621e-09
1.116352828315538261e-09
8.324949632959644878e-10
6.054616596829239361e-10
4.288309514496193924e-10
