# bin_8_5
1.479837018969661183e-11
1.652639412284453391e-11
1.810362880916842648e-11
1.935866379106044829e-11
2.007703520398996173e-11
2.007948050192902464e-11
1.909909195024590031e-11
1.715265284365404326e-11
1.456372224815615722e-11
1.193111874646361774e-11
9.924374539746443459e-12
8.581362089033125237e-12
7.038098784880935121e-12
4.974201918032638970e-12
3.740262737782323875e-12
2.882569690344410509e-12
1.972930696363520718e-12
1.434042290976585310e-12
1.020174173638669396e-12
7.131016971259432232e-13
5.017593300956484448e-13
3.565001446375888572e-13
2.568804104405152032e-13
1.882475707362827341e-13
1.406781394176765557e-13
1.069333920315301266e-13
8.237052459177687012e-14
6.391257418464826147e-14
4.959266630533953713e-14
3.821283481901435268e-14
2.906072205232100454e-14
