# bin_14_11
1.033976137815868548e-10
1.180872458792225601e-10
1.329949006405978850e-10
1.471408631625772143e-10
1.592401828017781278e-10
1.676305739929735940e-10
1.704980006917966999e-10
1.661231995991910846e-10
1.528552422904100422e-10
1.329923434019766514e-10
1.099732000931631503e-10
9.023757894569766873e-11
7.716071820460350829e-11
6.599350901329235241e-11
4.938881327185714436e-11
3.455074839434650350e-11
2.805472491016304134e-11
1.871960429968025792e-11
1.407410758178575991e-11
9.479296491742218996e-12
6.478148628331511752e-12
4.434815011998442416e-12
3.011458359130877247e-12
2.039732488452009816e-12
1.385527123123512316e-12
9.533597770690539275e-13
6.665147799918211175e-13
4.753666786184379982e-13
3.467349723133442013e-13
2.583541138167994455e-13
1.958164392410801172e-13
