# bin_13_6
2.130973827647515974e-17
2.420300567311486255e-17
2.706456091063434129e-17
2.968465909823014980e-17
3.178242172431838772e-17
3.300475128730860464e-17
3.305553124334712155e-17
3.148874158703452911e-17
2.831375206128539254e-17
2.406322765642958102e-17
1.971393064032867845e-17
1.638842814428610465e-17
1.418504159706643488e-17
1.166731009762548985e-17
8.228141143806369552e-18
6.165458657818317361e-18
4.759717850170805351e-18
3.218275509413803886e-18
2.324602668610023889e-18
1.632676528734023991e-18
1.116752884367238870e-18
7.634634054951749212e-19
5.234614145715262902e-19
3.616697982957405667e-19
2.527465294849484939e-19
1.798177651551769897e-19
1.304421455546637606e-19
9.661662080463741116e-20
7.290588900173608704e-20
5.576638634101900493e-20
4.293688196740311342e-20
