# bin_11_11
8.006806262250710749e-09
9.098015552344306586e-09
1.017966687556380475e-08
1.117318674246476281e-08
1.197351197663136700e-08
1.244837372436499376e-08
1.248402688755806849e-08
1.191511184902985072e-08
1.073384916333330718e-08
9.140368960349616430e-09
7.492691138724548515e-09
6.220467356983877339e-09
5.380201363626176534e-09
4.442444972162286752e-09
3.147421454965500202e-09
2.342380078060441660e-09
1.820282012955116908e-09
1.225629735075327196e-09
8.909840640361705684e-10
6.232347598872211976e-10
4.258869880527952245e-10
2.912094812454063667e-10
1.994005749373295463e-10
1.375144087836201542e-10
9.586180032514903177e-11
6.801261100616861652e-11
4.919270881390397555e-11
3.633295037271764068e-11
2.735123725855379688e-11
2.088629715651033949e-11
1.606812525931825200e-11
