# bin_3_8
2.725969116861257085e-07
2.910727876496706410e-07
3.016423961847491645e-07
3.013824607290771965e-07
2.869334200525902713e-07
2.583354231635292819e-07
2.203247303252828690e-07
1.813529448927360175e-07
1.507550327383325599e-07
1.291273013250978052e-07
1.058261512376281476e-07
7.711634793500199263e-08
5.738354408496379682e-08
4.420642231663724202e-08
3.126110531444216317e-08
2.302419922874349946e-08
1.655987416953328069e-08
1.201140731682566094e-08
8.804474135352072689e-09
6.547024788471771863e-09
4.953183103320866503e-09
3.810999932345734157e-09
2.974801389628482057e-09
2.341669487932040862e-09
1.846339907071486639e-09
1.448200802928535010e-09
1.122525672755185794e-09
8.550095755150510358e-10
6.370797019107217062e-10
4.628964351802696060e-10
3.275248635786819012e-10
