# bin_15_6
7.682620285191418491e-21
8.759157608304999745e-21
9.843389958005090751e-21
1.086164741042281956e-20
1.171654599979142560e-20
1.228352880244788951e-20
1.243646199112388961e-20
1.203453294545474425e-20
1.099149855550296044e-20
9.492226918429344713e-21
7.819401188889233325e-21
6.435789087949614686e-21
5.531086913674990788e-21
4.685402378021491567e-21
3.434279172665631200e-21
2.443617820528523841e-21
1.973423291162406819e-21
1.304066884262482339e-21
9.802525419255826916e-22
6.682434418237436126e-22
4.547181806008283645e-22
3.112888135979021091e-22
2.116868134295413219e-22
1.441811993635729328e-22
9.877149174455035427e-23
6.868208459796144283e-23
4.859988031885704854e-23
3.511413359550171272e-23
2.593052017651786749e-23
1.952138388805529146e-23
1.490135746465096799e-23
