# bin_14_5
4.729815726786691180e-22
5.379501070244117881e-22
6.026365231464272067e-22
6.624319438005501100e-22
7.111858957850221187e-22
7.411249774180851618e-22
7.452613942149195610e-22
7.140025448675871774e-22
6.455523645250010908e-22
5.517444900346122465e-22
4.527037853932267753e-22
3.748254616284321924e-22
3.238628104639729728e-22
2.695427725652093920e-22
1.924200226786809164e-22
1.413949725751005599e-22
1.113548708055316636e-22
7.427656448928378154e-23
5.467466365230925679e-23
3.799033114563560078e-23
2.590909812490514711e-23
1.771156689039630635e-23
1.209418339191462343e-23
8.311044077856561151e-24
5.766221742673950693e-24
4.069328501064152595e-24
2.926727462590084253e-24
2.149902187667074505e-24
1.611157016785881310e-24
1.226581576496856026e-24
9.423837769969753808e-25
