# bin_9_15
7.867144545049548190e-08
8.898390065270539696e-08
9.899490330625749360e-08
1.078984586565165876e-07
1.146246072645171922e-07
1.178808613907458878e-07
1.166436983907554612e-07
1.093804538573826240e-07
9.691493242589701616e-08
8.125870675561050295e-08
6.649878474661244274e-08
5.597022901038346037e-08
4.837728388754432742e-08
3.825925321490405423e-08
2.658497346222149607e-08
2.086156031495722766e-08
1.510431881636690315e-08
1.076959566194271206e-08
7.439311262044921433e-09
5.270036423415814120e-09
3.643765845139786204e-09
2.514360623823752254e-09
1.747107446053938395e-09
1.225190736823606154e-09
8.727775610885971349e-10
6.338017007506636631e-10
4.693012347785750652e-10
3.540035895368439297e-10
2.707779959098710993e-10
2.086759610289698150e-10
1.608242225203289569e-10
