# bin_11_10
2.831485674959354389e-09
3.214997459641380002e-09
3.593812912787292564e-09
3.939990661926013337e-09
4.216116976807512870e-09
4.375236800459745013e-09
4.378356428576841737e-09
4.166238594943388508e-09
3.742345005103407075e-09
3.177395844481595371e-09
2.602733073878107668e-09
2.165528528533962916e-09
1.874470104151222935e-09
1.537783506282177139e-09
1.082890864806577252e-09
8.142881701230343307e-10
6.258833913932583755e-10
4.247357526803651030e-10
3.056092791583838867e-10
2.149238878979347156e-10
1.471103628617289599e-10
1.006167918429552825e-10
6.905256278442671216e-11
4.775866420223966541e-11
3.342010792164185620e-11
2.381187576857266861e-11
1.729963075378594053e-11
1.283150263071357065e-11
9.693051073230518898e-12
7.419130929499811078e-12
5.713229444516611204e-12
