# bin_7_13
1.101139678091389980e-07
1.233223302289243952e-07
1.355625433212273100e-07
1.455895577524115351e-07
1.518288561426421843e-07
1.528194795651410745e-07
1.467045463594301031e-07
1.329899560957391820e-07
1.140003598442087479e-07
9.371371983706404546e-08
7.750077582353617854e-08
6.673438911804951491e-08
5.569559493556165538e-08
4.027734250335813054e-08
2.939933051997520598e-08
2.320784612227678520e-08
1.570838200360407567e-08
1.163290092850732449e-08
8.135284351600085144e-09
5.672841922961710565e-09
3.984879783828526725e-09
2.814531182797049702e-09
2.011388613907078674e-09
1.459422367659029362e-09
1.080028039058037529e-09
8.138503161439372211e-10
6.226417529801474636e-10
4.811442880225979013e-10
3.729103034745655973e-10
2.878177319744294728e-10
2.197734523551185210e-10
