# bin_13_1
7.300821971200788851e-37
8.271497009170529591e-37
9.220565255087899674e-37
1.007456885002272414e-36
1.073523270397014627e-36
1.108089233897043818e-36
1.101760479395965817e-36
1.039317155155682621e-36
9.259779331375393266e-37
7.799478088171715699e-37
6.381046321118550913e-37
5.345273217324768956e-37
4.629384063596015215e-37
3.719666747704291998e-37
2.586709917178112703e-37
2.001616016493030468e-37
1.484922997231939403e-37
1.037278855689267896e-37
7.239988457295918434e-38
5.144502555239379395e-38
3.540881458583289186e-38
2.430167406268062561e-38
1.679993112440175246e-38
1.171328723012868611e-38
8.283340107976203370e-39
5.969571721166036384e-39
4.387665054077856380e-39
3.289176140819578520e-39
2.505193292755128370e-39
1.927013614938279286e-39
1.485930185482102354e-39
