# bin_1_15
7.865947839932007020e-07
7.716222743446749253e-07
7.212181156311585937e-07
6.397394127322447571e-07
5.420834118987190362e-07
4.491447577700049437e-07
3.755674542541869077e-07
3.152247877959202134e-07
2.512355431092570829e-07
1.870186082104096771e-07
1.401705935792532724e-07
1.058187049717965339e-07
7.720792487371052901e-08
5.691882486168439227e-08
4.194294639212942599e-08
3.128349695041471034e-08
2.368129604951783444e-08
1.824534421934553384e-08
1.429286817193947963e-08
1.133902718664545709e-08
9.056151128269131049e-09
7.229093702136561039e-09
5.726817542017150732e-09
4.473569249780142899e-09
3.427315116435196789e-09
2.564711070827393547e-09
1.870030256485379809e-09
1.327611158668850631e-09
9.185944011162026736e-10
6.208356611823348484e-10
4.110621093671726230e-10
