# bin_15_11
1.502690269001405033e-11
1.718530638710899352e-11
1.938819275853267092e-11
2.149494319810576157e-11
2.332191607921959553e-11
2.462911312340845365e-11
2.514133123912050152e-11
2.462639293774398811e-11
2.279680312903607931e-11
1.995205951682611646e-11
1.655839850539645376e-11
1.356373447279455813e-11
1.154533451832869529e-11
9.931348982738693774e-12
7.560443430648655654e-12
5.243185840736077188e-12
4.243549887540692564e-12
2.882169930447663671e-12
2.146787300743495259e-12
1.436095755700465997e-12
9.898817509023072513e-13
6.762606690845664572e-13
4.579839650602527366e-13
3.088657748818070887e-13
2.084415506525906789e-13
1.421937538697487057e-13
9.840431248356008087e-14
6.939057706042058445e-14
5.004197497020278459e-14
3.691166259315304181e-14
2.776408570835184974e-14
