# bin_13_14
1.338621997867591797e-08
1.529224915959472408e-08
1.722873368419750628e-08
1.906920688067765812e-08
2.064788281776964251e-08
2.174983338756932435e-08
2.213834512317901220e-08
2.159370419926720699e-08
1.989466102567075450e-08
1.733122827696540863e-08
1.434355296342664502e-08
1.176615919654708382e-08
1.005061816612276593e-08
8.604751627337480670e-09
6.464225689609094451e-09
4.515902976345250246e-09
3.661068224447695131e-09
2.455215877013783252e-09
1.840092925530415613e-09
1.237837523597952617e-09
8.479962432507981649e-10
5.800778745673737569e-10
3.935577322570583099e-10
2.662791954285404238e-10
1.805916300765247702e-10
1.240021267379285589e-10
8.647953590026366557e-11
6.151001973491862610e-11
4.474325222043509200e-11
3.325704091552536376e-11
2.515937739322979113e-11
