# bin_13_9
7.356162508069919791e-12
8.376080331437694045e-12
9.397062256621744012e-12
1.034796923465623661e-11
1.113424335348343036e-11
1.163578795995742055e-11
1.173833772686965330e-11
1.129856386419374609e-11
1.026285265608431968e-11
8.813462780953990590e-12
7.243306377978393536e-12
5.979488555186392927e-12
5.155317549685807570e-12
4.328186965493019177e-12
3.125916307888050016e-12
2.261389631453878119e-12
1.805437104668347845e-12
1.195738054912998452e-12
8.909598886040433838e-13
6.134757298380469077e-13
4.176195869117428695e-13
2.856179616732199863e-13
1.945203755657662475e-13
1.330719385268929965e-13
9.175192884171161375e-14
6.428957257838536686e-14
4.588017535105046378e-14
3.344188540167258274e-14
2.489315720838406863e-14
1.885744039288849914e-14
1.444935487370421817e-14
