# bin_11_8
5.505127843802493816e-11
6.237785792674576362e-11
6.954498738426626524e-11
7.599945888005506342e-11
8.100083238867514179e-11
8.363126455510990281e-11
8.318184940465206890e-11
7.850100385424791801e-11
6.996790763335258057e-11
5.895414980332897410e-11
4.823272574110045686e-11
4.038950003672036120e-11
3.498321274630281276e-11
2.814085521573830201e-11
1.957363241791398541e-11
1.512803851572910003e-11
1.124395232241107261e-11
7.841183862732169691e-12
5.479318356559337056e-12
3.893694724972415509e-12
2.679099977945870213e-12
1.837983320930896730e-12
1.270138150034975665e-12
8.852196940286498685e-13
6.256839547102687992e-13
4.506686043669364020e-13
3.310666874555786524e-13
2.480667763023713160e-13
1.888775324633902385e-13
1.452629337136182664e-13
1.120148511753538566e-13
