# bin_5_11
1.659027075536651730e-07
1.828356083965571794e-07
1.970517218348025098e-07
2.064795204837216821e-07
2.090209468375604111e-07
2.023929841480518030e-07
1.852477284813347423e-07
1.603556617970867739e-07
1.325043019470179206e-07
1.091051169562099558e-07
9.329160021053991631e-08
7.884513516701523242e-08
5.870174710091097295e-08
4.203892350404962866e-08
3.343167216480162786e-08
2.310043606664016003e-08
1.716461445601200712e-08
1.203940765927714776e-08
8.575060507641107496e-09
6.133499860783793089e-09
4.422348533885761580e-09
3.234392352076198894e-09
2.404606464326961912e-09
1.821447184732161114e-09
1.401120183786187428e-09
1.088998890683650798e-09
8.499743858806516396e-10
6.614441044599769243e-10
5.098226754961853534e-10
3.869824668055914114e-10
2.879750801172984247e-10
