# bin_7_8
3.106497262826027666e-08
3.472696939831546063e-08
3.808766150563930676e-08
4.079023858738373204e-08
4.238715223783633957e-08
4.248784967550713880e-08
4.054731816998825078e-08
3.653679458220838619e-08
3.113065360077596628e-08
2.553463211367013921e-08
2.119380821243841029e-08
1.829733242259644524e-08
1.510362170377548489e-08
1.076754609829846312e-08
8.002609545157037216e-09
6.227748859494815586e-09
4.239509527001685087e-09
3.107984336764125022e-09
2.195069147339477048e-09
1.532074731525031373e-09
1.077541070922114884e-09
7.637965602623789694e-10
5.485819545469904064e-10
4.004689262311700218e-10
2.981560526234731727e-10
2.258898983158208802e-10
1.735564177714284963e-10
1.344608748757418473e-10
1.042922768324958212e-10
8.041385992077645576e-11
6.125003681918848709e-11
