# bin_3_12
3.413750575728865710e-07
3.647346533946823093e-07
3.782640516313486379e-07
3.782883775985137684e-07
3.605945714546795961e-07
3.250658765062552416e-07
2.775602709874066671e-07
2.285533397400262236e-07
1.898625747032515404e-07
1.625833709844381154e-07
1.335387456748121606e-07
9.751282114686517024e-08
7.237797129453612177e-08
5.586032563746262926e-08
3.948525632655129975e-08
2.908962958439466084e-08
2.090447624767670465e-08
1.515609585874097483e-08
1.110020093449373229e-08
8.245488922485021348e-09
6.231328973671475880e-09
4.789374891019212704e-09
3.735350829594411535e-09
2.938735570341330332e-09
2.316588631658368148e-09
1.817239430973861621e-09
1.409153687285390860e-09
1.074058481926023429e-09
8.010158287378200186e-10
5.826259736833488487e-10
4.127039988842175864e-10
