# bin_4_14
2.651630545382489268e-07
2.886536265506200193e-07
3.063887130190191415e-07
3.150520841097502125e-07
3.116786482094533690e-07
2.927003789462272438e-07
2.598293850853412268e-07
2.186468326474878519e-07
1.793088162553182845e-07
1.504665268364923843e-07
1.292875090020290460e-07
1.029159487679847256e-07
7.304981812513218776e-08
5.625914457580759833e-08
4.182338659435445676e-08
2.982810306860363748e-08
2.150842948018733955e-08
1.548545377513860867e-08
1.111292781220094560e-08
8.058372077242583418e-09
5.928020738180558708e-09
4.434469636953278261e-09
3.376319001196749475e-09
2.610906042425298284e-09
2.039327246259417905e-09
1.598851042188059600e-09
1.249506984764865712e-09
9.668505764942180279e-10
7.364978444457103101e-10
5.497246739520017459e-10
4.006721089905498431e-10
