# bin_3_1
1.287725267960894873e-10
1.334810095261510487e-10
1.334629545193168708e-10
1.271776042372729398e-10
1.145857473916054959e-10
9.775598301253056627e-11
8.038827361739444989e-11
6.673058443738429844e-11
5.722838025079545643e-11
4.708097172538942603e-11
3.425995399341363812e-11
2.547818432773828778e-11
1.977904978364270948e-11
1.397579880774497406e-11
1.038505637035140905e-11
7.530789028988313833e-12
5.518354674161532977e-12
4.100012496504601146e-12
3.096239882440688398e-12
2.380690905228437946e-12
1.860124056041413639e-12
1.471076060114891929e-12
1.169408840141995790e-12
9.277072386959249593e-13
7.293768154496838024e-13
5.646745389875775517e-13
4.281752484991155475e-13
3.167258355973770786e-13
2.280037591587411788e-13
1.597048932077419502e-13
1.090157829645988328e-13
