# bin_9_3
2.810145935294609135e-18
3.139565975587150332e-18
3.440907734802767988e-18
3.681720983715687601e-18
3.821321844775375803e-18
3.825339099997396751e-18
3.643156591359674374e-18
3.275793250892091668e-18
2.784623059661461416e-18
2.281794605774277400e-18
1.896257743726597800e-18
1.639366057576557334e-18
1.348331217561054791e-18
9.548315530383335615e-19
7.150658673034716957e-19
5.535889501679208178e-19
3.775357725219852863e-19
2.754036942464752745e-19
1.955766698560847565e-19
1.365810867531233971e-19
9.604192693057529464e-20
6.815939529526915866e-20
4.904992855058081779e-20
3.589194720074262725e-20
2.678484797743519363e-20
2.033568144399369865e-20
1.565100208677556783e-20
1.213859189670790717e-20
9.418931130142772422e-21
7.260553732001922010e-21
5.525670936751988265e-21
