# bin_11_15
4.562712137683174094e-08
5.192163373775816521e-08
5.820491255781580642e-08
6.403377902448720160e-08
6.881826103126957951e-08
7.181070788596832828e-08
7.231991012682901541e-08
6.944486232044974265e-08
6.293872039762833639e-08
5.392823846179326517e-08
4.429735778545403003e-08
3.662998669733913716e-08
3.160057447430771515e-08
2.640111653984284666e-08
1.898240605581620011e-08
1.384219184136300017e-08
1.095548094169525036e-08
7.303247090294793570e-09
5.396439690132239393e-09
3.731129294489672142e-09
2.543905692204184237e-09
1.739753581968656500e-09
1.186937425204029107e-09
8.137535050334160369e-10
5.627108423904985475e-10
3.955855840262251000e-10
2.833129641602194631e-10
2.072254201699333845e-10
1.547034979288718597e-10
1.174269193858748319e-10
9.005352945803339269e-11
