# bin_6_11
1.195945287024310443e-07
1.329965740501531380e-07
1.449386767922272828e-07
1.539967128885435041e-07
1.584635062224610441e-07
1.569165252042693528e-07
1.473854786289735590e-07
1.308110634431730737e-07
1.099248814203998474e-07
9.001773936701907029e-08
7.560252174830866480e-08
6.522152558957299228e-08
5.186746309630891253e-08
3.636336045471480974e-08
2.824721620119488309e-08
2.078493304570658504e-08
1.477600591021970198e-08
1.045736081275219994e-08
7.477001755919863088e-09
5.271548242113789824e-09
3.737147654492361389e-09
2.680652951275677064e-09
1.951133354186645936e-09
1.446155572049040748e-09
1.091974520221338413e-09
8.370904444352951370e-10
6.484404931638556185e-10
5.042096533494500847e-10
3.907488696167900747e-10
2.998083948801155836e-10
2.264947510955063193e-10
