# bin_2_13
5.085541828963358903e-07
5.273036542790214775e-07
5.273075278325336530e-07
5.032474334551427934e-07
4.547802826340828992e-07
3.897579939018972726e-07
3.221961858905580973e-07
2.675565366835509588e-07
2.277169423821643532e-07
1.871194276659938525e-07
1.390701631985708301e-07
1.028346673928810559e-07
7.904789814753031724e-08
5.687988596749606407e-08
4.183821438387095348e-08
3.037079172471871357e-08
2.228423506177617586e-08
1.652398694648403033e-08
1.244909617749527963e-08
9.546442032131993214e-09
7.438796184670318337e-09
5.867806269434142241e-09
4.655139183894684150e-09
3.687914237033776029e-09
2.897567964407623586e-09
2.243549311691203229e-09
1.702863220022063309e-09
1.261966537731413774e-09
9.109372070431684950e-10
6.401667087077154766e-10
4.385169362039197604e-10
