# bin_3_11
3.279725909336031718e-07
3.503811486406173974e-07
3.633346210700926570e-07
3.633045571280786252e-07
3.462441739099558541e-07
3.120668608278668742e-07
2.664117915991325026e-07
2.193598933402673583e-07
1.822452844871302887e-07
1.560669744979676807e-07
1.281417399936999477e-07
9.354073815319926864e-08
6.945721641344432598e-08
5.359022507259223338e-08
3.788267417121430115e-08
2.790731125507943537e-08
2.005708617600359950e-08
1.454229035217965684e-08
1.065169244508087147e-08
7.913315579989088955e-09
5.981081571790210702e-09
4.597617620512790187e-09
3.586156127230624826e-09
2.821538334294228290e-09
2.224254268054771303e-09
1.744776341615352296e-09
1.352887161790834273e-09
1.031080250850845627e-09
7.688743004411912335e-10
5.591723123806210422e-10
3.960341602602252810e-10
