# bin_7_5
2.901576075334770864e-10
3.224915432505707481e-10
3.512014123673888573e-10
3.728147432616012269e-10
3.831497824955578109e-10
3.788817804477361745e-10
3.550812877443915719e-10
3.144614890390243059e-10
2.635685727551052933e-10
2.156430969699163610e-10
1.814439957781367459e-10
1.567481354920978285e-10
1.239792011231699256e-10
8.631433398092958817e-11
6.780202927639476587e-11
4.933463537010458081e-11
3.540228402511868546e-11
2.477208826087053045e-11
1.780725200183379603e-11
1.257867710702008215e-11
8.925532956806334423e-12
6.415431173395313768e-12
4.679594553836386594e-12
3.477257029265931137e-12
2.631902954231318639e-12
2.021742461119654908e-12
1.568592670127299148e-12
1.220820843870569576e-12
9.463325999908989473e-13
7.257935237309950758e-13
5.477862944329564549e-13
