# bin_2_14
5.183487774617340609e-07
5.374987110236629489e-07
5.375514281905011356e-07
5.130835439808216163e-07
4.637255384746514269e-07
3.974673115077665112e-07
3.285822233135308456e-07
2.728449526580084033e-07
2.322135927209767030e-07
1.908492714580082848e-07
1.418680851233803022e-07
1.048870247339334677e-07
8.063262728418872725e-08
5.802243210976164654e-08
4.267737282980185367e-08
3.097923222213555856e-08
2.272988934743505124e-08
1.685341135396061029e-08
1.269638825243670089e-08
9.735384584477786397e-09
7.585545535127364509e-09
5.983287382558199805e-09
4.746642052471558069e-09
3.760402972938819850e-09
2.954586362261273719e-09
2.287793985231022327e-09
1.736547024763536410e-09
1.287020325210273931e-09
9.290939573871563767e-10
6.529769632858454841e-10
4.473241196458870943e-10
