# bin_9_8
2.723815516686031682e-09
3.069944791737079168e-09
3.400620950261790341e-09
3.686858596453853753e-09
3.890840065374713601e-09
3.969690439566027203e-09
3.886069288766165759e-09
3.596384612688039624e-09
3.146820140765495996e-09
2.612348132455063087e-09
2.140366066865885235e-09
1.820683286469517394e-09
1.564213231099296393e-09
1.192665706243193497e-09
8.302700046190351339e-10
6.696413518507114567e-10
4.597959162508331108e-10
3.419959418113040805e-10
2.324787399298781977e-10
1.632210013716026013e-10
1.139424820276052604e-10
7.949793260658674773e-11
5.584106974148218835e-11
3.965374964357537031e-11
2.868510357071661147e-11
2.115862181008910617e-11
1.589891469607806696e-11
1.213728346899982343e-11
9.357170480837918932e-12
7.233752669461500207e-12
5.566437948411049340e-12
