# bin_3_3
3.154412547979224868e-08
2.775493377309050255e-08
2.378136350575547115e-08
1.988740063352295015e-08
1.630113150078692876e-08
1.315805080149068278e-08
1.048378846100469606e-08
8.226092493284496193e-09
6.329694695770248888e-09
4.788752858615626756e-09
3.608564264298951270e-09
2.730647644094731086e-09
2.067242475664369497e-09
1.574554553643559485e-09
1.211069256991423807e-09
9.395002554087421086e-10
7.343627453166026161e-10
5.765403159102870492e-10
4.527882995084235922e-10
3.541634483602768823e-10
2.747340219154614687e-10
2.105535194270456218e-10
1.589131516800120374e-10
1.178211591378733693e-10
8.566228530862697904e-11
6.101365723485931270e-11
4.256433007735434897e-11
2.909946448810215987e-11
1.952021824493683959e-11
1.287137945849321882e-11
8.360451043435734760e-12
