# bin_8_5
5.552275540164969433e-08
5.114775743550234827e-08
4.587478406280533854e-08
4.002936481167578450e-08
3.401158511784859771e-08
2.822951125430548092e-08
2.300298521403508397e-08
1.848457655741014161e-08
1.465748356444389163e-08
1.141555980828148555e-08
8.697145875163008996e-09
6.529140387852076995e-09
4.904279348771485566e-09
3.688634133438280341e-09
2.768520217401195403e-09
2.095994466399447997e-09
1.597981050403125459e-09
1.228993098224861584e-09
9.515785272153080512e-10
7.397861780243278367e-10
5.753131022753583922e-10
4.457172622794460348e-10
3.426445432151144811e-10
2.604196850234526995e-10
1.950880058487028961e-10
1.437091188521141194e-10
1.039196109458315120e-10
7.369533081790969541e-11
5.123666591852410890e-11
3.493728885861361408e-11
2.338848353598208171e-11
