# bin_12_10
8.282038363082721452e-08
7.904505802300779981e-08
7.362791678603727320e-08
6.680309232296616745e-08
5.896930832461557237e-08
5.065422141915041496e-08
4.243569648821292226e-08
3.482395603539485382e-08
2.813041169615862450e-08
2.242173123275303448e-08
1.758530231234322257e-08
1.349645467817148605e-08
1.014829958807655426e-08
7.574648232995275459e-09
5.662808851980178834e-09
4.214763064173565025e-09
3.142783982647791208e-09
2.360102376241862053e-09
1.783575583629755914e-09
1.357699958360966228e-09
1.039450110967739524e-09
7.981556900040407706e-10
6.125959743570056194e-10
4.682510337776708354e-10
3.551787275506109170e-10
2.664924543239936794e-10
1.972693096911208687e-10
1.437769099728056941e-10
1.030284224386068964e-10
7.252945659667249501e-11
5.014957790837977385e-11
