# bin_8_8
6.724607618377531541e-08
6.304181945049662517e-08
5.760633758750066721e-08
5.123444176464843071e-08
4.433904077499023119e-08
3.739566852297389069e-08
3.085433443310322574e-08
2.502808151666115331e-08
2.002901169420148936e-08
1.579658706297911628e-08
1.221518571300675024e-08
9.246865383786992112e-09
6.922857323165606836e-09
5.191141726742134246e-09
3.887574265133805069e-09
2.909811393278831135e-09
2.196484869204319903e-09
1.668462595772862480e-09
1.277724838248460005e-09
9.844298652130970282e-10
7.609861280350387646e-10
5.881103039177570698e-10
4.526331093554294505e-10
3.456265886658027878e-10
2.609506139868896203e-10
1.942599322666834909e-10
1.422780683603055751e-10
1.023663934356294703e-10
7.228694252927683557e-11
5.008916593070285536e-11
3.406981294514933079e-11
