# bin_13_5
6.205959604600653309e-08
5.761689523257372935e-08
5.208260790416283903e-08
4.578557453898671189e-08
3.915754601227232935e-08
3.266890874492973301e-08
2.672274078152076251e-08
2.154416642989509579e-08
1.715204679952369818e-08
1.342548937910583788e-08
1.026857778340801448e-08
7.709941595741181668e-09
5.780392756175363784e-09
4.344227026010084187e-09
3.250424097938274341e-09
2.450731510928701916e-09
1.860535507609463254e-09
1.425030764498748179e-09
1.099561110305856295e-09
8.528721822070373654e-10
6.626423548819234262e-10
5.136282506283931613e-10
3.955834897724492607e-10
3.015726732326383537e-10
2.268284339794681050e-10
1.678910283892093130e-10
1.220509741348245345e-10
8.703712476883140655e-11
6.085330826049061182e-11
4.172071979075990248e-11
2.807106001736803763e-11
