# bin_9_3
4.307542113613141507e-08
3.872735674676243198e-08
3.386609912295809065e-08
2.882588777347316162e-08
2.395808060204349122e-08
1.954504366468304036e-08
1.572752457816976490e-08
1.249390959387923425e-08
9.749082020200349252e-09
7.439085208154837330e-09
5.594733724737256545e-09
4.213979072052847372e-09
3.179398592742438456e-09
2.396862688950622671e-09
1.823950085861035626e-09
1.399257192203768052e-09
1.083438719804759132e-09
8.448852204002210737e-10
6.615090481208116333e-10
5.178885806141577609e-10
4.036437551688204716e-10
3.118888700037158783e-10
2.380126304479855814e-10
1.788305575010864693e-10
1.319705447667633034e-10
9.549359833871890031e-11
6.769234437423877535e-11
4.700218838521825253e-11
3.198779771586647057e-11
2.136572736742878938e-11
1.403206554493550659e-11
