# bin_10_8
7.200763951379085564e-08
6.789682537398668814e-08
6.242355070858656262e-08
5.586792635010769220e-08
4.864437302520441674e-08
4.125137539134381345e-08
3.418526855429625381e-08
2.782211120367893371e-08
2.232922802531045373e-08
1.767379694550740071e-08
1.372899197187477638e-08
1.043023017937765810e-08
7.810214519299616593e-09
5.847916649637495099e-09
4.378013581301654809e-09
3.267886473802500643e-09
2.458280127192419417e-09
1.860234420574671673e-09
1.419303190446283579e-09
1.089881397313212107e-09
8.404475015239864529e-10
6.486368873952349761e-10
4.991160095146248291e-10
3.814835461085517154e-10
2.886018339865714233e-10
2.154731875395686903e-10
1.583978768278890205e-10
1.144534309973598199e-10
8.120315363747802788e-11
5.654570921611013016e-11
3.865350098060681052e-11
