# bin_10_9
7.508169183186160880e-08
7.106478882462236791e-08
6.560483139368436354e-08
5.896890849788609274e-08
5.156734535095185777e-08
4.390767007027942794e-08
3.651040836263619732e-08
2.979125523670487956e-08
2.395858856759590514e-08
1.900719614307821043e-08
1.481196608764024545e-08
1.128944470291528278e-08
8.462447319655836541e-09
6.328981017949599785e-09
4.737160978059321817e-09
3.531797777033084895e-09
2.649469720223004115e-09
1.999959163632015415e-09
1.521488040934341490e-09
1.165204589677426696e-09
8.966079690486206201e-10
6.909824570641830032e-10
5.313589875185792016e-10
4.062035929077475480e-10
3.076059674381208026e-10
2.300518859904383992e-10
1.695076918596798761e-10
1.228292310973258441e-10
8.742875923572239887e-11
6.109586494714529002e-11
4.191773669426846996e-11
