# bin_10_7
-4.371955534598331259e-10
-4.940644281712594173e-10
-5.490366642695869358e-10
-5.975951676523662700e-10
-6.337533706354901159e-10
-6.503221185468431359e-10
-6.417349277913368322e-10
-5.995614037031395135e-10
-5.293822006572240144e-10
-4.423618550424064507e-10
-3.618779495260460990e-10
-3.055275281262608471e-10
-2.640693587713884209e-10
-2.067551515027272286e-10
-1.430412026905275194e-10
-1.136988785780484468e-10
-8.086675322357205035e-11
-5.857555561629280805e-11
-3.992961578380911167e-11
-2.834304544917678836e-11
-1.965982829426067929e-11
-1.360947071145186177e-11
-9.491676787367200318e-12
-6.682505703708329354e-12
-4.784294016132094632e-12
-3.492548856889108542e-12
-2.599340170255374612e-12
-1.969484183730182316e-12
-1.511389118934387143e-12
-1.166852928692244956e-12
-8.995183684757087017e-13
