# bin_1_10
-1.558634068950737701e-27
-1.745829901047942472e-27
-1.919422678888341510e-27
-2.061789581245857645e-27
-2.150625402243513154e-27
-2.165298093159357872e-27
-2.079045138094318965e-27
-1.884392623297013542e-27
-1.614863403104087074e-27
-1.326465939436781617e-27
-1.096332846897290146e-27
-9.451387414450604545e-28
-7.901091531159951599e-28
-5.695122989820281070e-28
-4.152513773702268373e-28
-3.296017314119946161e-28
-2.212892661805852715e-28
-1.648535665457031461e-28
-1.154079157941882014e-28
-8.030789171840284771e-29
-5.641168998582305365e-29
-3.983595781174803677e-29
-2.847950341263867264e-29
-2.067561871589514588e-29
-1.531172611218871157e-29
-1.154690349041031582e-29
-8.841030172343172646e-30
-6.837000302733744466e-30
-5.302398389581167712e-30
-4.094428104037984335e-30
-3.127330845073187821e-30
