# bin_15_3
-1.302707663543671614e-29
-1.483731646709651700e-29
-1.665182460858049289e-29
-1.834482956894255626e-29
-1.974936653604918883e-29
-2.065307734282497896e-29
-2.085116801760075707e-29
-2.009288481759563667e-29
-1.827233067538358830e-29
-1.571056967554014731e-29
-1.291786655777925648e-29
-1.065685500019977325e-29
-9.181975270707589156e-30
-7.724044792867457134e-30
-5.596011594527078290e-30
-4.033600701846190639e-30
-3.229031150576910201e-30
-2.137030342439375837e-30
-1.595858875991835310e-30
-1.096562241157569376e-30
-7.464796033311938773e-31
-5.107578087161889088e-31
-3.478358151603098681e-31
-2.378273398206232671e-31
-1.638369673294526987e-31
-1.146810476730757782e-31
-8.174837707581291438e-32
-5.951504447534733080e-32
-4.425372334090086401e-32
-3.349583448120558118e-32
-2.565307455824028391e-32
