# bin_2_12
-1.604821225899864870e-27
-1.813025193853562582e-27
-2.014022158666908295e-27
-2.191174660332873062e-27
-2.322471949436185233e-27
-2.381629874769215148e-27
-2.348081977592249488e-27
-2.191403793919222306e-27
-1.932934625030727018e-27
-1.613933365660346648e-27
-1.320454151220739151e-27
-1.115807929267757848e-27
-9.638821454399784864e-28
-7.524179810521864341e-28
-5.207436085432373178e-28
-4.147904250893986023e-28
-2.937158751676671912e-28
-2.135071348954678628e-28
-1.454213902885305297e-28
-1.030919915741453782e-28
-7.156963390841657900e-29
-4.959631488128794917e-29
-3.462013356894450429e-29
-2.439894320098446721e-29
-1.749033381859215928e-29
-1.278440871434589669e-29
-9.526306119467781956e-30
-7.224947745541969143e-30
-5.547878992606502674e-30
-4.284104893261078624e-30
-3.301995947725747195e-30
