# bin_2_6
-3.504028115810614187e-13
-3.833795977059368503e-13
-4.094872281477833332e-13
-4.242174579270753498e-13
-4.237649980515565915e-13
-4.026320202322068613e-13
-3.613156515245159140e-13
-3.066472450860033536e-13
-2.512726342313337169e-13
-2.090627872751289647e-13
-1.804968149140294715e-13
-1.477400788195299574e-13
-1.048870336839735358e-13
-7.902003073968035804e-14
-6.089413934347036559e-14
-4.219439885178162942e-14
-3.091133829326526076e-14
-2.221950554083090052e-14
-1.583418669511610301e-14
-1.141098253253614859e-14
-8.334903038282888099e-15
-6.190890348627337691e-15
-4.680598138239683623e-15
-3.599761816194463613e-15
-2.801990450351304134e-15
-2.194282324565760280e-15
-1.716992573941385594e-15
-1.333038238707352981e-15
-1.020653646527799402e-15
-7.668051636984471639e-16
-5.630726518491762562e-16
