# bin_14_2
-4.415913259649665802e-32
-5.017410417453076210e-32
-5.613424226885992015e-32
-6.160610671450510015e-32
-6.600980556780564092e-32
-6.861527684460840098e-32
-6.879824155578258658e-32
-6.564198918236523482e-32
-5.911422773593482710e-32
-5.031934427743653505e-32
-4.124138024554638725e-32
-3.424517275899906529e-32
-2.962706737008286290e-32
-2.445055714547572778e-32
-1.730209514254019151e-32
-1.289317812654456967e-32
-1.001079115420066683e-32
-6.742126275136688568e-33
-4.896822309054510630e-33
-3.429062912464220576e-33
-2.343750741853215960e-33
-1.602476762342704966e-33
-1.097649440897022305e-33
-7.574246684287032153e-34
-5.284034991937379815e-34
-3.752161531853805956e-34
-2.716372016956623120e-34
-2.008067627808285385e-34
-1.512835048218590598e-34
-1.155918210809103025e-34
-8.895595581892788337e-35
