# bin_13_5
-2.193286729108789654e-18
-2.489838888664577077e-18
-2.782455119609250995e-18
-3.049462521546842419e-18
-3.261819789862166748e-18
-3.383095851520267000e-18
-3.383419518904928098e-18
-3.216616323536995796e-18
-2.886820418341330645e-18
-2.448760513425372264e-18
-2.005349698764087802e-18
-1.669566874897801251e-18
-1.445628993335677587e-18
-1.183769181314465309e-18
-8.318017741179888890e-19
-6.275405169895610567e-19
-4.807849132717201326e-19
-3.269944861718715919e-19
-2.345082653311608865e-19
-1.652760722510091006e-19
-1.131957370226305813e-19
-7.742653879651289824e-20
-5.318571944579092964e-20
-3.682757114252820326e-20
-2.580935383131263686e-20
-1.841965177838742025e-20
-1.340522412413172565e-20
-9.959241586642456471e-21
-7.533463234850157613e-21
-5.771466069895883190e-21
-4.446274242161678796e-21
