# bin_14_3
-1.488976611051781703e-27
-1.692213550116284160e-27
-1.893835449528927042e-27
-2.079254632011387702e-27
-2.228964306750845822e-27
-2.318381974537435674e-27
-2.326234759580776140e-27
-2.221750238595623808e-27
-2.002730238740894339e-27
-1.706435194993804440e-27
-1.398913010353384353e-27
-1.160755386356645297e-27
-1.003968913199053845e-27
-8.303285710351767791e-28
-5.887420054413974417e-28
-4.372227776256097949e-28
-3.407161445564631364e-28
-2.288656269449288563e-28
-1.668012119926537406e-28
-1.165939135655166312e-28
-7.964756502115640238e-29
-5.445239488567161598e-29
-3.726956002943021738e-29
-2.569298253641116212e-29
-1.790154220379708654e-29
-1.269384146084572207e-29
-9.176044207596394503e-30
-6.773734098622980629e-30
-5.097255175719961397e-30
-3.891662217954650302e-30
-2.993946349914217967e-30
