# bin_2_7
-2.020886784154967243e-15
-2.228089973405833878e-15
-2.402540157434743215e-15
-2.519007345137966220e-15
-2.551622016821506521e-15
-2.472620059002490042e-15
-2.263419758491526816e-15
-1.959372030070548378e-15
-1.616981780181444687e-15
-1.329517304501791985e-15
-1.138419045957501067e-15
-9.658346861485691543e-16
-7.167829151923821235e-16
-5.100730990396024322e-16
-4.107912401494528430e-16
-2.794818656648759986e-16
-2.106120456216915530e-16
-1.469970778883861816e-16
-1.043850425296239939e-16
-7.479106116984708237e-17
-5.398202696580052445e-17
-3.950670722478045215e-17
-2.938869847482901065e-17
-2.228145547385992198e-17
-1.715546555633408721e-17
-1.334591940686443117e-17
-1.042537389692084474e-17
-8.118498633656558669e-18
-6.260658739486353677e-18
-4.753597403671072763e-18
-3.537747137830414682e-18
