# bin_3_3
-3.286708647515877545e-08
-3.516971489814632800e-08
-3.653561624834976937e-08
-3.662066006035838823e-08
-3.498417382705865604e-08
-3.158028148592643934e-08
-2.697246012413559603e-08
-2.216177555970075131e-08
-1.836913894692329612e-08
-1.579182336798065576e-08
-1.306183560315611124e-08
-9.457189057936089703e-09
-6.999376914574059356e-09
-5.472487102861833881e-09
-3.809347542546752295e-09
-2.832477895033863487e-09
-2.035023058942271177e-09
-1.471215035860731598e-09
-1.077405409232155255e-09
-8.002961009379551046e-10
-6.048972671601016918e-10
-4.650651549045931992e-10
-3.629554990174966527e-10
-2.857889327503802854e-10
-2.255073549534137663e-10
-1.770877314456625750e-10
-1.374652635309954663e-10
-1.048779305047684069e-10
-7.827609441010470351e-11
-5.695621911935474811e-11
-4.034132989344301205e-11
