# bin_6_14
-2.261043146910295947e-17
-2.573874600264714208e-17
-2.886657238184335560e-17
-3.177486049574298641e-17
-3.417219921773985206e-17
-3.568892805356235494e-17
-3.597772924322015419e-17
-3.459344950861923223e-17
-3.138894750144020900e-17
-2.692652009529143781e-17
-2.212019090123249474e-17
-1.827215520793288714e-17
-1.576250993574127078e-17
-1.320881786060111728e-17
-9.513130357200464028e-18
-6.906045614510503013e-18
-5.498579344308663149e-18
-3.645916977611006013e-18
-2.710497197834352562e-18
-1.870349960756781747e-18
-1.273848174759324364e-18
-8.712944443371792396e-19
-5.938776842334707486e-19
-4.068517324788215052e-19
-2.810636473375934712e-19
-1.973792240370503076e-19
-1.412039986110780553e-19
-1.031757966252280502e-19
-7.696737387370430650e-20
-5.840053892052233674e-20
-4.479061877530407894e-20
