# bin_14_14
-1.320010346664557034e-08
-1.512922113570873061e-08
-1.711394289521884998e-08
-1.903456721117714144e-08
-2.073401006331392820e-08
-2.200382708992007881e-08
-2.259179802053619456e-08
-2.230750519820721977e-08
-2.085073956798555822e-08
-1.841631447928516765e-08
-1.538857230597742946e-08
-1.258735994811009603e-08
-1.062984331229718089e-08
-9.194308632433047303e-09
-7.194970202771298743e-09
-4.963064609188403557e-09
-3.950565875951913933e-09
-2.795443624075317885e-09
-2.020054336299329356e-09
-1.356047024413878397e-09
-9.514934684917148789e-10
-6.461953128387397219e-10
-4.341883894726001782e-10
-2.911306729328272228e-10
-1.948686277606759219e-10
-1.313389883469986929e-10
-8.956312347708945797e-11
-6.207780409895757415e-11
-4.395895594612093895e-11
-3.186696550549625823e-11
-2.362765739543056870e-11
