# bin_2_8
-8.150793241028679755e-18
-9.044956692680301921e-18
-9.831312481269362442e-18
-1.041141239188804659e-17
-1.066899869779036057e-17
-1.050976600922864853e-17
-9.802486400013576313e-18
-8.641845453399769057e-18
-7.215769968298520358e-18
-5.904652985144198095e-18
-4.987310027185328702e-18
-4.301665921887122236e-18
-3.359006514769634635e-18
-2.336261031816692221e-18
-1.856700612418857430e-18
-1.325470577114403830e-18
-9.666566144557954963e-19
-6.710777803764017882e-19
-4.820865909714615111e-19
-3.419056243071109140e-19
-2.436278481649600909e-19
-1.758577103478746607e-19
-1.288445390017050824e-19
-9.620089152845436516e-20
-7.312382679827117218e-20
-5.635937245317827810e-20
-4.381808637268914614e-20
-3.412484004963868925e-20
-2.643287636925419388e-20
-2.023383439967537714e-20
-1.522729508098608651e-20
