# bin_14_4
-1.309883473874797633e-23
-1.489299672657631186e-23
-1.667646357437603528e-23
-1.832128919444281776e-23
-1.965656604589124160e-23
-2.046657193893597674e-23
-2.056069506787708793e-23
-1.967080903859708484e-23
-1.776087965962192345e-23
-1.515879505246283487e-23
-1.243261995332681619e-23
-1.030363925657439238e-23
-8.907192794155159231e-24
-7.392627607509448169e-24
-5.260851375689244113e-24
-3.884220737514089908e-24
-3.044893252817569781e-24
-2.037078292403720231e-24
-1.493036589206333543e-24
-1.040282952378498299e-24
-7.100129878589451684e-25
-4.854055512387385987e-25
-3.318261465966544191e-25
-2.283849663223665807e-25
-1.587829434754890590e-25
-1.123188404066521451e-25
-8.098368886985531472e-26
-5.963354944254286595e-26
-4.478176709201196076e-26
-3.414170814364435624e-26
-2.624932237769891936e-26
