# bin_10_4
-1.051871071082283513e-15
-1.182610596916034072e-15
-1.306104652344008686e-15
-1.410862531737061607e-15
-1.482105895900387976e-15
-1.504221629566650422e-15
-1.461345969673163989e-15
-1.340764063042265527e-15
-1.163246924524375526e-15
-9.606583450144136885e-16
-7.890628705588716862e-16
-6.755169655952081096e-16
-5.755028922817893940e-16
-4.282449693919148300e-16
-3.020201384746499249e-16
-2.445427064829819151e-16
-1.641678171380589187e-16
-1.237567679221801669e-16
-8.480792086071450671e-17
-5.905142495377174801e-17
-4.140944004268384598e-17
-2.906514237397284168e-17
-2.056818226670895477e-17
-1.474233332452637530e-17
-1.077566683541258874e-17
-8.028661564596490561e-18
-6.086582815386074243e-18
-4.676836799324796707e-18
-3.618280805970013253e-18
-2.798174791494787221e-18
-2.147739443815016866e-18
