# bin_1_12
-1.525686595261181396e-32
-1.723021195018094159e-32
-1.913233134832451763e-32
-2.080443323494073673e-32
-2.203686622423315196e-32
-2.258093182231438018e-32
-2.223961461781622255e-32
-2.072947306832637155e-32
-1.826271830098064079e-32
-1.523477652034204871e-32
-1.246630033602207785e-32
-1.054496053231964857e-32
-9.103327206044812978e-33
-7.081232201293844736e-33
-4.903041939341681431e-33
-3.914912404243428884e-33
-2.758061947189462336e-33
-2.013054679815301385e-33
-1.369771681789705586e-33
-9.697030268790403268e-34
-6.738559615475941105e-34
-4.675257253993439236e-34
-3.266850292104235139e-34
-2.305129432534641984e-34
-1.654867288164012862e-34
-1.211421562773908482e-34
-9.039542281646594226e-35
-6.863464872841507084e-35
-5.274061893497339890e-35
-4.073662767676118229e-35
-3.139142644982024322e-35
