# bin_4_12
-1.429713395310238544e-19
-1.617568074601324134e-19
-1.800098439939421048e-19
-1.962717971260774831e-19
-2.085989775831247125e-19
-2.146181424151194569e-19
-2.125209130074718552e-19
-1.994179482655222343e-19
-1.767933788794051683e-19
-1.482406213212774226e-19
-1.212510531288879721e-19
-1.020071011043836217e-19
-8.828391539994844713e-20
-6.995362282705753807e-20
-4.844175496254589313e-20
-3.808443784546363261e-20
-2.760680211918717437e-20
-1.967610146295921464e-20
-1.352472784375749808e-20
-9.624847141564075096e-21
-6.652879200948201151e-21
-4.586372226968443920e-21
-3.186913288839289511e-21
-2.234484551960420535e-21
-1.591472416292465153e-21
-1.155570429130633024e-21
-8.556355413106288302e-22
-6.455366897233260241e-22
-4.939515187811151145e-22
-3.808675486273555562e-22
-2.937179049802176934e-22
