# bin_8_9
-9.735618473573436727e-09
-1.099639128826028084e-08
-1.221238514994591392e-08
-1.328244043990707638e-08
-1.407286438890190083e-08
-1.442452830644839762e-08
-1.421239522898123268e-08
-1.325368298276591590e-08
-1.168182377243191652e-08
-9.747962679331852158e-09
-7.975751152762628400e-09
-6.743996783046739465e-09
-5.824068896264539405e-09
-4.536361823831272377e-09
-3.139449892715952494e-09
-2.505378948243588637e-09
-1.767994597586751259e-09
-1.288888586981727347e-09
-8.767614238604200699e-10
-6.211798834525502395e-10
-4.315179373507310595e-10
-2.992609563083545972e-10
-2.090342268825857363e-10
-1.474296459091301425e-10
-1.057831425040553791e-10
-7.739476158732048383e-11
-5.772252999157791400e-11
-4.381019536528799066e-11
-3.365732360447004795e-11
-2.599558946032907458e-11
-2.003452977437298349e-11
