# bin_15_15
-1.539711692252273647e-08
-1.767680765327065804e-08
-2.003466302179925864e-08
-2.233600441140092818e-08
-2.440107283422135659e-08
-2.598940107128507929e-08
-2.680289059020763414e-08
-2.661899943547326484e-08
-2.506209083999095216e-08
-2.228625037727001207e-08
-1.873187732359533443e-08
-1.532030654664687630e-08
-1.285992618634658028e-08
-1.114236901831276955e-08
-8.898541821361011551e-09
-6.153396300732104812e-09
-4.801609212841129578e-09
-3.515068281600906054e-09
-2.466427697402078216e-09
-1.686715340749857285e-09
-1.190905118440208423e-09
-8.053716557557677440e-10
-5.378080601665571267e-10
-3.589515834980609836e-10
-2.389088582422342641e-10
-1.595711185601703398e-10
-1.075828529816652613e-10
-7.353819499887809485e-11
-5.126905443550076108e-11
-3.658317010989370937e-11
-2.674091640940277070e-11
