# bin_6_12
-3.754138962610477612e-14
-4.256214446327298330e-14
-4.748645285543633812e-14
-5.193916867520417583e-14
-5.541760823902226721e-14
-5.729568118265190185e-14
-5.708417373208347568e-14
-5.399137104366011084e-14
-4.822198711031881241e-14
-4.071007612666448286e-14
-3.331245791746638519e-14
-2.784582567247136385e-14
-2.412142737243695468e-14
-1.951288533089875543e-14
-1.360400625833152589e-14
-1.044171004133526602e-14
-7.834734000413774386e-15
-5.420022732356632384e-15
-3.815286305984871139e-15
-2.707700079826167977e-15
-1.860627024041839848e-15
-1.275112213649649913e-15
-8.798393549038878817e-16
-6.122525499254063714e-16
-4.318460135016529143e-16
-3.103598303805289085e-16
-2.274851768626748918e-16
-1.701140933612448048e-16
-1.293332732782809253e-16
-9.938837230599039230e-17
-7.663369763001132730e-17
