# bin_2_9
-2.758917265605113024e-20
-3.078529254492836289e-20
-3.368915906145481709e-20
-3.597918863549314559e-20
-3.725455080946083725e-20
-3.718810171918200435e-20
-3.528001596964078647e-20
-3.160551250412192196e-20
-2.676886866345972956e-20
-2.191868006597866463e-20
-1.826729359250496022e-20
-1.580189835698915682e-20
-1.288437490025617887e-20
-9.066051319417923044e-21
-6.876332566640644234e-21
-5.249193552724190601e-21
-3.619778383242388369e-21
-2.610574838589424135e-21
-1.864452180226766056e-21
-1.305695805133506940e-21
-9.197828089180792672e-22
-6.550097915236729518e-22
-4.731893880177134423e-22
-3.477858036362015080e-22
-2.606240557040516716e-22
-1.985774270069909926e-22
-1.532273917765548899e-22
-1.189955857615426481e-22
-9.233537330412463156e-23
-7.109249175968686510e-23
-5.398899684969181211e-23
