# bin_9_1
-8.073047199322995492e-25
-8.995460537334560688e-25
-9.826800686499318995e-25
-1.047200911282487385e-24
-1.081368136796400440e-24
-1.075846555164408377e-24
-1.016130985000035102e-24
-9.064972162135609947e-25
-7.647221681243171157e-25
-6.258159562060948153e-25
-5.233427475050995678e-25
-4.527538440867437074e-25
-3.652746622170088942e-25
-2.555937671015015221e-25
-1.965675272355457596e-25
-1.474997789211879543e-25
-1.031632232395368078e-25
-7.346272134365641587e-26
-5.269576147712649586e-26
-3.701939503386820071e-26
-2.613804971566673805e-26
-1.867995417321873766e-26
-1.354533785975952077e-26
-9.998259441250964970e-27
-7.522208740922967159e-27
-5.750328623548044296e-27
-4.447299561231047250e-27
-3.457295640820549002e-27
-2.682087952085962669e-27
-2.062221357481945506e-27
-1.562522059848686929e-27
