# bin_14_2
4.998701362199094398e-34
5.678634187081285750e-34
6.351879694401145048e-34
6.969314813796725594e-34
7.465231164589845562e-34
7.756965296440827761e-34
7.774222247480699997e-34
7.413137734806917866e-34
6.671671822992285382e-34
5.675058302537203485e-34
4.649127527843803150e-34
3.860487909625812677e-34
3.340059412004384377e-34
2.754149995430787262e-34
1.946781598073919426e-34
1.452152806647399190e-34
1.126075813944996057e-34
7.588135638938406188e-35
5.504247726063313068e-35
3.855957318832782871e-35
2.635325663974988472e-35
1.801408962544650800e-35
1.233814431045371614e-35
8.513469165553514461e-36
5.939271355766325685e-36
4.217561324812917701e-36
3.053442452534094277e-36
2.257378554240076390e-36
1.700741080499890243e-36
1.299520352242522158e-36
1.000060303541708791e-36
