# bin_9_7
3.904978772447147971e-10
4.394067315694950765e-10
4.857890736183861233e-10
5.254188899832569845e-10
5.528342599629688776e-10
5.621010028124840425e-10
5.475560674009084433e-10
5.038764424639437600e-10
4.384320599821609504e-10
3.626180229777621151e-10
2.974331860455672519e-10
2.540037315349908650e-10
2.171590304518230064e-10
1.630435299435552586e-10
1.142764088420067000e-10
9.250867627272273769e-11
6.252992269113968086e-11
4.696646968814667119e-11
3.204519187410608207e-11
2.237215150696789867e-11
1.566299272719537818e-11
1.096989673660405603e-11
7.739798911554773663e-12
5.526833003623298170e-12
4.023390137865711941e-12
2.986106505892481764e-12
2.256167301747092013e-12
1.729409063458372006e-12
1.336288878930382922e-12
1.033357254863185641e-12
7.939813429751151187e-13
