# bin_10_7
3.430543469153516378e-11
3.872136717782966998e-11
4.296768247365378491e-11
4.668534732960694774e-11
4.940173789392929269e-11
5.056128350467272916e-11
4.971764329545038109e-11
4.625105992784239835e-11
4.066898898881372456e-11
3.387109329474162204e-11
2.771173711044547356e-11
2.346918818482421556e-11
2.024371612860879987e-11
1.566932174400878608e-11
1.084962145942830115e-11
8.692610542449147179e-12
6.080088677806383336e-12
4.461968614782739223e-12
3.030202230607689032e-12
2.141194939906074643e-12
1.489508467388850579e-12
1.034753877465649129e-12
7.238015956780155502e-13
5.113530219490240464e-13
3.676835745059173039e-13
2.695917221553802496e-13
2.014727721343530132e-13
1.531593547050688353e-13
1.177827280713269275e-13
9.099849611508037601e-14
7.010593141553833622e-14
