# bin_8_15
1.007728278488978818e-07
1.134781346340545083e-07
1.255688455907061375e-07
1.359633230355610024e-07
1.432573808392751303e-07
1.459038074003870698e-07
1.424643022802780221e-07
1.314915102277354683e-07
1.147434666116585519e-07
9.512349107179500745e-08
7.800254454919243347e-08
6.643949407258604723e-08
5.687753033536333007e-08
4.309838350270083207e-08
3.018249479280509447e-08
2.426043387732083961e-08
1.664106067850928627e-08
1.235389239640758248e-08
8.446254466739125528e-09
5.922327773175821773e-09
4.135346645654208088e-09
2.887759095705107949e-09
2.032314420115120203e-09
1.446942889246407878e-09
1.049590504437449321e-09
7.762437129434567419e-10
5.845929362058503410e-10
4.469494901380774288e-10
3.447784754691981975e-10
2.664506174069167510e-10
2.048043022608310061e-10
