# bin_13_11
5.880967383257155310e-10
6.706017477057550967e-10
7.537570057970222146e-10
8.319279194428651949e-10
8.976766549563788731e-10
9.414799961983582856e-10
9.536050865302896163e-10
9.234157128586938240e-10
8.439643323402232043e-10
7.293149190666490333e-10
6.008524625538987863e-10
4.941725994255856844e-10
4.243843182661234520e-10
3.599720294250780359e-10
2.645051940807761037e-10
1.876690634338627633e-10
1.517295483042555374e-10
1.003159730061387311e-10
7.543692708957234156e-11
5.132894349264275149e-11
3.493758091687507940e-11
2.391565763808653664e-11
1.625895965945048945e-11
1.106450032780164876e-11
7.570076800333689992e-12
5.255973933639868897e-12
3.712847203708644764e-12
2.677795690392349794e-12
1.974160314769337214e-12
1.484181811027110487e-12
1.131884532284577380e-12
