# bin_9_13
6.090919811704157989e-08
6.887291103775787547e-08
7.659368639490067318e-08
8.344586055677171007e-08
8.859978782639191324e-08
9.105641014875282582e-08
9.002532116510895624e-08
8.432877009879861093e-08
7.463693430562212078e-08
6.251361092259827971e-08
5.113984706288175487e-08
4.306335610639347341e-08
3.721451913568106102e-08
2.936311854153189418e-08
2.038384593286154772e-08
1.603072002601036663e-08
1.156523541947822433e-08
8.268107405163328693e-09
5.699251886106434060e-09
4.037345161004981295e-09
2.792874918957963039e-09
1.928157320169059321e-09
1.340625207094937878e-09
9.408065291746307384e-10
6.708189471627515171e-10
4.876256618962941860e-10
3.614162228731222054e-10
2.728522689152351106e-10
2.088295960602538169e-10
1.609828367867301930e-10
1.240660642522143162e-10
