# bin_12_11
2.525734727356544487e-09
2.875304868791374321e-09
3.224914980681314795e-09
3.550100290096924292e-09
3.818342894533051625e-09
3.988378084646283387e-09
4.021253320085693687e-09
3.867608977436688931e-09
3.510252050916568421e-09
3.011875023905591464e-09
2.474024897710646148e-09
2.042539383865336823e-09
1.761182699329524768e-09
1.476964091559756637e-09
1.065173801768541230e-09
7.717160758467637915e-10
6.150479737674812796e-10
4.077117345432075560e-10
3.032722934132286495e-10
2.090039455511513709e-10
1.423131515875189765e-10
9.732868914956809789e-11
6.631293749057494348e-11
4.539272073459933779e-11
3.132341812338907501e-11
2.196915506865066547e-11
1.569488836008012537e-11
1.145199655179288379e-11
8.532251145763173609e-12
6.467607617629065441e-12
4.957246523663529090e-12
