# bin_3_5
1.613782656641756724e-07
1.719379961179668604e-07
1.776981229968847487e-07
1.769519362125939817e-07
1.677224751846215516e-07
1.503083931677687929e-07
1.276352955178776934e-07
1.048858939550740901e-07
8.737937438690602672e-08
7.490362275566336975e-08
6.090956728383588185e-08
4.405021932257475101e-08
3.306353682218752717e-08
2.529887645134129148e-08
1.791229029074933489e-08
1.317229293376493472e-08
9.497496639118855215e-09
6.894349597372790991e-09
5.064134962031689314e-09
3.775842523935071177e-09
2.864671996168196252e-09
2.210025260632918121e-09
1.728759511255313605e-09
1.362596121874260897e-09
1.074822229005723552e-09
8.426560773534513209e-10
6.523196131175145822e-10
4.958743552245327257e-10
3.685377037621940208e-10
2.669839642428115074e-10
1.883156415648876500e-10
