# bin_1_10
7.338495924559279502e-07
7.192260216728365795e-07
6.715255951611549407e-07
5.950078003943318930e-07
5.037245693080716177e-07
4.172092395959362312e-07
3.488822948156535476e-07
2.926932208222006310e-07
2.329660114788226263e-07
1.732957296645224025e-07
1.299372655201548754e-07
9.803899351251231597e-08
7.152804755063494526e-08
5.274074575130892375e-08
3.887597083043838121e-08
2.900980819204025084e-08
2.197334700985598841e-08
1.694005847766539416e-08
1.327774850786086354e-08
1.053804466189188264e-08
8.418247367092138817e-09
6.719904592332539625e-09
5.322381402393407822e-09
4.156063772548436203e-09
3.182393606373683168e-09
2.379935586088063072e-09
1.734121591521468926e-09
1.230286278780175022e-09
8.507135985824286982e-10
5.746365160068942637e-10
3.802939602481861313e-10
