# bin_11_5
2.093307694270065683e-16
2.362920590099631099e-16
2.622248896710563485e-16
2.849400833638060305e-16
3.015545245234484004e-16
3.086725565128510448e-16
3.035798957775184795e-16
2.824716419610443455e-16
2.484298623953213635e-16
2.069276450496746175e-16
1.692872316112197696e-16
1.433485157740086496e-16
1.236742547780777922e-16
9.578071741985516538e-17
6.629630225560175818e-17
5.311447768450145996e-17
3.716926848627093507e-17
2.727091921217988399e-17
1.851316604688409811e-17
1.308556768887781587e-17
9.102062042287209639e-18
6.322433319541897422e-18
4.421833721477495915e-18
3.123319788662138602e-18
2.245285208255967833e-18
1.645912805378391822e-18
1.229787368253443520e-18
9.347471556017543856e-19
7.187866219761346233e-19
5.553330146286209433e-19
4.278633645373159732e-19
