# bin_4_5
6.859244563719355368e-08
7.437630616482847102e-08
7.855972231355797250e-08
8.030026509061580257e-08
7.882655483533614204e-08
7.330820388967593978e-08
6.445455518775430665e-08
5.380145593067224544e-08
4.410234752235305063e-08
3.725631146419433369e-08
3.192296184177822437e-08
2.483284274953895277e-08
1.753820702224684498e-08
1.378292608900355491e-08
9.960941471119445720e-09
7.248454512000143150e-09
5.162575662601796398e-09
3.735235557726850279e-09
2.694719090377591670e-09
1.964413073081872788e-09
1.454778944100901379e-09
1.095870920019162285e-09
8.401500393108476160e-10
6.532506792298610624e-10
5.120869158443547904e-10
4.020836190947182008e-10
3.140129908398043359e-10
2.423345434311747416e-10
1.837935964835218880e-10
1.363915081667600493e-10
9.872957936861269700e-11
