# bin_2_7
4.002533386318223491e-07
4.144834314145347959e-07
4.138366207202389705e-07
3.941627744099691159e-07
3.554374349033983521e-07
3.040121077252540680e-07
2.510736573541486198e-07
2.086139430090492462e-07
1.775836376665404607e-07
1.455037181660834276e-07
1.078133823556022024e-07
7.989888663166919860e-08
6.133374480909585987e-08
4.410419649497166882e-08
3.245598411055074114e-08
2.356981882969634029e-08
1.730559793061920421e-08
1.284657123571552286e-08
9.690980959350352307e-09
7.441023718980683572e-09
5.804828930523301021e-09
4.582720856369135964e-09
3.637170092880979033e-09
2.881456026195738037e-09
2.263021818213009203e-09
1.750880875214601801e-09
1.327503242679218540e-09
9.825240345672469367e-10
7.082271471707497572e-10
4.970119596785592346e-10
3.400117321535640018e-10
