# bin_15_8
5.442371136190809118e-16
6.211813711638090752e-16
6.990666096765099911e-16
7.727121385432280165e-16
8.353096361119573538e-16
8.780880608790806492e-16
8.916902464095503278e-16
8.667930556640787609e-16
7.954812202025230156e-16
6.902742409049516469e-16
5.698459733599192432e-16
4.678214221182083981e-16
4.006532121324784071e-16
3.417544577651116638e-16
2.540100439779376132e-16
1.784169279712324309e-16
1.448461992471088553e-16
9.614201556731585508e-17
7.240166402459943590e-17
4.892263333040371553e-17
3.335843553567424073e-17
2.283902473372990080e-17
1.551527428806028460e-17
1.052524543764452074e-17
7.166912914408714834e-18
4.946996436659043123e-18
3.471291509234450900e-18
2.485759187404212802e-18
1.820256493174741462e-18
1.360863018026171157e-18
1.033945090531517834e-18
