# bin_9_1
1.277052928809464825e-26
1.422450401290460505e-26
1.553225565999108949e-26
1.654311175667437273e-26
1.707143193625438270e-26
1.697028392048114188e-26
1.601109725848218560e-26
1.426812603429001566e-26
1.202350899265314927e-26
9.835293645092892092e-27
8.228447623217805767e-27
7.118176392661931480e-27
5.730472814113801369e-27
4.004538571102935175e-27
3.087067339874665054e-27
2.308659485858376913e-27
1.618625536772802862e-27
1.149809615588393864e-27
8.250589475340898709e-28
5.797923909461874629e-28
4.094337767945276787e-28
2.926928074904083491e-28
2.122988076585573900e-28
1.567620811299752025e-28
1.179798543125500518e-28
9.021333540419599464e-29
6.978221328371817680e-29
5.424946216922431158e-29
4.208077934080315614e-29
3.234784094624384655e-29
2.450158186891441558e-29
