# bin_1_5
5.803350894893008575e-07
5.674132409946094037e-07
5.283110185529452628e-07
4.668459588543462596e-07
3.944608950036535349e-07
3.266556239892244666e-07
2.734040278346461455e-07
2.290901546803757190e-07
1.815844623942011149e-07
1.348485833629727173e-07
1.013014387862715705e-07
7.629388633071286205e-08
5.566208652178353856e-08
4.106194151378939883e-08
3.029010470614572749e-08
2.262862537236743611e-08
1.716497072850500863e-08
1.325307572452355160e-08
1.040173280587516474e-08
8.263621072184411176e-09
6.604717741043671750e-09
5.272233678346560622e-09
4.173745587699273212e-09
3.256139783454038376e-09
2.490129206940856096e-09
1.859395791512286619e-09
1.352601942037670952e-09
9.580330986779027566e-10
6.614398581974670903e-10
4.461814224388896359e-10
2.949452246973138597e-10
