# bin_15_10
1.202368283412269581e-12
1.374173361171235636e-12
1.549066020590243518e-12
1.715720021134807644e-12
1.859331801527942889e-12
1.960646646934263285e-12
1.998021113702081483e-12
1.952358641294669648e-12
1.802193922002046905e-12
1.572871694786631902e-12
1.302758077641279879e-12
1.067474311896034116e-12
9.103090781721137101e-13
7.813459190612516103e-13
5.903669053734422675e-13
4.105100923707747666e-13
3.330142639286615301e-13
2.241748732987872075e-13
1.678292357793151535e-13
1.124969895240382479e-13
7.722038567809915255e-14
5.280930654045419422e-14
3.581315260148330590e-14
2.419561117500059570e-14
1.637285354379790885e-14
1.121042286213335907e-14
7.792394945561404984e-15
5.522316836622460427e-15
4.002703174932559847e-15
2.965989135755811242e-15
2.238850620029866639e-15
