# bin_6_15
1.623578294822156373e-07
1.805907657258494524e-07
1.968592832656351144e-07
2.092336816120334369e-07
2.153943811080187587e-07
2.134099691497897794e-07
2.005916595780097057e-07
1.781451507736084517e-07
1.497710013896265549e-07
1.226120995977717194e-07
1.028802903066152714e-07
8.876395226688958429e-08
7.074968191950903266e-08
4.962177165060970829e-08
3.844333456130352445e-08
2.838553391934969230e-08
2.012094508702035433e-08
1.426732834208067299e-08
1.019520190618204297e-08
7.183524070755607321e-09
5.090078914488458781e-09
3.648718764515894583e-09
2.653859825672757284e-09
1.965432420244022345e-09
1.482999223586336037e-09
1.136160308627087463e-09
8.797369779445974115e-10
6.839192966528721082e-10
5.300231058086533934e-10
4.067503969640461883e-10
3.073960196936214997e-10
