# bin_8_5
1.484105498606430295e-11
1.657239129770063962e-11
1.815185117904048317e-11
1.940748233338622579e-11
2.012423474864899846e-11
2.012262110195646791e-11
1.913513840483412698e-11
1.717957589720917001e-11
1.458107987492614205e-11
1.194092813078148662e-11
9.930283837884966308e-12
8.586172205693763667e-12
7.041154102577406422e-12
4.974275322961962894e-12
3.739803212771419966e-12
2.882072280778088978e-12
1.972057114087057005e-12
1.433293805602024574e-12
1.019509418333890016e-12
7.125557846519318649e-13
5.013329180081996476e-13
3.561664905403392252e-13
2.566228941400499652e-13
1.880467625514918826e-13
1.405212113909738094e-13
1.068094348127546207e-13
8.227165441436740814e-14
6.383341606296169753e-14
4.952936156193612298e-14
3.816264473690908396e-14
2.902151175405894790e-14
