# bin_12_2
2.094985938081281533e-29
2.366206808006115398e-29
2.627765428906953195e-29
2.857894113424793131e-29
3.027832469166644797e-29
3.103349232565772714e-29
3.057565311284351306e-29
2.851145775999510999e-29
2.512689894468800963e-29
2.096320334261889524e-29
1.714630616312322875e-29
1.449335946061018376e-29
1.251663063448966427e-29
9.753095762002161063e-30
6.747635913117300563e-30
5.381280568711521034e-30
3.800512188063623695e-30
2.767653036772268602e-30
1.883243122954025705e-30
1.334074490942830462e-30
9.263506262462065149e-31
6.421015939706710768e-31
4.482752125612022424e-31
3.159770482850903031e-31
2.265685366549687266e-31
1.656563408439831405e-31
1.234738221829066182e-31
9.366676512563699447e-32
7.193480230994494876e-32
5.555027500939090901e-32
4.281245464872790821e-32
