# bin_11_12
1.700263185909698436e-08
1.933032779743948920e-08
2.164381479733729797e-08
2.377687813790266069e-08
2.550772254664056070e-08
2.655649466574180231e-08
2.667537386543006819e-08
2.551901245655120749e-08
2.303992544306537442e-08
1.966305421852683023e-08
1.612479028397088230e-08
1.335992211253722764e-08
1.154397820615015602e-08
9.580642507422180883e-09
6.824945879250083372e-09
5.033674931931082804e-09
3.945347013986105148e-09
2.641311572372483880e-09
1.935239889555871173e-09
1.346934389741297748e-09
9.191866070962954752e-10
6.284750663253030115e-10
4.295603335647105877e-10
2.954916201656725510e-10
2.052873592250180487e-10
1.450950113049048394e-10
1.045223928497244791e-10
7.689622172329282509e-11
5.769624257407762092e-11
4.395645475966990260e-11
3.377779373124926282e-11
