# bin_13_2
9.170490025136679125e-32
1.039018776842320988e-31
1.158300613878079746e-31
1.265674423141754770e-31
1.348805679060470450e-31
1.392411342297525339e-31
1.384694594158571632e-31
1.306498375787751098e-31
1.164168994190475424e-31
9.805987187702883855e-32
8.019884330615983341e-32
6.714118499589920743e-32
5.815166336901140870e-32
4.677615735158979164e-32
3.252566468925349732e-32
2.513169725758611657e-32
1.868100979705739416e-32
1.302372433542976840e-32
9.102016124565385145e-33
6.466634687932124233e-33
4.449440941112718718e-33
3.052787101955596947e-33
2.109815896980127887e-33
1.470596162166449519e-33
1.039589565270454794e-33
7.489318744574068734e-34
5.502732300162895626e-34
4.123797548798219107e-34
3.140177344663150318e-34
2.415161388655642966e-34
1.862327279487732345e-34
