# bin_5_11
-6.849039751719449803e-19
-7.731300108693611427e-19
-8.579945147785255595e-19
-9.323324310510209771e-19
-9.867073257303145245e-19
-1.010014443735168728e-18
-9.933450797195526232e-19
-9.242859757297197901e-19
-8.129607864607645302e-19
-6.772775280560940081e-19
-5.542857335963117761e-19
-4.695292903043268685e-19
-4.050354320910517479e-19
-3.135169227591178373e-19
-2.171275338242329453e-19
-1.740369860746145172e-19
-1.216856605065675295e-19
-8.936444569640646795e-20
-6.067106323885963554e-20
-4.287249099661557256e-20
-2.983020212010500190e-20
-2.072763604651318938e-20
-1.450069692934364718e-20
-1.024568958905070880e-20
-7.368005792713450413e-21
-5.402968327334312124e-21
-4.038215345208864396e-21
-3.070142450569178660e-21
-2.361188985441233343e-21
-1.824350752317815979e-21
-1.405540564329725768e-21
