# bin_13_14
-6.454196657101004053e-12
-7.380319518514599387e-12
-8.325042627664570631e-12
-9.227901853291114718e-12
-1.000989963811985250e-11
-1.056789299310282167e-11
-1.078418333073497657e-11
-1.055826161952896524e-11
-9.768681185597367271e-12
-8.545242361416514767e-12
-7.089708481372414068e-12
-5.808483721150889537e-12
-4.946006651606670638e-12
-4.252179780259654212e-12
-3.232429593178901013e-12
-2.243695934787072460e-12
-1.816040775812865953e-12
-1.231964025037193476e-12
-9.180685243656951483e-13
-6.146517736362173943e-13
-4.234502989019010757e-13
-2.893427894922024068e-13
-1.960022492819770716e-13
-1.322574430208181489e-13
-8.932807918289840588e-14
-6.100126384298014458e-14
-4.226797388669008765e-14
-2.984687037326683128e-14
-2.155441402849554995e-14
-1.591852815835945950e-14
-1.198472366547193816e-14
