# bin_5_15
-1.792557898534864059e-26
-2.042642588436669271e-26
-2.293886494773277717e-26
-2.529039367309149684e-26
-2.725244539621379184e-26
-2.853358147327799505e-26
-2.884608844276048456e-26
-2.785233604283905535e-26
-2.538007267157626766e-26
-2.186704492676690292e-26
-1.799491122664637459e-26
-1.482828455091902571e-26
-1.276167308400339533e-26
-1.077200403184281346e-26
-7.846198861783198125e-27
-5.619973454788161740e-27
-4.519940949534016856e-27
-2.987122059445785338e-27
-2.238953343582527557e-27
-1.532604068924044249e-27
-1.042840647379055742e-27
-7.136691201656661630e-28
-4.855917709805480989e-28
-3.313613350168448935e-28
-2.276319646526870385e-28
-1.588126948732380342e-28
-1.127955414381461862e-28
-8.181297989292246159e-29
-6.063090684076150968e-29
-4.577386276765193276e-29
-3.500275694761473671e-29
