# bin_1_2
-2.993207271128163653e-11
-3.007783285737248199e-11
-2.888447540084062542e-11
-2.626436272502790335e-11
-2.262461890988285583e-11
-1.871513137343342577e-11
-1.548109833452988744e-11
-1.318276767149783588e-11
-1.096378225659828166e-11
-8.201378844653263736e-12
-6.009963566516419900e-12
-4.674571094743964910e-12
-3.362063036669652888e-12
-2.490925684924407266e-12
-1.815854430756227009e-12
-1.342488152566192555e-12
-1.004356520759928914e-12
-7.642906028669176421e-13
-5.923188623352396919e-13
-4.662679074653045141e-13
-3.711061417050945327e-13
-2.965363643452306645e-13
-2.361360093237832727e-13
-1.860914809448565754e-13
-1.442253953792628255e-13
-1.093596775112759764e-13
-8.083075113585990181e-14
-5.813025417627946919e-14
-4.068229251871774819e-14
-2.775980016251004608e-14
-1.852306760061293496e-14
