# bin_4_13
-6.139225072899764159e-26
-6.962166416365107432e-26
-7.770318350672639996e-26
-8.502479912720561967e-26
-9.076633426138750696e-26
-9.390459175577696561e-26
-9.363264247539716072e-26
-8.865498868911196478e-26
-7.926163201774879630e-26
-6.698065583637527815e-26
-5.481741992163863333e-26
-4.578303571000903437e-26
-3.965734904138216758e-26
-3.216431239832072878e-26
-2.245884168116625727e-26
-1.717629378638361702e-26
-1.294531227442218273e-26
-8.922055128874853444e-27
-6.304569936280084361e-27
-4.468036176132225615e-27
-3.067652648410089624e-27
-2.100920021103968995e-27
-1.447923681313842443e-27
-1.006221165469993267e-27
-7.085280476157632040e-28
-5.082772806530064688e-28
-3.718667511021569539e-28
-2.776199238549950471e-28
-2.107969667953633758e-28
-1.618668625852663848e-28
-1.247828837666343133e-28
