# bin_4_15
-4.885385634118512723e-30
-5.564824038485037875e-30
-6.246184468807064188e-30
-6.882335220010953394e-30
-7.410727397143572868e-30
-7.751768263077525158e-30
-7.828322549075951383e-30
-7.546736847474860413e-30
-6.865779584503176104e-30
-5.905696545553180806e-30
-4.856664864513635136e-30
-4.005614311461575653e-30
-3.450522187625480334e-30
-2.904765395966535335e-30
-2.106689190330811514e-30
-1.516466356102312998e-30
-1.215298346417556248e-30
-8.039011917315298838e-31
-6.008670724184591661e-31
-4.125300420331503613e-31
-2.807659863580800435e-31
-1.920934474029828744e-31
-1.307722499824790445e-31
-8.935993332478158921e-32
-6.150937104971889787e-32
-4.301427393777218960e-32
-3.063033303840362199e-32
-2.227651632808784308e-32
-1.654890371316598906e-32
-1.251718462151059984e-32
-9.582539935429766181e-33
