# bin_8_2
-1.898832530180561169e-09
-1.966756065284139525e-09
-1.964189160304445477e-09
-1.871412634227983344e-09
-1.688196377268822938e-09
-1.444555168342300496e-09
-1.193464628810526976e-09
-9.918410552357843230e-10
-8.443668391773336603e-10
-6.919840903997745743e-10
-5.129515155444196724e-10
-3.801876645707826466e-10
-2.918703139648973076e-10
-2.099250867841489833e-10
-1.544872537316065217e-10
-1.121989716271767720e-10
-8.238039640667671775e-11
-6.115347841704810997e-11
-4.613095395017886782e-11
-3.541986417143269524e-11
-2.763112466209483515e-11
-2.181394374476210535e-11
-1.731352015214441809e-11
-1.371682692575879934e-11
-1.077351274467868954e-11
-8.335985855252672755e-12
-6.320775408934034305e-12
-4.678568274793146827e-12
-3.372690096801391423e-12
-2.367023505832024940e-12
-1.619414838589948417e-12
