# bin_11_1
-3.400904310253974723e-09
-3.333349188863616568e-09
-3.112533397103736327e-09
-2.758232593236616760e-09
-2.335552088867724850e-09
-1.934968864489401466e-09
-1.618492787966724998e-09
-1.357880808996072355e-09
-1.080649735253722292e-09
-8.039403225623408354e-10
-6.029780767338221869e-10
-4.549326223474277749e-10
-3.319470030814720526e-10
-2.447844262849007157e-10
-1.804526200300873972e-10
-1.346706136395844995e-10
-1.020186298904800827e-10
-7.866025046970798890e-11
-6.166228917249723996e-11
-4.894448632138410141e-11
-3.910231194350053611e-11
-3.121528673540576620e-11
-2.472404229872262982e-11
-1.930592059728168068e-11
-1.478235360478711511e-11
-1.105414610772223900e-11
-8.053828994489244457e-12
-5.713321094786878329e-12
-3.950264282509224579e-12
-2.668083623008945316e-12
-1.765604028762334051e-12
