# bin_1_6
-1.908344371330429143e-20
-2.076241861592141690e-20
-2.202180620496048668e-20
-2.261796870087232654e-20
-2.234991595705571655e-20
-2.093824352574192383e-20
-1.853903163537470019e-20
-1.554410985196615984e-20
-1.272204432540483431e-20
-1.069790514631683968e-20
-9.225252614583708637e-21
-7.301874832993581768e-21
-5.116268055535341018e-21
-4.006192565105756643e-21
-2.938454609267096677e-21
-2.116730418724250685e-21
-1.506500075049249680e-21
-1.093165963554883550e-21
-7.859273527041902589e-22
-5.704861759199670597e-22
-4.206502098729547039e-22
-3.154805581288354729e-22
-2.408892316126970893e-22
-1.867497841990335423e-22
-1.461580953303185516e-22
-1.147457659894999866e-22
-8.972943535237131765e-23
-6.942365945792593240e-23
-5.284134242345096807e-23
-3.938466486272556732e-23
-2.864641627456133126e-23
