# bin_13_4
-1.052484456382213181e-09
-1.145388926812719143e-09
-1.215320175396321826e-09
-1.249131426871698636e-09
-1.235051742538803919e-09
-1.159017141198331873e-09
-1.028137193717178883e-09
-8.646703324877011227e-10
-7.090816014177033930e-10
-5.953202823825174348e-10
-5.114335228737110882e-10
-4.064396982851910545e-10
-2.883748058398604738e-10
-2.224333131195126261e-10
-1.650335329702099836e-10
-1.178750433908306634e-10
-8.493128984048265779e-11
-6.118117230945832929e-11
-4.393022663772358998e-11
-3.187478113537447527e-11
-2.346577248279138615e-11
-1.756750147314467272e-11
-1.338592594334346494e-11
-1.035786781047813160e-11
-8.093852806829147289e-12
-6.346979538529004824e-12
-4.960054846274259802e-12
-3.837099858664410957e-12
-2.921662543377896302e-12
-2.179467273824135944e-12
-1.587407621987946039e-12
