# bin_10_14
-3.227637707125379010e-14
-3.683621431994258738e-14
-4.144964608348970298e-14
-4.580927535840938544e-14
-4.951065427471551941e-14
-5.203311986772258554e-14
-5.282481416092647633e-14
-5.132681109598256225e-14
-4.708334487474158288e-14
-4.084046584888317090e-14
-3.371561311080744946e-14
-2.769600650877241174e-14
-2.373387024846371153e-14
-2.022610162108284170e-14
-1.500710835552458118e-14
-1.056264873103860559e-14
-8.569878193504580701e-15
-5.685007789038182978e-15
-4.281067423760706258e-15
-2.896874813159610775e-15
-1.974477737984784709e-15
-1.352063939624856215e-15
-9.187398774521771201e-16
-6.236629304017218212e-16
-4.250724434675882164e-16
-2.937444396462745786e-16
-2.063863772676817685e-16
-1.479957407916973203e-16
-1.085157354654150559e-16
-8.121805011271700422e-17
-6.175420481137601110e-17
