# bin_8_10
-1.420707013111987641e-12
-1.605834810795445699e-12
-1.784956131790649861e-12
-1.943423292161758189e-12
-2.061808742300160755e-12
-2.116731093183870837e-12
-2.090077646530927874e-12
-1.954285253293604019e-12
-1.726833081948164050e-12
-1.443956751387519929e-12
-1.181261557643661853e-12
-9.966518620289625091e-13
-8.615372597747169724e-13
-6.760650974341220550e-13
-4.679455711774956083e-13
-3.710568493615990127e-13
-2.649140809892078478e-13
-1.912318707060066430e-13
-1.306324503295091140e-13
-9.273957884399304779e-14
-6.427306712075439428e-14
-4.444743012790550774e-14
-3.096859578493949667e-14
-2.177931921594826761e-14
-1.557184501548894240e-14
-1.135174477596203251e-14
-8.437369486202999637e-15
-6.385744955038361715e-15
-4.896620691824134497e-15
-3.778952019546209375e-15
-2.913241386401827256e-15
