# bin_7_6
-1.467893564582082550e-10
-1.628782652978895659e-10
-1.770212797054907072e-10
-1.874460879614771389e-10
-1.920816904734363619e-10
-1.891823611613810754e-10
-1.764744511561362114e-10
-1.555995465963573044e-10
-1.300133577404032056e-10
-1.064575735175039802e-10
-8.988775857990844639e-11
-7.741470573569451694e-11
-6.049066683787610885e-11
-4.225056078596974061e-11
-3.339421516743526032e-11
-2.395362336180874781e-11
-1.737948477348864056e-11
-1.214302842803043808e-11
-8.703489694175237609e-12
-6.166489464621621744e-12
-4.391317979267955859e-12
-3.167466728036695705e-12
-2.319296959778977547e-12
-1.730355127333307601e-12
-1.314271025386699665e-12
-1.012242077017034407e-12
-7.865073798986471409e-13
-6.122350227825982579e-13
-4.740963933670372955e-13
-3.628735977871537346e-13
-2.731025398872219607e-13
