# bin_9_6
-3.248192412979130176e-10
-3.609863286541440044e-10
-3.930885274240679633e-10
-4.172418586090351697e-10
-4.288228198860690778e-10
-4.239749389062692942e-10
-3.974265883538812682e-10
-3.520557649582798291e-10
-2.953447709392785122e-10
-2.418370274512638706e-10
-2.034206482939585796e-10
-1.754234946834938739e-10
-1.388111703627568783e-10
-9.717959943428071899e-11
-7.588376076955471305e-11
-5.543417801145648141e-11
-3.963485007841445832e-11
-2.794361406782697957e-11
-2.000087108971474014e-11
-1.412182697852451409e-11
-1.002463454217279827e-11
-7.202987178654960314e-12
-5.252577044223295470e-12
-3.901170014632291919e-12
-2.951203643770923539e-12
-2.265733234603118307e-12
-1.756843239391716688e-12
-1.366580269592272996e-12
-1.058829489838739434e-12
-8.117984909176852898e-13
-6.125653865042823949e-13
