# bin_4_2
3.151155964774535641e-07
3.378241567938385153e-07
3.517629479795003945e-07
3.535689860277828229e-07
3.390455264900255322e-07
3.071708576428580927e-07
2.632363707427582492e-07
2.164223272960010093e-07
1.788812711532939871e-07
1.536450546442827547e-07
1.280716930809790050e-07
9.329857724342339360e-08
6.831355259944192287e-08
5.393445265041049130e-08
3.732212067672821848e-08
2.789858866081710633e-08
1.995808679781333182e-08
1.440666670583063652e-08
1.053074713236767886e-08
7.801600742916960213e-09
5.880258471417065160e-09
4.508535567026378072e-09
3.511125030580965382e-09
2.760914016511725850e-09
2.177506812197071444e-09
1.710661510309094720e-09
1.329519799827578869e-09
1.016288887946071693e-09
7.603945900424611170e-10
5.548735077281513324e-10
3.941830024891429062e-10
