# bin_6_1
4.106713872838645563e-14
4.472600916801051780e-14
4.749980307521913402e-14
4.886181557523964496e-14
4.838169476007462842e-14
4.544208417816331119e-14
4.033046224205784996e-14
3.387954812276714341e-14
2.771873742037982481e-14
2.325352769152121988e-14
2.006754966708170465e-14
1.599419326182235298e-14
1.121491981865220082e-14
8.722033699096947904e-15
6.460721509696934941e-15
4.615901693601718422e-15
3.300024695612469508e-15
2.392573495492053081e-15
1.716678004199097217e-15
1.243799791260815139e-15
9.152354032828642780e-16
6.850026188726580197e-16
5.219758342101937575e-16
4.040081429934254662e-16
3.158507689684177411e-16
2.478510064436970946e-16
1.938476191464469479e-16
1.500894129167181857e-16
1.143796225336365269e-16
8.539152350107226901e-17
6.223100255612356525e-17
