# bin_14_3
4.943720408541452595e-25
5.618417455427131615e-25
6.287746150212014944e-25
6.903267619951512232e-25
7.400242211648228624e-25
7.697096640015442784e-25
7.723114231810797048e-25
7.376337739526676042e-25
6.648837573200390081e-25
5.664569047226865733e-25
4.642344213003351836e-25
3.850348678803477206e-25
3.329852197227516824e-25
2.755162285779426737e-25
1.953876321433061672e-25
1.449416144483852257e-25
1.130527542230294366e-25
7.586519382368793668e-26
5.533566359768477475e-26
3.865158408116408017e-26
2.639294576497508181e-26
1.803927887654284140e-26
1.234027436540443795e-26
8.501875570702796928e-27
5.919083649087642710e-27
4.193657364777967648e-27
3.028848975976245699e-27
2.234045841266908662e-27
1.679974107616231366e-27
1.282015498634974041e-27
9.860524702775669883e-28
