# bin_13_10
4.126082653020895291e-07
4.705839850674364476e-07
5.290682001097412651e-07
5.841126432861385948e-07
6.305098707958194865e-07
6.615851095648733846e-07
6.704553403229292661e-07
6.497322716042604547e-07
5.943011013549701651e-07
5.139814968981840769e-07
4.235934520306778113e-07
3.482395625980599998e-07
2.989181189598755052e-07
2.538672625837459940e-07
1.869353378396402861e-07
1.323252275871539133e-07
1.071475677922258180e-07
7.082689875712106507e-08
5.332064202495412318e-08
3.622938802533271492e-08
2.465885713901707892e-08
1.688170298071522685e-08
1.147473225295129278e-08
7.803713979509053497e-09
5.334010414372134922e-09
3.699215271355124702e-09
2.609769471036205939e-09
1.879678452864660246e-09
1.384031867460301868e-09
1.039488099294646041e-09
7.922555397498779505e-10
