# bin_9_6
8.799941877827184520e-08
9.897946118380945213e-08
1.093720439925114833e-07
1.182205560167827413e-07
1.242917158844511147e-07
1.262618673241168296e-07
1.228334075976870075e-07
1.128653495844081392e-07
9.806122682397637260e-08
8.103024905549203503e-08
6.649269799727316429e-08
5.684833248001885906e-08
4.853224169318413105e-08
3.628124083004538667e-08
2.548671062677141821e-08
2.064858728264030883e-08
1.389866738765042252e-08
1.046542290130765563e-08
7.151362495790015029e-09
4.984544344580272070e-09
3.492331090609457340e-09
2.448247224009493033e-09
1.729428730675133258e-09
1.236820361931102798e-09
9.018959365990440848e-10
6.704689057935792376e-10
5.073046281107360692e-10
3.892713001265263134e-10
3.009553166692199516e-10
2.327432476818859851e-10
1.787548223360053997e-10
