# bin_6_4
4.766076213883034382e-07
5.261991023884077638e-07
5.683673790388801572e-07
5.972049900495018461e-07
6.064230022490454053e-07
5.897637814315549875e-07
5.419695825679424146e-07
4.709543285102534366e-07
3.893893244188715080e-07
3.195686103954694483e-07
2.728448056226439269e-07
2.326271098880691863e-07
1.745394479746647244e-07
1.231511475556198836e-07
9.930991962105837866e-08
6.796787416812051194e-08
5.107743123914805611e-08
3.547706076038958303e-08
2.523912800394859263e-08
1.804926162030887457e-08
1.299145189981268705e-08
9.475901920030607125e-09
7.022596503878482644e-09
5.305241172240289457e-09
4.072807872434175764e-09
3.161967085962209299e-09
2.467727901693593853e-09
1.922038211920205288e-09
1.483952825428562172e-09
1.129014035644435215e-09
8.425259578321204801e-10
