# bin_6_2
8.601358672282730406e-11
9.410631479519486001e-11
1.005127208513453923e-10
1.041264913194440505e-10
1.040133483771005698e-10
9.882513450164613017e-11
8.867753184700306602e-11
7.524991623702841250e-11
6.164222779127281147e-11
5.126714852248362173e-11
4.425870112207728965e-11
3.624130147570871760e-11
2.572896269589056369e-11
1.936581688248370635e-11
1.493414942523953079e-11
1.033874944097331425e-11
7.577059770238764044e-12
5.443403796061565085e-12
3.877519915320520868e-12
2.793239217640865984e-12
2.039241599085216414e-12
1.513888900379942166e-12
1.143965246868274921e-12
8.794052938263245725e-13
6.842741508505344738e-13
5.357455001527069534e-13
4.191754315633545601e-13
3.254513762720309927e-13
2.492225945442369281e-13
1.872851955024179785e-13
1.375722916336239704e-13
