# bin_13_10
-1.376421651389087502e-09
-1.570015842505131374e-09
-1.765404668041895411e-09
-1.949429681273925331e-09
-2.104733275273681225e-09
-2.209051668683899947e-09
-2.239354841262452334e-09
-2.171040797279215845e-09
-1.986791770277530828e-09
-1.719218364391398597e-09
-1.417556124588988863e-09
-1.165626672659370252e-09
-1.000505528207770549e-09
-8.499738627480239060e-10
-6.264198611769476177e-10
-4.433635308841360463e-10
-3.590521326470488832e-10
-2.374707632531943143e-10
-1.787911295214098963e-10
-1.214638476070169710e-10
-8.268236554549824670e-11
-5.661524666317305320e-11
-3.848604934853174472e-11
-2.617234741721026466e-11
-1.788746272266592629e-11
-1.240313483341177720e-11
-8.748463899385145396e-12
-6.299559311036534809e-12
-4.637382252629671652e-12
-3.482291957400718310e-12
-2.653745193176275856e-12
