# bin_3_1
-1.179225635877765359e-09
-1.233706071034398394e-09
-1.247307713208573461e-09
-1.206510685527493547e-09
-1.103908722501555526e-09
-9.555735520418340626e-10
-7.901522158157363092e-10
-6.506757716044932427e-10
-5.551470453173775791e-10
-4.682604197253737656e-10
-3.507782486499072505e-10
-2.527509298243451856e-10
-2.002675009291879068e-10
-1.413197289823232552e-10
-1.054283623281240175e-10
-7.568936073466899589e-11
-5.535706199102071569e-11
-4.085455902559366101e-11
-3.058981491833942226e-11
-2.331849894275117824e-11
-1.807746642446449837e-11
-1.421542648420789602e-11
-1.126738262943949683e-11
-8.938006983950458613e-12
-7.046343567330051868e-12
-5.483806884782708513e-12
-4.188816107812192273e-12
-3.126081066110061512e-12
-2.272234413505047895e-12
-1.606821875187615393e-12
-1.106420577518634278e-12
