# bin_8_5
-2.071178323618141961e-10
-2.317658867475898706e-10
-2.545062461130329896e-10
-2.729775717829985670e-10
-2.842016161486307728e-10
-2.855215892093710125e-10
-2.732942964953313563e-10
-2.469367807059500090e-10
-2.109457751316169237e-10
-1.730838045426106395e-10
-1.433376500462653943e-10
-1.237388547834438527e-10
-1.028368219399000338e-10
-7.357085789917440125e-11
-5.418658720912933720e-11
-4.264807262698511467e-11
-2.875687577188365493e-11
-2.127515391696255066e-11
-1.498008214107580055e-11
-1.043407718806187848e-11
-7.330620040355984994e-12
-5.185162375902052018e-12
-3.716078211145647078e-12
-2.705928648732509684e-12
-2.009854499298905599e-12
-1.519673097946190408e-12
-1.165964598257328805e-12
-9.027696945734106645e-13
-7.003510835013569791e-13
-5.404910949551014585e-13
-4.122890026634520835e-13
