# bin_9_4
-8.875639439195423505e-14
-9.947176664274886016e-14
-1.094369630074444704e-13
-1.176531953342555572e-13
-1.228538233996188109e-13
-1.238431122828917563e-13
-1.191179217734651583e-13
-1.081518411400623311e-13
-9.284526982235498302e-14
-7.630870406221370947e-14
-6.300018351638361061e-14
-5.427265628950591917e-14
-4.551936566178710634e-14
-3.294231319086337795e-14
-2.388509404965699798e-14
-1.904989269581334036e-14
-1.275472821769756273e-14
-9.539433167427264956e-15
-6.656034535304493385e-15
-4.627698980128725558e-15
-3.249523801354704228e-15
-2.291769839228357357e-15
-1.635530283656097865e-15
-1.184850503172279908e-15
-8.756312998340869262e-16
-6.590967342986576875e-16
-5.039053750907674030e-16
-3.893437985922613340e-16
-3.018851085720190306e-16
-2.332014417086105091e-16
-1.782805128773414735e-16
