# bin_11_1
-1.626089014665076083e-29
-1.829432775905816813e-29
-2.022113093360869054e-29
-2.186489631788489058e-29
-2.299789414560131822e-29
-2.337445781287018437e-29
-2.275593903223983352e-29
-2.092712200339482170e-29
-1.819853381812728637e-29
-1.504909669182832036e-29
-1.235121917046380257e-29
-1.055625641482401814e-29
-9.016596883735632859e-30
-6.753694842565783874e-30
-4.742748541999881408e-30
-3.840153440416957237e-30
-2.590506322777181597e-30
-1.948245183255538985e-30
-1.331062671926715335e-30
-9.284481253676908183e-31
-6.503810634550960877e-31
-4.558090752089430981e-31
-3.218669521508983423e-31
-2.300797725782635027e-31
-1.676823018373680419e-31
-1.245867065339281144e-31
-9.422166211377044462e-32
-7.227347214334727232e-32
-5.586585284799579206e-32
-4.320341634664982004e-32
-3.318705929699784882e-32
