# bin_1_8
-7.515635797481970478e-22
-8.329558298168479349e-22
-9.039634918723393700e-22
-9.554465295248260651e-22
-9.768417707973154288e-22
-9.592358137608588615e-22
-8.913157361659875595e-22
-7.829627538277728695e-22
-6.520038590073432601e-22
-5.338048392643599743e-22
-4.522085896075503023e-22
-3.892064107506577232e-22
-3.008137449053229046e-22
-2.095778930682634115e-22
-1.676356951981523734e-22
-1.180789428676909805e-22
-8.702235473394657878e-23
-6.025391089312786747e-23
-4.317730503465690328e-23
-3.069665192114182181e-23
-2.193224133689852845e-23
-1.587141045562597458e-23
-1.165985119245777949e-23
-8.730912375632027233e-24
-6.653021944741749247e-24
-5.137360858768373658e-24
-3.998377365164942879e-24
-3.114307110960151237e-24
-2.410628674289071029e-24
-1.842665311217105178e-24
-1.383954922564404734e-24
