# bin_7_13
-2.157749563099418995e-13
-2.454027207439119485e-13
-2.748953793789328827e-13
-3.021497583693063921e-13
-3.243587075024477299e-13
-3.379750734777863043e-13
-3.398176469463421717e-13
-3.255024107575940276e-13
-2.942399757042856781e-13
-2.514320268304143579e-13
-2.062830756799253115e-13
-1.708165581879078282e-13
-1.476070021790293305e-13
-1.228066293107265082e-13
-8.762243934421734121e-14
-6.442970411534961384e-14
-5.071400399915828953e-14
-3.383550867291232940e-14
-2.489449831115351781e-14
-1.730458230554490767e-14
-1.180234616767644460e-14
-8.067844043943651967e-15
-5.509546958336690248e-15
-3.786807228132969962e-15
-2.627958889487353231e-15
-1.855134423913399939e-15
-1.334660485814557841e-15
-9.807155872812274679e-16
-7.351583097180900115e-16
-5.597939063438883094e-16
-4.301402142899433261e-16
