# bin_8_15
-3.703659728371162177e-14
-4.229309745081793964e-14
-4.762478788333099922e-14
-5.268038155674929673e-14
-5.699891184269937194e-14
-5.998460109383021977e-14
-6.099039701407366840e-14
-5.939618571694290847e-14
-5.462161660898222044e-14
-4.749736834335216979e-14
-3.926311983560512468e-14
-3.222234761161217838e-14
-2.756452568316011431e-14
-2.356205185212142132e-14
-1.760506548468630271e-14
-1.232660671701772076e-14
-1.001172813598232453e-14
-6.669455772234092029e-15
-5.018376467370276117e-15
-3.382554966061403674e-15
-2.309835825725090614e-15
-1.581511613791560388e-15
-1.074123246813684500e-15
-7.278141833049738071e-16
-4.946770053350444422e-16
-3.406454773829629683e-16
-2.383698792888197940e-16
-1.701793562534553379e-16
-1.242528328162256473e-16
-9.266190988474103660e-17
-7.027730522162568608e-17
