# bin_1_1
-7.622653218335108900e-08
-7.561140136955942933e-08
-7.143820689933068081e-08
-6.389432729499614926e-08
-5.426638159419108797e-08
-4.472048289414716397e-08
-3.730227337210012759e-08
-3.177447371771361386e-08
-2.570632315777175060e-08
-1.885107445368926451e-08
-1.414615528181160159e-08
-1.080414421957016848e-08
-7.787424371578365459e-09
-5.767330405676662509e-09
-4.229042773685131238e-09
-3.142140722881095271e-09
-2.369664485826604364e-09
-1.819323886726857730e-09
-1.421646241238292839e-09
-1.126572914507628006e-09
-9.002557795575567761e-10
-7.200874539131877392e-10
-5.723247995208141930e-10
-4.489664939460831338e-10
-3.455778820941011675e-10
-2.597975308488828135e-10
-1.902041018256918509e-10
-1.354729836756190698e-10
-9.395965914842834051e-11
-6.360746173988546555e-11
-4.216159197596677240e-11
