# bin_3_4
-1.337672940311145249e-08
-1.448968802645882030e-08
-1.528443295449957264e-08
-1.559643733177431178e-08
-1.527621143192458426e-08
-1.416184298192250631e-08
-1.241364554676931197e-08
-1.033074494094811682e-08
-8.466568670834991808e-09
-7.175526543535884266e-09
-6.150839102253086084e-09
-4.738757917265290975e-09
-3.333255679248373976e-09
-2.653753467874038098e-09
-1.885647060486321951e-09
-1.391999196567194982e-09
-9.826508522469500816e-10
-7.121119179460494379e-10
-5.152837317079460607e-10
-3.765575685137026654e-10
-2.796323581149974137e-10
-2.112125536568555752e-10
-1.623710292844903379e-10
-1.265296452575940175e-10
-9.934120120382777658e-11
-7.806350868626752158e-11
-6.096435895528296947e-11
-4.701359596372702108e-11
-3.560634094336330666e-11
-2.637006992547722757e-11
-1.904020576585958930e-11
