# bin_3_14
-5.562573518396768947e-28
-6.321629053123605728e-28
-7.074533861488299339e-28
-7.766779306286040422e-28
-8.325468202136838473e-28
-8.658746600753834983e-28
-8.687254994982114385e-28
-8.295955098819514087e-28
-7.477188169025105370e-28
-6.370143530567692486e-28
-5.221994111738094622e-28
-4.333399911504375986e-28
-3.748216225397362604e-28
-3.099070821449734915e-28
-2.196778025558629081e-28
-1.632149087108442103e-28
-1.271264257333615976e-28
-8.541970823901871192e-29
-6.222425521195444763e-29
-4.350235509199004161e-29
-2.971617919499834207e-29
-2.031299711632356451e-29
-1.390166900790935411e-29
-9.582347524585654808e-30
-6.675571326488901031e-30
-4.732871352213349176e-30
-3.420735833025840856e-30
-2.524823853274095295e-30
-1.899718195062368452e-30
-1.450287367688675374e-30
-1.115699827046391316e-30
