# bin_14_9
-1.067473503610224791e-11
-1.217961479909038808e-11
-1.370040520745991850e-11
-1.513525427139410988e-11
-1.634998688031786348e-11
-1.717218316903005158e-11
-1.742117698721201126e-11
-1.690926164149146667e-11
-1.549339677165700767e-11
-1.342354588266958444e-11
-1.107500266063540311e-11
-9.101807625479889368e-12
-7.805996418587025438e-12
-6.642708612154496273e-12
-4.912582862632332027e-12
-3.466444871474155066e-12
-2.810714021247521149e-12
-1.861186504693934198e-12
-1.401867345301902350e-12
-9.503823598847044973e-13
-6.472645195281230002e-13
-4.432362970526019687e-13
-3.012428261061301609e-13
-2.046658371180348832e-13
-1.396775733570732748e-13
-9.668133936145893496e-14
-6.805630491618793874e-14
-4.890054412219759773e-14
-3.592492424965180472e-14
-2.693152963492606647e-14
-2.050054423573453210e-14
