# bin_5_3
-1.562916633077805777e-09
-1.702612947623026082e-09
-1.808787978523258248e-09
-1.861400650280184275e-09
-1.844009621321118164e-09
-1.733104728232649957e-09
-1.539224223361288709e-09
-1.293994100749651310e-09
-1.059134640769648373e-09
-8.884080398637852648e-10
-7.666581179816422042e-10
-6.117297077146465507e-10
-4.293865051876410059e-10
-3.334950966690200588e-10
-2.474708761866374219e-10
-1.765995138720407234e-10
-1.264214929367645145e-10
-9.163082617699109548e-11
-6.573326532346749847e-11
-4.762112604684933529e-11
-3.503487329738151415e-11
-2.621680696604826465e-11
-1.997333486561801739e-11
-1.545687913616798332e-11
-1.208296431693491927e-11
-9.481449607543416167e-12
-7.416037728555314232e-12
-5.742754005309294535e-12
-4.377276374729780159e-12
-3.268708645455453702e-12
-2.382817806436260520e-12
