# bin_7_15
-1.048236266093513077e-16
-1.196037127381693672e-16
-1.345414324784480997e-16
-1.486367760054101501e-16
-1.605725007709359714e-16
-1.686556499768801706e-16
-1.711107445411361259e-16
-1.660967120228192241e-16
-1.522033286466673125e-16
-1.318821180716184713e-16
-1.088142718183970923e-16
-8.942431460201005285e-17
-7.668776450745560372e-17
-6.526628355012911250e-17
-4.828067373773811947e-17
-3.406204365369106675e-17
-2.761858638449541764e-17
-1.829244217876857774e-17
-1.377692112512393373e-17
-9.338578720163503812e-18
-6.360748119068352422e-18
-4.355678717615306016e-18
-2.960246669069949447e-18
-2.011068129104488348e-18
-1.372342860106957722e-18
-9.497751230698566548e-19
-6.684670378896274115e-19
-4.802344615352863828e-19
-3.527491766310046548e-19
-2.644062928975487247e-19
-2.012488936498760192e-19
