# bin_13_9
-1.045434249522720548e-10
-1.191049901169820336e-10
-1.337205200018931525e-10
-1.473826565150939956e-10
-1.587555049806522320e-10
-1.661376196438110170e-10
-1.678651614163753226e-10
-1.619496963309701619e-10
-1.474488723104468166e-10
-1.269290521669940043e-10
-1.044131999007395190e-10
-8.607745638132456901e-11
-7.411928075033900675e-11
-6.247972575847238324e-11
-4.540265022749696781e-11
-3.260190112457778942e-11
-2.617918545099294980e-11
-1.730260331369912037e-11
-1.295438804135926262e-11
-8.881285397351354537e-12
-6.043152092892590894e-12
-4.135122888322248129e-12
-2.814214146055476919e-12
-1.921740998649280723e-12
-1.321536744809670649e-12
-9.231416151653683544e-13
-6.565598718007149079e-13
-4.768981936638045741e-13
-3.538858377558216996e-13
-2.674440059173485490e-13
-2.046426483386332250e-13
