# bin_5_12
-7.587348598107690002e-17
-8.591876295871188029e-17
-9.571807858019631570e-17
-1.045044368402138466e-16
-1.112525795106455816e-16
-1.146981207285873846e-16
-1.138757123015448534e-16
-1.072132718125766337e-16
-9.534747611796049575e-17
-8.017187402739035202e-17
-6.557980862201070293e-17
-5.502109007296620036e-17
-4.764871205626421761e-17
-3.809556330409530992e-17
-2.643391121087241310e-17
-2.058372623627735549e-17
-1.514221516824174250e-17
-1.065457296664478809e-17
-7.388143096120127296e-18
-5.258053804143469401e-18
-3.624525159095320702e-18
-2.491004733851828979e-18
-1.725414484336565385e-18
-1.205546775734107165e-18
-8.548321371832590923e-19
-6.178185590975692371e-19
-4.553916396684753014e-19
-3.422378998512170518e-19
-2.611505366154525978e-19
-2.010865114493141241e-19
-1.550824923407444019e-19
