# bin_10_7
-4.211598808101037836e-10
-4.757414065906172460e-10
-5.284041695269138192e-10
-5.747762242679428734e-10
-6.090766809205573368e-10
-6.244131243962852089e-10
-6.153877893419757138e-10
-5.740525381783046253e-10
-5.061181444764761638e-10
-4.224259769969328721e-10
-3.456146864430969631e-10
-2.921681680022187697e-10
-2.523569772568059772e-10
-1.967273395532122390e-10
-1.361281338460976653e-10
-1.085738926404062327e-10
-7.670889839849161991e-11
-5.586625189587310026e-11
-3.800577936845412933e-11
-2.693375267609556512e-11
-1.870280332465112944e-11
-1.296405104940363557e-11
-9.050768165471008966e-12
-6.379491708122285641e-12
-4.574123098538680105e-12
-3.344159982708075819e-12
-2.492449873744217324e-12
-1.890682818596662594e-12
-1.452002544002267799e-12
-1.121308855572629088e-12
-8.642385610811349740e-13
