# bin_9_15
-8.942319871630752139e-13
-1.021743011038583872e-12
-1.151400794428787495e-12
-1.274762629371549384e-12
-1.380777124524215300e-12
-1.455099984496037991e-12
-1.481789648548919915e-12
-1.446368782591131120e-12
-1.333520755289141254e-12
-1.162538171706582783e-12
-9.624018956050927782e-13
-7.891649797350626214e-13
-6.738203966464423605e-13
-5.775598970445676390e-13
-4.346786409594012372e-13
-3.030103848174939256e-13
-2.460115891978430225e-13
-1.649121775243947507e-13
-1.237613159198800150e-13
-8.312349505183291869e-14
-5.692977633656965667e-14
-3.895951185606572499e-14
-2.644075062861681232e-14
-1.788370498443701184e-14
-1.212163126994960705e-14
-8.317465198180547460e-15
-5.795990973255078686e-15
-4.118943352169279156e-15
-2.993784329361255297e-15
-2.223845634274188047e-15
-1.681770161899270669e-15
