# bin_7_7
-1.613112545071795814e-08
-1.806792509170750212e-08
-1.986368169346508242e-08
-2.133595029582302475e-08
-2.225384690722427233e-08
-2.240406898181493597e-08
-2.150927455217550311e-08
-1.949309565861397713e-08
-1.670288835379841409e-08
-1.371906121567980072e-08
-1.133952425627513342e-08
-9.776571011441813063e-09
-8.171606498256479244e-09
-5.887884257270846292e-09
-4.294320325493239749e-09
-3.408193317691050946e-09
-2.287708223616799339e-09
-1.704182528991675831e-09
-1.193168704007425913e-09
-8.301074753828534764e-10
-5.830077582555398692e-10
-4.116252261846931213e-10
-2.942287507711066499e-10
-2.135686313118488587e-10
-1.581366734089021517e-10
-1.192372334729679080e-10
-9.128592118199938658e-11
-7.058955025006376641e-11
-5.474460271797963732e-11
-4.227408418631913580e-11
-3.229098704811816272e-11
