# bin_13_10
-9.668440032999805741e-10
-1.102609563338018380e-09
-1.239508360200170396e-09
-1.368285021067954052e-09
-1.476719190691560995e-09
-1.549156289503411911e-09
-1.569551339801725837e-09
-1.520427920493649530e-09
-1.390187161464511175e-09
-1.201907160127006555e-09
-9.905983766529512654e-10
-8.148727911263940909e-10
-6.998365301414060965e-10
-5.938139356715852437e-10
-4.365752091174186756e-10
-3.096902889055669394e-10
-2.505343028680919592e-10
-1.655996607156739126e-10
-1.246159626195428342e-10
-8.478616642837421669e-11
-5.770096966478222247e-11
-3.950650471753269047e-11
-2.685983342585444993e-11
-1.827829579480633546e-11
-1.250504437522867374e-11
-8.681754310397988968e-12
-6.132258218528868072e-12
-4.422300174349948270e-12
-3.260010227942396639e-12
-2.450801129204695834e-12
-1.869092918874715586e-12
