# bin_7_14
-3.190410930135055293e-15
-3.634245013309661539e-15
-4.079407245233227773e-15
-4.495125112783232451e-15
-4.840564754845975542e-15
-5.063759614275660165e-15
-5.114262231644092617e-15
-4.930972920878809194e-15
-4.486610113368543871e-15
-3.859721596985595282e-15
-3.174217514147884075e-15
-2.617738596057369505e-15
-2.254880049438262859e-15
-1.898752502186900202e-15
-1.377447787166226574e-15
-9.910578428979909461e-16
-7.946539479314831351e-16
-5.254386759746969673e-16
-3.929349618781938030e-16
-2.697060431653807257e-16
-1.835396622326709714e-16
-1.255765861736907825e-16
-8.548113134811938621e-17
-5.840424048351276578e-17
-4.019493567617693670e-17
-2.810360023623704031e-17
-2.000844281293375079e-17
-1.454862067245862307e-17
-1.080612652571721834e-17
-8.172532560495395271e-18
-6.256173117057177660e-18
