# bin_3_12
-1.316604477573901215e-23
-1.488240088262021664e-23
-1.654339386441992493e-23
-1.801336219698598163e-23
-1.911229958274686849e-23
-1.962323971763417140e-23
-1.937883623983100943e-23
-1.812249109272329998e-23
-1.601553049200275914e-23
-1.339295588825110550e-23
-1.095582844259694370e-23
-9.242647851866811367e-24
-7.990956334831252911e-24
-6.273079084816591514e-24
-4.340669046064847857e-24
-3.442028372179266644e-24
-2.458277967349596705e-24
-1.774271483783304968e-24
-1.211510132203703535e-24
-8.603835011041335536e-25
-5.962408074664974541e-25
-4.122815236032870206e-25
-2.872288568526244662e-25
-2.019718312716069459e-25
-1.443837885236867520e-25
-1.052381657050288230e-25
-7.820910128609252410e-26
-5.918596821829444211e-26
-4.538197435352234054e-26
-3.502375181142778970e-26
-2.700190055720611022e-26
