# bin_15_4
-6.004806700140686563e-26
-6.840997391349738826e-26
-7.680169214904725987e-26
-8.464450098803235252e-26
-9.117087071532846389e-26
-9.540332257541450814e-26
-9.638737185589632537e-26
-9.298007945425075504e-26
-8.464610877424139214e-26
-7.285867086988901577e-26
-5.993332632360549471e-26
-4.941288024848932630e-26
-4.254928670594103489e-26
-3.585861657848841380e-26
-2.605266419408808051e-26
-1.871553671698310281e-26
-1.502041350619105051e-26
-9.932185880380979380e-27
-7.432141434385083447e-27
-5.096370853400270830e-27
-3.468262252943767291e-27
-2.373149148378792043e-27
-1.615232838181412779e-27
-1.103110168352523778e-27
-7.586888709170407395e-28
-5.300534612931532122e-28
-3.770492333100710652e-28
-2.739177551183429696e-28
-2.032900239889515287e-28
-1.536468096711148947e-28
-1.175707256533959997e-28
