# bin_2_13
-2.511127363455752798e-30
-2.845600672685889050e-30
-3.172942584596014768e-30
-3.467941294113965592e-30
-3.696848703242277255e-30
-3.817801442344381348e-30
-3.798379628462240575e-30
-3.586019479798782617e-30
-3.197379832718205659e-30
-2.695019447111155246e-30
-2.204999554289404853e-30
-1.845869123141004843e-30
-1.598784062318822509e-30
-1.287312047781712293e-30
-8.958622008663223519e-31
-6.915239354992079012e-31
-5.148241695548929747e-31
-3.585520666332142513e-31
-2.508966586825821609e-31
-1.782351728703548193e-31
-1.226187663639742693e-31
-8.411965589763173723e-32
-5.812304850790940416e-32
-4.050372591519349417e-32
-2.862296014763915517e-32
-2.061226453169200899e-32
-1.513870032674566473e-32
-1.134101320975023282e-32
-8.633620983116513349e-33
-6.639317840152380446e-33
-5.119526723889311434e-33
