# bin_9_3
-9.192876912991791087e-17
-1.026942720492043196e-16
-1.125364859055894593e-16
-1.203929773813671786e-16
-1.249322942406950226e-16
-1.250335057433964525e-16
-1.190387876345125473e-16
-1.070006196564463303e-16
-9.092731764070350662e-17
-7.450209375387903406e-17
-6.192869448190267383e-17
-5.354329501941145263e-17
-4.400628859541467708e-17
-3.114354111347925357e-17
-2.334962831136022186e-17
-1.805627251842928866e-17
-1.232502811190793484e-17
-8.982501322163121614e-18
-6.383019086073605432e-18
-4.459046397169274251e-18
-3.136315261093097529e-18
-2.226777555935927160e-18
-1.603292219181200757e-18
-1.173875975891373755e-18
-8.765037162554199624e-19
-6.657787811059510907e-19
-5.125848964430753345e-19
-3.976249792457391648e-19
-3.085427647236214330e-19
-2.378068911727903086e-19
-1.809359577464713499e-19
