# bin_11_8
-5.408421389865452261e-10
-6.133422948365912570e-10
-6.845398451279405713e-10
-7.490437377773428881e-10
-7.996284526973230473e-10
-8.272786268793036219e-10
-8.248895465380063521e-10
-7.810388843026642234e-10
-6.982835511242547606e-10
-5.900830838192108264e-10
-4.829203597577742964e-10
-4.033285901468680036e-10
-3.493747210746943924e-10
-2.833720483702466295e-10
-1.978438113761338312e-10
-1.513161389585141277e-10
-1.140472678418246454e-10
-7.859610234037614055e-11
-5.553509041132015977e-11
-3.936315708977978004e-11
-2.702555369251744515e-11
-1.850767645057779911e-11
-1.275515212911001191e-11
-8.864111091444048156e-12
-6.241667645710043289e-12
-4.477620695813374831e-12
-3.275958880015132909e-12
-2.445729588167131347e-12
-1.857080168510436192e-12
-1.426047774097649041e-12
-1.099363743160564357e-12
