# bin_6_15
-2.637637845005489843e-19
-3.007726008544553739e-19
-3.380736296650411744e-19
-3.731403098281528866e-19
-4.026352243804805310e-19
-4.222855339893722096e-19
-4.277316951780156234e-19
-4.141809069280693384e-19
-3.785461943089699758e-19
-3.271413428997379124e-19
-2.695761889428781301e-19
-2.218011614773942613e-19
-1.905378586152002933e-19
-1.615706877294136034e-19
-1.186544907675925008e-19
-8.426748407773100669e-20
-6.812314581535747864e-20
-4.502763621416204495e-20
-3.386781704156704646e-20
-2.305978108376387589e-20
-1.569315246990477020e-20
-1.074403451338623121e-20
-7.305283956514869119e-21
-4.972933311185313028e-21
-3.403899580178077117e-21
-2.364591912918316376e-21
-1.671320228087340069e-21
-1.206126429209122601e-21
-8.897048131831336579e-22
-6.692083121581041471e-22
-5.105381390832657801e-22
