# bin_8_7
2.863918409294751780e-06
3.218740469531024796e-06
3.553336448634190938e-06
3.836311217421262883e-06
4.027358966559625550e-06
4.084397800542677789e-06
3.963606637573307352e-06
3.632244892055052837e-06
3.147602323552038693e-06
2.597856965596729416e-06
2.134876056840731502e-06
1.829104802545859625e-06
1.555896729793574258e-06
1.154035000033714449e-06
8.160531451650855352e-07
6.601601552540433224e-07
4.425651021701504354e-07
3.336399061536480096e-07
2.290319227426255129e-07
1.593694547966187457e-07
1.117685461777604327e-07
7.847721554823623283e-08
5.557391705267195822e-08
3.986987119016354301e-08
2.917121197803386649e-08
2.175506757938468081e-08
1.650585002423540019e-08
1.268972859711409190e-08
9.819870117137041089e-09
7.593574418082040832e-09
5.826418105057221421e-09
