# bin_3_1
2.612272408938525983e-07
2.722148569355899902e-07
2.739281349390809962e-07
2.632660049238275592e-07
2.392508395478238536e-07
2.057522961367840586e-07
1.696285418864989575e-07
1.401179988554687903e-07
1.199194822864592683e-07
1.001754783935234296e-07
7.395942296200856713e-08
5.398197240714564046e-08
4.252422621987918841e-08
2.991279265124624900e-08
2.233356069740744450e-08
1.609628448302804421e-08
1.177628369344606120e-08
8.717884502074936530e-09
6.552975680230924877e-09
5.015177823452767529e-09
3.902199896360027280e-09
3.077009326299796561e-09
2.442600362397548029e-09
1.938073624740267382e-09
1.526309725745200800e-09
1.185240217002766969e-09
9.024698535012609808e-10
6.708671801950314362e-10
4.855080130320163057e-10
3.418347333937299671e-10
2.344314534335614614e-10
