# bin_6_4
4.738240770412299206e-07
5.230399956004751414e-07
5.648374478601610820e-07
5.933359713665143730e-07
6.023120813734620441e-07
5.854889264651636068e-07
5.377792209832048936e-07
4.671159483359428311e-07
3.861933336555745031e-07
3.171263494096046183e-07
2.709341713800908357e-07
2.308070504067885054e-07
1.728596363560597264e-07
1.221774912780857378e-07
9.851810021553006254e-08
6.734952833539950310e-08
5.065274850258107275e-08
3.521391762729660989e-08
2.504196038109389453e-08
1.791615723336535264e-08
1.290286752517726084e-08
9.417161326900288417e-09
6.983909215243580337e-09
5.279513719067392869e-09
4.055274242631974211e-09
3.149594102715698204e-09
2.458566671918865020e-09
1.914913994128214985e-09
1.478201255611790050e-09
1.124279493655985870e-09
8.386194857647036882e-10
