# bin_10_5
8.354410637401261723e-11
9.407283402811135731e-11
1.040891642815863246e-10
1.126949268257958355e-10
1.187249086208710347e-10
1.208882381739512873e-10
1.180030141322275621e-10
1.088393998928220902e-10
9.492375988520612937e-11
7.862549320786399343e-11
6.446571047320148098e-11
5.498231413306693449e-11
4.711599856170462500e-11
3.557912246090674853e-11
2.485247917260900603e-11
2.012502949282279539e-11
1.365659707754466173e-11
1.024304354720993188e-11
6.971906226610096327e-12
4.874431327114962511e-12
3.410910019839177010e-12
2.386730095995196104e-12
1.681448058511549315e-12
1.198359524342559316e-12
8.705062162518733847e-13
6.447414981096635885e-13
4.862609206417756069e-13
3.722562814635527453e-13
2.874587459842383118e-13
2.223072904886334043e-13
1.709262575636329337e-13
