# bin_12_6
1.190628807743188298e-11
1.349992216608842757e-11
1.506361006192960758e-11
1.647847888962412917e-11
1.758522600034211784e-11
1.818531749231004321e-11
1.812317470557202603e-11
1.714752601035518031e-11
1.532055458021431676e-11
1.293824636242521412e-11
1.058767845387297099e-11
8.847684081446832890e-12
7.664225801929234744e-12
6.205515298882566749e-12
4.328465991822070136e-12
3.318261373553204185e-12
2.493576456657948411e-12
1.722757800646614077e-12
1.214209591007186321e-12
8.612970824820695753e-13
5.916270183638953444e-13
4.053046677137749521e-13
2.795085577079084167e-13
1.943774354321188585e-13
1.369939192031905131e-13
9.837194763649850303e-14
7.204258090664227262e-14
5.383264406165033162e-14
4.090380779780548712e-14
3.142251157966347745e-14
2.422642226354323356e-14
