# bin_8_5
5.432870754920164321e-08
6.076251174359056977e-08
6.668194770396759432e-08
7.146497003682231759e-08
7.432847089739551445e-08
7.458688231001018110e-08
7.127488781146003345e-08
6.429763678590596845e-08
5.483658024505171557e-08
4.497275368949184591e-08
3.728531858362741396e-08
3.220488715728936283e-08
2.667640088352757874e-08
1.901747153935171200e-08
1.408322265315736836e-08
1.102748825745875644e-08
7.460597676154004787e-09
5.495505286583216006e-09
3.880840588166353119e-09
2.705367683831674450e-09
1.901228632158871871e-09
1.346288421913340829e-09
9.662382951632940549e-10
7.047825908141821710e-10
5.243514953542009042e-10
3.970443307692288671e-10
3.049692771481555932e-10
2.362750545027801108e-10
1.833172928721179044e-10
1.414206412231303576e-10
1.077925861257769385e-10
