# bin_4_2
3.129867077694960985e-07
3.356060533825739728e-07
3.495343665453559055e-07
3.514257693595954190e-07
3.371099011137108816e-07
3.055460497415243471e-07
2.619675411433895320e-07
2.154689128425313182e-07
1.781284274959756217e-07
1.530005948829295329e-07
1.275689601366185888e-07
9.298785665119541500e-08
6.808271378600757787e-08
5.376108845197123759e-08
3.721080353451668198e-08
2.781811572511269733e-08
1.990022973328975632e-08
1.436535868231685227e-08
1.050054715881686150e-08
7.778928315349285885e-09
5.862828388913477764e-09
4.494921648199742864e-09
3.500401688597886583e-09
2.752466781957501657e-09
2.170904421131211945e-09
1.705576753080588949e-09
1.325682941840089725e-09
1.013463896481391363e-09
7.583708511411405298e-10
5.534649422347683761e-10
3.932296904667377051e-10
