# bin_11_7
1.465091592248207219e-08
1.659553786974843843e-08
1.849504976557948989e-08
2.020178762811274191e-08
2.151820399508422778e-08
2.219999422236003372e-08
2.205994318424115262e-08
2.079258699012659388e-08
1.851085927609869158e-08
1.557958771488620086e-08
1.274469301624888355e-08
1.068299204053739828e-08
9.252757085988164794e-09
7.419469549278890498e-09
5.153084251537220316e-09
3.998987502488512582e-09
2.956312642228364882e-09
2.071291377088768166e-09
1.441190907236064889e-09
1.025309642328065607e-09
7.061894068150030657e-10
4.849261306082474383e-10
3.355586958258842189e-10
2.342083320746889340e-10
1.658477814478091459e-10
1.196932349665420327e-10
8.810077661050356588e-11
6.612835009150366230e-11
5.041539935272417138e-11
3.880201056339219315e-11
2.992459845978801714e-11
