# bin_12_11
3.442221230402822595e-06
3.924960298464543664e-06
4.411364160056273725e-06
4.868449180346354252e-06
5.252628754424244311e-06
5.508121442354250674e-06
5.578204684216571778e-06
5.400041399445906842e-06
4.934051181110243618e-06
4.262796682048676981e-06
3.512197607023299248e-06
2.890116208213440871e-06
2.483216442107950466e-06
2.104900133501281206e-06
1.544551685138114408e-06
1.097692821739973270e-06
8.871553536176840485e-07
5.862061501335565187e-07
4.408869342373009071e-07
3.003346956255875398e-07
2.043637646552923029e-07
1.399119842296634651e-07
9.513607723611926214e-08
6.477629841439459667e-08
4.435236986731629024e-08
3.082263713372259111e-08
2.179555041908671721e-08
1.573642755667916835e-08
1.161319147794224726e-08
8.738244593777992541e-09
6.667999433778827261e-09
