# bin_15_6
1.776627630903288800e-16
2.026193092126448852e-16
2.277885849816875881e-16
2.514705276764064814e-16
2.714206708348698452e-16
2.847629037351918840e-16
2.885452373851622586e-16
2.795604360557722601e-16
2.556612815414520206e-16
2.210769087042034439e-16
1.822277607650980619e-16
1.498912220940210998e-16
1.287133999512237730e-16
1.092392925344680006e-16
8.035702275912867309e-17
5.697939943017998277e-17
4.609864953755677284e-17
3.048080680217633088e-17
2.293563073769100261e-17
1.560013312828084565e-17
1.061814647815666819e-17
7.269931937757413858e-18
4.942541679090233587e-18
3.362960144775349052e-18
2.300224080885369249e-18
1.596515117421852271e-18
1.127321144230192338e-18
8.126923500555392701e-19
5.989005249888258512e-19
4.501149019890809784e-19
3.432105136970632130e-19
