# bin_10_6
6.228434124913317509e-09
7.027147799549892769e-09
7.793683896217799695e-09
8.462507098255245590e-09
8.947576080179935919e-09
9.148750297510177632e-09
8.983797381764443919e-09
8.343747458925152946e-09
7.325868959788094498e-09
6.095253455711476040e-09
4.989774720907198923e-09
4.233046442870458008e-09
3.647536534709133903e-09
2.808679249284630665e-09
1.947297657950116580e-09
1.565633495424667762e-09
1.086831829835927219e-09
8.025716345473370882e-10
5.445618581825804272e-10
3.839229159910432953e-10
2.674998348124971242e-10
1.861876219569410512e-10
1.304484540719045863e-10
9.233496474935610220e-11
6.654429279028108681e-11
4.890269885599590204e-11
3.662319954322394871e-11
2.788739280283034143e-11
2.146852964627680574e-11
1.659240726872099679e-11
1.277889589161299046e-11
