# bin_4_4
6.038124949388514980e-06
6.580666054607727766e-06
6.994815382632139452e-06
7.203208207797069583e-06
7.141908223316638748e-06
6.720033301105215494e-06
5.974889367749857339e-06
5.028352620584337192e-06
4.116465138042600522e-06
3.449876593316913461e-06
2.976828150324805657e-06
2.381794248418681715e-06
1.674606913200156437e-06
1.295778832630368509e-06
9.657278058880948655e-07
6.867652441486035205e-07
4.931327452972684106e-07
3.569644367663922734e-07
2.558689104941363542e-07
1.852560278827340029e-07
1.361748620799375854e-07
1.018098970972038136e-07
7.749324335113590604e-08
5.992549715590429386e-08
4.682036459219598647e-08
3.672985733037528426e-08
2.872895897861253607e-08
2.225258786861608610e-08
1.696965826781975689e-08
1.268048677249469422e-08
9.251429339307120564e-09
