# bin_14_2
1.450464303048974623e-29
1.648193715289566263e-29
1.844206145450307198e-29
2.024275969029722122e-29
2.169372872413736147e-29
2.255528621985523226e-29
2.262160495549780889e-29
2.159197639785388205e-29
1.945202818668932519e-29
1.656418177016164354e-29
1.357724370740061190e-29
1.127096624502433878e-29
9.749944897653686351e-30
8.052869383652303911e-30
5.703021953567357599e-30
4.244203834697613486e-30
3.299802966684319914e-30
2.220204981809453755e-30
1.614544649322646269e-30
1.129722406551848223e-30
7.719192398062837332e-31
5.276885369854178844e-31
3.612746175945953037e-31
2.491397557185791040e-31
1.736684349864457005e-31
1.232117386131953187e-31
8.911580209003704389e-32
6.582015969740138518e-32
4.955132014310949113e-32
3.784215654137499127e-32
2.911580510241581284e-32
