# bin_11_9
1.275516592820477566e-06
1.448826467798436741e-06
1.620305993963822702e-06
1.777410007399327864e-06
1.903339872466187301e-06
1.976969631747918166e-06
1.980514705242691680e-06
1.887297829621019760e-06
1.697577748404932804e-06
1.443216554224254006e-06
1.182452341339531594e-06
9.827323903691129240e-07
8.505420087936216664e-07
7.001174603899055672e-07
4.940700692743923149e-07
3.697700430169522582e-07
2.858396542500732820e-07
1.930776852859842359e-07
1.396395682216165816e-07
9.801460312222440290e-08
6.702877736353907244e-08
4.582203044527280068e-08
3.140865966721721693e-08
2.169376064300837453e-08
1.515367010354989221e-08
1.077603378073018163e-08
7.813161484149625069e-09
5.784354032919016725e-09
4.363142494567697151e-09
3.336572966751861895e-09
2.568720404777069698e-09
