# bin_15_8
8.677726221821643581e-12
9.909439516561095272e-12
1.115880537654365266e-11
1.234352955067579177e-11
1.335561890548530502e-11
1.405548572381044509e-11
1.429153516345510315e-11
1.391837993904922636e-11
1.280004288655707196e-11
1.113095310283572106e-11
9.201486946417962272e-12
7.551374025192720021e-12
6.459599434960075427e-12
5.521867364838056566e-12
4.126279781819177545e-12
2.888956585517772622e-12
2.346362061284771604e-12
1.563254201680138957e-12
1.176182242917045910e-12
7.927492428760724720e-13
5.413744862804293305e-13
3.706656958033310362e-13
2.517422658139160470e-13
1.705733581323950815e-13
1.159275155317434098e-13
7.982528616252529105e-14
5.585420963934454744e-14
3.987246358663223092e-14
2.910947671223121699e-14
2.170675310759782288e-14
1.646195855807129902e-14
