# bin_4_3
3.213888300545555461e-06
3.475825571318080291e-06
3.659271690902077237e-06
3.725413735858484305e-06
3.637266418574482138e-06
3.359624071474554187e-06
2.934475067165506746e-06
2.436404186159577430e-06
1.998459438949831449e-06
1.698114228690432478e-06
1.451213984772529288e-06
1.107505928536407008e-06
7.818434905061304284e-07
6.243729838887317901e-07
4.397400330215960111e-07
3.266674394513461386e-07
2.305028740931764852e-07
1.668745746097896135e-07
1.209891097961581076e-07
8.861860767017087779e-08
6.596677080897371595e-08
4.994652077304118125e-08
3.848202520743681843e-08
3.003658220902243156e-08
2.360431931809533195e-08
1.855157613170033560e-08
1.447945258810351870e-08
1.115211717054076701e-08
8.430904769682595355e-09
6.229761270295362905e-09
4.486617200785519142e-09
