# bin_10_12
3.041080731984367239e-08
3.449388043218600722e-08
3.850794248909013588e-08
4.215007205581823379e-08
4.501496355760149920e-08
4.659761438749373151e-08
4.649088261446193101e-08
4.406144013489765447e-08
3.943221899875129375e-08
3.335975370436669788e-08
2.731342462726446606e-08
2.279621465921309552e-08
1.973379888155279400e-08
1.603560446091188467e-08
1.123463859291184297e-08
8.555152122685003149e-09
6.471089842803081361e-09
4.449999079280003150e-09
3.159965002591237418e-09
2.231140590989503385e-09
1.531136655729210620e-09
1.049164998763068508e-09
7.224791311110949752e-10
5.015608321076124107e-10
3.527005574936515790e-10
2.526383908994263417e-10
1.845450025681974670e-10
1.375614545030072772e-10
1.043125988936144345e-10
8.002125800760233379e-11
6.165365821922073083e-11
