# bin_1_5
5.796350496097247104e-07
5.668551589407761945e-07
5.279339125147016279e-07
4.666626941421831123e-07
3.944400445195252009e-07
3.267362504792688459e-07
2.735223415409932716e-07
2.292142934095839010e-07
1.817131359915160363e-07
1.349751862866493586e-07
1.014121955675538980e-07
7.638379638404499513e-08
5.573408573037002602e-08
4.111807009875821877e-08
3.033336551622173981e-08
2.266188977684570519e-08
1.719092848927744657e-08
1.327368619485287311e-08
1.041841911567789227e-08
8.277346639482789693e-09
6.616073201875039438e-09
5.281613798473091482e-09
4.181412356562863659e-09
3.262287526462224487e-09
2.494935172704893280e-09
1.863042908497146569e-09
1.355283603578896396e-09
9.599445335735910721e-10
6.627636060045028303e-10
4.470748650620443856e-10
2.955348582261669080e-10
