# bin_12_6
1.014529035245748628e-15
1.149642326198396916e-15
1.281861145710530645e-15
1.401000626207758049e-15
1.493423008211968630e-15
1.542206562525993850e-15
1.534281469866285795e-15
1.448353907640613316e-15
1.291299388314434800e-15
1.088273859554108134e-15
8.903568702790630039e-16
7.454031392609834387e-16
6.456689417735817652e-16
5.197992949286930034e-16
3.615812289442646657e-16
2.792452477396887492e-16
2.078180974188278793e-16
1.447701680402915273e-16
1.012382062528005024e-16
7.195523590865009664e-17
4.950476661245548127e-17
3.395858093491256480e-17
2.346604531984109269e-17
1.635432969425947499e-17
1.155873696170367694e-17
8.324960041017748251e-18
6.115216770002461426e-18
4.581847705986229892e-18
3.488496225604559191e-18
2.682946181654587180e-18
2.068924694465644112e-18
