# bin_5_3
2.019368914933903050e-10
2.196237059951990376e-10
2.328413035629336073e-10
2.390247369761974706e-10
2.360229871166933434e-10
2.209408983135823638e-10
1.954837562294797575e-10
1.638300995055114533e-10
1.341151535241756282e-10
1.128390818352165697e-10
9.723789006366455218e-11
7.681602013769113017e-11
5.387752017490685143e-11
4.220528554988649818e-11
3.090235789775431329e-11
2.228868540866901941e-11
1.586790102471614301e-11
1.150775933305443437e-11
8.276765139942714535e-12
6.010972701109135834e-12
4.434322193717729743e-12
3.327297335782396058e-12
2.541739213415428002e-12
1.971127408130478619e-12
1.542964326836006527e-12
1.211368417360477342e-12
9.471332598157454862e-13
7.325895104133902879e-13
5.573839571701666950e-13
4.152374916645576911e-13
3.018618084204322328e-13
