# bin_15_10
1.201715217054109218e-12
1.373488967517837583e-12
1.548372220191353598e-12
1.715054233907377158e-12
1.858738446784755955e-12
1.960177255780513676e-12
1.997768620685408045e-12
1.952286854719152388e-12
1.802394426153973790e-12
1.573370978713115367e-12
1.303570555035847885e-12
1.068521211148061609e-12
9.114051073831649934e-13
7.822102744057563695e-13
5.909569857931990541e-13
4.111675016275165532e-13
3.335476343133882468e-13
2.245126937486623793e-13
1.681201825603144205e-13
1.127426398150269852e-13
7.737085159925232461e-14
5.292335691075814576e-14
3.589701015780601284e-14
2.425684922698998117e-14
1.641854997296311158e-14
1.124481717624609818e-14
7.818672359795862588e-15
5.542763512886116569e-15
4.018797446939740544e-15
2.978750941774184823e-15
2.248965692880886820e-15
