# bin_7_9
5.174404779770149868e-08
5.789082526497965864e-08
6.355644849219900110e-08
6.815060180068844725e-08
7.093016557072603879e-08
7.122954739404344054e-08
6.815297764707190491e-08
6.157432817530721088e-08
5.260184725869307125e-08
4.318473034006431195e-08
3.578377039653321089e-08
3.086066040342445343e-08
2.560367210459191305e-08
1.836388769758803113e-08
1.353626785605411150e-08
1.060866854805847505e-08
7.196384952071064053e-09
5.304102502715155309e-09
3.729684575765174428e-09
2.601557198695352743e-09
1.829038764474417196e-09
1.294631013679042997e-09
9.279565681556853203e-10
6.757467920312712809e-10
5.018841361822826762e-10
3.794221985144730040e-10
2.910304745626554172e-10
2.252508911903767051e-10
1.746696383342202462e-10
1.347406869181552417e-10
1.027392652122479870e-10
