# bin_15_11
1.510740079189473393e-11
1.727685779719139173e-11
1.949077472650975897e-11
2.160776132859474556e-11
2.344312394314801449e-11
2.475556231327451783e-11
2.526889444864306869e-11
2.474843133136208212e-11
2.290689974413600064e-11
2.004610910595187549e-11
1.663514010039956963e-11
1.362691279263724976e-11
1.160018507817599556e-11
9.977760112993715099e-12
7.593146206268907866e-12
5.266505726340867749e-12
4.262991550085310149e-12
2.894163466750026763e-12
2.156348141830733511e-12
1.442662843745731679e-12
9.942519389595145879e-13
6.793478345739686332e-13
4.601729416758761483e-13
3.104225085396994855e-13
2.095731816853995748e-13
1.430338226658800937e-13
9.904203544838206958e-14
6.988498350419428196e-14
5.043125453283643376e-14
3.722076956834879109e-14
2.800962786639543372e-14
