# bin_3_5
1.611690456417498107e-07
1.717349763533176796e-07
1.775133227184075394e-07
1.767973864137414111e-07
1.676089569145150312e-07
1.502475918882096360e-07
1.276231683598843722e-07
1.049118437950772363e-07
8.742326871694533021e-08
7.494579503751171340e-08
6.094637933319013114e-08
4.408800041118380374e-08
3.310114540081600683e-08
2.532661330838106003e-08
1.793615729400067552e-08
1.319036149323514035e-08
9.511839907052779793e-09
6.905234400163084348e-09
5.072533332418852926e-09
3.782392570733588721e-09
2.869847154610936233e-09
2.214190730997111559e-09
1.732129482309781355e-09
1.365335991964536466e-09
1.077042485524000969e-09
8.444337154476739258e-10
6.537163731216258316e-10
4.969445882283334151e-10
3.693334763901412054e-10
2.675567399421048631e-10
1.887149767815647976e-10
