# bin_9_11
3.529847759353638707e-08
3.989211992447974945e-08
4.433454869600672241e-08
4.826103864651982393e-08
5.118885583223933758e-08
5.254146334487197824e-08
5.185934476562383496e-08
4.847432972011828521e-08
4.282062331885448104e-08
3.580792332542573453e-08
2.930327808706760557e-08
2.472791549198891724e-08
2.135697033641742327e-08
1.674609304854918865e-08
1.161665091524484798e-08
9.194631943196058878e-09
6.567261674920600216e-09
4.735577251168951221e-09
3.247403148603913871e-09
2.300355717200216620e-09
1.594323326301732431e-09
1.102852501947336131e-09
7.684494373492547035e-10
5.405767839883630299e-10
3.865966596689884775e-10
2.818842311526073587e-10
2.095437586133040880e-10
1.585912026015091729e-10
1.215913486461871806e-10
9.381235190274434061e-11
7.229487367715577465e-11
