# bin_8_7
2.856051636700158721e-09
3.202363562660726354e-09
3.525203463654103747e-09
3.792572938939472699e-09
3.963806245950502806e-09
3.999875916859433512e-09
3.853137014398009624e-09
3.504247952029403612e-09
3.013370898296128070e-09
2.478688904328342817e-09
2.044808539570663281e-09
1.759610928096734435e-09
1.479395533286980650e-09
1.075731109518971053e-09
7.764392844642576356e-10
6.206279036139647199e-10
4.158628081207007131e-10
3.113670254811951717e-10
2.165759946388975461e-10
1.506164122038387215e-10
1.057459349699838087e-10
7.452651271189857307e-11
5.311198274908380095e-11
3.840959531821201813e-11
2.833440992992470317e-11
2.129220741427977676e-11
1.625633444222619478e-11
1.254899804138001993e-11
9.726313033433980491e-12
7.514440864518646367e-12
5.748151606802707925e-12
