# bin_12_13
1.521336999348247931e-08
1.734101110996456653e-08
1.948140046022643091e-08
2.148849051574447250e-08
2.316896357804487178e-08
2.427578780031884204e-08
2.456212585525195145e-08
2.374532512843258451e-08
2.166796735619948498e-08
1.869496713871873041e-08
1.539629068974970627e-08
1.267998124101171140e-08
1.090146973437768613e-08
9.218265676428946361e-09
6.742701219450354972e-09
4.813465994631885158e-09
3.874597445852925712e-09
2.566126973709044836e-09
1.923066622839857347e-09
1.313195426230180281e-09
8.942454958093425449e-10
6.120344367458182554e-10
4.163967348439677968e-10
2.838397973468920756e-10
1.946709550455452627e-10
1.355445159632716822e-10
9.605186720030122213e-11
6.950160671321429355e-11
5.139073813694958858e-11
3.872498965270144220e-11
2.957395365357428671e-11
