# bin_1_7
6.630849430688712594e-07
6.493972357723259188e-07
6.058206116002565692e-07
5.363843833209659369e-07
4.539009206837941971e-07
3.760309020865021305e-07
3.146194300674142847e-07
2.638493044073977940e-07
2.096967337280205160e-07
1.559191731630948443e-07
1.170144597231949723e-07
8.823262383422501727e-08
6.438042899165698277e-08
4.748313505248185281e-08
3.501308546844017745e-08
2.614013172455492111e-08
1.981200310122689909e-08
1.528358450953393615e-08
1.198631692641189585e-08
9.517354729880874616e-09
7.604864157954750918e-09
6.070975788548947486e-09
4.807758039246802325e-09
3.753036839405449959e-09
2.872458302722326773e-09
2.146925111538639569e-09
1.563353313466327493e-09
1.108424747306421629e-09
7.659890675833800035e-10
5.171310813579611168e-10
3.420816531279529119e-10
