# bin_14_10
1.180462472608350375e-11
1.347270343902222892e-11
1.516055520241884719e-11
1.675582474546250792e-11
1.811063515217327094e-11
1.903458383924706811e-11
1.932593884411085137e-11
1.877964440759109490e-11
1.722918746621010918e-11
1.494643242536404221e-11
1.233979343658203494e-11
1.013619685899818881e-11
8.685294603823371641e-12
7.402934528477496404e-12
5.494548504722083100e-12
3.866328008298401317e-12
3.137044904504502631e-12
2.081424816024374436e-12
1.567354680692420952e-12
1.060379126235914940e-12
7.228060932266463945e-13
4.949484616018558811e-13
3.363121530801647194e-13
2.282717237185890695e-13
1.555631318583741857e-13
1.074804349201995034e-13
7.549987641139115494e-14
5.412697669631259631e-14
3.967891030612461356e-14
2.969184032677354553e-14
2.257320447833467286e-14
