# bin_7_5
2.915698645900510727e-10
3.240483053380001433e-10
3.528799740149364246e-10
3.745747981541864881e-10
3.849333056119342299e-10
3.806082967430787717e-10
3.566546125910049385e-10
3.158251580439382764e-10
2.646839982225764198e-10
2.165549804088927963e-10
1.822282463903066285e-10
1.574202646171313388e-10
1.244747849459017681e-10
8.665503020347030205e-11
6.809082382702921040e-11
4.952491923189522181e-11
3.555463591963046946e-11
2.487596414583682959e-11
1.788416921188055609e-11
1.263641306108888604e-11
8.969291706526638216e-12
6.449140888780503690e-12
4.706023742047073130e-12
3.498292117292271725e-12
2.648769490926950247e-12
2.035289330045594859e-12
1.579401469179298412e-12
1.229327108925747446e-12
9.528968254938618574e-13
7.307367566959168113e-13
5.514058571495095409e-13
