# bin_9_12
4.886619185440742153e-08
5.524609648127144955e-08
6.142648138287209535e-08
6.690436876960524163e-08
7.101310703479979910e-08
7.295245175177851900e-08
7.208639261563285712e-08
6.747730678240363284e-08
5.968787635654160333e-08
4.997123737006136653e-08
4.089335450508449706e-08
3.446833522656875241e-08
2.978077449883596799e-08
2.344158921249201260e-08
1.627150784264758975e-08
1.283041316143920303e-08
9.220215353902991335e-09
6.614950526643432054e-09
4.550481701320956061e-09
3.223929739669211850e-09
2.232012543032554732e-09
1.542213555675716820e-09
1.073254646176243906e-09
7.539490581074595799e-10
5.382552491619377189e-10
3.917606750088403457e-10
2.907195510783932618e-10
2.197076208900665331e-10
1.682781199973659337e-10
1.297701139962839777e-10
1.000105309679974566e-10
