# bin_1_13
7.726678009659067255e-07
7.577880076728323446e-07
7.080981603349244939e-07
6.279400029493415081e-07
5.319824807596363255e-07
4.407625994108893718e-07
3.685864228573807101e-07
3.093305674874972362e-07
2.464436475373447544e-07
1.834219638474179876e-07
1.375027141945890695e-07
1.037920209386492355e-07
7.573445456795058713e-08
5.584147882199205637e-08
4.115830261008701514e-08
3.070761660134768861e-08
2.325389053537772482e-08
1.792290003816630435e-08
1.404521540940341092e-08
1.114568187355413968e-08
8.903303329061104305e-09
7.107533126245031235e-09
5.630249167573473423e-09
4.397468491203087268e-09
3.368206072415677956e-09
2.519707529635345012e-09
1.836581922333446266e-09
1.303402898912170187e-09
9.015405435158771142e-10
6.091260638632142574e-10
4.032050222926665093e-10
