# bin_14_7
1.164001211415306947e-16
1.325553494444074609e-16
1.487366075469561037e-16
1.638195579824543118e-16
1.763098610566645886e-16
1.843082152029485018e-16
1.860000442814131729e-16
1.791192311082302618e-16
1.627851480213988130e-16
1.398661866045823659e-16
1.149708845913665121e-16
9.488186492190808039e-17
8.178180480153005598e-17
6.872567894056974970e-17
4.969854633877519726e-17
3.589438662714964868e-17
2.869719434089704037e-17
1.899404814387039699e-17
1.417035651582030055e-17
9.748212059294944662e-18
6.635609243366500299e-18
4.539127049672788459e-18
3.091193410169746955e-18
2.114199330035606717e-18
1.457216753210011711e-18
1.020623152824784915e-18
7.280289989639951894e-19
5.304045574882507976e-19
3.946508623697218248e-19
2.988675146218602234e-19
2.289651304517522103e-19
