# bin_8_3
4.666256777206974862e-16
5.186665224589604383e-16
5.648968397670962585e-16
5.997341204309967515e-16
6.164404222035751976e-16
6.096909194184560646e-16
5.714943934418812263e-16
5.062142782957724260e-16
4.243046612376660226e-16
3.471112811818184069e-16
2.920258277397946308e-16
2.523559378291954663e-16
1.997021229125756421e-16
1.389353044688324684e-16
1.091747974868312920e-16
7.946308566152805633e-17
5.702186730452683411e-17
3.987105428604882333e-17
2.868319734562699180e-17
2.026353452807474551e-17
1.437930558589411031e-17
1.033725773166898944e-17
7.541630996903887613e-18
5.604980356878794168e-18
4.243114960876063394e-18
3.259970478087706772e-18
2.529645823954109044e-18
1.969009980953198239e-18
1.526402382397117525e-18
1.170711701659477236e-18
8.835756576605295718e-19
