# bin_6_5
3.255461200934483118e-09
3.596966353960570875e-09
3.888905656405516082e-09
4.091065531022726688e-09
4.160033323476846971e-09
4.053634854764650166e-09
3.733843505228170537e-09
3.252223786045180725e-09
2.693715852799113432e-09
2.210422766957024663e-09
1.884391946547768894e-09
1.609233007875861815e-09
1.214944028184142417e-09
8.557053186249685401e-10
6.883432737109939388e-10
4.744131352295019073e-10
3.548067814042295785e-10
2.463971637852328304e-10
1.756103560722405524e-10
1.254390075034986194e-10
9.016220151547972522e-11
6.566836366000261207e-11
4.858984158706408045e-11
3.664742835579018769e-11
2.809560939917600586e-11
2.179086927924635592e-11
1.699801284948297114e-11
1.323947804364630306e-11
1.022683646837693291e-11
7.787653947995469250e-12
5.818614594883211599e-12
