# bin_3_9
-1.027968654048876759e-20
-1.148520369760300400e-20
-1.258806126504165819e-20
-1.346941900940946344e-20
-1.398021276261622905e-20
-1.399481414117996833e-20
-1.332707537082310323e-20
-1.198354186890115550e-20
-1.018253008738457130e-20
-8.348703767270522989e-21
-6.941716676128715146e-21
-6.002488900819397191e-21
-4.934098750909846412e-21
-3.492796258802908959e-21
-2.619424438325976335e-21
-2.025672266691040603e-21
-1.383126773346482288e-21
-1.008081029955774215e-21
-7.164324800363121863e-22
-5.005529407097490086e-22
-3.521013638600687730e-22
-2.500061232589969737e-22
-1.800145067831859049e-22
-1.318067826235593064e-22
-9.842020757813762603e-23
-7.476036312526204210e-23
-5.756003566480602523e-23
-4.465241552910944863e-23
-3.465030903066568440e-23
-2.670793153383295381e-23
-2.032209150189485363e-23
