# bin_5_8
-5.413250959348615599e-14
-6.045596728857334881e-14
-6.622802118464384615e-14
-7.082092098254114469e-14
-7.344894353137877549e-14
-7.345663897786200334e-14
-6.986298290679872610e-14
-6.274397875537679806e-14
-5.325308083392331707e-14
-4.365144343017151981e-14
-3.632894945553971545e-14
-3.141863266517697564e-14
-2.575278989245261760e-14
-1.819423558114750587e-14
-1.370029743132059522e-14
-1.054604804679522557e-14
-7.226980884636006545e-15
-5.247897867767472686e-15
-3.735768922651957641e-15
-2.612229383277067002e-15
-1.838414080771510584e-15
-1.306621323918172206e-15
-9.418354584243810613e-16
-6.904769670894490604e-16
-5.161886271934550250e-16
-3.924938039965213987e-16
-3.024118255020132658e-16
-2.346812896173499166e-16
-1.821099144535446179e-16
-1.403171689192631700e-16
-1.066994950157181083e-16
