# bin_9_3
-1.270512847155869609e-09
-1.356794957669700067e-09
-1.406254586464726587e-09
-1.405233618000163599e-09
-1.338024236324881997e-09
-1.204813955780491063e-09
-1.027546518730218038e-09
-8.462489552449952291e-10
-7.037086169132246844e-10
-6.028411413643985105e-10
-4.940114461853143096e-10
-3.600182985659481355e-10
-2.680299839478425348e-10
-2.064430659457414618e-10
-1.460327824109484485e-10
-1.075516976923879873e-10
-7.736703781966107769e-11
-5.612113085206616235e-11
-4.113959359524247480e-11
-3.059320554088077168e-11
-2.314662280878701139e-11
-1.781012824989461118e-11
-1.390304081256949666e-11
-1.094459196673628498e-11
-8.629941928589616286e-12
-6.769340239842926529e-12
-5.247269297374561164e-12
-3.996915019940732600e-12
-2.978249016099868208e-12
-2.164019701320949005e-12
-1.531190411380252610e-12
