# bin_13_7
-3.934021722628765446e-10
-4.405753277729659440e-10
-4.842773541161498756e-10
-5.200521012476934130e-10
-5.422639693630946590e-10
-5.457129304789879228e-10
-5.237012162622965319e-10
-4.746219705668567907e-10
-4.065645072188269994e-10
-3.343919255058646959e-10
-2.767124981029348734e-10
-2.383648854242564776e-10
-1.987591242095961212e-10
-1.435751304614012972e-10
-1.050079373475125462e-10
-8.278862619896736299e-11
-5.607814267205618367e-11
-4.149488928789789397e-11
-2.904967951978308577e-11
-2.026111570305087227e-11
-1.423523238695677850e-11
-1.005846412717704556e-11
-7.192028275553497946e-12
-5.221673408986881801e-12
-3.866621138857758196e-12
-2.915261755122689185e-12
-2.231321031530634167e-12
-1.724727691624758077e-12
-1.336895677980001577e-12
-1.031780795288691776e-12
-7.877025455293396331e-13
