# bin_2_10
-5.144218341775297239e-27
-5.766062065122516451e-27
-6.344708854454869802e-27
-6.822257421968231769e-27
-7.125205127433066565e-27
-7.184211960153374372e-27
-6.911627192099127210e-27
-6.277437285655115824e-27
-5.387848222174529822e-27
-4.432015705245288633e-27
-3.660224867770639060e-27
-3.153472623340294104e-27
-2.645065851787121739e-27
-1.914859572593297301e-27
-1.388965869158839872e-27
-1.107526838579445063e-27
-7.420134892440409323e-28
-5.548149923034446540e-28
-3.871831731131401382e-28
-2.692569425006488088e-28
-1.890747165694941447e-28
-1.333534661547555818e-28
-9.516909515671275712e-29
-6.894406698499189913e-29
-5.094969299743219118e-29
-3.834864141595755312e-29
-2.931793775800497574e-29
-2.265199094264607798e-29
-1.756356708643648538e-29
-1.356781154223205244e-29
-1.037290585181590094e-29
