# bin_12_15
-3.587885198588766896e-13
-4.106089372451623815e-13
-4.636357229400673217e-13
-5.145375643620815575e-13
-5.589604054074177989e-13
-5.911855870997342543e-13
-6.045443753050910772e-13
-5.935818395896817151e-13
-5.510341040967965339e-13
-4.835004103711380523e-13
-4.022001431721483302e-13
-3.293649039950572603e-13
-2.798354296184880592e-13
-2.411914864844354204e-13
-1.849917567828966768e-13
-1.280391649146122773e-13
-1.033023074873033438e-13
-7.087236765177065190e-14
-5.245521298541354071e-14
-3.505598676538221583e-14
-2.428550684311849125e-14
-1.657051606672394510e-14
-1.120463614798201697e-14
-7.545789360000843301e-15
-5.081443573774289362e-15
-3.455801925276862090e-15
-2.382627694886149075e-15
-1.672882551691681262e-15
-1.201023240278781026e-15
-8.822198080103720033e-16
-6.613899770969822926e-16
