# bin_8_9
-9.198025685262060501e-12
-1.036714823899795391e-11
-1.148414053886341325e-11
-1.245100188762159236e-11
-1.313986247808034460e-11
-1.340619073379019257e-11
-1.312236156004115386e-11
-1.214268770000375797e-11
-1.062104149220334270e-11
-8.820892947256264603e-12
-7.229605348039413594e-12
-6.152798215282125433e-12
-5.285111897207049068e-12
-4.026136554529604356e-12
-2.804954480026383830e-12
-2.263399630313688312e-12
-1.552531333504863260e-12
-1.156002031795274676e-12
-7.860995890379845434e-13
-5.518080609600795365e-13
-3.853871511061112843e-13
-2.690385405289658640e-13
-1.890909904666196730e-13
-1.343699461103508961e-13
-9.727648646894320384e-14
-7.180569644202817786e-14
-5.399140119809904623e-14
-4.123802333222303261e-14
-3.180204776364160730e-14
-2.458764915586790520e-14
-1.891858866701266566e-14
