# bin_10_1
-3.339946280769059804e-09
-3.273668403084179552e-09
-3.056772795277450154e-09
-2.708743203432986570e-09
-2.293877949518504484e-09
-1.901189062055484346e-09
-1.590757695476744889e-09
-1.334676690922388818e-09
-1.061972542667311246e-09
-7.900954423651586064e-10
-5.928029577058621471e-10
-4.472355487356772085e-10
-3.263709760818863579e-10
-2.407032134048268123e-10
-1.774668235604695011e-10
-1.324623937114434713e-10
-1.003621940519259427e-10
-7.739567295192933135e-11
-6.068021745175210935e-11
-4.817136234512425474e-11
-3.848857775017804647e-11
-3.072739307771369056e-11
-2.433841095002969331e-11
-1.900483222822896332e-11
-1.455144432284704124e-11
-1.088098187479755665e-11
-7.927218569449197842e-12
-5.623170641655737751e-12
-3.887720590404809767e-12
-2.625717220851978274e-12
-1.737502179200803885e-12
