# bin_5_10
-3.477237076657383510e-17
-3.913437515355825423e-17
-4.327402879790902699e-17
-4.681487560529950560e-17
-4.927001666146123301e-17
-5.011074947182885180e-17
-4.882728005196226121e-17
-4.494646203239358744e-17
-3.910960878089682689e-17
-3.237769815727600074e-17
-2.657227422831383529e-17
-2.270439970224970595e-17
-1.941305032497648853e-17
-1.457045461321331684e-17
-1.021963485837271612e-17
-8.279842857856162907e-18
-5.590504824937069798e-18
-4.205165401173307368e-18
-2.870083367704942597e-18
-2.002844478187982956e-18
-1.402864263021447306e-18
-9.829578027796580211e-19
-6.937476597686998204e-19
-4.955641421311238143e-19
-3.608959889417665310e-19
-2.679465753560155494e-19
-2.025143688085770067e-19
-1.552746300759533658e-19
-1.200031034907231271e-19
-9.281094141211959270e-20
-7.131542582246304126e-20
