# bin_12_12
-2.119710646452812561e-11
-2.415032636408254118e-11
-2.711430865845628178e-11
-2.988488891978112535e-11
-3.219087905581742807e-11
-3.368660799005880329e-11
-3.403592264359631964e-11
-3.283211299697665128e-11
-2.989278993230302925e-11
-2.571805128308980033e-11
-2.117413980720017584e-11
-1.746612795711472388e-11
-1.504206577211273408e-11
-1.267129457475894151e-11
-9.205898163991707074e-12
-6.621646009952804218e-12
-5.307363824522122152e-12
-3.515068013012784074e-12
-2.626728483871156625e-12
-1.802339102433835829e-12
-1.227177649748393795e-12
-8.397288253493864956e-13
-5.717373379024455047e-13
-3.905741085458679805e-13
-2.687126815153113717e-13
-1.877953701810026636e-13
-1.336284054563244896e-13
-9.710561159823628087e-14
-7.208250585263759969e-14
-5.448574383856814748e-14
-4.169206473143259272e-14
