# bin_13_9
-1.964229623627027714e-10
-2.221212106670348965e-10
-2.470406051364276878e-10
-2.691618078184641908e-10
-2.858054508365964774e-10
-2.937492093084830984e-10
-2.904228103299903902e-10
-2.720399224282764508e-10
-2.407817002279607342e-10
-2.017334610850280782e-10
-1.651486371153904818e-10
-1.391854447763842716e-10
-1.202773848084420370e-10
-9.479660555797113744e-11
-6.584642549976577096e-11
-5.186489927525584524e-11
-3.734318268318576637e-11
-2.675778109233069008e-11
-1.842983251670853933e-11
-1.305637387061702625e-11
-9.037723895293978669e-12
-6.243453794427887827e-12
-4.343670738554338859e-12
-3.050236203553773862e-12
-2.176579168245114607e-12
-1.583377496830635506e-12
-1.174398039351281710e-12
-8.871494235624714523e-13
-6.792781016870538659e-13
-5.237622391961554151e-13
-4.036631163494796567e-13
