# bin_3_2
-7.060759543745573432e-10
-7.263004625444441113e-10
-7.190825146409246161e-10
-6.774716430222891436e-10
-6.039929281517236750e-10
-5.114899575824569055e-10
-4.213675675743228851e-10
-3.523080793233054864e-10
-3.002915303593322168e-10
-2.413520179773047625e-10
-1.759061570874427243e-10
-1.327329556118084461e-10
-1.006967468636223331e-10
-7.236029932670461908e-11
-5.331568810995840023e-11
-3.886341413917365685e-11
-2.863147351410791086e-11
-2.138643643979344697e-11
-1.624783849482678489e-11
-1.256289392919619096e-11
-9.860667087458963847e-12
-7.818798799716074980e-12
-6.219007513763917386e-12
-4.926497142859092783e-12
-3.860514211275275178e-12
-2.974380833761038793e-12
-2.242088791855529914e-12
-1.647862768831908845e-12
-1.178794798456995352e-12
-8.209864792992309483e-13
-5.577178782670081475e-13
