# bin_5_11
-6.902509266592333450e-19
-7.792563492899076794e-19
-8.649092413483376265e-19
-9.399872915619967864e-19
-9.949732769900111905e-19
-1.018671444638353797e-18
-1.002029291911481470e-18
-9.325459679097041434e-19
-8.202837250986618378e-19
-6.837252964528989612e-19
-5.597133700700536536e-19
-4.742528321404195766e-19
-4.091432524082303028e-19
-3.166955242073499303e-19
-2.194087780107167601e-19
-1.759090635163255284e-19
-1.229799108581803800e-19
-9.035362630711676257e-20
-6.134658702626714546e-20
-4.335055515740066636e-20
-3.016826672243969447e-20
-2.096611041696551925e-20
-1.466942826534750264e-20
-1.036614129150349648e-20
-7.455642654413482871e-21
-5.467873952996475931e-21
-4.087162852154717071e-21
-3.107647639780623594e-21
-2.390218962301063481e-21
-1.846891255649159900e-21
-1.422969179662679994e-21
