# bin_12_7
-3.522377440328718536e-10
-3.944321346592464621e-10
-4.334998578628816928e-10
-4.654472769235647157e-10
-4.852262037262530488e-10
-4.881949139416651320e-10
-4.683420348484798732e-10
-4.243012590398435397e-10
-3.633306972491799999e-10
-2.987909359633231029e-10
-2.473022271767249548e-10
-2.130654002254115262e-10
-1.775543482321789992e-10
-1.281481206617437326e-10
-9.381895126625090595e-11
-7.391329362322265105e-11
-5.007644082025517518e-11
-3.703665527916334010e-11
-2.594288041298065298e-11
-1.809462441088265270e-11
-1.271424518173056459e-11
-8.985747053066883667e-12
-6.426978401921792221e-12
-4.667955348197314926e-12
-3.457886769517013193e-12
-2.607972542178861200e-12
-1.996661341147842733e-12
-1.543602044558870936e-12
-1.196564507906077260e-12
-9.234271164705983919e-13
-7.048774012776779316e-13
