# bin_10_10
-2.784028989190377291e-11
-3.154168393633898901e-11
-3.516047760133984101e-11
-3.841618026704891473e-11
-4.093358769140032758e-11
-4.224911235685367206e-11
-4.200148305135439053e-11
-3.961371589548366718e-11
-3.529085599845709960e-11
-2.972209548874987169e-11
-2.432940642240477312e-11
-2.039258109983040915e-11
-1.765897918476149366e-11
-1.417406481802577797e-11
-9.863215428601285324e-12
-7.639398432091512936e-12
-5.657864275600870308e-12
-3.959663308504862243e-12
-2.763695692418710728e-12
-1.962339556185111804e-12
-1.351517195836543583e-12
-9.283466309301420723e-13
-6.421676913420920403e-13
-4.480402111566612588e-13
-3.171071381236027622e-13
-2.287236920626697109e-13
-1.682475274104629963e-13
-1.262089429459956620e-13
-9.616964392036505621e-14
-7.398842307386320054e-14
-5.704908365822782538e-14
