# bin_10_6
-3.965243954799942738e-10
-4.408646703003679803e-10
-4.803169339835734365e-10
-5.101460081674091163e-10
-5.246968539569896726e-10
-5.192310860498201512e-10
-4.872635714935197924e-10
-4.320896313083295097e-10
-3.628583912244683158e-10
-2.972608458263964513e-10
-2.499342517822017763e-10
-2.155915002091298336e-10
-1.709941534439607163e-10
-1.198267363012772649e-10
-9.337060670635877106e-11
-6.843195880802557416e-11
-4.881939190723642837e-11
-3.448190075762945549e-11
-2.467187061225080772e-11
-1.741219943339243892e-11
-1.235547150533426777e-11
-8.872604745132808180e-12
-6.465851036491423842e-12
-4.798767901932196327e-12
-3.627816072782339219e-12
-2.783715780991210371e-12
-2.157780786787029453e-12
-1.678309726862774578e-12
-1.300552193310648754e-12
-9.974823103017596752e-13
-7.530746729307319810e-13
