# bin_12_9
-1.581498234205406906e-10
-1.788024952776598889e-10
-1.988096948169324142e-10
-2.165419817444455512e-10
-2.298389577827088660e-10
-2.361097630697508920e-10
-2.332855107727320522e-10
-2.183395763717095378e-10
-1.930991804633219839e-10
-1.616772141305160065e-10
-1.323544325828656711e-10
-1.116209010920334927e-10
-9.643847039544253307e-11
-7.584069933196858525e-11
-5.265675474155775396e-11
-4.156772266719725339e-11
-2.982478332352558405e-11
-2.143230654511327141e-11
-1.473411696433710846e-11
-1.043818651494508569e-11
-7.229834497802911635e-12
-4.997637056688706845e-12
-3.479417729096263452e-12
-2.445291507401175541e-12
-1.746658015294713725e-12
-1.271950670340572019e-12
-9.443616025089441560e-13
-7.139884247921239884e-13
-5.470200390556644488e-13
-4.219081598257923952e-13
-3.251586317460637751e-13
