# bin_4_8
-6.735365655426196720e-16
-7.504811033089260929e-16
-8.198106400299010692e-16
-8.735817022964347163e-16
-9.019867845626003695e-16
-8.972321806065442926e-16
-8.471893421330441791e-16
-7.556324360674069703e-16
-6.372184750563372974e-16
-5.216870938446818799e-16
-4.365612904453207595e-16
-3.777367674333388780e-16
-3.044119538154903386e-16
-2.128935666776454095e-16
-1.640524670562249644e-16
-1.228455595850943915e-16
-8.608507233622894774e-17
-6.119982290276872067e-17
-4.392623752337217899e-17
-3.086938852494026607e-17
-2.179830324650372314e-17
-1.558212227241660120e-17
-1.130138186220991695e-17
-8.344151168363014544e-18
-6.279216813458412890e-18
-4.801076678691113378e-18
-3.713735440096334277e-18
-2.887299530792692678e-18
-2.239974292919827863e-18
-1.722243893590261549e-18
-1.304831640266768428e-18
