# bin_7_6
-1.476519079902115501e-10
-1.638573433080902058e-10
-1.781121546837264097e-10
-1.886324384923245857e-10
-1.933340451712907987e-10
-1.904492036803425452e-10
-1.776915467668053812e-10
-1.566877297621875890e-10
-1.309727849123870584e-10
-1.072813455462845629e-10
-9.060780591221875120e-11
-7.804171110595093615e-11
-6.098126187868360781e-11
-4.260674982216668252e-11
-3.368497709163346964e-11
-2.415975675480367428e-11
-1.753622521797772083e-11
-1.225284928244279568e-11
-8.783031135299061250e-12
-6.223958174287460061e-12
-4.432937232224985134e-12
-3.197942556952017911e-12
-2.341925274794491659e-12
-1.747489231699302879e-12
-1.327454997449724039e-12
-1.022513342371408355e-12
-7.945699251766415048e-13
-6.185647997693380668e-13
-4.790328811068096810e-13
-3.666735207519386949e-13
-2.759748271196870166e-13
