# bin_1_8
-3.378072013667046931e-26
-3.739412760726096138e-26
-4.052136888620150800e-26
-4.274844775256000090e-26
-4.360953081021801134e-26
-4.268712491381286189e-26
-3.951692930530350804e-26
-3.458084336501775676e-26
-2.873778589433272847e-26
-2.355238889912101732e-26
-2.001723267608738646e-26
-1.718133032359276502e-26
-1.313709526386865385e-26
-9.186208500835470296e-27
-7.385712679541602910e-27
-5.137810002879779063e-27
-3.823148521429320396e-27
-2.645980726319726699e-27
-1.890967728982031696e-27
-1.347926113588135496e-27
-9.660375871193162314e-28
-7.012147149957948793e-28
-5.168551925568145166e-28
-3.883542852020245852e-28
-2.967994636581910843e-28
-2.296895876571969247e-28
-1.789878205673475908e-28
-1.394399690069071711e-28
-1.078519648829886492e-28
-8.231197444160698094e-29
-6.168351966608756358e-29
