# bin_6_6
4.706861925277933153e-06
5.243876354473700084e-06
5.727455027408671615e-06
6.102120405491643119e-06
6.299444624220742157e-06
6.265066528289001794e-06
5.914613237146007870e-06
5.274193077146099233e-06
4.447579046143868546e-06
3.639602095662549101e-06
3.044740179379055714e-06
2.633961003600552072e-06
2.122637415588998866e-06
1.484638985843256883e-06
1.143256190846517347e-06
8.563242733109080191e-07
5.997490045850123516e-07
4.265763955677812172e-07
3.060194248359031047e-07
2.150091045717703441e-07
1.518137206149367103e-07
1.085010080183801013e-07
7.867938685650766914e-08
5.807966298796858823e-08
4.369853256695977886e-08
3.340627119971971341e-08
2.583660429360140022e-08
2.008463518137319661e-08
1.558026587727777038e-08
1.197840135607802009e-08
9.074905061563963993e-09
