# bin_5_3
3.941563113078100152e-07
4.306519373516508039e-07
4.591855238894783340e-07
4.746821255105408953e-07
4.729288992848865253e-07
4.477766569336187160e-07
4.004893446219460754e-07
3.388300087372840528e-07
2.775027304150570432e-07
2.314788850610436106e-07
1.998840293546747884e-07
1.623214408465988390e-07
1.147202336072693088e-07
8.731372779998201324e-08
6.649285551587100572e-08
4.648792005171305558e-08
3.378931032318076754e-08
2.436794652756738678e-08
1.739823878645759559e-08
1.255523319687379047e-08
9.190081191956117848e-09
6.841334421371506229e-09
5.184480800172685239e-09
3.994954270562761927e-09
3.113778208508252622e-09
2.440055424041977756e-09
1.909141419757510353e-09
1.481093887091654535e-09
1.132489355937298211e-09
8.492744957270491281e-10
6.222597400141384395e-10
