# bin_13_4
9.666508101146911426e-19
1.096682278569391846e-18
1.224623228304696954e-18
1.340872515799036645e-18
1.432561658167009689e-18
1.483597688453743060e-18
1.481102793018276288e-18
1.404670975297490233e-18
1.257777995102969241e-18
1.064501751185138624e-18
8.713978690785802032e-19
7.268477440575140253e-19
6.295299303756959807e-19
5.125976166327569848e-19
3.587826081424430276e-19
2.728965309455845438e-19
2.070632250416858516e-19
1.419212260846135075e-19
1.008809177751689516e-19
7.134563077650715440e-20
4.893193953548423720e-20
3.348920504227063574e-20
2.304716311045448290e-20
1.599129794301904123e-20
1.123727103729254483e-20
8.043491103182702799e-21
5.871564379303482786e-21
4.374467374480244168e-21
3.316270495488457681e-21
2.544080003276731110e-21
1.960735813959388011e-21
