# bin_4_1
3.679369094199436905e-09
3.917202288776537570e-09
4.043633913908186309e-09
4.021993080794920728e-09
3.802450039371295180e-09
3.397225687890903568e-09
2.873156154214856672e-09
2.354718431680198364e-09
1.965224909578142144e-09
1.692878030144415770e-09
1.370871966872269145e-09
9.754410754126773322e-10
7.426954298745365954e-10
5.653324956475434534e-10
3.995929538476842536e-10
2.927466074577563322e-10
2.126279693182774418e-10
1.542298142814441219e-10
1.134099440468345713e-10
8.475407175497199320e-11
6.447415821652158954e-11
4.988036299805201171e-11
3.911382220295298056e-11
3.088576331378182718e-11
2.439061257668828036e-11
1.912933866272009970e-11
1.480272983118298583e-11
1.123989533312547586e-11
8.338067083328565095e-12
6.024897301158987032e-12
4.236515689763083903e-12
