# bin_7_5
5.927385823666511719e-07
6.607103572484351502e-07
7.221017096742063494e-07
7.699511054310563579e-07
7.956368919359467843e-07
7.922709171734824898e-07
7.491572074726938823e-07
6.690503612975434158e-07
5.649797762079731663e-07
4.624037711067438124e-07
3.863429262236102165e-07
3.342545045402930928e-07
2.704347959356422253e-07
1.894511849987897781e-07
1.451924209255804124e-07
1.094438156150562468e-07
7.624516730298661257e-08
5.446089396729139233e-08
3.902791298842060222e-08
2.738886071417138883e-08
1.931983411858732939e-08
1.379016857177904153e-08
9.986606811173599476e-09
7.360777370839581249e-09
5.530489243362702936e-09
4.223069579870944281e-09
3.263610569575071032e-09
2.536221338497373818e-09
1.967668847608263647e-09
1.513571268067494794e-09
1.147655980225385857e-09
