# bin_12_9
3.691417023353799048e-07
4.200220574262169427e-07
4.707826036431983895e-07
5.178364347925484710e-07
5.564034268764498915e-07
5.804321312003941958e-07
5.843666324208383103e-07
5.608161038814052932e-07
5.079031657775490163e-07
4.348483359034893887e-07
3.569847475832327667e-07
2.952374666869736922e-07
2.549189104878030704e-07
2.128680565158387126e-07
1.525751275868785686e-07
1.114677603527626921e-07
8.826436590915913727e-08
5.868464453887280354e-08
4.341517529205571764e-08
3.006694284914204130e-08
2.048985423790738462e-08
1.400920237214069088e-08
9.556140095544783381e-09
6.556495097780913412e-09
4.539048185968107411e-09
3.195389579312875805e-09
2.292068276517773641e-09
1.679277255472102260e-09
1.255640590623292751e-09
9.543867030063271718e-10
7.326582866253213357e-10
