# bin_10_6
6.737465733731764229e-09
7.604608503088131789e-09
8.438351476020492699e-09
9.168134032293056143e-09
9.701081456268752509e-09
9.928118764393291990e-09
9.761386975265962766e-09
9.079549122256104463e-09
7.983286425832703018e-09
6.649210047115792897e-09
5.442004774343210629e-09
4.611168256042312601e-09
3.976974175392239385e-09
3.075313545989703586e-09
2.130217887824900477e-09
1.708505861360676012e-09
1.192914911252109004e-09
8.770087168893931375e-10
5.953235073366335135e-10
4.204981481267993295e-10
2.926564057897287822e-10
2.034199524057234876e-10
1.423497250105752661e-10
1.006137158107842589e-10
7.238439627284294429e-11
5.310159431932277975e-11
3.970374752519177031e-11
3.019483137200356658e-11
2.322668078814643094e-11
1.794696233709984313e-11
1.382605239261139155e-11
