# bin_9_1
3.629640370992449294e-22
4.047474979130209915e-22
4.425712269060328278e-22
4.721844887414897734e-22
4.883100977945883004e-22
4.866973632895462296e-22
4.607880078646242164e-22
4.120053452629908139e-22
3.483158980527990688e-22
2.851281610806168118e-22
2.379998670412070197e-22
2.058974399292175841e-22
1.670781655256349633e-22
1.172481339369159661e-22
8.949956506497851278e-23
6.778789437893727561e-23
4.704240486397409717e-23
3.372361271190567638e-23
2.413365485742512140e-23
1.692179586982852151e-23
1.192940789930767796e-23
8.506603032191791785e-24
6.153800771157869589e-24
4.530241398266591921e-24
3.399943384336517055e-24
2.593741379362175572e-24
2.003127000988440281e-24
1.556195972328531446e-24
1.207398760655811439e-24
9.291017924703119507e-25
7.049324818340597639e-25
