# bin_7_1
1.087988402195255190e-16
1.197224198076908564e-16
1.287880967639850502e-16
1.346249266071237728e-16
1.359002527947809301e-16
1.310393672270015649e-16
1.193285435671477114e-16
1.027605862567162856e-16
8.460032046358547615e-17
6.973400038871258735e-17
5.989088057669167389e-17
5.042533331130772311e-17
3.692806805205491295e-17
2.661790547112689310e-17
2.130014734690426067e-17
1.446256792175320017e-17
1.087433540238421572e-17
7.645794369964584550e-18
5.423818331832581076e-18
3.891088017623813338e-18
2.815948295020543113e-18
2.068233009642882372e-18
1.544761957938555836e-18
1.175542030743757148e-18
9.077627191850496114e-19
7.075409702765057199e-19
5.530876637390547358e-19
4.304797085010459081e-19
3.314417989787684475e-19
2.510362077438976237e-19
1.862300917321001240e-19
