# bin_14_4
1.008506467466289758e-20
1.146769244031196934e-20
1.284279727122444075e-20
1.411194966965485459e-20
1.514370684892224236e-20
1.577208884785023890e-20
1.584962036291552631e-20
1.517047160901264650e-20
1.370350974763246819e-20
1.170113751065355755e-20
9.598072512385520842e-21
7.952049156529988969e-21
6.873201557879109369e-21
5.709621003897768378e-21
4.067292198410726215e-21
2.998363327754150281e-21
2.353948535055193395e-21
1.573284157395805933e-21
1.154681293731643325e-21
8.037799463166152409e-22
5.484193734610418010e-22
3.748837390586531697e-22
2.561461013056672206e-22
1.761784117710666564e-22
1.223798888056180415e-22
8.648314862117023717e-23
6.229064548224788310e-23
4.582238654640877201e-23
3.438110415534762318e-23
2.619669036802109876e-23
2.013519886111587369e-23
