# bin_11_7
2.013678057741642390e-08
2.281198846122865241e-08
2.542644708143373999e-08
2.777741848882026086e-08
2.959360571979933414e-08
3.053916510453149165e-08
3.035633409873546544e-08
2.862447694598230874e-08
2.549319957321559015e-08
2.146413294849465836e-08
1.755896202260066518e-08
1.471341895571689618e-08
1.274408263257368896e-08
1.023020665836661772e-08
7.108064978178503845e-09
5.508939472479529431e-09
4.080024735640056476e-09
2.854066962471778162e-09
1.988474811645505412e-09
1.414380727548296196e-09
9.738585633717337415e-10
6.685211838936039395e-10
4.624233634337695329e-10
3.226219474445708949e-10
2.283330331373175533e-10
1.646946689716997756e-10
1.211556510129091632e-10
9.089385325860976306e-11
6.927066197627478421e-11
5.330309488578463543e-11
4.110694589848198656e-11
