# bin_15_1
3.088708478337364165e-36
3.517743995907105334e-36
3.947688678158732415e-36
4.348714670856147892e-36
4.681215595237483910e-36
4.894824943572065199e-36
4.941088711497566319e-36
4.760471566796825026e-36
4.328356629465275460e-36
3.720837394265430841e-36
3.059291581984066444e-36
2.524174595865531817e-36
2.174961808592618590e-36
1.828893109236249393e-36
1.324511722363157510e-36
9.553513615214735230e-37
7.642104657103211095e-37
5.060472618492767177e-37
3.776095355884127234e-37
2.595436673472253800e-37
1.766945184464537633e-37
1.208791841404634308e-37
8.231786682147331292e-38
5.628052210520092931e-38
3.876919663378859333e-38
2.713555893137251274e-38
1.934174860253481676e-38
1.408032808920592146e-38
1.046895609921640722e-38
7.923409825534603325e-39
6.067784447122827550e-39
