# bin_7_4
3.349667238055467149e-08
3.721739888779052111e-08
4.051458323840585883e-08
4.298650506171646572e-08
4.415055511687607753e-08
4.362426229216958735e-08
4.084130376474459197e-08
3.613353370718343803e-08
3.025766311573283182e-08
2.475392080203834747e-08
2.084592439110485628e-08
1.800706406850562356e-08
1.420341861853302724e-08
9.878798377825490305e-09
7.785839854403714804e-09
5.639344513713491411e-09
4.063128274270963206e-09
2.834924055240811651e-09
2.038978900651670656e-09
1.441678956893472181e-09
1.023902749525673542e-09
7.366990169278578508e-10
5.379201576481733471e-10
4.001626568228589293e-10
3.031853408232460636e-10
2.330848856450570327e-10
1.809356155160826172e-10
1.408460279402617059e-10
1.091625849185227359e-10
8.368641586330761181e-11
6.311942749821320581e-11
