# bin_12_1
1.577415707528725010e-29
1.781617709253525263e-29
1.978535821655766171e-29
2.151770432098855902e-29
2.279657411795983990e-29
2.336451145615731027e-29
2.301820400389564017e-29
2.146296993192994303e-29
1.891541671376357193e-29
1.578350187192298286e-29
1.291486235689496656e-29
1.092123176490275139e-29
9.429811775170493112e-30
7.342593581054636947e-30
5.083493107707168610e-30
4.055993044345841992e-30
2.861623593243546509e-30
2.086045033202895448e-30
1.419806350310603044e-30
1.005381729127424705e-30
6.983378420641148075e-31
4.842401678971015065e-31
3.381720067025921177e-31
2.384578123258395160e-31
1.710557696391739605e-31
1.251185223305223816e-31
9.329270474592427963e-32
7.079153977003227736e-32
5.437627922337591369e-32
4.199311888516314704e-32
3.236183195372945817e-32
