# bin_10_9
7.512688419912483081e-08
7.109849622877641754e-08
6.562634069706521867e-08
5.897841299083228753e-08
5.156606353891079972e-08
4.389776938845098008e-08
3.649469689082225364e-08
2.977271750902009581e-08
2.393976488520841994e-08
1.898970767148883901e-08
1.479647840900923524e-08
1.127606995017454783e-08
8.451158149818692590e-09
6.319761365700273201e-09
4.729791649476542499e-09
3.525933030338006778e-09
2.644830983045956615e-09
1.996293474839138405e-09
1.518589282114793036e-09
1.162907112798328663e-09
8.947867497061609067e-10
6.895427528683786692e-10
5.302276524511967310e-10
4.053229679406067356e-10
3.069290254692462163e-10
2.295393214868709399e-10
1.691262426775301242e-10
1.225506714634686630e-10
8.722935678174802308e-11
6.095601297386150078e-11
4.182161302981810137e-11
