# bin_9_1
2.291631726690728146e-08
1.956909315231466690e-08
1.631607029819680870e-08
1.334734164927227220e-08
1.076387567413731113e-08
8.567697896356433854e-09
6.705219363958428748e-09
5.141775088856746487e-09
3.888009959423298285e-09
2.938437346352798160e-09
2.228319263423579814e-09
1.693410129290477566e-09
1.298076769669866027e-09
1.005182169746550605e-09
7.857911334369805276e-10
6.188445073656143505e-10
4.891636142561916129e-10
3.863393298537830521e-10
3.034573023183103294e-10
2.360141507541701095e-10
1.810601640863471454e-10
1.365812378963088121e-10
1.010694371435081310e-10
7.325533236451183975e-11
5.196954675122285827e-11
3.609306599993623674e-11
2.456319414458370944e-11
1.640731755498145836e-11
1.077912351879210425e-11
6.980919450482401182e-12
4.467017890408406288e-12
