# bin_10_2
3.421880710307599347e-08
3.012238601917966543e-08
2.579969752115759652e-08
2.155643457672545449e-08
1.765742618437563101e-08
1.425484219309089477e-08
1.136505125741726914e-08
8.913182533885857868e-09
6.839733143875946505e-09
5.160964036696455015e-09
3.889434465885019786e-09
2.941116338903338528e-09
2.222929280891262287e-09
1.693681391373097562e-09
1.302603622375131075e-09
1.011317338931308207e-09
7.913632532808444442e-10
6.221462036468750175e-10
4.893369917762458952e-10
3.833114844473927280e-10
2.977305307235356553e-10
2.284074894361241610e-10
1.724974314160273570e-10
1.279180958642939334e-10
9.297832845994363630e-11
6.617704742245206596e-11
4.611577169601080202e-11
3.148455024815459127e-11
2.108894766680384131e-11
1.388547799126018128e-11
9.007076115275483179e-12
