# bin_10_6
6.393269234416510552e-08
5.960517608282874453e-08
5.413572775804083172e-08
4.783641358970245353e-08
4.112737510202251656e-08
3.447635644067536082e-08
2.830501902093174959e-08
2.287646215899478522e-08
1.825240679699938667e-08
1.433865155207512234e-08
1.102529436391741951e-08
8.306184266752128006e-09
6.218549730582637107e-09
4.671043629944989461e-09
3.495869751410707492e-09
2.625961045455424862e-09
1.988638264093294963e-09
1.517333869512088803e-09
1.166666964181264580e-09
9.021893475163755940e-10
6.993772502804674468e-10
5.414021322481050463e-10
4.168708235507725700e-10
3.180615725550169308e-10
2.396639833630339139e-10
1.778733047935342621e-10
1.297618686367348316e-10
9.292150057689715020e-11
6.527005975657100174e-11
4.497047195571215736e-11
3.040979131991338507e-11
