# bin_9_7
6.642983770938582930e-08
6.218357883165257658e-08
5.672802094206084228e-08
5.036321449693396865e-08
4.350499462988986014e-08
3.662796458397074267e-08
3.017616296665582081e-08
2.445034773436469302e-08
1.954916761620291877e-08
1.540180609298707403e-08
1.189188571153055843e-08
8.988919698222438001e-09
6.727635454420973842e-09
5.047007654652194876e-09
3.778721959525459718e-09
2.830255555046307075e-09
2.138285125494344809e-09
1.625967945649045786e-09
1.246435175058585482e-09
9.612499232630492798e-10
7.436257322214088885e-10
5.749629567149790664e-10
4.425847688323284138e-10
3.378993854464620935e-10
2.549979257624446913e-10
1.896880603408214808e-10
1.387927040674136463e-10
9.973971586505608166e-11
7.033664742005296124e-11
4.866619782312766046e-11
3.305139258521937547e-11
