# bin_15_14
9.659138323532620808e-08
9.344053638044308179e-08
8.832328595356510592e-08
8.139912786004989544e-08
7.302112439360722643e-08
6.372051763081689534e-08
5.414409440509796899e-08
4.494241266461061660e-08
3.661933570268127090e-08
2.941063084710372642e-08
2.328923658191847728e-08
1.809613090397288140e-08
1.374151022425438240e-08
1.026321436145057716e-08
7.646109412459015471e-09
5.689335652442742910e-09
4.211077141228907886e-09
3.133622258557640944e-09
2.342706810079377208e-09
1.763997995253224357e-09
1.336567381695073586e-09
1.017655580629933953e-09
7.764894996398693630e-10
5.917733433953490477e-10
4.489112301977352537e-10
3.378213710274710553e-10
2.514658423329388289e-10
1.847226986130603645e-10
1.336699216013843858e-10
9.517037852533541910e-11
6.662753073912542945e-11
