# bin_6_6
5.495464595225228068e-08
5.061554571626172615e-08
4.539730524572210145e-08
3.962052920427425070e-08
3.367701190629776265e-08
2.796380629252180180e-08
2.279301403990978920e-08
1.831602476963438963e-08
1.452234560781823016e-08
1.131424086597432119e-08
8.629097583613962730e-09
6.482930038785578340e-09
4.867124325582607474e-09
3.661084458099789480e-09
2.748622501968761757e-09
2.079598832362531738e-09
1.585042610934383409e-09
1.218306022964020115e-09
9.426691872845886877e-10
7.323776873719994820e-10
5.692033103089074146e-10
4.407546095067717059e-10
3.386967773343654527e-10
2.573593539928021900e-10
1.927835645216438963e-10
1.420288701382062997e-10
1.027364413081130872e-10
7.289218436510821700e-11
5.071167076143831346e-11
3.460671882382358025e-11
2.318755495488402504e-11
