# bin_13_4
5.466658331615400052e-08
5.014281405020586758e-08
4.474905319705097171e-08
3.883220610572566588e-08
3.281165427415029839e-08
2.710409050309658017e-08
2.201113163211541959e-08
1.764869410817939170e-08
1.395680407562078135e-08
1.081471761178516532e-08
8.190798755611593171e-09
6.140290713514629789e-09
4.621612212101076237e-09
3.471396360002460598e-09
2.610750749509863782e-09
1.982323263841330275e-09
1.516573693330867692e-09
1.170542417406393593e-09
9.094753271253725538e-10
7.090419713425851180e-10
5.524463941902511420e-10
4.283602337192497049e-10
3.292072468038258074e-10
2.498601447575920623e-10
1.867269543642534260e-10
1.370911080270819530e-10
9.872397965883121060e-11
6.967701077372301027e-11
4.819132047959322181e-11
3.268419819283620613e-11
2.176459639135776066e-11
