# bin_3_3
3.058445324870110888e-08
2.684151761668987912e-08
2.294246814915133658e-08
1.914502756855763663e-08
1.566624785241068874e-08
1.262894805739967249e-08
1.004919439114209037e-08
7.872099135158919296e-09
6.046617423895687782e-09
4.570562787131219973e-09
3.445485340214880206e-09
2.608200708717312332e-09
1.975370617896424121e-09
1.506520893020150690e-09
1.160040511399003803e-09
9.010214658481627400e-10
7.049595428985663205e-10
5.537917407731031671e-10
4.349981680976530392e-10
3.401537605451581991e-10
2.636803548286298314e-10
2.018627500847159988e-10
1.521404985445753069e-10
1.126141159308036378e-10
8.172768150276652599e-11
5.810011330319101965e-11
4.045413771117305873e-11
2.760590080331127931e-11
1.848697395027350133e-11
1.217188070358182133e-11
7.896109202120076339e-12
