# bin_15_7
7.525865449476393663e-08
7.113039530636216136e-08
6.554347677846582823e-08
5.877679895717203850e-08
5.125745857854448763e-08
4.351191784555144971e-08
3.607876408744972549e-08
2.937523129414886112e-08
2.359268949668588452e-08
1.869534936826853298e-08
1.453414468576653060e-08
1.103538069056120727e-08
8.253184136520085560e-09
6.179567110005043880e-09
4.622877919100584913e-09
3.445415216162082224e-09
2.590131121005133688e-09
1.957792136538084670e-09
1.492633576142070638e-09
1.145745219310506190e-09
8.834851385635238124e-10
6.820776796498013942e-10
5.252040194706078463e-10
4.018118465782983797e-10
3.043369132941971514e-10
2.275158268982166743e-10
1.674741982196338213e-10
1.211684733972877112e-10
8.606909180862541834e-11
5.999473229546822567e-11
4.104395378917484483e-11
