# bin_6_4
4.560304094784763016e-08
4.130645258906917359e-08
3.641092751505312144e-08
3.123950023913258134e-08
2.614584476041802281e-08
2.144132651661548075e-08
1.731457631160662328e-08
1.380349510958821800e-08
1.083526685686530686e-08
8.331513293075644752e-09
6.288494682681151922e-09
4.724424949916354290e-09
3.562820415464254080e-09
2.682569773954929367e-09
2.030577138691735600e-09
1.550916305252560820e-09
1.194387810688955230e-09
9.269458205233776261e-10
7.230434820440304091e-10
5.647500530184845783e-10
4.398604378089141193e-10
3.402007573635364340e-10
2.602857498059937079e-10
1.963505033523225751e-10
1.456636293928050270e-10
1.060666891400100478e-10
7.571852133123160706e-11
5.296973215433862809e-11
3.632239839661449706e-11
2.443780451009913949e-11
1.615683736183438632e-11
