# bin_8_6
6.044858697227356584e-08
5.611562090895792030e-08
5.074261050932251384e-08
4.464504575348830760e-08
3.823221677969435456e-08
3.194459332330088069e-08
2.616146422487132673e-08
2.110253765751209313e-08
1.680133040972060516e-08
1.316196956237883733e-08
1.009273185045261288e-08
7.596233799453871279e-09
5.692207121405824185e-09
4.277784320065347991e-09
3.204841747167321241e-09
2.413182312716666155e-09
1.831487287799666664e-09
1.400927992590185787e-09
1.079490083858028596e-09
8.361220731618034086e-10
6.487471825633760657e-10
5.022664161831544994e-10
3.864796795878500371e-10
2.944655266904567896e-10
2.214412169612946016e-10
1.639395292827853774e-10
1.192548952853753115e-10
8.513290877654005267e-11
5.960741772064553019e-11
4.093814367349215797e-11
2.759881004554180350e-11
