# bin_8_2
3.036271941693298983e-15
3.366343571992539917e-15
3.655037237238492246e-15
3.865549125342114804e-15
3.954933607491345699e-15
3.887827229747551508e-15
3.617038974440468343e-15
3.181008248676572544e-15
2.650714359645323836e-15
2.168843941467536122e-15
1.834808839916633713e-15
1.580773159340817247e-15
1.226573881514015792e-15
8.530856345987619942e-16
6.810730510709939357e-16
4.819283689971625673e-16
3.538782810681440014e-16
2.449874094793526269e-16
1.757674071636126438e-16
1.248364246025382517e-16
8.909205618507611509e-17
6.440312110787221393e-17
4.725852706129346853e-17
3.534479310162216694e-17
2.690568649127814246e-17
2.076046280479466278e-17
1.615105139835278722e-17
1.257937511890402061e-17
9.739880891124807603e-18
7.449349570223862196e-18
5.599403253865112586e-18
