# bin_8_6
7.416212356341876226e-07
8.306422470994641973e-07
9.131789116722193714e-07
9.808530951303490555e-07
1.023066884669702935e-06
1.030007235365643555e-06
9.889649548808415332e-07
8.962854559941219833e-07
7.679932754164739821e-07
6.306190490322467655e-07
5.209581751430202143e-07
4.490661517941406608e-07
3.755920102344326494e-07
2.706905355891911739e-07
1.971347089341641801e-07
1.566722070789911409e-07
1.050041238611591287e-07
7.832204903332449685e-08
5.479655098480168459e-08
3.810648053330007448e-08
2.676028942964831277e-08
1.888802249958782485e-08
1.349699114024212058e-08
9.793536258593215546e-09
7.249405722175021017e-09
5.464754235593403779e-09
4.182908434785720662e-09
3.234224938375699043e-09
2.508209749701886474e-09
1.936973281323724223e-09
1.479731708093877861e-09
