# bin_9_2
1.077111599520042650e-17
1.200729849593017954e-17
1.312450159855976978e-17
1.399646638356021344e-17
1.446660896166082687e-17
1.441003625827686343e-17
1.363180877610257546e-17
1.217847594235540040e-17
1.028674585565948705e-17
8.416591959580256742e-18
7.026530409484278644e-18
6.079088834219536709e-18
4.926373166153170575e-18
3.451632716767371982e-18
2.639578675925813253e-18
1.995134071014835488e-18
1.386196726867363694e-18
9.917862936726928352e-19
7.105500014000448985e-19
4.983438314473149390e-19
3.513411460036145430e-19
2.506445583546231854e-19
1.814187594892972865e-19
1.336388907396278013e-19
1.003571637422219453e-19
7.660047893125731844e-20
5.918047882501495976e-20
4.598517807743078704e-20
3.567813662005004661e-20
2.744944919979377625e-20
2.081952124925000493e-20
