# bin_15_10
7.958745645811610160e-09
9.100835898807627950e-09
1.026594963405190856e-08
1.137949717572394989e-08
1.234407756552959830e-08
1.303251002333575864e-08
1.329945289156132436e-08
1.302133907679767828e-08
1.204765417673280436e-08
1.053898769313747669e-08
8.743361686282363056e-09
7.162822587976309293e-09
6.099493109436952627e-09
5.244859649561895280e-09
3.986788974565619053e-09
2.766153075702458066e-09
2.240332363281510715e-09
1.518472976672179261e-09
1.132618889339029731e-09
7.578973374248936733e-10
5.218972296411947890e-10
3.566909673570101513e-10
2.416865905828285423e-10
1.630813689788441345e-10
1.101408164160349478e-10
7.521222170284370897e-11
5.211368226522434907e-11
3.679895356770192689e-11
2.657541876308140938e-11
1.962762408860061375e-11
1.477845359916844636e-11
