# bin_10_10
4.302311447992694660e-06
4.881168156778908689e-06
5.450852618135131874e-06
5.968677713130112801e-06
6.377471598939385821e-06
6.605714202070802403e-06
6.596043361834227601e-06
6.257795692108120872e-06
5.604976682130677306e-06
4.744837539618244043e-06
3.883260711994988471e-06
3.236789726440301993e-06
2.802827720641809834e-06
2.285148711778273070e-06
1.600489098024106363e-06
1.214602998668316466e-06
9.237487224089542496e-07
6.317528392679402952e-07
4.499195416340595067e-07
3.179467343853677734e-07
2.179513436182169665e-07
1.491168805373215036e-07
1.025679912299452678e-07
7.112507690384063564e-08
4.994184846266950884e-08
3.571907169346526831e-08
2.605305504420799890e-08
1.939577737341584013e-08
1.469533693679503853e-08
1.126940984127001090e-08
8.684282702456049117e-09
