# bin_9_3
4.024070919973347784e-14
4.493874732478867646e-14
4.922690197056129317e-14
5.263960607327432828e-14
5.459414432315039737e-14
5.460441196832489626e-14
5.194336068421031306e-14
4.665051391917605461e-14
3.960721404793383070e-14
3.243618956364102527e-14
2.696563661149608330e-14
2.331609282271506525e-14
1.913853101139210483e-14
1.352245210323949584e-14
1.015584906615028987e-14
7.838917448076994215e-15
5.355454590406307388e-15
3.896623186900145846e-15
2.771840928434817452e-15
1.936740937242035601e-15
1.362251535095528411e-15
9.675650473090277860e-16
6.970147976451445729e-16
5.106448788111381598e-16
3.815183647350942795e-16
2.899504405149997342e-16
2.233218745644163559e-16
1.732724110330863134e-16
1.344541277617236040e-16
1.036107825063519977e-16
7.880590133984392667e-17
