# bin_2_2
1.081289134589907688e-05
1.124165774013213279e-05
1.128082889414206907e-05
1.080318607633499736e-05
9.783614469324610648e-06
8.387293519780452807e-06
6.908454220762837409e-06
5.716733577958656620e-06
4.892931119393374068e-06
4.061101539962371451e-06
2.986012031315696377e-06
2.194486261205538839e-06
1.716316736504298771e-06
1.212003658568392071e-06
9.019594981914750172e-07
6.515809130170870287e-07
4.772042802586417480e-07
3.537462249515386169e-07
2.663601115999654967e-07
2.042051995336089209e-07
1.591297012152306452e-07
1.256049342142867799e-07
9.974755238745287166e-08
7.912651936858770381e-08
6.226434528183761525e-08
4.828659927731956177e-08
3.670289752281395885e-08
2.722963162347105599e-08
1.966560926578591238e-08
1.381912089223244320e-08
9.460957208555731639e-09
