# bin_6_3
1.919179872894118790e-08
2.107874995959947920e-08
2.262218731487962677e-08
2.357859102112889365e-08
2.372271819760347206e-08
2.276640547243329824e-08
2.063085850392021486e-08
1.767900085273304788e-08
1.452262805585891545e-08
1.199742603986377425e-08
1.032615363231797493e-08
8.627491971513760622e-09
6.246277270759805616e-09
4.558447949260122386e-09
3.617466549603384325e-09
2.459666261882388381e-09
1.840412210132582347e-09
1.303067400756235118e-09
9.244267466901817212e-10
6.639477432557687574e-10
4.817348547242290131e-10
3.550244195000823053e-10
2.661681299834607465e-10
2.032372916130899663e-10
1.573531328480613427e-10
1.228466944504986001e-10
9.607518423053410385e-11
7.472906391323362569e-11
5.744280633124080749e-11
4.340128287698385524e-11
3.209674129922311621e-11
