# bin_13_10
3.427852845186078398e-07
3.909402099169866414e-07
4.395087307785164472e-07
4.852105995233390326e-07
5.237157881194649457e-07
5.494755774780668948e-07
5.567891273127707881e-07
5.394784566313998208e-07
4.933788766881162658e-07
4.266564789181086127e-07
3.516844424668236831e-07
2.892677604924195561e-07
2.483944186532537274e-07
2.108313372657063693e-07
1.551032396921433670e-07
1.099597819460117379e-07
8.897996103528517988e-08
5.882412116628103131e-08
4.427167619493404185e-08
3.010968571670480364e-08
2.049244545197726244e-08
1.403098633950031011e-08
9.539065605155396205e-09
6.490246063643187373e-09
4.439091874887048487e-09
3.080878765356128958e-09
2.175337790049964537e-09
1.568137419707436153e-09
1.155567917274131354e-09
8.684692005293794143e-10
6.622029421221576228e-10
