# bin_8_8
4.374081030070869745e-06
4.926798370580980542e-06
5.453328981601244254e-06
5.906800335081890275e-06
6.226292921076196594e-06
6.343777788971976701e-06
6.198060385330248592e-06
5.722818792981801032e-06
4.996295149777118005e-06
4.141226717283101792e-06
3.394537558346543986e-06
2.892815234713585509e-06
2.481198960109907709e-06
1.879329339212960777e-06
1.311016516309875368e-06
1.060656451291678508e-06
7.221639363903288625e-07
5.404650834724588042e-07
3.675938204673266172e-07
2.573363551620761145e-07
1.799597396525485024e-07
1.258267673093173551e-07
8.856961297928902937e-08
6.305615274954392952e-08
4.574950197680055782e-08
3.384435249495659051e-08
2.549829861109249894e-08
1.950476639655928593e-08
1.505500674588763136e-08
1.164197730832536475e-08
8.953624902946600825e-09
