# bin_4_2
3.084123897624301623e-07
3.299610367519046595e-07
3.426920650136826856e-07
3.434015646213020286e-07
3.279054060633375644e-07
2.958360482282508600e-07
2.525091027637490688e-07
2.073809501310386173e-07
1.719206707055414556e-07
1.478943614892350600e-07
1.222676859838717177e-07
8.831504375529633183e-08
6.546114901221305458e-08
5.118475500779594176e-08
3.557740443345019607e-08
2.645933903392466985e-08
1.902854938142298572e-08
1.374910764637936260e-08
1.006783471885628167e-08
7.478878450539849964e-09
5.653687282001594716e-09
4.347534712487248424e-09
3.393578366552186879e-09
2.672439537974568804e-09
2.108930638640713572e-09
1.656176189000796786e-09
1.285592722542692014e-09
9.807643320408897876e-10
7.319080737228068869e-10
5.324613756793976241e-10
3.770446443486572905e-10
