# bin_14_3
1.845729691615162055e-25
2.097724175042466688e-25
2.347751198013021983e-25
2.577732199794769816e-25
2.763493599647048197e-25
2.874568250594659270e-25
2.884551262075656087e-25
2.755325853281313690e-25
2.484001927337511942e-25
2.116765326527903352e-25
1.735360268820681123e-25
1.439805841366615675e-25
1.245274482615193723e-25
1.030151043813576229e-25
7.306252863396717581e-26
5.423604271531143354e-26
4.228149746951499997e-26
2.839299431825557797e-26
2.070040919836823669e-26
1.446511701082054335e-26
9.879736474998466694e-27
6.753452273232337657e-27
4.621040444906126361e-27
3.184487355355929363e-27
2.217764651916600709e-27
1.571788852318331953e-27
1.135591701037361216e-27
8.378624149190596395e-28
6.302267889108366056e-28
4.810273503088218082e-28
3.700166524696531175e-28
