# bin_10_6
5.792392170034301154e-09
6.531950194802006162e-09
7.240161838116897977e-09
7.855744466499609321e-09
8.298480659609773526e-09
8.476036205122952099e-09
8.310807084541531742e-09
7.705094942212125800e-09
6.753687008018076689e-09
5.612454609390233112e-09
4.596008899120691080e-09
3.904443662853335928e-09
3.360345268161535361e-09
2.574684105349131875e-09
1.787551378908203111e-09
1.440800139786529118e-09
9.936971876254009161e-10
7.373200907848663757e-10
5.003071819228113737e-10
3.519323393769560597e-10
2.455168324043996342e-10
1.711470117172079695e-10
1.200795683076702391e-10
8.514283702508019919e-11
6.148625109542067308e-11
4.527743800319982404e-11
3.397134471480213615e-11
2.590537392009520525e-11
1.995997475568044125e-11
1.543001643205746064e-11
1.187919176173704079e-11
