# bin_2_1
5.287806062524895917e-06
5.355459279811807387e-06
5.196009678153651408e-06
4.775945586797349664e-06
4.155049874452143963e-06
3.452263827107560198e-06
2.843275610465111076e-06
2.412621513364125484e-06
2.035652407337189936e-06
1.551964922264300057e-06
1.121343888931616310e-06
8.766125018973020556e-07
6.345574662676416643e-07
4.680961502524955714e-07
3.406073146700490407e-07
2.512021185846435075e-07
1.869622891365737591e-07
1.414553289687661306e-07
1.090136111487387384e-07
8.540799193086444654e-08
6.775861925166140220e-08
5.407424073799351128e-08
4.308819911276737795e-08
3.404025217421183384e-08
2.648914708700043521e-08
2.019233259607544148e-08
1.501576235842059584e-08
1.086742449053490341e-08
7.651582072324310600e-09
5.249307130241844633e-09
3.518645001799591085e-09
