# bin_4_4
6.172768520010367421e-06
6.717078013312716303e-06
7.126170237241800786e-06
7.321421319867019375e-06
7.237293394384472179e-06
6.784035515483466026e-06
6.010032327823059488e-06
5.042402165063314349e-06
4.127805692028676722e-06
3.469363848131068523e-06
2.990816139235480255e-06
2.370681849844505964e-06
1.663737849057691229e-06
1.299128679343893827e-06
9.556809815298707282e-07
6.867111175867576309e-07
4.899939105926203592e-07
3.551901370805148361e-07
2.552332530398226563e-07
1.852118361878898990e-07
1.365032232220006417e-07
1.023285823155915805e-07
7.809631387933710021e-08
6.051971407820623118e-08
4.735105402985008524e-08
3.716787547403738539e-08
2.906370940816506813e-08
2.248872635922790617e-08
1.712079410323687731e-08
1.276484313902667091e-08
9.288372423975892703e-09
