# bin_5_11
-7.986800330871856441e-15
-9.020007496373623053e-15
-1.001600506599845191e-14
-1.089173315413251432e-14
-1.153748404741952153e-14
-1.182279220445892994e-14
-1.164526464662044906e-14
-1.085530934677123905e-14
-9.563558855994712333e-15
-7.976412876900387270e-15
-6.524037533338805518e-15
-5.516255222969661650e-15
-4.763655715708192547e-15
-3.708189980819192623e-15
-2.564902025233064967e-15
-2.047777837743208886e-15
-1.443723001368587459e-15
-1.053004673678257931e-15
-7.157861253786169951e-16
-5.069974536691882208e-16
-3.521587703303294513e-16
-2.441904556076024091e-16
-1.705326480209528691e-16
-1.202444471181977022e-16
-8.625743224731669879e-17
-6.309541015755340070e-17
-4.704892101230730232e-17
-3.570400499362111004e-17
-2.742714637871347770e-17
-2.118275192659305671e-17
-1.632541583396847233e-17
