# bin_14_6
-2.256934491232022135e-17
-2.569002001444670934e-17
-2.880928222769624084e-17
-3.170836684296281146e-17
-3.409632782811238060e-17
-3.560422876099652212e-17
-3.588587112228872578e-17
-3.449716286238979370e-17
-3.129250575126985071e-17
-2.683436939353888650e-17
-2.203627845695846642e-17
-1.819783011527593704e-17
-1.569730080093228018e-17
-1.315352256703809841e-17
-9.470114223224865019e-18
-6.872583777406926589e-18
-5.472493963116879060e-18
-3.627008321994245218e-18
-2.696423863614037998e-18
-1.860239789673070030e-18
-1.266630108256653769e-18
-8.661339399713047260e-19
-5.901566318147505133e-19
-4.041563697289207472e-19
-2.790770444697075207e-19
-1.958898941139352943e-19
-1.400678817517067659e-19
-1.022956007486032276e-19
-7.627832349417928497e-20
-5.785908251381212276e-20
-4.436684231181455461e-20
