# bin_6_6
-1.780372524797344827e-08
-1.981597059516600691e-08
-2.161801355139512838e-08
-2.299876191927623472e-08
-2.369981227981717209e-08
-2.351760982628114991e-08
-2.213738051258473460e-08
-1.968482024042492154e-08
-1.655541115341878996e-08
-1.354046444960743080e-08
-1.134883928376176097e-08
-9.815084566675284708e-09
-7.856216633365591189e-09
-5.479098562275072208e-09
-4.252047463308120129e-09
-3.150987421325817678e-09
-2.226171026482904771e-09
-1.572363411673748093e-09
-1.129628255173242989e-09
-7.951764510942635258e-10
-5.623622419330819663e-10
-4.027570065926061535e-10
-2.926904387818563950e-10
-2.165901027462383200e-10
-1.633271603938421787e-10
-1.250886370823588705e-10
-9.686318381502181785e-11
-7.533475555497109723e-11
-5.842469514711432355e-11
-4.487739829891402659e-11
-3.395086718859107859e-11
