# bin_11_13
-4.375780366724633354e-09
-4.994928996631381328e-09
-5.621929368625077890e-09
-6.215156001462298818e-09
-6.719932789010846873e-09
-7.065773617694318921e-09
-7.177148737627162047e-09
-6.979552772518915190e-09
-6.408110264253739523e-09
-5.563012399852793846e-09
-4.593477091443856380e-09
-3.770394854862975114e-09
-3.228097371041509435e-09
-2.755082404913912237e-09
-2.050190341724519577e-09
-1.438641150004005893e-09
-1.168305099379880231e-09
-7.759040044446047083e-10
-5.843175018847831730e-10
-3.945462287233378230e-10
-2.690909970447695725e-10
-1.842363653080642555e-10
-1.251499473431215012e-10
-8.487206746707673299e-11
-5.776331537680819223e-11
-3.984710806924233375e-11
-2.794095468007422827e-11
-1.999307833539942382e-11
-1.462977151422422632e-11
-1.093085455704926733e-11
-8.301453224190942415e-12
