# bin_11_2
-3.989936143554329160e-25
-4.490966740819603594e-25
-4.966750604209404816e-25
-5.374235079049893792e-25
-5.657690375770695259e-25
-5.756013543938827464e-25
-5.612042053850202089e-25
-5.169334527373394301e-25
-4.502220032990136714e-25
-3.725600706127828551e-25
-3.054779580087460971e-25
-2.607022861516431759e-25
-2.231412482723841244e-25
-1.679716587349440303e-25
-1.175061976531439199e-25
-9.515641463303803398e-26
-6.441680519428309915e-26
-4.835943768992680436e-26
-3.295323902653066530e-26
-2.301947276592474733e-26
-1.611153622429009334e-26
-1.127850516408292753e-26
-7.951448195516105084e-27
-5.672410354812708434e-27
-4.124978385347759759e-27
-3.058386063856034807e-27
-2.308741542008559041e-27
-1.768608943173991919e-27
-1.366165274234851831e-27
-1.056491467701543898e-27
-8.120205803912500758e-28
