# bin_8_12
-8.263253675847375670e-11
-9.389036242568757772e-11
-1.050473548762472210e-10
-1.152927312689543024e-10
-1.235421819936850707e-10
-1.284305236041412228e-10
-1.287870183067965324e-10
-1.228976250774746175e-10
-1.106825919638022496e-10
-9.421458824884321470e-11
-7.719233780629045590e-11
-6.406146413564914331e-11
-5.541985806713502193e-11
-4.577506748188693060e-11
-3.239595514231657016e-11
-2.410489270466820978e-11
-1.874653287231921359e-11
-1.260325964712762659e-11
-9.167411884454482433e-12
-6.414493643925406665e-12
-4.381930342863333556e-12
-2.994830955449773863e-12
-2.049885095358542828e-12
-1.413448950388906558e-12
-9.851581427894760486e-13
-6.988605930311258774e-13
-5.054238915799543752e-13
-3.732800465254278666e-13
-2.810090788343021793e-13
-2.146076934011294710e-13
-1.651261736534636975e-13
