# bin_3_14
-1.486296462881409614e-27
-1.689034715470654520e-27
-1.890100045190731889e-27
-2.074923176142980374e-27
-2.224028872190391582e-27
-2.312883789189277940e-27
-2.320285694614086264e-27
-2.215537798388511787e-27
-1.996536398645080990e-27
-1.700547088027703421e-27
-1.393571561562401861e-27
-1.156032514118539654e-27
-9.998396243685195419e-28
-8.268457533274394802e-28
-5.860495023158428615e-28
-4.351217192867626587e-28
-3.390890992086705549e-28
-2.276852354919842058e-28
-1.659332321157210231e-28
-1.159591466105568161e-28
-7.919216297973375041e-29
-5.412696931809348981e-29
-3.703378076249735392e-29
-2.552071627146486230e-29
-1.777350519491311000e-29
-1.259705584809228331e-29
-9.101661636075670062e-30
-6.715780782476636997e-30
-5.051745109323468868e-30
-3.855890059653298295e-30
-2.966017783618682452e-30
