# bin_1_12
-1.523028958796865222e-32
-1.719869437002378797e-32
-1.909536737032988162e-32
-2.076171499248252428e-32
-2.198843975624707776e-32
-2.252740245132868147e-32
-2.218222646326679997e-32
-2.067037009604114061e-32
-1.820470445978113001e-32
-1.518063346946576433e-32
-1.241778998585008431e-32
-1.050228214643880976e-32
-9.066389189244610719e-33
-7.051042094555680333e-33
-4.879885613831241032e-33
-3.896474468795800759e-33
-2.744409270142459282e-33
-2.002804899636015265e-33
-1.362335890029684639e-33
-9.642713950092613078e-34
-6.699148349008721303e-34
-4.646496931006621313e-34
-3.245679549992473881e-34
-2.289301798431700271e-34
-1.642841590848214817e-34
-1.202145104516552529e-34
-8.967109495170401527e-35
-6.806516393075260622e-35
-5.229290068741677943e-35
-4.038714701090491975e-35
-3.112239042146168295e-35
