# bin_3_13
-2.094316313009830423e-25
-2.374108530292371624e-25
-2.648387761201478832e-25
-2.896202989610192731e-25
-3.089499792532901545e-25
-3.193371757850539947e-25
-3.180565224497367300e-25
-3.007035404069522344e-25
-2.684522116726600966e-25
-2.265253691861961621e-25
-1.852978857293086077e-25
-1.548762236843170125e-25
-1.341508693198914357e-25
-1.084619457901006344e-25
-7.558652816045813605e-26
-5.803028506153768413e-26
-4.350903351710228011e-26
-3.010991721600934482e-26
-2.118480624861609306e-26
-1.502870930603616195e-26
-1.032587456710379961e-26
-7.075780249285851298e-27
-4.881376069331151366e-27
-3.395897157298289956e-27
-2.394626587251876807e-27
-1.720515815083594880e-27
-1.260762284734336273e-27
-9.425786511707285574e-28
-7.164759214893613124e-28
-5.505063024679700489e-28
-4.244302082894914169e-28
