# bin_12_2
-1.602020643095522030e-27
-1.809703741891272440e-27
-2.010126379568941453e-27
-2.186671644280421836e-27
-2.317365837906968406e-27
-2.375983337187325513e-27
-2.342025454392646485e-27
-2.185161635227317962e-27
-1.926802329154880742e-27
-1.608205245306951965e-27
-1.315318797254313053e-27
-1.111289135478340631e-27
-9.599677976037275412e-28
-7.492146119754926671e-28
-5.182859035641210462e-28
-4.128344503736840771e-28
-2.922643853857445322e-28
-2.124191887820512312e-28
-1.446328739537492540e-28
-1.025144360130832238e-28
-7.115152645643187549e-29
-4.929167742967611347e-29
-3.439623859347662234e-29
-2.423177498842199215e-29
-1.736349561234350394e-29
-1.268668823753371821e-29
-9.450075121980325536e-30
-7.165044193075745575e-30
-5.500787427606718990e-30
-4.247333155140091963e-30
-3.273668616818596539e-30
