# bin_10_9
-9.640023744424593319e-09
-1.092975735343216643e-08
-1.219505376796343711e-08
-1.333963498583421450e-08
-1.423454119651709886e-08
-1.471910369768209694e-08
-1.466738621417057395e-08
-1.387621983435993309e-08
-1.239549384131695168e-08
-1.046556593863721910e-08
-8.561314612349033026e-09
-7.151981921706645471e-09
-6.195087665924615661e-09
-5.017031789873284104e-09
-3.498815847742620842e-09
-2.680605597657660411e-09
-2.015410317140558167e-09
-1.391401447459059170e-09
-9.811264408369394461e-10
-6.956784854324301652e-10
-4.777649967359226111e-10
-3.272541096188526367e-10
-2.256310955470945875e-10
-1.568708185626797282e-10
-1.105288142928672562e-10
-7.934531323075037296e-11
-5.809232482562760729e-11
-4.339765905086399433e-11
-3.296842392314426961e-11
-2.532318473606583992e-11
-1.952277593282331248e-11
