# bin_15_5
-4.794568359682879077e-22
-5.464311742714666853e-22
-6.137688223232352506e-22
-6.768599885630283473e-22
-7.296049249992206103e-22
-7.642188484641781642e-22
-7.729405204652437874e-22
-7.468475937808487806e-22
-6.810253440347833425e-22
-5.871421414184537157e-22
-4.831993874767818752e-22
-3.978483167850153435e-22
-3.421681937754001551e-22
-2.892594975507056948e-22
-2.111905812494037925e-22
-1.507782026102097391e-22
-1.215053859342235812e-22
-8.025297223034469869e-23
-6.023500079444043516e-23
-4.115199418158371366e-23
-2.799758967128611298e-23
-1.916021301068453800e-23
-1.303168127923410367e-23
-8.884435361233375666e-24
-6.095122487821193066e-24
-4.245831221655686585e-24
-3.010415882132402280e-24
-2.179664443910003556e-24
-1.612738783994617164e-24
-1.216006592957618929e-24
-9.291252592615196268e-25
