# bin_9_3
-1.174083604725117997e-16
-1.312299011219229174e-16
-1.439044619009939447e-16
-1.540816567687269303e-16
-1.600654470440352285e-16
-1.603997513643232987e-16
-1.529835946313887346e-16
-1.377409729432979878e-16
-1.172376613289964669e-16
-9.607033628642355908e-17
-7.972121629101786517e-17
-6.889035383509767411e-17
-5.686228694765743803e-17
-4.038155686375505222e-17
-3.006532587463858775e-17
-2.341377235593403347e-17
-1.589487718193292032e-17
-1.165305319405947748e-17
-8.252134428122056059e-18
-5.757085460526965817e-18
-4.046757300456387424e-18
-2.868590764830051711e-18
-2.061597859556850574e-18
-1.506192146206394509e-18
-1.122349413773852166e-18
-8.510192101553111765e-19
-6.543386032871689164e-19
-5.072251200089613582e-19
-3.935527266050472568e-19
-3.034752477646576237e-19
-2.311216575869113668e-19
