# bin_11_3
-5.551638354888529063e-21
-6.254500833198386721e-21
-6.924727006966662523e-21
-7.502995834022743010e-21
-7.912100989630554949e-21
-8.065162164716296243e-21
-7.885518381444600447e-21
-7.286574273688361637e-21
-6.365976751553629294e-21
-5.277914049412332372e-21
-4.323642382744754383e-21
-3.681189303959850081e-21
-3.160436999022498269e-21
-2.400298115870574114e-21
-1.671319880459276098e-21
-1.351345393055579078e-21
-9.225589152560314634e-22
-6.891406086408976796e-22
-4.681960442469415251e-22
-3.281242928540969823e-22
-2.293050353898864246e-22
-1.601971453540459252e-22
-1.126578393349492302e-22
-8.011338527508033743e-23
-5.805110631051697622e-23
-4.289187559984732794e-23
-3.227933559210145576e-23
-2.467179109647697882e-23
-1.903454457941715311e-23
-1.471821148254746158e-23
-1.132259720412725627e-23
