# bin_6_1
-1.695153009323758548e-16
-1.845987954413559934e-16
-1.960214064464964965e-16
-2.016096535203248479e-16
-1.995873562871900464e-16
-1.874111029636263197e-16
-1.662879618726468115e-16
-1.396589942705720666e-16
-1.142615838621377045e-16
-9.587479714861334024e-17
-8.273509078508112596e-17
-6.589809306257764031e-17
-4.619853693014122538e-17
-3.595439647180302945e-17
-2.660723098791928236e-17
-1.902435521061850374e-17
-1.359406862101716999e-17
-9.857152648492888313e-18
-7.073797266259603715e-18
-5.126034332872329622e-18
-3.772629218161156544e-18
-2.824125165074092502e-18
-2.152400761606964847e-18
-1.666201010801785452e-18
-1.302753928794649669e-18
-1.022326817599153028e-18
-7.995624342360320646e-19
-6.190302267935624130e-19
-4.716939301854212385e-19
-3.520947136891193557e-19
-2.565498985087265548e-19
