# bin_13_6
-9.895794891818262978e-16
-1.124238307870056437e-15
-1.257600079402828498e-15
-1.379944831746002224e-15
-1.478269552702599537e-15
-1.536211827433110349e-15
-1.539837961099072729e-15
-1.468566835081955643e-15
-1.321869668982781002e-15
-1.124556802584414881e-15
-9.212511086279095051e-16
-7.648647381907393319e-16
-6.617867315798242712e-16
-5.459387560948577624e-16
-3.859217565727789037e-16
-2.877257722921406393e-16
-2.232918371999198656e-16
-1.503489291798727535e-16
-1.091394624065341281e-16
-7.644710386497485594e-17
-5.224011641231965910e-17
-3.570486210133468861e-17
-2.445008429625592786e-17
-1.686829777384559862e-17
-1.176563309562627907e-17
-8.353230834169114713e-18
-6.046345169408510647e-18
-4.469189804005352156e-18
-3.366721194664873779e-18
-2.572337896482330253e-18
-1.979614506624781943e-18
