# bin_10_15
-3.025148473078605302e-11
-3.459176434046618698e-11
-3.901923721831698777e-11
-4.325033074002246140e-11
-4.691491885413714740e-11
-4.952973052935754983e-11
-5.054196866418264309e-11
-4.948367212352443190e-11
-4.578085023997519832e-11
-4.004316635555060044e-11
-3.321264259536559907e-11
-2.719852025048407277e-11
-2.315365785752880294e-11
-1.991285297026838676e-11
-1.514206645893046595e-11
-1.049901528732836965e-11
-8.501761374303445566e-12
-5.765491974532753856e-12
-4.298112146266605708e-12
-2.874744963028896743e-12
-1.980442153227976233e-12
-1.353163361551389015e-12
-9.166365090402026096e-13
-6.183512131048541930e-13
-4.174793456194874856e-13
-2.849692140383090032e-13
-1.973613477566122161e-13
-1.392922656331908758e-13
-1.005434782498965678e-13
-7.422407769273935513e-14
-5.586664613060289388e-14
