# bin_9_13
-1.355319079939497545e-10
-1.544132721516920400e-10
-1.733679637500453597e-10
-1.910900876661567631e-10
-2.058491817649015163e-10
-2.154409070915143724e-10
-2.177018557017564827e-10
-2.100678410437818352e-10
-1.912835234919444297e-10
-1.646766344610737587e-10
-1.354379067945080827e-10
-1.115961542575031704e-10
-9.606131262640309204e-11
-8.102899459794952092e-11
-5.893000749896067806e-11
-4.224590141104021359e-11
-3.395786290578958788e-11
-2.242969613218308642e-11
-1.680519148576130498e-11
-1.151061758314796763e-11
-7.830800351924557182e-12
-5.357988035867187022e-12
-3.645451868766128457e-12
-2.488201626096708983e-12
-1.709951930781760544e-12
-1.193579539502406338e-12
-8.482180544423938561e-13
-6.156054133042276799e-13
-4.564780654590360690e-13
-3.447774497618619145e-13
-2.637220919489150976e-13
