# bin_3_3
-3.281874164380288077e-08
-3.511270079588597627e-08
-3.646978862172965463e-08
-3.654681825271638049e-08
-3.490399098371012029e-08
-3.149741735647215949e-08
-2.689126627404905412e-08
-2.208684569961405072e-08
-1.830297098725841014e-08
-1.573430510285152330e-08
-1.301238479862535939e-08
-9.417267469239280651e-09
-6.968733216550175486e-09
-5.448038857127636856e-09
-3.791104382102923424e-09
-2.818484593518990879e-09
-2.024515016185075791e-09
-1.463276133601771928e-09
-1.071306949337733512e-09
-7.955431960015228751e-10
-6.011370159154310584e-10
-4.620489379614428539e-10
-3.605186410164820359e-10
-2.838187288426712735e-10
-2.239250413949374055e-10
-1.758342917265016464e-10
-1.364921144158944994e-10
-1.041416068617011971e-10
-7.773547972935629674e-11
-5.657203813045378057e-11
-4.007679487571538613e-11
