# bin_10_13
-1.159193982672576256e-09
-1.322003266491435546e-09
-1.486201264259570623e-09
-1.640691699068434335e-09
-1.770835879076796237e-09
-1.857876585152043847e-09
-1.882517888353763072e-09
-1.823941209756533887e-09
-1.667953064173060014e-09
-1.442197005667021944e-09
-1.188441254618355812e-09
-9.771276718125360225e-10
-8.388636442432880827e-10
-7.122101358482475028e-10
-5.241009458742726779e-10
-3.712076784297362715e-10
-3.005020960904523205e-10
-1.986002772116323659e-10
-1.494966481126970556e-10
-1.016174158167985598e-10
-6.915826684510329405e-11
-4.734566620903793933e-11
-3.218273563058041623e-11
-2.189063169098093410e-11
-1.496671995374935065e-11
-1.038302336449883090e-11
-7.327860000140988492e-12
-5.279944792956571383e-12
-3.889128335536048113e-12
-2.921845893984385714e-12
-2.227362325768472642e-12
