# bin_8_6
-2.503918204650055803e-09
-2.807106908905372793e-09
-3.089537496933502599e-09
-3.323126765993691081e-09
-3.472218129397547375e-09
-3.502670493516798672e-09
-3.372654415121415072e-09
-3.065366192639278893e-09
-2.634197612409784091e-09
-2.165389725962480912e-09
-1.785890564523531825e-09
-1.537284693187187383e-09
-1.292210659973897975e-09
-9.380897838393750116e-10
-6.772078680199606085e-10
-5.417135172984485394e-10
-3.622464704077736310e-10
-2.715035356011022488e-10
-1.889289610978399586e-10
-1.313097325570496459e-10
-9.218214640879769599e-11
-6.495928901076168217e-11
-4.630044101107402296e-11
-3.349054124153721805e-11
-2.471251074369071028e-11
-1.857557871773042817e-11
-1.418578733602353265e-11
-1.095281580907211001e-11
-8.490174531168924942e-12
-6.559610016348632448e-12
-5.017463149283238416e-12
