# bin_6_10
-2.090975699329545621e-11
-2.358650171823949355e-11
-2.615323745598649783e-11
-2.838959304229032222e-11
-3.000654639493137805e-11
-3.066863215375677927e-11
-3.009955170812995867e-11
-2.793664889410756950e-11
-2.451139091393362431e-11
-2.038067034727931495e-11
-1.667976146820789685e-11
-1.415247489656208852e-11
-1.219184342987973133e-11
-9.375591277580584970e-12
-6.498989270571948643e-12
-5.228679233967021793e-12
-3.623361409266834147e-12
-2.678524010499218195e-12
-1.816781430323362710e-12
-1.280193275278024666e-12
-8.921395757909411052e-13
-6.211121995013181569e-13
-4.352713518453907661e-13
-3.081929956908465101e-13
-2.221971295038412526e-13
-1.633572445985197387e-13
-1.223852331897485786e-13
-9.322064960771536489e-14
-7.177706578061549392e-14
-5.547695991736046403e-14
-4.272274287878525988e-14
