# bin_7_6
-1.026802540568630375e-08
-1.147142389823898219e-08
-1.257216498634712723e-08
-1.345172032422601791e-08
-1.396152649133160129e-08
-1.397582725392804174e-08
-1.331016157681914838e-08
-1.196724137307392912e-08
-1.017173597141772544e-08
-8.332591233796609258e-09
-6.921866468379816219e-09
-5.983256410746299935e-09
-4.922983128366295519e-09
-3.487062426958754281e-09
-2.608663711798713909e-09
-2.021217414945296001e-09
-1.377380411254001487e-09
-1.005534590739756013e-09
-7.136447451143770255e-10
-4.983108380421299000e-10
-3.504264304318164742e-10
-2.486734601536186452e-10
-1.789400904071489652e-10
-1.309242024044766187e-10
-9.769505987463860756e-11
-7.416609787713990774e-11
-5.707602078625464468e-11
-4.426405618390316841e-11
-3.434486407835809344e-11
-2.647367832595284076e-11
-2.014744746417553743e-11
