# bin_4_8
-3.925386269988246327e-12
-4.377721801199972779e-12
-4.787449154753290474e-12
-5.108649992315027675e-12
-5.284249946999896089e-12
-5.268256526976623222e-12
-4.989569146632467379e-12
-4.462455551465844630e-12
-3.773161681300605451e-12
-3.087648851787783093e-12
-2.575496290875649722e-12
-2.228198894602485256e-12
-1.810623314775348801e-12
-1.270687808430812871e-12
-9.681370585590398131e-13
-7.350272171401816827e-13
-5.088692888268543736e-13
-3.653649955914254399e-13
-2.613531534900434727e-13
-1.831504147548066214e-13
-1.290533554864022420e-13
-9.197286981113464465e-14
-6.649754166499021881e-14
-4.892328643956688035e-14
-3.669651795760437432e-14
-2.798212456517414851e-14
-2.160353469516608615e-14
-1.678104077536522533e-14
-1.302016913717249263e-14
-1.002087124170808782e-14
-7.605320411448241554e-15
