# bin_14_13
-1.025966027872101677e-08
-1.174735536955241806e-08
-1.327263858223451103e-08
-1.474095645241926469e-08
-1.602881334572801913e-08
-1.697337778085313506e-08
-1.738142785931032493e-08
-1.710229643082715703e-08
-1.591639616509255359e-08
-1.400023612000448013e-08
-1.165876954696535611e-08
-9.537244401623139910e-09
-8.080055850706548555e-09
-6.976316963259959181e-09
-5.395196617452497932e-09
-3.723664515200887733e-09
-2.989535898415904804e-09
-2.076290092660197816e-09
-1.522421901069159880e-09
-1.017235065579049934e-09
-7.086865448292231600e-10
-4.825294900617943108e-10
-3.253935383930254206e-10
-2.186766654451662413e-10
-1.468272916004845717e-10
-9.943900435700294657e-11
-6.821748068911082099e-11
-4.762136884267328611e-11
-3.398348272385903527e-11
-2.482139541460239930e-11
-1.852207977530544335e-11
