# bin_11_6
-1.120823455761365712e-12
-1.267569301876193879e-12
-1.409898391750002449e-12
-1.536329863049010939e-12
-1.631592074603867631e-12
-1.677122700274130573e-12
-1.658777539685273569e-12
-1.554172488795176676e-12
-1.375813292014611480e-12
-1.152013513616422271e-12
-9.419434128581545377e-13
-7.931093736798829349e-13
-6.862048819436762011e-13
-5.418106591160899112e-13
-3.748056923454102457e-13
-2.956667565376671404e-13
-2.131114519802948643e-13
-1.525825635679453856e-13
-1.045406189863549507e-13
-7.435623871166886533e-14
-5.143548006669451596e-14
-3.548810577031737520e-14
-2.467813232874747082e-14
-1.731658907118304463e-14
-1.234686537486560122e-14
-8.975386774456256991e-15
-6.653252831847356904e-15
-5.024382868534899999e-15
-3.847106562831306333e-15
-2.967247513148554401e-15
-2.288118821558267720e-15
