# bin_3_7
-1.319343988818122596e-12
-1.459387841370292125e-12
-1.580025394344724332e-12
-1.665056736320576671e-12
-1.696438526615808213e-12
-1.657809722253978899e-12
-1.531685933337783856e-12
-1.338033398811662405e-12
-1.109782010983617079e-12
-9.092675287413300417e-13
-7.733676855648816827e-13
-6.629944296814409098e-13
-5.047404445142196489e-13
-3.531582901723922087e-13
-2.843793355735586213e-13
-1.968875993288899110e-13
-1.469410259839111578e-13
-1.016637431911156597e-13
-7.257004804750082820e-14
-5.176538965409368804e-14
-3.713213496483436923e-14
-2.697823312074461685e-14
-1.990602620992098261e-14
-1.497313826270010176e-14
-1.145364931694488408e-14
-8.869557363973580915e-15
-6.913709281476088339e-15
-5.385665216760702713e-15
-4.163857124717218909e-15
-3.175568837287296535e-15
-2.377491098314396435e-15
