# bin_9_6
-3.027529443616737705e-10
-3.405024200285195217e-10
-3.762193863369644966e-10
-4.066101117065326736e-10
-4.274300752418274563e-10
-4.341346634071233966e-10
-4.222453582051916487e-10
-3.878768598277450974e-10
-3.369119045007297418e-10
-2.783567112182891673e-10
-2.284380703143698099e-10
-1.953414370578221123e-10
-1.667162729482348120e-10
-1.245395890422660139e-10
-8.752924631408359159e-11
-7.091244288403409784e-11
-4.770602209611703681e-11
-3.593032740294329658e-11
-2.456084008335914944e-11
-1.711547137215518245e-11
-1.199279365038454924e-11
-8.408565982331366478e-12
-5.941023909281267672e-12
-4.249937503027855994e-12
-3.099990071096837253e-12
-2.305180819897066407e-12
-1.744622276141149972e-12
-1.338938323722946417e-12
-1.035257126151473510e-12
-8.006123147332586902e-13
-6.148464643249445355e-13
