# bin_10_5
-2.983918346463031266e-13
-3.360075136957562961e-13
-3.717983452051255497e-13
-4.025592415490421487e-13
-4.241308990930263424e-13
-4.318932687636371803e-13
-4.216496168882984699e-13
-3.889619407661751535e-13
-3.392582054523779524e-13
-2.809739680943783653e-13
-2.302726975762301253e-13
-1.963105432817520934e-13
-1.682891953781692476e-13
-1.272004798072947030e-13
-8.876130113383438415e-14
-7.186374114261042386e-14
-4.880966197679275982e-14
-3.658143227697463765e-14
-2.488315162435555759e-14
-1.740495285744537969e-14
-1.217472630743948964e-14
-8.515671301387650063e-15
-5.996666470867647126e-15
-4.271559070039695189e-15
-3.101178989657356116e-15
-2.295660347177859430e-15
-1.730555623375408276e-15
-1.324356943450440963e-15
-1.022469421307815155e-15
-7.906946318355092187e-16
-6.080047968025195027e-16
