# bin_15_2
-2.346675391124660347e-09
-2.434142753400180585e-09
-2.435341927645691055e-09
-2.325579012393957144e-09
-2.102791029013860267e-09
-1.802941087417159222e-09
-1.490481072491386131e-09
-1.237328606241082142e-09
-1.053208485069234912e-09
-8.663313432155603226e-10
-6.441407261034965059e-10
-4.759467648092509700e-10
-3.661626400077740285e-10
-2.634133426606327093e-10
-1.938021773486699168e-10
-1.406679471807013026e-10
-1.032142946709205035e-10
-7.653032453217948058e-11
-5.765342953750367261e-11
-4.420824641767328642e-11
-3.444673866153664027e-11
-2.717209261293277609e-11
-2.155763803369120960e-11
-1.707999225361658014e-11
-1.342125660271150185e-11
-1.039340427872075267e-11
-7.889851155760439952e-12
-5.847926776369094440e-12
-4.221824972618106287e-12
-2.967230448944004516e-12
-2.032729219776921422e-12
