# bin_15_12
-9.575132980125123102e-11
-1.092057018172266280e-10
-1.227766963354032761e-10
-1.355484956052311004e-10
-1.463124003463569361e-10
-1.535183394728608031e-10
-1.555737806503845827e-10
-1.507596642513656524e-10
-1.379203094468260528e-10
-1.193050464543711338e-10
-9.837940481114459730e-11
-8.093171170461278688e-11
-6.946344180608511676e-11
-5.894041058368720024e-11
-4.342325358094472616e-11
-3.080773638373681500e-11
-2.486006110617953195e-11
-1.650922005169569464e-11
-1.238049074720949723e-11
-8.418855620106713964e-12
-5.740541389324107418e-12
-3.928881943886013683e-12
-2.671189087740958287e-12
-1.817247442881295057e-12
-1.242653101133461535e-12
-8.620979126027992425e-13
-6.084083878337219466e-13
-4.383220554148288145e-13
-3.227843371243573047e-13
-2.424180673066282315e-13
-1.847167659190111053e-13
