# bin_7_1
-3.059081549198158230e-09
-2.990580799776628223e-09
-2.784304609132953058e-09
-2.460400706517248222e-09
-2.079101731960650944e-09
-1.721887136180481129e-09
-1.441073476908578580e-09
-1.207159267714223742e-09
-9.567140981657432890e-10
-7.106308464418128201e-10
-5.337918322783074473e-10
-4.019428062225495200e-10
-2.932698855740590708e-10
-2.163138131642347441e-10
-1.595615987120426752e-10
-1.191929067675832202e-10
-9.040703249633207818e-11
-6.979772043029093702e-11
-5.477625384590349583e-11
-4.351252460097858404e-11
-3.477341372353509412e-11
-2.775417204739170631e-11
-2.196801751415338552e-11
-1.713525316198656431e-11
-1.310163256634900755e-11
-9.781108115391285666e-12
-7.113752330190488656e-12
-5.037604777584177454e-12
-3.477384406100265558e-12
-2.345293879107580014e-12
-1.550085617303484067e-12
