# bin_7_9
-1.330206084955304262e-12
-1.496090861235052459e-12
-1.653148752899284571e-12
-1.786968188867265709e-12
-1.878960896842484002e-12
-1.909105708423042926e-12
-1.857964222468247236e-12
-1.708082484644482002e-12
-1.484887684084710620e-12
-1.227549975898376650e-12
-1.007231759183692720e-12
-8.606289612860502975e-13
-7.348475591689010121e-13
-5.502366147078273988e-13
-3.863529818420063274e-13
-3.127002313001048123e-13
-2.109177535623600757e-13
-1.585633411622742478e-13
-1.083053900317024941e-13
-7.553053642907324690e-14
-5.289425159280358848e-14
-3.706053495150711741e-14
-2.616334555604158693e-14
-1.869765329918229974e-14
-1.362371693869674912e-14
-1.012022622181347197e-14
-7.652280774183165723e-15
-5.868819355562194244e-15
-4.535826104958309587e-15
-3.507259341033161503e-15
-2.693738451363274853e-15
