# bin_3_8
-1.671898697993472542e-18
-1.857286373330280018e-18
-2.021528658561493331e-18
-2.144624569242777977e-18
-2.202525041945364973e-18
-2.176257772579319889e-18
-2.037541439731915756e-18
-1.802744169917012208e-18
-1.509546250934123104e-18
-1.234581637024502275e-18
-1.039105995808572547e-18
-8.975032317668148386e-19
-7.083910802333724884e-19
-4.925461392573414986e-19
-3.878318130301151940e-19
-2.812012570643516832e-19
-2.023459688123898935e-19
-1.411997543011446487e-19
-1.015496587931098434e-19
-7.176729572525773235e-20
-5.094498773085821329e-20
-3.663769970208250388e-20
-2.673937215796788749e-20
-1.988218671289492670e-20
-1.505756649829221288e-20
-1.157210199678784034e-20
-8.980759579468475802e-21
-6.989787954974606509e-21
-5.416966704711431277e-21
-4.152640809755757750e-21
-3.132107654525218216e-21
