# bin_4_9
-8.601764747767344730e-18
-9.621901977466001999e-18
-1.056193811823172297e-17
-1.132390197882062782e-17
-1.178436297749727720e-17
-1.183368575081172794e-17
-1.132092403676579484e-17
-1.022371263903056677e-17
-8.728972870192412281e-18
-7.159625950572827250e-18
-5.928436619783638785e-18
-5.116984283305139837e-18
-4.249576061425138438e-18
-3.037651724335915836e-18
-2.238505946173121747e-18
-1.760227595873708739e-18
-1.187029339384013107e-18
-8.774872515578471908e-19
-6.179806121417107532e-19
-4.303729851169201268e-19
-3.022925767333836497e-19
-2.137960550552445586e-19
-1.532155416435734288e-19
-1.115680085033641525e-19
-8.287074632572580132e-20
-6.266132159033134272e-20
-4.807702748677436485e-20
-3.722285360374091683e-20
-2.887351916982224295e-20
-2.227875654191496799e-20
-1.698990914702113134e-20
