# bin_1_8
-3.015565896829097942e-26
-3.335835181689958980e-26
-3.612043778582263661e-26
-3.807284715908422148e-26
-3.880263921031494948e-26
-3.793932520710805012e-26
-3.507745400789907878e-26
-3.066509811158045757e-26
-2.544845815960826419e-26
-2.084826160998312259e-26
-1.772019132009530475e-26
-1.519561436009694116e-26
-1.159115881383092815e-26
-8.106000672452321898e-27
-6.520105549805893850e-27
-4.524185520351474062e-27
-3.370425893377215117e-27
-2.331907545444944279e-27
-1.665114238177013400e-27
-1.187084333578305278e-27
-8.509572372891157409e-28
-6.178489878804098889e-28
-4.555655551525128176e-28
-3.424314437903629265e-28
-2.617837374528912140e-28
-2.026280180918919212e-28
-1.578998011545651987e-28
-1.229865928738101162e-28
-9.508830018042639435e-29
-7.252995132469674520e-29
-5.431509348502893712e-29
