# bin_2_6
-5.689247487910608916e-17
-6.211999637936808536e-17
-6.618707025181557487e-17
-6.836226260229598398e-17
-6.804363690818283315e-17
-6.434609091555878464e-17
-5.748224409602959795e-17
-4.857525770169150258e-17
-3.976448748724939822e-17
-3.318319272208057402e-17
-2.865094105166722059e-17
-2.321233588009632431e-17
-1.637543177583159338e-17
-1.249798011238916397e-17
-9.484992463404152301e-18
-6.645689980525737765e-18
-4.818041390046567778e-18
-3.478086759333781356e-18
-2.484109199090144889e-18
-1.792941235853799770e-18
-1.312974671760462712e-18
-9.779162621695114114e-19
-7.414994980846057746e-19
-5.716291004560255757e-19
-4.456714283452861868e-19
-3.492705109968521239e-19
-2.732335807596002020e-19
-2.118931039942525160e-19
-1.619278677904120717e-19
-1.213442232793452421e-19
-8.883257600809123875e-20
