# bin_7_10
-1.117922943756450489e-13
-1.261240227808862077e-13
-1.398847578062510359e-13
-1.519031885254111205e-13
-1.606404560953042209e-13
-1.642976584940823629e-13
-1.614160746561079795e-13
-1.500161093840173003e-13
-1.317968627345828834e-13
-1.097021326249798580e-13
-8.976941670556400616e-14
-7.607507358128977771e-14
-6.556852591972599908e-14
-5.061379587161902472e-14
-3.506729821004204433e-14
-2.813640049844573430e-14
-1.960441193296896227e-14
-1.442791082969837789e-14
-9.792651352649876112e-15
-6.910494217295499281e-15
-4.809897829799512497e-15
-3.343752874653113628e-15
-2.340217673194680791e-15
-1.654477533302954168e-15
-1.190694207858882269e-15
-8.738272129415472909e-16
-6.535882090797285381e-16
-4.971878464748103621e-16
-3.824963201000250237e-16
-2.955339344214732983e-16
-2.276216758153765250e-16
