# bin_1_1
-4.647188434677223593e-10
-4.404442720750670708e-10
-3.960790119774997201e-10
-3.389391952022345464e-10
-2.810819916316005221e-10
-2.338582280625046029e-10
-1.973610477744243976e-10
-1.606013707188574556e-10
-1.206847553743573903e-10
-8.974089265459937142e-11
-6.835983056671577351e-11
-5.009810865564690244e-11
-3.696364259996646373e-11
-2.731706847307962990e-11
-2.041810468735160094e-11
-1.549130984748554347e-11
-1.196935537241036282e-11
-9.409276361179370599e-12
-7.495079029731706001e-12
-6.013185981344671033e-12
-4.823286154653456742e-12
-3.839877785851139776e-12
-3.014200272137547122e-12
-2.319992862969107261e-12
-1.743505588329637100e-12
-1.276096799162990918e-12
-9.090265924622380811e-13
-6.308741461055189586e-13
-4.275558176511057098e-13
-2.838088215285197755e-13
-1.851099327843673192e-13
