# bin_3_5
-8.336202850627305010e-13
-9.060026103184869005e-13
-9.597620049841619229e-13
-9.843526565129510027e-13
-9.709290977512847350e-13
-9.077180168954189209e-13
-8.021177205602949840e-13
-6.715160859347988015e-13
-5.495805217894778502e-13
-4.626243968817340857e-13
-3.984255741288386829e-13
-3.138664150171990105e-13
-2.200303676125080972e-13
-1.727109386579396041e-13
-1.259919286068636086e-13
-9.110366191138153192e-14
-6.474798993592578666e-14
-4.695729012978752172e-14
-3.378877515844824754e-14
-2.454949421650940380e-14
-1.811974220387689643e-14
-1.360334553585402523e-14
-1.039722021060372681e-14
-8.066278720496942955e-15
-6.315430372915187439e-15
-4.958102803220432479e-15
-3.875614347435140138e-15
-2.996317408048608403e-15
-2.278237074229297739e-15
-1.695876006398160884e-15
-1.231728278629371447e-15
