# bin_6_8
-1.218938903919627872e-12
-1.363390825941946451e-12
-1.496444542673390133e-12
-1.604209217478673321e-12
-1.669192461837557866e-12
-1.675874630037467782e-12
-1.602903797704751049e-12
-1.447289014914963109e-12
-1.235493348194705712e-12
-1.013396361959499492e-12
-8.392916531205541025e-13
-7.243552795709074252e-13
-6.012158466317570624e-13
-4.297597902633320477e-13
-3.168994031254770036e-13
-2.489232698358178185e-13
-1.680539088283845067e-13
-1.241161567880100872e-13
-8.741736135092935225e-14
-6.089360319356025816e-14
-4.277810316323588465e-14
-3.026143077985416152e-14
-2.169012475010697728e-14
-1.579699516934222510e-14
-1.173555114818784938e-14
-8.874730234375191106e-15
-6.809643838843895993e-15
-5.272305435807646749e-15
-4.089489697022092850e-15
-3.155131329913428247e-15
-2.405800070435094410e-15
