# bin_6_15
-1.254768326376272861e-23
-1.430376337810529427e-23
-1.607115320900473831e-23
-1.772940910889607256e-23
-1.911920789934682379e-23
-2.003695840733561936e-23
-2.027795637840897994e-23
-1.961034907015460290e-23
-1.789894003465872712e-23
-1.544715316311244439e-23
-1.272096720397060631e-23
-1.047339329660995501e-23
-9.004874303076634878e-24
-7.620628203662820340e-24
-5.575522586169553513e-24
-3.974363585642854635e-24
-3.206465415129895513e-24
-2.118401058901209294e-24
-1.591427584933804835e-24
-1.086146246241427024e-24
-7.390123825901374086e-25
-5.058695508552542563e-25
-3.440542052003185647e-25
-2.344607044712114735e-25
-1.607440736304292822e-25
-1.118814218528844557e-25
-7.925249831915020503e-26
-5.732526474603477777e-26
-4.237651399260384308e-26
-3.192909690197307757e-26
-2.438572133825132438e-26
