# bin_1_3
-5.750332969216116166e-13
-5.954612705612676479e-13
-5.946886801948152199e-13
-5.658603744491308200e-13
-5.090893469074564703e-13
-4.337194910310803025e-13
-3.564467035832856516e-13
-2.960106986129388456e-13
-2.538520150563217361e-13
-2.083390144617837119e-13
-1.512819112514657619e-13
-1.127768717771821431e-13
-8.734960853977905515e-14
-6.176221673194904514e-14
-4.585752184875798208e-14
-3.328276992890036209e-14
-2.439670463146721873e-14
-1.813789362164553813e-14
-1.370863542039326005e-14
-1.054920461530869417e-14
-8.248412295323056526e-15
-6.526322659878316853e-15
-5.188874832601017349e-15
-4.115798427856255334e-15
-3.234430524377016314e-15
-2.502226707030097092e-15
-1.895535999363677936e-15
-1.400570132556150107e-15
-1.007025154686015020e-15
-7.045347403883558947e-16
-4.803984670861175748e-16
