# bin_15_1
-3.568039256847901332e-09
-3.507473925258549049e-09
-3.285904132819917427e-09
-2.920773871010910361e-09
-2.478064132488477349e-09
-2.052865179470962783e-09
-1.715576131081951736e-09
-1.442141360537854966e-09
-1.153011545687443636e-09
-8.586274537684013734e-10
-6.428927982557847331e-10
-4.860936024685499667e-10
-3.545303705811158963e-10
-2.613490271829843665e-10
-1.924767437142870584e-10
-1.434589471318470912e-10
-1.084997909116056984e-10
-8.351907872697143965e-11
-6.537733515286852607e-11
-5.184024135917105244e-11
-4.139629602970558872e-11
-3.305025357831716238e-11
-2.619450774957705377e-11
-2.047709358376416598e-11
-1.570245376442469313e-11
-1.176244637448337497e-11
-8.585445642813345633e-12
-6.101219326814662751e-12
-4.225261360171751220e-12
-2.857803849850647453e-12
-1.893343577617117197e-12
