# bin_7_7
4.484742546183863311e-06
5.026682493360847471e-06
5.530939913231247726e-06
5.947094626818453186e-06
6.211177231692579900e-06
6.262562066842863229e-06
6.025610005716215631e-06
5.472828624185346905e-06
4.699985886545813360e-06
3.863552547304500375e-06
3.189195890856715398e-06
2.746744797470238891e-06
2.304930775696814710e-06
1.669805318977862167e-06
1.209497947996761362e-06
9.651269543318489028e-07
6.462924230458769988e-07
4.834926564767109334e-07
3.371197612804261097e-07
2.343955566712956938e-07
1.645871274049768026e-07
1.160610507040208761e-07
8.280256175594844981e-08
5.996303533558058377e-08
4.429685353594398290e-08
3.333078289138325403e-08
2.547515206563285775e-08
1.967958302556843161e-08
1.525767683440167695e-08
1.178667015400808199e-08
9.011975547612756302e-09
