# bin_13_4
4.340170002642592969e-19
4.923663260617666297e-19
5.497594115146018059e-19
6.018828621786057973e-19
6.429554673754187250e-19
6.657502044587851831e-19
6.644981518659590532e-19
6.300370670954038833e-19
5.640084838712270099e-19
4.772216296113352322e-19
3.906367624748482585e-19
3.259052944971433958e-19
2.822754377063448896e-19
2.296967787596428229e-19
1.607072410150781391e-19
1.223466870678315493e-19
9.273023583305650585e-20
6.361447639939348985e-20
4.517467345538600829e-20
3.195997607172318055e-20
2.192334957283395986e-20
1.500598759352457525e-20
1.032949683639362409e-20
7.168978194262645832e-21
5.039414040592860768e-21
3.608459803013254791e-21
2.635072335557906225e-21
1.963865447774476671e-21
1.489193710564514908e-21
1.142618572509042398e-21
8.806607272004581250e-22
