# bin_15_12
6.673228516921248502e-07
7.643169695748321012e-07
8.638676374378630116e-07
9.598511167757900985e-07
1.044260000895018695e-06
1.106515590218585880e-06
1.133993837090311765e-06
1.116937951111130908e-06
1.040812008945124649e-06
9.166714790817558652e-07
7.642092327155856682e-07
6.252817889012352991e-07
5.293891461259819400e-07
4.573087476128144847e-07
3.547527171749035482e-07
2.448576935244930507e-07
1.961984215292461035e-07
1.369001986623914828e-07
1.000465489605191203e-07
6.691263278085720141e-08
4.670602976243817940e-08
3.178285132993625006e-08
2.141541343711943844e-08
1.438440675469642687e-08
9.650863075483293978e-09
6.528259505346256690e-09
4.471837080781951986e-09
3.116155037994819847e-09
2.219484333504796853e-09
1.618107026487947987e-09
1.205577666987774081e-09
