# bin_5_3
3.860013376604785148e-07
4.211552249368497073e-07
4.482827021961958550e-07
4.624170868822247294e-07
4.594800110307201074e-07
4.335206999563088544e-07
3.864441967170619212e-07
3.259400572523005827e-07
2.668406348133945122e-07
2.231687575633401430e-07
1.926915835575931984e-07
1.552037106044398241e-07
1.092673519473306589e-07
8.399866214592931248e-08
6.319176710395998279e-08
4.460385820917100906e-08
3.217394440678481622e-08
2.326982199156867251e-08
1.665069483803373478e-08
1.203671818559275210e-08
8.831721655332953235e-09
6.590931896766796547e-09
5.007530984077748747e-09
3.866670480845981927e-09
3.018156827848167382e-09
2.366769580381226324e-09
1.851595189354287483e-09
1.435246544387299872e-09
1.095817812357788598e-09
8.201328815236180375e-10
5.994605084521956780e-10
