# bin_5_4
4.341900690431192422e-08
3.919369689925354338e-08
3.443467807364463132e-08
2.945688279744853430e-08
2.459550137591073426e-08
2.013450508470580175e-08
1.623610850785904013e-08
1.292238804388545473e-08
1.012198822680235331e-08
7.768678717769596590e-09
5.862109877147123983e-09
4.407856652446964327e-09
3.325087239072762226e-09
2.506340271443449623e-09
1.900512606255860357e-09
1.453912984065647755e-09
1.121520747058567147e-09
8.715318281347117227e-10
6.803607291414720968e-10
5.315238592476803401e-10
4.138202530363497633e-10
3.197550265542062548e-10
2.442899060445381196e-10
1.839463600387432926e-10
1.361726690523515528e-10
9.892814691100793957e-11
7.045554998611765862e-11
4.917330548004464420e-11
3.364525403210578292e-11
2.259191139834306798e-11
1.491094129743929502e-11
