# bin_10_6
6.409579538112478197e-08
5.977688956043076097e-08
5.431245948130391436e-08
4.801354289236110339e-08
4.129947521795035931e-08
3.463776146373682276e-08
2.845009660139506095e-08
2.300149354166290579e-08
1.835626345281670665e-08
1.442354103970200911e-08
1.109535682557712335e-08
8.363970330232846006e-09
6.263088639422354002e-09
4.703008081417770617e-09
3.520392015574796704e-09
2.643806481502027052e-09
2.001556392124736354e-09
1.526593589739986389e-09
1.173381874527483739e-09
9.070508799436278242e-10
7.029291757557932889e-10
5.440292422975137532e-10
4.188378487379998633e-10
3.195518469800778049e-10
2.408030886215892241e-10
1.787477415474795031e-10
1.304329368251045935e-10
9.343378987275144379e-11
6.565728696852100879e-11
4.525912870487542039e-11
3.062133124310363797e-11
