# bin_6_3
3.952476995182641497e-08
3.535305488128947063e-08
3.077111361660898718e-08
2.609044057668591992e-08
2.162206657883120541e-08
1.760124178904089341e-08
1.413302024793687976e-08
1.119542237370774921e-08
8.709695479953283267e-09
6.637702617392277994e-09
4.997419468166067183e-09
3.766701565066652221e-09
2.843596957286159052e-09
2.149098743273262586e-09
1.638481882629452496e-09
1.259830348994232426e-09
9.771264075053327177e-10
7.628126450912059382e-10
5.974145680539831593e-10
4.674410840444345099e-10
3.638280649850536087e-10
2.805499984933599230e-10
2.135485994431000272e-10
1.599813084217948833e-10
1.176931136978373432e-10
8.489495591661436047e-11
5.999762687913806199e-11
4.154414424304336496e-11
2.820501077970698246e-11
1.880112759474131609e-11
1.232784483397188533e-11
