# bin_9_2
3.359158024579483876e-08
2.956993111532367863e-08
2.533601023261317652e-08
2.118345677803638127e-08
1.736406236605795966e-08
1.402276772209425022e-08
1.117798307575294451e-08
8.766055585771777193e-09
6.734625978169192690e-09
5.091155230457975240e-09
3.837804845035020445e-09
2.901049106300312693e-09
2.194701342787571009e-09
1.671693886778895832e-09
1.285444964901197980e-09
9.974565577663583667e-10
7.800120288584503508e-10
6.127603394914964325e-10
4.815900478363008693e-10
3.769826930219065832e-10
2.926473884901530419e-10
2.244181553392723807e-10
1.694520178178503140e-10
1.256651400171805185e-10
9.136823223919287481e-11
6.506770778669476387e-11
4.537922226641140337e-11
3.101253932371740099e-11
2.079578043289100730e-11
1.370789202517378954e-11
8.901375394289431366e-12
