# bin_6_2
3.131957344574316550e-08
2.746588488502013029e-08
2.345464777628773697e-08
1.955723349493899569e-08
1.599740862340519997e-08
1.289587296686506638e-08
1.025938737255693371e-08
8.027506423976209538e-09
6.156180858435483244e-09
4.652159224327641079e-09
3.509334378335260128e-09
2.654735283868579321e-09
2.010958092616498240e-09
1.534630048700839145e-09
1.182228632945388183e-09
9.189202494599990675e-10
7.194821059573701039e-10
5.655557456295222146e-10
4.444543937197710518e-10
3.476493079776560139e-10
2.695075944035029185e-10
2.062869889673800610e-10
1.554108603737703632e-10
1.149625620272606955e-10
8.336478722821895100e-11
5.920917202113877683e-11
4.118645037575999064e-11
2.807935627062833985e-11
1.878829175423129531e-11
1.236154593280703042e-11
8.014620137833717407e-12
