# bin_8_8
6.759165673778583746e-08
6.338406045440386052e-08
5.793664309699491402e-08
5.154401984288469367e-08
4.461992457183164568e-08
3.764191150919612132e-08
3.106309542829533306e-08
2.520029804587808345e-08
2.016873595490293889e-08
1.590916887300071525e-08
1.230514152641568574e-08
9.316918818164372314e-09
6.975135428631943436e-09
5.229101061470877503e-09
3.915404309428252256e-09
2.929955931609671498e-09
2.210752683339592818e-09
1.678701388487393329e-09
1.285049497224268761e-09
9.897121218562276445e-10
7.648496280399092083e-10
5.909789970317188807e-10
4.547956548679391175e-10
3.472779354154821382e-10
2.622222734527398475e-10
1.952416313494320653e-10
1.430334216584566797e-10
1.029425441747942660e-10
7.272061493646925408e-11
5.041017414006638382e-11
3.430292084158991728e-11
