# bin_3_1
1.868706920516091821e-08
1.584079427623323320e-08
1.313440069236367607e-08
1.069861889004554935e-08
8.591342533668498174e-09
6.803441601171848497e-09
5.297972702046481324e-09
4.054084647005990778e-09
3.070038585162179598e-09
2.324951530834099887e-09
1.766900002292232217e-09
1.348430816924104282e-09
1.038034582892570070e-09
8.069424519944997152e-10
6.326525838840912905e-10
4.989556877763508808e-10
3.942953737701238225e-10
3.108142871708713036e-10
2.433069524670694547e-10
1.883663503449425527e-10
1.437224175339092211e-10
1.077715460436414486e-10
7.926135009305427443e-11
5.710304146671378348e-11
4.028208259596780696e-11
2.783430886813715320e-11
1.885978408077344822e-11
1.255167247187153808e-11
8.221713716710763145e-12
5.312245119796045330e-12
3.393148470249077514e-12
