# bin_8_2
3.299660576443418273e-08
2.901894066675677844e-08
2.484333428355875817e-08
2.075759449612073909e-08
1.700617396442871515e-08
1.372766541132674108e-08
1.093742842364215351e-08
8.572650083487361729e-09
6.583147256309283634e-09
4.976194334306811412e-09
3.751787492386761532e-09
2.836546292066304933e-09
2.146584045390159559e-09
1.635800643273863440e-09
1.258415448310265513e-09
9.768900664187339725e-10
7.641609151477860714e-10
6.003987644068414945e-10
4.718652515103356188e-10
3.693010958902742007e-10
2.865877214497961167e-10
2.196701087835890087e-10
1.657750306385490099e-10
1.228624335444461741e-10
8.927235318992432662e-11
6.353352043182041265e-11
4.428125185461676482e-11
3.024442001489607131e-11
2.027007464736890098e-11
1.335532107875348460e-11
8.669158535145750427e-12
