# bin_15_6
6.984180655437522431e-08
6.553934745478244845e-08
5.992328241164717683e-08
5.329790638686169361e-08
4.609929376324050956e-08
3.883885257441035768e-08
3.200852246369232375e-08
2.594639174577276412e-08
2.076546359863140970e-08
1.637889343269529282e-08
1.264718148967704467e-08
9.545524053882831688e-09
7.137852937637112654e-09
5.357040725937562658e-09
4.004490672041655852e-09
2.997275931710381700e-09
2.262650322911695212e-09
1.719845871348477091e-09
1.318006874887592687e-09
1.016603480250569735e-09
7.868546472893515293e-10
6.088916525720889175e-10
4.692113798116252507e-10
3.586749813513352590e-10
2.710326027724279086e-10
2.018777159779354014e-10
1.478878221258559847e-10
1.063831826697978432e-10
7.507953754121553616e-11
5.197352445666253897e-11
3.530486838240211645e-11
