# bin_13_4
-1.063260131103901755e-09
-1.157007970639599183e-09
-1.227505273413933884e-09
-1.261472722131161062e-09
-1.247024989022460079e-09
-1.169969425998198825e-09
-1.037603425683896873e-09
-8.724406908772927764e-10
-7.154304353741734479e-10
-6.007558341515208903e-10
-5.160989659561680008e-10
-4.099155058149572625e-10
-2.907592807480227211e-10
-2.244165465773082667e-10
-1.663802979461700865e-10
-1.188975164789851749e-10
-8.563517393858631833e-11
-6.170033046134467158e-11
-4.430828354692084554e-11
-3.215304108463384816e-11
-2.367461230499922834e-11
-1.772704854500553885e-11
-1.350998256663793347e-11
-1.045543615449863219e-11
-8.170951578456472876e-12
-6.407771627469555794e-12
-5.007540424387935753e-12
-3.873617786734189224e-12
-2.949168832022099164e-12
-2.199678135761838986e-12
-1.601854419505829430e-12
