# bin_4_9
-1.140900841084101727e-17
-1.276402294902603504e-17
-1.401275487099751636e-17
-1.502489382722709335e-17
-1.563620087929478853e-17
-1.570140236039386025e-17
-1.501858166075634645e-17
-1.356059027422827019e-17
-1.157570843872841126e-17
-9.495457316852696615e-18
-7.866959510323186668e-18
-6.793663000131105626e-18
-5.638846637667523944e-18
-4.026728758807234247e-18
-2.972670428651915827e-18
-2.335412379520710550e-18
-1.576036931620093226e-18
-1.164260328361234544e-18
-8.209394584962520447e-19
-5.719419954394300772e-19
-4.018421619175899321e-19
-2.843485546093669221e-19
-2.039123077054427709e-19
-1.485945938281385058e-19
-1.104520387315500149e-19
-8.356946083156188995e-20
-6.415205898413608316e-20
-4.968669331465407614e-20
-3.854958265396695672e-20
-2.974676661158445938e-20
-2.268407229270572171e-20
