# bin_5_10
-3.913849039407427617e-17
-4.402005233627035502e-17
-4.863941779715223662e-17
-5.257066336049013567e-17
-5.526491961579097104e-17
-5.613475141738578924e-17
-5.459962261553106086e-17
-5.015814587787883483e-17
-4.357261776403044022e-17
-3.600706670730016144e-17
-2.955969747402957004e-17
-2.528503900122320136e-17
-2.157753473421131159e-17
-1.611150527150688152e-17
-1.132937644016581158e-17
-9.182675527794786849e-18
-6.172299967482352190e-18
-4.652985697058888518e-18
-3.181619007941191996e-18
-2.216167406724358833e-18
-1.553443871822772676e-18
-1.089548069605543072e-18
-7.700436256061574925e-19
-5.510438527566197801e-19
-4.020922159451893137e-19
-2.991057180669698716e-19
-2.264436337639839233e-19
-1.738314227764299570e-19
-1.344273902956121712e-19
-1.039665252879393592e-19
-7.984201410865332836e-20
