# bin_3_2
-6.521615109322577333e-10
-6.738707837730056217e-10
-6.710087953038402416e-10
-6.366375990707298376e-10
-5.715569316842689872e-10
-4.866981540498377264e-10
-4.009960592888832044e-10
-3.338552826644147598e-10
-2.849988240293035883e-10
-2.321536850733277216e-10
-1.700641438253038683e-10
-1.269704749080933046e-10
-9.737695260657794307e-11
-6.965415701732461496e-11
-5.143132454973155486e-11
-3.736486467492603060e-11
-2.746221917367447903e-11
-2.043990726466300978e-11
-1.546523587576462153e-11
-1.191114999188274315e-11
-9.318245067656531837e-12
-7.372826409682673469e-12
-5.859472124728084859e-12
-4.644015119999351349e-12
-3.645523069922680338e-12
-2.816685400197280917e-12
-2.131019422081869582e-12
-1.572824131621280420e-12
-1.130036169377790007e-12
-7.903098999309525673e-13
-5.388700200609872798e-13
