# bin_5_6
-1.267849403866325539e-11
-1.400812826871605088e-11
-1.514454007443159449e-11
-1.593109184356380013e-11
-1.619846072424746480e-11
-1.578306091856657828e-11
-1.453591056260642835e-11
-1.265930219430689798e-11
-1.048365579172913352e-11
-8.602369135369451873e-12
-7.334765777110503917e-12
-6.264123114427479814e-12
-4.726941908539987872e-12
-3.328421395153263305e-12
-2.679624142101783676e-12
-1.844579727973696172e-12
-1.381019624478375879e-12
-9.586082845605199011e-13
-6.830475638756964855e-13
-4.879864508507742373e-13
-3.508007463719190979e-13
-2.555228220617356890e-13
-1.890803201722095282e-13
-1.426216952782891310e-13
-1.093493848825182770e-13
-8.481641936834751103e-14
-6.616401160840605387e-14
-5.153478959040377673e-14
-3.980749632955085805e-14
-3.031188939641576285e-14
-2.264640763320297244e-14
