# bin_4_3
-4.072379195414522937e-10
-4.336872420777681880e-10
-4.479347975795143825e-10
-4.457307973324102158e-10
-4.219729117059127017e-10
-3.776556585832024295e-10
-3.202248127076853962e-10
-2.629783742682457395e-10
-2.193091615539729539e-10
-1.882541480766892971e-10
-1.527288637915648989e-10
-1.099100062446735259e-10
-8.289846589900587343e-11
-6.330394103242917398e-11
-4.479306757865213055e-11
-3.292892693470031773e-11
-2.378721193167189168e-11
-1.726575854782227064e-11
-1.269258672129780440e-11
-9.474534024417805324e-12
-7.197028520982376128e-12
-5.559194018523849266e-12
-4.353144016430429523e-12
-3.433676961690124577e-12
-2.709625721073933830e-12
-2.124468058863061558e-12
-1.644139225443780638e-12
-1.249076866701875332e-12
-9.274926572921686480e-13
-6.711371273628068484e-13
-4.727548675888814280e-13
