# bin_8_6
-2.367233040482100300e-10
-2.628994449598096214e-10
-2.860350599502297768e-10
-3.032868162258835519e-10
-3.112923220088126284e-10
-3.072531932021731525e-10
-2.873782274158001044e-10
-2.540301919327394192e-10
-2.127000502368153884e-10
-1.741405966982686636e-10
-1.467324728801926008e-10
-1.265003031629430549e-10
-9.953564591438168194e-11
-6.954948250404911701e-11
-5.465154335548409185e-11
-3.957970455527641677e-11
-2.849678205724320425e-11
-1.999057848192310970e-11
-1.432632299430403834e-11
-1.013145533214698494e-11
-7.201714219403648206e-12
-5.183785663952699588e-12
-3.787298920437563772e-12
-2.818817059613697261e-12
-2.136467764462730769e-12
-1.642759968696385471e-12
-1.275100934598875265e-12
-9.922619826351736997e-13
-7.686676419681653636e-13
-5.889127747103798017e-13
-4.438699218494845389e-13
