# bin_7_8
-1.003389048406708459e-11
-1.124489495525294564e-11
-1.237093251864404870e-11
-1.329907420138096087e-11
-1.388611472490089220e-11
-1.399691391892931646e-11
-1.346192657887066992e-11
-1.222233494397795198e-11
-1.049243829339962327e-11
-8.624379700361552124e-12
-7.121017023461929729e-12
-6.133668233871187580e-12
-5.142872631357995518e-12
-3.723138517557927300e-12
-2.700197538350509628e-12
-2.151798983515971014e-12
-1.442355806095004536e-12
-1.077796847852021078e-12
-7.519691440736728719e-13
-5.229610406552767290e-13
-3.672403587103474165e-13
-2.590370521914414466e-13
-1.848681122965209099e-13
-1.339281074717914891e-13
-9.897504190140122951e-14
-7.449777323920291112e-14
-5.695396794378944954e-14
-4.400290193324037083e-14
-3.411599857962661167e-14
-2.635207578550074722e-14
-2.014453392147011572e-14
