# bin_12_14
-4.753670811130569652e-09
-5.438320987098563456e-09
-6.138031222114001302e-09
-6.808474325154944883e-09
-7.391801616342097557e-09
-7.812216395508957100e-09
-7.981870863034274644e-09
-7.828485080091845301e-09
-7.257810967238857221e-09
-6.361360088220254562e-09
-5.284464551216122148e-09
-4.327290600183317741e-09
-3.678984766258410210e-09
-3.168425142244860079e-09
-2.422339799215162836e-09
-1.677263092590154342e-09
-1.355283350949685783e-09
-9.255239306383822797e-10
-6.870354404909835905e-10
-4.591480801204893403e-10
-3.173520529159142060e-10
-2.166641549107978564e-10
-1.466163259897994854e-10
-9.879987170723932733e-11
-6.659533502360168269e-11
-4.535200869959616460e-11
-3.132114873977779304e-11
-2.203437403069849030e-11
-1.585194213907953937e-11
-1.166664322079068173e-11
-8.760051713813337638e-12
