# bin_8_8
-1.555407951105373898e-08
-1.750827597439970863e-08
-1.936445153495629920e-08
-2.095476862504225485e-08
-2.206193384518975503e-08
-2.244753374567357706e-08
-2.188854851220827429e-08
-2.016434229533557421e-08
-1.756539391470321508e-08
-1.453867280474548748e-08
-1.192439783026659240e-08
-1.017953041905070407e-08
-8.713275705200883417e-09
-6.557133011654965530e-09
-4.588076685454654198e-09
-3.717963803185423138e-09
-2.514244933490554156e-09
-1.889659824491623288e-09
-1.287441554464145628e-09
-8.988200325304155285e-10
-6.292480847178416859e-10
-4.405692993918320435e-10
-3.106012796914503687e-10
-2.215682440013781714e-10
-1.611212234380025743e-10
-1.194578046819543663e-10
-9.017751726082105931e-11
-6.908231428773906727e-11
-5.336571319618233472e-11
-4.127230443398643027e-11
-3.172483905253366856e-11
