# bin_10_12
-3.978685544436765634e-09
-4.531088330783417505e-09
-5.084514428203338830e-09
-5.600527615734945548e-09
-6.028074636265949798e-09
-6.302263970347282902e-09
-6.360836710386257523e-09
-6.126776714489790613e-09
-5.568994136268312035e-09
-4.785889003707482230e-09
-3.934250673681329289e-09
-3.246400933243712345e-09
-2.797989896325384692e-09
-2.352045304459009851e-09
-1.701665624539679396e-09
-1.228239876500983588e-09
-9.825124215177417774e-10
-6.501189120699109451e-10
-4.852523258606993887e-10
-3.337043011019642437e-10
-2.271339740893822435e-10
-1.553780746716947721e-10
-1.058048841487498354e-10
-7.235373348328538201e-11
-4.985837203379984714e-11
-3.491180057772775274e-11
-2.489632698116837577e-11
-1.813310279273327724e-11
-1.348877396520297699e-11
-1.021316963611593860e-11
-7.823662294730613446e-12
