# bin_7_5
-2.307517397451249642e-09
-2.567626680788911360e-09
-2.800176880712307043e-09
-2.977742510338245641e-09
-3.066811709128632689e-09
-3.041139471490706045e-09
-2.859987991265243166e-09
-2.541057645831400542e-09
-2.135560463414535392e-09
-1.747023263400856594e-09
-1.465939468359331636e-09
-1.267863680948048097e-09
-1.011944060737873659e-09
-7.049760467221858376e-10
-5.492805136903549300e-10
-4.050627055910471717e-10
-2.874243674361381335e-10
-2.022701522631474014e-10
-1.454954989632967373e-10
-1.025100665731450221e-10
-7.254345437057238364e-11
-5.200286866166172936e-11
-3.782678745317686344e-11
-2.802148708715651155e-11
-2.115105688238508422e-11
-1.621230129837421391e-11
-1.256144017528475363e-11
-9.772458051617342700e-12
-7.578952929073019771e-12
-5.820121761520166044e-12
-4.401035101652546511e-12
