# bin_10_14
-1.724783108038117283e-10
-1.969632701099072019e-10
-2.218016043684175540e-10
-2.453576819173826086e-10
-2.654855209681986520e-10
-2.794109936897163965e-10
-2.841174180518921346e-10
-2.767222232675167750e-10
-2.545087770287837077e-10
-2.213403152912799066e-10
-1.829794707453778933e-10
-1.501596464369485854e-10
-1.284430996937463341e-10
-1.098098718070164339e-10
-8.207502818106437051e-11
-5.745104380220608514e-11
-4.666596850923741152e-11
-3.109198328288132642e-11
-2.339512811474537654e-11
-1.576580612294083326e-11
-1.076660785543137158e-11
-7.371798242874534080e-12
-5.006695911252377503e-12
-3.392182637583260595e-12
-2.305264672546497976e-12
-1.587184286553900420e-12
-1.110427054911640613e-12
-7.925963005326208694e-13
-5.785773404844489924e-13
-4.314001915865893524e-13
-3.271459469885128255e-13
