# bin_7_7
-1.675956964015857746e-08
-1.876433210076005668e-08
-2.061925497094852628e-08
-2.213412862223420740e-08
-2.306859005675231057e-08
-2.320393306180314590e-08
-2.224863921218526084e-08
-2.013691470445336294e-08
-1.723152543765798234e-08
-1.414611861360846227e-08
-1.170161548972461290e-08
-1.009537030538673348e-08
-8.418570003582119927e-09
-6.045565424204947113e-09
-4.427497386726600249e-09
-3.502852097505842421e-09
-2.354066567891425775e-09
-1.749233740521284962e-09
-1.227673822735524769e-09
-8.542752600378033426e-10
-5.999337293995210404e-10
-4.237804812554869548e-10
-3.031797270692104968e-10
-2.203072312448746427e-10
-1.633038879860913874e-10
-1.232540991546345479e-10
-9.443519239319608018e-11
-7.305960895578751106e-11
-5.666817400716127974e-11
-4.375130867794434711e-11
-3.340384715444460466e-11
