# bin_2_3
-1.738321952966131343e-08
-1.837938001356082282e-08
-1.881507096593632141e-08
-1.851261706633226058e-08
-1.726901470631734084e-08
-1.523118009908291680e-08
-1.274632944118204002e-08
-1.044708099837130803e-08
-8.803142785129638806e-09
-7.552154217870993858e-09
-5.926589638371145667e-09
-4.195606783967779304e-09
-3.282590319412492605e-09
-2.404929046391435325e-09
-1.748002547463211956e-09
-1.260097886212901766e-09
-9.204737072599915289e-10
-6.723928353741745353e-10
-4.977794888085278197e-10
-3.749570782103069452e-10
-2.874431055632623508e-10
-2.239409735157065191e-10
-1.764599138910309413e-10
-1.396776099080011074e-10
-1.102913978320654370e-10
-8.627626931315685036e-11
-6.644508517093393998e-11
-5.012036754452189080e-11
-3.688505861078319629e-11
-2.642241795365394357e-11
-1.842032042116729039e-11
