# bin_5_9
-1.050994072213281263e-11
-1.178504852394143753e-11
-1.297408769610054860e-11
-1.395933159927997459e-11
-1.459119988774801989e-11
-1.472567607678955969e-11
-1.418746398987188557e-11
-1.290282432898568074e-11
-1.109551146515040692e-11
-9.124882759214237233e-12
-7.525865322749243823e-12
-6.478233256657699083e-12
-5.449783406111922609e-12
-3.959995372624350857e-12
-2.856086879017577475e-12
-2.287553965497732981e-12
-1.528434993749724983e-12
-1.146987712701299971e-12
-7.976983073925953798e-13
-5.542114718312918650e-13
-3.890467901798354751e-13
-2.740635308885872151e-13
-1.952517017317994193e-13
-1.411559791797152870e-13
-1.041023317635021031e-13
-7.821250178733981708e-14
-5.970749119356665868e-14
-4.609095381302908009e-14
-3.572737112323155566e-14
-2.760780204567718255e-14
-2.112364746507951212e-14
