# bin_3_7
-1.572847262551444881e-12
-1.738596736666774081e-12
-1.880700753082438755e-12
-1.979770473580930084e-12
-2.014565944845428912e-12
-1.965123881292775527e-12
-1.811880531590087608e-12
-1.579725398997739366e-12
-1.308784815728953193e-12
-1.073274186088126614e-12
-9.145892299897170336e-13
-7.825167707662614618e-13
-5.920167775526437184e-13
-4.155295465755082515e-13
-3.352549113537137349e-13
-2.306277999650645337e-13
-1.729188258320693919e-13
-1.197358915700429733e-13
-8.531242214393276898e-14
-6.093377542415749017e-14
-4.377662398326641687e-14
-3.185587374499298229e-14
-2.354608266774421252e-14
-1.774249547541551976e-14
-1.359226169770648493e-14
-1.053721008245333600e-14
-8.218446658159657589e-15
-6.402342393914929893e-15
-4.947704997137169540e-15
-3.770139462688868153e-15
-2.819252989213917524e-15
