# bin_3_9
-1.466652712513123819e-16
-1.637962812801236873e-16
-1.794346795703492098e-16
-1.918817301562775688e-16
-1.990104882694428618e-16
-1.990483485852222673e-16
-1.893380689018191297e-16
-1.700439697338765146e-16
-1.443730859563378048e-16
-1.182641925827626342e-16
-9.836639134211349366e-17
-8.507133969025257013e-17
-6.978987224793089366e-17
-4.929536450746039319e-17
-3.707121944991559333e-17
-2.858197103669995831e-17
-1.954816917584869163e-17
-1.420912837364384869e-17
-1.011293772296701482e-17
-7.067268677028705714e-18
-4.970829645841151359e-18
-3.530830258023323987e-18
-2.543657570927521042e-18
-1.863666740475717141e-18
-1.392474063413379551e-18
-1.058313814150962501e-18
-8.151601157722701125e-19
-6.324966413896930200e-19
-4.908161131063221236e-19
-3.782359667216954711e-19
-2.876925027095583584e-19
