# bin_9_9
-1.460119164223547750e-08
-1.650743685066093184e-08
-1.835351697466548442e-08
-1.998928100414242267e-08
-2.121526957598034753e-08
-2.179023696906783710e-08
-2.152951916049181625e-08
-2.014554519371449720e-08
-1.781312438974288633e-08
-1.490216484416245454e-08
-1.218934023072608881e-08
-1.027849729671893763e-08
-8.889528008064679059e-09
-6.989764655149007715e-09
-4.834741346643931604e-09
-3.830122004841982180e-09
-2.741707493282145781e-09
-1.975172182695755670e-09
-1.348708345553957850e-09
-9.586597783740318823e-10
-6.639529592298341761e-10
-4.587448382269774021e-10
-3.193919876449833923e-10
-2.244110583737093251e-10
-1.602740541364780870e-10
-1.167082191354581822e-10
-8.665564187178863927e-11
-6.553126435285208653e-11
-5.022484718405557872e-11
-3.875571834293427070e-11
-2.988368730429541677e-11
