# bin_2_1
-2.388148744228640970e-08
-2.434285499643973037e-08
-2.382081065393559504e-08
-2.210453234305432063e-08
-1.940624652280367148e-08
-1.621251145515699956e-08
-1.332014748077636743e-08
-1.124519363402093402e-08
-9.573319449416846781e-09
-7.446779742284555272e-09
-5.340199811440755901e-09
-4.157300124798922055e-09
-3.051010016005373471e-09
-2.229768768022573404e-09
-1.625283358610349880e-09
-1.195590016911206356e-09
-8.855652893088652465e-10
-6.664942058491172950e-10
-5.108747368244850986e-10
-3.983503937942146608e-10
-3.149116026459466671e-10
-2.508599853886017854e-10
-1.998908297457215729e-10
-1.581856553148074454e-10
-1.234979161979553056e-10
-9.457011451807409125e-11
-7.071049991080520346e-11
-5.147798161984087458e-11
-3.645474066333959499e-11
-2.514157894579354282e-11
-1.692885418720842499e-11
