# bin_2_4
-1.495592501423873937e-09
-1.602889168541235617e-09
-1.668375313598484414e-09
-1.676183295190390085e-09
-1.606247170804725883e-09
-1.454277668674291517e-09
-1.245522304880753319e-09
-1.023973564241238795e-09
-8.469979127031243610e-10
-7.279125609951738101e-10
-6.058809702067087743e-10
-4.404903805455539274e-10
-3.233728854016092883e-10
-2.549515317750754403e-10
-1.764416927570163172e-10
-1.318259796109412127e-10
-9.440858955564733839e-11
-6.813730086007645024e-11
-4.981578246577657248e-11
-3.691882758682334439e-11
-2.783787466661170628e-11
-2.135301660892940086e-11
-1.663492065673560605e-11
-1.308367234194426762e-11
-1.032016026405370174e-11
-8.107461676367307769e-12
-6.300227515570961624e-12
-4.814730121340780056e-12
-3.601190973242036911e-12
-2.626758262369515706e-12
-1.865196183439497994e-12
