# bin_1_5
-9.778310670423494619e-14
-1.052652549986352626e-13
-1.101795695381680905e-13
-1.114179430019279552e-13
-1.077488393448840768e-13
-9.847418257469228843e-14
-8.512082352011366964e-14
-7.024265000639525278e-14
-5.781473561667345363e-14
-4.947395563484140876e-14
-4.180851377200319072e-14
-3.103887488497194429e-14
-2.226813495673379785e-14
-1.781189597605796238e-14
-1.230765722649094376e-14
-9.248577111590636080e-15
-6.554254563482832260e-15
-4.729327838969150756e-15
-3.445838519529773691e-15
-2.539933693155451079e-15
-1.903562964391727866e-15
-1.451206006309610765e-15
-1.124914922974342528e-15
-8.818468388837666497e-16
-6.946040085644218074e-16
-5.459874946998359413e-16
-4.253016748384020138e-16
-3.263242272076498480e-16
-2.453768162689324023e-16
-1.801138549035576406e-16
-1.287609431487653702e-16
