# bin_6_5
-1.136578563009002173e-08
-1.259012860276655705e-08
-1.365468255576495693e-08
-1.442083886603411827e-08
-1.472987865520393095e-08
-1.444556465155852091e-08
-1.340189134767974095e-08
-1.175514754978830125e-08
-9.778245396401485162e-09
-8.007476680887469090e-09
-6.791717171150410743e-09
-5.839922620239527021e-09
-4.494374052000841241e-09
-3.133902150624833588e-09
-2.512928102904938929e-09
-1.760517156034399364e-09
-1.302845251252269184e-09
-9.012284295660326526e-10
-6.451499361508997205e-10
-4.590973182706657096e-10
-3.283620387300720816e-10
-2.378623944545066584e-10
-1.749352266555347572e-10
-1.311445969819668260e-10
-1.000340766288448836e-10
-7.730433903660526039e-11
-6.019258144167444330e-11
-4.688799870302837668e-11
-3.628515771667255341e-11
-2.772177613272503250e-11
-2.080526075982577454e-11
