# bin_3
0.000000000000000000e+00
5.155110500073204996e-143
1.229717901346784730e-113
4.019725267021172598e-90
4.400875230569530270e-71
1.236491071861920023e-55
4.158915063477202436e-43
5.609177194298253733e-33
7.962502150016564860e-25
2.592582246365470690e-18
3.651655349449190057e-13
3.746627318897704461e-09
4.312989943847178301e-06
8.002833106026517205e-04
3.261627215859824735e-02
3.836050458140266017e-01
1.679262252786305920e+00
3.531142456815240749e+00
4.599068129625342394e+00
4.429678280064957008e+00
3.177966174045207648e+00
1.556782561222752381e+00
4.930541974355328594e-01
1.008924661695851516e-01
1.373764880527955645e-02
1.296598557207970454e-03
8.856329439017716519e-05
4.562757695294538051e-06
1.842000334925680907e-07
6.031170096644986040e-09
1.651701898420741894e-10
3.888244845351809981e-12
8.060758793958738035e-14
1.503416130731940044e-15
2.570683606213684207e-17
4.097291832582420238e-19
6.176972647925495372e-21
8.922269474572706067e-23
1.248859442127481356e-24
1.710857181452135777e-26
2.314057763024819589e-28
3.114074260391239789e-30
4.197605679258046586e-32
5.701019727881675602e-34
7.841883755930171717e-36
1.097385018495033466e-37
1.568446533957478024e-39
2.297364101251176534e-41
3.458740918868913938e-43
5.365826735951893398e-45
8.596692977683185762e-47
1.567573021855531712e-18
3.553854118489525533e-19
8.173366777027211409e-20
1.907611931424585980e-20
4.519545399610379916e-21
1.087217676449137560e-21
2.656029798727534645e-22
6.590232126786141340e-23
1.660954839095136956e-23
4.252318578512918774e-24
1.105889001055063400e-24
2.921521469951399330e-25
7.839729452269800430e-26
2.136781711623502590e-26
5.914937712341393533e-27
1.662751204614355225e-27
4.746143442831241054e-28
1.375417364791916525e-28
4.046193900858519682e-29
1.208124086727837191e-29
6.638074019050638658e-30
