# bin_10_4
3.289723053706515531e-13
3.695240831481957912e-13
4.076627571498287974e-13
4.397619122619647732e-13
4.611794718160894912e-13
4.671579632255051870e-13
4.525475038937209938e-13
4.139187109230502698e-13
3.580007298524196965e-13
2.951715610839017149e-13
2.427496737873829739e-13
2.082572585692961913e-13
1.767297957614747727e-13
1.303762546368477130e-13
9.257392079902755969e-14
7.481917782554164359e-14
5.000948800032512783e-14
3.772811516702236315e-14
2.597254906207620670e-14
1.804981133805037947e-14
1.266293070479861951e-14
8.897245419391541331e-15
6.308707209855765878e-15
4.533603991959187551e-15
3.323045173440696032e-15
2.482462781342085118e-15
1.886232662937520203e-15
1.451611844358933169e-15
1.123860295561672347e-15
8.690047730894150255e-16
6.663974727414683538e-16
