# bin_2_2
1.075305320095712020e-05
1.118135754197017908e-05
1.122235955953605397e-05
1.074926979368202558e-05
9.736971787400373364e-06
8.349396681761146537e-06
6.879301769308680296e-06
5.694357908542730695e-06
4.874717502932280311e-06
4.046060852365701368e-06
2.975170468671310810e-06
2.187325641827687088e-06
1.710645128297794540e-06
1.208091368557523174e-06
8.990322096817457341e-07
6.494455164839107917e-07
4.755806194418523510e-07
3.524812690257156966e-07
2.653536926675382775e-07
2.033914323810913230e-07
1.584678802357003392e-07
1.250671804986985443e-07
9.931507173491507954e-08
7.878505116157190537e-08
6.200136354412760631e-08
4.809013759248571266e-08
3.656124021216440502e-08
2.713132327125244826e-08
1.959989144136705289e-08
1.377665526995184288e-08
9.434222909595560023e-09
