# bin_5_2
9.557492896518950125e-09
1.035729544214434720e-08
1.093141702261593619e-08
1.116140816428134943e-08
1.094190183283878389e-08
1.015287161881047798e-08
8.907315812796783219e-09
7.415604643172126708e-09
6.074991706386820796e-09
5.145952840458049025e-09
4.416595340836453465e-09
3.409819495515546564e-09
2.393350958948401925e-09
1.907177809112097288e-09
1.355840857403516090e-09
1.000864047864896751e-09
7.054077081233204206e-10
5.114053819437290529e-10
3.698766544595800109e-10
2.701005678480978914e-10
2.004165720941591094e-10
1.512516573144968748e-10
1.161907786747050126e-10
9.049497982477411233e-11
7.102896750462894247e-11
5.581394185607399837e-11
4.359807536480861273e-11
3.363609775541845705e-11
2.549052674151938507e-11
1.889268828234134806e-11
1.365264233607813308e-11
