# bin_15_6
1.051982000361352206e-16
1.199601815598012306e-16
1.348396231321471605e-16
1.488289298626954461e-16
1.605972134995692723e-16
1.684404335804079240e-16
1.706188967733228561e-16
1.652223689441163767e-16
1.510154109782710182e-16
1.305154093572635344e-16
1.075518568082491079e-16
8.848863211526151357e-17
7.601355186148457237e-17
6.446297741111419532e-17
4.734726167485730615e-17
3.362013744821456463e-17
2.718211522879086929e-17
1.796623597554827953e-17
1.351457908272182494e-17
9.200851963145090685e-18
6.261509222613318437e-18
4.286875565466531441e-18
2.914775510936702596e-18
1.984089704734199542e-18
1.357990315153122599e-18
9.432830111170315879e-19
6.666640862809269924e-19
4.810609085150310824e-19
3.548267780156536334e-19
2.668718548468031002e-19
2.035878397876923206e-19
