# bin_11_2
9.816398666592104556e-23
1.104976725144742036e-22
1.222129810399595406e-22
1.322507972740138581e-22
1.392398013430708287e-22
1.416764729847444832e-22
1.381514928542389189e-22
1.272768643523695263e-22
1.108782586374633438e-22
9.178160569013267376e-23
7.528150182755665152e-23
6.425949512474105489e-23
5.499669166307890102e-23
4.139903519004462354e-23
2.897715057563622169e-23
2.346505319695494583e-23
1.588561390281991028e-23
1.192790588322558032e-23
8.130794716796568902e-24
5.679310495731862340e-24
3.975796722171275034e-24
2.783679714133975741e-24
1.962873390677225530e-24
1.400558632593729886e-24
1.018689200910996869e-24
7.554253930207557003e-25
5.703533652452787310e-25
4.369713791065447087e-25
3.375652932898188478e-25
2.610563839920522262e-25
2.006464081590497740e-25
