# bin_9_1
3.883218826401063935e-22
4.323252272346866588e-22
4.717899204007709398e-22
5.021168336986939567e-22
5.176600627259018683e-22
5.139835837429118033e-22
4.841689087918645690e-22
4.308494749685070267e-22
3.626105227175414384e-22
2.966671143751467730e-22
2.486084810858185447e-22
2.150597869686540096e-22
1.723731565165295051e-22
1.202528262523472020e-22
9.324268138804555119e-23
6.922318862887639328e-23
4.884190622128739969e-23
3.451646581769037366e-23
2.480750859330214059e-23
1.745645243577950941e-23
1.233980776447053503e-23
8.833907079520392155e-24
6.416866590323853256e-24
4.746107256048861128e-24
3.577364964556946822e-24
2.738890215536911346e-24
2.120481334814197888e-24
1.649172597656783101e-24
1.279189939873570600e-24
9.828697259067395806e-25
7.438704466454733584e-25
