# bin_10_1
1.669950710332414673e-29
1.869501475363691645e-29
2.054030805324760866e-29
2.204568540472754785e-29
2.297151337001511098e-29
2.310063539928415886e-29
2.214189259133271181e-29
2.003351301481356856e-29
1.713712271009916539e-29
1.406713863798385773e-29
1.163892712898700304e-29
1.004250612924976835e-29
8.368782129786535723e-30
6.005315131044510699e-30
4.403139988890480418e-30
3.479899598249507972e-30
2.340416546110878078e-30
1.737570244247710521e-30
1.220399228993501400e-30
8.494994205060033407e-31
5.967110509347650166e-31
4.216955672669763354e-31
3.018599336471258397e-31
2.194917967389378408e-31
1.628037778357187094e-31
1.229469311462437053e-31
9.424161613530272782e-32
7.292912966823522085e-32
5.657106031674879544e-32
4.367159283781565445e-32
3.333432968334931056e-32
