# bin_2_2
2.047428060320181321e-10
2.135932033822294368e-10
2.152188354985792762e-10
2.072363392734582200e-10
1.887441395076159562e-10
1.626781101755467336e-10
1.343015060852860381e-10
1.108612429984118189e-10
9.473036139711531168e-11
7.931038607001958374e-11
5.891848815765127511e-11
4.285743220333522326e-11
3.373930641086086679e-11
2.383348401329432223e-11
1.774981366678058734e-11
1.278342965329117474e-11
9.355986384216418445e-12
6.918435204024851853e-12
5.193303035259263274e-12
3.969083849152323734e-12
3.084295210832934765e-12
2.429557940228545744e-12
1.927421354333809106e-12
1.528985319481589406e-12
1.204391373468134274e-12
9.358313920465106469e-13
7.132551812136651195e-13
5.308837806254703753e-13
3.847721343178621412e-13
2.713294379888979666e-13
1.863560441813302747e-13
