# bin_6_1
1.433741403634657032e-18
1.562624738233084692e-18
1.661034597651282982e-18
1.710526077740420364e-18
1.696099219664829548e-18
1.595837619412927440e-18
1.418764647370343876e-18
1.193665663379571088e-18
9.769134942524025217e-19
8.187605205784186988e-19
7.069183045448731660e-19
5.656170061168570031e-19
3.969339551552663274e-19
3.076726395567676481e-19
2.291238056244155827e-19
1.630341413966686449e-19
1.168455795737162291e-19
8.470761875694099377e-20
6.072376212222240719e-20
4.395991942852249171e-20
3.231773174613491599e-20
2.416618325226918741e-20
1.839812361944284264e-20
1.423011655255155805e-20
1.112018069672189808e-20
8.725000312937753589e-21
6.825233001158192038e-21
5.287007898186627179e-21
4.031942247552602540e-21
3.012790545785250618e-21
2.197896761224003520e-21
