# bin_10_5
1.210982934507390948e-15
1.362961681794142306e-15
1.507236044073925946e-15
1.630721258330088325e-15
1.716489918360483980e-15
1.746031413558342926e-15
1.701901654412088989e-15
1.567143716915490142e-15
1.364564124812762363e-15
1.129113482843069183e-15
9.261810219319953067e-16
7.909239785801029430e-16
6.767398497963728681e-16
5.086281564349915113e-16
3.560940777990685479e-16
2.886787766523499382e-16
1.949452387135902599e-16
1.466606017657805470e-16
9.996730788751053220e-17
6.976049146098926414e-17
4.885903100747684568e-17
3.422679474794504450e-17
2.414465498054823649e-17
1.723644885175085321e-17
1.254435419509191645e-17
9.307970629344544333e-18
7.031396910414608399e-18
5.389321869770121253e-18
4.164413979004289116e-18
3.220843673186354981e-18
2.475328563686676617e-18
