# bin_10_8
1.069026087595588498e-11
1.209266347653147389e-11
1.345415812897417454e-11
1.466547898254991135e-11
1.558109435051984372e-11
1.602359612209375331e-11
1.585819459378012740e-11
1.486961490983419853e-11
1.317357794018762867e-11
1.103893139379830393e-11
9.028729424677860924e-12
7.600387316580116994e-12
6.577453168775174907e-12
5.201524847359351311e-12
3.599488682432676313e-12
2.836517245888173772e-12
2.049202862434688910e-12
1.464789928535463257e-12
1.004328768310414007e-12
7.148719427014213194e-13
4.943381865837505094e-13
3.409153964427085595e-13
2.369873737614245956e-13
1.662262498973350626e-13
1.184558207914091682e-13
8.605948041059911642e-14
6.375790095313404216e-14
4.812597096908183252e-14
3.683812783442544825e-14
2.840977789889436836e-14
2.190922269823211476e-14
