# bin_6_5
4.354755000894208270e-11
4.827572015928963237e-11
5.240722485305536819e-11
5.541314140502772968e-11
5.667912176906571535e-11
5.569231887197493475e-11
5.178634860576665264e-11
4.552236946512922157e-11
3.792611170061749640e-11
3.104604681911079106e-11
2.628593588105175132e-11
2.263585379492414804e-11
1.752944330237576123e-11
1.220448379054200464e-11
9.753857307869622529e-12
6.885990730573651049e-12
5.066320713335082623e-12
3.507634478133762671e-12
2.515220962548099270e-12
1.787365360211365966e-12
1.276335070335079975e-12
9.231505630001357752e-13
6.777999906048032366e-13
5.072361623616260460e-13
3.863218874367224934e-13
2.981998071305573101e-13
2.320406337257794419e-13
1.807326101237010392e-13
1.399184280161081397e-13
1.069851687366370441e-13
8.038632807013449641e-14
