# bin_14_7
-5.245714453882884392e-15
-5.975932672246904993e-15
-6.708601677210003967e-15
-7.393150409120667562e-15
-7.962494384410201575e-15
-8.331225194619788339e-15
-8.416120911913340917e-15
-8.117071378963674736e-15
-7.387984333376606107e-15
-6.357813258863894424e-15
-5.229340174024615948e-15
-4.311787048759931500e-15
-3.713425644084948240e-15
-3.128639349794798357e-15
-2.271638401205742598e-15
-1.632766863949811838e-15
-1.310156274715736984e-15
-8.661170021615075834e-16
-6.480812876317474986e-16
-4.445678433394991074e-16
-3.025194656464695208e-16
-2.069927363233691547e-16
-1.408865484670884103e-16
-9.623274116901863304e-17
-6.620255361824282914e-17
-4.626579965499104444e-17
-3.292181638064033954e-17
-2.392537015646278270e-17
-1.776220772078803060e-17
-1.342831183952328325e-17
-1.027724373754604423e-17
