# bin_5_5
-2.054532575637790675e-08
-2.266585669256727754e-08
-2.445918417341684041e-08
-2.566958123976592353e-08
-2.603065662933874936e-08
-2.526537343048844619e-08
-2.316935102216079389e-08
-2.009288448031343352e-08
-1.659889198041659885e-08
-1.363966238433215195e-08
-1.166446171883437748e-08
-9.915776914094197387e-09
-7.395772576394794828e-09
-5.245759769344245432e-09
-4.224515068739746049e-09
-2.884006658390116960e-09
-2.169183332748321126e-09
-1.511093352582173563e-09
-1.074080432595711094e-09
-7.688314858029620247e-10
-5.541883361218655182e-10
-4.049443435032055861e-10
-3.007076018261015483e-10
-2.276025042371933353e-10
-1.749994325562060133e-10
-1.360076468903957733e-10
-1.061962750063081899e-10
-8.270305629538463539e-11
-6.381115886945916444e-11
-4.849542194567791272e-11
-3.613684182214609035e-11
