# bin_11_5
-7.976819804803286639e-15
-9.009527086560912782e-15
-1.000540428765977673e-14
-1.088153672513974544e-14
-1.152836000302024335e-14
-1.181550630591229955e-14
-1.164055190461551772e-14
-1.085387965540984049e-14
-9.565440851674695819e-15
-7.981023564538939806e-15
-6.530043676315725358e-15
-5.522220072646076938e-15
-4.768868945319585614e-15
-3.713004699171134506e-15
-2.569406444499585615e-15
-2.051329663431159784e-15
-1.446526698357353815e-15
-1.055155709394080628e-15
-7.174294440348799641e-16
-5.081926674451796825e-16
-3.530175561876650115e-16
-2.448070234240578808e-16
-1.709728909710349874e-16
-1.205620420201390498e-16
-8.648862614464860190e-17
-6.326579565590836728e-17
-4.717650153601398720e-17
-3.580097004644773723e-17
-2.750167552181837137e-17
-2.124036084858024968e-17
-1.636987863893488207e-17
