# bin_14_15
-1.156136958991623534e-08
-1.326299250047279523e-08
-1.501878349473646695e-08
-1.672582311344128977e-08
-1.824796105680881546e-08
-1.940365632031982165e-08
-1.997003013621443125e-08
-1.978113322444251512e-08
-1.856234545890361940e-08
-1.645534718824684109e-08
-1.379293631118455990e-08
-1.128037010090734726e-08
-9.494870796060469777e-09
-8.221950371315852779e-09
-6.506151278534297404e-09
-4.490857701125826346e-09
-3.538618571507208242e-09
-2.550595254086979049e-09
-1.814274189595252910e-09
-1.228253388935255161e-09
-8.657819813198353367e-10
-5.865119701700953843e-10
-3.926214457367396418e-10
-2.625681591182889292e-10
-1.751613518711071637e-10
-1.174386140853225671e-10
-7.955971695093917397e-11
-5.470821488510595189e-11
-3.840091150045227782e-11
-2.759342701015362523e-11
-2.029968368641246177e-11
