# bin_11_10
-1.009064388323122899e-08
-1.147607198002180591e-08
-1.285512465437196138e-08
-1.412944071957662235e-08
-1.516773330791735915e-08
-1.580411189532736065e-08
-1.588986382028779395e-08
-1.521994423721545005e-08
-1.375771223592674935e-08
-1.175576072645646133e-08
-9.644745891672036324e-09
-7.986719800384763724e-09
-6.901573621294423278e-09
-5.741562256279226119e-09
-4.096350996352304862e-09
-3.012433618989327261e-09
-2.370848967023872088e-09
-1.581942765662199265e-09
-1.163771724625324340e-09
-8.090057242689265696e-10
-5.517812125769138435e-10
-3.771883057021942576e-10
-2.575899600993666369e-10
-1.770517994819532263e-10
-1.228752171961609885e-10
-8.674450954645651623e-11
-6.241076777301863967e-11
-4.586199841759831333e-11
-3.438017247358789154e-11
-2.617981745277411170e-11
-2.011651025524696255e-11
