# bin_7_15
-1.802370406012514770e-16
-2.056636321664763982e-16
-2.313688382282022969e-16
-2.556339710669598640e-16
-2.761958136576970083e-16
-2.901443719061894095e-16
-2.944190410932634797e-16
-2.858660457914404024e-16
-2.620277778871681949e-16
-2.271074663325872475e-16
-1.874101262644901415e-16
-1.539967401844553597e-16
-1.320381651427143616e-16
-1.124145828562548847e-16
-8.322391755172601295e-17
-5.867582919944877801e-17
-4.758725134323739531e-17
-3.152857464263276743e-17
-2.374665517857726476e-17
-1.608899474723235886e-17
-1.096016726983894335e-17
-7.505315222427616841e-18
-5.100595667515307638e-18
-3.464400857966822494e-18
-2.363328653352818091e-18
-1.634968600777183957e-18
-1.150192984654430560e-18
-8.259083772434221212e-19
-6.063775057355719195e-19
-4.543401894900825630e-19
-3.457231528578203273e-19
