# bin_6_4
-1.865470376071134256e-09
-2.059608928863294683e-09
-2.224694395911136479e-09
-2.337595716721034787e-09
-2.373721798644854097e-09
-2.308493418877379932e-09
-2.121470478751954218e-09
-1.843648302209662680e-09
-1.524697923520439697e-09
-1.251799809799534165e-09
-1.069086791432138995e-09
-9.112662639148245524e-10
-6.834297978864525412e-10
-4.826119531475310592e-10
-3.891596944387296899e-10
-2.662903326520967496e-10
-2.001742827188632455e-10
-1.390961864651763381e-10
-9.894515388692571465e-11
-7.077412499899465385e-11
-5.095401538517450043e-11
-3.717482138073696416e-11
-2.755776750487922520e-11
-2.082386788099957631e-11
-1.598974812350545298e-11
-1.241577553559704725e-11
-9.690677907769043146e-12
-7.547976741798183589e-12
-5.827394139664373242e-12
-4.433195537953792153e-12
-3.307837568384649691e-12
