# bin_8_5
-1.978733714962025385e-10
-2.212796305807245695e-10
-2.428010809018360741e-10
-2.601699605434610433e-10
-2.705326201635892694e-10
-2.714005605303810498e-10
-2.592527197236328856e-10
-2.337869931223243904e-10
-1.993128885365356804e-10
-1.634432673802283662e-10
-1.355393555684971180e-10
-1.170859671589678913e-10
-9.691239469770340481e-11
-6.903268485761204903e-11
-5.118538245721578239e-11
-4.003187603759485496e-11
-2.710440836329522135e-11
-1.994501525962858211e-11
-1.409434147874535218e-11
-9.827117380033572483e-12
-6.906528808070608750e-12
-4.891829274044479320e-12
-3.512006457131980390e-12
-2.562675522625679817e-12
-1.907300269937076593e-12
-1.444692879330184504e-12
-1.109940077430944735e-12
-8.600438322132647773e-13
-6.672917191791487736e-13
-5.147398399905492337e-13
-3.922721690144755958e-13
