# bin_13_10
-1.157852190638491536e-09
-1.320571849412329835e-09
-1.484724885538074126e-09
-1.639234883398011592e-09
-1.769483851407102424e-09
-1.856733968146721030e-09
-1.881691331839671471e-09
-1.823543329136903865e-09
-1.668060085488692302e-09
-1.442778517762358858e-09
-1.189369911269697436e-09
-9.781871466866346175e-10
-8.398585087709556213e-10
-7.130627449787341613e-10
-5.248808408127512429e-10
-3.719100820358897581e-10
-3.010336328806706308e-10
-1.990334631948863620e-10
-1.498169664700584363e-10
-1.018559800794307845e-10
-6.932563617175218524e-11
-4.746767361049847929e-11
-3.227005891706086559e-11
-2.195256573214498538e-11
-1.501111182068885711e-11
-1.041515066109402528e-11
-7.351445308225947539e-12
-5.297571169866656751e-12
-3.902518581803997354e-12
-2.932158306517951518e-12
-2.235360738192720042e-12
