# bin_1_5
-6.806925232930006682e-14
-7.330668492243167571e-14
-7.676722953091241163e-14
-7.767488477775805063e-14
-7.517915167655726208e-14
-6.877070492836153367e-14
-5.949906962454064468e-14
-4.912408938101616840e-14
-4.041901125834770658e-14
-3.456696685849587405e-14
-2.924208007137754328e-14
-2.176243926733944473e-14
-1.558811824627304172e-14
-1.247041070708866120e-14
-8.629829476432767186e-15
-6.480467161610093395e-15
-4.590473385429776160e-15
-3.313860188475481077e-15
-2.414046222656881301e-15
-1.778869132841323360e-15
-1.332744824544471833e-15
-1.015692623815344765e-15
-7.870912799508120599e-16
-6.168994363955052251e-16
-4.858726066530331471e-16
-3.819296075723883886e-16
-2.975520631276374545e-16
-2.283613716643734250e-16
-1.717709395854995523e-16
-1.261346536216047681e-16
-9.021080400708823448e-17
