# bin_3_9
-1.172523074476500424e-16
-1.310685624031905365e-16
-1.437445002241806102e-16
-1.539319273020865496e-16
-1.599368556827892537e-16
-1.603028107367617439e-16
-1.529304100737139755e-16
-1.377363254100842798e-16
-1.172776365747081019e-16
-9.613888202130833054e-17
-7.979706819882374361e-17
-6.895870020435535697e-17
-5.692506538694715407e-17
-4.044263136699998969e-17
-3.011596130905876488e-17
-2.345361643419908907e-17
-1.592678193610355800e-17
-1.167711844707704315e-17
-8.270282502303421347e-18
-5.770477039148494204e-18
-4.056557786004419707e-18
-2.875833718281196293e-18
-2.066963799430557646e-18
-1.510232462117251108e-18
-1.125431389001340724e-18
-8.534045256463700599e-19
-6.562066339821620542e-19
-5.086964105840088516e-19
-3.947109245909305620e-19
-3.043799729329127046e-19
-2.318187183278584502e-19
