# bin_13_1
-6.239611635089036845e-35
-7.069708345518756210e-35
-7.881595502185067548e-35
-8.612537410736161170e-35
-9.178590672215516136e-35
-9.475768823713292910e-35
-9.423670897885810570e-35
-8.892076997370890661e-35
-7.924464331618191810e-35
-6.676387823845937966e-35
-5.462315477344503904e-35
-4.574624496860131295e-35
-3.962018085298063476e-35
-3.185748951699413770e-35
-2.216066031125341603e-35
-1.713311093358405684e-35
-1.272608589204997197e-35
-8.880755886950605718e-36
-6.204557056539400757e-36
-4.408359015016826971e-36
-3.033955346070048896e-36
-2.082207179499281932e-36
-1.439382730688632312e-36
-1.003551552967649900e-36
-7.096434157094228000e-37
-5.113868819563070080e-37
-3.758448050386606481e-37
-2.817288987160765333e-37
-2.145663735297414358e-37
-1.650407488096877061e-37
-1.272628823909899170e-37
