# bin_4_8
-3.920102755887986912e-12
-4.372277696089076241e-12
-4.782075165782020622e-12
-5.103650222961084706e-12
-5.279994229185062973e-12
-5.265100447455133315e-12
-4.987909272719999713e-12
-4.462409274150445678e-12
-3.774561462686336630e-12
-3.089922026010622234e-12
-2.577935164350666223e-12
-2.230371196485603415e-12
-1.812656454843370732e-12
-1.272668309045321272e-12
-9.697332698730748080e-13
-7.363107696411568122e-13
-5.098700344885290720e-13
-3.661248307260848541e-13
-2.619289827986548667e-13
-1.835713572369459432e-13
-1.293592469972121091e-13
-9.219683715610692334e-14
-6.666306718417862467e-14
-4.904734924155916215e-14
-3.679076884026039419e-14
-2.805482139059865937e-14
-2.166030595950870479e-14
-1.682565503565808025e-14
-1.305522873306796128e-14
-1.004821817011110726e-14
-7.626361818759030293e-15
