# bin_3_12
-3.309229085437782135e-23
-3.740901948631119214e-23
-4.158785788339120124e-23
-4.528810118889775110e-23
-4.805750737794954381e-23
-4.935035268103645439e-23
-4.874635242555369178e-23
-4.559841002998740855e-23
-4.030725801710909620e-23
-3.371390216323454958e-23
-2.757851345549251351e-23
-2.326088255371487737e-23
-2.011275333644573826e-23
-1.580078215390754913e-23
-1.093351146664028206e-23
-8.664442273832180729e-24
-6.195319498835800619e-24
-4.467125872998929402e-24
-3.051543393313827908e-24
-2.167594477222182144e-24
-1.501803427804650649e-24
-1.038176218560936136e-24
-7.231147996606920817e-25
-5.083450308722897196e-25
-3.632842518549731061e-25
-2.647024285222779303e-25
-1.966551456409057000e-25
-1.487832178575367439e-25
-1.140625700168184043e-25
-8.802197350916064540e-26
-6.786335641459187173e-26
