# bin_14_14
3.313158520007375826e-11
3.797183654524125045e-11
4.295076259870968723e-11
4.776770865158942175e-11
5.202817870518092198e-11
5.520884019143726396e-11
5.667698942387420202e-11
5.595439931991254557e-11
5.228951300162259022e-11
4.617553001926410634e-11
3.857783704347423749e-11
3.155589952413573459e-11
2.665313755129888991e-11
2.305198371020888400e-11
1.802849274272653507e-11
1.243601170593973135e-11
9.903832100786776210e-12
7.001133103290921759e-12
5.063205626964536678e-12
3.397597481085896679e-12
2.383141704644442690e-12
1.618582429512411547e-12
1.087642965830733100e-12
7.292577011708068574e-13
4.881020362797287363e-13
3.289649937822955855e-13
2.243212492660934042e-13
1.554768913641106233e-13
1.100949510456424942e-13
7.980934189301307605e-14
5.917360137003440883e-14
