# bin_14_3
1.298889970185054123e-47
1.461214743615825669e-47
1.614981289516160879e-47
1.746078336661819824e-47
1.836310741915623813e-47
1.866007147837491421e-47
1.816155184213538207e-47
1.669330705589734864e-47
1.450987733316653205e-47
1.199095054486183245e-47
9.838804747999587866e-48
8.414711322729051476e-48
7.191416710633120113e-48
5.375459989290632984e-48
3.768692032677440557e-48
3.064954178559844121e-48
2.053041720586424419e-48
1.553561354244415019e-48
1.060134405077620319e-48
7.372559100793090037e-49
5.171451826667801156e-49
3.628441060074107141e-49
2.563331637315363427e-49
1.833208173618028885e-49
1.336970938611543553e-49
9.940752314276281380e-50
7.523290072378205641e-50
5.774495963985577179e-50
4.465816990567123418e-50
3.454740702837124443e-50
2.654134007617163459e-50
