# bin_11_6
2.837451266299158096e-17
3.194436995312910523e-17
3.533754894082138138e-17
3.824823396469878413e-17
4.028031389213538361e-17
4.099533500024051248e-17
3.999215453720740149e-17
3.685362030203215967e-17
3.211494467843174469e-17
2.657835448545845406e-17
2.178973462612024020e-17
1.860115527611540354e-17
1.594131128964661255e-17
1.200204358388244209e-17
8.376299198750788329e-18
6.809954585989703468e-18
4.588167854007301265e-18
3.462555134157363668e-18
2.353711512586803267e-18
1.640710001650779837e-18
1.149827621006091062e-18
8.058296409666686173e-19
5.681403589985859470e-19
4.052547974852507533e-19
2.947111449387790545e-19
2.185241013199752269e-19
1.649855874662456124e-19
1.264171365038508739e-19
9.768153839210608111e-20
7.556652815946314205e-20
5.810125986932719612e-20
