# bin_3_3
1.880812740860988618e-10
2.013791839913095638e-10
2.093409102571804752e-10
2.100208675340497288e-10
2.008101465087301350e-10
1.813510872386545960e-10
1.549000345515202530e-10
1.271455753808221730e-10
1.052719576127781903e-10
9.065777578989341908e-11
7.523673280984985130e-11
5.424518992793799182e-11
4.007068411676096790e-11
3.156433236885818680e-11
2.175962210462521849e-11
1.627327986183035713e-11
1.169995470268971703e-11
8.436433250898736267e-12
6.174504750580689585e-12
4.583967663239124014e-12
3.463497307004169195e-12
2.662182172392212059e-12
2.077620727652736116e-12
1.636134356553062040e-12
1.291422438683257388e-12
1.014595267955337959e-12
7.880139875768190188e-13
6.015728939932292530e-13
4.492556749174194389e-13
3.270512900655050531e-13
2.317146000492872307e-13
