# bin_9_5
2.070952698855501624e-18
2.324529834832223150e-18
2.562183552473833815e-18
2.760904389419657495e-18
2.891377976436032035e-18
2.924300533698200058e-18
2.826070327363680466e-18
2.577700337495843278e-18
2.223258306565469110e-18
1.829970108357662671e-18
1.506224918554765210e-18
1.295022554285265821e-18
1.095861772415987092e-18
8.015558499286366854e-19
5.720127240858958206e-19
4.629209705155689069e-19
3.070294988163592574e-19
2.325880916601049551e-19
1.608577353616387189e-19
1.115022908074051405e-19
7.830692700639284537e-20
5.507954152856804493e-20
3.915193967090249638e-20
2.822607187047647771e-20
2.076080139252096737e-20
1.556030339463685075e-20
1.185672675675581823e-20
9.143410307841282050e-21
7.086616551033263623e-21
5.480029407548691400e-21
4.198852419736803759e-21
