# bin_12_6
7.669044052804594740e-20
8.650422834267072904e-20
9.591181626031304059e-20
1.041042133042171013e-19
1.100202944594874475e-19
1.124246727106340804e-19
1.103131048338371756e-19
1.023437113168586105e-19
8.976913084197473309e-20
7.461091365954124189e-20
6.107108249040189225e-20
5.186264886485564555e-20
4.469649234873541893e-20
3.429933984144157882e-20
2.374955353156952315e-20
1.918265511020848573e-20
1.321852560673252555e-20
9.830202872635493756e-21
6.642156177331940098e-21
4.675305583898081711e-21
3.262457914076881144e-21
2.275118155064724353e-21
1.595611799432402281e-21
1.130574895744409949e-21
8.159037972844664498e-22
6.004437100497729708e-22
4.502834568426604778e-22
3.432765236555013896e-22
2.644879812655878763e-22
2.045090796919409288e-22
1.575145530384475038e-22
