# bin_5_2
5.328313650975374846e-17
5.774790420951805628e-17
6.095543580508214556e-17
6.223256827790786362e-17
6.101660900753256425e-17
5.658939921283596721e-17
4.962613001739301990e-17
4.125498369450716158e-17
3.375842426845436232e-17
2.862341054614729989e-17
2.463316504208437898e-17
1.897289588776780125e-17
1.322035558341508920e-17
1.065245675884037904e-17
7.486465072328375651e-18
5.593088664597270924e-18
3.898992547873445772e-18
2.831159656289995119e-18
2.052171236204052208e-18
1.501137853896089776e-18
1.115083086927980641e-18
8.422350585092443151e-19
6.476712192991982504e-19
5.049053630557979861e-19
3.966039838686766553e-19
3.118301079578285820e-19
2.436644559294728343e-19
1.880089686286040464e-19
1.424604987018649944e-19
1.055464354352753092e-19
7.622008409743651702e-20
