# bin_7_3
1.722911013783703974e-20
1.905522215596521022e-20
2.062647795428078541e-20
2.173102032825595823e-20
2.213135869818090407e-20
2.161671359607499267e-20
1.995264094140359677e-20
1.741590007829994251e-20
1.442817871353638584e-20
1.181908421929898128e-20
1.006869574163672568e-20
8.641313555867831257e-21
6.550321183533373393e-21
4.568842110137998039e-21
3.711789479696382351e-21
2.537125120222384589e-21
1.917175368050802016e-21
1.318946282181099885e-21
9.385128724173977012e-22
6.712701970204890376e-22
4.827891076568169301e-22
3.511958949597694525e-22
2.594173248191986519e-22
1.953990020473605126e-22
1.496562548661554992e-22
1.160138810293534008e-22
9.050154520817062267e-23
7.052930525279778380e-23
5.453333279477398570e-23
4.157979858768998972e-23
3.111391682618826403e-23
