# bin_9_9
6.607478653038529539e-11
7.480430982377201025e-11
8.330888944654805711e-11
9.091955430937501860e-11
9.674098382350372904e-11
9.966764731790717968e-11
9.887611160896325455e-11
9.298362138718556511e-11
8.260050211564735568e-11
6.936750306425509427e-11
5.672343645448512560e-11
4.763641345529191922e-11
4.126952441905194067e-11
3.290336715825458816e-11
2.276108029507064409e-11
1.781734140163559748e-11
1.303807027158693744e-11
9.215946925325295608e-12
6.345100819645097838e-12
4.533163184608454727e-12
3.127073362458228838e-12
2.149230423537078544e-12
1.490584553666435754e-12
1.042733216812579610e-12
7.405318834959264796e-13
5.361010351439731276e-13
3.958282690759082535e-13
2.979429608210261474e-13
2.276375240635428533e-13
1.754278438949935512e-13
1.353420433376503640e-13
