# bin_15_10
5.171112966810558826e-15
5.900384524688742128e-15
6.637547291524616921e-15
7.333269388483719659e-15
7.922569702979756929e-15
8.321947004101826652e-15
8.443636064198245159e-15
8.196967720079355434e-15
7.511264774465237137e-15
6.508422446286642108e-15
5.369174424109602863e-15
4.411489496782934819e-15
3.783723893711921850e-15
3.221853192304264577e-15
2.382706307284195160e-15
1.678815937981575990e-15
1.364438865917879449e-15
9.008526792950594447e-16
6.803022083757411420e-16
4.610532225050989791e-16
3.135671793588037491e-16
2.148150822562232259e-16
1.460066714558048002e-16
9.918374845567414185e-17
6.767585225219992313e-17
4.683637068485646722e-17
3.296416391510332986e-17
2.368295654277299037e-17
1.739803259267682408e-17
1.304345889677748733e-17
9.930561899664508960e-18
