# bin_14_1
7.252813893220854351e-72
8.134237038427223854e-72
8.956935861793463093e-72
9.639763741099136147e-72
1.007962513486105697e-71
1.017655844707199501e-71
9.809618541011114866e-72
8.924753731730075721e-72
7.677572006707208322e-72
6.313399098616101828e-72
5.204474559253272747e-72
4.480583058124628152e-72
3.774357227850038210e-72
2.743057357547700599e-72
1.974193044478465081e-72
1.586710962815601617e-72
1.056128081313916217e-72
7.955625915511064407e-73
5.528990326531257720e-73
3.837544438482812490e-73
2.694685151155893788e-73
1.897746888090356628e-73
1.351905465976258532e-73
9.772863465443566986e-74
7.207489708777285029e-74
5.415273128377638474e-74
4.134454352216730484e-74
3.192120808960160654e-74
2.474912915715645105e-74
1.912924023458619137e-74
1.463999829041894362e-74
