# bin_6_4
6.904788990224438423e-13
7.625804570683022835e-13
8.240214646649233048e-13
8.662539792885138892e-13
8.800403970497949978e-13
8.564575226178800343e-13
7.873258568886131895e-13
6.844825757714312441e-13
5.657415955235069208e-13
4.640305163178164590e-13
3.964744099708318638e-13
3.388307929967939264e-13
2.539820993778803540e-13
1.783760519543729387e-13
1.450563313363886171e-13
9.824808805114812683e-14
7.460994193129883077e-14
5.160018314610668356e-14
3.658982403133351600e-14
2.621570253086611240e-14
1.889461265209038347e-14
1.378402272682137234e-14
1.021583607490491926e-14
7.719862550797183696e-15
5.928575001811987369e-15
4.604588625028159569e-15
3.595228210660328814e-15
2.801444093436380333e-15
2.163791284905951380e-15
1.646806699406653965e-15
1.229268521299537137e-15
