# bin_7_1
6.934809308047736234e-38
7.615691770476858515e-38
8.171820518990333153e-38
8.514922389993634287e-38
8.564534097645841989e-38
8.212905272295045263e-38
7.433938754000329723e-38
6.362124869927334183e-38
5.220884914861963984e-38
4.314534451007342892e-38
3.721364147148936595e-38
3.108343567028348505e-38
2.235748242719469778e-38
1.636595003228338675e-38
1.303067701650781310e-38
8.792787739119434607e-39
6.610741863361263861e-39
4.696252670375607838e-39
3.325473507941777462e-39
2.388363664938064037e-39
1.733016037475872995e-39
1.278582075565067893e-39
9.598908796025826817e-40
7.339255661796750837e-40
5.688871146240959767e-40
4.445410575197861432e-40
3.478691491145831766e-40
2.706427384039227567e-40
2.080180654866167912e-40
1.571079098511676452e-40
1.161080321082844341e-40
