# bin_6_1
2.131421575905312116e-08
1.813922483371662956e-08
1.508289578764876740e-08
1.231316711812845669e-08
9.912090554253866889e-09
7.873184580377148070e-09
6.146688162116201050e-09
4.705165962801003531e-09
3.557607249716021072e-09
2.690981085394133696e-09
2.042181703107725210e-09
1.554300999267033612e-09
1.193768920618489201e-09
9.261151719148680008e-10
7.251374939140830283e-10
5.716736942318672318e-10
4.520385900648214375e-10
3.568844809388313974e-10
2.800232292543225754e-10
2.174259995308614236e-10
1.664422269646672342e-10
1.252406104520901373e-10
9.242524376879414474e-11
6.680157869765447913e-11
4.725944314632085272e-11
3.273562544390660121e-11
2.222506045445188330e-11
1.481448319807059307e-11
9.715452625523155455e-12
6.282909413420861642e-12
4.015706060282425925e-12
