# bin_15_3
4.645544577757844355e-08
4.194446774373675148e-08
3.682441833446121656e-08
3.144953429191354436e-08
2.620649175638601991e-08
2.142043628510331197e-08
1.726633110251078951e-08
1.374561482535684855e-08
1.075259209987001956e-08
8.218471421704379773e-09
6.179353129025258485e-09
4.649637908165303143e-09
3.505714567300344463e-09
2.638023887952470022e-09
2.003145669908431933e-09
1.533386873604875579e-09
1.184967519110803805e-09
9.227031733557769148e-10
7.218799074578835248e-10
5.651514957918180194e-10
4.408124668326053303e-10
3.410971847500377679e-10
2.608229535258336772e-10
1.964453638325433758e-10
1.453648486484930402e-10
1.054892116299819880e-10
7.499571666949440494e-11
5.222000921259647489e-11
3.563180376650585259e-11
2.385524833081511363e-11
1.569851195817457064e-11
