# bin_11_7
7.097163654207255011e-08
6.679085863157675656e-08
6.127292829236406163e-08
5.470644827599207793e-08
4.751231323820758776e-08
4.019104275529646585e-08
3.323469426490955546e-08
2.700412518040641568e-08
2.164663047328315632e-08
1.711081557609698924e-08
1.326422896870295885e-08
1.005333432315778130e-08
7.521594467893066481e-09
5.636114128621735412e-09
4.218046478870079103e-09
3.150386366206666422e-09
2.373307085416995073e-09
1.798465182985694492e-09
1.374333248284595483e-09
1.057010918528530287e-09
8.161579829831860366e-10
6.304735325127400956e-10
4.853779684708283080e-10
3.709932344390729709e-10
2.805444003379877060e-10
2.092779982507606762e-10
1.536520154587777232e-10
1.108480446677083126e-10
7.849811825951380302e-11
5.454807740589215943e-11
3.720505183205255718e-11
