# bin_12_3
4.531009056504883897e-08
4.085328529590686075e-08
3.582023870542584238e-08
3.055835093515106900e-08
2.544219396381381885e-08
2.078234853191681422e-08
1.674222957496346536e-08
1.331898544553544271e-08
1.041056690416931351e-08
7.952985884780565555e-09
5.980151526658733229e-09
4.500950247822963126e-09
3.394263498145785839e-09
2.555579939070297506e-09
1.941767050365036352e-09
1.487367124440542925e-09
1.150063871199935008e-09
8.958996228895836653e-10
7.010517218271203610e-10
5.488258630837395803e-10
4.279647349190922116e-10
3.309995815346935074e-10
2.529401252855100695e-10
1.903629191132219368e-10
1.407450821648453054e-10
1.020465093825566806e-10
7.248420714483085642e-11
5.042861570714492722e-11
3.438276418081295883e-11
2.300323773038220771e-11
1.512898527822985296e-11
