# bin_13_10
8.458566152319332727e-08
8.087152094049800737e-08
7.547062658266056527e-08
6.860906687123902170e-08
6.068224897186016622e-08
5.222169560631783837e-08
4.381776465171248317e-08
3.600181199419568688e-08
2.910915752872655169e-08
2.322388262824291966e-08
1.823753795074793841e-08
1.401677168278717620e-08
1.054736423369532504e-08
7.870191704491844067e-09
5.882217023839222682e-09
4.377023453438455918e-09
3.260074182106273053e-09
2.445725058217267693e-09
1.845854499306526493e-09
1.403425230854122951e-09
1.073342815014428269e-09
8.235508486101945818e-10
6.318189144760168796e-10
4.829135458293981939e-10
3.664077304611214996e-10
2.750864116458887362e-10
2.038129448758440729e-10
1.487136544621570257e-10
1.067056749990349162e-10
7.522637269932764254e-11
5.209324092372239411e-11
