# bin_11_5
6.037271017268447550e-08
5.594923172276883093e-08
5.048447314612408814e-08
4.430605335592884959e-08
3.783708544033411483e-08
3.153137058047590571e-08
2.577037313940642774e-08
2.076090796990961798e-08
1.651345234489589341e-08
1.291156397523366658e-08
9.867773188879484680e-09
7.409166937198389705e-09
5.556870396324999271e-09
4.176917157473988778e-09
3.127445522583638144e-09
2.359990616426799894e-09
1.793271516137922775e-09
1.374684856953593263e-09
1.061460915761636284e-09
8.236896495503955611e-10
6.400645141427448709e-10
4.960490535954066712e-10
3.818726717783283524e-10
2.909164873790980735e-10
2.186164586282837168e-10
1.616431932466098361e-10
1.173747921420202207e-10
8.360341966029740566e-11
5.838402642018561813e-11
3.998311539357012068e-11
2.687447532327869625e-11
