# bin_10_2
3.417699660738442445e-08
3.008027717022235594e-08
2.575936990374900723e-08
2.151991875058005532e-08
1.762599040121248338e-08
1.422864135417934515e-08
1.134320926365289139e-08
8.894726954893148256e-09
6.824597374695268501e-09
5.149516603653514873e-09
3.881021318855111713e-09
2.934678747290267215e-09
2.218225852629742847e-09
1.690239949420513588e-09
1.300077588161651617e-09
1.009447962023945393e-09
7.899618258666535601e-10
6.210760332541853838e-10
4.885046872161632750e-10
3.826542340290100186e-10
2.972062720089975217e-10
2.279881866714514600e-10
1.721637215097291912e-10
1.276555889046189231e-10
9.277542428846310537e-11
6.602365330720869241e-11
4.600270212904180266e-11
3.140340891647185065e-11
2.103224793946763305e-11
1.384682875752172856e-11
8.981304928468585327e-12
