# bin_2_1
1.664243448591517444e-08
1.400491850950826992e-08
1.154064679893859541e-08
9.354940643726998234e-09
7.482089815132266037e-09
5.899143690539038923e-09
4.569195690051334758e-09
3.479805748074800498e-09
2.631975670613704103e-09
1.997002098014764749e-09
1.520341314151238772e-09
1.163631966183724417e-09
8.997888934390095692e-10
7.023757102607285963e-10
5.527373238113999531e-10
4.370624308399286109e-10
3.457869612453584159e-10
2.724658512295257723e-10
2.128756653550186465e-10
1.642597917453516143e-10
1.247636370379332266e-10
9.304240312047847531e-11
6.800406075274220487e-11
4.866620657269048924e-11
3.409561834412564393e-11
2.340115886126649374e-11
1.575556699104612123e-11
1.042568516816224174e-11
6.795091890811387520e-12
4.372077780638648720e-12
2.783100338896324413e-12
