# bin_12_2
3.489457573666275690e-08
3.074288749495089775e-08
2.634981380228505790e-08
2.202839873938975859e-08
1.805190945099551538e-08
1.457910282638389747e-08
1.162868894157203744e-08
9.124044046919688078e-09
7.003573735379613276e-09
5.284654794978567651e-09
3.982024903746447589e-09
3.010532936226260402e-09
2.274705679965356936e-09
1.732419335801888051e-09
1.331888370874883101e-09
1.033705810138146699e-09
8.087043261235772544e-10
6.357296869477743673e-10
5.000581509223265017e-10
3.917952121182935829e-10
3.044238661916750827e-10
2.336443622617065088e-10
1.765412625178567683e-10
1.309878063047230673e-10
9.526229350344216833e-11
6.783936725448154499e-11
4.729823041723867694e-11
3.230674106532672004e-11
2.164839732082134749e-11
1.425870289473616698e-11
9.251769239974928665e-12
