# bin_11_3
4.477154451342025192e-08
4.034037915634162335e-08
3.534834579856548452e-08
3.013963294926910836e-08
2.508313989821455739e-08
2.048262329186830789e-08
1.649607461354366465e-08
1.311862827436909289e-08
1.024996021473267700e-08
7.828328069397536111e-09
5.886615253953087691e-09
4.431130941535638297e-09
3.341927365510236854e-09
2.516862001637337588e-09
1.912939275336518983e-09
1.465750768499345215e-09
1.133667411319227879e-09
8.833074477398712893e-10
6.912664553767901362e-10
5.411560322373214320e-10
4.219291511052948622e-10
3.262563560693271021e-10
2.492376665179721699e-10
1.875064224734233009e-10
1.385757719750149224e-10
1.004301086521363027e-10
7.130514577522249597e-11
4.958770478090159517e-11
3.379649279085020013e-11
2.260335087586449533e-11
1.486169594513695919e-11
