# bin_14_14
9.478836360843043117e-08
9.154771201226309926e-08
8.638138402720992861e-08
7.945919054719471691e-08
7.114119456019953719e-08
6.195967936730617001e-08
5.255415884443931851e-08
4.355863660610555885e-08
3.545226283416863723e-08
2.844708426030601641e-08
2.250183727097791294e-08
1.745891314634052548e-08
1.323961398004606020e-08
9.884787392979086736e-09
7.367411338734261121e-09
5.482236847840435022e-09
4.060300029023894264e-09
3.025059094652740166e-09
2.264269704614824907e-09
1.707319993798934715e-09
1.295386627394338979e-09
9.874434131562093140e-10
7.540947169805497069e-10
5.750105438850393342e-10
4.362651096697034379e-10
3.282387090563508456e-10
2.442031924339436296e-10
1.792397551565296753e-10
1.295627952844178924e-10
9.212797328288944507e-11
6.440470640029403167e-11
