# bin_11_10
8.107956955806334969e-08
7.724612170719798976e-08
7.181545934472108374e-08
6.502941627976089370e-08
5.728968385588988806e-08
4.911976987195687346e-08
4.108494712514534596e-08
3.367434418965782848e-08
2.717596931202653420e-08
2.163986253994787512e-08
1.694988384600140208e-08
1.299017065694500163e-08
9.760707575347865375e-09
7.287781488246643096e-09
5.449713058889128052e-09
4.057340898027236121e-09
3.028978409055764405e-09
2.277016101342916205e-09
1.723110555060281769e-09
1.313289802034933645e-09
1.006511722943668912e-09
7.734598934603386190e-10
5.938921387327224127e-10
4.539779092130660809e-10
3.442444460504669478e-10
2.581228335151006282e-10
1.908965164388047745e-10
1.389699059017668190e-10
9.944911740985517598e-11
6.990583568218957768e-11
4.826012218439044531e-11
