# bin_14_1
2.334133901409888580e-08
1.993345669780649127e-08
1.662047346036573987e-08
1.359745617400575571e-08
1.096718215375434536e-08
8.730356080321613553e-09
6.831711232758808308e-09
5.237358103320134245e-09
3.959721958221944767e-09
2.992491311425394030e-09
2.268882111525111170e-09
1.724027014734799413e-09
1.321483677574705953e-09
1.023304508119330641e-09
8.000173569586966875e-10
6.301329993102536878e-10
4.981762050423415973e-10
3.935380385510776862e-10
3.091761106402945099e-10
2.405082009379374339e-10
1.845373806561517957e-10
1.392205522330214513e-10
1.030294951430846210e-10
7.467734978603793700e-11
5.297704069564518671e-11
3.679065981676032323e-11
2.503601421866394886e-11
1.672173400047365861e-11
1.098477933717387959e-11
7.113575827929591487e-12
4.551609234357912633e-12
