# bin_15_4
5.565404570306401556e-08
5.110659474076666722e-08
4.565949264976066469e-08
3.966215166117434411e-08
3.354107729454555337e-08
2.772437645648218336e-08
2.252595756598804289e-08
1.807035709977594525e-08
1.429919883359601010e-08
1.108726655101022084e-08
8.399829958620302612e-09
6.295959767801903852e-09
4.737955262323891576e-09
3.558102830261747594e-09
2.674524084432948544e-09
2.029721561126397708e-09
1.551958536663172015e-09
1.197285299236885001e-09
9.299334348992652339e-10
7.248707595557025516e-10
5.647951470987769721e-10
4.380299553242516901e-10
3.367681623154968988e-10
2.557322256873917325e-10
1.912350779284966135e-10
1.404987301940837490e-10
1.012521055468425561e-10
7.151398653348330618e-11
4.949703657525270664e-11
3.359191500521716792e-11
2.238222464401659649e-11
