# bin_14_4
5.524537632338010306e-08
5.070822039312345959e-08
4.528372665254926155e-08
3.932017626044235599e-08
3.324102613980100258e-08
2.746957131666194322e-08
2.231465160416827205e-08
1.789735434163118314e-08
1.415878293342399277e-08
1.097565138316427540e-08
8.314394323441045376e-09
6.232363144544115146e-09
4.690395238432957354e-09
3.522687504780752380e-09
2.648467092207401898e-09
2.010345802766999485e-09
1.537482588544853136e-09
1.186335936097939209e-09
9.215495526502432024e-10
7.183787961237887239e-10
5.597275589115151799e-10
4.340605641163587091e-10
3.336644214155106584e-10
2.533224699421032006e-10
1.893860644795574246e-10
1.391021226139050811e-10
1.002168763569376209e-10
7.076252000844023156e-11
4.896346480933862496e-11
3.322138797164825781e-11
2.213038067048973273e-11
