# bin_11_1
2.288916528888884226e-08
1.953321192637519315e-08
1.627747041085237323e-08
1.331095128915777834e-08
1.073180322103935034e-08
8.539124793059453035e-09
6.678880664075041224e-09
5.118623496349128486e-09
3.870007943432207573e-09
2.925223131435473561e-09
2.218304797712146185e-09
1.686161439017979759e-09
1.292991362642530580e-09
1.001622671293556006e-09
7.833128358753218738e-10
6.170918186014713942e-10
4.878838113990769401e-10
3.853613144833110565e-10
3.026725630250121450e-10
2.353588240612911835e-10
1.805004574358442007e-10
1.361016223078866210e-10
1.006636147691410165e-10
7.292016223822657703e-11
5.170133628122023319e-11
3.588588345120596969e-11
2.440880962651472912e-11
1.629616430090723655e-11
1.070154735006158200e-11
6.928222541660529445e-12
4.432027825035292102e-12
