# bin_6_5
5.180457855783902869e-08
4.746517620746470460e-08
4.233970712929164163e-08
3.675145160598252194e-08
3.108166797950940616e-08
2.570171268335642813e-08
2.088363761755827555e-08
1.673931231977720734e-08
1.323326086682351003e-08
1.026891335132883142e-08
7.802652225301329512e-09
5.857309344214518585e-09
4.404254062891971339e-09
3.314043119773800126e-09
2.492837104721207536e-09
1.892235872083316493e-09
1.446686634894863377e-09
1.115547408853362422e-09
8.655728926200591158e-10
6.738073188140188639e-10
5.242042810324700372e-10
4.058921943123188360e-10
3.115734709402543310e-10
2.362742100101739491e-10
1.764904570781469851e-10
1.295715819049601726e-10
9.334977155430706328e-11
6.594348687068071282e-11
4.566938796563836603e-11
3.102483787736677223e-11
2.069763714146826672e-11
