# bin_15_7
3.955991445606699543e-14
4.513876238323945674e-14
5.077762912608016444e-14
5.609916679160193253e-14
6.060636983367650714e-14
6.366038993954506652e-14
6.459061802085444831e-14
6.270306523455351258e-14
5.746315894612088349e-14
4.979539333799412802e-14
4.108725441950318527e-14
3.376444391093595126e-14
2.895379978681574529e-14
2.464458581576105350e-14
1.823515890997040399e-14
1.286204191270419773e-14
1.043006846831977022e-14
6.908456261154472031e-15
5.203375237193384190e-15
3.526541467489389467e-15
2.402068710689196057e-15
1.644891739729679726e-15
1.117902705578370321e-15
7.594060063317178816e-16
5.181624010802521060e-16
3.585670701864274171e-16
2.523296868931414907e-16
1.812493039779241899e-16
1.331151643349861050e-16
9.976606634211531041e-17
7.592960430325827064e-17
