# bin_10_10
4.301935675562125132e-06
4.881285796519120976e-06
5.451678462859689999e-06
5.970437676484940258e-06
6.380359737939497490e-06
6.609837660187961311e-06
6.601339298130239625e-06
6.264037774614993028e-06
5.611853429529362504e-06
4.751866767356503910e-06
3.890219865805546964e-06
3.243572693709544784e-06
2.809106943275077140e-06
2.290218619995235757e-06
1.604348433583172943e-06
1.218136003633914250e-06
9.262261455615976621e-07
6.338171445161946992e-07
4.513206854357803898e-07
3.190272609590985614e-07
2.187586765228584527e-07
1.497122877595655918e-07
1.030129280588801330e-07
7.145997900652541864e-08
5.019885218846082475e-08
3.591859612120206600e-08
2.620983614367848491e-08
1.952007756632748269e-08
1.479401346597772656e-08
1.134732533009529082e-08
8.745030645589101304e-09
