# bin_15_5
9.629520568371222468e-20
1.097499829243805780e-19
1.232788265072505611e-19
1.359561921653509824e-19
1.465567046436591281e-19
1.535163003171751849e-19
1.552771954004354841e-19
1.500420832877046855e-19
1.368316339058380715e-19
1.179865657966277002e-19
9.712740162883116584e-20
8.000216354581546108e-20
6.881992047018058181e-20
5.816308678133385083e-20
4.245611699286603715e-20
3.033903455820855940e-20
2.443802416709976901e-20
1.614756695392580141e-20
1.211677132315709305e-20
8.282309617149799585e-21
5.635402494564212163e-21
3.857055919681806420e-21
2.623844631196427443e-21
1.789308300695590611e-21
1.228002655114351902e-21
8.557690741698853703e-22
6.070304808426909601e-22
4.397109372770764062e-22
3.254744083840864867e-22
2.454875167898877472e-22
1.876116698340953379e-22
