# bin_8_3
4.889335396240399912e-12
5.434820863558052611e-12
5.919494288701361805e-12
6.284864601050930717e-12
6.460212358239010655e-12
6.390040042463687222e-12
5.990181576756740909e-12
5.306168625905865170e-12
4.447594810237991802e-12
3.638194094299657085e-12
3.060648787094523976e-12
2.645316664734867100e-12
2.093795278538937481e-12
1.456081404873107581e-12
1.144504320912653502e-12
8.331071894635081282e-13
5.978573241014611351e-13
4.178287968768881770e-13
3.007612452964647269e-13
2.124974745991242733e-13
1.508002303778948629e-13
1.084294982586571035e-13
7.911943465997448412e-14
5.881286168730925050e-14
4.453075466204623618e-14
3.421782793132325075e-14
2.655497555173112987e-14
2.067101323440424595e-14
1.602468445797755932e-14
1.229016074837256257e-14
9.275169729514427370e-15
