# bin_10_7
1.325512708587816982e-07
1.496479141225728640e-07
1.661034684445856957e-07
1.805336348149707547e-07
1.911134082038162142e-07
1.956871825737212983e-07
1.925411900907153801e-07
1.792449637565747381e-07
1.577308615511896671e-07
1.314464797475385135e-07
1.075636611000439984e-07
9.108056936619805025e-08
7.860080401857722645e-08
6.092457159666328612e-08
4.217050189871015338e-08
3.378502116985338397e-08
2.366238505040255725e-08
1.735860076043749508e-08
1.178128406743635533e-08
8.332655308976900049e-09
5.796790510948630366e-09
4.027154094638919778e-09
2.817030963609773052e-09
1.990101301433683070e-09
1.430846837057936794e-09
1.049030151688442195e-09
7.839109224599333970e-10
5.959122913342816489e-10
4.582838699528135508e-10
3.541019870392375067e-10
2.728425682065360848e-10
