# bin_1_1
1.749742099376769454e-05
1.729721503463817100e-05
1.627433843271077060e-05
1.449500836061347713e-05
1.226914635280988673e-05
1.010553209046206431e-05
8.447481473465230344e-06
7.189978240677991039e-06
5.773607582316571635e-06
4.218246421282446793e-06
3.183619218695380954e-06
2.418969450955359969e-06
1.746162318124914071e-06
1.292770187168343872e-06
9.498120359684749493e-07
7.068322728781470284e-07
5.343287942462606022e-07
4.112851591906121529e-07
3.221299287015902866e-07
2.557315185589810518e-07
2.045691164167973129e-07
1.636599239048999714e-07
1.299961406329810774e-07
1.018382536219246702e-07
7.823149040491062555e-08
5.866920146012729101e-08
4.283807776056074092e-08
3.042929479242558195e-08
2.105199364897271544e-08
1.422022719961167402e-08
9.408419413402056674e-09
