# bin_5_2
9.614865808178861439e-09
1.041943321409105116e-08
1.099695080902443130e-08
1.122825809173262185e-08
1.100735975898182513e-08
1.021352258531495475e-08
8.960440375155531298e-09
7.459762275626943549e-09
6.111114163728352753e-09
5.176494024122244138e-09
4.442742961634136098e-09
3.430042658570484391e-09
2.407699002210161209e-09
1.918660892116194467e-09
1.364197742337196305e-09
1.007169667226912488e-09
7.100447870710783525e-10
5.149219172883035199e-10
3.725675339448807397e-10
2.721959852065446757e-10
2.020783792803147492e-10
1.525886142774706549e-10
1.172755560126599230e-10
9.137590156053110105e-11
7.173952304000687968e-11
5.637919376423752797e-11
4.403885090787071685e-11
3.397118914810455105e-11
2.573773475584145492e-11
1.906897293400895264e-11
1.377395774727512481e-11
