# bin_4_2
3.504355451555205887e-07
3.756187766623209801e-07
3.910201002876597034e-07
3.929152979435230101e-07
3.766093831721565553e-07
3.410584818313415100e-07
2.921688345604623854e-07
2.402184888443146969e-07
1.986712514784998207e-07
1.707189785174755169e-07
1.421576726908137835e-07
1.034114342445086447e-07
7.587234714622656090e-08
5.984846126638382735e-08
4.142152187344317129e-08
3.095914209942771686e-08
2.217165068692103815e-08
1.600745716982945321e-08
1.170734167521278346e-08
8.679586236670413170e-09
6.547137859396737775e-09
5.023760647331490353e-09
3.914909010727313043e-09
3.079851323396492058e-09
2.429667990573569815e-09
1.908824821205693908e-09
1.483270602080614811e-09
1.133400354742275196e-09
8.475643751932667860e-10
6.180669698068671436e-10
4.387475516723941289e-10
