# bin_10_8
9.988973576497279768e-07
1.129652500005122879e-06
1.256451451600617643e-06
1.369056549312043106e-06
1.453847822508125112e-06
1.494279038369684157e-06
1.477743856726422345e-06
1.384319897091921810e-06
1.225344926335537346e-06
1.026018307485484793e-06
8.391977854966531720e-07
7.069795947793875772e-07
6.116621435787697818e-07
4.824607762165508050e-07
3.337830650812658392e-07
2.636778718589338088e-07
1.897050024353005525e-07
1.360952048900081441e-07
9.313974731641328108e-08
6.626820257382988140e-08
4.586681131836782089e-08
3.166720728650991821e-08
2.203693155373094314e-08
1.547573076531162444e-08
1.104475436435734999e-08
8.036574975664908481e-09
5.962824167204062587e-09
4.506502057790797633e-09
3.452491464008695740e-09
2.663652900594636664e-09
2.054042316186416204e-09
