# bin_9_2
1.077145893420110268e-17
1.200921254592938787e-17
1.312847463190958429e-17
1.400291155681446595e-17
1.447574881478474696e-17
1.442169458362010150e-17
1.364548498131420698e-17
1.219345942758037757e-17
1.030202292357886936e-17
8.431687533143861813e-18
7.041211518723641810e-18
6.092582424432393382e-18
4.937188082915806854e-18
3.459974800982001149e-18
2.647199270181863838e-18
2.000497945659617451e-18
1.390734705215592597e-18
9.949562663517436929e-19
7.130185765339949416e-19
5.002419281746654894e-19
3.527910902259191625e-19
2.517663589765724341e-19
1.822958086687833912e-19
1.343358037263895690e-19
1.009148355163561476e-19
7.704839433995948927e-20
5.953963476317623871e-20
4.627047043392046322e-20
3.590138134617826186e-20
2.762061439324360705e-20
2.094762908608774632e-20
