# bin_10_6
6.282619466166246039e-09
7.080779231146773535e-09
7.843182726244200658e-09
8.502944515369924637e-09
8.972814146975079739e-09
9.153663465105313777e-09
8.959817797513890785e-09
8.289923915826075103e-09
7.252104596997648320e-09
6.018310401876651329e-09
4.930211407608001655e-09
4.195106693075563336e-09
3.605415583949385314e-09
2.746494183789190416e-09
1.910059038071484012e-09
1.543949941714880003e-09
1.056874423743033769e-09
7.885869765157398483e-10
5.352401638734011146e-10
3.755497672813896152e-10
2.624170850804513288e-10
1.832900181940537463e-10
1.288442445448888256e-10
9.156875021971647925e-11
6.630471310192153075e-11
4.895596697816881314e-11
3.682025951521677555e-11
2.813026009587983497e-11
2.169847741004240881e-11
1.677896987934322154e-11
1.291156306539829154e-11
