# bin_3_6
2.055570719886540619e-07
2.191807278354203883e-07
2.267437712672505930e-07
2.260648492432328573e-07
2.146116505608847207e-07
1.926376034931070827e-07
1.638147014923756883e-07
1.346678221826697107e-07
1.120857455940080759e-07
9.606867512354423915e-08
7.835503300814677921e-08
5.679600825233786187e-08
4.249425936712679344e-08
3.260456564674430096e-08
2.306396577447871493e-08
1.697286562429928019e-08
1.222626736538922524e-08
8.871767919285587370e-09
6.511433214932901666e-09
4.850057715561204363e-09
3.675832126032288284e-09
2.833013014429561992e-09
2.214386969627555919e-09
1.744555744650071157e-09
1.375922114832893958e-09
1.078919547098559874e-09
8.356216033583889059e-10
6.356857855685463032e-10
4.728938174963336301e-10
3.429553451661640595e-10
2.421760361232351741e-10
