# bin_9_3
3.370001613268496219e-18
3.761122160021171878e-18
4.116870559398057414e-18
4.398036120011423425e-18
4.555673343198149637e-18
4.549700027700769555e-18
4.318943651213410959e-18
3.871053879933568589e-18
3.279939251296831355e-18
2.684891895087764575e-18
2.235605794809807127e-18
1.933892769214196712e-18
1.579980535556740265e-18
1.112283096179965808e-18
8.412692061864975682e-19
6.443696105116704653e-19
4.428812837557361697e-19
3.201736646479946945e-19
2.284413157153534562e-19
1.598301519802972317e-19
1.124981590911720703e-19
8.002728440750463295e-20
5.774881894166256058e-20
4.239229432491455711e-20
3.173194782489086116e-20
2.415444621950979581e-20
1.862552002385445222e-20
1.445961764058208283e-20
1.122006911882088344e-20
8.641414472777232333e-21
6.566082484132248234e-21
