# bin_3_5
1.586293844381352570e-07
1.689534727135389227e-07
1.745407148989343576e-07
1.737194393640091794e-07
1.645415132780761509e-07
1.473471130768936663e-07
1.250286625493735711e-07
1.027146932385307265e-07
8.560654376321569211e-08
7.340438877554603134e-08
5.961184015387435437e-08
4.304306383709071334e-08
3.236605718066144221e-08
2.473443194768811907e-08
1.751633434987360285e-08
1.287665216782921228e-08
9.289944170823526171e-09
6.744342355789489036e-09
4.955738608439252358e-09
3.696816254922340174e-09
2.806145694425549354e-09
2.165945069511470140e-09
1.694949664710937890e-09
1.336288804965543477e-09
1.054179848117859215e-09
8.264287196662599139e-10
6.396306332424951723e-10
4.860691782832011400e-10
3.610922402035598860e-10
2.614535912096207224e-10
1.843106927117165065e-10
