# bin_8_7
2.838293112207442851e-09
3.179052683432803310e-09
3.494999382796977400e-09
3.754048791571859124e-09
3.915603190775759288e-09
3.942048557893866065e-09
3.784840003373034845e-09
3.430175814189656140e-09
2.939163276416512287e-09
2.413639359932038007e-09
1.994171346020322783e-09
1.718763811203793859e-09
1.437152714859034922e-09
1.036263677069903088e-09
7.548461946858405680e-10
5.993709506980857005e-10
4.022653031237859568e-10
2.997308613060943676e-10
2.096629827943861377e-10
1.458530945531830914e-10
1.024274659817594264e-10
7.230012769095261300e-11
5.166018572781818716e-11
3.748044890448297649e-11
2.773961393061427376e-11
2.090722052709669217e-11
1.600047470048768988e-11
1.236971007824378701e-11
9.591813536584252621e-12
7.406695988957283465e-12
5.658056876297675168e-12
