# bin_9_7
3.840703867543157213e-10
4.317293797931810613e-10
4.767097281126652555e-10
5.148107238237471291e-10
5.406340758568150608e-10
5.484988886329557585e-10
5.325985151927471483e-10
4.883724383497163123e-10
4.234464916307946930e-10
3.495219807147831342e-10
2.870420511220625966e-10
2.457533753361788100e-10
2.092777603669165363e-10
1.555677626821720766e-10
1.097488245798624906e-10
8.883542028652218699e-11
5.960810825835308303e-11
4.492525116478607368e-11
3.078927876966797999e-11
2.143370762211175773e-11
1.502614569248568784e-11
1.054477440345144647e-11
7.461081377783463505e-12
5.347131401619778428e-12
3.908005977505384798e-12
2.911479822733231822e-12
2.207028520070424909e-12
1.695715053882548242e-12
1.311810113119157114e-12
1.014409366196796529e-12
7.785604129626431691e-13
