# bin_2_2
5.642410263346384892e-08
5.759639055026060123e-08
5.646930456070807595e-08
5.255607004121126314e-08
4.628549266386120408e-08
3.879634357732605541e-08
3.189961068617105001e-08
2.684713434619824591e-08
2.282284951036883996e-08
1.790748670869829460e-08
1.291917099298165671e-08
9.939643802321382081e-09
7.381976820688220142e-09
5.355427172751258956e-09
3.923799824762822070e-09
2.878152969534808335e-09
2.129035659915196641e-09
1.599881210866527603e-09
1.223912795795864699e-09
9.525210498339925630e-10
7.517099805956377626e-10
5.980974353998578484e-10
4.762823628709399037e-10
3.769007242424006157e-10
2.944200756365791493e-10
2.257126095791215696e-10
1.690473507355098550e-10
1.233243851222458288e-10
8.753589313052620859e-11
6.051053178538300416e-11
4.083111802570629377e-11
