# bin_7_1
1.090051693830592940e-20
1.196299401669240205e-20
1.282646998563004996e-20
1.335202531082698375e-20
1.341397817616997271e-20
1.284596373925606281e-20
1.161607874551293919e-20
9.932283170978159608e-21
8.152624912542102531e-21
6.744046461146184244e-21
5.810239483398378022e-21
4.835471161160027278e-21
3.483683759466101465e-21
2.559007615868206871e-21
2.020322374046559560e-21
1.377132365674403696e-21
1.026616029516065852e-21
7.293909984123796255e-22
5.177451990354958445e-22
3.720252385394253678e-22
2.702466968837836229e-22
1.994703117813822347e-22
1.497994887143271157e-22
1.145510501573802149e-22
8.878864515175535591e-23
6.936505498815729065e-23
5.425772100755336168e-23
4.218937449066081280e-23
3.240619211668928276e-23
2.445806691818943516e-23
1.806265288945642338e-23
