# bin_1_13
7.621068218781775501e-07
7.492774058722424013e-07
7.020670121911015383e-07
6.241643789222487827e-07
5.296333451506223858e-07
4.387707112011600969e-07
3.666555689401544184e-07
3.082276678826550853e-07
2.464986811861424485e-07
1.835953776843609199e-07
1.374454241011874033e-07
1.039339173238539016e-07
7.580653894873270262e-08
5.587975741795731704e-08
4.115246612608228339e-08
3.067004353368392114e-08
2.319394925253095460e-08
1.785204617035874192e-08
1.397300050558452688e-08
1.107894650575826295e-08
8.846567263028063150e-09
7.062922906705975086e-09
5.597965809445456880e-09
4.376343493076288257e-09
3.356174790734135655e-09
2.514298744260143589e-09
1.835392963410803941e-09
1.304460695533041758e-09
9.034698163252951151e-10
6.111297160079262043e-10
4.049163071750696262e-10
