# bin_4_10
2.169776449793467511e-07
2.359248082856447173e-07
2.500583194604859618e-07
2.566760679840630984e-07
2.533556610403842778e-07
2.372473183599676371e-07
2.100007364107242354e-07
1.762662830424894151e-07
1.444834200203493038e-07
1.214450249841963748e-07
1.042915048278242442e-07
8.250088896796894591e-08
5.843027758587714530e-08
4.526117747531409108e-08
3.339117190372695611e-08
2.393746203675976372e-08
1.720087522498578406e-08
1.240406388554185925e-08
8.914145020162641098e-09
6.473603485794454219e-09
4.771453374443407888e-09
3.576647367722196179e-09
2.728781804067057147e-09
2.113652087782166692e-09
1.652758443874593468e-09
1.296398381491657291e-09
1.012961627370789887e-09
7.832147012803261542e-10
5.958501981479135813e-10
4.439866894029582741e-10
3.229479635202102171e-10
