# bin_7_7
1.301777286435311959e-08
1.451630525224841549e-08
1.587292246272258891e-08
1.693530501345549595e-08
1.751473088368514645e-08
1.745732586063092281e-08
1.653049695721985924e-08
1.478212946906896854e-08
1.249923394022301062e-08
1.023076097061880008e-08
8.535451562227923970e-09
7.380697882682883417e-09
5.992856718239607240e-09
4.211947593813228938e-09
3.207565343807838932e-09
2.433037050790701117e-09
1.686411837808718629e-09
1.211689365612088367e-09
8.653159109159161492e-10
6.065333616464997514e-10
4.276366156528987759e-10
3.048104779669628038e-10
2.203947078235602086e-10
1.621546664354085608e-10
1.216302580756136182e-10
9.274297900412694799e-11
7.159502789507404184e-11
5.560508852417852893e-11
4.313576014386744051e-11
3.319307345150592675e-11
2.518735502944405993e-11
