# bin_2_13
5.074776276977278889e-07
5.264774489421950811e-07
5.268415939208880590e-07
5.032259203314425200e-07
4.551413042337918964e-07
3.903359013825110729e-07
3.227199820697959994e-07
2.678758313422792427e-07
2.280017757398065272e-07
1.876207138087974838e-07
1.395621723206342152e-07
1.030838300105132180e-07
7.932003629020264275e-08
5.706848148913593376e-08
4.198382536203883000e-08
3.047183554081284856e-08
2.235686062203507725e-08
1.657466405709832549e-08
1.248439712105411267e-08
9.571416671979704050e-09
7.456910052433425221e-09
5.881497497365311913e-09
4.665969641839445179e-09
3.696807403900841261e-09
2.905043390979013476e-09
2.249869673032072913e-09
1.708146012488852408e-09
1.266272023795889970e-09
9.143259849634092391e-10
6.427293532717463519e-10
4.403796510756614038e-10
