# bin_12_10
1.260226184501951233e-11
1.434838428100802397e-11
1.609704175532903803e-11
1.772663494392971003e-11
1.907582187223010137e-11
1.993966078716186198e-11
2.012138197714243774e-11
1.937858978384443119e-11
1.761228280388541653e-11
1.513395684710786484e-11
1.243822581976089368e-11
1.025965482117264557e-11
8.839241585127620875e-12
7.430621280521651547e-12
5.376965275861419304e-12
3.877866405552596735e-12
3.102541891865498699e-12
2.052097736376587367e-12
1.531818539377859120e-12
1.052788376454380892e-12
7.163409004651842527e-13
4.898963599064651403e-13
3.334620261217427715e-13
2.279174906203967052e-13
1.569608695618107156e-13
1.098353854814944620e-13
7.827320732740033629e-14
5.697289315373606473e-14
4.235673934482994189e-14
3.205672206957028814e-14
2.454942390758166617e-14
