# bin_13_3
6.594139780567276128e-28
7.473037451105471950e-28
8.334082245897111438e-28
9.111378822469423542e-28
9.716737562837928363e-28
1.004052431578358709e-27
9.997348570128266056e-28
9.449078816421986551e-28
8.433748888910345267e-28
7.115471958248495204e-28
5.820732312757183978e-28
4.865796737140522511e-28
4.213646905200034089e-28
3.404082464241061774e-28
2.371856359638160022e-28
1.822256234634422716e-28
1.364523303055974738e-28
9.451595071410362783e-29
6.642730218805499785e-29
4.713249134499779595e-29
3.238375279442723228e-29
2.218942562329950485e-29
1.530807857480465603e-29
1.064996380710001584e-29
7.510628444989478138e-30
5.396994050774546092e-30
3.955408029688383352e-30
2.957596779091433857e-30
2.248370527209615281e-30
1.727601368936293045e-30
1.331875357633486669e-30
