# bin_1_1
3.716757636916739199e-10
3.657433753137299205e-10
3.422860539091232220e-10
3.032968360319305009e-10
2.557410520243726185e-10
2.106145993324435350e-10
1.764751860561761561e-10
1.498185444938495915e-10
1.191559340774060857e-10
8.690315014879300396e-11
6.593792227377021902e-11
4.973686058747267084e-11
3.601828974647796053e-11
2.662235751790779932e-11
1.959564624065171632e-11
1.460505481168137049e-11
1.106328872061512797e-11
8.534249568945147845e-12
6.696753846306201060e-12
5.323402692869648654e-12
4.260573947976203422e-12
3.407472760972539710e-12
2.703605054458921937e-12
2.114199428660932249e-12
1.620315784135018664e-12
1.211862026506682027e-12
8.823439305434392259e-13
6.250270883378910953e-13
4.313287874949832462e-13
2.907213960212729642e-13
1.919993827618429745e-13
