# bin_11_7
1.493148432469449568e-13
1.690567172441270478e-13
1.883141020185308232e-13
2.055814128651042907e-13
2.188470520962426431e-13
2.256289316695159849e-13
2.240337994454143784e-13
2.109714698704857598e-13
1.876561226575229448e-13
1.578101808171031646e-13
1.290526382665275570e-13
1.081997221188557243e-13
9.368385151606351990e-14
7.498137231630529601e-14
5.203266045517263593e-14
4.044680856160232251e-14
2.981270358512916454e-14
2.093126809258653860e-14
1.453129905107103354e-14
1.033850636919375645e-14
7.121950124375576035e-15
4.891212393706504397e-15
3.385443816937331694e-15
2.363583189857309517e-15
1.674463384474984253e-15
1.209089811895714920e-15
8.904378573464296082e-16
6.686858847905834389e-16
5.099714300319764971e-16
3.925532037571333771e-16
3.027168784807417422e-16
