# bin_15_12
4.405095500380507230e-12
5.043415474369419524e-12
5.697978544127711437e-12
6.328326272052262548e-12
6.881621987780579270e-12
7.288169274534640243e-12
7.465044451341392927e-12
7.348026457977910342e-12
6.842279996840566891e-12
6.022009713804138629e-12
5.017382088366488420e-12
4.104286574143270415e-12
3.475115478148596008e-12
3.000516219212825587e-12
2.324129330508178460e-12
1.603953037846446892e-12
1.285982015768783207e-12
8.953383429199100713e-13
6.551347081578209435e-13
4.378857816557396669e-13
3.053265247373983636e-13
2.077710574800898796e-13
1.400090036875086723e-13
9.403417186951438924e-14
6.308881619792153866e-14
4.268178495973856658e-14
2.924382724686333191e-14
2.038544125291225748e-14
1.452577756891578679e-14
1.059471269101998063e-14
7.896741328975337094e-15
