# bin_9_1
3.014356228838309192e-27
3.357496179559784899e-27
3.666318608480721250e-27
3.905369993883909328e-27
4.030926934843922559e-27
4.008334437028129888e-27
3.783697733476381134e-27
3.373603972869019624e-27
2.844458316155315080e-27
2.327062496675690810e-27
1.945919680307609512e-27
1.683015039385790182e-27
1.356551652278514783e-27
9.486358962184486836e-28
7.300112951402187988e-28
5.470246023258721996e-28
3.828253696813052570e-28
2.722975746607282771e-28
1.952993797780205071e-28
1.371671112087789864e-28
9.681554594600968862e-29
6.916913260558837840e-29
5.013994467305359259e-29
3.699917267011012722e-29
2.782893395564921263e-29
2.126868919822653649e-29
1.644582637407358328e-29
1.278249387977002393e-29
9.914621672609165350e-30
7.621867421652829256e-30
5.773937508424748438e-30
