# bin_6_1
7.031865207140177771e-19
7.655539362029769377e-19
8.127093026729814551e-19
8.356582775649913284e-19
8.270540026616589049e-19
7.763962268894209182e-19
6.887569074766686378e-19
5.783988522354237115e-19
4.732438913492236025e-19
3.971289904678853772e-19
3.426070828484591272e-19
2.727012178659675653e-19
1.911810024907732014e-19
1.488552474654596012e-19
1.100524121457379709e-19
7.873898022435031592e-20
5.623428537503908410e-20
4.077649590491584036e-20
2.926438879338774438e-20
2.120750586543450886e-20
1.560948324804089973e-20
1.168615386351530637e-20
8.907545955842008722e-21
6.895946827861181088e-21
5.391861273700154428e-21
4.231039293600031422e-21
3.308696836428233544e-21
2.561126282825863390e-21
1.951028249818662944e-21
1.455867992226191304e-21
1.060415803110159671e-21
