# bin_13_7
4.183720676528529970e-16
4.756085264552903226e-16
5.325084053868490461e-16
5.849936621147857080e-16
6.276236649361989625e-16
6.535333882525519776e-16
6.566217714351520491e-16
6.283894678709097151e-16
5.675298415861104621e-16
4.845205711708391177e-16
3.973282477115893167e-16
3.290592291055260094e-16
2.843380420914538271e-16
2.362138969195739297e-16
1.682521284530953698e-16
1.239455163075022567e-16
9.734014027514522430e-17
6.500657450231801672e-17
4.772669781365635073e-17
3.320640960271165272e-17
2.264778224668652416e-17
1.547599210094829055e-17
1.056916941412178483e-17
7.265953532288469802e-18
5.044453212808764843e-18
3.562798140179570819e-18
2.564725171755569165e-18
1.885712290269486161e-18
1.414286452864138518e-18
1.077297840746026419e-18
8.278867454633482351e-19
