# bin_15_7
5.053521327598425262e-19
5.764461022277844882e-19
6.482607552003871266e-19
7.159795818498474684e-19
7.732641449833646956e-19
8.119745424750252369e-19
8.235788223096540047e-19
7.992497178861517568e-19
7.322185933102487235e-19
6.343058367668334524e-19
5.232190136928023301e-19
4.298524064754620694e-19
3.685150488331353936e-19
3.135678856201159601e-19
2.319304454415978983e-19
1.635610309538243743e-19
1.325966088903775165e-19
8.779990286800437618e-20
6.611260648074379879e-20
4.479764206846781893e-20
3.050434398540281136e-20
2.088232090067491158e-20
1.418738339513058599e-20
9.634426500299865949e-21
6.571493960409272062e-21
4.545808341099137682e-21
3.197808164834034069e-21
2.296220698362983189e-21
1.685915045591864976e-21
1.263240282056689907e-21
9.612460925139913143e-22
