# bin_3_3
1.416416915455411642e-10
1.515008792223748322e-10
1.573129768001813175e-10
1.576022457376222596e-10
1.504749009359425941e-10
1.357578657196466484e-10
1.158860448035746396e-10
9.518256375483042098e-11
7.888587938825582331e-11
6.780665042350817725e-11
5.604200151739678742e-11
4.054303798483032075e-11
3.002056689791866920e-11
2.345232335507013479e-11
1.632367394456291711e-11
1.213063760723180980e-11
8.715060208158937916e-12
6.298488950546798246e-12
4.611187231240555360e-12
3.424315758088305380e-12
2.587620403693263352e-12
1.989010530575993534e-12
1.551977112441896586e-12
1.221765157819752911e-12
9.638607380341542193e-13
7.567495395583974713e-13
5.873071889872188817e-13
4.479876973133608172e-13
3.342909837681334154e-13
2.431963515773321278e-13
1.722236039169508743e-13
