# bin_14_13
2.652926798175553171e-11
3.036797058194176738e-11
3.430179336897926829e-11
3.808640446514000136e-11
4.140290388386362541e-11
4.383115853933053693e-11
4.487337983879437841e-11
4.414081315662205398e-11
4.106982550063268283e-11
3.611908576775179769e-11
3.007611967326605283e-11
2.460528940767817572e-11
2.084720673625586999e-11
1.799260560717961015e-11
1.390479333837033464e-11
9.599574778428454006e-12
7.708048942947375558e-12
5.347650699979587600e-12
3.923503524844746932e-12
2.621272998389100404e-12
1.824960395095634596e-12
1.242535964851104549e-12
8.379093718913271761e-13
5.630468154769157765e-13
3.780214054400131147e-13
2.560116578083901326e-13
1.756332722604602841e-13
1.226153905275591198e-13
8.751046996842874039e-14
6.392588150165983775e-14
4.770824790260061182e-14
