# bin_14_13
2.588343381350638304e-11
2.963729678494307437e-11
3.348629445288365868e-11
3.719187584301892367e-11
4.044241516150839390e-11
4.282699853399348964e-11
4.385832082318327887e-11
4.315509428375042915e-11
4.016456475759883671e-11
3.533333078891471281e-11
2.943045387040401638e-11
2.408398987161448807e-11
2.041122364990832273e-11
1.762116224514734827e-11
1.362158009286540713e-11
9.406691987384508253e-12
7.555016289268649606e-12
5.242979534129521001e-12
3.847627917043580563e-12
2.571332539821089762e-12
1.790681993857235141e-12
1.219551880319288792e-12
8.226710718527250724e-13
5.530007689244941197e-13
3.714203965431586789e-13
2.516463361290959601e-13
1.727148032205050539e-13
1.206318357302903594e-13
8.613149303544647152e-14
6.294210475548883983e-14
4.698810476153200967e-14
