# bin_9_5
3.742978296245528148e-14
4.196778779279719894e-14
4.619789716549939043e-14
4.970056286586760601e-14
5.194287678355781973e-14
5.241315797213068674e-14
5.048559769133007333e-14
4.590313510094817211e-14
3.946367183642580203e-14
3.245134513796737439e-14
2.676811888664051455e-14
2.304482521590820162e-14
1.937861438145153439e-14
1.407242879895738305e-14
1.015690681035211062e-14
8.131257081678132809e-15
5.433869197078640033e-15
4.076581781201371403e-15
2.836727739050012934e-15
1.971213173201758984e-15
1.384043901093784627e-15
9.753348004417003173e-16
6.951973309171803960e-16
5.028739843307889781e-16
3.710811253765539786e-16
2.789411010705735886e-16
2.130341937384770020e-16
1.644961946796267792e-16
1.275230721588945117e-16
9.853653189479281894e-17
7.537928300190665963e-17
