# bin_10_4
4.033849491392009667e-18
4.530436591312568081e-18
4.997146744285094929e-18
5.389450503685646736e-18
5.650387243751617714e-18
5.721872387052081867e-18
5.540393263052256056e-18
5.065004635332737284e-18
4.378599750644482870e-18
3.609278701416948536e-18
2.968905038829016343e-18
2.547842589994729725e-18
2.160688890580020432e-18
1.591859487162652626e-18
1.131654112142747813e-18
9.141854596928634157e-19
6.108293874859712552e-19
4.607948953940667887e-19
3.175088271099950959e-19
2.206525080115676800e-19
1.548411708735996425e-19
1.088432001986429036e-19
7.722880515492191766e-20
5.554432030621985007e-20
4.074774758877585491e-20
3.046482603569278759e-20
2.316345008300401645e-20
1.783438408353324581e-20
1.381057278285464504e-20
1.067837670988403507e-20
8.186625692927914558e-21
