# bin_14_9
3.168585986306426958e-14
3.615060988823819430e-14
4.066133942388102119e-14
4.491559337487923329e-14
4.851481711102888156e-14
5.094706335517531268e-14
5.167733635339416749e-14
5.014650638452237617e-14
4.593531747254525970e-14
3.978787526998688522e-14
3.282213860009845532e-14
2.697724223370013800e-14
2.314080740304049032e-14
1.968554819827065843e-14
1.454732793399988297e-14
1.027115017883851082e-14
8.326799900948932965e-15
5.511673145390930385e-15
4.151550108438584105e-15
2.815739373767864732e-15
1.917360254132415128e-15
1.312977512441835059e-15
8.923975504775991832e-16
6.064203268499308301e-16
4.139878265955102247e-16
2.866606856773779311e-16
2.018748806601123699e-16
1.451208677714078124e-16
1.066607473248531010e-16
7.998912936750878269e-17
6.090411734900614254e-17
