# bin_15_12
3.918163233723403706e-12
4.487229710374356954e-12
5.071097957277768177e-12
5.633757197670011562e-12
6.128137965799541687e-12
6.492096101823059970e-12
6.651626812839282365e-12
6.549306142526506660e-12
6.100348745361782258e-12
5.370610721145118109e-12
4.475972226033422460e-12
3.662459088887152812e-12
3.101880107820218587e-12
2.678990216497013662e-12
2.075678453861524881e-12
1.432894856271182915e-12
1.149109132691654074e-12
8.002789355119299541e-13
5.857142688796099485e-13
3.916028320887962156e-13
2.731291613833498844e-13
1.859148103200228376e-13
1.253204308647530613e-13
8.419815047583645723e-14
5.651140604620971395e-14
3.824779388599774803e-14
2.621733481979952628e-14
1.828384310736123773e-14
1.303380059283881339e-14
9.510060701056166848e-15
7.090424526594050170e-15
