# bin_6_5
4.404614454126170093e-11
4.878635359291574299e-11
5.290543467517350451e-11
5.586597432532908719e-11
5.705364628659731616e-11
5.593937793405199082e-11
5.188355481284808243e-11
4.549636572364076080e-11
3.783788255311612122e-11
3.098709623902846070e-11
2.628787127014908035e-11
2.259971904115950964e-11
1.737964553946513396e-11
1.212129194489379495e-11
9.723409367726005639e-12
6.806175947206449179e-12
5.040554744946304383e-12
3.486762578807826036e-12
2.495786829960807713e-12
1.776582899622430771e-12
1.271135638719951736e-12
9.211479624917562677e-13
6.777317101608246700e-13
5.082849815776728563e-13
3.878412368976128869e-13
2.997904262829666932e-13
2.334596264443094345e-13
1.818568320982842528e-13
1.407164583387889998e-13
1.074834229404708353e-13
8.064224928755676660e-14
