# bin_14_1
7.717657236425775560e-40
8.766936704828630161e-40
9.805554033380250498e-40
1.075762959575363325e-39
1.152160346667876399e-39
1.196973277428304408e-39
1.199391680452999953e-39
1.143338102307474106e-39
1.028758207043875299e-39
8.749422674960745653e-40
7.169532472921061788e-40
5.957222343386863981e-40
5.154930444929989429e-40
4.245979930220054367e-40
2.999404737506827087e-40
2.241922063965790751e-40
1.734937447386639985e-40
1.171272691484606760e-40
8.480009794250389752e-41
5.947144290260932803e-41
4.066437790856129677e-41
2.780176628037554784e-41
1.905284210341514888e-41
1.315512173340060857e-41
9.184971869436735210e-42
6.528144536978584446e-42
4.730588548117374811e-42
3.500296080629407042e-42
2.639028904966789787e-42
2.017411613652144788e-42
1.552840144628049204e-42
