# bin_8_2
4.471553975784030570e-20
4.957458423719512614e-20
5.382262167042885516e-20
5.691674809114816228e-20
5.822493352088511007e-20
5.722263403976379105e-20
5.322041408493603403e-20
4.679241140582141708e-20
3.898790221531595165e-20
3.191246511178904834e-20
2.701584638388750859e-20
2.327062391596754319e-20
1.803035486727857268e-20
1.254723904331166070e-20
1.002939709942201377e-20
7.082195742793887023e-21
5.210549613768020964e-21
3.605778736813065719e-21
2.586161610746130277e-21
1.837670231837115698e-21
1.312130473659210709e-21
9.489153445132953162e-22
6.966026445206095191e-22
5.212253551882204154e-22
3.969250270913087851e-22
3.063572141421261481e-22
2.383797921020987862e-22
1.856734528933224579e-22
1.437528798011443113e-22
1.099283945435321948e-22
8.260875465148660810e-23
