# bin_8_5
7.824929815904633147e-13
8.741647319302549665e-13
9.579929118285410910e-13
1.024936398843316973e-12
1.063660813331004301e-12
1.064624968509645065e-12
1.013691512183617916e-12
9.112545261633071170e-13
7.744175841163108401e-13
6.345029219519309705e-13
5.273655160078915656e-13
4.559957827688338249e-13
3.748977892586195896e-13
2.652806073284450571e-13
1.988400399536503013e-13
1.538553080300027146e-13
1.049475248181959550e-13
7.652137833351908453e-14
5.438099483182548416e-14
3.798439238457100786e-14
2.671322290676936778e-14
1.896395206215118627e-14
1.365316684702406476e-14
9.995643687876055298e-15
7.463032241187054712e-15
5.668554432020000002e-15
4.364159781312672770e-15
3.385430095104294760e-15
2.627074069515826725e-15
2.024915886193166839e-15
1.540773029220471156e-15
