# bin_5_4
5.030498640537125171e-11
5.515056834717829144e-11
5.905435224986882319e-11
6.137278803218693929e-11
6.153833685484781102e-11
5.877351359670732367e-11
5.300979694456594725e-11
4.521362966381399829e-11
3.709643060004618078e-11
3.075496251061535327e-11
2.652017709610972246e-11
2.194320494054280939e-11
1.572599649579473921e-11
1.165836206476175332e-11
9.127325080981804692e-12
6.256535362633142217e-12
4.636051414441902846e-12
3.308191485941654242e-12
2.351317718205811504e-12
1.691218589275294111e-12
1.230911374694371949e-12
9.105702544012648342e-13
6.854695104309256635e-13
5.252559401672137978e-13
4.077536643624234006e-13
3.188398444053338839e-13
2.494426109305619500e-13
1.938640194404242832e-13
1.487477998094987141e-13
1.120884630825846721e-13
8.261551850399185206e-14
