# bin_3_7
-1.313558353555690960e-12
-1.453152790112157126e-12
-1.573486144489492792e-12
-1.658431499620332874e-12
-1.690011104736771032e-12
-1.651921318508338504e-12
-1.526705761517022102e-12
-1.334158196905582773e-12
-1.107004798854374615e-12
-9.072820863388581810e-13
-7.717712522562334361e-13
-6.616470351708170352e-13
-5.038628954192171446e-13
-3.526761509826919477e-13
-2.839661223480747438e-13
-1.966540819539688528e-13
-1.467605056853761388e-13
-1.015510210932974490e-13
-7.248457558672644394e-14
-5.170132600687214388e-14
-3.708198089630492321e-14
-2.693744810778362298e-14
-1.987246184037199519e-14
-1.494527847043099734e-14
-1.143066999697731301e-14
-8.850942111953840261e-15
-6.899012208218004687e-15
-5.374432720291807882e-15
-4.155596011099978819e-15
-3.169751384631747927e-15
-2.373591309804181591e-15
