# bin_4_14
-1.302051655146128846e-23
-1.480397693727652119e-23
-1.657680199711314879e-23
-1.821182128579717906e-23
-1.953914996809665491e-23
-2.034435414243462077e-23
-2.043795788112952486e-23
-1.955343023468098257e-23
-1.765494410224810153e-23
-1.506842281654490096e-23
-1.235853658600689377e-23
-1.024226807062299073e-23
-8.854149650042435717e-24
-7.348596014628928135e-24
-5.229492557577170071e-24
-3.861019451749118638e-24
-3.026630131409187237e-24
-2.024750236372080704e-24
-1.483878590032591511e-24
-1.033761409515718685e-24
-7.054131535579230192e-25
-4.821187441882274125e-25
-3.294495701166037751e-25
-2.266363200243548032e-25
-1.574722783176014165e-25
-1.113161486009853596e-25
-8.020359740587154038e-26
-5.901929393962717339e-26
-4.429547948852310677e-26
-3.375772792021715544e-26
-2.594923973727401918e-26
