# bin_9_9
-1.390696228352771350e-08
-1.573921533112894090e-08
-1.752205824062327170e-08
-1.911407494750122455e-08
-2.032659944118984108e-08
-2.092840739061661337e-08
-2.074337101193859687e-08
-1.948768222044998607e-08
-1.729603382800520120e-08
-1.451696139846149981e-08
-1.187407550951814254e-08
-9.979827768126006659e-09
-8.639418706391472321e-09
-6.867705625348367847e-09
-4.758661165705264018e-09
-3.728665410413954817e-09
-2.717028747273532557e-09
-1.927494342184932063e-09
-1.328686106450630165e-09
-9.455899709971336682e-10
-6.528187098677437132e-10
-4.493936056222947655e-10
-3.117991114762296527e-10
-2.182455682210957067e-10
-1.551176416361540083e-10
-1.123859896359246842e-10
-8.304037988368549857e-11
-6.253798410027009467e-11
-4.779243881359162071e-11
-3.682820413105945350e-11
-2.840238071840562932e-11
