# bin_4_3
-1.355105707401937370e-08
-1.465313726567456025e-08
-1.542340567228954922e-08
-1.569848216430125467e-08
-1.532207951001682669e-08
-1.414721537795274822e-08
-1.235243965472802447e-08
-1.025342452881743784e-08
-8.411157221385145534e-09
-7.149024952180547890e-09
-6.107662690373205869e-09
-4.656466535579661415e-09
-3.288413464210999820e-09
-2.626881961587273957e-09
-1.848251185118244546e-09
-1.373812038632377650e-09
-9.692306348287690717e-10
-7.015058269284017190e-10
-5.086233739593901298e-10
-3.725476657627394801e-10
-2.773215378767752929e-10
-2.099746312298383024e-10
-1.617792710440042590e-10
-1.262736445831738128e-10
-9.923076660412260286e-11
-7.798707389357456546e-11
-6.086601767887874830e-11
-4.687671950828081496e-11
-3.543633057892238853e-11
-2.618302420556614807e-11
-1.885568158341187671e-11
