# bin_13_6
-9.854342829470436675e-16
-1.119619273073056932e-15
-1.252552895336199188e-15
-1.374561730010297474e-15
-1.472699553721791054e-15
-1.530668932846497959e-15
-1.534572880075401179e-15
-1.463901853132889738e-15
-1.318068074727872461e-15
-1.121730228515576517e-15
-9.192771063148096062e-16
-7.634166685248461766e-16
-6.605613189196438360e-16
-5.449750407595914423e-16
-3.853881346445059243e-16
-2.873864360733316643e-16
-2.230190823426333335e-16
-1.502122431910655425e-16
-1.090363860323416185e-16
-7.638283275551776988e-17
-5.219889680780880110e-17
-3.567496374192170269e-17
-2.442820152833968549e-17
-1.685101012801340994e-17
-1.175162940485519519e-17
-8.341519466743391837e-18
-6.036486339956965597e-18
-4.460944742258839374e-18
-3.359927216545652308e-18
-2.566876597371177786e-18
-1.975357671634399094e-18
