# bin_9_5
-9.688747606299951451e-12
-1.087471489989677349e-11
-1.198594744311678493e-11
-1.291487510223165776e-11
-1.352426201286452808e-11
-1.367725445304824119e-11
-1.321772327052210523e-11
-1.205927330903097421e-11
-1.040378254161436463e-11
-8.568226699048903700e-12
-7.055269549691207004e-12
-6.061803312293221582e-12
-5.124721121774557675e-12
-3.755643956407495513e-12
-2.684756837147292847e-12
-2.161597996873187466e-12
-1.444336815497127048e-12
-1.087292580895942040e-12
-7.518321284031640732e-13
-5.224020038183774041e-13
-3.665914096220053617e-13
-2.578615798788184110e-13
-1.832184073670041860e-13
-1.320114912784024434e-13
-9.702387105854263310e-14
-7.266346502199363521e-14
-5.532660968881894189e-14
-4.263669653133958858e-14
-3.302799122247782262e-14
-2.553127702359987517e-14
-1.955940108100427168e-14
