# bin_12_15
-1.704067796211748553e-09
-1.951659417946347693e-09
-2.205730969980806899e-09
-2.450635633804285011e-09
-2.665913706142346571e-09
-2.824544410713274377e-09
-2.894316194115596787e-09
-2.850284750974127252e-09
-2.655453035558008950e-09
-2.338261076620109827e-09
-1.949051141183231943e-09
-1.594768854553823360e-09
-1.350437699739403399e-09
-1.166445653832588648e-09
-9.043006723430339145e-10
-6.242106949468020012e-10
-5.003773976709452700e-10
-3.488036990263242697e-10
-2.550944793021570339e-10
-1.705744060029856657e-10
-1.190106607725024531e-10
-8.099053328831852037e-11
-5.457613637807413643e-11
-3.665649815221562478e-11
-2.459250634852914696e-11
-1.663501472541715159e-11
-1.139461553463759927e-11
-7.940076810372456737e-12
-5.655255101263794526e-12
-4.122915987565432563e-12
-3.071784215892846952e-12
