# bin_11_15
-2.794418772325999161e-10
-3.197813706246872209e-10
-3.610531155123126885e-10
-4.006610375669581610e-10
-4.352165262366002754e-10
-4.602701400639024496e-10
-4.706230399240092658e-10
-4.620755550749172005e-10
-4.289381481644957324e-10
-3.764156037783024639e-10
-3.129613770668994576e-10
-2.562131073944208642e-10
-2.176042455169013049e-10
-1.875692990455837723e-10
-1.439224191968734961e-10
-9.954891743432792756e-11
-8.029656150301873644e-11
-5.511247467824937749e-11
-4.076932756848427462e-11
-2.723474267841217279e-11
-1.886925203218423705e-11
-1.287160563692167294e-11
-8.700780046803676408e-12
-5.857259199322568934e-12
-3.942321507315648108e-12
-2.679351173105077205e-12
-1.845933097053311809e-12
-1.295003257016187449e-12
-9.289652129730771251e-13
-6.818657732229295665e-13
-5.108857961589686058e-13
