# bin_5_10
-2.971192244651650867e-13
-3.346051748975333212e-13
-3.702867855121969323e-13
-4.009739948416397461e-13
-4.225252190464353333e-13
-4.303365377267905506e-13
-4.202246502967605960e-13
-3.877591846275488225e-13
-3.383251919179952614e-13
-2.803097993859632727e-13
-2.298021029783200289e-13
-1.959336203276417107e-13
-1.679684681965455032e-13
-1.269931627694381105e-13
-8.865246137173337022e-14
-7.176897942541219543e-14
-4.875901542501841997e-14
-3.654222623439856817e-14
-2.486085917572953067e-14
-1.738760571599253702e-14
-1.216238404217743467e-14
-8.506239593092951661e-15
-5.989072151560427335e-15
-4.265290610784487679e-15
-3.095902968283643709e-15
-2.291206654299007768e-15
-1.726838644633977335e-15
-1.321312646775858313e-15
-1.020042683346075227e-15
-7.888228117413764816e-16
-6.066147796265071360e-16
