# bin_14_3
-1.480074399979916863e-27
-1.682098907048061031e-27
-1.882517809732772163e-27
-2.066831643920197366e-27
-2.215650329511977802e-27
-2.304538165317196084e-27
-2.312349026086838755e-27
-2.208493575309849527e-27
-1.990785826885091115e-27
-1.696262924701575689e-27
-1.390578140341711959e-27
-1.153842542401394261e-27
-9.979911105874588013e-28
-8.253838275911468598e-28
-5.852329888086597129e-28
-4.346111600579429777e-28
-3.386721358369188936e-28
-2.274797099234645047e-28
-1.657767279795364636e-28
-1.158615467268762290e-28
-7.913009607108612146e-29
-5.408225830817478551e-29
-3.700137752615666932e-29
-2.549521872518840578e-29
-1.775296243906917367e-29
-1.257993555509106978e-29
-9.087279976082033075e-30
-6.703767931706060722e-30
-5.041850412606777494e-30
-3.847935565485386587e-30
-2.959814798316191985e-30
