# bin_1_14
-3.391330117590859727e-37
-3.853095044116785104e-37
-4.310554108139346744e-37
-4.730408796535683522e-37
-5.068106378983386923e-37
-5.267567934275599402e-37
-5.280928080489696755e-37
-5.037773629549168060e-37
-4.536067120063799063e-37
-3.860594579213177225e-37
-3.164052611405088785e-37
-2.627669591750728839e-37
-2.273344511127466561e-37
-1.875371207911865692e-37
-1.326743426979884463e-37
-9.892171845129805085e-38
-7.675060163574098047e-38
-5.171797736533628778e-38
-3.753461507506675746e-38
-2.628688018256805062e-38
-1.796503789290516686e-38
-1.228004083335919755e-38
-8.409388933251715576e-39
-5.800835962027163075e-39
-4.045246078378188619e-39
-2.871232391115570792e-39
-2.077673684655452899e-39
-1.535258465897964897e-39
-1.156219743316175300e-39
-8.832179625465563552e-40
-6.796130128246806605e-40
