# bin_15_1
-2.610064346228816342e-39
-2.972466288327867211e-39
-3.335547610292057677e-39
-3.674096233892212832e-39
-3.954625524484856132e-39
-4.134561892686089594e-39
-4.173049792461932828e-39
-4.019669376451310960e-39
-3.654023352146354626e-39
-3.140470273345208418e-39
-2.581892356100045273e-39
-2.130544127515791059e-39
-1.836002604871664292e-39
-1.543302404231468199e-39
-1.117052560092407763e-39
-8.062504389061584009e-40
-6.446067579176380117e-40
-4.269100122466382525e-40
-3.184148952672472149e-40
-2.189316285803557980e-40
-1.490383414601899009e-40
-1.019425556466669525e-40
-6.941518389597639549e-41
-4.745661941547718027e-41
-3.268994301445245381e-41
-2.287990023403540180e-41
-1.630798183389922342e-41
-1.187164817154887135e-41
-8.826671617889896742e-42
-6.680410039705741035e-42
-5.115870905330562582e-42
