# bin_12_10
-4.314114192906047574e-09
-4.913560566751733279e-09
-5.514384571969653137e-09
-6.074938684040550258e-09
-6.539921347387636974e-09
-6.839006443932009457e-09
-6.904406703286908794e-09
-6.652961901994016820e-09
-6.049706029618623916e-09
-5.201146467772240241e-09
-4.276322924993300329e-09
-3.527864584236858376e-09
-3.039896515834454945e-09
-2.557131980899529519e-09
-1.852024305778902245e-09
-1.335070154554889759e-09
-1.068962929965558910e-09
-7.070999423825604853e-10
-5.281661892739420441e-10
-3.629214028549993109e-10
-2.469780230599202001e-10
-1.689415888831151853e-10
-1.150036159932758589e-10
-7.859814551485648460e-11
-5.411816352692920664e-11
-3.785937880234173125e-11
-2.697072771290810662e-11
-1.962368584379298127e-11
-1.458412083315178368e-11
-1.103472548718900190e-11
-8.449467396539593362e-12
