# bin_6_15
-5.017155361923588556e-19
-5.721448515387938218e-19
-6.431483258129450745e-19
-7.099224293356044225e-19
-7.661229994819417455e-19
-8.036248118273549312e-19
-8.141158891020718927e-19
-7.885077025743375352e-19
-7.208442058164488335e-19
-6.231118568216011588e-19
-5.135264491996370110e-19
-4.224690887455954390e-19
-3.628644509258055920e-19
-3.078080930744228314e-19
-2.262014741955985545e-19
-1.605405221774181576e-19
-1.298266881183647744e-19
-8.582011427242772004e-20
-6.456083791716704368e-20
-4.393684935506160592e-20
-2.989980815552768281e-20
-2.046843914597508400e-20
-1.391426438186447994e-20
-9.467908166960457823e-21
-6.476909641832757829e-21
-4.496220241590436383e-21
-3.175512041155438269e-21
-2.289791660975528265e-21
-1.687808955284887722e-21
-1.268748297109293935e-21
-9.675424909257614162e-22
