# bin_6_3
-6.701769686774916184e-11
-7.366459337990673884e-11
-7.913385696835846679e-11
-8.257675132395695621e-11
-8.319310641373216334e-11
-7.998825085271159162e-11
-7.262614424527111930e-11
-6.235821592238345495e-11
-5.127626773579695536e-11
-4.233336958625539645e-11
-3.641208693735389927e-11
-3.050993822376179356e-11
-2.218396827521234818e-11
-1.611895338779010819e-11
-1.283140798068315752e-11
-8.719933075820365401e-12
-6.536602185781510756e-12
-4.616073506986689905e-12
-3.274258400328054772e-12
-2.350310101597322079e-12
-1.703336556536454021e-12
-1.253455954852490352e-12
-9.382259538439256906e-13
-7.153625225365912465e-13
-5.532390624539183430e-13
-4.316214381229711101e-13
-3.374963294076993698e-13
-2.625875279120342953e-13
-2.019902501607447589e-13
-1.527777256292419623e-13
-1.131377908210210524e-13
