# bin_6_1
-1.687598328284581981e-16
-1.838004506079739574e-16
-1.952045051141881082e-16
-2.008076038383545076e-16
-1.988391056580954572e-16
-1.867636094851249011e-16
-1.657713876370652246e-16
-1.392809292500644721e-16
-1.139926053483025791e-16
-9.566543626486256376e-17
-8.255711458950237976e-17
-6.577127860591253256e-17
-4.612871551952388013e-17
-3.589903695002501939e-17
-2.657098584364154602e-17
-1.899895275719011888e-17
-1.357706098256574926e-17
-9.844483083309316144e-18
-7.064031777419783389e-18
-5.118240260945914449e-18
-3.766223627579045395e-18
-2.818797966045004002e-18
-2.147955505290836368e-18
-1.662519722773763741e-18
-1.299762916455087800e-18
-1.019960481537748194e-18
-7.977498681429555371e-19
-6.176941032750479783e-19
-4.707509093384373108e-19
-3.514614971360649775e-19
-2.561479810176104212e-19
