# bin_12_10
1.111036584656350932e-11
1.265199666259859595e-11
1.419594126865294190e-11
1.563481553174721094e-11
1.682594399306617748e-11
1.758804351440211177e-11
1.774781739157463586e-11
1.708953491224003930e-11
1.552891548913377203e-11
1.334104094036888169e-11
1.096571224233723490e-11
9.050162588818077733e-12
7.801377722129109261e-12
6.554445711669434485e-12
4.738216659827215934e-12
3.423392846658515509e-12
2.736327267403423626e-12
1.811174675493704969e-12
1.350971019636064755e-12
9.295939137511521940e-13
6.327760794130988508e-13
4.328486053117968673e-13
2.947858893490220041e-13
2.016415401277445883e-13
1.390034584503441405e-13
9.737680583641860138e-14
6.947588907982833079e-14
5.062792668632193965e-14
3.767775440520644148e-14
2.853780455364603618e-14
2.186527444305078190e-14
