# bin_11_2
4.771103385734565000e-28
5.369887853039271932e-28
5.938323290194250317e-28
6.424865121079069955e-28
6.762822756957975344e-28
6.879350164988804855e-28
6.705594676767503072e-28
6.175091687988646085e-28
5.377190145488278964e-28
4.449961669595081096e-28
3.650469249056769862e-28
3.116976495200161882e-28
2.666464522524656766e-28
2.004776338486815766e-28
1.404258821541722535e-28
1.137222479748120184e-28
7.691297296930016458e-29
5.778070453979489125e-29
3.940633298439388603e-29
2.751452729623065846e-29
1.926497791292172605e-29
1.349186766130610685e-29
9.516878070067826664e-30
6.793502461937932361e-30
4.943613861941883558e-30
3.667731121867531437e-30
2.770306686372541089e-30
2.123075693133455238e-30
1.640352944663584806e-30
1.268574927858851983e-30
9.748923637181012887e-31
