# bin_10_8
1.021208536127537456e-11
1.155492653643574403e-11
1.286023023399439943e-11
1.402390890979313500e-11
1.490720948887521721e-11
1.534051677626658225e-11
1.519467489525943308e-11
1.426263827105899462e-11
1.264846435699810802e-11
1.060856700837090239e-11
8.677084287324456836e-12
7.297951653441107054e-12
6.316707884559992948e-12
5.009753970905456782e-12
3.469547684672613637e-12
2.725274561515397755e-12
1.978386355637994320e-12
1.408178322448477194e-12
9.685798187220190356e-13
6.893263574381348567e-13
4.762746210721157899e-13
3.281601886078647386e-13
2.279019788516666562e-13
1.596903428460856585e-13
1.136492978083980939e-13
8.245465838228950364e-14
6.100581370594773643e-14
4.599582213771078012e-14
3.517874752425703384e-14
2.711876044857644964e-14
2.091361236512414286e-14
