# bin_5_1
2.419854085228488355e-16
2.600621253636803996e-16
2.716258403708973490e-16
2.740053321425916195e-16
2.640634398730874830e-16
2.404633874153006929e-16
2.071152126987726352e-16
1.706437388702740628e-16
1.406996668236684850e-16
1.206242532108890791e-16
1.013842069143458571e-16
7.463532146284801654e-17
5.399869073203658963e-17
4.300221066696965454e-17
2.969335046878881666e-17
2.228797279300731082e-17
1.585961206306974240e-17
1.144315101567817305e-17
8.350410639568112629e-18
6.169446631999799555e-18
4.635850941501898780e-18
3.543571173467611515e-18
2.752886723139857140e-18
2.161294348877923125e-18
1.703587698515121231e-18
1.338913776779774967e-18
1.042005566659546266e-18
7.982299024342786516e-19
5.989203225843036658e-19
4.384777976525982096e-19
3.125761758109706726e-19
