# bin_13_1
5.651773422849110258e-38
6.403187935384377633e-38
7.137869270265204247e-38
7.798950812871598037e-38
8.310354147430584845e-38
8.577895866070900501e-38
8.528855210128882006e-38
8.045415270372173061e-38
7.167998585977404859e-38
6.037537207163827309e-38
4.939525634500471687e-38
4.137754936203390257e-38
3.583585072303033269e-38
2.879336407464607620e-38
2.002327753609864018e-38
1.549459570293156104e-38
1.149477531734368122e-38
8.030017138057376420e-39
5.605003733513089843e-39
3.983070950887838957e-39
2.741827720163217196e-39
1.882076649780385852e-39
1.301368669849948874e-39
9.075761413036095564e-40
6.420040943854131430e-40
4.628190896175149599e-40
3.402778425160263158e-40
2.551531972381869065e-40
1.943740085383177276e-40
1.495292684694631868e-40
1.153038726901714214e-40
