# bin_14_11
3.441676378320720871e-12
3.933575564270733733e-12
4.434363726920113019e-12
4.911627345533575910e-12
5.322983561507538806e-12
5.613301568917133518e-12
5.720647904711783806e-12
5.590196389198784302e-12
5.160637434116953116e-12
4.504598154619405230e-12
3.731928823662078940e-12
3.059027462791007119e-12
2.609413431879987749e-12
2.239439314279707769e-12
1.691522906374629731e-12
1.176889198595587057e-12
9.549368688424644724e-13
6.424677603024345664e-13
4.812743954984402364e-13
3.227360399758825679e-13
2.214266578123969163e-13
1.514752599671141654e-13
1.027531779630611019e-13
6.943812978635634866e-14
4.700253452114924387e-14
3.219476736339964302e-14
2.238824650775500749e-14
1.587352814130101321e-14
1.151083352331723533e-14
8.533060792831787120e-15
6.443226886669285830e-15
