# bin_11_11
3.829664981704453906e-11
4.360539291629546282e-11
4.891912701769625377e-11
5.386742073228959409e-11
5.795787297881516075e-11
6.056520031480986979e-11
6.109513448241701610e-11
5.880038712851817644e-11
5.340435680429574826e-11
4.585695372781639704e-11
3.768493861958134295e-11
3.111099808845358043e-11
2.682522969484484101e-11
2.251818229504381589e-11
1.625730318396558006e-11
1.176474153005820569e-11
9.391829647653883722e-12
6.219456667457097045e-12
4.634285872738198287e-12
3.191808582588381560e-12
2.172944856624436557e-12
1.486278383009647906e-12
1.012411624943840226e-12
6.928187344658471371e-13
4.778979852690600240e-13
3.350262373878392124e-13
2.392227729780360059e-13
1.744653579185745629e-13
1.299317121044204476e-13
9.846609394809560798e-14
7.546703227478757663e-14
