# bin_14_5
4.538598909998192188e-23
5.162520426261124478e-23
5.784021171260141144e-23
6.358904981856556789e-23
6.828210813548926673e-23
7.117391294809390731e-23
7.159102989361594756e-23
6.861559237130444130e-23
6.206167154415987447e-23
5.306447349204249190e-23
4.354447229033461169e-23
3.604390255395166074e-23
3.113844951870806066e-23
2.593600730591510664e-23
1.853214122601003466e-23
1.359948592875622102e-23
1.072401306414645914e-23
7.147550123498814134e-24
5.267597045752183557e-24
3.657344362218448466e-24
2.493827653734411240e-24
1.704843965278077672e-24
1.163847769503875455e-24
7.994935983185476955e-25
5.544121752632251907e-25
3.910361694937511772e-25
2.810676657604529881e-25
2.063413213530729853e-25
1.545551240280702718e-25
1.176208794619621141e-25
9.035202587098244627e-26
