# bin_8_5
6.898615548843052606e-13
7.708943947949904064e-13
8.451059586329954744e-13
9.045432315475062794e-13
9.392267413997177163e-13
9.406683043020656922e-13
8.964672512078295453e-13
8.065849198914211901e-13
6.860829625821932322e-13
5.622755728497364988e-13
4.670447884768215780e-13
4.037154820652562537e-13
3.325268136142722895e-13
2.357684460408263449e-13
1.761761641141074516e-13
1.367176195419017287e-13
9.307717817823496422e-14
6.803885133471308078e-14
4.827077212216667792e-14
3.370034379369274681e-14
2.369701651871764673e-14
1.681224916653261588e-14
1.209445030747131492e-14
8.846207148448456883e-15
6.598903623126640871e-15
5.008279647613851430e-15
3.853528362944366159e-15
2.988325644808527860e-15
2.318793578004905791e-15
1.787659438853145383e-15
1.360811400481957590e-15
