# bin_13_8
1.437987480986337858e-14
1.636592469961894453e-14
1.834961815465817287e-14
2.019145495146075450e-14
2.170568975583113156e-14
2.265693275157705270e-14
2.282638865784699899e-14
2.192857615564197436e-14
1.987946437732801905e-14
1.703759074210869846e-14
1.399171125549226113e-14
1.156409036948260236e-14
9.980305700725659581e-15
8.349813831552887670e-15
5.999687037476419779e-15
4.368393259451251962e-15
3.469519208134890014e-15
2.303042009884472189e-15
1.708446267578097885e-15
1.180865741368301106e-15
8.044096218498324368e-16
5.500556837881538458e-16
3.750057262502499052e-16
2.570542461549232598e-16
1.777298738141186182e-16
1.249341286537062755e-16
8.947299011315793703e-17
6.544790810650132564e-17
4.886976618353665534e-17
3.710750535285202850e-17
2.847122666646759459e-17
