# bin_12_2
4.195874722853427308e-30
4.739361828723651344e-30
5.263609222706367536e-30
5.725028819539421147e-30
6.066011972192252744e-30
6.217979022358108861e-30
6.127009274229496713e-30
5.714298075933289938e-30
5.037091254864661331e-30
4.203633787038586566e-30
3.439439232101667248e-30
2.908013632686229660e-30
2.511352593228182864e-30
1.956657637940676527e-30
1.354274192279265919e-30
1.080348128660209502e-30
7.627564175385809243e-31
5.557681870879513966e-31
3.781737872383517599e-31
2.678950559280447417e-31
1.860529932084432483e-31
1.289886279586699297e-31
9.006562715877169636e-32
6.349540534538319992e-32
4.553673675679117212e-32
3.329961080144370280e-32
2.482378990287027881e-32
1.883338090638557341e-32
1.446489551804488869e-32
1.117065390046407729e-32
8.609176385216376197e-33
