# bin_3_1
5.130408317081954940e-12
5.324779768818642989e-12
5.332494054231560710e-12
5.091576073398000515e-12
4.596350700682314043e-12
3.927861289439221269e-12
3.230863346907227168e-12
2.678501256604980910e-12
2.297234439841287502e-12
1.897487171756164589e-12
1.383533978724173847e-12
1.024624993818195533e-12
7.990274037561713156e-13
5.631312684114696397e-13
4.192806869419821107e-13
3.036893751460988412e-13
2.224149023981542516e-13
1.651389723969479912e-13
1.246036668025179964e-13
9.573003014073086110e-14
7.474526688063302339e-14
5.908665318826671049e-14
4.696377878868966328e-14
3.726311690800866195e-14
2.930982766221108843e-14
2.270677451026183591e-14
1.723272098026725535e-14
1.275958556616960969e-14
9.194402748944460692e-15
6.446129069909945864e-15
4.403695169701421896e-15
