# bin_7_5
8.047851592242223212e-12
8.953418286737252084e-12
9.762186369872800091e-12
1.037840487641677124e-11
1.068534794923514423e-11
1.059133043667773574e-11
9.955186390184618765e-12
8.840701341766447398e-12
7.426956774380196805e-12
6.075898885371669690e-12
5.100447899990197971e-12
4.410418068469171373e-12
3.515301140158477736e-12
2.448958330239268235e-12
1.910378075368937380e-12
1.405952086247213632e-12
9.994167859830603741e-13
7.028150028565043337e-13
5.054605298681363759e-13
3.563015983980949920e-13
2.522855110831412037e-13
1.809471239270892486e-13
1.316934772049398947e-13
9.761451900424626845e-14
7.371972286139578191e-14
5.652922142709774572e-14
4.380984042459487365e-14
3.408451164142359757e-14
2.643047797148571999e-14
2.029097439656561126e-14
1.533723510459761389e-14
