# bin_10_8
1.023098046648980224e-11
1.157421185339562172e-11
1.287883745939905077e-11
1.404037820513881853e-11
1.491965677293456396e-11
1.534690895455124293e-11
1.519281742773005954e-11
1.425113358852484420e-11
1.263016856146652433e-11
1.058724722430252737e-11
8.659615095883470866e-12
7.287349416047324583e-12
6.306591445120084851e-12
4.992444749442927377e-12
3.456366732399298470e-12
2.720123561456344406e-12
1.968651274066933429e-12
1.404944673799593457e-12
9.647157233955138773e-13
6.864793884588904135e-13
4.745638779043029887e-13
3.271827313156597702e-13
2.273585534564393165e-13
1.594131951361982978e-13
1.135462991740571196e-13
8.245122556242936826e-14
6.105451664218549513e-14
4.606545480894628600e-14
3.524966573654204549e-14
2.717996881878424858e-14
2.096027538968624706e-14
