# bin_4_4
1.073264211726613137e-10
1.167185178876080971e-10
1.237320671692433826e-10
1.270039556918039648e-10
1.253917773709927837e-10
1.173598983822388444e-10
1.038190660755614888e-10
8.699801777035196918e-11
7.121969607761283788e-11
5.992905010638606480e-11
5.163891323659318587e-11
4.077513799829121119e-11
2.860088612210445457e-11
2.241152897713766547e-11
1.640012433210991733e-11
1.183395784515940021e-11
8.423988523558089585e-12
6.108874304688673028e-12
4.394146471216633193e-12
3.191596821701066025e-12
2.354725752785187375e-12
1.767066897610445947e-12
1.350022234278414460e-12
1.047042009693473016e-12
8.196523350825375810e-13
6.435158389921724213e-13
5.031388333983340056e-13
3.891503222040910065e-13
2.960597287567326338e-13
2.205362292609774558e-13
1.603036927611245560e-13
