# bin_5_5
8.365945355249477810e-11
9.215906596523672535e-11
9.927096970049678422e-11
1.039464641918212983e-10
1.051348432456732240e-10
1.016606614584547358e-10
9.285220442433337951e-11
8.020057662330318520e-11
6.612095888763904709e-11
5.442618647877133243e-11
4.666088438830966028e-11
3.945459587279921607e-11
2.911975972300318737e-11
2.083767337097280448e-11
1.673001835191242470e-11
1.137787267955426843e-11
8.562107295846624980e-12
5.994395785866587261e-12
4.255166631965725908e-12
3.050036376469357237e-12
2.203633566689453726e-12
1.614950431946905469e-12
1.203230850981854905e-12
9.135571032791524992e-13
7.041802830084070512e-13
5.482062736421030671e-13
4.283404829063168384e-13
3.334782979263326595e-13
2.569942388725416599e-13
1.949340843363400535e-13
1.448879006761232670e-13
