# bin_10_5
8.626637028665883205e-16
9.707550145470079958e-16
1.073282663364292645e-15
1.160908664561342660e-15
1.221564343746734590e-15
1.242131106172808707e-15
1.210077693671767830e-15
1.113615580724445626e-15
9.691012725179521838e-16
8.016553327806411587e-16
6.577337161913663967e-16
5.618953254611078093e-16
4.804123022968174651e-16
3.605116951319046976e-16
2.527290795459169553e-16
2.047912752185253550e-16
1.382105923580056024e-16
1.039760510876580330e-16
7.094460414922070883e-17
4.949501358448455245e-17
3.466880923602412160e-17
2.429130707211915306e-17
1.714364027453972115e-17
1.224584142242942645e-17
8.917940712609230964e-18
6.621154376395949838e-18
5.004320596824344954e-18
3.837005455469882818e-18
2.965394416083625459e-18
2.293410483971872070e-18
1.762187224207565827e-18
