# bin_2_1
-1.273500980006769459e-09
-1.219400402386554486e-09
-1.111803426855380055e-09
-9.661154844758489579e-10
-8.103473473885687635e-10
-6.730099267200862174e-10
-5.628356416001398545e-10
-4.626397174391888348e-10
-3.586848127969356919e-10
-2.668635347626219391e-10
-2.011274793717341722e-10
-1.499833608011521172e-10
-1.099983243443902213e-10
-8.136434574327338696e-11
-6.048925949765011397e-11
-4.560344858885658783e-11
-3.495435649748105783e-11
-2.725418031441889774e-11
-2.155566900579195601e-11
-1.720295542980936886e-11
-1.376102615787864873e-11
-1.095439755987982146e-11
-8.620636800068908911e-12
-6.668508115848462609e-12
-5.047716943077874026e-12
-3.727472136827994604e-12
-2.681518883469997697e-12
-1.879651147101257655e-12
-1.285882409813104061e-12
-8.607030934409029682e-13
-5.653683301074296059e-13
