# bin_4_11
-3.757212438353979602e-18
-4.252706894190693220e-18
-4.735135365971935879e-18
-5.166317761922159059e-18
-5.495347427761029677e-18
-5.659887274714871842e-18
-5.611873319400775891e-18
-5.275050752290678276e-18
-4.684279330679294915e-18
-3.934008143727956271e-18
-3.218351087229491169e-18
-2.703688930996202001e-18
-2.339996536299339841e-18
-1.862646896180178876e-18
-1.292632076958844723e-18
-1.010217565495633442e-18
-7.381188955124223026e-19
-5.224221645347555343e-19
-3.613871405639885647e-19
-2.567800659476149555e-19
-1.772308272672879467e-19
-1.220109603886173918e-19
-8.462158226101748097e-20
-5.921188491628882046e-20
-4.206495449240622225e-20
-3.046127788515874847e-20
-2.249515048965043752e-20
-1.693210910612099078e-20
-1.293382018631953297e-20
-9.963200835682419944e-21
-7.682189833983575753e-21
