# bin_10_1
-3.296716012936077559e-09
-3.218915312586015865e-09
-3.000014457248856301e-09
-2.661529824228871582e-09
-2.263799894832951730e-09
-1.883927079517560915e-09
-1.570969673149612587e-09
-1.306486539772577027e-09
-1.041867449107778233e-09
-7.854308677553890500e-10
-5.870284905166008481e-10
-4.414418723413526987e-10
-3.246041204507662288e-10
-2.388011560782480422e-10
-1.764760865031340778e-10
-1.316974421815316919e-10
-9.973708773231722775e-11
-7.682068472058361130e-11
-6.011863200658280047e-11
-4.761767986914931784e-11
-3.795162931320600544e-11
-3.022638437596111238e-11
-2.389130636241499611e-11
-1.862575518170237393e-11
-1.424853437416717511e-11
-1.065446221837397461e-11
-7.769389405114883368e-12
-5.520834702596617181e-12
-3.825670790315905614e-12
-2.590258281366149334e-12
-1.718202926026925103e-12
