# bin_11_5
-6.708567268594629201e-10
-7.379970690887781598e-10
-7.936337417989321215e-10
-8.293958712991773734e-10
-8.369845580182378807e-10
-8.071666798019450561e-10
-7.362039946337334337e-10
-6.353284717265694660e-10
-5.250569093619958332e-10
-4.336644856651367085e-10
-3.706496296722016750e-10
-3.104114967280340738e-10
-2.304959923975397893e-10
-1.671000424865205284e-10
-1.308479543784057790e-10
-9.159622191108893038e-11
-6.729237606331175400e-11
-4.753861830443672405e-11
-3.391459652663001646e-11
-2.427956108414664515e-11
-1.754224595030431925e-11
-1.286151430626452782e-11
-9.587818545063740125e-12
-7.278249856223562259e-12
-5.606900030797252796e-12
-4.360503192304097049e-12
-3.402197197771658413e-12
-2.644388296974399938e-12
-2.034353878308183981e-12
-1.540452401020611565e-12
-1.143161956324787009e-12
