# bin_1_8
-1.906911265951781973e-19
-2.109977378793216151e-19
-2.285288167295510447e-19
-2.409476374582732971e-19
-2.456710879638745252e-19
-2.402858139527532977e-19
-2.223654971016659153e-19
-1.945659849781697729e-19
-1.617445334905677700e-19
-1.326724818096924893e-19
-1.126676913650084933e-19
-9.642005465542725395e-20
-7.379055254555732708e-20
-5.192830819843487170e-20
-4.134765848260044700e-20
-2.904443182875005611e-20
-2.139271922463857159e-20
-1.493114837599398938e-20
-1.066444289029478160e-20
-7.590129812282462974e-21
-5.434986936980400781e-21
-3.943482909074605121e-21
-2.906184062617088124e-21
-2.182620668232033356e-21
-1.667170579575985269e-21
-1.289415033121155166e-21
-1.004109434408536751e-21
-7.817335154959662923e-22
-6.042804910186861141e-22
-4.609520441036300916e-22
-3.452938092394476000e-22
