# bin_3_12
-1.815503524565962415e-21
-2.060386074042676002e-21
-2.301719975741444158e-21
-2.521512644252402841e-21
-2.695671593978199788e-21
-2.794042722052157815e-21
-2.792033688485575374e-21
-2.651635565249219458e-21
-2.377548428675249200e-21
-2.015056532674605716e-21
-1.650144457221258662e-21
-1.375004426112062476e-21
-1.190382136783239858e-21
-9.721693854441356151e-22
-6.826386764282257818e-22
-5.165802142804643459e-22
-3.940118719243449955e-22
-2.690677296645859412e-22
-1.922766189784693867e-22
-1.355651204707329978e-22
-9.290452724536142267e-23
-6.358616612764276439e-23
-4.371119553427566901e-23
-3.028712193269494448e-23
-2.124464972340640163e-23
-1.517636536167104058e-23
-1.105544350287677807e-23
-8.220396085361975707e-24
-6.221817591109145567e-24
-4.767852553810368314e-24
-3.672796128749086506e-24
