# bin_10_3
-1.356717424636195680e-09
-1.445368494180396734e-09
-1.494049312827679342e-09
-1.487861977502270651e-09
-1.412139741383197075e-09
-1.268707341102244838e-09
-1.081768963934883282e-09
-8.929973329181472186e-10
-7.439504282474699651e-10
-6.335699715151242760e-10
-5.153431424456672512e-10
-3.794257205558505985e-10
-2.826244999768098255e-10
-2.154530298095115697e-10
-1.542309941603803546e-10
-1.128426386517032468e-10
-8.135413520477445235e-11
-5.911825301513243381e-11
-4.336627500135717358e-11
-3.227591446729768037e-11
-2.443471597277192683e-11
-1.880676714452419098e-11
-1.467661503367137765e-11
-1.154491574396631723e-11
-9.092583888463075965e-12
-7.121400693532626512e-12
-5.510742584602236754e-12
-4.190254730817424472e-12
-3.117321849077573404e-12
-2.262350342915777391e-12
-1.599714335768210687e-12
