# bin_11_8
-2.067686999695178771e-10
-2.323630954193586980e-10
-2.564878904108093973e-10
-2.768786394010689380e-10
-2.906256305777193605e-10
-2.947214801723420652e-10
-2.860002734410607583e-10
-2.622842842424781374e-10
-2.274528967900959263e-10
-1.880496814296775760e-10
-1.547157746184882301e-10
-1.323051891735658230e-10
-1.122140035819306567e-10
-8.366645317498052795e-11
-5.949385715126944262e-11
-4.748334609838018951e-11
-3.244752179887242932e-11
-2.405040589066994751e-11
-1.658961757010454234e-11
-1.160956031706939118e-11
-8.123138147807873433e-12
-5.695028585761814249e-12
-4.030053638480168089e-12
-2.889098395626152621e-12
-2.111104280020645637e-12
-1.572147572195939648e-12
-1.190957868906944382e-12
-9.141772675774408732e-13
-7.064248255737617265e-13
-5.456389157976441307e-13
-4.183326899143731282e-13
