# bin_6_9
-1.014913628121752204e-12
-1.138588121962376732e-12
-1.254186813221548586e-12
-1.350403695668131768e-12
-1.412830655777572559e-12
-1.427345912085171785e-12
-1.377511548371618971e-12
-1.255477758353717940e-12
-1.082019122243096045e-12
-8.913139166626738490e-13
-7.348566023701781212e-13
-6.311955508373007840e-13
-5.317135951167652257e-13
-3.894374021110259805e-13
-2.799949284809236086e-13
-2.235045539230111968e-13
-1.507769550112681789e-13
-1.124741603735368545e-13
-7.800175761970038869e-14
-5.436798489705638079e-14
-3.814162472242004841e-14
-2.685102627029952445e-14
-1.910097616897971700e-14
-1.378158915450996998e-14
-1.014117688247818860e-14
-7.602575492984928769e-15
-5.792414409510772705e-15
-4.464614534950805606e-15
-3.457435370753574443e-15
-2.670797051432190059e-15
-2.044074239032158514e-15
