# bin_11_12
-7.354367128985631498e-12
-8.372335231761614158e-12
-9.390402752259470526e-12
-1.033734476130123109e-11
-1.111843368580159991e-11
-1.161345415104705508e-11
-1.170915150172152007e-11
-1.126134383559701198e-11
-1.022102941719574660e-11
-8.770517342779511916e-12
-7.206261707275950748e-12
-5.952074984435218841e-12
-5.133264587485036940e-12
-4.302975545107107289e-12
-3.102132654747041452e-12
-2.250196981594850627e-12
-1.791903448185168201e-12
-1.188697845712472615e-12
-8.836376413726165916e-13
-6.093796053639987370e-13
-4.150283915479871808e-13
-2.838647160028717044e-13
-1.934583032452317375e-13
-1.324744370865958920e-13
-9.145916794316055926e-14
-6.418047054370284179e-14
-4.587692977666695837e-14
-3.349368210766444080e-14
-2.496666793303819232e-14
-1.893236675758155541e-14
-1.451441461176401119e-14
