# bin_1_14
-6.119290883984475300e-29
-6.978661950176212469e-29
-7.845229470533966669e-29
-8.660431286934532005e-29
-9.346952583147763861e-29
-9.805706377371455642e-29
-9.935155523793198741e-29
-9.624926873902812217e-29
-8.802009918006607451e-29
-7.611213500762428153e-29
-6.274564901740703959e-29
-5.162063527895206466e-29
-4.432090260966156452e-29
-3.759780689846995998e-29
-2.766533340127403795e-29
-1.963561674965871469e-29
-1.585579562154474054e-29
-1.051070850072387679e-29
-7.891182396339013182e-30
-5.368607993807322366e-30
-3.657967583909646035e-30
-2.503852197930144770e-30
-1.702391001074146947e-30
-1.158430735833377950e-30
-7.924450725427108071e-31
-5.500402620338979095e-31
-3.884072151593813638e-31
-2.800058415590646279e-31
-2.063327551573628523e-31
-1.550515483070421318e-31
-1.182008759782446314e-31
