# bin_3_15
-4.106806120472394408e-25
-4.692599916156912480e-25
-5.288315860758013514e-25
-5.855225731860737529e-25
-6.342602364420148278e-25
-6.684579867237860816e-25
-6.808008670767798156e-25
-6.646269513576636392e-25
-6.129257494775219878e-25
-5.344585952288607685e-25
-4.425713486945397309e-25
-3.629325033146799122e-25
-3.097962480222836484e-25
-2.654988045226883030e-25
-1.999961563387720577e-25
-1.394911063433182857e-25
-1.130716474975754779e-25
-7.600687356698968163e-26
-5.690483772556996255e-26
-3.824143989704139926e-26
-2.622814253437649974e-26
-1.793931464166901677e-26
-1.216810423070310578e-26
-8.228957841443631768e-27
-5.576684363476999995e-27
-3.825317604910883837e-27
-2.664612548095333425e-27
-1.892727882026168818e-27
-1.374980480797104327e-27
-1.020820973708020964e-27
-7.716063622711831411e-28
