# bin_10_9
-8.190867554567938783e-11
-9.236179505489939609e-11
-1.023719418102215168e-10
-1.110721043314942820e-10
-1.173288117480520649e-10
-1.198565020825141326e-10
-1.175197869511002212e-10
-1.090126272964084026e-10
-9.559564168108302497e-11
-7.954503201551186026e-11
-6.519828918075245025e-11
-5.533380184872924400e-11
-4.751644911027611305e-11
-3.650063322976855041e-11
-2.549461021584268923e-11
-2.034471523365642718e-11
-1.419803627836824535e-11
-1.040814834917806367e-11
-7.133678218721953745e-12
-5.021149205650633342e-12
-3.495551152975296206e-12
-2.432038557733123912e-12
-1.704963645607611498e-12
-1.208291005702042594e-12
-8.716974513515001850e-13
-6.411805133254480905e-13
-4.804769036659225214e-13
-3.659184898529131372e-13
-2.815938199224175455e-13
-2.174591193469630412e-13
-1.672892158541682719e-13
