# bin_13_4
-1.073259506848331812e-09
-1.165974796320835814e-09
-1.234578283686537899e-09
-1.266021649139686096e-09
-1.247782103698919524e-09
-1.167728057001265036e-09
-1.033565481340765997e-09
-8.691966636025239420e-10
-7.146034462312263252e-10
-6.006878506559315383e-10
-5.128110751359237056e-10
-4.052565750056719243e-10
-2.909604615474049915e-10
-2.228643493926789379e-10
-1.652176635268236298e-10
-1.182774717081877070e-10
-8.545661495844875224e-11
-6.138119768381865621e-11
-4.415668076129542677e-11
-3.209008660485862697e-11
-2.365479617979583885e-11
-1.772955012833050156e-11
-1.351988404311351285e-11
-1.046431863257722604e-11
-8.175038364690733865e-12
-6.405620988353221138e-12
-4.999732697447437443e-12
-3.861801812915123700e-12
-2.935328892002078651e-12
-2.185701318732941844e-12
-1.589325043593771735e-12
