# bin_13_14
-6.540949745991999507e-12
-7.479525590371652024e-12
-8.436954158937836651e-12
-9.351959000851519731e-12
-1.014448133552977611e-11
-1.070999210672465818e-11
-1.092920866843728562e-11
-1.070027403252761167e-11
-9.900100631176417229e-12
-8.660225695460554055e-12
-7.185118913829129966e-12
-5.886648135368777532e-12
-5.012554018343404560e-12
-4.309401570288550781e-12
-3.275954062573565269e-12
-2.273900085524415103e-12
-1.840483062462651261e-12
-1.248557050765825457e-12
-9.304283265574420995e-13
-6.229254644917988711e-13
-4.291522697148678558e-13
-2.932385625123078444e-13
-1.986409479024326035e-13
-1.340377268560370893e-13
-9.053025575230562579e-14
-6.182198830938659328e-14
-4.283646645015797484e-14
-3.024815047509283924e-14
-2.184409329668473920e-14
-1.613238924239445353e-14
-1.214569120668581561e-14
