# bin_10_15
-2.170129548330135001e-15
-2.480041997744893190e-15
-2.795419858529915498e-15
-3.095808097170949606e-15
-3.354449124794544793e-15
-3.536563491200553395e-15
-3.603231618787503121e-15
-3.519677860337641167e-15
-3.247782874081436130e-15
-2.833679558008463066e-15
-2.347024475346181360e-15
-1.924095996892030992e-15
-1.641829106096132149e-15
-1.408404164498962893e-15
-1.062500650182184557e-15
-7.397671409517427461e-16
-6.003290499586434821e-16
-4.034313398213932485e-16
-3.023686157133564874e-16
-2.028831142498928595e-16
-1.391202804563573939e-16
-9.518023670637577473e-17
-6.457442264187051970e-17
-4.365112852522858477e-17
-2.956115402471458732e-17
-2.026053210010628011e-17
-1.409932230177107121e-17
-1.000459664639966263e-17
-7.260708552692158200e-18
-5.386195764096962904e-18
-4.069182354599010651e-18
