# bin_8_4
-7.295080548158842956e-10
-7.932198562569383212e-10
-8.407445168985971433e-10
-8.630076761655282790e-10
-8.518328755226545151e-10
-7.976842890613360816e-10
-7.061423568106333752e-10
-5.928326267310819357e-10
-4.861280070078005706e-10
-4.087538559427722979e-10
-3.509655564935643228e-10
-2.775268432067908010e-10
-1.966652250451373663e-10
-1.523844013107102820e-10
-1.123783207398430870e-10
-8.060621435586095005e-11
-5.792521728920702077e-11
-4.177582862575805462e-11
-3.002916834571876359e-11
-2.181291005143207080e-11
-1.608138698612071094e-11
-1.205713917047402028e-11
-9.200741843091429215e-12
-7.127765380762088232e-12
-5.573955247812857210e-12
-4.372170995713871275e-12
-3.416067940657137992e-12
-2.640956630359459252e-12
-2.008811319661605091e-12
-1.496482743946468592e-12
-1.088222665063071538e-12
