# bin_2_9
-1.701559762350211433e-24
-1.897655574658627009e-24
-2.075278105463349430e-24
-2.214514691311670461e-24
-2.290620859124686160e-24
-2.283656093230428054e-24
-2.162778482482750759e-24
-1.934431570745233127e-24
-1.635823973545229297e-24
-1.339082387689479620e-24
-1.117461116286152598e-24
-9.667775717088138755e-25
-7.851710873452067753e-25
-5.511017717801371092e-25
-4.202924193739849168e-25
-3.187632648019486777e-25
-2.209545274031094816e-25
-1.585365297554999726e-25
-1.134463724699102544e-25
-7.953000074017611746e-26
-5.605690657645046163e-26
-3.996547447078931117e-26
-2.890644190767273018e-26
-2.127527524059633833e-26
-1.596415575110750223e-26
-1.217664227167091494e-26
-9.402808080351696077e-27
-7.304499462725880500e-27
-5.667344978253344178e-27
-4.361311108234769196e-27
-3.309348670484114600e-27
