# bin_8_6
-2.439537321322209733e-10
-2.709509726560639800e-10
-2.948239770395847649e-10
-3.126443583964511896e-10
-3.209515263283959016e-10
-3.168469082871481453e-10
-2.964364534864474445e-10
-2.621148934482720125e-10
-2.195383263436072868e-10
-1.797551445254449480e-10
-1.514253873844233948e-10
-1.305296695737259299e-10
-1.027858162038408158e-10
-7.187174279354521652e-11
-5.640002438697865361e-11
-4.090945834898668103e-11
-2.941628958453917750e-11
-2.066278103046934236e-11
-1.480187227343222043e-11
-1.046555796906054687e-11
-7.438450773968553152e-12
-5.353222027790829073e-12
-3.910276980221536465e-12
-2.909643675244623127e-12
-2.204822836285863562e-12
-1.694964553050409536e-12
-1.315401485623855092e-12
-1.023512270797351831e-12
-7.928353132112151842e-13
-6.074306267039291802e-13
-4.578490634182787010e-13
