# bin_2_8
-6.525570527678865102e-22
-7.236185850101672450e-22
-7.858264498876583593e-22
-8.312673026486045756e-22
-8.507106160244666937e-22
-8.364932774977658358e-22
-7.784930887572187476e-22
-6.848971597136699058e-22
-5.709608268139370509e-22
-4.673312061186353839e-22
-3.954109744037083156e-22
-3.406706889012876654e-22
-2.644396126209575887e-22
-1.840428025752133162e-22
-1.468680847590665797e-22
-1.040034460397928296e-22
-7.633793008120418431e-23
-5.288757997606915476e-23
-3.794293495155603740e-23
-2.694840639574707207e-23
-1.923214114376003394e-23
-1.390237866072916854e-23
-1.020090241967626556e-23
-7.628848240493328189e-24
-5.806958923049988938e-24
-4.480328076218926213e-24
-3.485375171122324468e-24
-2.714520239069202243e-24
-2.101756169596743158e-24
-1.607495987869010827e-24
-1.208319633215676532e-24
