# bin_5_4
-2.866346244546949823e-10
-3.107416486679487833e-10
-3.281342854107176054e-10
-3.353020488398051605e-10
-3.290010962562347696e-10
-3.058135689920852650e-10
-2.687673263848914434e-10
-2.243045906613930582e-10
-1.839478648940592281e-10
-1.555037278131337599e-10
-1.331843279598456964e-10
-1.034251290786320712e-10
-7.309196252442617347e-11
-5.750670844173079997e-11
-4.148138189291359679e-11
-3.023661086024185028e-11
-2.152598710089119905e-11
-1.557744286080477043e-11
-1.124438648468443462e-11
-8.201617748387343397e-12
-6.077568076180347982e-12
-4.580877519721068586e-12
-3.513895518085181290e-12
-2.733351972321497683e-12
-2.143221476120758112e-12
-1.682938996481641512e-12
-1.314158897080170272e-12
-1.013890457183318725e-12
-7.686293122645124580e-13
-5.700722134379053597e-13
-4.123878894157627337e-13
