# bin_5_10
-3.283835337457210489e-17
-3.695180182432935992e-17
-4.085291775190553461e-17
-4.418610694816651125e-17
-4.649188604866167897e-17
-4.727196503528044757e-17
-4.604682114979529159e-17
-4.237183345300033552e-17
-3.686928831973055535e-17
-3.049754368035330214e-17
-2.502360591823817562e-17
-2.137856940644471727e-17
-1.827575650301212660e-17
-1.371088021409048382e-17
-9.614493869948387116e-18
-7.789435151214718716e-18
-5.257099056041702571e-18
-3.954469204756086119e-18
-2.698806662638961471e-18
-1.882886822459773178e-18
-1.318882237644423862e-18
-9.241410059362449221e-19
-6.522935819870945388e-19
-4.659786419518130232e-19
-3.393916282326125007e-19
-2.520108639576737539e-19
-1.904859776948248134e-19
-1.460583141831886913e-19
-1.128785917552667326e-19
-8.729404677300046564e-20
-6.706716883785581316e-20
