# bin_5_12
-9.584525510429970889e-21
-1.084668507554962737e-20
-1.207528383342412078e-20
-1.317321513991887474e-20
-1.401092841426426314e-20
-1.442934727683275756e-20
-1.430754323442841287e-20
-1.344942597515180988e-20
-1.194326027886098309e-20
-1.002868574464062155e-20
-8.200647580855500674e-21
-6.885504810296960366e-21
-5.960174855256142232e-21
-4.747922246003718471e-21
-3.290559272090360839e-21
-2.571316835757819035e-21
-1.880541868405624302e-21
-1.329315064174679834e-21
-9.182011004903394182e-22
-6.534238931718891946e-22
-4.507348945795687419e-22
-3.100045768033940535e-22
-2.149046237571605988e-22
-1.502908516266665844e-22
-1.067037883520967440e-22
-7.722451354494479786e-23
-5.700017024909852306e-23
-4.288846062397438771e-23
-3.275457537831658805e-23
-2.523099771067704324e-23
-1.945684205246379348e-23
