# bin_13_2
-2.282481690376004090e-09
-2.365234514120019686e-09
-2.363684311497041625e-09
-2.254100311260863381e-09
-2.035398584579353870e-09
-1.743103641688347792e-09
-1.440298583147151910e-09
-1.195979969068133178e-09
-1.017714354744987307e-09
-8.354429059931678208e-10
-6.203012714063498229e-10
-4.588903270882464125e-10
-3.525588001503818495e-10
-2.536148592033642251e-10
-1.865557664882117930e-10
-1.354325692770405919e-10
-9.938948419275867826e-11
-7.372337862690557175e-11
-5.556589385203813570e-11
-4.262814818506351853e-11
-3.322898112797889416e-11
-2.621769741141350248e-11
-2.080088486354485361e-11
-1.647710755492565704e-11
-1.294215190283613497e-11
-1.001635828905440138e-11
-7.597936022295841527e-12
-5.626804174233043025e-12
-4.058609928909815141e-12
-2.850076520412418278e-12
-1.950938779382583291e-12
