# bin_10_13
-2.809137435703520642e-13
-3.200137171897232414e-13
-3.592729308585044318e-13
-3.959906173478126563e-13
-4.265916471661033503e-13
-4.465210541673872209e-13
-4.512863063829567898e-13
-4.356244087676496393e-13
-3.968559411693480696e-13
-3.418380615721923185e-13
-2.812337974582625234e-13
-2.316768608131911054e-13
-1.993251370815657747e-13
-1.682073233978140532e-13
-1.225045441875231655e-13
-8.771581695643367943e-14
-7.052595083548014922e-14
-4.660331492909953052e-14
-3.491899083355899143e-14
-2.389461102445075893e-14
-1.625464750493348209e-14
-1.112056728664822119e-14
-7.564266141834819520e-15
-5.159767896804677299e-15
-3.543032548310383636e-15
-2.470763461952825671e-15
-1.754041493354070443e-15
-1.271690179870493819e-15
-9.420761257034823158e-16
-7.110066473526053854e-16
-5.435727138761942564e-16
