# bin_1_15
-8.330894764607293640e-44
-9.483856481880108501e-44
-1.063772366929685375e-43
-1.171203665251537551e-43
-1.259998943892276488e-43
-1.316598165230922941e-43
-1.328072162852635571e-43
-1.278329350877743641e-43
-1.161195918447866550e-43
-9.972547698960300129e-44
-8.194979177297873274e-44
-6.762196104792392710e-44
-5.827125114716944533e-44
-4.893123020109537416e-44
-3.536607741808496623e-44
-2.555491516792985049e-44
-2.040501708787610171e-44
-1.351527955005173928e-44
-1.006956120944413310e-44
-6.927751933979440727e-45
-4.715558906756335467e-45
-3.224670269893256543e-45
-2.195790553936294198e-45
-1.501569916134617940e-45
-1.034814082324318265e-45
-7.247001048831064766e-46
-5.168983471733407443e-46
-3.765602209717841272e-46
-2.801618392332631264e-46
-2.121445421265813992e-46
-1.625028355660112702e-46
