# bin_8_1
-3.168448731532770723e-09
-3.102493671639796763e-09
-2.893841132419952322e-09
-2.561726684913504641e-09
-2.167359561876415331e-09
-1.795049486340009433e-09
-1.501451361488938006e-09
-1.258934055691997468e-09
-1.000481632953729893e-09
-7.437808847093371108e-10
-5.580457593008000316e-10
-4.207344236414214683e-10
-3.069400622344450341e-10
-2.263401326425607910e-10
-1.668680829104762324e-10
-1.245571939998050469e-10
-9.438551125658922552e-11
-7.279785565235089059e-11
-5.708175763953701502e-11
-4.531566894231188684e-11
-3.620330244872965095e-11
-2.889630754474424412e-11
-2.287997033369856113e-11
-1.785775294990637390e-11
-1.366567396956673942e-11
-1.021244778125073701e-11
-7.435456991075984771e-12
-5.271029090686275371e-12
-3.642094488301958924e-12
-2.458498276687388965e-12
-1.626080233394971827e-12
