# bin_15_7
-4.581913904673120012e-10
-5.129849750697445135e-10
-5.637120790926706232e-10
-6.051986916011926350e-10
-6.309083211021352496e-10
-6.347905391278507096e-10
-6.091474726933701890e-10
-5.519847195368200358e-10
-4.729824552346585576e-10
-3.886925794415637968e-10
-3.213799398201267553e-10
-2.766685161062870565e-10
-2.307944414046990549e-10
-1.668244948356052096e-10
-1.217779313261080915e-10
-9.607862767301182252e-11
-6.502739916614780641e-11
-4.813288464378920064e-11
-3.365809956095893453e-11
-2.346517953623602008e-11
-1.647907653196731656e-11
-1.163687220468644056e-11
-8.314783550806449669e-12
-6.032175522016540166e-12
-4.463493394132522301e-12
-3.363082773157560431e-12
-2.572685919421355500e-12
-1.987811737295769573e-12
-1.540445520402146460e-12
-1.188743275021094028e-12
-9.075261754300940181e-13
