# bin_3_9
-1.035752101434069732e-20
-1.156733881915588014e-20
-1.267258299631066110e-20
-1.355376951487531014e-20
-1.406127658434781974e-20
-1.406924571972466598e-20
-1.339172102472227242e-20
-1.203476244331163363e-20
-1.022469007907127961e-20
-8.375465555394440923e-21
-6.959703646908657034e-21
-6.015620786358039171e-21
-4.943571802961739474e-21
-3.498150625173853676e-21
-2.621441690168350545e-21
-2.027171776140956688e-21
-1.383127773394920528e-21
-1.007998254946003202e-21
-7.160283628532689928e-22
-5.000553236472264407e-22
-3.516245855161371556e-22
-2.495779292768683444e-22
-1.796438765076399063e-22
-1.314907686204986525e-22
-9.815495826224151608e-23
-7.453983423768923598e-23
-5.737729147324430368e-23
-4.450186910898686135e-23
-3.452711928568472401e-23
-2.660813526288874692e-23
-2.024230400534343779e-23
