# bin_8_2
-1.915782069216813913e-09
-1.983768276039230362e-09
-1.980644286460912071e-09
-1.886592483121666392e-09
-1.701445492636857532e-09
-1.455511040172843889e-09
-1.202189673536622228e-09
-9.988126326581404710e-10
-8.500855404836360566e-10
-6.965286336464101159e-10
-5.162123146628950449e-10
-3.825084754592520051e-10
-2.936010191836662522e-10
-2.111287431657975005e-10
-1.553462882177694501e-10
-1.128040330324560558e-10
-8.281233714749331608e-11
-6.146555144935393113e-11
-4.636037928708705593e-11
-3.559163599142172760e-11
-2.776168223972490116e-11
-2.191416280227784942e-11
-1.739057986231021609e-11
-1.377568222966408635e-11
-1.081782618202550583e-11
-8.368663693398228034e-12
-6.344264820318770675e-12
-4.694976814427387808e-12
-3.383813956749957534e-12
-2.374346734323187826e-12
-1.624106814624474070e-12
