# bin_13_11
-8.219771664620343137e-11
-9.346263675949207668e-11
-1.046736096986594877e-10
-1.150301940224870710e-10
-1.234660266530625393e-10
-1.286341796701674518e-10
-1.293216993279847683e-10
-1.238837113631355391e-10
-1.120071993711906968e-10
-9.573596113630514627e-11
-7.855434911116252720e-11
-6.502405625067959285e-11
-5.613764867768961013e-11
-4.670666100573887993e-11
-3.339297248323462000e-11
-2.451164354318656982e-11
-1.928625410764550891e-11
-1.288512194927372113e-11
-9.473199430515792326e-12
-6.574706908928776747e-12
-4.483986297163485442e-12
-3.065568604851100295e-12
-2.093322418071918888e-12
-1.437756824749476870e-12
-9.968111045455231640e-13
-7.029066636109322118e-13
-5.051078127420842259e-13
-3.707073921918784953e-13
-2.775707227811666780e-13
-2.111494236722981344e-13
-1.621189134206564880e-13
