# bin_13_7
-3.964026735511380677e-10
-4.437516376223314800e-10
-4.875582144127990926e-10
-5.233412776410362880e-10
-5.454428906448248015e-10
-5.486471712306625341e-10
-5.262752136313478385e-10
-4.766954099448616322e-10
-4.083020092748409863e-10
-3.354852475966916454e-10
-2.774510578658786468e-10
-2.388967458844864432e-10
-1.991452994317360501e-10
-1.438061270573491936e-10
-1.050959382676470296e-10
-8.284813117553044389e-11
-5.608543585717100059e-11
-4.149212169348489657e-11
-2.903277549271084086e-11
-2.024104882790837006e-11
-1.421633206547143213e-11
-1.004157582116503813e-11
-7.177438450083216544e-12
-5.209288761946062834e-12
-3.856260007049553439e-12
-2.906683611985507346e-12
-2.224241300925365664e-12
-1.718913563004915640e-12
-1.332148203326213508e-12
-1.027938467595726894e-12
-7.846289906782682129e-13
