# bin_13_12
-4.347671366418897410e-11
-4.954020651237542713e-11
-5.563523182742847067e-11
-6.134447210460822141e-11
-6.611617422695554968e-11
-6.924613934003666370e-11
-7.003189986412721009e-11
-6.767099021398105228e-11
-6.171931307479990593e-11
-5.322494772140713819e-11
-4.381656504922525785e-11
-3.607946666894707643e-11
-3.101471485953364188e-11
-2.620987570751449495e-11
-1.915551289161597468e-11
-1.367880333921164767e-11
-1.100429292404469508e-11
-7.286015353259469892e-12
-5.457530254400001288e-12
-3.727110481526286740e-12
-2.537246643829854230e-12
-1.735971862378012860e-12
-1.180745296127780857e-12
-8.047223277730245107e-13
-5.518389059143422586e-13
-3.841998466334157842e-13
-2.722451894380821303e-13
-1.969904889196412092e-13
-1.456599760995325737e-13
-1.097615790276052759e-13
-8.382232274732783422e-14
