# bin_14_8
-3.176347293165973846e-10
-3.575358593496463056e-10
-3.954578379605869663e-10
-4.279902075464006257e-10
-4.507123487931562168e-10
-4.587809773286122128e-10
-4.476491988999656457e-10
-4.128664500037061803e-10
-3.600415767603976269e-10
-2.983699344868210197e-10
-2.447227092129238789e-10
-2.085265274000909977e-10
-1.783551694005313360e-10
-1.348730561453558238e-10
-9.455294831935312952e-11
-7.601583579247312792e-11
-5.203987281172187274e-11
-3.867514403058184045e-11
-2.644742347323952660e-11
-1.852982793077214995e-11
-1.294174395213177652e-11
-9.040485545732745905e-12
-6.364939197776759123e-12
-4.534068307553821143e-12
-3.291046057276070842e-12
-2.435492060135887249e-12
-1.835224539878227589e-12
-1.403694063474536671e-12
-1.083025146299379235e-12
-8.369389838557754232e-13
-6.431197258203045050e-13
