# bin_5_13
-1.184280465150032277e-22
-1.343557490318020621e-22
-1.500370817254520456e-22
-1.642997740061253558e-22
-1.755740497627125362e-22
-1.818955602423551453e-22
-1.816792643015394618e-22
-1.724370278921527555e-22
-1.545138968869465108e-22
-1.308614543517358913e-22
-1.071093833386656571e-22
-8.924275966882155167e-23
-7.726618293112700472e-23
-6.305588141920286711e-23
-4.419392720615229466e-23
-3.348688289989829069e-23
-2.551166765092379484e-23
-1.741977805838654408e-23
-1.242703730223478539e-23
-8.773778437947908434e-24
-6.011640774026427313e-24
-4.111550004473366411e-24
-2.826048452841845631e-24
-1.958224246943886143e-24
-1.373791432952799385e-24
-9.816128634757259807e-25
-7.152887363213069502e-25
-5.320525198173813132e-25
-4.028395985554259803e-25
-3.087922566533455847e-25
-2.379163404867247818e-25
