# bin_2_4
-7.047544584984836482e-13
-7.522198302813705972e-13
-7.790184231256869326e-13
-7.779783506173689964e-13
-7.395822911728144714e-13
-6.643605557457644780e-13
-5.647549346186799291e-13
-4.632870580971219293e-13
-3.850205876286616689e-13
-3.313175776613494756e-13
-2.715370518225821509e-13
-1.948855575754357879e-13
-1.459962973692692611e-13
-1.129105486867334935e-13
-7.898135623505467858e-14
-5.838097065799078864e-14
-4.214516873300071910e-14
-3.049248239169374195e-14
-2.236261661763165133e-14
-1.665018548593466223e-14
-1.261736802719271986e-14
-9.725264385955389229e-15
-7.604586846315839471e-15
-5.994453420539485789e-15
-4.731112196498764009e-15
-3.712754045336080278e-15
-2.877718906642364967e-15
-2.190673975844531048e-15
-1.630468574786777510e-15
-1.182617871192960293e-15
-8.348646745861882880e-16
