# bin_1_9
-4.777259145646002069e-29
-5.319693790344097333e-29
-5.807144176167472120e-29
-6.183322937275885589e-29
-6.378951456457119139e-29
-6.339286456755283712e-29
-5.979183323350025254e-29
-5.327075928457209452e-29
-4.488355589527148328e-29
-3.671680524680319086e-29
-3.072249734867656694e-29
-2.657049961846478239e-29
-2.137377152667671281e-29
-1.493427051148993427e-29
-1.152052141250048844e-29
-8.605090300919707127e-30
-6.038344818503248145e-30
-4.285638257106578895e-30
-3.075538914020512856e-30
-2.161364519884149065e-30
-1.526281805622003436e-30
-1.091149289917069193e-30
-7.914965261384773404e-31
-5.845069913215728563e-31
-4.399454279004555245e-31
-3.364290493025628420e-31
-2.602428121169824882e-31
-2.023063199871019073e-31
-1.569074059999172765e-31
-1.205910535515387948e-31
-9.131501641480265177e-32
