# bin_13_9
-1.979680038333387718e-10
-2.237775165860963568e-10
-2.487774135843395314e-10
-2.709350115648917661e-10
-2.875575200867495876e-10
-2.954093947607257654e-10
-2.919288615517534329e-10
-2.733199087427295736e-10
-2.418071389650469139e-10
-2.024715563514793236e-10
-1.656464220521749152e-10
-1.395255323612843814e-10
-1.205278081334797032e-10
-9.496979567989576723e-11
-6.592956483617196799e-11
-5.189969764067702315e-11
-3.736555867495069088e-11
-2.675362384999645001e-11
-1.842288266334032410e-11
-1.304727051711073896e-11
-9.027099177034735166e-12
-6.233296682653323631e-12
-4.334719922850964866e-12
-3.042686411917076959e-12
-2.170267268284529999e-12
-1.578178944718513026e-12
-1.170145063658189369e-12
-8.836828123897365162e-13
-6.764675656047257473e-13
-5.215004364645789901e-13
-4.018610672760247604e-13
