# bin_1_3
-5.790282747732696339e-13
-5.999403151083354837e-13
-5.995806249237463200e-13
-5.710454796655571369e-13
-5.142365237086700404e-13
-4.384859322881313148e-13
-3.604561389317016654e-13
-2.991741440253438543e-13
-2.565188285350984990e-13
-2.108933529270538114e-13
-1.533693984102751989e-13
-1.140941473551423658e-13
-8.852212581248563619e-14
-6.255127433941224506e-14
-4.647069144112047113e-14
-3.370417272158575938e-14
-2.470010443645646990e-14
-1.835556599582492854e-14
-1.386561383150189591e-14
-1.066427363336722375e-14
-8.334401891750878708e-15
-6.592174698562663808e-15
-5.240415643699664619e-15
-4.156775273363323196e-15
-3.267269662102948557e-15
-2.528513163015826643e-15
-1.916362494197248623e-15
-1.416761388437725582e-15
-1.019288002501171466e-15
-7.135387516048382952e-16
-4.868003171618346412e-16
