# bin_12_6
-5.046901087697408049e-10
-5.610533438692077610e-10
-6.112130141944419830e-10
-6.491682071832747875e-10
-6.677368997586153137e-10
-6.609401338763425285e-10
-6.205164727295546101e-10
-5.504944622370539701e-10
-4.624100843597026746e-10
-3.785641547702490181e-10
-3.178920664443188938e-10
-2.741538105675068986e-10
-2.178785179922126233e-10
-1.527090295789786174e-10
-1.186380785797760666e-10
-8.723025637736381306e-11
-6.202756545841874036e-11
-4.388066521494390061e-11
-3.137030386657167493e-11
-2.211692724966410528e-11
-1.567957071952229812e-11
-1.124768597860608520e-11
-8.187563297649894443e-12
-6.069340076288454275e-12
-4.583440580310321046e-12
-3.513858271214741896e-12
-2.721956099819807121e-12
-2.116306633774508953e-12
-1.639745340591261282e-12
-1.257739348830429701e-12
-9.498087541767053765e-13
