# bin_4_14
-5.166089970421528024e-28
-5.870655494243418616e-28
-6.569829728304385800e-28
-7.213123522702460938e-28
-7.733111105700076538e-28
-8.044832210449149936e-28
-8.074183425232867926e-28
-7.715278537891128936e-28
-6.957864121763070255e-28
-5.931269750886405828e-28
-4.861926735729238440e-28
-4.030838426311915832e-28
-3.484689901645441548e-28
-2.885920537112559577e-28
-2.048932221198270253e-28
-1.517200786891498797e-28
-1.185283835803366277e-28
-7.943852704829732028e-29
-5.803171429631880454e-29
-4.049247075028619781e-29
-2.763860806572612453e-29
-1.888618709333669156e-29
-1.291210846253089295e-29
-8.889430650009619070e-30
-6.183470058144062645e-30
-4.376747398077186680e-30
-3.157944013208632479e-30
-2.327089566487450397e-30
-1.748596963332835921e-30
-1.333676792243023253e-30
-1.025518785363546505e-30
