# bin_8_5
-9.818444077318224805e-13
-1.098207117387733269e-12
-1.205309290808150566e-12
-1.291911319212213672e-12
-1.343855784430730063e-12
-1.348794924995669587e-12
-1.288986372713002390e-12
-1.162598076103655850e-12
-9.912292992070857966e-13
-8.124622384297991052e-13
-6.733475975178031240e-13
-5.821880500912074177e-13
-4.827368532063566482e-13
-3.431323477610234410e-13
-2.542162326274327243e-13
-1.995723129803824133e-13
-1.344143743376356354e-13
-9.928817844692669609e-14
-7.021792650995028177e-14
-4.891722505536177477e-14
-3.434899774582227374e-14
-2.430659034352708975e-14
-1.744728770181399825e-14
-1.273005333038273129e-14
-9.474435268662761891e-15
-7.177048606827438485e-15
-5.515171388427478940e-15
-4.274791115244901854e-15
-3.317987726775247570e-15
-2.560487659897446847e-15
-1.952050808847006117e-15
