# bin_2_5
-1.269668572694384795e-14
-1.376112487758216239e-14
-1.452618298999234485e-14
-1.483138866629483001e-14
-1.454277546402223062e-14
-1.348888544154710434e-14
-1.183017889650419867e-14
-9.835271506917585864e-15
-8.047952561921474737e-15
-6.823254728590639769e-15
-5.872410355618107465e-15
-4.524236360542080162e-15
-3.152292966110580520e-15
-2.539609799108830837e-15
-1.785427786273693544e-15
-1.333523631007799349e-15
-9.296308702742016632e-16
-6.750867822476150745e-16
-4.893046078229806993e-16
-3.578933346912362176e-16
-2.658354054295453984e-16
-2.007757780081917155e-16
-1.543854670446236406e-16
-1.203489167809519250e-16
-9.453172882410449800e-17
-7.432513446505990367e-17
-5.807854304443863031e-17
-4.481419340279406252e-17
-3.395874259647852635e-17
-2.516091421852316902e-17
-1.817112167938132286e-17
