# bin_9_4
-2.772735571394519372e-21
-3.105221602288996536e-21
-3.413272124809964246e-21
-3.665472206805624556e-21
-3.822126767897746565e-21
-3.846820858884949416e-21
-3.690910366386756598e-21
-3.341948260484369925e-21
-2.860803098935966390e-21
-2.347734691185350242e-21
-1.940559512699747974e-21
-1.675241492008737645e-21
-1.399920296664951439e-21
-1.004252314510630223e-21
-7.338951209262439741e-22
-5.835816098337157587e-22
-3.897723844826858737e-22
-2.912729864520626949e-22
-2.043399127212009886e-22
-1.420291991692555222e-22
-9.972026977577829577e-23
-7.037353007643740594e-23
-5.033758308580237031e-23
-3.657572388991133041e-23
-2.711263182113963705e-23
-2.046554294457802826e-23
-1.568372288936706565e-23
-1.213756520529482227e-23
-9.418079290932811749e-24
-7.274368366953397678e-24
-5.556147706225093864e-24
