# bin_15_2
-1.493536484634778320e-61
-1.682477961372383664e-61
-1.862566495764833861e-61
-2.017814524024047049e-61
-2.127431465037636023e-61
-2.168005280440724713e-61
-2.118955403401234133e-61
-1.956918436030544384e-61
-1.708927109728027448e-61
-1.416217027405382791e-61
-1.160404788600483496e-61
-9.889480362294820898e-62
-8.491879510156315279e-62
-6.433146322499644083e-62
-4.476817915896710393e-62
-3.633475454573846828e-62
-2.464767490014124425e-62
-1.852260203226412606e-62
-1.256152998043618719e-62
-8.781899944277563441e-63
-6.146719078318240195e-63
-4.301519905633643171e-63
-3.027522370560973487e-63
-2.154807562623609361e-63
-1.563149353089273591e-63
-1.156255550116594408e-63
-8.710987903423557652e-64
-6.664007500736535366e-64
-5.144693227503033274e-64
-3.979463124699174976e-64
-3.061497094452242230e-64
