# bin_11_1
-4.181235811023390534e-51
-4.629255957098278403e-51
-5.017457972565593398e-51
-5.294693314265506610e-51
-5.402504796994444284e-51
-5.291077301955868042e-51
-4.899621706657958575e-51
-4.290017580408874502e-51
-3.562230058504574207e-51
-2.916569753593477928e-51
-2.478062157710693858e-51
-2.130991282200451688e-51
-1.630566129810931048e-51
-1.134802415332770124e-51
-9.168093074837643941e-52
-6.349261715112324206e-52
-4.749008524068838446e-52
-3.267302435642900385e-52
-2.335207082376870523e-52
-1.665767856705341274e-52
-1.194435133822838009e-52
-8.667771340716346555e-53
-6.385730656494873245e-53
-4.796569109018465768e-53
-3.665016383669526351e-53
-2.836112787174756934e-53
-2.210259931348235460e-53
-1.722259451651867132e-53
-1.332507671956346987e-53
-1.017319409766343116e-53
-7.626640305920296184e-54
