# bin_8_13
-1.761650696936741903e-13
-1.999414895159175640e-13
-2.233749126210774967e-13
-2.447231323160050648e-13
-2.616479766001121247e-13
-2.712156130849426797e-13
-2.710642282758993980e-13
-2.574389841533787865e-13
-2.308097171429762778e-13
-1.955628582985309469e-13
-1.600869926964757398e-13
-1.333746038102303032e-13
-1.155513108592597625e-13
-9.444155018646000840e-14
-6.615024399203171710e-14
-5.010574019967930351e-14
-3.825384460999888450e-14
-2.606522753855754631e-14
-1.861822086104014986e-14
-1.316270280610735814e-14
-9.018390930111420320e-15
-6.164307783836517510e-15
-4.236562672629762363e-15
-2.935842526454222810e-15
-2.059636784641759590e-15
-1.471653739865433620e-15
-1.072373036031250207e-15
-7.977100078443335430e-16
-6.040738565679763890e-16
-4.631726777816795511e-16
-3.570005546871792606e-16
