# bin_3_5
-1.097336036265893764e-10
-1.197546925482554854e-10
-1.275013986567757890e-10
-1.315434608882504518e-10
-1.307696696477199925e-10
-1.233935920985219727e-10
-1.099836435447633095e-10
-9.269105263504160553e-11
-7.580660169563708180e-11
-6.338843189119831020e-11
-5.484583265854290799e-11
-4.422951408781303107e-11
-3.093035638032860685e-11
-2.388467421690721897e-11
-1.797219859712610283e-11
-1.266787404008876768e-11
-9.089829681769008448e-12
-6.618144082082936185e-12
-4.734074117138069744e-12
-3.417140644800594792e-12
-2.507538209536130495e-12
-1.871992549625806030e-12
-1.422937005057221391e-12
-1.099300462541877670e-12
-8.585000432872878196e-13
-6.735515331971377923e-13
-5.271704004750878255e-13
-4.087730774759777980e-13
-3.121775284736534227e-13
-2.336735031289704121e-13
-1.707946645028423478e-13
