# bin_5_1
-2.316607728558005824e-21
-2.492420147927684042e-21
-2.606822374825978022e-21
-2.633757716773604563e-21
-2.543237363072828695e-21
-2.319044282090929655e-21
-1.999944449794433013e-21
-1.646493471479891521e-21
-1.354721853267820931e-21
-1.162561058295034534e-21
-9.828374935382750127e-22
-7.229433868366088772e-22
-5.184157463526806415e-22
-4.189212018002408509e-22
-2.845066107502758549e-22
-2.167695052291728832e-22
-1.535473762690770383e-22
-1.103123815932272811e-22
-8.055413808650467608e-23
-5.949170262188139011e-23
-4.467180955755199006e-23
-3.412349229888904509e-23
-2.650230598626233558e-23
-2.080731312912094898e-23
-1.640605578190226054e-23
-1.290190224243425230e-23
-1.004900997709648784e-23
-7.705588083096724591e-24
-5.787662681208168522e-24
-4.241453481691536134e-24
-3.025989438301886429e-24
