# bin_6_6
-2.526487605533646898e-08
-2.813515234024266508e-08
-3.071309265142350079e-08
-3.269969701945605664e-08
-3.372520896316557753e-08
-3.350666878187226128e-08
-3.158139108275425761e-08
-2.811692107544628427e-08
-2.366630039769970147e-08
-1.935467681502125232e-08
-1.621143826500907669e-08
-1.403694989675534514e-08
-1.127265213525479773e-08
-7.843589479852777527e-09
-6.085382027323114576e-09
-4.527879657070823188e-09
-3.187560171067243145e-09
-2.247944971890452641e-09
-1.621799278639808832e-09
-1.140718075988614807e-09
-8.053610217324885299e-10
-5.764616887810204035e-10
-4.186809768107201222e-10
-3.096223895848719223e-10
-2.333562118040899945e-10
-1.786603988263488732e-10
-1.383359449436263383e-10
-1.076106050560612071e-10
-8.349117164030235109e-11
-6.416999974378298611e-11
-4.858115623313139182e-11
