# bin_1_10
-4.120397438529203370e-58
-4.612963449003667014e-58
-5.068542712337030846e-58
-5.440323396423039261e-58
-5.669206770792217695e-58
-5.701686498780580268e-58
-5.464867518806661135e-58
-4.943107771496235948e-58
-4.226952284940821329e-58
-3.467700062226118124e-58
-2.868255177218734149e-58
-2.477185807762202989e-58
-2.065916017139615866e-58
-1.478351975281210015e-58
-1.084245773909830223e-58
-8.593551535764137817e-59
-5.751421912489176326e-59
-4.285472276664846060e-59
-3.012792132061895386e-59
-2.095311587374742842e-59
-1.471159266117737492e-59
-1.038931660442516288e-59
-7.438301877939033313e-60
-5.410736405556196622e-60
-4.015173178405495883e-60
-3.033702446225713515e-60
-2.326608109272223660e-60
-1.801330015133519373e-60
-1.397866575688697961e-60
-1.079448294555483541e-60
-8.240787367277124560e-61
