# bin_11_12
-9.791102243660633497e-09
-1.116328680168058703e-08
-1.254539336447611037e-08
-1.384354322817899752e-08
-1.493364689658942004e-08
-1.565697878229831739e-08
-1.585266596210893317e-08
-1.534138658122271126e-08
-1.401264656996931307e-08
-1.210207690945158022e-08
-9.969485450851580650e-09
-8.205033418193847907e-09
-7.051433264016134304e-09
-5.974105387798594560e-09
-4.379513551823166248e-09
-3.115367682862070325e-09
-2.516610611347157188e-09
-1.662650269053215901e-09
-1.250128335077808362e-09
-8.521116499987723356e-10
-5.797846395863010520e-10
-3.969181770227887084e-10
-2.699110978800469226e-10
-1.838274384945234226e-10
-1.259207426412919761e-10
-8.755252949294805309e-11
-6.194634385367527753e-11
-4.475249874181215622e-11
-3.304512999141250630e-11
-2.487591357685346257e-11
-1.898809502524606543e-11
