# bin_1_7
-1.723125450810175880e-35
-1.892373980574529973e-35
-2.030651264177116353e-35
-2.116027653639187864e-35
-2.128491047974429164e-35
-2.041289979315211183e-35
-1.847848994043688153e-35
-1.581577497763580368e-35
-1.297915987864058709e-35
-1.072534702732304037e-35
-9.250415660835812844e-36
-7.727905937019525597e-36
-5.559716254937361469e-36
-4.068536582792697531e-36
-3.240204245513621776e-36
-2.186110604712128152e-36
-1.643930570024062699e-36
-1.167639107673114018e-36
-8.267862528507716841e-37
-5.937959249942344709e-37
-4.308414451788415703e-37
-3.178435249519782988e-37
-2.386016860789667671e-37
-1.824210488209225994e-37
-1.413927698144598894e-37
-1.104840942379086374e-37
-8.645707783459065961e-38
-6.726469808874245948e-38
-5.170187910410793556e-38
-3.905032161739262066e-38
-2.886130031241611158e-38
