# bin_9_15
-9.748244814963567974e-15
-1.110699521748990387e-14
-1.247134293240747795e-14
-1.374740666768687965e-14
-1.481070008654931160e-14
-1.550268031664793481e-14
-1.566770156178106006e-14
-1.512017478004084056e-14
-1.376928383566831001e-14
-1.185569523645958261e-14
-9.751911207561530868e-15
-8.036941060422565770e-15
-6.921040665949420157e-15
-5.839030357300927082e-15
-4.243330953856088670e-15
-3.042670566016297091e-15
-2.449409148803918300e-15
-1.614316876905239642e-15
-1.211943176270858614e-15
-8.305093032737360624e-16
-5.646555276737386326e-16
-3.864012079568437538e-16
-2.628215018282380263e-16
-1.794162737190998450e-16
-1.233374796943887857e-16
-8.612566439193703881e-17
-6.123256549552149127e-17
-4.446278622844693012e-17
-3.298720851207593137e-17
-2.492841130874736379e-17
-1.907709137395534107e-17
