# bin_7_8
-8.665797229100463277e-09
-9.744467391930743477e-09
-1.076418606165540022e-08
-1.163035892074595199e-08
-1.222134674907122133e-08
-1.240746225363049155e-08
-1.205932052647040023e-08
-1.106710620701932882e-08
-9.604650054985603598e-09
-7.930044705989454235e-09
-6.509917502778485847e-09
-5.574104386148048528e-09
-4.756000671992978779e-09
-3.539142121080040808e-09
-2.487812653564019681e-09
-2.024281558605284446e-09
-1.350532105305352542e-09
-1.024053618747124318e-09
-7.004342617978877972e-10
-4.863097043770352652e-10
-3.413377200637513362e-10
-2.396736024783290893e-10
-1.695299003877904416e-10
-1.214374775661447778e-10
-8.872168721014205803e-11
-6.607898566033057511e-11
-5.008346094877371694e-11
-3.848253344695397806e-11
-2.977777426503258499e-11
-2.303652980857613637e-11
-1.768985039234588779e-11
