# bin_13_6
-3.105049827614464217e-20
-3.508897956884311857e-20
-3.899193243930791972e-20
-4.243867436707175496e-20
-4.500365699486950941e-20
-4.617365674162980589e-20
-4.555976921794982656e-20
-4.255505328373421085e-20
-3.756488871963686454e-20
-3.137530715535107534e-20
-2.565997975352993268e-20
-2.167038231042298876e-20
-1.874093576798826453e-20
-1.466110245302898542e-20
-1.012249886403933132e-20
-8.070109813287211658e-21
-5.724859438017599048e-21
-4.159573885598538295e-21
-2.820771368760628818e-21
-2.006066821609619958e-21
-1.391670423727081368e-21
-9.634878832303645298e-22
-6.720895069958730277e-22
-4.731563412370858563e-22
-3.387812203553533758e-22
-2.473392966427805789e-22
-1.841142697903442909e-22
-1.395344463899504253e-22
-1.071091662427056741e-22
-8.271679467461599291e-23
-6.378316688938382511e-23
