# bin_4_13
-7.261011220452705246e-32
-8.165088751343040955e-32
-9.019878643666571162e-32
-9.746158053142291389e-32
-1.024202015010571982e-31
-1.039875331975545627e-31
-1.010804656604465691e-31
-9.277764903620232701e-32
-8.052921747264310655e-32
-6.649724971942655855e-32
-5.458920124912015682e-32
-4.673500021272064032e-32
-3.987652690850212498e-32
-2.968855051138589727e-32
-2.087107541291522497e-32
-1.697186026621199461e-32
-1.133631844990800455e-32
-8.588151294288628754e-33
-5.873563923292257358e-33
-4.080194418678346482e-33
-2.863244952950916120e-33
-2.010104443087699787e-33
-1.421640642859156074e-33
-1.018191225725782271e-33
-7.437447966531723778e-34
-5.538287359445053636e-34
-4.196916551894947905e-34
-3.224318016331234879e-34
-2.494736166002548855e-34
-1.929880010172026460e-34
-1.481975255840240765e-34
