# bin_13_9
-2.107614484445926867e-11
-2.396540421058123184e-11
-2.683860866437931448e-11
-2.949011774913010152e-11
-3.164516437783269266e-11
-3.295695427286411190e-11
-3.311771401397783667e-11
-3.169432745079031095e-11
-2.862265243316466605e-11
-2.443352664715735675e-11
-2.003626586387053997e-11
-1.659941705896102275e-11
-1.435438984001855706e-11
-1.192521566977393860e-11
-8.481999258740592944e-12
-6.257604597227236205e-12
-4.915067487691416118e-12
-3.280104329464686960e-12
-2.409537343508148758e-12
-1.678263972000314965e-12
-1.144893244886113019e-12
-7.823301619100343828e-13
-5.343586138347704875e-13
-3.675837316458470882e-13
-2.554099605532665244e-13
-1.805556174356115822e-13
-1.301011865581037898e-13
-9.575073139926361718e-14
-7.187855195766558475e-14
-5.479438968370092929e-14
-4.213400708909917984e-14
