# bin_15_3
-4.170959173201752104e-50
-4.705006154782304772e-50
-5.217098983688056703e-50
-5.663270991905186814e-50
-5.985830885701407284e-50
-6.117544913744108776e-50
-6.003845294328133842e-50
-5.571501504013211799e-50
-4.888102183629308338e-50
-4.063505294612834243e-50
-3.326025093471125518e-50
-2.823912294972699726e-50
-2.433947299043083596e-50
-1.869164333369169386e-50
-1.294202522723106958e-50
-1.044703914490346288e-50
-7.207866107114898045e-51
-5.354587440466238740e-51
-3.619126367337290977e-51
-2.548498476402772133e-51
-1.777902573062735099e-51
-1.239439985838772098e-51
-8.690743929817799595e-52
-6.156350259508548925e-52
-4.441516505490384947e-52
-3.267622431831342466e-52
-2.449750068169936419e-52
-1.867153325903969690e-52
-1.438389824515273447e-52
-1.112135180962340299e-52
-8.566014386647609437e-53
