# bin_13_10
-5.590723865474192718e-10
-6.368024561770329201e-10
-7.147394857195523547e-10
-7.874884530260462549e-10
-8.478868155017806153e-10
-8.868273982427781684e-10
-8.955001572657059386e-10
-8.631116272016941578e-10
-7.849843169888042048e-10
-6.749984502505335355e-10
-5.549269694482447973e-10
-4.576760946785065268e-10
-3.944200835209713224e-10
-3.320284582437523077e-10
-2.404545139534851419e-10
-1.731432157152626465e-10
-1.389386910808747548e-10
-9.167491743695218090e-11
-6.864732669186795003e-11
-4.715376007547465955e-11
-3.207158946572636139e-11
-2.194125794701299727e-11
-1.493041192041660989e-11
-1.020365361503076849e-11
-7.025717419547986549e-12
-4.915256694635709002e-12
-3.501893436116122898e-12
-2.548280074845984630e-12
-1.894216214626653299e-12
-1.433570858754806907e-12
-1.098031235629059247e-12
