# bin_9_6
-2.675722209987134248e-12
-3.010354093487238214e-12
-3.327466353431079417e-12
-3.598006165702257015e-12
-3.784506562022012018e-12
-3.846294601640904184e-12
-3.744443624921564274e-12
-3.442393288808075992e-12
-2.992756345823473580e-12
-2.473201260370887515e-12
-2.028888262390486677e-12
-1.735145178220034971e-12
-1.483760374744096597e-12
-1.109507136731820780e-12
-7.768958962868045142e-13
-6.327406661157873695e-13
-4.231484663322922253e-13
-3.207418331992963514e-13
-2.187072502364927364e-13
-1.519625571264528416e-13
-1.066358688246017944e-13
-7.483973627218925766e-14
-5.286396502670564973e-14
-3.779873877298088328e-14
-2.756231552338668496e-14
-2.049046855577846816e-14
-1.550599090469249884e-14
-1.190131742084254719e-14
-9.204540691105935016e-15
-7.121382403972642900e-15
-5.471906060218706286e-15
