# bin_15_1
-3.516357105188931368e-75
-3.957475804148753732e-75
-4.376146291773839027e-75
-4.734340797479297379e-75
-4.982896971059167143e-75
-5.067978785798913946e-75
-4.939058655872609685e-75
-4.546530494364701789e-75
-3.957675757407695153e-75
-3.273506014623572748e-75
-2.684784106378258227e-75
-2.293630921330938423e-75
-1.963125302866090079e-75
-1.473649073807059699e-75
-1.030718653344829513e-75
-8.377148286780074990e-76
-5.633898265675200534e-76
-4.253930973900453355e-76
-2.897040880140948666e-76
-2.018068131827206025e-76
-1.414605703684630678e-76
-9.917261384884724872e-77
-6.997851902780763176e-77
-4.997049544640790388e-77
-3.638273769850695335e-77
-2.700785686023839054e-77
-2.041091490024117452e-77
-1.565025169005409157e-77
-1.209682502267750850e-77
-9.357736170007137316e-78
-7.192259578924758239e-78
