# bin_12_10
-3.717119757841689996e-09
-4.230053958847517530e-09
-4.742108402320104495e-09
-5.217200455162199154e-09
-5.607256891065805192e-09
-5.851417338985340332e-09
-5.893401476184669454e-09
-5.658771210078186047e-09
-5.126979188507034452e-09
-4.391370659039040241e-09
-3.604967587506099700e-09
-2.980112758461851293e-09
-2.573374546998513087e-09
-2.151517074878290639e-09
-1.542647796566516343e-09
-1.125180922830669752e-09
-8.932752406258803511e-10
-5.923717157192010565e-10
-4.394975764543082501e-10
-3.040986439389195177e-10
-2.071295135958897040e-10
-1.416029199464959803e-10
-9.652273213009370010e-11
-6.619174008866120132e-11
-4.579813793942606521e-11
-3.222064519040642761e-11
-2.309698822055234224e-11
-1.691190423491393683e-11
-1.263995526801453272e-11
-9.605333565246550093e-12
-7.374064042967360212e-12
