# bin_6_14
-2.356099037755901440e-23
-2.667121100303035368e-23
-2.970005548595623241e-23
-3.240871521007592739e-23
-3.447775854890970171e-23
-3.551330190283416659e-23
-3.522141008696610130e-23
-3.311112143589817611e-23
-2.940450070634158075e-23
-2.468737317372927130e-23
-2.018783136320068847e-23
-1.695846608573028818e-23
-1.469026999341190464e-23
-1.170100541474302566e-23
-8.094371628046301201e-24
-6.341542896583420749e-24
-4.633354335392336427e-24
-3.279687834028910421e-24
-2.256671213221898355e-24
-1.611552282607014059e-24
-1.112002753893428002e-24
-7.646079532703959823e-25
-5.304358675947700509e-25
-3.711815572164020344e-25
-2.637154379779434607e-25
-1.909961417163096329e-25
-1.410797035763636162e-25
-1.062285558178076104e-25
-8.118087522863447646e-26
-6.256784978499030134e-26
-4.826907072239596009e-26
