   0.1000E+05   0.5397E-12   0.3038E-04   0.9872E-03   0.5157E+00
   0.8129E+04   0.7182E-12   0.3038E-04   0.9872E-03   0.5137E+00
   0.6608E+04   0.9369E-12   0.3038E-04   0.9872E-03   0.5120E+00
   0.5372E+04   0.1202E-11   0.3038E-04   0.9872E-03   0.5108E+00
   0.4367E+04   0.1523E-11   0.3038E-04   0.9872E-03   0.5102E+00
   0.3550E+04   0.1914E-11   0.3038E-04   0.9872E-03   0.5101E+00
   0.2885E+04   0.2402E-11   0.3038E-04   0.9872E-03   0.5107E+00
   0.2346E+04   0.3029E-11   0.3038E-04   0.9872E-03   0.5120E+00
   0.1907E+04   0.3862E-11   0.3038E-04   0.9872E-03   0.5138E+00
   0.1550E+04   0.5008E-11   0.3038E-04   0.9872E-03   0.5161E+00
   0.1260E+04   0.6620E-11   0.3038E-04   0.9872E-03   0.5184E+00
   0.1024E+04   0.8922E-11   0.3038E-04   0.9872E-03   0.5206E+00
   0.8326E+03   0.1221E-10   0.3038E-04   0.9872E-03   0.5223E+00
   0.6768E+03   0.1687E-10   0.3038E-04   0.9872E-03   0.5234E+00
   0.5501E+03   0.2335E-10   0.3038E-04   0.9872E-03   0.5238E+00
   0.4472E+03   0.3211E-10   0.3038E-04   0.9872E-03   0.5236E+00
   0.3635E+03   0.4357E-10   0.3038E-04   0.9872E-03   0.5229E+00
   0.2955E+03   0.5799E-10   0.3038E-04   0.9872E-03   0.5217E+00
   0.2402E+03   0.7508E-10   0.3038E-04   0.9872E-03   0.5199E+00
   0.1953E+03   0.9411E-10   0.3038E-04   0.9872E-03   0.5181E+00
   0.1587E+03   0.1153E-09   0.3038E-04   0.9872E-03   0.5165E+00
   0.1290E+03   0.1360E-09   0.3038E-04   0.9872E-03   0.5140E+00
   0.1049E+03   0.1547E-09   0.3038E-04   0.9872E-03   0.5119E+00
   0.8527E+02   0.1702E-09   0.3038E-04   0.9872E-03   0.5099E+00
   0.6931E+02   0.1814E-09   0.3038E-04   0.9872E-03   0.5080E+00
   0.5635E+02   0.1875E-09   0.3038E-04   0.9872E-03   0.5062E+00
   0.4580E+02   0.1882E-09   0.3038E-04   0.9872E-03   0.5044E+00
   0.3723E+02   0.1834E-09   0.3038E-04   0.9872E-03   0.5026E+00
   0.3027E+02   0.1737E-09   0.3038E-04   0.9872E-03   0.5009E+00
   0.2460E+02   0.1603E-09   0.3038E-04   0.9872E-03   0.4993E+00
   0.2000E+02   0.1443E-09   0.3038E-04   0.9872E-03   0.4979E+00
