# bin_9_7
8.872234376317106606e-07
9.989267484203830020e-07
1.105142248382188846e-06
1.196320337725377271e-06
1.260080113053735748e-06
1.282747264828361108e-06
1.251706890246088295e-06
1.154043795105545842e-06
1.006103811449709217e-06
8.331291274272601535e-07
6.831417946193059796e-07
5.828338991791227924e-07
4.993129329862947299e-07
3.766058543002207471e-07
2.631542069843727036e-07
2.132201038401596745e-07
1.444606143772494843e-07
1.084744452730637108e-07
7.383791112140316496e-08
5.159214488229403145e-08
3.611133667760743138e-08
2.527606314635844349e-08
1.781128978453251949e-08
1.269877226490114368e-08
9.228133141568745123e-09
6.837508307827865087e-09
5.158747784632924699e-09
3.950431317228636888e-09
3.051127886284357109e-09
2.359783555282705631e-09
1.814321381353411145e-09
