# bin_9_9
4.552635763981460958e-06
5.146587358993911082e-06
5.721596227347504968e-06
6.230807285872556358e-06
6.612000082849857432e-06
6.790019989993038328e-06
6.707203110675452426e-06
6.274209690089429102e-06
5.546326508179621562e-06
4.638896999874779610e-06
3.794462637899870586e-06
3.200396115308967847e-06
2.767658249270335485e-06
2.174447107767060524e-06
1.503973909266771788e-06
1.192325828497547249e-06
8.524353588792670222e-07
6.147922119224300380e-07
4.196065749755096306e-07
2.982123789262209641e-07
2.066072867522621335e-07
1.428115493127443639e-07
9.946951692107131092e-08
6.992475087932726175e-08
4.996890452857001762e-08
3.640767084791624201e-08
2.704829596997277148e-08
2.046448865829701684e-08
1.568973702883206093e-08
1.210885241483866930e-08
9.336771159350362132e-09
