# bin_13_10
3.584777063610400724e-07
4.088391483932699130e-07
4.596343217356776530e-07
5.074329147119486298e-07
5.477069030727746499e-07
5.746537098801184596e-07
5.823102330344110072e-07
5.642172459560701398e-07
5.160134039543849856e-07
4.462385856531407593e-07
3.678277370010630020e-07
3.025420497853761246e-07
2.597907450041131141e-07
2.205124781523286017e-07
1.622327906858090403e-07
1.150059290029167164e-07
9.306981364071548980e-08
6.152485370509091091e-08
4.630729333788705071e-08
3.149298924895844416e-08
2.143346602844086206e-08
1.467541475241934257e-08
9.977133796937486442e-09
6.788188857675854704e-09
4.642761482088715604e-09
3.222143403665965677e-09
2.275011424543994792e-09
1.639937417010871094e-09
1.208443865976195512e-09
9.081894302117340295e-10
6.924819730940713132e-10
