# bin_6_3
3.950268558509387991e-08
3.532588486026845005e-08
3.073676964589939711e-08
2.604836882144872825e-08
2.157477961257439818e-08
1.755384729911666592e-08
1.409090887128038442e-08
1.116122328000099777e-08
8.680611571837930011e-09
6.609298425712797489e-09
4.971071668325263325e-09
3.747365192482433882e-09
2.828879604170241122e-09
2.136811981170160628e-09
1.629672545970955028e-09
1.253090293877190654e-09
9.722086552382633798e-10
7.592301861687488927e-10
5.948212597340001678e-10
4.655705457123356050e-10
3.624776140503593800e-10
2.795699866534241667e-10
2.128289870566822091e-10
1.594449322528125527e-10
1.172866963475101772e-10
8.458253005588624177e-11
5.975553859401211594e-11
4.135679494922493777e-11
2.806168682727690666e-11
1.869374132124597915e-11
1.224951888325080899e-11
