# bin_1_1
1.363888644072081191e-08
1.136246473315861714e-08
9.288821454162931841e-09
7.482074380736028269e-09
5.947109700118180595e-09
4.653764242468007646e-09
3.576814205777195529e-09
2.713290152026501812e-09
2.055375427783650303e-09
1.563946541510019920e-09
1.194297169175337645e-09
9.195509340489382569e-10
7.153968107107681631e-10
5.615803536139376685e-10
4.437991363207634522e-10
3.516923288566747218e-10
2.782117344793351326e-10
2.186890743777418155e-10
1.700891135430371471e-10
1.304171617723720224e-10
9.829236155337128315e-11
7.265831530995319718e-11
5.260571286430443922e-11
3.728415966010149888e-11
2.587510005858390435e-11
1.760186457716386298e-11
1.175630172046996970e-11
7.725239108150721296e-12
5.005586402353835957e-12
3.205301127989784070e-12
2.032644418851933084e-12
