# bin_8_5
5.537576922615580656e-08
5.100438070671201339e-08
4.573808720663178194e-08
3.990223175674525670e-08
3.389635217068331389e-08
2.812776258181361622e-08
2.291537915720638887e-08
1.841088712033499521e-08
1.459670315795230641e-08
1.136631266651507972e-08
8.657887873938307807e-09
6.498214970107770935e-09
4.880016342510375802e-09
3.669602668556419623e-09
2.753573844880041130e-09
2.084199128987617734e-09
1.588627445243921103e-09
1.221547462977989629e-09
9.456436184653306203e-10
7.350664916911836911e-10
5.715834160703056601e-10
4.427997439627058571e-10
3.403934753364206846e-10
2.587116558831585191e-10
1.938166271470716084e-10
1.427824126766833913e-10
1.032588879040119634e-10
7.323468480282054882e-11
5.092249415062756252e-11
3.472742878460608610e-11
2.325091676250812256e-11
