# bin_9_2
3.361051854964470961e-08
2.956482461942742596e-08
2.530570578006837568e-08
2.113275488957131480e-08
1.730347065696184135e-08
1.396413627105441484e-08
1.112863889385845755e-08
8.723549505473531430e-09
6.691625294377335048e-09
5.048695919214893692e-09
3.805027457826149806e-09
2.877279605789248191e-09
2.174948262182529617e-09
1.657460469215237837e-09
1.274988432414639671e-09
9.900476947122216706e-10
7.748015031208373850e-10
6.091373107545699108e-10
4.790689238419780062e-10
3.752062770166255860e-10
2.913643146168925972e-10
2.234558227965708732e-10
1.686995964696236720e-10
1.250556499318764697e-10
9.086377708621204578e-11
6.464864389900146386e-11
4.503559347445126618e-11
3.073789786016852005e-11
2.058355591626269320e-11
1.354984447931933936e-11
8.787871429304128708e-12
