# bin_7_2
3.230233286314551266e-08
2.835637128087823801e-08
2.422846692773819017e-08
2.020478244345607383e-08
1.652602927189364980e-08
1.332437297177268710e-08
1.060744063037522695e-08
8.304774727121238829e-09
6.364678242726831086e-09
4.801819688116304949e-09
3.620542154909554598e-09
2.738728974055149840e-09
2.071804631544428062e-09
1.580455842645408816e-09
1.216932293670828126e-09
9.457929390847963736e-10
7.406214517682995844e-10
5.824223719779501981e-10
4.580106055953716830e-10
3.585469974521755002e-10
2.782102644179915391e-10
2.131462359947574396e-10
1.607189020618197192e-10
1.189789348690311735e-10
8.632710124449217860e-11
6.133507462591978055e-11
4.267041524821059380e-11
2.908811244068882602e-11
1.945787417606972685e-11
1.279713883713731873e-11
8.293468502976795372e-12
