# bin_8_6
6.014941241345127752e-08
5.582938787207611570e-08
5.047587885984805511e-08
4.440351550179888077e-08
3.801990247776879577e-08
3.176325134502370574e-08
2.601029553404039717e-08
2.097874857969634370e-08
1.670105859451215355e-08
1.308166514865512269e-08
1.002968912609010665e-08
7.547926714943513033e-09
5.655596904953819290e-09
4.249902772346596534e-09
3.183624250670057163e-09
2.397041773058113662e-09
1.819101126177249860e-09
1.391371952031411578e-09
1.072067236382927478e-09
8.303352941005485949e-10
6.442334364508196385e-10
4.987569594657199530e-10
3.837703181488905967e-10
2.923961087982435037e-10
2.198824598857667638e-10
1.627846704171494836e-10
1.184149125769398139e-10
8.453382879932445638e-11
5.918866121952077163e-11
4.065120713906560650e-11
2.740589327268512287e-11
