# bin_8_5
5.628746158880847919e-08
5.191873903940920983e-08
4.662806927789409737e-08
4.073999425895516832e-08
3.465713244394460508e-08
2.879412801231639579e-08
2.348117785451721834e-08
1.888095230411546357e-08
1.498250574485409916e-08
1.167978981092062724e-08
8.906409270653607424e-09
6.687614421726212688e-09
5.021492531312531418e-09
3.776465359026267279e-09
2.833165653515688321e-09
2.143249008823563831e-09
1.632792592562549354e-09
1.254786604172507995e-09
9.708922320787071044e-10
7.544408998001771624e-10
5.865708339685359366e-10
4.544483021993494231e-10
3.494518648405404672e-10
2.657272761632216315e-10
1.992039246759113389e-10
1.468683481879695390e-10
1.063097716796672800e-10
7.547183013052413306e-11
5.253076174826222320e-11
3.585990428687074936e-11
2.403194393033728933e-11
