# bin_13_8
7.768400009592200391e-08
7.370965143289700042e-08
6.821709648120156022e-08
6.146655508628101686e-08
5.387141202968299123e-08
4.595475013098705095e-08
3.826589466725285048e-08
3.125634791015191700e-08
2.516256251320066394e-08
1.998905937743799724e-08
1.560059254010122244e-08
1.190002739005568710e-08
8.916557888584508247e-09
6.665950856203665981e-09
4.988658003366352331e-09
3.714536358101773723e-09
2.783789623109719258e-09
2.098419550243226399e-09
1.594556919814110651e-09
1.219955351948930126e-09
9.381216134300489590e-10
7.227999225908777246e-10
5.559285392313108508e-10
4.252384739485903189e-10
3.223250499746946182e-10
2.413568589491132028e-10
1.780945055218561624e-10
1.292554896112527925e-10
9.215389844340476585e-11
6.450268665288651961e-11
4.432372966261822786e-11
