# bin_14_2
3.538934153809843829e-08
3.120757046291507215e-08
2.677041487316138957e-08
2.239590534608392807e-08
1.836395145238965541e-08
1.483904437683708896e-08
1.184240412484224471e-08
9.296975116614563641e-09
7.139480962049000385e-09
5.387971244960920700e-09
4.059696804426167114e-09
3.069117000017623622e-09
2.318502152532403591e-09
1.765250839672546594e-09
1.356739128307460525e-09
1.052728486077584848e-09
8.234602133916873965e-10
6.473141219109610897e-10
5.092304243517282548e-10
3.990825361385371882e-10
3.102005742630809236e-10
2.381875246563816963e-10
1.800683447725750134e-10
1.336798069026778283e-10
9.727594707878982455e-11
6.931252391968473109e-11
4.835125092507347419e-11
3.304220699535695516e-11
2.215081930176733956e-11
1.459501739650034045e-11
9.472881327565412498e-12
