# bin_15_12
9.197655787474431642e-08
8.861723366112322133e-08
8.339408636083835804e-08
7.649132534854318620e-08
6.827848316623989337e-08
5.928872560451949741e-08
5.015049529622515446e-08
4.147346642199385896e-08
3.369969898066171240e-08
2.700518537335697783e-08
2.132626174495932190e-08
1.650830110768966257e-08
1.249081687478447140e-08
9.321199135566048381e-09
6.953798945496869476e-09
5.174839464158486709e-09
3.836958045000734361e-09
2.864607440955678020e-09
2.148624237680928261e-09
1.623923408583834328e-09
1.234969644278805106e-09
9.432443547223975706e-10
7.214186536948008952e-10
5.506078688620223479e-10
4.178881861744846162e-10
3.143299661191962431e-10
2.336681270729555631e-10
1.712863687796611101e-10
1.236019009615615345e-10
8.770785106080071569e-11
6.117074418168666424e-11
