# bin_13_3
4.570748118286678148e-08
4.124251790876066752e-08
3.618759051325450690e-08
3.089197300155624861e-08
2.573442733376896980e-08
2.103113216528920919e-08
1.695016322023508307e-08
1.349042408744240061e-08
1.054945055793137785e-08
8.061885967665633652e-09
6.062700738913076559e-09
4.563072720078792841e-09
3.441111204008706560e-09
2.590454337950915819e-09
1.967872018633287577e-09
1.507042655264061836e-09
1.165064722941981216e-09
9.074787466128979142e-10
7.100958766255944546e-10
5.559506950926794071e-10
4.335985250586052575e-10
3.354466343661537449e-10
2.564248657122516104e-10
1.930604876002515280e-10
1.427997553136659138e-10
1.035816046981413041e-10
7.360680714869303386e-11
5.123121358721376826e-11
3.494363855200071029e-11
2.338664791115082109e-11
1.538577652803073030e-11
