# bin_3_3
3.163207815032939578e-08
2.784144163452632961e-08
2.386289767819324479e-08
1.996106187785596546e-08
1.636525260975539666e-08
1.321240879682406393e-08
1.052906119875673679e-08
8.263397809822381355e-09
6.359887676058084492e-09
4.812198058436283326e-09
3.626035962261822211e-09
2.743644189518743942e-09
2.076936626971529802e-09
1.581627516593269429e-09
1.216290020927595201e-09
9.433733367224965973e-10
7.372844438978860710e-10
5.787827500327787780e-10
4.545416893629665950e-10
3.555554940880761829e-10
2.758493444302845352e-10
2.114488086132004531e-10
1.596278088381382453e-10
1.183847946056611251e-10
8.609922798604029209e-11
6.134533262453221300e-11
4.281023305125338136e-11
2.927728936432808206e-11
1.964563251380205176e-11
1.295773149501204963e-11
8.418612032643888162e-12
