# bin_8_3
4.245531804489324990e-08
3.814457742991357343e-08
3.333676475806449113e-08
2.836181765026239333e-08
2.356427974393184681e-08
1.921910970078218378e-08
1.546159365617690845e-08
1.227855869380515861e-08
9.577865988530628058e-09
7.307651959013616622e-09
5.496664517448644733e-09
4.140497217720986247e-09
3.124319917447724580e-09
2.356071663231436964e-09
1.793348651217018427e-09
1.376170954487936767e-09
1.065792118023404809e-09
8.312370635621791196e-10
6.508475101807677638e-10
5.095094392991638007e-10
3.970512011150701840e-10
3.067234651862743323e-10
2.340028580547858280e-10
1.757604590950882718e-10
1.296606228668273325e-10
9.379056771590305918e-11
6.646426392107221123e-11
4.613668017240952454e-11
3.139149132523607759e-11
2.096357915945055883e-11
1.376604287413998321e-11
