# bin_4_3
3.537823032894023706e-08
3.140348471804697068e-08
2.713382212527874326e-08
2.285704924197195816e-08
1.884318163991603758e-08
1.527740954423547668e-08
1.222367053162004762e-08
9.642571251437159015e-09
7.464568636357447454e-09
5.667247617261346847e-09
4.265740126296923489e-09
3.221578329326934468e-09
2.435392565959774309e-09
1.846396362010830027e-09
1.413821761302348484e-09
1.091565035106811656e-09
8.498896514287287299e-10
6.654137132467234688e-10
5.219757646055293998e-10
4.084886482522991320e-10
3.175484598441831295e-10
2.442390669612761462e-10
1.852254905334656928e-10
1.381258590898842495e-10
1.010783853160172636e-10
7.249250423633501139e-11
5.092824609018363217e-11
3.505613720287586072e-11
2.366623365433146939e-11
1.569430920646188884e-11
1.024403384535423109e-11
