# bin_9_1
2.242558962592081289e-08
1.912742378952406781e-08
1.593337796014831002e-08
1.302641706193719569e-08
1.050013701986947923e-08
8.352199273481175154e-09
6.530298893205089022e-09
5.003786954463907064e-09
3.783671396054700501e-09
2.860744010445623355e-09
2.169974376912939387e-09
1.650079268293682121e-09
1.265910680850846617e-09
9.810703563457285931e-10
7.675269190996639126e-10
6.048098491284824620e-10
4.782273165069506545e-10
3.777210143942401665e-10
2.966211805726725848e-10
2.305873304335457529e-10
1.767744948829147468e-10
1.332333062775361016e-10
9.849477349399526972e-11
7.131374343143529934e-11
5.053781303216922692e-11
3.506231367427307461e-11
2.383887258216556964e-11
1.591001722877183627e-11
1.044487092136310155e-11
6.760420235635589144e-12
4.323859580597735852e-12
