# bin_8_8
6.838842573940328619e-08
6.421503591605697808e-08
5.877762071410145926e-08
5.236683181059004033e-08
4.539558050967161271e-08
3.834495296051954136e-08
3.167658668606853674e-08
2.571955266915762064e-08
2.059973963085178102e-08
1.626331765107962716e-08
1.259239571120043737e-08
9.542161781631412886e-09
7.144206750780366203e-09
5.354831838347291619e-09
4.009814746248525503e-09
2.998886068669602242e-09
2.261491002847250094e-09
1.715960778298418443e-09
1.312716310025917941e-09
1.010435145218407591e-09
7.805513049829322452e-10
6.030034999039060820e-10
4.640745967706774270e-10
3.544642131569418100e-10
2.677804216169937433e-10
1.995142637846418962e-10
1.462838080496980829e-10
1.053805163335989582e-10
7.451828323406003661e-11
5.171057771744591348e-11
3.522464880426226528e-11
