# bin_14_9
8.257160408074481792e-08
7.877861282473028084e-08
7.334381157833891677e-08
6.650362490689526411e-08
5.866025324917179634e-08
5.034553239291397661e-08
4.214150488052071426e-08
3.455984305313642093e-08
2.790650037682397013e-08
2.223848390180890908e-08
1.743327027793201551e-08
1.336567573496106774e-08
1.003933625433586429e-08
7.494358804701303540e-09
5.605439561979640629e-09
4.170343440200070086e-09
3.112370576619239399e-09
2.338375983625545265e-09
1.768959214450027440e-09
1.347782529734168111e-09
1.032803839352475711e-09
7.937141873599223743e-10
6.096016906147585893e-10
4.661939131328840822e-10
3.537178219338278683e-10
2.654137930652111227e-10
1.964419169813897131e-10
1.431227099298297449e-10
1.025025043571622350e-10
7.210569544816213898e-11
4.981144781603349638e-11
