# bin_10_1
2.267062233974096809e-08
1.934434676369016494e-08
1.611931084194386395e-08
1.318175738973349806e-08
1.062778596212681159e-08
8.455922442730987258e-09
6.613201867379354228e-09
5.068202719086647901e-09
3.832350143607104808e-09
2.897248893429834427e-09
2.197424580415293656e-09
1.670632559801094163e-09
1.281377780311550557e-09
9.928414506551178460e-10
7.765966466038799764e-10
6.118911630380072679e-10
4.838164927961077348e-10
3.821616344869756004e-10
3.001533857594120585e-10
2.333842500321193041e-10
1.789673176593251409e-10
1.349275826089114364e-10
9.978004479121120937e-11
7.226838761442705035e-11
5.123090891435459349e-11
3.555390413089505142e-11
2.417966481764499792e-11
1.614126024645746410e-11
1.059877724195396191e-11
6.861143291380883304e-12
4.388843311999524631e-12
