# bin_9_6
6.319032630268362719e-08
5.888892708236183625e-08
5.346572309774996272e-08
4.723093017528841806e-08
4.059993267631141633e-08
3.403288544374209590e-08
2.794228264075581124e-08
2.258433429231972525e-08
1.801792737367478804e-08
1.415221471287004083e-08
1.088228265802673174e-08
8.201249331877611997e-09
6.141651290047554139e-09
4.613577601424358864e-09
3.454241392941592029e-09
2.595352842463939820e-09
1.966050561970632348e-09
1.500422705074642120e-09
1.153877713565270330e-09
8.923834695375419553e-10
6.917818698354223050e-10
5.354846787232836979e-10
4.122561775915416617e-10
3.144793659614408643e-10
2.369102376858784283e-10
1.757862563286557160e-10
1.282081157601396853e-10
9.178829328787963989e-11
6.446174858629092654e-11
4.440697664005044819e-11
3.002572534346758797e-11
