# bin_8_3
5.355764171490292967e-17
5.956040233712379225e-17
6.490881474954876175e-17
6.896403391928360065e-17
7.095010968402234776e-17
7.025827055593084963e-17
6.595659994027299817e-17
5.850442702445633551e-17
4.909716754089900888e-17
4.016375101108099322e-17
3.374920247434223301e-17
2.917769068919918617e-17
2.318133340639026738e-17
1.613493220947024683e-17
1.263143813050276678e-17
9.248708677232960911e-18
6.603242253458521266e-18
4.629493570252276769e-18
3.330851091674177311e-18
2.350200320862054597e-18
1.665591973296259171e-18
1.195818967787442707e-18
8.712125100054178141e-19
6.465078870011702285e-19
4.887577148135965400e-19
3.750995624887588314e-19
2.908600063235547159e-19
2.263385240555173018e-19
1.754895394939417138e-19
1.346685443653791312e-19
1.017242583863164144e-19
