# bin_3_1
5.168565309830247288e-12
5.384528142356759073e-12
5.416700175037728637e-12
5.203594327425608713e-12
4.726756134643388843e-12
4.063142405361459759e-12
3.349129483317738063e-12
2.767081666834903119e-12
2.368670719984912047e-12
1.977330488523664983e-12
1.458433894380382614e-12
1.065467275491354518e-12
8.389324046960154221e-13
5.900431443656731707e-13
4.405402148007980578e-13
3.175984309115533604e-13
2.323671815484722377e-13
1.720553684939332543e-13
1.293632479563794876e-13
9.903207427348929189e-14
7.707371819176306738e-14
6.078628583808980674e-14
4.825836691429303769e-14
3.829092942363060302e-14
3.015341430156132321e-14
2.341177547302177153e-14
1.782238426270126477e-14
1.324502878725592131e-14
9.582598572899363013e-15
6.744869150851224739e-15
4.624378573801839281e-15
