# bin_10_10
4.127868778384003519e-11
4.686915809542983106e-11
5.239051971758946483e-11
5.743553367177054333e-11
6.145860235355646588e-11
6.377469648472503407e-11
6.381727365029918133e-11
6.071883127028862118e-11
5.453382370171473095e-11
4.629306800428160602e-11
3.791609077299088764e-11
3.154850889955983551e-11
2.731369315675181804e-11
2.240591111732929976e-11
1.576535468118361325e-11
1.186223580129694948e-11
9.115825627184528908e-12
6.184887595782991778e-12
4.448098007993209086e-12
3.130685817756573928e-12
2.142892247568220323e-12
1.465240357362000878e-12
1.005610315867476883e-12
6.956020267629357914e-13
4.868502379239228204e-13
3.469553746824006856e-13
2.521277292550639295e-13
1.870566224695895628e-13
1.413396119391868019e-13
1.082060840119040232e-13
8.334023932546223940e-14
