# bin_10_3
2.382523435536365255e-21
2.673823725017129448e-21
2.946598573654324824e-21
3.174365038101788546e-21
3.323355040883562550e-21
3.360046759259826577e-21
3.245870694469571092e-21
2.960172286568690412e-21
2.552734486787586942e-21
2.101962401476639338e-21
1.731157725089905154e-21
1.487742463867761697e-21
1.256957884920678566e-21
9.201650328160163449e-22
6.585449720851958496e-22
5.298704488703677198e-22
3.540697619022808884e-22
2.664482081466324723e-22
1.843975206380288736e-22
1.281445880362417840e-22
8.994455403212898964e-23
6.329381277899575117e-23
4.500013002749549883e-23
3.244746542031107499e-23
2.386596481064689975e-23
1.788643931682239467e-23
1.362682524249978472e-23
1.050538486641022122e-23
8.139193060392486072e-24
6.291395417185685789e-24
4.818615878921702767e-24
