# bin_10_2
2.777844299693200680e-25
3.113455174380964967e-25
3.425696301966879743e-25
3.683330930809656335e-25
3.846732066980856954e-25
3.878379095425488351e-25
3.731360726029639213e-25
3.388767964875874456e-25
2.909968813304271157e-25
2.391976919392094417e-25
1.974535825216317681e-25
1.700720834086227633e-25
1.427018871009952095e-25
1.033508120005624341e-25
7.487786084055350993e-26
5.974577997684083609e-26
4.000365256154231085e-26
2.992684792737257775e-26
2.087059579926171160e-26
1.451080966115146286e-26
1.018906303237215756e-26
7.185078578948390128e-27
5.126487443948625987e-27
3.712790718733982430e-27
2.743037769481454827e-27
2.064162286581910648e-27
1.577788290747285593e-27
1.218909318243013922e-27
9.450519678493067349e-28
7.300592734599083353e-28
5.581821611546345972e-28
