# bin_8
0.000000000000000000e+00
3.127391041215478726e-258
2.263770832508842282e-221
1.771301389033125550e-190
2.627507671216398782e-164
5.267063293649546601e-142
6.537274713428437850e-123
1.689008801280902801e-106
2.418791899774307629e-92
4.267381182640489222e-80
1.788311628853225122e-69
3.065023615488682726e-60
3.378093483276209505e-52
3.497597169713199811e-45
4.680872844157281108e-39
1.060741003245987097e-33
5.120229144327024382e-29
6.403966240187664421e-25
2.454771399538460266e-21
3.332095338042305237e-18
1.814465945003927362e-15
4.416291633221620219e-13
5.278025751971205739e-11
3.362092820775629133e-09
1.226453468417492965e-07
2.728835627487945811e-06
3.914853052148759932e-05
3.803588482833241921e-04
2.614099423716853207e-03
1.321011409781846363e-02
5.080366327145755673e-02
1.533084905627926653e-01
3.729633249183356147e-01
7.490477122404251009e-01
1.267850538629094581e+00
1.841066509745286073e+00
2.328744929490853544e+00
2.599361858017606330e+00
2.589089839002145954e+00
2.323667781730045068e+00
1.895275367214509288e+00
1.415783371366752252e+00
9.754765869702339831e-01
6.239836189678438227e-01
3.728326500494624773e-01
2.092745577391560974e-01
1.109431481738764741e-01
5.582606145829283745e-02
2.678886880887034264e-02
1.231244613800304422e-02
5.442113316072000329e-03
2.321986750737628589e-03
9.597048967802271433e-04
3.854838158992555421e-04
1.509260041883252082e-04
5.775791302873501027e-05
2.165987296327539434e-05
7.978451740636543344e-06
2.892949354298609144e-06
1.034640245883760502e-06
3.656471426548086707e-07
1.279067534317305086e-07
4.435662457297937852e-08
1.527137021359127936e-08
5.226638928596966485e-09
1.780393538339461951e-09
6.042820866796589814e-10
2.045668547332865181e-10
6.913656543764162389e-11
2.334687742425140326e-11
7.883856265297675643e-12
4.582346899647774121e-12
