# bin_3
0.000000000000000000e+00
3.366568833889012647e-50
9.002581157209552322e-40
1.560435146143597085e-31
6.796703795079567429e-25
1.596761091768488847e-19
3.537270872920163715e-15
1.138769200175954348e-11
7.507856524731384152e-09
1.335938092406061346e-06
8.031923336411366540e-05
1.962847583536299779e-03
2.273945911535648831e-02
1.421676353690135286e-01
5.358325341711686063e-01
1.338860388105048260e+00
2.402092739471232363e+00
3.294292563160497345e+00
3.607050496865034539e+00
3.238824951489871040e+00
2.424298973374910293e+00
1.531817937137516683e+00
8.273774444941717210e-01
3.872496950874509403e-01
1.593333107974084228e-01
5.846768658482830866e-02
1.940284563777150417e-02
5.899627559459425137e-03
1.663436490227480696e-03
4.396834775812825838e-04
1.100220016326979217e-04
2.629211119379684081e-05
6.047283220827525154e-06
1.347984044088370719e-06
2.929913482791284296e-07
6.243344683331715831e-08
1.310518282730760529e-08
2.721178537198658987e-09
5.610034809017259425e-10
1.152075647961140850e-10
2.363434459873907693e-11
4.855576193278165172e-12
1.001208986062769397e-12
2.076000664026684270e-13
4.335852911048715541e-14
9.134755580215816725e-15
1.943756496421085683e-15
4.181981585877690860e-16
9.105933205826845299e-17
2.008246482023430698e-17
4.489064553176468681e-18
1.017632155919489264e-18
2.340619125227840974e-19
5.464469795815176854e-20
1.295336883364006578e-20
3.118503551274526883e-21
7.626486692916404676e-22
1.894876744028050407e-22
4.783646067658071182e-23
1.227112913980176006e-23
3.198656509396112636e-24
8.472365410747391085e-25
2.280237103639529073e-25
6.235441079007215599e-26
1.732329130934100818e-26
4.889063840689981125e-27
1.401528507752397689e-27
4.080390488444760642e-28
1.206319445314652215e-28
3.620898502883212596e-29
1.103296991324170652e-29
6.124251396921859035e-30
