# bin_8_2
-1.931163266603420284e-09
-1.998905966219594881e-09
-1.994636774233732819e-09
-1.898415957656814398e-09
-1.710689673324959584e-09
-1.462411985780665528e-09
-1.207856539276054937e-09
-1.004318932620379029e-09
-8.550584521112826272e-10
-6.995267013541371027e-10
-5.177825262267499212e-10
-3.843419032587833586e-10
-2.947600576914596085e-10
-2.119818441109933234e-10
-1.560190411028158910e-10
-1.133441777206160139e-10
-8.324722205287520302e-11
-6.183078217910837795e-11
-4.667127747013355467e-11
-3.585716905401819000e-11
-2.798766256100347132e-11
-2.210407779879590129e-11
-1.754711325390263752e-11
-1.390164971499423276e-11
-1.091631775196083648e-11
-8.443160886817742249e-12
-6.398597321650134896e-12
-4.733137292719263908e-12
-3.409669929395915159e-12
-2.391343916242749957e-12
-1.635028089375212651e-12
