# bin_10_2
-2.120122344767715605e-09
-2.195401023344011301e-09
-2.191839023511439944e-09
-2.087477648005319701e-09
-1.882347887126456162e-09
-1.610133629514912690e-09
-1.330143823297195665e-09
-1.105653015867140976e-09
-9.412558203243934622e-10
-7.708653024674046980e-10
-5.711533534323723760e-10
-4.235682070356624152e-10
-3.250262616787433047e-10
-2.337843294494726297e-10
-1.720437752794909868e-10
-1.249664972167771000e-10
-9.176531341180222513e-11
-6.813370799891461923e-11
-5.140829013187950053e-11
-3.948080540023095327e-11
-3.080515852581515815e-11
-2.432308653595106384e-11
-1.930620572945167153e-11
-1.529534367560724370e-11
-1.201227805115834272e-11
-9.293079927862726068e-12
-7.045070925610730426e-12
-5.213448491113261130e-12
-3.757328277520016964e-12
-2.636323676719870375e-12
-1.803257125281972955e-12
