# bin_5_4
-2.898512783438883590e-10
-3.141604572326811269e-10
-3.316546806679412104e-10
-3.387881854207273302e-10
-3.322800879179597754e-10
-3.087035852960442957e-10
-2.711708286984497432e-10
-2.262288372912612516e-10
-1.855384119360545967e-10
-1.569054394328131708e-10
-1.343419675280366405e-10
-1.041896869722012235e-10
-7.364553551857197247e-11
-5.798422685117481478e-11
-4.176761106966056186e-11
-3.047617141567975234e-11
-2.168752713444551860e-11
-1.569527600026940709e-11
-1.133278300241684910e-11
-8.268688045967171058e-12
-6.129475283966698373e-12
-4.621830230230377756e-12
-3.546642273827287731e-12
-2.759654421722850554e-12
-2.164324971953862819e-12
-1.699713776396930736e-12
-1.327281299271226939e-12
-1.023943358624102361e-12
-7.761382460849017171e-13
-5.755228931256806967e-13
-4.162278325153353100e-13
