# bin_6_5
-2.037025364284408303e-10
-2.237888241688533897e-10
-2.402514974041747701e-10
-2.505129947433552205e-10
-2.521469090655440815e-10
-2.421741680027922300e-10
-2.197284663828427169e-10
-1.885624263567492051e-10
-1.551394348096129924e-10
-1.282276745125814862e-10
-1.101876746287974059e-10
-9.201861613301393674e-11
-6.702234970532190002e-11
-4.887685296928375564e-11
-3.861216047865802895e-11
-2.648239515034630106e-11
-1.971338086007604602e-11
-1.393270106280583913e-11
-9.908081799727669114e-12
-7.115003256794167245e-12
-5.160403389720298611e-12
-3.800129480190355976e-12
-2.846388765170057878e-12
-2.171235562712860278e-12
-1.679550557206800547e-12
-1.310293417739698461e-12
-1.024250135609923684e-12
-7.965147863831496053e-13
-6.122981172774529631e-13
-4.627610234859170000e-13
-3.424072731425072626e-13
