# bin_4_10
-8.534512892021033731e-20
-9.587572954004349725e-20
-1.057847526092199319e-19
-1.141324588687567789e-19
-1.197151430253625888e-19
-1.212949683958710349e-19
-1.175419651939369978e-19
-1.075512830615059163e-19
-9.305851906293068653e-20
-7.674504999275158969e-20
-6.310739851164640059e-20
-5.412375802232402668e-20
-4.594872400515580564e-20
-3.393764129797527373e-20
-2.408114067029222511e-20
-1.946001146380856063e-20
-1.302173212660353107e-20
-9.818692687718883214e-21
-6.756426914389536515e-21
-4.698020150584174548e-21
-3.295969634303305218e-21
-2.315874953980793181e-21
-1.642028672121762965e-21
-1.179891965062874950e-21
-8.647301235383103711e-22
-6.459124776782829448e-22
-4.907212070510762041e-22
-3.776158956625366043e-22
-2.923399869234901395e-22
-2.260439573857516707e-22
-1.733473538626966826e-22
