# bin_8_7
-1.150272269319840768e-10
-1.285417363052895876e-10
-1.409208586632409186e-10
-1.508397263533504674e-10
-1.566393560168847512e-10
-1.568868897269400948e-10
-1.495560580514885399e-10
-1.346180001408629179e-10
-1.145762311224072684e-10
-9.395265271513445098e-11
-7.803976077921377872e-11
-6.739431741449343587e-11
-5.550360211290199232e-11
-3.948409740586040244e-11
-2.944897008070929098e-11
-2.283872468857246039e-11
-1.558382704927445937e-11
-1.139435211965282323e-11
-8.061875070950727910e-12
-5.630618754461023190e-12
-3.961981249469979945e-12
-2.811065197184865382e-12
-2.021381760860780687e-12
-1.477654769632019492e-12
-1.101597094703490052e-12
-8.355589104510081958e-13
-6.425365202317696837e-13
-4.980359826451763867e-13
-3.863205815498479698e-13
-2.977781051318282508e-13
-2.266717873073665075e-13
