# bin_10_7
-2.565624025010814268e-10
-2.870800763147693884e-10
-3.152292328077042081e-10
-3.380865956684305373e-10
-3.519703748776013518e-10
-3.535618875158901386e-10
-3.384510913235698894e-10
-3.059253103842815822e-10
-2.614817749125264856e-10
-2.147183555279565012e-10
-1.778744689232132019e-10
-1.533598759693350773e-10
-1.273294616546563862e-10
-9.145301297332990618e-11
-6.731866604241378817e-11
-5.279821876829631311e-11
-3.582018569390792405e-11
-2.641120617986883508e-11
-1.855523123016521724e-11
-1.294353998863154066e-11
-9.098817605176598485e-12
-6.438280637615801925e-12
-4.612628444863639980e-12
-3.357011412922690563e-12
-2.491856056854649027e-12
-1.882841505714890827e-12
-1.443588268191989049e-12
-1.116993282604693586e-12
-8.660683286162813757e-13
-6.681200261425464511e-13
-5.095359270068168440e-13
