# bin_10_5
-6.094728166851322336e-10
-6.712585356049197715e-10
-7.228916705237961661e-10
-7.567414882655560429e-10
-7.651874375952541193e-10
-7.397407339009695170e-10
-6.759084182361798137e-10
-5.840928640368877009e-10
-4.822208278962850991e-10
-3.973415494566312831e-10
-3.400890434866507321e-10
-2.867836677858174923e-10
-2.126070090776515819e-10
-1.527603986723428787e-10
-1.213684277310392129e-10
-8.371838402798625415e-11
-6.225163084380867697e-11
-4.372147017664738027e-11
-3.113463774256439291e-11
-2.229065711089662409e-11
-1.609324980265530288e-11
-1.178818990123089889e-11
-8.778465344004168805e-12
-6.659959006376519718e-12
-5.129548289053459639e-12
-3.990274899899398320e-12
-3.115581838709992963e-12
-2.424211756091981675e-12
-1.867450011678488171e-12
-1.416159885714113858e-12
-1.052528481553322537e-12
