# bin_14_2
-2.306884663916811328e-09
-2.392717554728022137e-09
-2.393708886350926866e-09
-2.285592771368263334e-09
-2.066417845816648742e-09
-1.771588298707673763e-09
-1.464510795609302136e-09
-1.215825730681299383e-09
-1.034923123142832435e-09
-8.511563348077703553e-10
-6.327567701296985895e-10
-4.675997537838992909e-10
-3.597136226854253023e-10
-2.587651865974672073e-10
-1.903872133197911153e-10
-1.381920554407579358e-10
-1.014006039775361590e-10
-7.518950869995947303e-11
-5.664678861257156890e-11
-4.343902389745691344e-11
-3.384921295868265418e-11
-2.670182173860145966e-11
-2.118497041909290028e-11
-1.678473716828851280e-11
-1.318899900582850430e-11
-1.021317287110477886e-11
-7.752639781728938430e-12
-5.745873753073486275e-12
-4.147871424795775034e-12
-2.915058728247538521e-12
-1.996864681573124406e-12
