# bin_12_7
-3.577062442953749537e-10
-4.004284833034810027e-10
-4.399245322585917265e-10
-4.721337548026892789e-10
-4.919317664063101083e-10
-4.946341564708533548e-10
-4.741484602540679323e-10
-4.291854143583897479e-10
-3.673546383245484286e-10
-3.018159073432763809e-10
-2.498187261124673772e-10
-2.152549611038144441e-10
-1.791718892375600794e-10
-1.291194783084485789e-10
-9.465433573934012457e-11
-7.447280856303931003e-11
-5.046776092240624630e-11
-3.729052731733636661e-11
-2.613981897443267951e-11
-1.823112006047106935e-11
-1.281117345341760595e-11
-9.057023607951294411e-12
-6.480861879329564083e-12
-4.709709750853105525e-12
-3.490790785606234169e-12
-2.634150733232118070e-12
-2.017511533765517462e-12
-1.560079763714501287e-12
-1.209385476557500892e-12
-9.331881796465739410e-13
-7.121148972715704810e-13
