# bin_5_7
-1.102390717007211352e-12
-1.224822637697793034e-12
-1.333309440495410001e-12
-1.414631234888556181e-12
-1.452931239800922485e-12
-1.435563663536913194e-12
-1.343993029785396294e-12
-1.189081980720943228e-12
-9.958094130610154988e-13
-8.147501882013379303e-13
-6.861019128332603535e-13
-5.925407858191856235e-13
-4.673931677134161740e-13
-3.252877056643314472e-13
-2.561884987505990533e-13
-1.856529315288867126e-13
-1.336874996652476242e-13
-9.337116456341104954e-14
-6.712335189769498754e-14
-4.745647650490039824e-14
-3.370432474070854077e-14
-2.424891522994563691e-14
-1.770544391005569290e-14
-1.317052350972541748e-14
-9.978152254722209955e-15
-7.670611074432861094e-15
-5.954054560413022083e-15
-4.634564443549861556e-15
-3.591850776044664868e-15
-2.753504084011852644e-15
-2.076757838449021601e-15
