# bin_7_7
-4.866210728090216528e-11
-5.430439462401048080e-11
-5.943357861104062488e-11
-6.348313314809230596e-11
-6.574832248861297042e-11
-6.564456828416547165e-11
-6.230303090860767604e-11
-5.584076263066980727e-11
-4.732548229536589442e-11
-3.876531614505871833e-11
-3.229957664291796441e-11
-2.792295966129607841e-11
-2.278107761415846879e-11
-1.607096331980348530e-11
-1.215930554958651599e-11
-9.292823602859105396e-12
-6.406049975585923913e-12
-4.629823863420602711e-12
-3.297882076956127118e-12
-2.308829714645480532e-12
-1.626686501044565341e-12
-1.157754572517679454e-12
-8.356982327654974237e-13
-6.136456837315749031e-13
-4.594292732563308122e-13
-3.497606166121448101e-13
-2.696998077927616571e-13
-2.093515971485398282e-13
-1.624137753582920603e-13
-1.250530131474758058e-13
-9.499148634599357735e-14
