# bin_3_9
-9.585197516793221259e-21
-1.070556544006049899e-20
-1.172873404377914451e-20
-1.254375472460170673e-20
-1.301170115158427071e-20
-1.301634128288112614e-20
-1.238449388145485167e-20
-1.112535450242313672e-20
-9.448434985410909440e-21
-7.740558893137549710e-21
-6.437135550823082936e-21
-5.566282116354955956e-21
-4.568594589094781735e-21
-3.229477693360309265e-21
-2.426338297301936571e-21
-1.872158371663938418e-21
-1.280009331518619090e-21
-9.311457768161346540e-22
-6.623355483665850078e-22
-4.628695585567744053e-22
-3.256220951149300286e-22
-2.312986970323002085e-22
-1.666264283427821738e-22
-1.220752488668136740e-22
-9.120515018684858071e-23
-6.931375392300444380e-23
-5.338515476183554455e-23
-4.142038379864950565e-23
-3.214104820063000401e-23
-2.476840041989814240e-23
-1.883933387938701121e-23
