# bin_5_3
-7.057215886602859438e-10
-7.514785115694986515e-10
-7.761159091473554419e-10
-7.721823211118529699e-10
-7.310752369840276407e-10
-6.544618290355856947e-10
-5.552555032127024109e-10
-4.563301068446238992e-10
-3.805767941317822178e-10
-3.262658610214071854e-10
-2.646072675217405366e-10
-1.910980630310279755e-10
-1.438819288149147130e-10
-1.097842372168697907e-10
-7.785046172578376216e-11
-5.719492606093644272e-11
-4.128196408163798452e-11
-2.998081143405426908e-11
-2.203788357787986428e-11
-1.644649940333952271e-11
-1.248929526239277207e-11
-9.643726174014149302e-12
-7.548804424839134004e-12
-5.952432276778917755e-12
-4.695990905902309881e-12
-3.681136713006574136e-12
-2.848535285849428138e-12
-2.164038780795391995e-12
-1.607047274678945017e-12
-1.163142392092616211e-12
-8.196291433933319001e-13
