# bin_6_7
-1.133476040515255114e-11
-1.262432943273059076e-11
-1.378367847411964195e-11
-1.467898432303836278e-11
-1.514582209212524641e-11
-1.505290498938285478e-11
-1.419920268794294134e-11
-1.265217291567595013e-11
-1.066280532035066335e-11
-8.726268414188226382e-12
-7.304736225821058824e-12
-6.317138136760801047e-12
-5.079989572245332457e-12
-3.553368216371136213e-12
-2.741044972430421028e-12
-2.046800313858055579e-12
-1.437310153343220029e-12
-1.021120678926139451e-12
-7.322528879891528167e-13
-5.147893160758683430e-13
-3.637308372980080226e-13
-2.601187845052771714e-13
-1.887445895120873648e-13
-1.394258275188998221e-13
-1.049684924983412304e-13
-8.028510797705933311e-14
-6.211162198697604347e-14
-4.828737514386089138e-14
-3.745278466264476771e-14
-2.878514149328982638e-14
-2.179766858559242361e-14
