# bin_10_3
-1.371574769963857378e-09
-1.464039963596551391e-09
-1.516572202233827450e-09
-1.514485874472397671e-09
-1.440913709523809207e-09
-1.296430488062132702e-09
-1.105013957724023250e-09
-9.094185167409061867e-10
-7.562821827043225563e-10
-6.478196262844554921e-10
-5.302448217370887856e-10
-3.860394949195695243e-10
-2.876535183000646899e-10
-2.213240124675453142e-10
-1.565893376729202663e-10
-1.152843650642510160e-10
-8.295239933708389690e-11
-6.017824766635079580e-11
-4.412529663824400361e-11
-3.282522175771624525e-11
-2.484473809326708902e-11
-1.912348139170487208e-11
-1.493218696599778075e-11
-1.175638695670631513e-11
-9.270086832673363489e-12
-7.270515542560044199e-12
-5.634340176661858056e-12
-4.290243512051728805e-12
-3.195452526160440619e-12
-2.320739416942994399e-12
-1.641283023359550373e-12
