# bin_9_4
4.054690389825274293e-09
4.538630106547709958e-09
4.985854824273224629e-09
5.350302390097566489e-09
5.573851417351217398e-09
5.603576402449643157e-09
5.370123603879831903e-09
4.859478255105862613e-09
4.158104244209072368e-09
3.415675103232678109e-09
2.827553416676692863e-09
2.436934446932679822e-09
2.027710054572029322e-09
1.459796090870181410e-09
1.071015079428940243e-09
8.424574419233801869e-10
5.706938509184377709e-10
4.216378044306474455e-10
2.957526792080888007e-10
2.062479606092858043e-10
1.449328613146822794e-10
1.024754191075582464e-10
7.334598574837506360e-11
5.331817860208278111e-11
3.953187360832030011e-11
2.983985265364369287e-11
2.286043118063501286e-11
1.768046161530638481e-11
1.370725811648740195e-11
1.057679122329612478e-11
8.070442501072725139e-12
