# bin_6_2
9.111480338375610753e-09
9.961870421879431962e-09
1.063112227904338942e-08
1.100325418766729389e-08
1.097663686297129100e-08
1.041618626974061510e-08
9.339454840314514434e-09
7.925164608176995695e-09
6.501557818374166003e-09
5.416187976987832744e-09
4.665095113542378104e-09
3.802432901723818510e-09
2.715093225521952800e-09
2.045880867315967987e-09
1.565949940067901288e-09
1.094148916450693038e-09
7.994569992424641932e-10
5.726029751842699754e-10
4.088577862933491858e-10
2.949805417294155876e-10
2.155812926591467193e-10
1.601491101790431151e-10
1.210806257807306495e-10
9.310275905569332428e-11
7.244419193310617574e-11
5.670313118520795565e-11
4.434144230293329983e-11
3.440244539776278831e-11
2.632232180727504894e-11
1.976244317728635687e-11
1.450367754704462751e-11
