# bin_11_5
1.963095224611967127e-12
2.217173301545171586e-12
2.462155064197091141e-12
2.677627978901178663e-12
2.836623339471513492e-12
2.907069237800720962e-12
2.863746847472058489e-12
2.669896294909692117e-12
2.352695035113832556e-12
1.962817791445140437e-12
1.605985930369192779e-12
1.358256211649980584e-12
1.172901481038667094e-12
9.129060595590216771e-13
6.317414455675977434e-13
5.044951415587160056e-13
3.555698099140836214e-13
2.594772493601336888e-13
1.763991422302340419e-13
1.249380788513845827e-13
8.679707125981162662e-14
6.019828039308194742e-14
4.204656756318896788e-14
2.965264298682085035e-14
2.127517474120483957e-14
1.556487105119451905e-14
1.160809782377183964e-14
8.810041463479284836e-15
6.768207299716833723e-15
5.227435074397324169e-15
4.028707043972696895e-15
