# bin_9_6
3.820265610973282208e-07
4.293732249878352156e-07
4.740283523448777439e-07
5.118092693125597868e-07
5.373397437933980668e-07
5.450239460580607335e-07
5.290206489463909474e-07
4.850637789615728952e-07
4.205646528022676688e-07
3.473993372930141912e-07
2.855992619668122824e-07
2.444691410353771505e-07
2.077643828376821430e-07
1.545229350075075334e-07
1.094868711341827656e-07
8.806492427092125516e-08
5.955732016310674680e-08
4.455634349711111544e-08
3.063647491524111183e-08
2.138184437807704613e-08
1.497686528193721508e-08
1.050677559982339924e-08
7.436831412458086849e-09
5.332424837393015529e-09
3.898396072285838937e-09
2.904861673964085274e-09
2.202074711377069727e-09
1.691618737106192346e-09
1.308194595711101018e-09
1.011143507348272997e-09
7.756516959022338188e-10
