# bin_7_3
1.856004914724479742e-08
2.051716699702097320e-08
2.219607898566891828e-08
2.336822231577751488e-08
2.378557053438950038e-08
2.320887908171838441e-08
2.141875672558054551e-08
1.869073062976603336e-08
1.550951036055845081e-08
1.272943469451816717e-08
1.083166579067490509e-08
9.249269348002093761e-09
7.026541275143259832e-09
4.957091167283194691e-09
3.957694551252501179e-09
2.759699989861335216e-09
2.043333674209353213e-09
1.425226152895988133e-09
1.017080486221722973e-09
7.250413384500869573e-10
5.201597035419618420e-10
3.782108935734262580e-10
2.793646385674266237e-10
2.103002928574821261e-10
1.609533162691470442e-10
1.246652187925445051e-10
9.715716896463097629e-11
7.564531531497214876e-11
5.843936212494532199e-11
4.452683995790885488e-11
3.330074911822039150e-11
