# bin_8_8
3.330461500072245366e-06
3.749929824128929068e-06
4.148880307132188835e-06
4.491500963598617140e-06
4.731334143843888545e-06
4.817368418970778772e-06
4.701792479913431817e-06
4.337407325009430405e-06
3.783298385142839633e-06
3.135712455739169519e-06
2.572407398578518078e-06
2.192817405072843484e-06
1.876440093099745759e-06
1.418833710827000160e-06
9.944184114014488696e-07
8.005087754092443550e-07
5.473805131121516919e-07
4.074579750345286464e-07
2.785143556744816875e-07
1.951222220662084922e-07
1.363483462932786287e-07
9.529227552570272249e-08
6.711520722090478868e-08
4.782648308040519083e-08
3.472818619546425915e-08
2.570961915147468118e-08
1.937973333456606281e-08
1.482740025889181643e-08
1.144316067050247655e-08
8.844991572481001111e-09
6.797901885505509395e-09
