# bin_15_1
5.694938594285999033e-37
6.485348610023288274e-37
7.277063320890030929e-37
8.015050473101096148e-37
8.626207494168995285e-37
9.017618210883256771e-37
9.100326313585382988e-37
8.764089869115041306e-37
7.965240504596576714e-37
6.844332651433223782e-37
5.626490712642521400e-37
4.643438834301388942e-37
4.001948482411009351e-37
3.362792329925666151e-37
2.432692823826791579e-37
1.756959082365237073e-37
1.404068522472554321e-37
9.300324293482868091e-38
6.934370586731726847e-38
4.769948247929928825e-38
3.247559638635413120e-38
2.221566266748869835e-38
1.513105267905599130e-38
1.034880979435822234e-38
7.132554197230110561e-39
4.995295507758570231e-39
3.562949831563299974e-39
2.595520267285596419e-39
1.930993858510591445e-39
1.462155002811354527e-39
1.120035173129798487e-39
