# bin_6_14
-7.978749091201830046e-22
-9.078828856401484475e-22
-1.017651183071999385e-21
-1.119428858167518711e-21
-1.202887880791921223e-21
-1.254951271531741684e-21
-1.263590596937704945e-21
-1.212851708990598104e-21
-1.098586088313049404e-21
-9.407167839404939439e-22
-7.723145104311368208e-22
-6.386659967903527691e-22
-5.514086949232110951e-22
-4.605812046519758273e-22
-3.302519998554764213e-22
-2.411507534023422057e-22
-1.910375051799959729e-22
-1.269866054361315647e-22
-9.398268712093124605e-23
-6.506790137346036582e-23
-4.433962249360152912e-23
-3.031616072029059398e-23
-2.067797662706462426e-23
-1.418520446046714510e-23
-9.818450943318663991e-24
-6.910409319200750942e-24
-4.955653109200067805e-24
-3.629855781484752854e-24
-2.713563331186484860e-24
-2.062201385505967711e-24
-1.582965178590430853e-24
