# bin_4_4
-7.808229050726619116e-11
-8.461348426345300606e-11
-8.929904260208386286e-11
-9.116486197257480144e-11
-8.936229810826351566e-11
-8.288535061746354894e-11
-7.268953966736868036e-11
-6.047109977365109921e-11
-4.951662417201763371e-11
-4.196716367376654120e-11
-3.605475435745824866e-11
-2.779479347063779896e-11
-1.945305576024622756e-11
-1.557661970214989709e-11
-1.101631619420222554e-11
-8.173857901356560118e-12
-5.737427556495194148e-12
-4.162624097656263132e-12
-3.013852171651113822e-12
-2.202627219864574264e-12
-1.635567169998237202e-12
-1.235153406336893536e-12
-9.495169190705579486e-13
-7.399798861414697216e-13
-5.810778159599646636e-13
-4.567444338852595654e-13
-3.568201893613896745e-13
-2.752730534574514742e-13
-2.085641123497422409e-13
-1.545205725070601806e-13
-1.116010243176426982e-13
