# bin_8_1
-3.131416391247485325e-09
-3.083792360373280891e-09
-2.889836971447599952e-09
-2.564486969161427919e-09
-2.166517871441685959e-09
-1.786550346337552689e-09
-1.496164078315199675e-09
-1.268282409948017976e-09
-1.011126029779409230e-09
-7.416833344408437266e-10
-5.596692616995979789e-10
-4.236695890168126376e-10
-3.065712596697430074e-10
-2.270176230668802791e-10
-1.668015600021377747e-10
-1.243331502373114950e-10
-9.414152734565144883e-11
-7.257191319403755989e-11
-5.690895594964789931e-11
-4.521214678631433870e-11
-3.617230157573180702e-11
-2.892632829313809155e-11
-2.295461799729328312e-11
-1.795777070807351636e-11
-1.377201334039656912e-11
-1.030975366620604608e-11
-7.514663454030147318e-12
-5.329575456243522705e-12
-3.682287665694867095e-12
-2.484634869658510349e-12
-1.642484604548724667e-12
