# bin_8_7
-1.050344358794671959e-10
-1.175338468305522433e-10
-1.290656148667855692e-10
-1.384319230548187962e-10
-1.441219594874577052e-10
-1.447915143641517954e-10
-1.385798724843145120e-10
-1.251931615729455578e-10
-1.069229634153001164e-10
-8.770915907048380077e-11
-7.263017552942371916e-11
-6.272499887518498671e-11
-5.213999944168738259e-11
-3.725259973829890064e-11
-2.744654534400609474e-11
-2.162265428379512732e-11
-1.455272112728951361e-11
-1.077843464274535785e-11
-7.594559556779699979e-12
-5.287863339377979442e-12
-3.714303685311949906e-12
-2.626763684914403966e-12
-1.882798853590533512e-12
-1.371293150766059828e-12
-1.018794678407952838e-12
-7.705176357456865205e-13
-5.913256310529696252e-13
-4.579456235235698294e-13
-3.553257747986359925e-13
-2.742497421466124889e-13
-2.092072623240835982e-13
