# bin_10_6
-4.027537534598854017e-10
-4.480234996403812112e-10
-4.884274483350234127e-10
-5.191699188997223296e-10
-5.344063290300448154e-10
-5.295630682945027857e-10
-4.975708204875837855e-10
-4.417105129716155020e-10
-3.709396311458522218e-10
-3.034393804451583282e-10
-2.548011118826806220e-10
-2.203445442857895037e-10
-1.754584221295475614e-10
-1.221557378366321941e-10
-9.542574617075649681e-11
-7.010936746763431362e-11
-4.991048979150976367e-11
-3.505040507520510189e-11
-2.521844082177157728e-11
-1.778221827202884877e-11
-1.259406442408711884e-11
-9.035712048735723953e-12
-6.578338954140297276e-12
-4.877860505643403645e-12
-3.685094231960882392e-12
-2.826591584097675361e-12
-2.191040973694276904e-12
-1.704819954422358547e-12
-1.321974973355892416e-12
-1.014789346575428228e-12
-7.669029630447558750e-13
