# bin_1_3
-4.646068343566272601e-15
-4.828831280541467599e-15
-4.844925814063619329e-15
-4.634569122967470739e-15
-4.188165679629238888e-15
-3.580089653379678344e-15
-2.939341397381929115e-15
-2.431595523017868574e-15
-2.092053873667015025e-15
-1.739346035787367470e-15
-1.259200431090307092e-15
-9.285225994501233959e-16
-7.342685350606483811e-16
-5.087211416695879198e-16
-3.829469867983303529e-16
-2.773033427332889769e-16
-2.023213277699893060e-16
-1.501509334854826754e-16
-1.132486881922384663e-16
-8.699147014074558337e-17
-6.792234564037327100e-17
-5.371128014124094663e-17
-4.271414167737345824e-17
-3.391538544968645836e-17
-2.669910296037074352e-17
-2.070238215779368177e-17
-1.572459752548883922e-17
-1.165035479599487499e-17
-8.397652316475730966e-18
-5.887418565305160734e-18
-4.020882270152069389e-18
