# bin_10_3
-1.355045938996571081e-09
-1.449140714880116923e-09
-1.504336923090140520e-09
-1.506522930829457539e-09
-1.437531020125262537e-09
-1.296208728613282722e-09
-1.105907665191843450e-09
-9.084364031203667123e-10
-7.535651864601460103e-10
-6.479570004265997677e-10
-5.346628318420604845e-10
-3.864473038760102162e-10
-2.868949668592806113e-10
-2.235843787688579419e-10
-1.559596415337597095e-10
-1.157351629033263148e-10
-8.321319307278884780e-11
-6.018020933249524157e-11
-4.408629791447772066e-11
-3.276373663118160429e-11
-2.477572686613327340e-11
-1.905700283833880527e-11
-1.487775931389475396e-11
-1.171672034402295080e-11
-9.245429023670501802e-12
-7.259201539445413373e-12
-5.633319280462218570e-12
-4.296089126580238111e-12
-3.204764253794720340e-12
-2.330578332641529833e-12
-1.649783851423199247e-12
