# bin_9_9
-2.235098961582044156e-11
-2.524518308244418833e-11
-2.803610051199894499e-11
-3.049155746610498229e-11
-3.230442022326400227e-11
-3.310769000623261231e-11
-3.261820605293853606e-11
-3.041125449208015788e-11
-2.679915094847533479e-11
-2.235356389933343919e-11
-1.828545064935133669e-11
-1.546563122349005299e-11
-1.336317627855552791e-11
-1.040017371406953222e-11
-7.185333491297860472e-12
-5.749374913618333017e-12
-4.046510826270779200e-12
-2.959035591855533408e-12
-2.004129896173806815e-12
-1.421379729227871563e-12
-9.876223319403374733e-13
-6.851279607364228278e-13
-4.786099645203758183e-13
-3.375265149372666549e-13
-2.421864973946577398e-13
-1.772013146122563505e-13
-1.321738474881426869e-13
-1.003344233055975760e-13
-7.709887494957593671e-14
-5.956234588179258342e-14
-4.591472745615108551e-14
