# bin_4_2
-1.099385679410815849e-09
-1.139456265560906749e-09
-1.139072155470450972e-09
-1.085353457174230969e-09
-9.780309473533122515e-10
-8.346674892059921833e-10
-6.868086075942735468e-10
-5.702933687404061948e-10
-4.885868649175782335e-10
-4.015648166240027674e-10
-2.930618152050173236e-10
-2.179070824452814139e-10
-1.687039657168487592e-10
-1.197098226280852767e-10
-8.876046329839943612e-11
-6.433143874538423935e-11
-4.719672330552246572e-11
-3.507305447182314948e-11
-2.648894106178404875e-11
-2.036818722128445280e-11
-1.591434524758709398e-11
-1.258486066348837838e-11
-1.000301081646747353e-11
-7.934362761532587746e-12
-6.237057175046818975e-12
-4.827831715552301526e-12
-3.660237697379709971e-12
-2.707246379463716727e-12
-1.948863498643673645e-12
-1.365168745257657442e-12
-9.319911866022374440e-13
