# bin_15_13
-5.988247961656256075e-11
-6.843011605204904005e-11
-7.712542910721585590e-11
-8.540436251467249582e-11
-9.252805922553552452e-11
-9.753650409601876820e-11
-9.936114271617670311e-11
-9.703344530567541059e-11
-8.952324229915041346e-11
-7.809427045559187025e-11
-6.468823737197830875e-11
-5.304518952052331287e-11
-4.526218220348471821e-11
-3.879857162539553740e-11
-2.926426619062879157e-11
-2.040721836070634308e-11
-1.652654879444820426e-11
-1.113383999208531915e-11
-8.322312829430356664e-12
-5.592373230669421776e-12
-3.839689507921540255e-12
-2.625357154044776682e-12
-1.780119845978039861e-12
-1.203515783193794360e-12
-8.152880253845237970e-13
-5.589262250459640237e-13
-3.890679072258251102e-13
-2.761485446122814717e-13
-2.004488733425471479e-13
-1.487076449576992771e-13
-1.123350526229161491e-13
