# bin_3_10
-6.947786395647187736e-30
-7.883358070551152430e-30
-8.804312385077348351e-30
-9.641757606398957096e-30
-1.030326879487994967e-29
-1.067307323336200181e-29
-1.065874085440787427e-29
-1.011252420361528643e-29
-9.057875074446797277e-30
-7.667709989214454002e-30
-6.276158127882558282e-30
-5.233252358762253152e-30
-4.533769860577916681e-30
-3.696023337780696025e-30
-2.585759727496096291e-30
-1.965154163732156521e-30
-1.493855076642436426e-30
-1.021757238482986723e-30
-7.270480983531747837e-31
-5.145454513990824196e-31
-3.527814523802647427e-31
-2.412778803741481169e-31
-1.659808739494546460e-31
-1.151311088866237021e-31
-8.087136976089617048e-32
-5.786258592169073120e-32
-4.222166334307628859e-32
-3.144658899463315205e-32
-2.383557630716394349e-32
-1.828550952355292062e-32
-1.409506884828513441e-32
