# bin_14_15
-6.176989582412716530e-12
-7.077026748753841026e-12
-8.001758881583770998e-12
-8.894839012939012305e-12
-9.682417812913000823e-12
-1.026675524422670246e-11
-1.053057514794247282e-11
-1.038387213047698324e-11
-9.689744657950981748e-12
-8.545227813242606121e-12
-7.131833319631444158e-12
-5.834794948507512983e-12
-4.934103280969032660e-12
-4.264305071060692501e-12
-3.321497482472994102e-12
-2.292608477916441931e-12
-1.830665637168901795e-12
-1.286071995698144165e-12
-9.345283268999913567e-13
-6.265851182118232559e-13
-4.383145344786471541e-13
-2.979775795357745323e-13
-2.004951314786915544e-13
-1.345497341168914169e-13
-9.016813256140045299e-14
-6.088367624937146167e-14
-4.161220251214814550e-14
-2.892016970287406875e-14
-2.053904279505593935e-14
-1.493157206570726054e-14
-1.109756808433554221e-14
