# bin_11_6
6.620486618337612801e-08
6.189573470480204845e-08
5.637923908704157373e-08
4.996335681091921095e-08
4.307298933398149561e-08
3.619124392483259687e-08
2.976601500556210617e-08
2.409007792138363064e-08
1.924682570373459730e-08
1.514732365331470596e-08
1.167080279984898569e-08
8.801771884244887825e-09
6.586298984977948006e-09
4.945068138894766918e-09
3.699528257923952073e-09
2.774323741510542334e-09
2.098012767050228865e-09
1.597928300229903848e-09
1.226725761190400267e-09
9.474495752187110411e-10
7.338771175665454233e-10
5.679534326093463766e-10
4.374277052036116664e-10
3.340012073006793406e-10
2.519784086440506352e-10
1.873075621417638407e-10
1.368995549751738496e-10
9.823613635482468824e-11
6.915466614115788718e-11
4.775308215737518793e-11
3.236166639795261582e-11
