# bin_14_5
6.286192075540104047e-08
5.841479859156189347e-08
5.285229009606220724e-08
4.650318242248201613e-08
3.980261390700737467e-08
3.322817932354331789e-08
2.719313006949355005e-08
2.193196065984472544e-08
1.746869522024074355e-08
1.368130812857689234e-08
1.046955736969208579e-08
7.861568197085472973e-09
5.892855601747215248e-09
4.428431158155387210e-09
3.312445964981186799e-09
2.496310651784580791e-09
1.894259075440463901e-09
1.450163380024439306e-09
1.118493878724517116e-09
8.673098616728337949e-10
6.737702136786342551e-10
5.222688704428800773e-10
4.023131106968295400e-10
3.068030235931346242e-10
2.308644436680558044e-10
1.709693636321337564e-10
1.243629604884562783e-10
8.874201800841959722e-11
6.208523064313931267e-11
4.259204061086283335e-11
2.867419322041068490e-11
