# bin_10_8
7.329577710531543955e-08
6.920666191543993032e-08
6.372118368140304683e-08
5.711559543375107345e-08
4.980441383959799954e-08
4.229156284070641032e-08
3.508463868669547662e-08
2.857610541030590721e-08
2.294864697933809622e-08
1.817828173362939625e-08
1.413653428778504200e-08
1.075080432063916406e-08
8.051311326320009023e-09
6.025086414665461876e-09
4.509893834744545789e-09
3.364088864466774481e-09
2.527847879570018881e-09
1.910840988429768891e-09
1.456239954500525014e-09
1.117059628386212680e-09
8.606899769454593639e-10
6.638974781782729391e-10
5.107427749200826604e-10
3.904083202359251572e-10
2.954731702871897897e-10
2.207524805123265105e-10
1.624264435027828104e-10
1.174936242719848673e-10
8.346409307415483487e-11
5.819823795613642872e-11
3.983846655007201965e-11
