# bin_12_1
2.307237979501869357e-08
1.969562037970717300e-08
1.641681995284526842e-08
1.342744895138339678e-08
1.082755971582085957e-08
8.616958654446891099e-09
6.741149937556952431e-09
5.167077927152184644e-09
3.906662366963823058e-09
2.952712445198819752e-09
2.238981049981404546e-09
1.701649425544043963e-09
1.304644548181159656e-09
1.010490311275214541e-09
7.901433701063609946e-10
6.224232524687492922e-10
4.920907887129394410e-10
3.887033170163398492e-10
3.053309445809043317e-10
2.374642324106133739e-10
1.821517142083407206e-10
1.373780914549848133e-10
1.016325395878751684e-10
7.364035526099216440e-11
5.222462725158020155e-11
3.625734417612290602e-11
2.466653736397397256e-11
1.647118421559672723e-11
1.081811921017146951e-11
7.004561429301410077e-12
4.481306557032103154e-12
