# bin_13_8
7.784668576817442243e-08
7.385489608431792304e-08
6.834236443894277102e-08
6.157047019743277790e-08
5.395396309769495972e-08
4.601729204365492153e-08
3.831088319571372930e-08
3.128699303456232768e-08
2.518237284158424857e-08
2.000187237852516548e-08
1.560876672633310397e-08
1.190488093523575482e-08
8.919011358249028686e-09
6.666915519379433666e-09
4.988908572790609943e-09
3.714378042568366959e-09
2.783416590236023786e-09
2.097978241315029243e-09
1.594101300763282262e-09
1.219522002584332636e-09
9.377275451785526741e-10
7.224516479879528819e-10
5.556280773487216327e-10
4.249852264795848640e-10
3.221164471657524083e-10
2.411886738926176035e-10
1.779618018167963659e-10
1.291531055718483270e-10
9.207672808981331125e-11
6.444588677225363345e-11
4.428293443629517503e-11
