# bin_3_5
-1.588018489644959768e-09
-1.732454979497229702e-09
-1.843797554203340024e-09
-1.901614876319449356e-09
-1.889141808929418133e-09
-1.781922714624018062e-09
-1.588006013989798967e-09
-1.339055687764913480e-09
-1.096227119463957226e-09
-9.170047510938956972e-10
-7.917638002705475503e-10
-6.373135537080949062e-10
-4.485548683900022789e-10
-3.450928096162546812e-10
-2.593605781558894056e-10
-1.832086288185138175e-10
-1.320750479310948295e-10
-9.554386576684917558e-11
-6.837825910941807870e-11
-4.943728643692597910e-11
-3.628056957730279300e-11
-2.708071945192699017e-11
-2.057897886530100458e-11
-1.589307010946802673e-11
-1.240683530892883733e-11
-9.729672637202124899e-12
-7.611741585643264822e-12
-5.899778338593859501e-12
-4.503988367590289695e-12
-3.370349879742764039e-12
-2.463026926166018206e-12
