# bin_14_2
-4.402703030184079034e-32
-5.002404563472376687e-32
-5.596639065299167367e-32
-6.142193472916689354e-32
-6.581252185634874144e-32
-6.841027144483686510e-32
-6.859276554130391967e-32
-6.544602235208699682e-32
-5.893783204893678773e-32
-5.016926964279681219e-32
-4.111844557571071565e-32
-3.414314135453425215e-32
-2.953881826225019742e-32
-2.437771630090624561e-32
-1.725050381905246812e-32
-1.285464833741456244e-32
-9.980739072056689263e-33
-6.721688951130415676e-33
-4.881756312675264277e-33
-3.418266104925114614e-33
-2.336110080527839913e-33
-1.597004252565376793e-33
-1.093676324798904801e-33
-7.544884076891900082e-34
-5.261924209766673818e-34
-3.735175283896995713e-34
-2.703112520523579255e-34
-1.997604136979590986e-34
-1.504545208986586847e-34
-1.149376832309504738e-34
-8.844574960346408141e-35
