# bin_2_1
-2.301968486973179128e-08
-2.343091519476583859e-08
-2.288493397042921781e-08
-2.119121494073190693e-08
-1.856702436767922246e-08
-1.549224105823615027e-08
-1.273483370390141338e-08
-1.076352563549339591e-08
-9.145825261343160186e-09
-7.082585244884494006e-09
-5.087210216902489021e-09
-3.964642013774266452e-09
-2.900512049879532908e-09
-2.124530814064746912e-09
-1.548035564957055631e-09
-1.139513138687554145e-09
-8.450584602345774005e-10
-6.368585837075276198e-10
-4.888304751202999814e-10
-3.816300655336499210e-10
-3.019760381102217918e-10
-2.406772268621166674e-10
-1.917885515223697926e-10
-1.517173816319675915e-10
-1.183572163162280860e-10
-9.053433388522317510e-11
-6.760288849519100585e-11
-4.914442259039225015e-11
-3.475264075158104958e-11
-2.393650917571768145e-11
-1.609943373664386921e-11
