# bin_14_10
-2.117832756818720188e-10
-2.418710915742564438e-10
-2.724057309296239813e-10
-3.013803160930168206e-10
-3.261628770652970830e-10
-3.433486853893152880e-10
-3.492210618598136847e-10
-3.402600483794746878e-10
-3.130785781067590959e-10
-2.723913142051319497e-10
-2.252365208613197232e-10
-1.848113581214103148e-10
-1.580345874088550471e-10
-1.351708301549173169e-10
-1.011516553316177027e-10
-7.075111633144078877e-11
-5.746738602232080287e-11
-3.832671869168237032e-11
-2.882749606444999817e-11
-1.941492753189578889e-11
-1.326478713058970169e-11
-9.081613160454994169e-12
-6.167244476253629822e-12
-4.177236579672281750e-12
-2.837471688516843868e-12
-1.952457913272981652e-12
-1.365041277758737348e-12
-9.735988381508252888e-13
-7.101802762718995128e-13
-5.291876313221913354e-13
-4.011150951212204987e-13
