# bin_10_10
-1.338648536529224342e-08
-1.520283554223588448e-08
-1.699863124975903034e-08
-1.864203434773843457e-08
-1.995647618867974190e-08
-2.072006244914420602e-08
-2.074734915079721191e-08
-1.975788347735401653e-08
-1.776053609180065362e-08
-1.508984763614490345e-08
-1.236164973092949504e-08
-1.027873334259215503e-08
-8.897321008341959261e-09
-7.313164921296657723e-09
-5.154545884051318055e-09
-3.866399215968660060e-09
-2.981401067793533428e-09
-2.017630888633166575e-09
-1.455777567457893076e-09
-1.022989440259965690e-09
-6.998498213939204543e-10
-4.784738221492854721e-10
-3.281419558345715632e-10
-2.267861159726459965e-10
-1.585465602689451513e-10
-1.128468186588266896e-10
-8.189695238725889309e-11
-6.068535305371325603e-11
-4.580804114895267607e-11
-3.504670813166183794e-11
-2.698618867286997093e-11
