# bin_7_5
-2.171781531665972062e-09
-2.418813686477859929e-09
-2.640865356455714100e-09
-2.812282940098494461e-09
-2.901487944598091886e-09
-2.883532280693886755e-09
-2.719567912192179939e-09
-2.422849463668596720e-09
-2.041313218082890363e-09
-1.670279908251471663e-09
-1.398357478785977477e-09
-1.209706050781159732e-09
-9.725385077081412384e-10
-6.793920392703733020e-10
-5.248045782307179720e-10
-3.915546778802270199e-10
-2.751298722677977987e-10
-1.951228047464589360e-10
-1.401129997762912729e-10
-9.851368832065436777e-11
-6.959534999488693966e-11
-4.977948623076945372e-11
-3.612759595670983604e-11
-2.669393575303819160e-11
-2.010169408783593679e-11
-1.537823091851165195e-11
-1.189953567753472366e-11
-9.252388636570295783e-12
-7.176966798191289653e-12
-5.516119554141238407e-12
-4.176943866250126684e-12
