# bin_14_14
-1.316059035599108436e-08
-1.508395989850610195e-08
-1.706274783147835259e-08
-1.897763409331475649e-08
-2.067200348057550714e-08
-2.193803483505320003e-08
-2.252426126464014240e-08
-2.224083264483906550e-08
-2.078843481329059899e-08
-1.836129630123104485e-08
-1.534260941026956811e-08
-1.254977018489941698e-08
-1.059809830949872995e-08
-9.166838762768569389e-09
-7.173460863586470122e-09
-4.948219369514617847e-09
-3.938723749557523076e-09
-2.787039094896609584e-09
-2.013948766450215778e-09
-1.351910602239083333e-09
-9.485470407192945932e-10
-6.441463842037680597e-10
-4.327623036685877601e-10
-2.901266736184458722e-10
-1.941526014363032305e-10
-1.308178739711358889e-10
-8.917529215787881194e-11
-6.178289251846462747e-11
-4.373021491910387046e-11
-3.168706005563148773e-11
-2.348519422828568906e-11
