# bin_9_4
-7.660670815922867141e-14
-8.580406669075675996e-14
-9.433138112159037304e-14
-1.013221342217637683e-13
-1.056797895602665883e-13
-1.063918972426417445e-13
-1.021394778418055197e-13
-9.256079468148514206e-14
-7.930727016622545455e-14
-6.513615535296145345e-14
-5.383819245338724532e-14
-4.642141742301721601e-14
-3.880097583051521335e-14
-2.794944473165197331e-14
-2.038691081068251421e-14
-1.618260595476352043e-14
-1.085857705236277525e-14
-8.090548178974185025e-15
-5.665353338221843463e-15
-3.941185359312721206e-15
-2.767930540286937796e-15
-1.954214825523876784e-15
-1.396924618702268772e-15
-1.014030453458852097e-15
-7.508869222233652374e-16
-5.662158216095956582e-16
-4.335112886558773396e-16
-3.352423213304390880e-16
-2.600010077203068619e-16
-2.007777991484416205e-16
-1.533638165491819269e-16
