# bin_15_9
-1.281478856047410477e-12
-1.464317934342888271e-12
-1.650293635288137125e-12
-1.827314785613079200e-12
-1.979558681681269216e-12
-2.086476618005878417e-12
-2.125167669763734870e-12
-2.074971469474900853e-12
-1.913710385161613069e-12
-1.668877831666695680e-12
-1.381841132671596461e-12
-1.132992832655314450e-12
-9.671552902656729220e-13
-8.292606946868948715e-13
-6.246941447592533504e-13
-4.352487719510880816e-13
-3.533251976678457752e-13
-2.370677214639037727e-13
-1.778309829573728764e-13
-1.193898089980747371e-13
-8.180436903276832734e-14
-5.597710499044935160e-14
-3.798558002479999915e-14
-2.568642821727746262e-14
-1.740431103662516194e-14
-1.193682357990762273e-14
-8.313669131285029384e-15
-5.904622485594051345e-15
-4.289134132431867649e-15
-3.184394255847478087e-15
-2.407240845328836560e-15
