# bin_3_11
-5.544585733633230204e-21
-6.247121062026535574e-21
-6.917296422257396287e-21
-7.495891727731238162e-21
-7.905799068033768596e-21
-8.060186235482844977e-21
-7.882402379196639818e-21
-7.285764491356590639e-21
-6.367425265157702942e-21
-5.281145748203902277e-21
-4.327686289554797812e-21
-3.685103098558550961e-21
-3.163832662134537367e-21
-2.403519743737085678e-21
-1.674271810341255061e-21
-1.353632039120170258e-21
-9.244002639829541131e-22
-6.905317718689179064e-22
-4.692699238092810881e-22
-3.288839122812444861e-22
-2.298666615112517877e-22
-1.606066574501587651e-22
-1.129556852564976605e-22
-8.033200852211374216e-23
-5.821349211952933234e-23
-4.301417594754557130e-23
-3.237283105059880980e-23
-2.474409872976906989e-23
-1.909083254327263909e-23
-1.476202815531149643e-23
-1.135647080470811475e-23
