# bin_1_8
-4.824862147807359689e-22
-5.342799558162261938e-22
-5.792153577341458430e-22
-6.113983444842704428e-22
-6.241273262502285621e-22
-6.115620977820280389e-22
-5.668250642992736809e-22
-4.967105146975429394e-22
-4.129198542428787506e-22
-3.382171461086990242e-22
-2.870753384993780808e-22
-2.466513779343034984e-22
-1.893205395571967347e-22
-1.321535034687564491e-22
-1.060682228598044420e-22
-7.410204529456248187e-23
-5.495230367244850382e-23
-3.802617759609184812e-23
-2.720115299621048231e-23
-1.937032581624744523e-23
-1.386623850918244942e-23
-1.005334417605332849e-23
-7.400822600018520520e-24
-5.553600403329131160e-24
-4.239632975299886454e-24
-3.278253499717734078e-24
-2.553366211489481707e-24
-1.988974734228865872e-24
-1.538763928956646402e-24
-1.174996693397292737e-24
-8.812069047844332525e-25
