# bin_10_4
3.780184588715578565e-18
4.249708760092370347e-18
4.693053100433004083e-18
5.068890839232630241e-18
5.324092579476991874e-18
5.402667382610797600e-18
5.247422673320390761e-18
4.813181235554345436e-18
4.174832247882186163e-18
3.447273753999708380e-18
2.831800768948746172e-18
2.424751587579266613e-18
2.065103666477686878e-18
1.535563584025947880e-18
1.083530254144847102e-18
8.772256156487292477e-19
5.886264887685856946e-19
4.437713461352658514e-19
3.041925706789952877e-19
2.117450949860743686e-19
1.484713962629287268e-19
1.042026930311200768e-19
7.373623124616479484e-20
5.284926730040680735e-20
3.862856417079197827e-20
2.878056435785247075e-20
2.181847806622836156e-20
1.676479298042896838e-20
1.297009654157114059e-20
1.003020507224317438e-20
7.698568029095517023e-21
