# bin_10_5
1.056341308674604505e-15
1.189524608766306749e-15
1.316253866905434485e-15
1.425178353245887035e-15
1.501568336015462153e-15
1.529083825424219705e-15
1.492808707973997064e-15
1.377114368975712836e-15
1.201240628699005128e-15
9.950915423992475552e-16
8.158466421812464011e-16
6.957417733800795712e-16
5.962949135667702668e-16
4.504986296125892004e-16
3.146052758835278733e-16
2.547349772336119185e-16
1.729418910976508290e-16
1.296762305252035313e-16
8.825095025904034425e-17
6.171222947276332378e-17
4.317969188461931423e-17
3.021093159768402269e-17
2.128071790961810915e-17
1.516410520556751911e-17
1.101333974772950426e-17
8.155535450267507474e-18
6.149856499231095163e-18
4.707442160268071074e-18
3.634876127485649208e-18
2.811022254068114307e-18
2.161420324268065702e-18
