# bin_5_1
3.012962752138975787e-16
3.244425953385850452e-16
3.397105936166752531e-16
3.436712677252153411e-16
3.325518694001106838e-16
3.041282610324026700e-16
2.630606740718867110e-16
2.171621813156785023e-16
1.786977372368090455e-16
1.528483151628337753e-16
1.292618315023939460e-16
9.613787830413348191e-17
6.889564447635351782e-17
5.510945119370120708e-17
3.812651709657057464e-17
2.863382970611660293e-17
2.028699815799096764e-17
1.464433709495054374e-17
1.066907823621625645e-17
7.863031297659675070e-18
5.892023160412910125e-18
4.491093927462211924e-18
3.480783135262211352e-18
2.728408158050049598e-18
2.149012141207439209e-18
1.689266931026897263e-18
1.315996101946374293e-18
1.009884972571535627e-18
7.595221318783435936e-19
5.576397944064391226e-19
3.987488381141991428e-19
