# bin_14_5
9.716526506267130543e-23
1.105293323125080379e-22
1.238454382336472775e-22
1.361677940593703318e-22
1.462348959131125697e-22
1.524513761019474043e-22
1.533715701925169458e-22
1.470341148847923673e-22
1.330226520299418255e-22
1.137669278991460293e-22
9.336405197656215142e-23
7.726912809853024207e-23
6.674630642090592236e-23
5.562183114594431934e-23
3.976714594753033343e-23
2.915759304356879035e-23
2.301088858242086405e-23
1.532945282874933715e-23
1.130584192638598942e-23
7.845938257269914413e-24
5.349302590050370821e-24
3.657001276986799143e-24
2.496147264390683556e-24
1.714302908699547888e-24
1.188411402003792174e-24
8.379025852728364143e-25
6.020297787551935856e-25
4.418003644361798048e-25
3.308113722115069560e-25
2.516976767285494882e-25
1.933218630119064979e-25
