# bin_4_2
6.016188603833549197e-12
6.449154859334775433e-12
6.714429191492628789e-12
6.747945208675607382e-12
6.469315787280175274e-12
5.860080034806024841e-12
5.021349725688569343e-12
4.129134644051194971e-12
3.414684718120932622e-12
2.933730644084464128e-12
2.443616380340750967e-12
1.778889325502015349e-12
1.304429220089151976e-12
1.028974752870186794e-12
7.123786261134140374e-13
5.323202567879586523e-13
3.810699602320435671e-13
2.751007022646424081e-13
2.011379378453961059e-13
1.490614152445960570e-13
1.123913046284679073e-13
8.620432243125164543e-14
6.715358524481244393e-14
5.281638647099879709e-14
4.166081215379475841e-14
3.272965013120849826e-14
2.543549099294665984e-14
1.943985340576184470e-14
1.454160217485893577e-14
1.060811057722410992e-14
7.533532267027992129e-15
