# bin_5_2
1.461353299431870368e-13
1.584127519950355409e-13
1.672577643877709619e-13
1.708550111951995913e-13
1.675991547006633541e-13
1.556314286896621484e-13
1.366383735200088745e-13
1.138200796332358201e-13
9.323583960509363710e-14
7.893021786091615751e-14
6.776852039045208132e-14
5.242764108730437145e-14
3.679444929084979793e-14
2.927841671160245298e-14
2.087002138336404015e-14
1.537551786273302656e-14
1.084668551037448920e-14
7.865532862167586354e-15
5.687068064495651136e-15
4.151864814021743356e-15
3.079933004224638267e-15
2.323827005635324003e-15
1.784716380276024994e-15
1.389779074850149800e-15
1.090724006583745326e-15
8.570733360605255032e-16
6.695423742600284492e-16
5.166368428791030096e-16
3.916124030986721405e-16
2.903304036330847027e-16
2.098710705560709127e-16
