# bin_14_12
1.326181450695264064e-11
1.517110244833428367e-11
1.712201645025483035e-11
1.899081873212173480e-11
2.061602445611161727e-11
2.178612473832157046e-11
2.225633077270737360e-11
2.182458140522184610e-11
2.022917923773189734e-11
1.772683177150147567e-11
1.472374390446519350e-11
1.205735222392012600e-11
1.025275872397852777e-11
8.828543926680603718e-12
6.745404048819190619e-12
4.671502531626426636e-12
3.775840721171187143e-12
2.576290144145774423e-12
1.913550234689817241e-12
1.278936501277410214e-12
8.835970064112576889e-13
6.033311916352816614e-13
4.083386603155025272e-13
2.752051871191058899e-13
1.855388727593837972e-13
1.263908441296746259e-13
8.731939823612257352e-14
6.145401560375356648e-14
4.422975599678203226e-14
3.256468300708383042e-14
2.445921273613745342e-14
