# bin_2_1
1.082054952723436179e-10
1.101219788206400903e-10
1.075344575282605937e-10
9.955268387715088978e-11
8.720505226820531508e-11
7.275221836092079087e-11
5.980552182721075697e-11
5.055498490502595054e-11
4.294981498088980220e-11
3.324337946804677769e-11
2.387965231938701213e-11
1.861460151993553858e-11
1.361233756019016311e-11
9.973538160220783471e-12
7.266419986512768464e-12
5.349258226427618775e-12
3.967439606019500428e-12
2.990335901226463294e-12
2.295576251526518659e-12
1.792365490483131141e-12
1.418389955698684680e-12
1.130523054981276658e-12
9.008860278277550305e-13
7.126353035673747129e-13
5.558978859913442128e-13
4.251752248227759297e-13
3.174416278597329511e-13
2.307337603461723569e-13
1.631409718827636840e-13
1.123515107634448183e-13
7.555777190616040646e-14
