# bin_11_3
1.955330909228989130e-23
2.202916757236841143e-23
2.439017522537091888e-23
2.642731564626340801e-23
2.786856335658306221e-23
2.840819524631976469e-23
2.777513824999665971e-23
2.566587460574707500e-23
2.242495053850465031e-23
1.859608473191741679e-23
1.523972584583519763e-23
1.297957577523487194e-23
1.114105709571704488e-23
8.457279800508052878e-24
5.893140976116826032e-24
4.765706676431125044e-24
3.251758154265081993e-24
2.430452771635182776e-24
1.651945418405514509e-24
1.157384224661511443e-24
8.090588132531472985e-25
5.653970116693004776e-25
3.977324614297534227e-25
2.829355834225774586e-25
2.050952859079916663e-25
1.515912716533819006e-25
1.141196184555273020e-25
8.724474449510059747e-26
6.731974903679537316e-26
5.205621632580921321e-26
4.004430028253028711e-26
