# bin_5_5
8.428064824420124716e-11
9.296984365730937673e-11
1.003128395628627553e-10
1.052600669992200334e-10
1.067210926776603800e-10
1.035560436585520244e-10
9.493746936094066418e-11
8.230780602725332458e-11
6.798452293141296334e-11
5.587045061487955593e-11
4.778884264254635919e-11
4.061042258155155966e-11
3.026613842090050461e-11
2.147967204612508158e-11
1.729635687543452411e-11
1.180290516816017103e-11
8.879054200758538574e-12
6.187211726181509197e-12
4.397256374673834075e-12
3.147934521227743875e-12
2.269486156829209655e-12
1.658661995827351282e-12
1.232000085190395055e-12
9.327014852839240736e-13
7.172706283851857553e-13
5.575262906100094998e-13
4.353472203217756095e-13
3.390322718540814476e-13
2.615657928757369985e-13
1.987588033980517133e-13
1.480804290344687064e-13
