# bin_6_3
2.801943574851894501e-13
3.079534532880361573e-13
3.307764391223082222e-13
3.451132349173976654e-13
3.476261707009916700e-13
3.341476834824767852e-13
3.033119220725899373e-13
2.603594954742862333e-13
2.140664678485663685e-13
1.767571356755217760e-13
1.520525020949487978e-13
1.273490465712218204e-13
9.253849032366383271e-14
6.729021552526874076e-14
5.354021996233010235e-14
3.639234270985760698e-14
2.727381572486486841e-14
1.927086185210033012e-14
1.367168203815414767e-14
9.816345836056152433e-15
7.116952035439923506e-15
5.239656029241567385e-15
3.923853825167504508e-15
2.993103618582337083e-15
2.315573489189506200e-15
1.806949952197820436e-15
1.413023485144433723e-15
1.099344270232127303e-15
8.455085492789002465e-16
6.393402510431123585e-16
4.732895534376483816e-16
