# bin_8_5
7.475458841198036007e-13
8.359033496043264720e-13
9.171098584365562608e-13
9.825922908872412615e-13
1.021565837192152576e-12
1.024653165557330518e-12
9.785331852860069587e-13
8.821885760635834048e-13
7.519063279027964621e-13
6.165426156420756570e-13
5.113748265339721445e-13
4.417897194842596317e-13
3.654755029814016202e-13
2.601905072822010073e-13
1.930909596857213919e-13
1.508894911790899020e-13
1.022195161527028512e-13
7.516554520005808904e-14
5.314132826370792903e-14
3.705720545494284322e-14
2.604513496185914513e-14
1.845082520893134686e-14
1.324947936034873115e-14
9.670626936520592190e-15
7.199350984200777749e-15
5.454425724393821674e-15
4.191297681275284876e-15
3.247966146158531878e-15
2.520074680814675877e-15
1.943834151750907068e-15
1.481171514209174130e-15
