# bin_7_7
5.929338904303578498e-11
6.644737660434455129e-11
7.309828369998439941e-11
7.857852072742782670e-11
8.204163409476494678e-11
8.269035339102201881e-11
7.951961167304609279e-11
7.218579015629760995e-11
6.195814747356903838e-11
5.092092568330041729e-11
4.204606694462097922e-11
3.622275496575692567e-11
3.036810428932405994e-11
2.197016862878832473e-11
1.593988116817370694e-11
1.270405411752638170e-11
8.510762735750729031e-12
6.361173573036720833e-12
4.439852427841601376e-12
3.087308786794361831e-12
2.167944961749441219e-12
1.529195625872419966e-12
1.091492161984056456e-12
7.908748231167821736e-13
5.845805776453155693e-13
4.400897652156197743e-13
3.365057452450246647e-13
2.600177576250115724e-13
2.016097095132954149e-13
1.557316034364466276e-13
1.190435547584580741e-13
