# bin_7_5
8.450153800309574433e-12
9.410495397619798802e-12
1.027328186432810903e-11
1.093863798438431353e-11
1.128370463381518050e-11
1.121151845960221808e-11
1.057109009837196598e-11
9.415282655942971764e-12
7.930700438999543926e-12
6.489044545752666849e-12
5.433802228865240723e-12
4.700654545772030654e-12
3.776484594852439205e-12
2.637413882122941902e-12
2.039006060230865422e-12
1.519615175455141978e-12
1.068764262408397844e-12
7.574019795681765366e-13
5.439788012731862453e-13
3.825505350592602980e-13
2.702995050608036077e-13
1.933803284162460755e-13
1.403786938186375195e-13
1.037500229347727160e-13
7.814694031192301931e-14
5.979583306598983727e-14
4.627564119321267399e-14
3.598325119627233255e-14
2.791120197858551172e-14
2.145027200121416521e-14
1.624035147442032868e-14
