# bin_9_6
1.085143711929481739e-12
1.220466678703870070e-12
1.348510162086160862e-12
1.457463976225333180e-12
1.532108813449549769e-12
1.556173745696121885e-12
1.513542296550233507e-12
1.390386257301732437e-12
1.207799267148175594e-12
9.981211622014023963e-13
8.194518299440959325e-13
7.009329273492333246e-13
5.980521892472726434e-13
4.465606137951089380e-13
3.141311484129810943e-13
2.544646622837153159e-13
1.711639560962976208e-13
1.289418687871694822e-13
8.819255299193548318e-14
6.144808176656963131e-14
4.306723817097798874e-14
3.020390589387948117e-14
2.134710533734055971e-14
1.527647245091408613e-14
1.114724135141934992e-14
8.292164518776134571e-15
6.277686195413482577e-15
4.819007469111434815e-15
3.726504325178240872e-15
2.881963350179927521e-15
2.213128259875911439e-15
