# bin_12_2
5.472622864020659992e-30
6.182162790801494666e-30
6.866917541388423355e-30
7.470104346523239656e-30
7.916631946459086972e-30
8.116942527769905981e-30
8.000823882574373309e-30
7.464914532823171540e-30
6.582753255797140427e-30
5.495232156646074689e-30
4.496084772835272890e-30
3.800140856320865582e-30
3.282352349584591184e-30
2.560265898113819820e-30
1.771977015827939637e-30
1.412295914483537132e-30
9.988482875461351117e-31
7.267549369597535815e-31
4.947779750824342896e-31
3.506292639390404907e-31
2.434323019196653646e-31
1.687024773623139841e-31
1.177559020471004429e-31
8.298460965493886648e-32
5.948516399224789486e-32
4.347839138437111543e-32
3.239679957781150298e-32
2.456965937479570268e-32
1.886596950369134047e-32
1.456801880156050490e-32
1.122808468878034107e-32
