# bin_12_6
1.220985260892839342e-16
1.384193030256825020e-16
1.544219865830006115e-16
1.688857672944733272e-16
1.801748923655140893e-16
1.862528674477713394e-16
1.855314277325408798e-16
1.754365069354472161e-16
1.566539681726795340e-16
1.322215583196007168e-16
1.081920216981994903e-16
9.045541711472707013e-17
7.835746909511181046e-17
6.334839782198155486e-17
4.415076417885290169e-17
3.391500383360734706e-17
2.542070415497840880e-17
1.760057049924747747e-17
1.237785638383609469e-17
8.786084452473141567e-18
6.037639716442837381e-18
4.137403123319467667e-18
2.854778333468156584e-18
1.986421122408299156e-18
1.401037505355542103e-18
1.006847934672242483e-18
7.379568070391472041e-19
5.518255278078799056e-19
4.195251746447162297e-19
3.223834068494926176e-19
2.485702009038869150e-19
