# bin_7_6
3.900075917748157803e-11
4.357220641155235771e-11
4.775379728474885867e-11
5.109515233211908043e-11
5.303172622133033003e-11
5.308626852403239063e-11
5.055704200879983449e-11
4.545848090676730282e-11
3.864242544964200968e-11
3.166518803333360149e-11
2.631544875712406132e-11
2.274941763511325038e-11
1.870934436526410320e-11
1.325081821672311049e-11
9.923467657766558492e-12
7.681830556545282791e-12
5.239948775163496411e-12
3.822569448651435920e-12
2.714506553464534055e-12
1.895967064287975096e-12
1.333511616268114613e-12
9.465781182942668166e-13
6.813464450226810737e-13
4.986904600157754122e-13
3.722390136799350994e-13
2.826668070370955939e-13
2.175786466225451680e-13
1.687603775685339036e-13
1.309487456612331112e-13
1.009345790849544073e-13
7.680751986371688990e-14
