# bin_15_13
1.506201769192789575e-11
1.726391461867142283e-11
1.952953793775455961e-11
2.172242112744811987e-11
2.366340010067112820e-11
2.511467867372647287e-11
2.578832070462169933e-11
2.546716948836899214e-11
2.380793952789369605e-11
2.103143437451508706e-11
1.757593670001930550e-11
1.437637801408675117e-11
1.213900105597857195e-11
1.050028401277563982e-11
8.220730005586932802e-12
5.670537964884274429e-12
4.512006604593291869e-12
3.195083639431451617e-12
2.307386719725764798e-12
1.549261494850943325e-12
1.087290874354958464e-12
7.382864093052201913e-13
4.959320946650732835e-13
3.324427626769430656e-13
2.224408260854146019e-13
1.498472284292743069e-13
1.021209103022654711e-13
7.073019156541108308e-14
5.004631285643507128e-14
3.625168947906702573e-14
2.686057052707264609e-14
