# bin_9_9
4.664214994764270519e-11
5.278367557416269025e-11
5.875773833449736291e-11
6.408971425910140041e-11
6.814654659864003300e-11
7.015297248453782779e-11
6.951856509022105616e-11
6.529330422793265102e-11
5.793609321211553591e-11
4.861651354189056163e-11
3.976535719325630394e-11
3.342870624379621881e-11
2.893744267867240430e-11
2.298718670349825428e-11
1.592546320940172687e-11
1.248787941213698440e-11
9.089516894004284783e-12
6.454870721256220891e-12
4.446764514506321029e-12
3.164878472861071352e-12
2.185683254278624728e-12
1.505181882294472568e-12
1.044778263486702196e-12
7.316581990768155509e-13
5.203325010007296022e-13
3.772245920454697037e-13
2.788914796935379359e-13
2.101396400759269815e-13
1.606482954648599162e-13
1.238142625780078335e-13
9.548531687801607421e-14
