# bin_5_2
1.489036299677314914e-13
1.616214148612921520e-13
1.709198832449042231e-13
1.749272794055008436e-13
1.720398887587531637e-13
1.602466380286530040e-13
1.411060061517100853e-13
1.177948986631507931e-13
9.644791307482996854e-14
8.146153351233125197e-14
7.007421338889213496e-14
5.464787768526262014e-14
3.829364012173404362e-14
3.033280768572019566e-14
2.182272379232828731e-14
1.596348471637510165e-14
1.128348054081637321e-14
8.187887932554832726e-15
5.908963044810264675e-15
4.305178658163718497e-15
3.187044458767028352e-15
2.399667230800038579e-15
1.839345821930678062e-15
1.430195448348951674e-15
1.121436148699116933e-15
8.809901841488005548e-16
6.885063808834236151e-16
5.317899880190972097e-16
4.036921726144226095e-16
2.998488836558308486e-16
2.172190939742521253e-16
