# bin_5_5
8.013108326843910526e-11
8.845694909579267235e-11
9.552940200740383113e-11
1.003541054923826644e-10
1.018784089207853012e-10
9.904149903399404127e-11
9.098244713415652293e-11
7.903719900646402666e-11
6.535286290268556539e-11
5.366585241678281987e-11
4.584273499894566354e-11
3.905282099941375853e-11
2.926125141748225176e-11
2.068343811542414676e-11
1.666903090544963574e-11
1.140600833052983934e-11
8.571569305110244678e-12
5.959806197092621761e-12
4.239379398646067818e-12
3.032588846148940548e-12
2.183718752831057549e-12
1.593625779536866678e-12
1.181729131809412350e-12
8.932249323652414382e-13
6.860267601508142347e-13
5.327687871186708156e-13
4.158553287134840115e-13
3.238920366188177423e-13
2.500282603447906101e-13
1.901721001700560576e-13
1.418616683300403852e-13
