# bin_4_1
6.852527238182841084e-14
7.290612856454289685e-14
7.519735735091892998e-14
7.471808246930183503e-14
7.054446289763095245e-14
6.294415907617080310e-14
5.317063154437369618e-14
4.356837722237471378e-14
3.639651270168310865e-14
3.135240679088569276e-14
2.531287411749846676e-14
1.798316068295702144e-14
1.374076333253061830e-14
1.041762594630678948e-14
7.383998439294648269e-15
5.397920036998035532e-15
3.925024455096555800e-15
2.848891480738846100e-15
2.096183818582542162e-15
1.567825415866456927e-15
1.193675156557409615e-15
9.242156347155959764e-16
7.251457844929044617e-16
5.727895578882365788e-16
4.523607322145424818e-16
3.547084446383390100e-16
2.743591116908820807e-16
2.081881463735167099e-16
1.543136755073106213e-16
1.114013805619249930e-16
7.826061429135805341e-17
