# bin_3_2
7.180391933392960219e-11
7.607798366182244155e-11
7.807782276589539526e-11
7.707833928462881420e-11
7.219265392776086191e-11
6.392309443350975882e-11
5.366034996867574341e-11
4.397202181953979786e-11
3.694481138896297672e-11
3.174679861985661317e-11
2.515707329803762451e-11
1.782078302719148746e-11
1.383907213360387626e-11
1.025511484868052523e-11
7.392550499944861955e-12
5.352569549915219464e-12
3.904957826040573733e-12
2.846676036860813426e-12
2.103291072767253968e-12
1.580772360182290904e-12
1.209214714228104850e-12
9.402611313013180357e-13
7.399386540796733641e-13
5.853490649179057678e-13
4.622539965883322984e-13
3.618968763509475154e-13
2.791095649598314354e-13
2.109436316225867642e-13
1.555992090639053803e-13
1.117402937305950233e-13
7.809095550322611922e-14
