# bin_7_5
8.205941985407693902e-12
9.143164207875468260e-12
9.987647390757300194e-12
1.064273433082704384e-11
1.098904592870452189e-11
1.093188206613467043e-11
1.032360278432081588e-11
9.208421728034695286e-12
7.767016175996293782e-12
6.355891684813826337e-12
5.315754873369346941e-12
4.599088094260556488e-12
3.709315609768839128e-12
2.594416475202650112e-12
1.996418260757320176e-12
1.497206462150989373e-12
1.047468038785474070e-12
7.454071626909018442e-13
5.348280080152730128e-13
3.756796571897121878e-13
2.651856167875425716e-13
1.894825024831184444e-13
1.373700597819763533e-13
1.013767569368846679e-13
7.625643480203794289e-14
5.828473814506621706e-14
4.507248429360942036e-14
3.503698527792676138e-14
2.718065008361702862e-14
2.089953017259275761e-14
1.583638612079831388e-14
