# bin_9_3
5.029447141460299132e-19
5.623970917954921554e-19
6.170408769657424296e-19
6.611085144321797175e-19
6.873438371440866923e-19
6.894377655895499330e-19
6.584244055224411317e-19
5.936109364309381655e-19
5.059553348742828386e-19
4.148674149770863687e-19
3.440922714042386705e-19
2.972744953209021407e-19
2.459427407944169449e-19
1.750893786716350460e-19
1.299277305111782257e-19
1.015439959805041525e-19
6.878129656533965835e-20
5.058168298251331529e-20
3.576135982798696700e-20
2.493698741197380120e-20
1.752607822147978385e-20
1.241545854731495895e-20
8.915343742938371670e-21
6.507069756544916632e-21
4.844140778291916740e-21
3.670006609162342055e-21
2.820093487280462265e-21
2.185379616346637998e-21
1.695634095222157794e-21
1.307927430231072585e-21
9.966374447110444361e-22
