# bin_6_6
6.626489905696442935e-11
7.379324581950320392e-11
8.055552534971848183e-11
8.576839264608654970e-11
8.846877982119575930e-11
8.789568118794571951e-11
8.286713510319393604e-11
7.380048170109085408e-11
6.216003985699956728e-11
5.086131372389190193e-11
4.259344917558650655e-11
3.684453643626209917e-11
2.959320617633528104e-11
2.066885826965551079e-11
1.598163253284434184e-11
1.190644760602863957e-11
8.376561587707601847e-12
5.936003092240020686e-12
4.262694563643903640e-12
2.997938684842980052e-12
2.118480422129738123e-12
1.515722097606524351e-12
1.100367582496548362e-12
8.133120586304394757e-13
6.126456893955570289e-13
4.688024365007590297e-13
3.628132097323534153e-13
2.821186560734654454e-13
2.188268795140890654e-13
1.681656610027251136e-13
1.273139496299254554e-13
