# bin_2
0.000000000000000000e+00
2.758706914356304119e-31
1.210208466483503804e-23
6.582720036398683015e-18
1.927287943190107105e-13
5.988863300541651052e-10
3.141854481855429785e-07
3.946009841327647520e-05
1.559819406379432324e-03
2.417570323753089750e-02
1.759780509346535737e-01
7.000212617722060271e-01
1.730857316939253820e+00
2.958831217706340500e+00
3.782823956698119883e+00
3.791267693879656786e+00
3.046528328849402278e+00
1.986592788499116136e+00
1.063926590754149304e+00
4.751921099091448442e-01
1.802050838495935225e-01
5.912918450171981283e-02
1.710057727465618196e-02
4.435420090808439575e-03
1.048241225213085263e-03
2.289686725448247025e-04
4.681407998164014908e-05
9.059713050677089722e-06
1.675918462969628228e-06
2.988998616682778488e-07
5.178406701837362084e-08
8.772255913949907614e-09
1.461341333460458778e-09
2.405889864524092357e-10
3.931509667150610588e-11
6.400744561986147018e-12
1.041597595813898981e-12
1.698979515626724053e-13
2.784508045335143765e-14
4.595027046407367872e-15
7.648665295341542415e-16
1.286196528803676471e-16
2.187864199215418160e-17
3.768818633004507553e-18
6.580611955228975645e-19
1.165576883076352273e-19
2.095597494974594981e-20
3.826434268907763266e-21
7.098751387405106043e-22
1.338483952268685253e-22
2.565636998977019586e-23
3.620079107904623270e-23
8.054448678715531529e-24
1.827078130269846173e-24
4.225465764677608180e-25
9.962390702665621522e-26
2.394332271576156246e-26
5.865222768989227795e-27
1.464198753382955820e-27
3.724410590964046472e-28
9.651069108563687486e-29
2.547211575665217064e-29
6.845919892679932396e-30
1.873166387410779348e-30
5.216691166244081812e-31
1.478363677747043252e-31
4.262116659366890028e-32
1.249728616548609691e-32
3.725969737838495312e-33
1.129228845006419161e-33
3.477993376715303051e-34
1.941747246884556633e-34
