# bin_11
0.000000000000000000e+00
0.000000000000000000e+00
0.000000000000000000e+00
0.000000000000000000e+00
7.592334001177324560e-314
6.428503465482918172e-276
3.782798970454817023e-243
1.041928182008377037e-214
6.294582704692125452e-190
2.949305318155828141e-168
3.035484090857939061e-149
1.628448489841820742e-132
9.371461877553606534e-118
1.060801253052044431e-104
3.941034738440595312e-93
7.420544800873176227e-83
1.025616255069882356e-73
1.428897088090890853e-65
2.635726591719622853e-58
8.144665729191859949e-52
5.169222324547792544e-46
8.043988278557578941e-41
3.581550465230546759e-36
5.222398755464215612e-32
2.807414732728315296e-28
6.174804197486892210e-25
6.091427510749697879e-22
2.923285860513260923e-19
7.334101672441401037e-17
1.025474495829738076e-14
8.459442324463582742e-13
4.331861366964706287e-11
1.441019523384208249e-09
3.243602600999020611e-08
5.124439653200528663e-07
5.872659549029688741e-06
5.029146303037394078e-05
3.305787386475793452e-04
1.708869382914647702e-03
7.101045912791009718e-03
2.419522215007778587e-02
6.881960536121498051e-02
1.660680024435434721e-01
3.449540511486908767e-01
6.248828761927039954e-01
9.987668131181590692e-01
1.423263188737105889e+00
1.825190788320704582e+00
2.124005941884495208e+00
2.259861733110803961e+00
2.213220047347478125e+00
2.007482569420823815e+00
1.695903518296850043e+00
1.341261251454479275e+00
9.978357258978998168e-01
7.013904992973591934e-01
4.677410972941400402e-01
2.970754699525742781e-01
1.803458153035771006e-01
1.049991739456097167e-01
5.881335624910823817e-02
3.178771763554004426e-02
1.662408509186232702e-02
8.434055959343217043e-03
4.161107197264024386e-03
2.000970702194396732e-03
9.398400870832158017e-04
4.320268322155789613e-04
1.947228028970521578e-04
8.620355709130883527e-05
3.754388218223111777e-05
1.611074396204019318e-05
6.821307811621326494e-06
2.853433170799551999e-06
1.180728137626687362e-06
4.838521109786439331e-07
1.965716102239892698e-07
7.925159162264866447e-08
3.173792944442401608e-08
1.263599930319726274e-08
5.005557361095623527e-09
3.145260041960682880e-09
