# bin_10_8
-3.203491541612990514e-09
-3.626689130771864632e-09
-4.039031191484332582e-09
-4.408039138045892411e-09
-4.690326622904506284e-09
-4.832568948707114291e-09
-4.794018549184640531e-09
-4.508799367498480373e-09
-4.006301920721600501e-09
-3.366183816338945871e-09
-2.754351193895784352e-09
-2.313790454572899135e-09
-2.003391999792177760e-09
-1.596482811080395444e-09
-1.107251846282935754e-09
-8.655357472568711662e-10
-6.331920925169429620e-10
-4.478258857416797241e-10
-3.094570801857515794e-10
-2.203015056468332549e-10
-1.520236542817505491e-10
-1.046027231080010896e-10
-7.254329659647132398e-11
-5.075436599082199738e-11
-3.604996938441873745e-11
-2.610051044785111208e-11
-1.927170307273048148e-11
-1.450469868073334455e-11
-1.107992322279661920e-11
-8.536319125313959493e-12
-6.583558433035602207e-12
