# bin_1_8
-4.818161056724802248e-22
-5.335969548141932231e-22
-5.785508243902272760e-22
-6.107926626072266813e-22
-6.236336445881598390e-22
-6.112107953086165779e-22
-5.666639501829122595e-22
-4.967454925708960697e-22
-4.131088950351519331e-22
-3.384782372635098119e-22
-2.873359802367994463e-22
-2.468822188448386559e-22
-1.895508457168374790e-22
-1.323683019171933800e-22
-1.062333945100395737e-22
-7.424035660719643656e-23
-5.505624071962480203e-23
-3.810723765459826122e-23
-2.726105346407999088e-23
-1.941496625029990773e-23
-1.389948176034930833e-23
-1.007821038384698993e-23
-7.419724193114347578e-24
-5.568164954067749055e-24
-4.251008981361128101e-24
-3.287237968292976403e-24
-2.560500477634959196e-24
-1.994631665936546366e-24
-1.543213191772067324e-24
-1.178444935389650545e-24
-8.838258564908287042e-25
