# bin_12_8
-8.243524368477697448e-11
-9.368145544401632242e-11
-1.048334942200420392e-10
-1.150837336415062317e-10
-1.233508523547940175e-10
-1.282719920653525414e-10
-1.286775120260116768e-10
-1.228497623807982036e-10
-1.107089927181173766e-10
-9.430307874243171277e-11
-7.732277325378984508e-11
-6.420196022902052927e-11
-5.554613571037174646e-11
-4.588795597753085883e-11
-3.250020511697698028e-11
-2.419297471201006548e-11
-1.881372060482997209e-11
-1.265720851326610041e-11
-9.206741563459371687e-12
-6.444205186690905594e-12
-4.403610813803391600e-12
-3.010212855208793055e-12
-2.060951820631220817e-12
-1.421368443751370362e-12
-9.908989487532992182e-13
-7.030657920050693110e-13
-5.085521277388314637e-13
-3.756466107529934691e-13
-2.828241390104070759e-13
-2.160130824331975447e-13
-1.662168432250500677e-13
