# bin_6_3
-6.712296868592501252e-11
-7.378903013698204675e-11
-7.927867225920109586e-11
-8.274173480443164257e-11
-8.337703059581971247e-11
-8.018394442658862567e-11
-7.282800855447172341e-11
-6.255391269794589720e-11
-5.145698920021106311e-11
-4.249321852063679283e-11
-3.655169590690914794e-11
-3.063008865105503618e-11
-2.228004726647829345e-11
-1.619278585155957002e-11
-1.289017571749862605e-11
-8.763408592082282627e-12
-6.569790965991709271e-12
-4.640628507693350535e-12
-3.292443372524802960e-12
-2.364004022365027392e-12
-1.713757813283723449e-12
-1.261483408382923923e-12
-9.445094623717095315e-13
-7.203381355694741204e-13
-5.572050523983029270e-13
-4.347827378938378414e-13
-3.399988013784816771e-13
-2.645420565553071207e-13
-2.034880124879299617e-13
-1.538982908442114232e-13
-1.139529218108827534e-13
