# bin_15_10
-3.018315860710250919e-11
-3.451865631458133682e-11
-3.894341042908734195e-11
-4.317500180581554170e-11
-4.684436578433771300e-11
-4.946927457853092739e-11
-5.049823121590033723e-11
-4.946050995017410377e-11
-4.578370908614955988e-11
-4.007156924877745598e-11
-3.326121593024862253e-11
-2.725595041228424584e-11
-2.320955919458115339e-11
-1.996077157809789325e-11
-1.518533065155250073e-11
-1.053842908273680145e-11
-8.532681095576147791e-12
-5.789207722115725436e-12
-4.316243391187781329e-12
-2.888776882040823594e-12
-1.989900791177489789e-12
-1.360078410213180123e-12
-9.215577169821387895e-13
-6.218223195140836506e-13
-4.199267921312829447e-13
-2.867095184953061437e-13
-1.986128763722153582e-13
-1.402078210271213132e-13
-1.012253939071779660e-13
-7.474095754859067632e-14
-5.626343031613082578e-14
