# bin_12_4
-1.423684294280785141e-19
-1.610885364604466149e-19
-1.792843896687608274e-19
-1.955042655146684349e-19
-2.078129237781879741e-19
-2.138471483721288152e-19
-2.117996304239792092e-19
-1.987913537633564685e-19
-1.762984809917340779e-19
-1.478796775303382245e-19
-1.209980649004054916e-19
-1.018141895370039017e-19
-8.811852944522134560e-20
-6.983434887147125358e-20
-4.838079539717734710e-20
-3.803742074030699353e-20
-2.757615458691989898e-20
-1.965681264929091096e-20
-1.351303586175503899e-20
-9.616760174056784211e-21
-6.646861312590500361e-21
-4.581801418911263105e-21
-3.183197142614381242e-21
-2.231421416512793511e-21
-1.588880521932662657e-21
-1.153352771398508540e-21
-8.537501973717873498e-22
-6.439580682329557510e-22
-4.926595087856032980e-22
-3.798409141771635270e-22
-2.929298396327085477e-22
