# bin_10_1
-1.551938653895335603e-27
-1.738500761365054688e-27
-1.911586084155466892e-27
-2.053653720532972649e-27
-2.142488149355825585e-27
-2.157554711745354095e-27
-2.072081953526462303e-27
-1.878701794005679458e-27
-1.610551756075307092e-27
-1.323438614252111812e-27
-1.094117380200026982e-27
-9.432899713807276922e-28
-7.886403039464559154e-28
-5.686542295987110496e-28
-4.147237223621622940e-28
-3.291621145766575636e-28
-2.210604333457177962e-28
-1.646749687043945324e-28
-1.152860395027291796e-28
-8.021973331241426496e-29
-5.634432291724263969e-29
-3.978261844129731297e-29
-2.843495398002483739e-29
-2.063809198773687212e-29
-1.527984722571484871e-29
-1.152002773220156140e-29
-8.818777186702863560e-30
-6.819013770993532529e-30
-5.288306215411929335e-30
-4.083770743973626752e-30
-3.119582164883739497e-30
