# bin_8_14
-4.382254659971480723e-13
-4.996666480650432130e-13
-5.615591886483166406e-13
-6.197053509441833851e-13
-6.685508976915256402e-13
-7.009887928936195032e-13
-7.098347262079011088e-13
-6.869993926623404492e-13
-6.276080474349962986e-13
-5.421476589531451871e-13
-4.467600196299435855e-13
-3.678194208846727148e-13
-3.161605779645325333e-13
-2.678168383189687910e-13
-1.963229285154007891e-13
-1.397575291968480201e-13
-1.128585288111336401e-13
-7.459416508705451356e-14
-5.607593985636767561e-14
-3.823756267564299497e-14
-2.601972430523835661e-14
-1.781503963448646825e-14
-1.211630739467115340e-14
-8.253550610413510698e-15
-5.655053685046555007e-15
-3.932983611910622299e-15
-2.783478697654929381e-15
-2.011446131748613027e-15
-1.485607314436639309e-15
-1.118559254632372983e-15
-8.539141450427118370e-16
