# bin_5_4
-1.185310468561180763e-08
-1.300789072183732794e-08
-1.394592811588434254e-08
-1.451607702288896153e-08
-1.458196359643477823e-08
-1.396214794960456091e-08
-1.262612216870616687e-08
-1.079786385957361197e-08
-8.869471047606814600e-09
-7.344368589370023038e-09
-6.327910235361496365e-09
-5.259446501793756245e-09
-3.789832412293603626e-09
-2.790448762348083559e-09
-2.197458951480745584e-09
-1.502190105393838383e-09
-1.117725759346120714e-09
-7.948063016679064398e-10
-5.645834595222508100e-10
-4.058521709250637881e-10
-2.949901382332546926e-10
-2.178478440119792800e-10
-1.636900713142052549e-10
-1.252284173408022130e-10
-9.709661607735861996e-11
-7.587046178512786818e-11
-5.934926304815658281e-11
-4.614480077407253492e-11
-3.543758812994455490e-11
-2.673825896551768313e-11
-1.973934581466066311e-11
