# bin_15_14
-1.154868498855889956e-08
-1.324933730492056994e-08
-1.500453964651010914e-08
-1.671156369103850978e-08
-1.823446281391322917e-08
-1.939190387150673480e-08
-1.996124141784816547e-08
-1.977608956678880426e-08
-1.856199859690114379e-08
-1.646046105495611754e-08
-1.380208223054454228e-08
-1.129177275149830267e-08
-9.506430525916418079e-09
-8.232099272505529653e-09
-6.514977233393353410e-09
-4.499029042981183523e-09
-3.545320143444735881e-09
-2.555630546910225189e-09
-1.818287003600351189e-09
-1.231168071765695687e-09
-8.679382257713209570e-10
-5.880132685296202943e-10
-3.936765133254952879e-10
-2.632966299828645314e-10
-1.756697867174395609e-10
-1.177947290697073607e-10
-7.981098416793285688e-11
-5.488816345603283038e-11
-3.853214934629979169e-11
-2.769105441432325405e-11
-2.037360545072218871e-11
