# bin_14_9
-1.456034938225652744e-11
-1.661572515456990384e-11
-1.869412880418649128e-11
-2.065687730159234851e-11
-2.232118654539094171e-11
-2.345193290975104889e-11
-2.380210760144579829e-11
-2.311522101518921133e-11
-2.119367764277680855e-11
-1.837515083340914737e-11
-1.516898980513104603e-11
-1.246814685173750069e-11
-1.069161785238393372e-11
-9.102930734302887448e-12
-6.740878299374913665e-12
-4.754339927642989956e-12
-3.855724747262625061e-12
-2.555294598151779163e-12
-1.924715121250622842e-12
-1.304330809774595807e-12
-8.885223835157441240e-13
-6.085501509746555993e-13
-4.136229688360387550e-13
-2.809671019313783329e-13
-1.916901538010345618e-13
-1.326262790389035210e-13
-9.331077547884305152e-14
-6.700874756202527861e-14
-4.920122474085781833e-14
-3.686736602072748368e-14
-2.805502107722886680e-14
