# bin_15_7
-1.800294254492147655e-16
-2.054427444501882955e-16
-2.311406903740077006e-16
-2.554085516592002533e-16
-2.759863258787959245e-16
-2.899668443484865650e-16
-2.942962028601814777e-16
-2.858028877053156469e-16
-2.620449288620446401e-16
-2.271961792876963412e-16
-1.875554120493979891e-16
-1.541621131028420445e-16
-1.321954027152018692e-16
-1.125504764755812226e-16
-8.334682385055887878e-17
-5.878682689526018560e-17
-4.767188213637666715e-17
-3.159692176866318094e-17
-2.379739409648905867e-17
-1.612706042539033629e-17
-1.098650017343507985e-17
-7.524540828923251767e-18
-5.114288446468913592e-18
-3.474055010144353999e-18
-2.370183681813999681e-18
-1.639877498600166556e-18
-1.153753062950448891e-18
-8.285353551792092857e-19
-6.083491718070854675e-19
-4.558432326428163644e-19
-3.468801824702114604e-19
