# bin_11_9
-3.893376415629645235e-09
-4.422353237325210671e-09
-4.945678196114872530e-09
-5.425064272507945521e-09
-5.809202165564365258e-09
-6.033548481295177034e-09
-6.043996634591319235e-09
-5.758762507474026041e-09
-5.179782066481088881e-09
-4.403638398902786082e-09
-3.609038759884485919e-09
-3.000980815942610072e-09
-2.597629784481904137e-09
-2.136791377113530056e-09
-1.507439155696418223e-09
-1.129797771405382714e-09
-8.721860371357483728e-10
-5.899072933342240225e-10
-4.261033501432818886e-10
-2.993327959833918938e-10
-2.047733967448865104e-10
-1.400031554823835834e-10
-9.600248666553130201e-11
-6.633639312797556093e-11
-4.636273367910138523e-11
-3.298773372485037418e-11
-2.393146793987224376e-11
-1.772678751011753365e-11
-1.337707598201805021e-11
-1.023259720270294658e-11
-7.878663766762959323e-12
