# bin_2_15
-3.389371838806036156e-34
-3.860140944617075271e-34
-4.331829838990408613e-34
-4.771723926804112692e-34
-5.136330052889339252e-34
-5.370332871126193053e-34
-5.420812404777157534e-34
-5.221799468996917940e-34
-4.747443163085023423e-34
-4.080838587743481332e-34
-3.356003906087381457e-34
-2.770327607992063789e-34
-2.387803346412025883e-34
-2.006746045974998882e-34
-1.452208412050919284e-34
-1.049033075676299059e-34
-8.384103949285370078e-35
-5.554657771534072807e-35
-4.142372712030306727e-35
-2.849667996762176638e-35
-1.940322383561377014e-35
-1.327467337086984507e-35
-9.042093605275121421e-36
-6.184564583452933425e-36
-4.262716059910072791e-36
-2.985483634151046391e-36
-2.129457348428838374e-36
-1.551266210192392761e-36
-1.154101779761154405e-36
-8.738975742772056323e-37
-6.694312344828105357e-37
