# bin_13_6
-9.872131869214345619e-16
-1.121733119289323708e-15
-1.255036135612700064e-15
-1.377440000277243543e-15
-1.475977503135694716e-15
-1.534314091946202418e-15
-1.538527945935713033e-15
-1.467996786234017459e-15
-1.322188780119638563e-15
-1.125617661983820072e-15
-9.228106440449777557e-16
-7.665415591918241736e-16
-6.632916723707654251e-16
-5.472851616535339549e-16
-3.871665525633965774e-16
-2.887750289127989885e-16
-2.240937741746017886e-16
-1.509915883655148391e-16
-1.096079097876372163e-16
-7.680165004048693929e-17
-5.249866383561431266e-17
-3.588834038989387306e-17
-2.458207961631335692e-17
-1.696285690914978488e-17
-1.183423879083378444e-17
-8.403536828894937641e-18
-6.083808622573345760e-18
-4.497560632571113351e-18
-3.388499335627320740e-18
-2.589210783110733407e-18
-1.992713064803071396e-18
