# bin_7_2
-2.012007127312327875e-15
-2.218559565797086341e-15
-2.392596452868593794e-15
-2.508998223257712604e-15
-2.542025521557919853e-15
-2.463889022996778515e-15
-2.256152875248662825e-15
-1.953786617393251303e-15
-1.613011680410320722e-15
-1.326628755779777813e-15
-1.136053782129923557e-15
-9.638966501945062341e-16
-7.155848170160659850e-16
-5.093679412218687347e-16
-4.101898784997764641e-16
-2.791510701663880357e-16
-2.103495840964099327e-16
-1.468206110403422687e-16
-1.042500117448193910e-16
-7.468740742701864197e-17
-5.389875567429148719e-17
-3.943734320293934998e-17
-2.933050284477951871e-17
-2.223252342829319028e-17
-1.711479335605853830e-17
-1.331281244736881030e-17
-1.039915062971850731e-17
-8.098404970237036720e-18
-6.245833076222730081e-18
-4.743110785350286555e-18
-3.530670884354442984e-18
