# bin_11_14
-1.278364972469241177e-09
-1.461256718656769576e-09
-1.647535232264126646e-09
-1.825180240870838929e-09
-1.978463407849564811e-09
-2.086911015868996925e-09
-2.127502662252620228e-09
-2.079787620898679269e-09
-1.920915074426852863e-09
-1.677627863273695184e-09
-1.390581466679741589e-09
-1.140135936758513336e-09
-9.725376984772412715e-10
-8.348140474876171298e-10
-6.311099852209928198e-10
-4.391622940893771801e-10
-3.562578062929709387e-10
-2.399202353117704187e-10
-1.796590991572463688e-10
-1.204871391972792400e-10
-8.268955029274711536e-11
-5.657210374218085492e-11
-3.837655309543414867e-11
-2.593313451053591372e-11
-1.755220291669759904e-11
-1.202025493106829574e-11
-8.356790842392997947e-12
-5.923299652046369523e-12
-4.293996166050897231e-12
-3.182269049572080432e-12
-2.402378216799706116e-12
