   0.1000E+05   0.6670E+00
   0.8129E+04   0.6286E+00
   0.6608E+04   0.6296E+00
   0.5372E+04   0.6308E+00
   0.4367E+04   0.6318E+00
   0.3550E+04   0.6328E+00
   0.2885E+04   0.6336E+00
   0.2346E+04   0.6341E+00
   0.1907E+04   0.6345E+00
   0.1550E+04   0.6347E+00
   0.1260E+04   0.6347E+00
   0.1024E+04   0.6347E+00
   0.8326E+03   0.6345E+00
   0.6768E+03   0.6342E+00
   0.5501E+03   0.6339E+00
   0.4472E+03   0.6334E+00
   0.3635E+03   0.6330E+00
   0.2955E+03   0.6326E+00
   0.2402E+03   0.6321E+00
   0.1953E+03   0.6317E+00
   0.1587E+03   0.6312E+00
   0.1290E+03   0.6308E+00
   0.1049E+03   0.6304E+00
   0.8527E+02   0.6300E+00
   0.6931E+02   0.6297E+00
   0.5635E+02   0.6293E+00
   0.4580E+02   0.6290E+00
   0.3723E+02   0.6287E+00
   0.3027E+02   0.6284E+00
   0.2460E+02   0.6283E+00
   0.2000E+02   0.6281E+00
