# bin_2_5
-9.071514114865474574e-15
-9.814512217577941233e-15
-1.033655168561217184e-14
-1.052749687508041071e-14
-1.028298567021369479e-14
-9.501744673611161072e-15
-8.302501955619967322e-15
-6.894789430001126758e-15
-5.656074087225747849e-15
-4.807465069180361785e-15
-4.111327370716431022e-15
-3.138538829006255084e-15
-2.214285209256057633e-15
-1.770686017544395427e-15
-1.246062875885901695e-15
-9.268595023699999909e-16
-6.535900678840734229e-16
-4.732855610144954924e-16
-3.432596328609173710e-16
-2.514810143272686505e-16
-1.872338125482881395e-16
-1.417861941710733200e-16
-1.092602522372311137e-16
-8.529714003295185186e-17
-6.704452943922769782e-17
-5.270479407674294958e-17
-4.114604614979115081e-17
-3.169917672673445831e-17
-2.397082865891385799e-17
-1.771720075601559982e-17
-1.276279161409757640e-17
