# bin_10_11
-8.627789210664408556e-12
-9.798532988249396110e-12
-1.095526991579977975e-11
-1.201272271864914767e-11
-1.285659028456543745e-11
-1.334334811441069130e-11
-1.335398286653189565e-11
-1.270705707422744775e-11
-1.141435903653191484e-11
-9.691357207959462256e-12
-7.940384197090965062e-12
-6.609854217854487689e-12
-5.723319909195124103e-12
-4.693542909051956461e-12
-3.304314007002265204e-12
-2.487788072468406409e-12
-1.910547226183014675e-12
-1.297967152681801681e-12
-9.332124204127121967e-13
-6.567761765964106878e-13
-4.497515504787387698e-13
-3.077182636422659279e-13
-2.112994903086484523e-13
-1.462276085580150117e-13
-1.023957839160555058e-13
-7.300878002934124737e-14
-5.307875342857569418e-14
-3.939441606483249249e-14
-2.977393450490001641e-14
-2.279702344677807669e-14
-1.755837955338982961e-14
