# bin_5_10
-3.471401377128301056e-17
-3.907544233603417554e-17
-4.321560802571357041e-17
-4.675826928512292425e-17
-4.921669058220951551e-17
-5.006120404520691697e-17
-4.878528091588308411e-17
-4.491163171439326409e-17
-3.909655078978508213e-17
-3.235209946691359444e-17
-2.655155696594277387e-17
-2.268773786459485113e-17
-1.940272078497180734e-17
-1.456661319908985774e-17
-1.021480184922795910e-17
-8.277277020380736398e-18
-5.589996095585688033e-18
-4.204877559352037207e-18
-2.869970052618359118e-18
-2.003088621171591893e-18
-1.403322657391321340e-18
-9.834508106308203180e-19
-6.942227678136712929e-19
-4.959885978788957938e-19
-3.612592963266737969e-19
-2.682546074248387137e-19
-2.027710177749539571e-19
-1.554863939737733656e-19
-1.201765459321235689e-19
-9.295242176155501204e-20
-7.143034278717612936e-20
