# bin_6_15
-2.170096507361899138e-23
-2.474768217590124139e-23
-2.781719408114392864e-23
-3.070115010954789233e-23
-3.312381363040443880e-23
-3.473232180937625466e-23
-3.516983348926578107e-23
-3.403557580679767906e-23
-3.108747349547472562e-23
-2.684845089696139260e-23
-2.212085205836840071e-23
-1.821390855141120961e-23
-1.566020068538469855e-23
-1.326481034893087272e-23
-9.719071698268959209e-24
-6.921787843768527338e-24
-5.589365869918339330e-24
-3.694225386888686875e-24
-2.777017882367255973e-24
-1.894406271373161309e-24
-1.289395373731538973e-24
-8.829257324517063209e-25
-6.006378146567619673e-25
-4.093122620131748558e-25
-2.805776570470212906e-25
-1.952391065978943599e-25
-1.382531959537163793e-25
-9.996185303900148133e-26
-7.386563443108482625e-26
-5.563696206609945431e-26
-4.248428033222480020e-26
