# bin_11_11
-2.409457564007507102e-11
-2.738419505478664212e-11
-3.064583033918465619e-11
-3.364265963172271589e-11
-3.605768159602151532e-11
-3.749159922769274377e-11
-3.760172582319347145e-11
-3.588754198839699651e-11
-3.232944003411884759e-11
-2.752966342313878183e-11
-2.257177799405041119e-11
-1.874862853121124652e-11
-1.622185552336345299e-11
-1.338926510739053157e-11
-9.482751845382435095e-12
-7.066542727304486267e-12
-5.486777977552167850e-12
-3.698203630976156375e-12
-2.686377027010659993e-12
-1.880620734181816005e-12
-1.285693263133586233e-12
-8.793997728613214368e-13
-6.024747379450727126e-13
-4.157435032059941352e-13
-2.900222749212192869e-13
-2.059198260737453817e-13
-1.490499085324768170e-13
-1.101610326093057483e-13
-8.297473120608264040e-14
-6.338688441336158821e-14
-4.877469467330983839e-14
