# bin_9_7
-1.857596674644367707e-10
-2.078651480613299809e-10
-2.282455222520593036e-10
-2.447763088984397100e-10
-2.547823101065326689e-10
-2.558691800008537369e-10
-2.448105718655554396e-10
-2.211660020533458887e-10
-1.889323575836804547e-10
-1.551357827146481201e-10
-1.286115253446141486e-10
-1.109612815749175320e-10
-9.202069078362510090e-11
-6.597223061705576088e-11
-4.869163885255814940e-11
-3.813352734513167118e-11
-2.588854630029270064e-11
-1.907176123648649798e-11
-1.342104508658605917e-11
-9.364795479511188257e-12
-6.585998043091596028e-12
-4.663719326009807246e-12
-3.344470033243207608e-12
-2.436733786934575627e-12
-1.810687091967050530e-12
-1.369461664991215825e-12
-1.050790223575302703e-12
-8.134857637986177003e-13
-6.309049647490688503e-13
-4.867126500799809215e-13
-3.711180474685255370e-13
