# bin_12_5
-7.074350110960072712e-10
-7.797893405509799491e-10
-8.405633123885282741e-10
-8.809017267659818660e-10
-8.918453653839236881e-10
-8.636001298696449752e-10
-7.904591408825271359e-10
-6.842599860742187313e-10
-5.654998813677589052e-10
-4.658173624518534739e-10
-3.984660101992251375e-10
-3.367280581120379306e-10
-2.506070533600281380e-10
-1.796146716426422812e-10
-1.428458052916216767e-10
-9.871226693570927156e-11
-7.337142096423034566e-11
-5.149185034540327813e-11
-3.668642902776912994e-11
-2.625372618576495077e-11
-1.894022727597873319e-11
-1.386087280221798070e-11
-1.031127782306878169e-11
-7.815089199655266741e-12
-6.014521030249351467e-12
-4.676392764102878934e-12
-3.650831461989973420e-12
-2.841387174911226978e-12
-2.190104568769747059e-12
-1.662304207147289723e-12
-1.236850229339317655e-12
