# bin_2_2
-2.581803158988452546e-10
-2.633728424694778499e-10
-2.579741675430806460e-10
-2.398395768315810421e-10
-2.110281282747183386e-10
-1.768260026793121817e-10
-1.455255864158016818e-10
-1.226307584103294881e-10
-1.041415225033683814e-10
-8.148440635350043938e-11
-5.886380911697049809e-11
-4.534846594440483262e-11
-3.361002153776372590e-11
-2.442894204088312698e-11
-1.789439530557748165e-11
-1.313602073297029437e-11
-9.726212150894776013e-12
-7.316266983328766634e-12
-5.602856471689429119e-12
-4.364676003839314032e-12
-3.447219364611851843e-12
-2.744182225293380322e-12
-2.185782374601933628e-12
-1.729631955354201050e-12
-1.350737179499627407e-12
-1.035013727649277727e-12
-7.746759380621542106e-13
-5.647397636096966575e-13
-4.005686466716693271e-13
-2.767222860696162162e-13
-1.866267805951446696e-13
