# bin_11_8
-1.955719848751056328e-10
-2.201612487710472981e-10
-2.435122462557625250e-10
-2.635086141019645809e-10
-2.774093509403294348e-10
-2.822427986375005749e-10
-2.751416886645758626e-10
-2.534706523839211921e-10
-2.207928680309643128e-10
-1.828751082392787809e-10
-1.501437180158430924e-10
-1.281724351718290123e-10
-1.095200308704656345e-10
-8.245994984787742926e-11
-5.795909616632322303e-11
-4.668195665181402407e-11
-3.181628935023683695e-11
-2.373496078097604723e-11
-1.624637055635218396e-11
-1.137273520906406170e-11
-7.954980965293025267e-12
-5.567153894016930727e-12
-3.927382521758910083e-12
-2.804105493514474737e-12
-2.040448069462161058e-12
-1.513625071593036996e-12
-1.142986773830757299e-12
-8.756465548567014403e-13
-6.762924742149326489e-13
-5.228260251625183037e-13
-4.016794777566231746e-13
