# bin_2_14
-1.504182012024685176e-36
-1.709307493831501832e-36
-1.912541345243987729e-36
-2.099088102664578289e-36
-2.249128230352241764e-36
-2.337703382851771060e-36
-2.343594334578204395e-36
-2.235348690917297747e-36
-2.012448790901518744e-36
-1.712503217721579274e-36
-1.403748585918090559e-36
-1.166468149437205525e-36
-1.009606080518409819e-36
-8.323318187205231330e-37
-5.884083094382564381e-37
-4.395122716866620968e-37
-3.405711321938518889e-37
-2.297920174706279695e-37
-1.665789416796280388e-37
-1.168030097504506194e-37
-7.987473638958162821e-38
-5.462211675490059676e-38
-3.743582736746569467e-38
-2.584900510201957422e-38
-1.804732182836840694e-38
-1.282593477023893328e-38
-9.293095288332672296e-39
-6.875251139984419556e-39
-5.182964020537334289e-39
-3.961919985027020455e-39
-3.049672838490676630e-39
