# bin_9_1
-3.251245776481746637e-09
-3.186304514730571145e-09
-2.974701357243059477e-09
-2.635651253335545930e-09
-2.231665472584120393e-09
-1.849352821789922043e-09
-1.547509505962448354e-09
-1.298378564514180836e-09
-1.032831986153114064e-09
-7.683374074793467856e-10
-5.765745596148809932e-10
-4.349660783698811740e-10
-3.174403424970538592e-10
-2.341463939881425596e-10
-1.726613597957742101e-10
-1.289010175289293476e-10
-9.768662595563927780e-11
-7.535021965206663907e-11
-5.908942574565850959e-11
-4.691713508671975920e-11
-3.749180924742700981e-11
-2.993469959848084306e-11
-2.371213459210182999e-11
-1.851649414353258980e-11
-1.417774386413956804e-11
-1.060152711494281774e-11
-7.723554112171148545e-12
-5.478663420926087784e-12
-3.787819613146212324e-12
-2.558284195843188293e-12
-1.692927772352924160e-12
