# bin_8_9
-9.182441398225220785e-12
-1.035138619695159449e-11
-1.146848660259219723e-11
-1.243580053201187382e-11
-1.312549735519477931e-11
-1.339283884767529033e-11
-1.311095690648043375e-11
-1.213327891848131065e-11
-1.061635561056876804e-11
-8.813930888515935609e-12
-7.224029914013723372e-12
-6.148223114633643736e-12
-5.282208104263080547e-12
-4.025020381220503990e-12
-2.803743082153634525e-12
-2.262597749374191000e-12
-1.552457255747767135e-12
-1.155848279730526351e-12
-7.860870798869505085e-13
-5.519141951701285714e-13
-3.855215866386409497e-13
-2.691726117557476736e-13
-1.892195537381226834e-13
-1.344856786380290326e-13
-9.737547127037641955e-14
-7.188957049856751249e-14
-5.406128171177835441e-14
-4.129560224760731499e-14
-3.184911927773386024e-14
-2.462594384671654758e-14
-1.894960286821832410e-14
