# bin_4_13
-6.180685682732061084e-26
-7.011231455761120828e-26
-7.827373142690872705e-26
-8.567429611932523314e-26
-9.148664256039624449e-26
-9.467772426205557907e-26
-9.443136034017103785e-26
-8.943756875895281445e-26
-7.998470443516027696e-26
-6.761135497225614292e-26
-5.534940356690406044e-26
-4.624020337911188065e-26
-4.006414921389228221e-26
-3.250309862330831765e-26
-2.270171781701724455e-26
-1.736630672765008701e-26
-1.309193930050698255e-26
-9.025424616416215099e-27
-6.379359383362277376e-27
-4.522209988073969775e-27
-3.105729384302370976e-27
-2.127639503471485798e-27
-1.466797178427604734e-27
-1.019665859570453342e-27
-7.182264998330725467e-28
-5.153929725123000153e-28
-3.771778156644124768e-28
-2.816513292066419801e-28
-2.138981424943186195e-28
-1.642715258158647891e-28
-1.266502807493445552e-28
