# bin_2_15
-1.054995066485674422e-38
-1.201625346694594622e-38
-1.348501789166169140e-38
-1.485412241906822443e-38
-1.598772199089981408e-38
-1.671311233980930100e-38
-1.686570246710445901e-38
-1.623923690312243630e-38
-1.475577879598301966e-38
-1.267630692356475182e-38
-1.042149692744225404e-38
-8.605564875952494618e-39
-7.420928856795285932e-39
-6.232098407362220072e-39
-4.503360613290053829e-39
-3.258494499523667076e-39
-2.601714655612887635e-39
-1.724285295896112738e-39
-1.284811106344440570e-39
-8.848701830537634174e-40
-6.026609589068981664e-40
-4.123527157460414226e-40
-2.809882844551989284e-40
-1.923278379712204777e-40
-1.326842766573251377e-40
-9.302587796003825808e-41
-6.642735746289430924e-41
-4.844502923677079564e-41
-3.607730189386717807e-41
-2.733859291430313771e-41
-2.095177924133333264e-41
