# bin_3_11
-3.122271517264247643e-25
-3.517602364683024364e-25
-3.894363768639243643e-25
-4.219027129378120679e-25
-4.447995924530659026e-25
-4.532620341771554177e-25
-4.428906607861311027e-25
-4.089540996953070764e-25
-3.570576547839662283e-25
-2.959902800962723870e-25
-2.427027586464647752e-25
-2.069255874966547320e-25
-1.774959483957119635e-25
-1.343847659865911599e-25
-9.379624952546523613e-26
-7.592182077313280843e-26
-5.166384407096674603e-26
-3.869558491814111813e-26
-2.632983048503610200e-26
-1.843103010467617562e-26
-1.289454581181431028e-26
-9.019867226785935394e-27
-6.352007158669112292e-27
-4.524502127804436899e-27
-3.284381326589457733e-27
-2.430878514840078646e-27
-1.832198472722832510e-27
-1.401997398123092251e-27
-1.082402957563913956e-27
-8.371340959581383616e-28
-6.438639755836575733e-28
