# bin_8_10
-1.429602478386764903e-12
-1.616361637409117294e-12
-1.797184091345415406e-12
-1.957312405398124172e-12
-2.077155890308431716e-12
-2.133115790344615253e-12
-2.106876768356295913e-12
-1.970572282465728569e-12
-1.741732832172894971e-12
-1.456837679483531320e-12
-1.192137227276895436e-12
-1.006103892518428588e-12
-8.699397649479103533e-13
-6.828447690491232040e-13
-4.727678400981238953e-13
-3.749689882787872023e-13
-2.677805591941708821e-13
-1.933470605090236979e-13
-1.321151714462885921e-13
-9.381731975191559036e-14
-6.503854671597520911e-14
-4.499041894077958675e-14
-3.135681185240187604e-14
-2.205947870439546858e-14
-1.577715321083993473e-14
-1.150482540355358691e-14
-8.553406826889563322e-15
-6.474997686049258489e-15
-4.965943331591446985e-15
-3.832994581672782658e-15
-2.955254033046567911e-15
