# bin_5_4
-2.848485857903844213e-10
-3.089419216633647678e-10
-3.263910437096540265e-10
-3.336917753926777429e-10
-3.276190952127522006e-10
-3.047288707906130493e-10
-2.679835286210199676e-10
-2.237723462700354022e-10
-1.835528208208370176e-10
-1.551708283956456879e-10
-1.329619029286352177e-10
-1.033719282507814538e-10
-7.306375522833693357e-11
-5.746708194469401143e-11
-4.150267205588289082e-11
-3.023632580300847756e-11
-2.153642883348119902e-11
-1.558746679447091091e-11
-1.125144117914838897e-11
-8.206554174605868220e-12
-6.080836082443633061e-12
-4.583121922936772712e-12
-3.515447710503680192e-12
-2.734584221853982787e-12
-2.144405586611598354e-12
-1.684200668938588107e-12
-1.315537332565330205e-12
-1.015354738270310753e-12
-7.701064530507377294e-13
-5.714753097021725735e-13
-4.136404006593211812e-13
