# bin_2_13
-2.876623871440561388e-34
-3.260217240362409940e-34
-3.635604845618587389e-34
-3.973829065362859813e-34
-4.236103415587106365e-34
-4.374334146944205623e-34
-4.351334329702632945e-34
-4.106744299112175799e-34
-3.660635747162307540e-34
-3.084709536671491417e-34
-2.524416220955527439e-34
-2.114891356046217195e-34
-1.832240315755892108e-34
-1.473389035448839541e-34
-1.024944828654875646e-34
-7.929033972221132052e-35
-5.889025556287159932e-35
-4.111710784473907886e-35
-2.872110728234259278e-35
-2.041776490068738842e-35
-1.405673853511862055e-35
-9.649893796376428307e-36
-6.673395372905121582e-36
-4.654668853884698744e-36
-3.292892950546048954e-36
-2.373955070673741702e-36
-1.745442950877645613e-36
-1.308823514167942736e-36
-9.970900271577547656e-37
-7.671055797862933769e-37
-5.916001847722550158e-37
