# bin_14_12
-6.804067155987696303e-11
-7.760320218442486359e-11
-8.724267608774216981e-11
-9.630648002279319302e-11
-1.039315675599726367e-10
-1.090120718143211918e-10
-1.104237230992231083e-10
-1.069223155626132941e-10
-9.773010626187238412e-11
-8.446399284346913227e-11
-6.962734825942134360e-11
-5.732345698227184660e-11
-4.925323669390610426e-11
-4.173887711518915318e-11
-3.065695725582178145e-11
-2.181537549345550665e-11
-1.759176888561194050e-11
-1.166806783861670346e-11
-8.751698551320439084e-12
-5.963907385881608496e-12
-4.064739893877121307e-12
-2.782916227990054615e-12
-1.893306208716252495e-12
-1.289639385277115678e-12
-8.833725034951001469e-13
-6.140877778042949390e-13
-4.343541347639163282e-13
-3.136583137103695914e-13
-2.314834635783973120e-13
-1.741600071158677303e-13
-1.328684212945766095e-13
