# bin_2_3
-2.205817869459638255e-11
-2.313752014721958609e-11
-2.346363286866844930e-11
-2.279038924412217065e-11
-2.095173680504680049e-11
-1.822221401298427795e-11
-1.511633193954177052e-11
-1.243802894437851031e-11
-1.058129265415148414e-11
-8.961724426960248451e-12
-6.794912826923164014e-12
-4.875093225763984321e-12
-3.850211924918573914e-12
-2.744713051646077371e-12
-2.034110388764751003e-12
-1.461743404756495250e-12
-1.069365416944021675e-12
-7.874316799776499762e-13
-5.881010410969927544e-13
-4.471232287694518135e-13
-3.457768896865725709e-13
-2.713600523641179310e-13
-2.148257950547260810e-13
-1.703559444527930494e-13
-1.343733097834298977e-13
-1.047190947835605361e-13
-8.015795397624931518e-14
-5.998331006125344400e-14
-4.373674978952744532e-14
-3.103051741641266417e-14
-2.143496543686346590e-14
