# bin_12_2
-2.213994134018877806e-09
-2.295367423117108739e-09
-2.294911251335542526e-09
-2.189437193435581282e-09
-1.977820150515299345e-09
-1.694510529941685067e-09
-1.400854521428178664e-09
-1.163935853881191958e-09
-9.909708574780032882e-10
-8.136867757960325219e-10
-6.042997730376088148e-10
-4.473465731628493906e-10
-3.437861954447721365e-10
-2.473958017022804689e-10
-1.820536901850955738e-10
-1.322156464847286828e-10
-9.706467446008684797e-11
-7.202657069702069912e-11
-5.430739581609027225e-11
-4.167780143591827194e-11
-3.249960761535504148e-11
-2.565091533835026296e-11
-2.035796964459630102e-11
-1.613163060045490848e-11
-1.267506193518950665e-11
-9.812988602140846189e-12
-7.446195681645500626e-12
-5.516267891673413233e-12
-3.980171049723964613e-12
-2.795875510216082670e-12
-1.914424014813040673e-12
