# bin_6_8
-1.243165050518272086e-12
-1.389435331027885361e-12
-1.523619004047389439e-12
-1.631461420065206277e-12
-1.695061845255571207e-12
-1.698962306882326447e-12
-1.621072199993093906e-12
-1.460227819863022690e-12
-1.243540394574894350e-12
-1.019254571682971553e-12
-8.455106664591594235e-13
-7.303450899239230378e-13
-6.032712039632166893e-13
-4.289404950653287708e-13
-3.188337934248895288e-13
-2.485977758987418319e-13
-1.686164442567689250e-13
-1.237608174314236799e-13
-8.754833770714219145e-14
-6.105524688383716266e-14
-4.290882254796920943e-14
-3.040248242384972928e-14
-2.183731678712940163e-14
-1.594433862553867851e-14
-1.187396526332599536e-14
-8.998711139171924458e-15
-6.916153619483920411e-15
-5.359759959277398040e-15
-4.158061189528019932e-15
-3.206322242266261692e-15
-2.442082399411322801e-15
