# bin_4_12
-5.878253932518248258e-24
-6.647520776553704608e-24
-7.393437504223323536e-24
-8.055731615465966885e-24
-8.554248950126463843e-24
-8.791714544733948735e-24
-8.693742260600836897e-24
-8.143487867657596444e-24
-7.207792458851103639e-24
-6.035178907475179335e-24
-4.936508556315863853e-24
-4.158996844045873470e-24
-3.597854772305790463e-24
-2.837241516183081561e-24
-1.963470218055951596e-24
-1.550882502351481023e-24
-1.115528111751846567e-24
-8.003355624991334676e-25
-5.479528534801260935e-25
-3.896371814890169816e-25
-2.696592058820654724e-25
-1.861621353721779980e-25
-1.295179010910079851e-25
-9.093207586845114395e-26
-6.487769953394896805e-26
-4.719280501770811495e-26
-3.500459142460851831e-26
-2.644813121441689581e-26
-2.025794813143346547e-26
-1.562714641429716489e-26
-1.204994036088324795e-26
