# bin_5_6
-1.290698929786327385e-11
-1.424319372529235033e-11
-1.537655538871634993e-11
-1.614720445007223678e-11
-1.638637054811076279e-11
-1.592373128703069050e-11
-1.462289785032182596e-11
-1.269863696786900960e-11
-1.049773977257682198e-11
-8.619155871411005334e-12
-7.360229468657857742e-12
-6.266243477170170690e-12
-4.694337235224120374e-12
-3.319403378749552062e-12
-2.671852503141797967e-12
-1.829954421185231657e-12
-1.373369564365577214e-12
-9.551185822867398963e-13
-6.794544367262431529e-13
-4.858862235791183832e-13
-3.497988633373434468e-13
-2.552357089541543221e-13
-1.892424641354405967e-13
-1.430220232702520341e-13
-1.098306810978964341e-13
-8.528177219524437426e-14
-6.655561948606311771e-14
-5.182706519713391997e-14
-3.999882903273553390e-14
-3.041559081682947329e-14
-2.268292483979522562e-14
