# bin_7_9
-1.334122863213962902e-12
-1.499257156525699328e-12
-1.654999533875676088e-12
-1.786773552449224540e-12
-1.875863370400937970e-12
-1.902626789994824494e-12
-1.846904117236807457e-12
-1.693089444740920662e-12
-1.467699352137173306e-12
-1.211416818497690408e-12
-9.949908023019051501e-13
-8.518794667747204625e-13
-7.250272826974497872e-13
-5.385773475545038280e-13
-3.802092996644140799e-13
-3.076181822421293489e-13
-2.063479360751871202e-13
-1.554988464456415730e-13
-1.066077227324718840e-13
-7.418597358862182659e-14
-5.200561224858836516e-14
-3.649445815589687857e-14
-2.582282464277674951e-14
-1.850821981332635039e-14
-1.352855320269894117e-14
-1.008005250950009541e-14
-7.641926456102244340e-15
-5.871795827377152310e-15
-4.542349694797630552e-15
-3.512179879556270307e-15
-2.695078009898123315e-15
