# bin_10_3
-1.350072269937185199e-09
-1.440906104734954643e-09
-1.492458747166190941e-09
-1.490338814168341693e-09
-1.417920194869166435e-09
-1.275676792911755428e-09
-1.087180248902086523e-09
-8.944169608421516527e-10
-7.434573149193689850e-10
-6.368059616654843132e-10
-5.214374246413403973e-10
-3.794375657889609847e-10
-2.825549921381895773e-10
-2.175404155382353801e-10
-1.537574844922510878e-10
-1.132293780396441002e-10
-8.144500325786004130e-11
-5.906400651138347548e-11
-4.329634752263888965e-11
-3.219926149112343389e-11
-2.436427955359658514e-11
-1.874892985741146809e-11
-1.463672409418077773e-11
-1.152185913444649695e-11
-9.083978700344147816e-12
-7.123831576857994320e-12
-5.520215486484476157e-12
-4.203061565566412813e-12
-3.130333682026376815e-12
-2.273308979766883086e-12
-1.607622465357668877e-12
