# bin_8_9
-9.224012593206271399e-12
-1.038144186264443077e-11
-1.148076812892456840e-11
-1.242277356239202751e-11
-1.307898044181845787e-11
-1.330813435135426051e-11
-1.297915176716610432e-11
-1.196051118606905648e-11
-1.042200804242138458e-11
-8.627690029389660486e-12
-7.073862355307676753e-12
-6.033867706931856637e-12
-5.164842865504717489e-12
-3.893085401874921680e-12
-2.722697136707790047e-12
-2.202682177398889717e-12
-1.493876957062029386e-12
-1.119835090027291018e-12
-7.628523097292039951e-13
-5.331397784310754678e-13
-3.729833255396409317e-13
-2.609658112478443453e-13
-1.838831207174219027e-13
-1.310959984324645724e-13
-9.526658866370426321e-14
-7.058604691325371578e-14
-5.325272549554089615e-14
-4.077509317538914657e-14
-3.148707477047360193e-14
-2.434619160123616970e-14
-1.871238422321034183e-14
