# bin_5_5
-7.991551352625297289e-11
-8.751845956948663969e-11
-9.359481363035676266e-11
-9.712566978688134802e-11
-9.721580886304429301e-11
-9.265072827027922771e-11
-8.340346532565157959e-11
-7.101580446826990317e-11
-5.825117520459699067e-11
-4.834854375862410190e-11
-4.166397097375258295e-11
-3.431425838000325597e-11
-2.456672417197567152e-11
-1.829431257092943905e-11
-1.422084625933803001e-11
-9.806343308909877703e-12
-7.232082228114005113e-12
-5.163851910090417168e-12
-3.674912731244902722e-12
-2.645179024382194720e-12
-1.927206237420289832e-12
-1.427072335893370321e-12
-1.075398022643731710e-12
-8.247097651162895706e-13
-6.405331127811721172e-13
-5.009143429664111762e-13
-3.917675322220728224e-13
-3.042711144678997964e-13
-2.332281536300282476e-13
-1.755290527704643199e-13
-1.291913078933731875e-13
