# bin_4_4
-1.097968909735901975e-10
-1.185474272002794657e-10
-1.245543343317204734e-10
-1.265217876811655766e-10
-1.231569723826348308e-10
-1.134097841062197526e-10
-9.876673947855365613e-11
-8.188860394252451487e-11
-6.724067269797827610e-11
-5.719824085621107720e-11
-4.866989669614808501e-11
-3.691296137912443830e-11
-2.621544289192755781e-11
-2.085797975270603878e-11
-1.468156122772015456e-11
-1.089305231214314713e-11
-7.710107404940327186e-12
-5.578185606119279787e-12
-4.047351223836501014e-12
-2.968459733533096142e-12
-2.213114550912831620e-12
-1.678373509647514363e-12
-1.294856680710886147e-12
-1.011551935242488777e-12
-7.951713071073819746e-13
-6.247694929501213793e-13
-4.872093423311747444e-13
-3.747439199534771769e-13
-2.828110638309524282e-13
-2.085544041945377387e-13
-1.498821379284584138e-13
