# bin_3_3
-1.605807165083508273e-10
-1.697141245057541018e-10
-1.736819339620862864e-10
-1.708172005001092338e-10
-1.593497371047347603e-10
-1.405670880792880129e-10
-1.177340250961299488e-10
-9.656146270190690490e-11
-8.129135757602452507e-11
-6.957635876882012345e-11
-5.466646960233829861e-11
-3.889750288652533027e-11
-3.022422354813367077e-11
-2.225979261264609139e-11
-1.611113677866386496e-11
-1.166532994537567335e-11
-8.503699816458738684e-12
-6.209453331932997202e-12
-4.596674369518338040e-12
-3.461397125376494537e-12
-2.652564742645509380e-12
-2.065562014499305927e-12
-1.626822879982140104e-12
-1.287104722667779752e-12
-1.015847680171472231e-12
-7.943231792620805261e-13
-6.115254351912185613e-13
-4.611644894227530524e-13
-3.393472079060750256e-13
-2.431069915733173769e-13
-1.695200757908127481e-13
