# bin_2_14
-1.015600895782787672e-36
-1.153635853074249391e-36
-1.290241842731855058e-36
-1.415431153209295160e-36
-1.515833842732096359e-36
-1.574635058826869428e-36
-1.577637588278547806e-36
-1.503655608806592855e-36
-1.352741926389964936e-36
-1.150283707860207907e-36
-9.425220679001765308e-37
-7.832380046776735065e-37
-6.778059374075773941e-37
-5.581076376139720647e-37
-3.940809072197955637e-37
-2.947362962868861627e-37
-2.279585039434441677e-37
-1.539466844683770846e-37
-1.113970885481694297e-37
-7.815373570733468563e-38
-5.344273205533502417e-38
-3.653702245938683210e-38
-2.504183076304248021e-38
-1.729300199308136991e-38
-1.207664701767974209e-38
-8.585438889440542268e-39
-6.222980584630069753e-39
-4.605700681966199454e-39
-3.473170314337927875e-39
-2.655469961700214897e-39
-2.044122629090186775e-39
