# bin_4_7
-3.603390825251846738e-14
-3.988762192939047394e-14
-4.322593839659896343e-14
-4.560932648542936572e-14
-4.653888431089531002e-14
-4.558041017784382090e-14
-4.222398894147847701e-14
-3.698207508671590353e-14
-3.072863875136482337e-14
-2.516239081742763708e-14
-2.135599918158359179e-14
-1.834294612989666741e-14
-1.406633996170515728e-14
-9.815285449767209731e-15
-7.881397989825590154e-15
-5.498924903272520567e-15
-4.080786738749407356e-15
-2.821647126708836540e-15
-2.017929380984882731e-15
-1.436993017810502510e-15
-1.028684524724465438e-15
-7.458328161585039858e-16
-5.490676047495194095e-16
-4.120525882233020159e-16
-3.145820424993255269e-16
-2.432548380078136033e-16
-1.894614121419696782e-16
-1.475682564368234069e-16
-1.141450125461948088e-16
-8.713834215372081546e-17
-6.532964630633616446e-17
