# bin_14_1
-3.527668008030541387e-09
-3.467470105897502310e-09
-3.248079710151368227e-09
-2.886849966157731459e-09
-2.449094790058428631e-09
-2.028847509413766710e-09
-1.695565397765953859e-09
-1.425261250547593652e-09
-1.139334240908791390e-09
-8.483815186138361335e-10
-6.352696541653404680e-10
-4.802966409817120234e-10
-3.503009473604029341e-10
-2.582362122295235325e-10
-1.901894008247540336e-10
-1.417601520606692719e-10
-1.072209071600081949e-10
-8.253941267063316927e-11
-6.461381057318427115e-11
-5.123680372996141445e-11
-4.091527922945604506e-11
-3.266624895495799445e-11
-2.588969999708609659e-11
-2.023811850131297367e-11
-1.551845300032766096e-11
-1.162394164306576915e-11
-8.483817580840415653e-12
-6.028618445182597580e-12
-4.174738480679162349e-12
-2.823486108549796052e-12
-1.870525990920512006e-12
