# bin_8_13
-6.008040556113930171e-16
-6.834219627086290690e-16
-7.657338609643175881e-16
-8.418906978898647544e-16
-9.040902631357256647e-16
-9.424666154680094092e-16
-9.480903318378091810e-16
-9.088225758563337306e-16
-8.221328300968632376e-16
-7.030503469800734052e-16
-5.769427540324163066e-16
-4.775140307695697131e-16
-4.125062322061784608e-16
-3.436910144018237699e-16
-2.456567606884740890e-16
-1.801789974414050974e-16
-1.421567644557267420e-16
-9.471305779231447323e-17
-6.983703331345605608e-17
-4.847455747996135613e-17
-3.305052253593254691e-17
-2.259435675257140580e-17
-1.542281972053516858e-17
-1.059304778586001744e-17
-7.344402460581161681e-18
-5.179021899975858429e-18
-3.721707191146001338e-18
-2.731620141039765658e-18
-2.045670899030269329e-18
-1.556611086818497423e-18
-1.195659703496154410e-18
