# bin_7_3
-1.044159653226452445e-09
-1.113580442378080248e-09
-1.152358332832326124e-09
-1.149413279565047336e-09
-1.091915078930778578e-09
-9.808593104180211917e-10
-8.347389705879567913e-10
-6.864316797907935269e-10
-5.710718773011560301e-10
-4.892858686963061547e-10
-3.995304639032567541e-10
-2.900033082038200981e-10
-2.166411693634483080e-10
-1.663758017383729746e-10
-1.176706666576181020e-10
-8.660055166889398490e-11
-6.234978424548660505e-11
-4.523085853238380083e-11
-3.318108489076716330e-11
-2.470055667769026763e-11
-1.870915062124675770e-11
-1.441115492928339047e-11
-1.125895422007084670e-11
-8.867127085107370725e-12
-6.992085767169347240e-12
-5.482471433726013280e-12
-4.246434822310380304e-12
-3.230951663930303757e-12
-2.404156345272809454e-12
-1.744119166192163846e-12
-1.232033226407432258e-12
