# bin_4_3
-4.270127795604388425e-10
-4.535343770893243100e-10
-4.669452326229790465e-10
-4.628147403085017126e-10
-4.359989921932255975e-10
-3.883334603459667390e-10
-3.279202254016538938e-10
-2.691070213240184538e-10
-2.250370078325886322e-10
-1.929942142428901745e-10
-1.550151489966050271e-10
-1.110895774044035826e-10
-8.455816419104981211e-11
-6.387003871151781269e-11
-4.547334774579418181e-11
-3.327862330940224911e-11
-2.410695128876578780e-11
-1.752547803758880301e-11
-1.290988421773097824e-11
-9.662260796185190160e-12
-7.359443845422550302e-12
-5.698881337542550134e-12
-4.470503721870421237e-12
-3.529450926165998921e-12
-2.785136745209420769e-12
-2.181598342366155479e-12
-1.685361961970610993e-12
-1.277237751075646637e-12
-9.455646847561818706e-13
-6.819623337874650702e-13
-4.787830701546274616e-13
