# bin_6_2
-1.588961046959927599e-09
-1.645028566418039004e-09
-1.642048420862461234e-09
-1.563467886980737296e-09
-1.409317308504183304e-09
-1.204909790102539195e-09
-9.947496251978804076e-10
-8.265576067645923156e-10
-7.038582238311559924e-10
-5.764849219361141986e-10
-4.264932542345694708e-10
-3.162281483771777577e-10
-2.428338229265210485e-10
-1.744104938713599046e-10
-1.284236161318348837e-10
-9.323810324850956409e-11
-6.845649577775251392e-11
-5.082535864205893835e-11
-3.834787269609568024e-11
-2.945099751865268026e-11
-2.297989191249787836e-11
-1.814492421747150270e-11
-1.440227659701982088e-11
-1.140966168506547805e-11
-8.959766944567452710e-12
-6.930496234128530420e-12
-5.252882711139556161e-12
-3.886138803989107941e-12
-2.799800087481927936e-12
-1.963733950004944921e-12
-1.342670419015231760e-12
