# bin_14_9
8.239795129944196452e-08
7.857515145429050971e-08
7.311677835359170112e-08
6.626214282916920797e-08
5.841560971364731686e-08
5.010967765689649993e-08
4.192506095271896777e-08
3.436931769571032599e-08
2.774354548754355583e-08
2.210125160128208823e-08
1.731869744511408709e-08
1.327258121653563787e-08
9.968024324224395969e-09
7.441600877452937412e-09
5.565018069321900666e-09
4.140409006127774519e-09
3.090567831864270776e-09
2.322203005962791240e-09
1.756975158536581233e-09
1.338860622588912919e-09
1.026060261415670392e-09
7.885577574408607252e-10
6.056223458417084129e-10
4.631042436522751678e-10
3.513153970809052759e-10
2.635523952750034875e-10
1.950111910148365213e-10
1.420363884542561503e-10
1.016905771526604247e-10
7.150996077191581953e-11
4.938316530900238433e-11
