# bin_12_10
8.265262127986228706e-08
7.887166613663014582e-08
7.345329679293035002e-08
6.663244078928419173e-08
5.880814659092404527e-08
5.050765786563728930e-08
4.230759344964308249e-08
3.471586243980794831e-08
2.804136760773457298e-08
2.234903402102879868e-08
1.752608512509036319e-08
1.344926994948800437e-08
1.011270313614727060e-08
7.548813639304246593e-09
5.643404164132111365e-09
4.200459322423525933e-09
3.132584650528314659e-09
2.352571210850103532e-09
1.778094160987878780e-09
1.353664065968702396e-09
1.036431345326577112e-09
7.958711588662874082e-10
6.108493639797792957e-10
4.669059173083832544e-10
3.541395254220341482e-10
2.656913538703236017e-10
1.966559389935732566e-10
1.433124918730629163e-10
1.026819694960992140e-10
7.227554713406901002e-11
4.996713058074797962e-11
