# bin_13_7
7.323547960473415417e-08
6.908449362435931455e-08
6.353297217326556059e-08
5.686437186796079673e-08
4.950259389529298288e-08
4.196141289708663210e-08
3.475634648426600230e-08
2.827680156617002882e-08
2.269310951143897509e-08
1.796282359225455550e-08
1.394720631629113059e-08
1.058380891816654654e-08
7.919534638793193779e-09
5.931398835765330138e-09
4.437538146183952575e-09
3.311271221601471646e-09
2.490978646953932622e-09
1.885043997078240467e-09
1.438436926320232680e-09
1.104944698918616818e-09
8.524130782467096546e-10
6.581710788622244058e-10
5.066893120262027560e-10
3.874420681936056421e-10
2.932193759861133419e-10
2.189828667250294837e-10
1.610047084245480617e-10
1.163405753780965272e-10
8.253245311137039477e-11
5.745624299390177619e-11
3.926028691256466302e-11
