# bin_14_1
2.405063463082620976e-08
2.062730308753503901e-08
1.726885552916605678e-08
1.417402547074625298e-08
1.145780942802926111e-08
9.137768299247571130e-09
7.170986926374231258e-09
5.520593858449983979e-09
4.186631069617006336e-09
3.163163992514058984e-09
2.396312578236373474e-09
1.820200888454992688e-09
1.392081405966254663e-09
1.075283419583117274e-09
8.384000308979882544e-10
6.587600797434815236e-10
5.198337695357434286e-10
4.102003384181593069e-10
3.222013466365465243e-10
2.508155778176160707e-10
1.927479217890896839e-10
1.457589831020265088e-10
1.081992388144476903e-10
7.871071929723700074e-11
5.606583603965400484e-11
3.910319260510926906e-11
2.672443062466301782e-11
1.792280977895850384e-11
1.181778937555998382e-11
7.677946532930971391e-12
4.926143787182948311e-12
