# bin_9_6
6.290563779278830983e-08
5.858824679627560359e-08
5.316022135428014134e-08
4.693330345580893118e-08
4.032259617614266537e-08
3.378577177214556535e-08
2.773000981921900946e-08
2.240603122671920329e-08
1.786939829326723518e-08
1.402941103768914929e-08
1.078399992848673457e-08
8.127383280887047646e-09
6.087396434933379939e-09
4.571782454336914218e-09
3.423389980075885981e-09
2.572708270698823530e-09
1.949036533777346089e-09
1.487611086699052107e-09
1.144132526884708109e-09
8.848461212292649230e-10
6.858874062094687669e-10
5.308427457408440760e-10
4.085929783561804382e-10
3.115989192762990476e-10
2.346657211512762194e-10
1.740606997093110595e-10
1.269043924055026235e-10
9.082317531475693813e-11
6.376320491458831881e-11
4.391322110520974020e-11
2.968499286906238322e-11
