# bin_6_2
3.166610369289505002e-08
2.779399390431750922e-08
2.375423022004508375e-08
1.982070058215582470e-08
1.622144507721966239e-08
1.308185326817302371e-08
1.041196532474303979e-08
8.151703898583240499e-09
6.255084176748479035e-09
4.727904854826873162e-09
3.565888025930637507e-09
2.697154625348723385e-09
2.042590148528491724e-09
1.558044061977465024e-09
1.199714419328051026e-09
9.320821821059616625e-10
7.295178936050713705e-10
5.733092276569573973e-10
4.505141718611958699e-10
3.524219449761685012e-10
2.732761214216395899e-10
2.092535195165874468e-10
1.577260365446031723e-10
1.167452309731306961e-10
8.471367536389337839e-11
6.020912687102718617e-11
4.191127614131375267e-11
2.859265576347226947e-11
1.914352128012374647e-11
1.260210315988054276e-11
8.174352447537744638e-12
