# bin_5_1
2.118791289977159019e-08
1.807369333197902094e-08
1.506377410744143016e-08
1.232073315488857960e-08
9.929397046945441148e-09
7.893345345182146089e-09
6.172833321290845514e-09
4.739287577706700950e-09
3.591729725654681897e-09
2.716508917117598484e-09
2.060919704086178197e-09
1.568784055116505292e-09
1.203356539376065690e-09
9.322163986305493524e-10
7.286814834078550697e-10
5.735276099975077945e-10
4.528708108029331552e-10
3.571866597651284182e-10
2.801213292374908395e-10
2.175119895253138804e-10
1.666086007665936651e-10
1.255099887398189218e-10
9.277820902100962033e-11
6.719905239577965371e-11
4.765900282582817137e-11
3.310238588714177296e-11
2.253714408657267093e-11
1.506348579120531563e-11
9.903592322327454909e-12
6.418753618645875568e-12
4.110204484002644586e-12
