# bin_13_8
7.753001264934888806e-08
7.352991811088185810e-08
6.801791513597945661e-08
6.125673202249655763e-08
5.366140803364268380e-08
4.575515140370541218e-08
3.808537275365407576e-08
3.109918942299878109e-08
2.502885729115025717e-08
1.987648768310678521e-08
1.550672772515264209e-08
1.182499597911087916e-08
8.860497828265108409e-09
6.624274974348546310e-09
4.956314740072077459e-09
3.691174792649534176e-09
2.766328648315745588e-09
2.085594779383045919e-09
1.584881894997039598e-09
1.212652392825181452e-09
9.325321303459999942e-10
7.184703150179534988e-10
5.525482540279026191e-10
4.225895792566761416e-10
3.202534840535434792e-10
2.397479504400953882e-10
1.768589692611670174e-10
1.283211338788873146e-10
9.146026815980802405e-11
6.399838724882180069e-11
4.396518835927433030e-11
