# bin_12_2
5.224895260828748682e-30
5.903169407042534021e-30
6.558162578889805152e-30
7.135746110019970889e-30
7.564288131917756887e-30
7.758190112360822813e-30
7.650417868517742827e-30
7.141679768323738582e-30
6.300892196871355595e-30
5.261997047052268900e-30
4.305056267593535537e-30
3.637131709441477892e-30
3.142264436196356709e-30
2.454609561138479407e-30
1.698724671008382008e-30
1.352356530187706056e-30
9.586066690612330308e-31
6.962009008722123369e-31
4.742963860800393956e-31
3.362859439785427430e-31
2.333827094994441285e-31
1.616612138272625422e-31
1.127979694628951379e-31
7.945221338333096286e-32
5.692056888085023312e-32
4.157973558560809478e-32
3.096434805252268278e-32
2.347219069619694692e-32
1.801747736376032274e-32
1.391076562183464668e-32
1.072177187360520650e-32
