# bin_15_6
1.413310214537367895e-21
1.611806078713370444e-21
1.811968582656149292e-21
2.000276001026997341e-21
2.158868027512139644e-21
2.264862006671299351e-21
2.294821044414406903e-21
2.223128170706520450e-21
2.032878464518412378e-21
1.757690636964238945e-21
1.448747461700631254e-21
1.191721137817793375e-21
1.023405595313593251e-21
8.684597322725686132e-22
6.386542221601110002e-22
4.529732465429791514e-22
3.664347330264888073e-22
2.422658861797878854e-22
1.822911733894493459e-22
1.240122615024317377e-22
8.440730476164049726e-23
5.779270180000995410e-23
3.929374802111937847e-23
2.674029874641155622e-23
1.829313275273534577e-23
1.270001587596229683e-23
8.970141495422723945e-24
6.468439680151423421e-24
4.768064252707603524e-24
3.584280097129751339e-24
2.733357790157982508e-24
