# bin_13_11
1.200495135215600671e-11
1.370547659964738189e-11
1.542843752275771109e-11
1.705980448274704871e-11
1.844971481263759279e-11
1.940482676624194171e-11
1.971753831623222221e-11
1.918314338121096451e-11
1.762210294396066094e-11
1.530713382634211570e-11
1.264598188697092639e-11
1.038225378538434814e-11
8.888268700574523897e-12
7.588385046024949347e-12
5.652582474280389165e-12
3.966049751487300938e-12
3.220706121963145827e-12
2.140779600993900989e-12
1.611964909648016491e-12
1.088292046083548370e-12
7.424268665883857213e-13
5.084035065713395126e-13
3.453958898562594888e-13
2.342370583940369881e-13
1.593975556338659685e-13
1.099416247471884704e-13
7.707490388968978740e-14
5.513598876042500850e-14
4.033443360486122624e-14
3.012928370702854841e-14
2.287762842199205093e-14
