# bin_3_3
1.400511604712643318e-10
1.498795345763539434e-10
1.557219048821361339e-10
1.561106377636142806e-10
1.491660545925320623e-10
1.346844508141029813e-10
1.150572717888146537e-10
9.454366769118059855e-11
7.835450007388205919e-11
6.735619417138779109e-11
5.573594483578345650e-11
4.037097736793759474e-11
2.986143351640280204e-11
2.335745063434849635e-11
1.625473922131498168e-11
1.208815396504614978e-11
8.681709693026335100e-12
6.275116264344079104e-12
4.594021891321413807e-12
3.411120752614689783e-12
2.577195489405476159e-12
1.980579323893413329e-12
1.545184970755430052e-12
1.216341583788911285e-12
9.596142286898194652e-13
7.535228002162343269e-13
5.849439723517177583e-13
4.463297366189885063e-13
3.331828017789523269e-13
2.424931545535299746e-13
1.717998015812439122e-13
