# bin_14_4
3.884279822829055331e-26
4.416603484406156928e-26
4.945887555173617495e-26
5.434222523358863578e-26
5.830956098512158273e-26
6.072130725265308765e-26
6.101146061996341164e-26
5.838421744916303308e-26
5.272883491758907222e-26
4.501408513829239962e-26
3.692151612208369384e-26
3.059419189530796045e-26
2.644511357169323426e-26
2.195954357630160615e-26
1.563541359795462166e-26
1.153447223808211927e-26
9.049311972082990016e-27
6.050793813089758830e-27
4.438099953788618390e-27
3.090658299376326392e-27
2.109034331750995578e-27
1.441714279221501782e-27
9.852587449281321953e-28
6.778488687921147784e-28
4.710050441383245755e-28
3.329820240624125458e-28
2.399307669862245553e-28
1.765657454459794294e-28
1.325219084253962565e-28
1.009969504032705410e-28
7.763496993682786341e-29
