# bin_7_6
3.722020548639192978e-11
4.158995142169797469e-11
4.559063596790976705e-11
4.879299608673798244e-11
5.065855129540354798e-11
5.073004840656135595e-11
4.833781315850805403e-11
4.348578484506797245e-11
3.698380089957367049e-11
3.030990846206705331e-11
2.517988212698511023e-11
2.176471324022410439e-11
1.791994901674423992e-11
1.270422454385232216e-11
9.497633549433076158e-12
7.365537175171552050e-12
5.017665357762780367e-12
3.666078948998418640e-12
2.601222710077821344e-12
1.816365684663969061e-12
1.277410205679475825e-12
9.064580762081811501e-13
6.522151077891671603e-13
4.771340911018701746e-13
3.559915582682520023e-13
2.702194853380899505e-13
2.079318730454904286e-13
1.612486712085613814e-13
1.251139294730607778e-13
9.644429639001463649e-14
7.340338886025818510e-14
