# bin_14_2
1.324635685618868639e-34
1.505160372319074661e-34
1.684082813140017600e-34
1.848411185713597729e-34
1.980759518138281955e-34
2.059231772939323483e-34
2.065075761008449544e-34
1.970766347881447952e-34
1.775211063409384273e-34
1.511421776829140407e-34
1.238827213615108679e-34
1.028510589466268868e-34
8.897443959242706628e-35
7.346577719024757065e-35
5.201043284334491546e-35
3.872660065768457177e-35
3.009363004965668809e-35
2.025517496083930173e-35
1.472254401413164535e-35
1.030469096381575602e-35
7.041798029099091689e-36
4.814011480992637736e-36
3.296369846026236864e-36
2.273714437150853512e-36
1.585344768456890113e-36
1.125103272123668142e-36
8.140115603848147730e-37
6.013980687612433357e-37
4.528591512932234977e-37
3.459014862877377724e-37
2.661530125718827370e-37
