# bin_11_9
1.180623134993550237e-11
1.341009037348910461e-11
1.499679459597950579e-11
1.645023009384430841e-11
1.761486786183341160e-11
1.829511733671377793e-11
1.832665543060566768e-11
1.746212101923747464e-11
1.570542234454239367e-11
1.335068491452196730e-11
1.093820311878756560e-11
9.091431858585988168e-12
7.868640184022925283e-12
6.475703092645414526e-12
4.568847612049567946e-12
3.420624925803668200e-12
2.643239551224259312e-12
1.785930097262562794e-12
1.291194066376183089e-12
9.064872065082959416e-13
6.199689043694941461e-13
4.238381972040004445e-13
2.905542936279754748e-13
2.007154297333640844e-13
1.402295856079281890e-13
9.974195985176557657e-14
7.233314241429081026e-14
5.356103834977107751e-14
4.040731511744060600e-14
3.090301695932713236e-14
2.379172932274712910e-14
