# bin_11_1
1.652829196616629445e-32
1.859571204976970725e-32
2.055496533276797827e-32
2.222679137595603109e-32
2.337974384684644355e-32
2.376423267355080633e-32
2.313707461447904111e-32
2.127972132153641790e-32
1.850686576197474907e-32
1.530496552257897351e-32
1.256084903499097100e-32
1.073458014600795832e-32
9.169965863969454819e-33
6.870428091971676180e-33
4.823974885973918778e-33
3.905797480127361100e-33
2.635436089680134588e-33
1.981785749319909802e-33
1.353851803939582407e-33
9.444469955802006283e-34
6.615676553930612068e-34
4.636308890177617953e-34
3.273774239834951123e-34
2.339904622211913049e-34
1.705178859937981181e-34
1.266810622668842788e-34
9.579538139520177073e-35
7.347412557204288941e-35
5.679003761191645108e-35
4.391597939122239451e-35
3.373338944954437459e-35
