# bin_14_14
3.293822434455705046e-11
3.775436949766017517e-11
4.271027343096808781e-11
4.750765564260615063e-11
5.175481089350107840e-11
5.493181286107418660e-11
5.640910691190066724e-11
5.571095320582715304e-11
5.208641037856864236e-11
4.601707875044562592e-11
3.845939294229856303e-11
3.145788567522436839e-11
2.655986463976901431e-11
2.297518152748730052e-11
1.799296030101650508e-11
1.241124092433147697e-11
9.872922272993650808e-12
6.994899557129183089e-12
5.049370076192783502e-12
3.391113721903048516e-12
2.380265452292911653e-12
1.616180072358910379e-12
1.085585525172174599e-12
7.277193234438760320e-13
4.869097233585282674e-13
3.280016956509123770e-13
2.235298907188049474e-13
1.548120800114981365e-13
1.095339477343918558e-13
7.933785080072387281e-14
5.878184574294765334e-14
