# bin_2_2
2.112455636432516769e-10
2.195125403650943282e-10
2.201374082664993227e-10
2.106307711878612601e-10
1.905975587240607025e-10
1.632831975525697882e-10
1.345049539574359524e-10
1.114085909269254047e-10
9.538017112013443855e-11
7.900858998591893744e-11
5.801977314974406219e-11
4.275432983886378813e-11
3.336645431218697669e-11
2.359169067498142116e-11
1.754288409074556067e-11
1.268462370202837797e-11
9.293170204324027468e-12
6.892254152421565400e-12
5.192759677336389001e-12
3.983334143666116616e-12
3.105611587053067852e-12
2.452171467654991675e-12
1.947633394510041650e-12
1.544899863753268224e-12
1.215367348823246908e-12
9.421257730302799326e-13
7.157041541271773194e-13
5.306185523156777722e-13
3.829445904559964657e-13
2.689089662655366483e-13
1.839853373340238080e-13
