# bin_15_15
3.679650890050767166e-11
4.224750352993800520e-11
4.788653360874782714e-11
5.339226749256801769e-11
5.833543475061847127e-11
6.214166570199515322e-11
6.409852307452884143e-11
6.367306384893658936e-11
5.996606033270478718e-11
5.333993194704003233e-11
4.484386667968743921e-11
3.667715810420037843e-11
3.077962685680762413e-11
2.666935405603236685e-11
2.131578191146765574e-11
1.474352778961787501e-11
1.149387825923408869e-11
8.425623365613643657e-12
5.905009704246306963e-12
4.042529055052654248e-12
2.853993901704269811e-12
1.929739713962102368e-12
1.288352640722163902e-12
8.596577110016374316e-13
5.719663666193637478e-13
3.818290690657467823e-13
2.572647751611131004e-13
1.757093227597811940e-13
1.223855321701082674e-13
8.724315529665322202e-14
6.371268828547110007e-14
