# bin_11_2
1.354301457326430832e-27
1.524619511600831556e-27
1.686474195281696423e-27
1.825268766971252588e-27
1.922093443778373811e-27
1.956175994691238916e-27
1.908083410330574137e-27
1.758515451090680589e-27
1.532478992515761005e-27
1.268808857748037692e-27
1.040597067257091716e-27
8.880038142833666498e-28
7.602809156430180272e-28
5.728777436262512564e-28
4.007629804302495169e-28
3.244837261164315656e-28
2.198740237561063566e-28
1.650102037072958519e-28
1.124420582050853735e-28
7.856900906752568895e-29
5.499381875690786982e-29
3.849663382281788897e-29
2.713880994455294096e-29
1.935689633541501342e-29
1.407389188341199080e-29
1.043280469021600242e-29
7.874101899196190790e-30
6.031068435754008313e-30
4.658310236558574067e-30
3.602313354342741017e-30
2.768843804621744210e-30
