# bin_5_8
-5.210502726964258196e-14
-5.817148057895441362e-14
-6.369917826101729189e-14
-6.808315774935127207e-14
-7.056755364915052260e-14
-7.052630982412896307e-14
-6.701758353722778266e-14
-6.013151274885943243e-14
-5.100827454306623294e-14
-4.177922159246494678e-14
-3.477692121179638308e-14
-3.007625048637839114e-14
-2.461441434107104193e-14
-1.736649667870636503e-14
-1.310054874480624046e-14
-1.006130248730906841e-14
-6.904513592831503409e-15
-5.004154101405683005e-15
-3.565152942641962444e-15
-2.493554552119972204e-15
-1.755083659165577492e-15
-1.247902195288963125e-15
-8.999438067132030416e-16
-6.601409196611243335e-16
-4.937799833491958588e-16
-3.756318018164661983e-16
-2.895151717109412390e-16
-2.247053722345995339e-16
-1.743600311786563876e-16
-1.343153486305533990e-16
-1.020975571297205915e-16
