# bin_12_14
-1.709152655317789019e-12
-1.953217843966683151e-12
-2.201574011302100879e-12
-2.438113423813728042e-12
-2.641760430361521074e-12
-2.785122010266175432e-12
-2.837571820188709458e-12
-2.771677434989423128e-12
-2.557522135411454795e-12
-2.231380627237974394e-12
-1.848208575224200523e-12
-1.515232868970707011e-12
-1.292927430379219897e-12
-1.108969154007973586e-12
-8.366069021719118718e-13
-5.826487578117926617e-13
-4.726401143623839799e-13
-3.177857210016313226e-13
-2.380535792983751123e-13
-1.597664226138489809e-13
-1.095854926822708975e-13
-7.496436240234982134e-14
-5.085303286578946182e-14
-3.437641364606749185e-14
-2.328120129126606445e-14
-1.595689176184979058e-14
-1.110477027055623602e-14
-7.879930593848631600e-15
-5.718826860287859737e-15
-4.242346994239356400e-15
-3.204916167518374859e-15
