# bin_8_9
-9.025408090983109852e-12
-1.016943858207937066e-11
-1.126100145857025011e-11
-1.220375783156484224e-11
-1.287222383500320182e-11
-1.312514630603202272e-11
-1.283758662232659558e-11
-1.186872788493678018e-11
-1.037501823735895535e-11
-8.607290116453285813e-12
-7.053770431829512104e-12
-6.004824991012302490e-12
-5.154797427780838174e-12
-3.919331117953996646e-12
-2.731425821062640699e-12
-2.205224052415426846e-12
-1.509359188221162229e-12
-1.125196760463473295e-12
-7.652386141053997317e-13
-5.367172457114855341e-13
-3.749614811571977433e-13
-2.618640339375834826e-13
-1.841307970656538974e-13
-1.309209682566675090e-13
-9.484370218478995286e-14
-7.005779343998877903e-14
-5.270953936424328074e-14
-4.027735541706747528e-14
-3.106879846916478304e-14
-2.402108030872777658e-14
-1.847890261254313067e-14
