# bin_6_10
-3.315575783936970979e-15
-3.736097447364097580e-15
-4.137449172397024426e-15
-4.484261689744139780e-15
-4.730449959162172319e-15
-4.823959543345460177e-15
-4.719159170225339796e-15
-4.363652618277120821e-15
-3.815075702915638233e-15
-3.164987687901946920e-15
-2.593321310735857207e-15
-2.207607541541870490e-15
-1.895985750402171392e-15
-1.441928003724162939e-15
-1.003928379525531149e-15
-8.114276496364802558e-16
-5.547761131967637847e-16
-4.141138154507595995e-16
-2.813273985567063521e-16
-1.972599652616344026e-16
-1.378408247921088102e-16
-9.628301477038477285e-17
-6.769583956470477033e-17
-4.812545777271986777e-17
-3.485931476270112508e-17
-2.574658228984490171e-17
-1.936963097225033935e-17
-1.480087986243125249e-17
-1.141750835815294771e-17
-8.828411901082337038e-18
-6.792428765163893761e-18
