# bin_13_2
-2.261549739228935312e-09
-2.345520421441175473e-09
-2.346274951115311950e-09
-2.240035091743418279e-09
-2.024976645656250374e-09
-1.735867004279590744e-09
-1.434921979319920198e-09
-1.191326776009286561e-09
-1.014089990750414444e-09
-8.338669337045043950e-10
-6.197866435795033440e-10
-4.580897213917447817e-10
-3.523660388381469023e-10
-2.534693849801173748e-10
-1.864964291468536416e-10
-1.353711881272275976e-10
-9.933420474068670893e-11
-7.366187180475265230e-11
-5.549988850528380928e-11
-4.256262261886437866e-11
-3.316843167932385443e-11
-2.616602619609410359e-11
-2.076037757729861562e-11
-1.644834304434602373e-11
-1.292438005551138076e-11
-1.000782912154341829e-11
-7.596310214504506307e-12
-5.629601286386644481e-12
-4.063613642723858794e-12
-2.855617719836296554e-12
-1.956002998614163756e-12
