# bin_1_10
-6.407349775856238511e-32
-7.173310858807221236e-32
-7.881776320341061113e-32
-8.459992613914211138e-32
-8.816040435494901394e-32
-8.866446492688366781e-32
-8.499797850057120180e-32
-7.691829709931568898e-32
-6.581038713539505591e-32
-5.402710239331018837e-32
-4.469821222718046339e-32
-3.856112852445533459e-32
-3.214096118620255377e-32
-2.307885737457262578e-32
-1.691318537017475377e-32
-1.336809432636204059e-32
-8.993655199884563146e-33
-6.676828325853831406e-33
-4.687624250692942232e-33
-3.263210845867938640e-33
-2.292197794968567360e-33
-1.619820982199238556e-33
-1.159325738214016951e-33
-8.428116845840826137e-34
-6.250087135782170135e-34
-4.719050974221450538e-34
-3.616658609518145026e-34
-2.798432536392720446e-34
-2.170610066374295340e-34
-1.675658882431393035e-34
-1.279087801060714268e-34
