# bin_6_12
-2.457104139224904621e-18
-2.783971898746991656e-18
-3.103644720939106801e-18
-3.391422472688611357e-18
-3.614240755939721386e-18
-3.731113170481270197e-18
-3.710494045851824689e-18
-3.500925458948943697e-18
-3.119716838111785257e-18
-2.628048081900409955e-18
-2.149997492965576110e-18
-1.800696013616052001e-18
-1.559749173870168778e-18
-1.254028439964466289e-18
-8.718349142549544883e-19
-6.744192489348944795e-19
-5.007980013134100532e-19
-3.495271287801520736e-19
-2.439965922423650804e-19
-1.734932336085194467e-19
-1.194048678654431439e-19
-8.193335741109626513e-20
-5.664371446526293288e-20
-3.949626813777320739e-20
-2.793236967738378071e-20
-2.013146163310596857e-20
-1.479782670203322263e-20
-1.109398382249504307e-20
-8.450457530824026732e-21
-6.500740378199672729e-21
-5.013173290824502015e-21
