# bin_4_10
-8.279370734487847206e-20
-9.300939344180713765e-20
-1.026220411311225649e-19
-1.107199955432726603e-19
-1.161355306184382812e-19
-1.176678526685857310e-19
-1.140266972179806215e-19
-1.043344293858689564e-19
-9.027481956092598035e-20
-7.444920937865147644e-20
-6.121962473136589695e-20
-5.250483975414376814e-20
-4.457411863558206413e-20
-3.292203854380832340e-20
-2.336069652738193081e-20
-1.887775875647962674e-20
-1.263207273153565924e-20
-9.524876659517092944e-21
-6.554284567275536510e-21
-4.557456268064723716e-21
-3.197357133545503331e-21
-2.246589701856627751e-21
-1.592907873505852979e-21
-1.144600098430710124e-21
-8.388683710136314127e-22
-6.265972708557528960e-22
-4.760482758150870514e-22
-3.663256729124839506e-22
-2.835996691181888764e-22
-2.192856994707593777e-22
-1.681643977323663312e-22
