# bin_10_5
-5.924400234290122538e-10
-6.524966787601823730e-10
-7.026835223185301427e-10
-7.355829649685158840e-10
-7.437879160500534582e-10
-7.190462681090106743e-10
-6.569932640367305881e-10
-5.677416993633679585e-10
-4.687192887663823858e-10
-3.862181716022281173e-10
-3.305701857688922698e-10
-2.787530296760146521e-10
-2.066486171396470365e-10
-1.484822024722394590e-10
-1.179684377849370706e-10
-8.137253786813963352e-11
-6.050736584583578793e-11
-4.249675673005076774e-11
-3.026245799745679881e-11
-2.166631470460637484e-11
-1.564258945774281198e-11
-1.145816810944139503e-11
-8.532771985910417092e-12
-6.473607448843752219e-12
-4.986048911298169904e-12
-3.878662280849345153e-12
-3.028440214944225501e-12
-2.356405574903029556e-12
-1.815211325782508270e-12
-1.376538738790425169e-12
-1.023074622628968206e-12
