# bin_14_8
-3.219182527731782917e-10
-3.623916403239379820e-10
-4.008504194411145669e-10
-4.338262415591231038e-10
-4.568242385042132765e-10
-4.649408376704301297e-10
-4.535167693150766018e-10
-4.181107005551627152e-10
-3.644736306915282373e-10
-3.020007281317183256e-10
-2.478174251484532096e-10
-2.113280209226232994e-10
-1.806828330143946911e-10
-1.364075942980728191e-10
-9.574267711124463637e-11
-7.702020707062656056e-11
-5.264679310400467927e-11
-3.917968580428023339e-11
-2.680814709577327405e-11
-1.877743139102456599e-11
-1.312292925733616153e-11
-9.174115079851351764e-12
-6.464552003575746993e-12
-4.609552631753315156e-12
-3.349366183535369485e-12
-2.481146534534134831e-12
-1.871284879705956992e-12
-1.432243152838806279e-12
-1.105519084881980023e-12
-8.544626938508766712e-13
-6.565451700186785734e-13
