# bin_11_4
-9.610591985684156175e-10
-1.045622691683252310e-09
-1.109103849334512531e-09
-1.139508070355101825e-09
-1.126091445873046239e-09
-1.056076163604479217e-09
-9.362215444044293960e-10
-7.869318183202056924e-10
-6.453006543182208406e-10
-5.420239284354824671e-10
-4.655973759034971910e-10
-3.694508320020556117e-10
-2.619914357014038449e-10
-2.023906976242160232e-10
-1.498756510822605339e-10
-1.071899194487080576e-10
-7.716306366284289451e-11
-5.560893027471286450e-11
-3.994221049747492091e-11
-2.899096867629711861e-11
-2.135226574044682671e-11
-1.599280859454628229e-11
-1.219186580987898396e-11
-9.437553443793660513e-12
-7.376634961570023091e-12
-5.785257406307181128e-12
-4.520952229075900671e-12
-3.496840514090997660e-12
-2.661832900065819662e-12
-1.984889228738304640e-12
-1.445028787718702899e-12
