# bin_7_7
-4.724452765181479982e-11
-5.272235792476658961e-11
-5.770199247634200926e-11
-6.163340170339856895e-11
-6.383237789762917786e-11
-6.373139237578181743e-11
-6.048691561354946966e-11
-5.421274095472334996e-11
-4.594549211970981967e-11
-3.763490180114274612e-11
-3.135783151923726850e-11
-2.710883714218369554e-11
-2.211660044434887406e-11
-1.560207947036425265e-11
-1.180474844204077613e-11
-9.021674905001856827e-12
-6.219226256023066963e-12
-4.494735025771616781e-12
-3.201677425171485156e-12
-2.241485073292742391e-12
-1.579242287565590567e-12
-1.123991883726029470e-12
-8.113311437940696740e-13
-5.957563113697215791e-13
-4.460379309817218135e-13
-3.395673035721472569e-13
-2.618405543144995940e-13
-2.032512333747927549e-13
-1.576811314894166466e-13
-1.214088524145747434e-13
-9.222309666210795455e-14
