# bin_3_6
-1.790981254926030106e-14
-1.964254266027343358e-14
-2.104300954100806210e-14
-2.188240326795065154e-14
-2.195703230700038611e-14
-2.099138377773892036e-14
-1.895141619741464535e-14
-1.618000223385614283e-14
-1.327911875866180371e-14
-1.100195769571064596e-14
-9.484024876933881212e-15
-7.862616422364753947e-15
-5.646296027706404459e-15
-4.173151023054898755e-15
-3.276041908885731144e-15
-2.242047028961540308e-15
-1.664574574131887676e-15
-1.186049471151336487e-15
-8.426919849740639594e-16
-6.059376978881890458e-16
-4.407426410542835666e-16
-3.257995733808646352e-16
-2.450634779305126027e-16
-1.876560945936334551e-16
-1.456018102026827560e-16
-1.138183122021469054e-16
-8.904035376676150567e-17
-6.921325158508250007e-17
-5.312579421597251855e-17
-4.005443386731999331e-17
-2.954238049310909848e-17
