# bin_7_8
-9.901623880524558956e-12
-1.109926813122910052e-11
-1.221420875482171536e-11
-1.313524431094037049e-11
-1.372122087293768371e-11
-1.383776617106839089e-11
-1.331893391887456916e-11
-1.210213502087890008e-11
-1.039770723413398979e-11
-8.549624498101919628e-12
-7.056433033929868877e-12
-6.075158830724027905e-12
-5.100096926489210143e-12
-3.700231375096008146e-12
-2.677583893273199052e-12
-2.136513539289593314e-12
-1.432213054932306495e-12
-1.071021867201861087e-12
-7.461486269644921790e-13
-5.189411182712693696e-13
-3.643817207632789934e-13
-2.569221267511025773e-13
-1.832348520149788431e-13
-1.326327596945927850e-13
-9.793354880271630430e-14
-7.365579291097992970e-14
-5.627392559666523539e-14
-4.345929551912996136e-14
-3.368901693986234364e-14
-2.602455826358344061e-14
-1.990027449032154780e-14
