# bin_2_12
-5.376805471724291321e-32
-6.072284818376747965e-32
-6.742669780367954315e-32
-7.332004832660037455e-32
-7.766402041120268756e-32
-7.958158403459959013e-32
-7.837964302923494255e-32
-7.305730940985559712e-32
-6.436366330847370511e-32
-5.369056373709715098e-32
-4.393259648930650060e-32
-3.716222044260699299e-32
-3.208426497677767233e-32
-2.495675151818132523e-32
-1.727607790111291364e-32
-1.379814293862191975e-32
-9.718225620901652663e-33
-7.094931217388563593e-33
-4.825030453719773249e-33
-3.415900583661629883e-33
-2.373440219828722782e-33
-1.646408680709220487e-33
-1.150147864585571255e-33
-8.112975248685965252e-34
-5.822356072842818434e-34
-4.260687409127063710e-34
-3.178289080489265811e-34
-2.412589402420004954e-34
-1.853610840744317715e-34
-1.431647398983096348e-34
-1.103269047473323615e-34
