# bin_9_4
-8.098960262840347806e-10
-8.806667444553750784e-10
-9.334830395589866542e-10
-9.582661490834299632e-10
-9.459467490668573688e-10
-8.859299708299191294e-10
-7.843521490478247954e-10
-6.585743000452092019e-10
-5.400492462920585555e-10
-4.540508495566953092e-10
-3.898532896301328348e-10
-3.083628825478386226e-10
-2.185602387947767307e-10
-1.692870859260534677e-10
-1.248908544510275539e-10
-8.955814275742298420e-11
-6.437110741380160471e-11
-4.641889629489143506e-11
-3.336475157345615350e-11
-2.423453550836801846e-11
-1.786536827757695322e-11
-1.339392485632220515e-11
-1.022030115505723266e-11
-7.917323383088794397e-12
-6.191438584333956222e-12
-4.856725992806438504e-12
-3.794958149143946382e-12
-2.934211698585585015e-12
-2.232199785256118703e-12
-1.663188141862079849e-12
-1.209687072130905260e-12
