# bin_14_13
9.312397681825125697e-08
8.978436841810956123e-08
8.455690553290907830e-08
7.762225287157051840e-08
6.934827738442158088e-08
6.026940553928130888e-08
5.101907184996908894e-08
4.221575156277856570e-08
3.431466461821719932e-08
2.750435157278790080e-08
2.172916817409882723e-08
1.683232886667429807e-08
1.274528826626005908e-08
9.511281047519944794e-09
7.091381371025476560e-09
5.276440677977611810e-09
3.910082014711924618e-09
2.916365176227686207e-09
2.185414192377465204e-09
1.650019653403024501e-09
1.253519905754733571e-09
9.565584766012510425e-10
7.310850123480799753e-10
5.577146545564120772e-10
4.231774304279894097e-10
3.183047684769185704e-10
2.366714951109083884e-10
1.735583491691444408e-10
1.253146886640382586e-10
8.898923417312614112e-11
6.211869759089806530e-11
