# bin_12_9
8.008013631264444349e-08
7.618045769865305206e-08
7.070690631011315056e-08
6.390873711568478765e-08
5.619323651510410286e-08
4.808581088508147227e-08
4.014828748522947974e-08
3.285902283153460379e-08
2.648908340187125785e-08
2.107246377710284388e-08
1.648388182894234416e-08
1.261112357862965744e-08
9.463763118343497869e-09
7.066903714002819889e-09
5.285852592648847037e-09
3.934475104396981874e-09
2.940582377364680372e-09
2.212298342575382117e-09
1.676357323733255573e-09
1.279174951775726783e-09
9.814315724692108032e-10
7.548412695086341633e-10
5.799247469502137884e-10
4.434063787386422888e-10
3.361919156117394622e-10
2.519761065175785476e-10
1.862149665232108465e-10
1.354269976566412343e-10
9.679528404530090430e-11
6.794457900167676002e-11
4.683365526822868566e-11
