# bin_8_3
4.253454736654922766e-08
3.820299971107835345e-08
3.337561991955062238e-08
2.838371848911955989e-08
2.357284855766202438e-08
1.921841987085610458e-08
1.545550252495115024e-08
1.227026928615216755e-08
9.569019008672056283e-09
7.298940410697848847e-09
5.488559942900899308e-09
4.133436333011416508e-09
3.118435106327462599e-09
2.351210793575603377e-09
1.789377677736547725e-09
1.372938633892739585e-09
1.063159120744142521e-09
8.290898795000420713e-10
6.490976664830791094e-10
5.080889417451744722e-10
3.959071873983087561e-10
3.058132631294218984e-10
2.332899321418702276e-10
1.752122150421437931e-10
1.292475487386871239e-10
9.348603905611840096e-11
6.624473351869166237e-11
4.598194559138862115e-11
3.128478628052784638e-11
2.089149921151492396e-11
1.371826865218871132e-11
