# bin_14_2
3.544383743477894192e-08
3.124423786880367046e-08
2.679133263797828883e-08
2.240418042612609391e-08
1.836319276218091425e-08
1.483282289698424607e-08
1.183388815063608720e-08
9.287924438985354045e-09
7.130648584210555557e-09
5.379782658198676146e-09
4.052529550853375485e-09
3.063127935487576186e-09
2.313567581386342587e-09
1.761215209001162667e-09
1.353450923540220813e-09
1.050042698755133976e-09
8.212611550316745978e-10
6.455117846709058495e-10
5.077568154192833668e-10
3.978859159331194004e-10
3.092399949463500350e-10
2.374283313066631247e-10
1.794794650472910319e-10
1.332326000442782706e-10
9.694395860820982658e-11
6.907176203675022225e-11
4.818067026951242755e-11
3.292405184947939876e-11
2.207069667885290728e-11
1.454173314029569747e-11
9.438054395592174107e-12
