# bin_7_3
4.139890390168669386e-08
3.712159009039383559e-08
3.238086033708482698e-08
2.750123441017317125e-08
2.281628653022607720e-08
1.858701934118238204e-08
1.493706283162645681e-08
1.184835269005014009e-08
9.230845716303412754e-09
7.036490511241267190e-09
5.291663463472836337e-09
3.986487454499955142e-09
3.008293178875704239e-09
2.269736829126893704e-09
1.728721781270014102e-09
1.327459996035420192e-09
1.028665402491268559e-09
8.026013518945340628e-10
6.285150869478184797e-10
4.919570051547225016e-10
3.832132234410813632e-10
2.958377854690342490e-10
2.255035367118897515e-10
1.692050400215179753e-10
1.246855740264213141e-10
9.008681968662582585e-11
6.376520249399780580e-11
4.421350843568245619e-11
3.005183058954413892e-11
2.005049801297891405e-11
1.315611824074787952e-11
