# bin_10_7
6.955532955470453163e-08
6.534462639586193353e-08
5.983757848425154242e-08
5.332706599746653060e-08
4.623291152354742764e-08
3.904780670809968927e-08
3.224863463841963351e-08
2.617709265762154025e-08
2.096474889107253792e-08
1.655373922479129459e-08
1.281632155189055389e-08
9.705481551060452522e-09
7.261215588717996481e-09
5.442054120949582240e-09
4.073020047732111551e-09
3.044249735202359259e-09
2.295044618381872048e-09
1.740743508350657745e-09
1.331337194296379585e-09
1.024670213243784888e-09
7.915664708315691976e-10
6.115984935912109696e-10
4.708018053530924298e-10
3.597150044455710840e-10
2.718433384471228282e-10
2.026158150110075138e-10
1.486100836063217804e-10
1.070894780757508331e-10
7.574542397351560747e-11
5.257094980075126554e-11
3.581364505009612677e-11
