# bin_5_4
4.401826144085965650e-08
3.976698631864040453e-08
3.496472174292477902e-08
2.992896571986077874e-08
2.500023835803536936e-08
2.047065104948139472e-08
1.650991193120597125e-08
1.314433881076433680e-08
1.030122184897297864e-08
7.909357613146639279e-09
5.966852985354564649e-09
4.484263169316167967e-09
3.382533886299632822e-09
2.548383848670081169e-09
1.931199275902734345e-09
1.476659239397536103e-09
1.138503143510467951e-09
8.843834580023439388e-10
6.902454588353148187e-10
5.392266367083263959e-10
4.198765483073111938e-10
3.245336103928100487e-10
2.480504406141528419e-10
1.868802727920162669e-10
1.384305180801670191e-10
1.006348743279521569e-10
7.171874020492962358e-11
5.008680730405561522e-11
3.429010833394597350e-11
2.303636608592683503e-11
1.521045483121700713e-11
