# bin_7_2
3.239938338641235830e-08
2.843346641436614235e-08
2.428718549649861289e-08
2.024814208275340436e-08
1.655764927019337131e-08
1.334747081891222560e-08
1.062413900116936804e-08
8.316278261843530662e-09
6.372389229287953248e-09
4.807340073094629256e-09
3.624747387409773738e-09
2.741894343536618803e-09
2.074406852018176252e-09
1.582627870823850349e-09
1.218776037570765903e-09
9.473525596402718388e-10
7.419247896703202340e-10
5.834873685231172900e-10
4.588571803562650935e-10
3.591987001801131599e-10
2.786940327371819632e-10
2.134910138044933885e-10
1.609536272766308366e-10
1.191306406543902221e-10
8.641947762175912118e-11
6.138754659290786303e-11
4.269782832132392320e-11
2.910095970310636679e-11
1.946296554291339271e-11
1.279851687210572542e-11
8.293314576367960586e-12
