# bin_4_4
4.042962842547172272e-08
3.627641495759309365e-08
3.167964792945150933e-08
2.694625490201019653e-08
2.238949475092003418e-08
1.825862411233120411e-08
1.467874422293407033e-08
1.164650329146614023e-08
9.086255145650774209e-09
6.944932167601390333e-09
5.230640341035015023e-09
3.937218424404078088e-09
2.972905930571259295e-09
2.243590032246472031e-09
1.706988814628568722e-09
1.309739060788163762e-09
1.013668672680937184e-09
7.898475129950894654e-10
6.177563633933124859e-10
4.830245795873579372e-10
3.759631772443692946e-10
2.901164666338081622e-10
2.211344709287020645e-10
1.659878243744165811e-10
1.224096653300482965e-10
8.854546809745348415e-11
6.276863171555620605e-11
4.359954679353799409e-11
2.969149239192673510e-11
1.984858299818828780e-11
1.304762052224865187e-11
