# bin_15_6
-6.063416089101008623e-10
-6.745030545509650657e-10
-7.353529962007581789e-10
-7.816859430402251289e-10
-8.048386186450475908e-10
-7.975813338691896140e-10
-7.498603258241201827e-10
-6.661646072902801468e-10
-5.602599071729529880e-10
-4.588234660898959171e-10
-3.850630752830001080e-10
-3.322375781038515619e-10
-2.648512176763608166e-10
-1.858292177018223730e-10
-1.439843679967083555e-10
-1.063243679192868587e-10
-7.538542294447851143e-11
-5.346093232072929539e-11
-3.820830465827539125e-11
-2.692567433615113216e-11
-1.908166953609731327e-11
-1.368034667885235668e-11
-9.951591711298676253e-12
-7.371026579300308428e-12
-5.562407605040767721e-12
-4.261838262342583804e-12
-3.300153279979774812e-12
-2.565652550780976775e-12
-1.988321292472491330e-12
-1.525830243994082815e-12
-1.153059753613188926e-12
