# bin_9_9
-3.257012241973208002e-11
-3.675695029631243345e-11
-4.078029162150568842e-11
-4.429846776708552610e-11
-4.686232714128187286e-11
-4.794806125374613002e-11
-4.712406650459891050e-11
-4.381685974484127056e-11
-3.851323266389920124e-11
-3.207602453059089989e-11
-2.625947454528214346e-11
-2.225424741677496446e-11
-1.917862449184843505e-11
-1.481912129279737683e-11
-1.028185494025598069e-11
-8.234615802657523608e-12
-5.753639428498584008e-12
-4.224230987551892083e-12
-2.874821864869569055e-12
-2.029363428917612711e-12
-1.412241899653117624e-12
-9.815476375841620350e-13
-6.870245311860364066e-13
-4.857641332232341046e-13
-3.495998275921476033e-13
-2.565541943167095458e-13
-1.918703223841566558e-13
-1.459337555835672403e-13
-1.122513924992664350e-13
-8.671858474451421023e-14
-6.678588605821462254e-14
