# bin_1_14
-1.155256044204418731e-41
-1.312561680297358451e-41
-1.468396176374900485e-41
-1.611419598085097316e-41
-1.726454587115562629e-41
-1.794395118217171213e-41
-1.798953008250561017e-41
-1.716094499548545690e-41
-1.545214743699059449e-41
-1.315092782375290102e-41
-1.077820702903192482e-41
-8.951105756193562727e-42
-7.743998829935076816e-42
-6.388434854350206757e-42
-4.519452877039496718e-42
-3.369756122968080607e-42
-2.614542542952703744e-42
-1.761852155656651575e-42
-1.278748870043911979e-42
-8.956322568676340300e-43
-6.121825002240028699e-43
-4.185373855792154282e-43
-2.866857674241623357e-43
-1.978206192085642645e-43
-1.379995637955798319e-43
-9.799143793821681559e-44
-7.093804259655717305e-44
-5.243844080714368709e-44
-3.950422319466672752e-44
-3.018260694967752864e-44
-2.322630571859221517e-44
