# bin_13_2
-2.266750070309554928e-09
-2.350248261662167255e-09
-2.350171336316411844e-09
-2.242803182565609703e-09
-2.026699672164111711e-09
-1.736846562239861825e-09
-1.435754974274510349e-09
-1.192300723915455097e-09
-1.014759209654415020e-09
-8.337820534045926019e-10
-6.196558366743432870e-10
-4.582543158500715279e-10
-3.522456692006025165e-10
-2.534913494910858514e-10
-1.864737679209745577e-10
-1.353873251845959624e-10
-9.935863517279426922e-11
-7.369306744545416885e-11
-5.553435941676540381e-11
-4.259631398778424696e-11
-3.319848090212245926e-11
-2.619094531059707394e-11
-2.077930892349738686e-11
-1.646124767732158037e-11
-1.293188354766443540e-11
-1.001094051104241976e-11
-7.596244069187223194e-12
-5.627592050851837933e-12
-4.060728701543178802e-12
-2.852628012281673389e-12
-1.953353743873122575e-12
