# bin_2_12
-6.840581822334823914e-32
-7.727389302634058651e-32
-8.583167487544288827e-32
-9.336926489133823240e-32
-9.894801124278076079e-32
-1.014493113928201880e-31
-9.999318884624132242e-32
-9.329037808352816347e-32
-8.226284737815255129e-32
-6.866976384624998867e-32
-5.618440443879164031e-32
-4.748957268907861087e-32
-4.101784516139506680e-32
-3.199024688058759797e-32
-2.214100578257371091e-32
-1.764818979651661553e-32
-1.247959679612098922e-32
-9.081405941200397214e-33
-6.182685732332915101e-33
-4.381214910299411591e-33
-3.041953699083331334e-33
-2.108289127695932902e-33
-1.471739635503761197e-33
-1.037223943689922511e-33
-7.435829149970882780e-34
-5.435515960658376195e-34
-4.050444559648797934e-34
-3.072015265117949665e-34
-2.358919064472650620e-34
-1.821491448050562277e-34
-1.403812073794566797e-34
