# bin_15_9
-2.530928292820911812e-10
-2.862715906247315027e-10
-3.184811876793844933e-10
-3.471289597051941625e-10
-3.687729342199035980e-10
-3.792561366067429082e-10
-3.752815365436966951e-10
-3.519188382220362914e-10
-3.118232423919720569e-10
-2.614518685529823677e-10
-2.139605460473292282e-10
-1.800820830821487612e-10
-1.556538177650832850e-10
-1.231079641219138493e-10
-8.554126436982331618e-11
-6.712275407885190632e-11
-4.860349833590985442e-11
-3.465286045410304817e-11
-2.393799289071564556e-11
-1.695834147109540565e-11
-1.172536862584142904e-11
-8.091150272203183268e-12
-5.622325542796853662e-12
-3.942782924603153194e-12
-2.808744067829100926e-12
-2.039745655793887222e-12
-1.510349309280964172e-12
-1.139288192346267485e-12
-8.714370161344717317e-13
-6.715620980310304624e-13
-5.175484429033768679e-13
