# bin_14_3
-1.560575157472979307e-09
-1.667553898747238993e-09
-1.729656414724824365e-09
-1.730069961694663978e-09
-1.649509306544801701e-09
-1.487344627082416625e-09
-1.270248361425433580e-09
-1.046042675868049397e-09
-8.688506466354080689e-10
-7.439715605146993711e-10
-6.113226988149306448e-10
-4.465851689605616332e-10
-3.313329220705804279e-10
-2.558149674166394470e-10
-1.808346562536623893e-10
-1.332460877976721866e-10
-9.575686972069419769e-11
-6.943620376232221461e-11
-5.086039176098629719e-11
-3.778436693271671374e-11
-2.855747883174740973e-11
-2.195057720829318636e-11
-1.712074025302729096e-11
-1.346977366931862545e-11
-1.061796552057704960e-11
-8.328815085213042747e-12
-6.457933426818379354e-12
-4.921673500422368570e-12
-3.669972104582849955e-12
-2.668931758451060990e-12
-1.890191481140354840e-12
