# bin_12_7
-3.513190054898197518e-10
-3.934187780581493261e-10
-4.324108811124057745e-10
-4.643191387907605342e-10
-4.841174167418968299e-10
-4.871635470618635585e-10
-4.675032144167869411e-10
-4.236536754060068314e-10
-3.630269717408155396e-10
-2.983830776541173100e-10
-2.468110259736624235e-10
-2.125587666727913441e-10
-1.772955146646364488e-10
-1.281005766733174176e-10
-9.359676427572226354e-11
-7.383537064250089873e-11
-4.998298487260552854e-11
-3.700038180897553865e-11
-2.589040010843168350e-11
-1.805435572385739355e-11
-1.268380352051242981e-11
-8.960919603439869272e-12
-6.406157877229252381e-12
-4.649963542145181497e-12
-3.442600357582581804e-12
-2.595085777815511150e-12
-1.985924688182447798e-12
-1.534851887793831222e-12
-1.189610190157630863e-12
-9.180600644447558065e-13
-7.008643286073749168e-13
