# bin_10_10
-2.775963903213590346e-11
-3.145096693563182377e-11
-3.506060462117488633e-11
-3.830921244755868375e-11
-4.082329581624981807e-11
-4.214110412963336112e-11
-4.190293304514310281e-11
-3.953320146309893132e-11
-3.522771886533949316e-11
-2.967843837076588416e-11
-2.428385650330102164e-11
-2.033982812570059078e-11
-1.761190016269316828e-11
-1.415486014135654281e-11
-9.852635529384447161e-12
-7.615959484803516714e-12
-5.654131703040873485e-12
-3.947607654883519477e-12
-2.760108107055524027e-12
-1.959002498038728375e-12
-1.348473780858141128e-12
-9.258430030194238425e-13
-6.400838011611142007e-13
-4.463337000400534270e-13
-3.156705010595159695e-13
-2.275225167000670754e-13
-1.672410006001889784e-13
-1.253712498817872769e-13
-9.548337225513755849e-14
-7.343778649445763205e-14
-5.661871606258472194e-14
