# bin_9_8
-8.903721454822013333e-11
-1.001090046177999101e-10
-1.105694557154002726e-10
-1.194470057802700189e-10
-1.254908007187981815e-10
-1.273827875656366399e-10
-1.237775079797148889e-10
-1.136168147983524121e-10
-9.861658072240228518e-11
-8.149146070930000556e-11
-6.695174351251186975e-11
-5.727819133443768839e-11
-4.877265355822312386e-11
-3.636735441912732124e-11
-2.567995711277877715e-11
-2.071026867726791882e-11
-1.399021006134006787e-11
-1.048929124602739922e-11
-7.193672925019706583e-12
-5.019920286221673592e-12
-3.516387037633832038e-12
-2.466038033793137042e-12
-1.744063351561606185e-12
-1.249112320216555927e-12
-9.121838052335430884e-13
-6.790026633944236279e-13
-5.142855241668916613e-13
-3.948574651390136660e-13
-3.053034303071482795e-13
-2.360182367991909467e-13
-1.811340009960454335e-13
