# bin_10_9
-7.212548788335769180e-11
-8.147143364854141847e-11
-9.048927782014181466e-11
-9.842985597585287622e-11
-1.043037071355985081e-10
-1.069378214482689328e-10
-1.053907541788301603e-10
-9.832605904704415675e-11
-8.670258642750378320e-11
-7.239458647491104616e-11
-5.924805038591750977e-11
-5.007401212051795722e-11
-4.322080689293455694e-11
-3.371398077715306767e-11
-2.337755699435262418e-11
-1.859035143635756368e-11
-1.317147945619726544e-11
-9.561836522096701054e-12
-6.533662134545479956e-12
-4.624863879700185604e-12
-3.210132846643202729e-12
-2.224256326196442797e-12
-1.552429952300725175e-12
-1.094074388487021261e-12
-7.842446168575502433e-13
-5.731865172984060815e-13
-4.270418886752782930e-13
-3.238015516047553590e-13
-2.485671238490163221e-13
-1.918804904316080523e-13
-1.478418083024038900e-13
