# bin_9_15
-1.020187130284118477e-16
-1.165337242886428418e-16
-1.312752208200067441e-16
-1.452781902780887252e-16
-1.572774829996684155e-16
-1.656344766350550864e-16
-1.685497698998573518e-16
-1.643384934680717366e-16
-1.513305683218720541e-16
-1.317669178254474332e-16
-1.090061709473313461e-16
-8.941931545025397921e-17
-7.641821313129276175e-17
-6.541798564051777293e-17
-4.906422125493830054e-17
-3.427265689310527865e-17
-2.783267307748777669e-17
-1.860029429030857941e-17
-1.397777672586811461e-17
-9.403774157816139596e-18
-6.431250610046345214e-18
-4.402436077074738694e-18
-2.989060776784410063e-18
-2.023605725352383107e-18
-1.373432922708816185e-18
-9.441044503109738907e-19
-6.592729200091430188e-19
-4.695896432387116578e-19
-3.420857895887863194e-19
-2.546092514810004894e-19
-1.928235543662048041e-19
