# bin_15_4
2.829070310872338694e-23
3.223000206047038425e-23
3.618318338325586549e-23
3.987757616678937832e-23
4.295153525449910360e-23
4.494451760956257431e-23
4.540700217196242014e-23
4.380024912000412586e-23
3.987276624093276677e-23
3.431886689431578554e-23
2.823003192793723485e-23
2.327507386557796015e-23
2.004264407096057151e-23
1.689008687077390707e-23
1.226985777559177437e-23
8.815285706906366186e-24
7.074491287795350711e-24
4.677830282565445713e-24
3.500291040008359111e-24
2.400392741940895187e-24
1.633534918428386323e-24
1.117736351214227818e-24
7.607670205557906475e-25
5.195760915434638960e-25
3.573672567127266234e-25
2.496868442730184887e-25
1.776241408247231804e-25
1.290486117880515894e-25
9.578031623403779297e-26
7.239452406970655628e-26
5.539824328368581049e-26
