# bin_6_6
4.946615853223991945e-06
5.500940342248423904e-06
5.994819117572419329e-06
6.369271574871996447e-06
6.552656230678887381e-06
6.488759426735721402e-06
6.091518434612928914e-06
5.402914657048051852e-06
4.533550022523453935e-06
3.707436415165036670e-06
3.114046221747297377e-06
2.692214207856322999e-06
2.140111961380242127e-06
1.489359632643238493e-06
1.164871985843584651e-06
8.538294777498224420e-07
6.088525965297177784e-07
4.271657486346512552e-07
3.072542855678741625e-07
2.167299620745634404e-07
1.535564386381889035e-07
1.102160159679740193e-07
8.027581720220109281e-08
5.955364093290851854e-08
4.501088016886765810e-08
3.453656129553239183e-08
2.677636105686019375e-08
2.083497383428894840e-08
1.615410102415090385e-08
1.239716164128120484e-08
9.365431856183847743e-09
