# bin_10_8
9.990122033196283005e-07
1.129685384845089097e-06
1.256361001273371665e-06
1.368794673034620117e-06
1.453363713462448763e-06
1.493526856751351031e-06
1.476697393367975624e-06
1.382972870112928322e-06
1.223759994114123263e-06
1.024306231969588376e-06
8.375059237306166536e-07
7.054304144002705584e-07
6.103129466474460012e-07
4.813147503132980968e-07
3.328342395059658347e-07
2.629212389976758168e-07
1.891251605429793725e-07
1.356530766997523025e-07
9.281049611174764841e-08
6.602033717859763457e-08
4.568512015175311291e-08
3.153244095441880693e-08
2.193622208196162773e-08
1.539909415814134371e-08
1.098561444983126368e-08
7.990343843748450506e-09
5.926314318912334621e-09
4.477531923822220269e-09
3.429553346258368692e-09
2.645655760086072149e-09
2.040143773232016328e-09
