# bin_7_7
4.691640178712588443e-06
5.252745418887247448e-06
5.771881685486934794e-06
6.195819812345721065e-06
6.457304860081580542e-06
6.495048492264158876e-06
6.227645207619381488e-06
5.636207764654530447e-06
4.822445482920174463e-06
3.957801124806405738e-06
3.272505097330192258e-06
2.822825571371937256e-06
2.354873723098950146e-06
1.691470171732805396e-06
1.237467699491751800e-06
9.797603337456178216e-07
6.580017448390158492e-07
4.892364315209684903e-07
3.431874259258736831e-07
2.387870755204763485e-07
1.677012952024213517e-07
1.184556240569163504e-07
8.474176143712219046e-08
6.157384942947770705e-08
4.563963753515532722e-08
3.444516822722891873e-08
2.639017147178834361e-08
2.041601484213268974e-08
1.583509095284359637e-08
1.222540540679808011e-08
9.333871954319155776e-09
