# bin_5_4
3.085164380864352315e-06
3.382623672237233094e-06
3.622460881047676857e-06
3.765236625415775173e-06
3.776044425313895627e-06
3.607349415817514234e-06
3.254247815684225620e-06
2.776038826799191465e-06
2.277166509623315390e-06
1.886794771180511051e-06
1.626634330394973831e-06
1.347144923410847821e-06
9.661180633204504966e-07
7.149376907023933428e-07
5.605170180641019462e-07
3.837841422664064232e-07
2.846570540230324304e-07
2.029374313368285685e-07
1.441970952695996596e-07
1.036897881822629045e-07
7.543651733553072507e-08
5.577844982817441954e-08
4.196863749843611783e-08
3.214562854582016571e-08
2.494622001653336960e-08
1.950230825138340798e-08
1.525627598936442243e-08
1.185751371175829783e-08
9.099425022449675970e-09
6.858556706912152524e-09
5.056824916698005335e-09
