# bin_7_3
4.053252615983003660e-10
4.480276750523542109e-10
4.846344899495940482e-10
5.101508174555351267e-10
5.190989464441553489e-10
5.063517461346620840e-10
4.668436079038232730e-10
4.069832688225250584e-10
3.371011981445819020e-10
2.763349488328563160e-10
2.354076108439534779e-10
2.014539218327621637e-10
1.524720761222727275e-10
1.069424737254658256e-10
8.627738087526627397e-11
5.937422051329717483e-11
4.450043395914571103e-11
3.080626824603998667e-11
2.195552919107094899e-11
1.568045205881465821e-11
1.126473837956755502e-11
8.197133180978161964e-12
6.058726997441554456e-12
4.565276029700976714e-12
3.497315946838707116e-12
2.711168511742724225e-12
2.114491884241396384e-12
1.647171924521445964e-12
1.272875653423781373e-12
9.698866613093132033e-13
7.252356370545605679e-13
