# bin_10_2
3.460558517336631246e-20
3.875912167869540408e-20
4.260961458256224371e-20
4.576571135553711139e-20
4.773227150037753339e-20
4.805168744500959130e-20
4.612905800423509299e-20
4.179825973221021310e-20
3.580704986564926373e-20
2.939907312362460501e-20
2.428992043279968979e-20
2.094143313010567817e-20
1.750970821165411288e-20
1.261272520216420042e-20
9.191463187134309979e-21
7.301462515911919366e-21
4.894847537207339267e-21
3.649344489232731353e-21
2.554171926508283414e-21
1.776361603986131123e-21
1.247370331843122765e-21
8.804295149102890725e-22
6.291870737113433116e-22
4.565884410044594985e-22
3.380072849547276345e-22
2.548152454753106288e-22
1.950552724442943162e-22
1.508207587881134285e-22
1.169644129852119966e-22
9.032340786142352010e-23
6.899814816848617846e-23
