# bin_4_11
-1.439559007892529566e-17
-1.623629692911816095e-17
-1.800041754564507131e-17
-1.953615681963826337e-17
-2.064460450273333874e-17
-2.109540839207238269e-17
-2.069825952469668731e-17
-1.920519602405857407e-17
-1.684625757501643293e-17
-1.400524443083706142e-17
-1.146299102938098839e-17
-9.727783423382865576e-18
-8.377556793386442229e-18
-6.437356125003895933e-18
-4.463763094003651085e-18
-3.592104587916241060e-18
-2.486821607613651411e-18
-1.839534873636993027e-18
-1.248003724513753548e-18
-8.789889034899478487e-19
-6.126957008213685442e-19
-4.266868088136448969e-19
-2.991068806136754453e-19
-2.118599357519008841e-19
-1.528085694570032286e-19
-1.123915371711216257e-19
-8.423506155007731923e-20
-6.418088247774953506e-20
-4.942605884412931122e-20
-3.820333445806911431e-20
-2.941780899665306761e-20
