# bin_10_7
-4.372222055326049138e-10
-4.940376628050419395e-10
-5.489346743334090867e-10
-5.973962236394045879e-10
-6.334400385383207883e-10
-6.498858534866295996e-10
-6.411899622652754285e-10
-5.989304061649298961e-10
-5.287033151266542002e-10
-4.416745900817916820e-10
-3.612019930589823308e-10
-3.048724321748414355e-10
-2.634808504786474577e-10
-2.062987997388932339e-10
-1.426753762515011229e-10
-1.133711927216318963e-10
-8.064752342419657015e-11
-5.838482534925431432e-11
-3.979766380650114489e-11
-2.824642429637313934e-11
-1.958614054900803950e-11
-1.355375627460375996e-11
-9.449511956928540446e-12
-6.650358363763050483e-12
-4.759336172948724970e-12
-3.472969304261989029e-12
-2.583833969722090273e-12
-1.957155939372831207e-12
-1.501620889259040896e-12
-1.159192069789679408e-12
-8.936094479478989451e-13
