# bin_13_10
-1.161476756622861489e-09
-1.324565034977954827e-09
-1.489033353999423441e-09
-1.643764393845923972e-09
-1.774100875761046049e-09
-1.861267080052417344e-09
-1.885941225796248381e-09
-1.827324253588183728e-09
-1.671151211153991790e-09
-1.445107514663419982e-09
-1.190935053892513541e-09
-9.791599277921485038e-10
-8.405037237533805951e-10
-7.135955630740562403e-10
-5.252594032419289793e-10
-3.719838077906941652e-10
-3.010984734627913872e-10
-1.990411815272958151e-10
-1.498127773926708743e-10
-1.018180964353887027e-10
-6.928944319040403511e-11
-4.744135524180689740e-11
-3.225013514047603041e-11
-2.193681398901931307e-11
-1.499850283791372155e-11
-1.040530783852386439e-11
-7.343848334716339636e-12
-5.291638225507905903e-12
-3.897876004606666635e-12
-2.928502046397362935e-12
-2.232487419734011549e-12
