# bin_14_9
-1.462282704519962747e-11
-1.668395932163766706e-11
-1.876697471615953735e-11
-2.073235148413542171e-11
-2.239654922787728221e-11
-2.352373112058070459e-11
-2.386597318035938412e-11
-2.316842854868027376e-11
-2.123174197587240947e-11
-1.839780283820200275e-11
-1.517735611839062420e-11
-1.246729418349673571e-11
-1.068714974560287913e-11
-9.098717782804649570e-12
-6.735844624521107205e-12
-4.746384847930782847e-12
-3.849654995517595824e-12
-2.549942537979294809e-12
-1.920523992714442234e-12
-1.300771272754879396e-12
-8.859312868940441354e-13
-6.066615795928291335e-13
-4.122613384959455180e-13
-2.799868334337949752e-13
-1.909767512814872003e-13
-1.321054645314901637e-13
-9.292768341780151915e-14
-6.672226426729179914e-14
-4.898404488041101606e-14
-3.670046598391881376e-14
-2.792587043524215214e-14
