# bin_5_4
-1.190412884365949927e-08
-1.306045796482415064e-08
-1.399807960791164465e-08
-1.456537180277026704e-08
-1.462568736840026397e-08
-1.399792979503872931e-08
-1.265129711627592900e-08
-1.081278708614180536e-08
-8.875636038786144203e-09
-7.345439881725831804e-09
-6.327374998077282959e-09
-5.258341101739417105e-09
-3.787146138959841749e-09
-2.786619792475607370e-09
-2.194669380430473435e-09
-1.499352798564547224e-09
-1.115623363785321581e-09
-7.930383782736373596e-10
-5.632204908961166620e-10
-4.048210116362861452e-10
-2.942061553470706593e-10
-2.172487043937233159e-10
-1.632230423888213049e-10
-1.248609413358616331e-10
-9.680388012346777813e-11
-7.563489564580428333e-11
-5.915936160950823332e-11
-4.599248400539330182e-11
-3.531698818200281848e-11
-2.664462798048973416e-11
-1.966850677895643387e-11
