# bin_8_14
-4.401071310324635044e-13
-5.017187096122381350e-13
-5.637461920108194608e-13
-6.219667014417517130e-13
-6.708032675344502119e-13
-7.031282589693596534e-13
-7.117315662832254713e-13
-6.885699321143803383e-13
-6.287177032000423641e-13
-5.427985372984235299e-13
-4.469905220886884546e-13
-3.677843437191680920e-13
-3.160287122148547085e-13
-2.676915490084007107e-13
-1.961690912357514269e-13
-1.395194196298997077e-13
-1.126850892400260431e-13
-7.443233691880221277e-14
-5.595485784796138643e-14
-3.813455239637818018e-14
-2.594335940648626255e-14
-1.775966960974403296e-14
-1.207639184166988626e-14
-8.224762045222973492e-15
-5.634021658123422660e-15
-3.917583754367205131e-15
-2.772106552438746750e-15
-2.002907813661536585e-15
-1.479111864380507282e-15
-1.113555027703411336e-15
-8.500367964896885709e-16
