# bin_6_1
-1.697430482163431820e-16
-1.848440547435465918e-16
-1.962809890020662790e-16
-2.018792129220029729e-16
-1.998637768629037724e-16
-1.876877589541087939e-16
-1.665526785246123818e-16
-1.398997584254001157e-16
-1.144629078575699746e-16
-9.603234135847177839e-17
-8.286428045014420811e-17
-6.601746346867792677e-17
-4.629032671168413506e-17
-3.601234802519138425e-17
-2.666102402601423598e-17
-1.905636081745512628e-17
-1.362077097895658017e-17
-9.876444731255905493e-18
-7.087356637984460529e-18
-5.135867604405056170e-18
-3.779894407042001996e-18
-2.829624163566522109e-18
-2.156610741567630722e-18
-1.669478128887349910e-18
-1.305326792957608890e-18
-1.024347229674158357e-18
-8.011409907823495757e-19
-6.202479719004920670e-19
-4.726167395431238862e-19
-3.527783577724123719e-19
-2.570433245387964542e-19
