# bin_10_9
-9.658017573783299792e-09
-1.094983074607528302e-08
-1.221707458798938227e-08
-1.336333338463503147e-08
-1.425951008554578739e-08
-1.474479869363165661e-08
-1.469323547936246434e-08
-1.390144744183071073e-08
-1.241900470523141783e-08
-1.048657779126346490e-08
-8.578934123108439295e-09
-7.166106736933431918e-09
-6.206637708314691381e-09
-5.027100063741577379e-09
-3.506592507525599419e-09
-2.685634034809719346e-09
-2.019831609459183918e-09
-1.394020177245307290e-09
-9.832528831906476901e-10
-6.971934070368633111e-10
-4.787693339016457257e-10
-3.279354841978446045e-10
-2.260962181801576119e-10
-1.571984996957201099e-10
-1.107605014645571680e-10
-7.951322205523412336e-11
-5.821659197581072259e-11
-4.349125730988683292e-11
-3.304006012422057427e-11
-2.537850270000462270e-11
-1.956554973984618494e-11
