# bin_7_12
-2.992733240025323606e-12
-3.396444453530739422e-12
-3.794334317468273461e-12
-4.156786002812954714e-12
-4.444138558920484610e-12
-4.606708014968389273e-12
-4.604122136146459481e-12
-4.373389395544159253e-12
-3.921625942880881576e-12
-3.323587482911218522e-12
-2.720565995713572787e-12
-2.265469902320968614e-12
-1.961541313608727862e-12
-1.603867913618896395e-12
-1.125435204916917823e-12
-8.505711502374429795e-13
-6.501305610881705126e-13
-4.427916861845099829e-13
-3.168368868676694059e-13
-2.234815226769582106e-13
-1.530759063344764003e-13
-1.046893786557652951e-13
-7.192880788267279582e-14
-4.981960348089125956e-14
-3.492852012280529411e-14
-2.493987080352736962e-14
-1.815987921219165095e-14
-1.349834867547117633e-14
-1.021462414106536963e-14
-7.827481547962077698e-15
-6.030666299312220292e-15
