# bin_13_1
-6.258827602458812962e-35
-7.090677351964059148e-35
-7.903947954213793711e-35
-8.635705604586938577e-35
-9.201806655097637910e-35
-9.498080188487512783e-35
-9.444162496057198871e-35
-8.909636292703431924e-35
-7.938273195280309398e-35
-6.686267324801634360e-35
-5.468678629165791456e-35
-4.578594221630320905e-35
-3.964964069551704131e-35
-3.188191339170648108e-35
-2.217223855248864226e-35
-1.713458941884715602e-35
-1.273035540604561417e-35
-8.878717178094957890e-36
-6.204235213604493678e-36
-4.407641238279833825e-36
-3.032876155881590201e-36
-2.081209984972099292e-36
-1.438536503019497251e-36
-1.002898594359253588e-36
-7.091297516832627656e-37
-5.109949825685192571e-37
-3.755449649989172504e-37
-2.814966096601904251e-37
-2.143854098575843674e-37
-1.648989328403630351e-37
-1.271518257341006936e-37
