# bin_15_7
-1.808018946519767833e-16
-2.062863864564754724e-16
-2.320413488028868360e-16
-2.563417027020095574e-16
-2.769180947217366808e-16
-2.908545401356962083e-16
-2.950858290300602551e-16
-2.864607290397141880e-16
-2.625155404713068099e-16
-2.274762268298506697e-16
-1.876588469496788606e-16
-1.541515695991383229e-16
-1.321401623716756108e-16
-1.124983791575137106e-16
-8.328457776764545129e-17
-5.868847977872544119e-17
-4.759683579717760914e-17
-3.153075872743357677e-17
-2.374557244255626414e-17
-1.608305296141178123e-17
-1.095446543885242573e-17
-7.501185799216158489e-18
-5.097443852447026285e-18
-3.461924535893013286e-18
-2.361352533838036466e-18
-1.633427665976254695e-18
-1.149006551279796174e-18
-8.249841091143367183e-19
-6.056557655752730005e-19
-4.537725735796371700e-19
-3.452773853818825924e-19
