# bin_8_1
-4.838963017015409474e-22
-5.357695044564365812e-22
-5.807432223039937755e-22
-6.129105689533871243e-22
-6.255588576382409274e-22
-6.128538863665878342e-22
-5.679033346338559536e-22
-4.975394037279980886e-22
-4.134926142956443272e-22
-3.385788583155571290e-22
-2.873077732022018114e-22
-2.468360193923672424e-22
-1.894643409076748720e-22
-1.322011137346935852e-22
-1.060854440123003088e-22
-7.412058375227446105e-23
-5.494724926333679216e-23
-3.802001316209871862e-23
-2.719610665622800837e-23
-1.936507143387980871e-23
-1.386158225177371295e-23
-1.004965882926000385e-23
-7.397972408582426094e-24
-5.551385441029911088e-24
-4.237925872365537328e-24
-3.276903325454062205e-24
-2.552268709183459647e-24
-1.988068579172325308e-24
-1.538008370130637139e-24
-1.174370045087091966e-24
-8.806965788669971687e-25
