# bin_15_10
-3.031245059445379528e-11
-3.466041434004182607e-11
-3.909540082456058905e-11
-4.333328095492979234e-11
-4.700341620211790578e-11
-4.962198278023172729e-11
-5.063553071962266367e-11
-4.957653673433644093e-11
-4.586932061486102452e-11
-4.012408781317705872e-11
-3.328275025195452102e-11
-2.725621266030667139e-11
-2.320011424113177506e-11
-1.995156904406455484e-11
-1.517511478455480635e-11
-1.052194149223984139e-11
-8.518348785947308133e-12
-5.778480485351599207e-12
-4.306549204228167633e-12
-2.880827511760465931e-12
-1.984410352352636385e-12
-1.355966139203421476e-12
-9.185326359544934339e-13
-6.196472756709720495e-13
-4.183579092989612317e-13
-2.855703202249275508e-13
-1.977814028179395591e-13
-1.395910685252734957e-13
-1.007610350511244859e-13
-7.438583658599408152e-14
-5.598917728374690595e-14
