# bin_1_4
-1.462898017152610864e-11
-1.553059245386438564e-11
-1.597681168194946887e-11
-1.582273678191379270e-11
-1.487682921588197406e-11
-1.322049415090221809e-11
-1.112789099962582066e-11
-9.113239190983502307e-12
-7.632784382953442783e-12
-6.570158845889493249e-12
-5.256326698859194134e-12
-3.722336949674554842e-12
-2.870096420895459133e-12
-2.150442640526532067e-12
-1.537107920212394446e-12
-1.117177474397279419e-12
-8.142060149710173391e-13
-5.921872863693477762e-13
-4.365668250048532354e-13
-3.273066639579264160e-13
-2.497844300980479582e-13
-1.938177021602759860e-13
-1.523039028568333099e-13
-1.203988093562286862e-13
-9.508514232172687874e-14
-7.450159157709664346e-14
-5.754207271777521596e-14
-4.357556579631483210e-14
-3.221968832153047837e-14
-2.319707576465393325e-14
-1.625209380972589952e-14
