# bin_1_3
-1.164848345749946484e-09
-1.214166396493666424e-09
-1.222219946817173952e-09
-1.175258122678246249e-09
-1.068607488715519079e-09
-9.194190861898654725e-10
-7.580080606494865970e-10
-6.257218972055835807e-10
-5.352488975307710025e-10
-4.476143099070165620e-10
-3.309616894864137358e-10
-2.411081508901812082e-10
-1.900808429461773542e-10
-1.337156971978702836e-10
-9.982931150737041121e-11
-7.190742377931762140e-11
-5.260304135137223847e-11
-3.892694440819467340e-11
-2.924662947770323538e-11
-2.237276482618087307e-11
-1.740003544495208714e-11
-1.371573787025634362e-11
-1.088550497629016877e-11
-8.636342569053188354e-12
-6.801795045986824940e-12
-5.282785727759241784e-12
-4.023579396312574397e-12
-2.992102654457833092e-12
-2.166304790261185941e-12
-1.525893366921154556e-12
-1.046876590594253791e-12
