# bin_14_13
-1.028056619816540462e-08
-1.177093488539237659e-08
-1.329884472403014171e-08
-1.476955176097813210e-08
-1.605938344431578924e-08
-1.700531665111412122e-08
-1.741390548819425424e-08
-1.713458966571790729e-08
-1.594727236279344378e-08
-1.402856427406098696e-08
-1.168343244181006243e-08
-9.557644559790151038e-09
-8.096486178543467258e-09
-6.990010079041877816e-09
-5.406830071156225753e-09
-3.731983846343744809e-09
-2.995372450071301028e-09
-2.080999512065854876e-09
-1.525362475292385347e-09
-1.019438851836841603e-09
-7.102560560806053737e-10
-4.835619303939306509e-10
-3.260731449061793568e-10
-2.191325379533432928e-10
-1.471350710552752071e-10
-9.964716601028061939e-11
-6.836107856305217430e-11
-4.772207678493423752e-11
-3.405572846614354546e-11
-2.487439266915836703e-11
-1.856180739170923149e-11
