# bin_9_2
-2.758850299726559858e-20
-3.078064170257584874e-20
-3.367926608562764243e-20
-3.596297328689511646e-20
-3.723141577956248716e-20
-3.715841632789027831e-20
-3.524506695362350046e-20
-3.156706083796184332e-20
-2.672957110676716327e-20
-2.187979045924661342e-20
-1.822943347299084256e-20
-1.576693180193567994e-20
-1.285615238696963039e-20
-9.044429086652969605e-21
-6.856578080477147211e-21
-5.235112744955292572e-21
-3.608029833785010760e-21
-2.602321323334247626e-21
-1.857984820229528587e-21
-1.300746197041155203e-21
-9.160169494436535747e-22
-6.521061856889676244e-22
-4.709234850321191939e-22
-3.459883930748401018e-22
-2.591876877865871459e-22
-1.974247407023493267e-22
-1.523032662210250649e-22
-1.182611669415538466e-22
-9.176009861968880212e-23
-7.065077891546569364e-23
-5.365779355351345492e-23
