# bin_9_6
8.772196470036126281e-08
9.867650616735891257e-08
1.090491852614289324e-07
1.178867882506133328e-07
1.239598968814564452e-07
1.259478151133500296e-07
1.225559409833711022e-07
1.126431658264946759e-07
9.790207386877249673e-08
8.092986146845175290e-08
6.643075242294900930e-08
5.680145423695174225e-08
4.849317340407563324e-08
3.626300732720187667e-08
2.548384354520599272e-08
2.064438279488011501e-08
1.390084397345217568e-08
1.046699677161373821e-08
7.154171691724239994e-09
4.986702761240548869e-09
3.494379659703125932e-09
2.449984229752111626e-09
1.730832820637809872e-09
1.237953487927989583e-09
9.028024132439034482e-10
6.711942993769459123e-10
5.078875668526803620e-10
3.897395786597764126e-10
3.013301405614707464e-10
2.330405219625923932e-10
1.789871852187815083e-10
