# bin_9_2
7.456412739460760712e-18
8.320942166544808566e-18
9.106802344045283109e-18
9.727136931497023128e-18
1.007363856256391490e-17
1.005770538857215495e-17
9.544282443316714935e-18
8.552471597239406896e-18
7.245549600845123307e-18
5.933061701865806279e-18
4.943697330518411989e-18
4.276350200212139289e-18
3.488975448684930243e-18
2.456052022846011845e-18
1.861146381862594863e-18
1.422142883890152510e-18
9.798384347039753430e-19
7.071698012082246689e-19
5.048038834472936324e-19
3.533899048852713566e-19
2.488558438339212094e-19
1.771306035995347763e-19
1.278902305570892344e-19
9.393922638525830486e-20
7.035527702817520204e-20
5.357916745126516314e-20
4.132809856100010250e-20
3.208899995878133351e-20
2.489913421887705151e-20
1.917335006358189529e-20
1.456441173773368356e-20
