# bin_9_5
2.762816033743668569e-09
3.101243805856580501e-09
3.418466185070250328e-09
3.683831021335422384e-09
3.858219568403068982e-09
3.902513133015596198e-09
3.772321299541323034e-09
3.442588948917682430e-09
2.970767135682282791e-09
2.446919764303464450e-09
2.014589314104816991e-09
1.730630757383213846e-09
1.463655413960411438e-09
1.073395349531642274e-09
7.668095699307458640e-10
6.176174803848511839e-10
4.127391372486590488e-10
3.107805591353939612e-10
2.148209206279855971e-10
1.492935318265238167e-10
1.047811313995078528e-10
7.371184477387824555e-11
5.237780926011217123e-11
3.774052613134776738e-11
2.773905154061361598e-11
2.077520905903390780e-11
1.581887572196993371e-11
1.219089885762999700e-11
9.443720507275377370e-12
7.300310095305100232e-12
5.592822041632353979e-12
