# bin_15_9
4.742247580592335363e-10
5.419139331668386152e-10
6.107789561735784503e-10
6.763473680854680508e-10
7.327674726006824643e-10
7.724368636694678517e-10
7.868670867926663760e-10
7.684336680996873877e-10
7.088734192195047249e-10
6.183200545208854375e-10
5.120421649298211173e-10
4.198044815996376329e-10
3.582958509170286232e-10
3.072772535722360854e-10
2.316249422583572954e-10
1.613294295733389936e-10
1.309472541536652928e-10
8.791962395807802897e-11
6.592779722986304921e-11
4.425002425339747809e-11
3.032947345673031465e-11
2.075234016689712664e-11
1.408106432894746851e-11
9.520354936288967136e-12
6.449174824905004721e-12
4.421817067788408958e-12
3.078544088926145268e-12
2.185582352334400428e-12
1.586965420963253231e-12
1.177789164711232193e-12
8.901067907591918750e-13
