# bin_13_3
6.674200194087319613e-23
7.566977674483480015e-23
8.442720135930121899e-23
9.234738788445786961e-23
9.853690053244710961e-23
1.018831181650722556e-22
1.015144095269860081e-22
9.602540315752084774e-23
8.577413257200851291e-23
7.242197781862629645e-23
5.926460931351902544e-23
4.953510326424856853e-23
4.290715002037971956e-23
3.471733837667130756e-23
2.421326128970221852e-23
1.857540634835200017e-23
1.394349203702088068e-23
9.642941228915752929e-24
6.791497743291465487e-24
4.817387887351008665e-24
3.309678762681361002e-24
2.267872390091483864e-24
1.564314477429941789e-24
1.088100070952848884e-24
7.670938289620022334e-25
5.509943453815156019e-25
4.036398432335572889e-25
3.016903489851621045e-25
2.292750338282620635e-25
1.761444861315518949e-25
1.358027144529756657e-25
