# bin_8_3
3.955315075944176725e-12
4.400429365791125573e-12
4.797990441061230728e-12
5.100941306760478702e-12
5.251897194796762798e-12
5.205829923677090814e-12
4.893289023925766919e-12
4.345597204830894298e-12
3.650716932589056034e-12
2.986567963486041599e-12
2.507045204915227118e-12
2.167951427101612169e-12
1.728073487769493384e-12
1.203784290144222977e-12
9.390703877694152880e-13
6.911419582089360937e-13
4.912911575386915363e-13
3.454533364950662460e-13
2.484657788291535885e-13
1.751429411646968584e-13
1.240104737916206341e-13
8.894298971028692188e-14
6.473149413899230737e-14
4.797966749370297873e-14
3.623426282038888940e-14
2.778458860263734816e-14
2.153282444935874630e-14
1.675281906699993684e-14
1.299092346620077592e-14
9.973420710735174314e-15
7.538694539874615495e-15
