# bin_5_1
1.600338670616606585e-11
1.723666024213734084e-11
1.805288538281211422e-11
1.826931105278172765e-11
1.768641652113357131e-11
1.618285008265024845e-11
1.400456620341713905e-11
1.156406904750297910e-11
9.513897459488944866e-12
8.135184134419356086e-12
6.884160957702577591e-12
5.126571319920689363e-12
3.670317970460921208e-12
2.936565777301962322e-12
2.032761781258555677e-12
1.526293696092428541e-12
1.080945569662564009e-12
7.803797974124227748e-13
5.684222805360648960e-13
4.187978386181036856e-13
3.137152885192945781e-13
2.390442272516001421e-13
1.852160647123128411e-13
1.451524890784387419e-13
1.143169891273331989e-13
8.986136756592509786e-14
7.001255404684977130e-14
5.373756731583477275e-14
4.042627224769751545e-14
2.969067231618467394e-14
2.123845472272229287e-14
