# bin_12_3
1.015297263885277305e-20
1.147820193438528287e-20
1.276150857022321544e-20
1.389844293196911756e-20
1.475031455273581714e-20
1.514959022614636262e-20
1.496738455612777723e-20
1.400457199381520485e-20
1.238262105987763084e-20
1.035929776728038800e-20
8.473982268195372165e-21
7.145743782167762936e-21
6.179168563071116715e-21
4.858017084492946057e-21
3.361721793385533310e-21
2.662261736126807580e-21
1.905833451169065675e-21
1.372826827078098391e-21
9.382613935539235609e-22
6.665857201118892983e-22
4.617393774430168833e-22
3.191118166830448977e-22
2.222185183225590808e-22
1.561783538417567097e-22
1.115756347565046446e-22
8.127127334028411689e-23
6.035970216461941679e-23
4.565426965958108170e-23
3.499396187162114808e-23
2.700270595127713280e-23
2.081908101535906659e-23
