# bin_5_5
5.213263033490575828e-06
5.751931720594343340e-06
6.207819471596084293e-06
6.516069888458940449e-06
6.608942561630536478e-06
6.416352364633933525e-06
5.885763200442318870e-06
5.105715801175130967e-06
4.218538148142735461e-06
3.466086432042564316e-06
2.963578352212874755e-06
2.520161254993488628e-06
1.881153471210720170e-06
1.333540125782851559e-06
1.074014898392378960e-06
7.335375928107366749e-07
5.516169132904134888e-07
3.841511735967386045e-07
2.730915081264130332e-07
1.954573320590897474e-07
1.408645855466315622e-07
1.029074973339892725e-07
7.639975053804303304e-08
5.781289251054549741e-08
4.444295796082075854e-08
3.453611657733559512e-08
2.696463698090335469e-08
2.099972530077410165e-08
1.620405693221181991e-08
1.231648001386497152e-08
9.179401625262739098e-09
