# bin_12_4
4.420598682416169528e-17
5.001780661710523931e-17
5.566666073022195062e-17
6.070186307009819247e-17
6.452271114274160621e-17
6.639514591614202532e-17
6.575986909145162077e-17
6.172159612045131822e-17
5.473251499168344099e-17
4.590298095013349361e-17
3.754578577724483187e-17
3.158019008388559163e-17
2.733322361404489574e-17
2.167331363506461230e-17
1.501038306824448527e-17
1.179230894185541257e-17
8.557715406535149490e-18
6.092971831858909929e-18
4.190520610036314260e-18
2.982008267346242627e-18
2.060482602603004517e-18
1.419833475454174587e-18
9.861100350331327509e-19
6.910116842419453321e-19
4.918257365567481211e-19
3.568606811079763957e-19
2.640535207705390950e-19
1.990992605821120628e-19
1.522830477045134538e-19
1.173946673618807782e-19
9.053207359719299504e-20
