# bin_12_5
4.469994585657618756e-14
5.062657733406955399e-14
5.641252295688590188e-14
6.160668482939147364e-14
6.560579339703258693e-14
6.766467378942209154e-14
6.721319808456526114e-14
6.332195292507701774e-14
5.634802032844120694e-14
4.740606326893993546e-14
3.877905917550192343e-14
3.251823712681905109e-14
2.816312284190774913e-14
2.255503380170699255e-14
1.565927921565264441e-14
1.216956013507062480e-14
8.977924592923945797e-15
6.301590532030590105e-15
4.378330794402608403e-15
3.115312084058671757e-15
2.146434808949821795e-15
1.474441743359404432e-15
1.020696164017235802e-15
7.127200470355055488e-16
5.049750271148525483e-16
3.646571281385866179e-16
2.685641093877368192e-16
2.016860883940286304e-16
1.538188907936546211e-16
1.184080785461669565e-16
9.131764632405125088e-17
