# bin_12_1
4.612111795745325406e-30
5.209059630470176919e-30
5.784663161945265827e-30
6.290961518930086001e-30
6.664605442882506994e-30
6.830341873697367074e-30
6.728694312279183397e-30
6.273611888292975917e-30
5.528584199763682193e-30
4.612954298764595467e-30
3.774591367190719498e-30
3.192103220281602803e-30
2.756071450315263587e-30
2.145603291800672714e-30
1.485518538242994937e-30
1.185407148234444726e-30
8.361036443322009034e-31
6.096304937221045471e-31
4.149134624549218514e-31
2.937795809373577372e-31
2.040703018001580286e-31
1.415155034861302307e-31
9.883391602015728756e-32
6.969635024163924239e-32
5.000032413112145069e-32
3.657579293042390440e-32
2.727434618902612372e-32
2.069738555590536004e-32
1.589867126644880746e-32
1.227820867743864793e-32
9.462027959259861805e-33
