# bin_9_8
2.947500905833265641e-06
3.329447214059199772e-06
3.697947098618295674e-06
4.022398317932222812e-06
4.262341252824815245e-06
4.369557959046479365e-06
4.306237688883882139e-06
4.016830187308683946e-06
3.541337446846791938e-06
2.955686439019932345e-06
2.418282192547224349e-06
2.044371692777542449e-06
1.765715944015715335e-06
1.376339437510959361e-06
9.524662521956909363e-07
7.596551955205154057e-07
5.366625587080186451e-07
3.908541400487010249e-07
2.659363436126826807e-07
1.884432373088477223e-07
1.308576206017293114e-07
9.070763343730061085e-08
6.332847096133221567e-08
4.463913903126046712e-08
3.200777217695101059e-08
2.340195787379585277e-08
1.744242896124195217e-08
1.323152076000623932e-08
1.016161925666848409e-08
7.847273299734988031e-09
6.048106440858468695e-09
