# bin_14_2
1.455558206888402592e-29
1.653929496012182677e-29
1.850552897404371137e-29
2.031148672542755056e-29
2.176614471242614212e-29
2.262894952696687316e-29
2.269354878899694518e-29
2.165817421697099364e-29
1.950935172931586452e-29
1.661112868975339816e-29
1.361530030551598763e-29
1.130348133029443754e-29
9.778428324493265254e-30
8.074382051923678435e-30
5.716857618017612374e-30
4.256210894797888286e-30
3.307751875155011902e-30
2.226204529012815819e-30
1.618261809701601595e-30
1.132572321741299672e-30
7.739143479907816127e-31
5.290552838295064097e-31
3.622425997458306416e-31
2.498356175791964967e-31
1.741812641318267038e-31
1.235964668640502059e-31
8.941050659715317613e-32
6.604958416288140487e-32
4.973139933863984774e-32
3.798360286231852026e-32
2.922607203788767256e-32
