# bin_8_7
-1.142792304657180523e-10
-1.277054945056352046e-10
-1.400035984285389630e-10
-1.498572612240721665e-10
-1.556182801262727043e-10
-1.558631974519908955e-10
-1.485789345569163926e-10
-1.337373007112133679e-10
-1.138256246999915413e-10
-9.333670486004216680e-11
-7.752818098119581251e-11
-6.695234200778960525e-11
-5.513882781239171969e-11
-3.922457809525301501e-11
-2.925640704297170125e-11
-2.268953892376137060e-11
-1.548325561666067112e-11
-1.132156535951974372e-11
-8.011392805377634707e-12
-5.596332521508946110e-12
-3.938715668104503598e-12
-2.795306918865276352e-12
-2.010670866142457159e-12
-1.470312624285919699e-12
-1.096475315157753027e-12
-8.319074952119322803e-13
-6.398633093980272197e-13
-4.960253149807649200e-13
-3.847736513064862099e-13
-2.965710052594919523e-13
-2.257261113274522118e-13
