# bin_10_10
-2.806741772803869430e-11
-3.178999727912978331e-11
-3.542524681618375971e-11
-3.868987457978453588e-11
-4.120538464059873259e-11
-4.250505322803068027e-11
-4.222731804698955405e-11
-3.979327764279248059e-11
-3.542018786770394220e-11
-2.981054073837293156e-11
-2.438976486478042270e-11
-2.044743611926359630e-11
-1.770363129407102797e-11
-1.418625776800985743e-11
-9.863185931914877896e-12
-7.651500484403785156e-12
-5.652478977559330719e-12
-3.963169364513437179e-12
-2.761174767208676725e-12
-1.961253672464593326e-12
-1.351296829985661397e-12
-9.286234779047851982e-13
-6.427927951309185868e-13
-4.488404420942476914e-13
-3.179955245073253906e-13
-2.296177995606718531e-13
-1.690918981831596571e-13
-1.269650059429302338e-13
-9.681438839350278861e-14
-7.451248983625466121e-14
-5.745456140205418420e-14
