# bin_7_5
-3.329743157099469195e-10
-3.662826856051970983e-10
-3.938613061415205104e-10
-4.115191749590602851e-10
-4.151858944166970524e-10
-4.001135867175706679e-10
-3.643349551325470800e-10
-3.137757886751012851e-10
-2.585897085257278167e-10
-2.133699014602197149e-10
-1.829946193280458370e-10
-1.536277350407390925e-10
-1.129022634540892631e-10
-8.166212365434993149e-11
-6.476433401195385729e-11
-4.450564900222466240e-11
-3.314669986851942001e-11
-2.333982795098962421e-11
-1.661067493926503578e-11
-1.191327357571132305e-11
-8.622642131566399734e-12
-6.334172702900292130e-12
-4.731647579966618329e-12
-3.600318380908774896e-12
-2.779550487369532134e-12
-2.165679219165769602e-12
-1.692113202666146877e-12
-1.316324285580478760e-12
-1.012948515486173296e-12
-7.668241289741617035e-13
-5.686065304867368152e-13
