# bin_5_1
-2.675228068575417513e-09
-2.612269256838153940e-09
-2.428683321190412407e-09
-2.143249224863534822e-09
-1.809522410933602316e-09
-1.498914740232088649e-09
-1.255439739579232701e-09
-1.051049835316356460e-09
-8.310878112460034940e-10
-6.169139222906819894e-10
-4.640197436701005435e-10
-3.490920500146528460e-10
-2.547939649295161866e-10
-1.880390328380968774e-10
-1.388180515056394668e-10
-1.038073278250528354e-10
-7.883745799569254950e-11
-6.094464685952374138e-11
-4.788427541983875708e-11
-3.807241105900937813e-11
-3.044313876444690767e-11
-2.430284458918079435e-11
-1.923339089068108380e-11
-1.499535855807524814e-11
-1.145729384795295916e-11
-8.545861544884837256e-12
-6.209222229968390620e-12
-4.392710555502482664e-12
-3.029453218656809118e-12
-2.041572800551435992e-12
-1.348466117316077753e-12
