# bin_5_12
-7.186517667612276111e-21
-8.134428276430526223e-21
-9.057316224681830245e-21
-9.882208620244575570e-21
-1.051169558146883544e-20
-1.082619089112801971e-20
-1.073467890114701966e-20
-1.008983856240662126e-20
-8.959219044193965207e-21
-7.522670169677018258e-21
-6.153095245428781294e-21
-5.169415898474281989e-21
-4.475644440339107993e-21
-3.562561154257465215e-21
-2.469010062015859673e-21
-1.932068805914284123e-21
-1.410937517896562957e-21
-9.991204347605256101e-22
-6.895351465312561323e-22
-4.908504774653696028e-22
-3.387849764218322508e-22
-2.331491341181757114e-22
-1.617290400435214864e-22
-1.131783884941659916e-22
-8.041578133623418469e-23
-5.824352902394259794e-23
-4.302108340635728256e-23
-3.239005303898076906e-23
-2.474797576112212123e-23
-1.906863490595764715e-23
-1.470616249551838460e-23
