# bin_9_8
-9.022479424766800956e-11
-1.014078632620099140e-10
-1.119556081170328653e-10
-1.208800363895587660e-10
-1.269114579520845090e-10
-1.287253229130053107e-10
-1.249449281965334462e-10
-1.145489190745600676e-10
-9.930614882805604444e-11
-8.200751294214923879e-11
-6.740643901883460117e-11
-5.771454878182269554e-11
-4.907147418286524717e-11
-3.646932530452882615e-11
-2.581459745196489851e-11
-2.080944163831937891e-11
-1.403096455062329516e-11
-1.052725258015235402e-11
-7.231224727304343292e-12
-5.042973329950990368e-12
-3.534565196385410160e-12
-2.481027188404193201e-12
-1.756794192716929798e-12
-1.260197897939500386e-12
-9.217785879249189332e-13
-6.872185285807660490e-13
-5.212152268914604961e-13
-4.005643821821157903e-13
-3.098700444790603477e-13
-2.395530333708146603e-13
-1.837715215020912416e-13
