# bin_6_9
-7.968164719086595104e-14
-8.948996867755998854e-14
-9.870765596817253804e-14
-1.064551777729346103e-13
-1.116072450020334194e-13
-1.130172406853811601e-13
-1.094312992546831564e-13
-1.000454579018078049e-13
-8.649044145341458783e-14
-7.130131199971106252e-14
-5.865536220364166734e-14
-5.033021907133957908e-14
-4.267374859561270582e-14
-3.144983737702987751e-14
-2.236626432751791139e-14
-1.805125905454637733e-14
-1.207854381817170534e-14
-9.101372497741080391e-15
-6.272568065989918314e-15
-4.361898325957740686e-15
-3.060995382355997272e-15
-2.152081620425731822e-15
-1.527349644530671862e-15
-1.098775771593225147e-15
-8.062539381754103980e-16
-6.029113479625350068e-16
-4.584787998251601490e-16
-3.530227473747704156e-16
-2.733702282400278526e-16
-2.113538293116319115e-16
-1.620141087293649208e-16
