# bin_3_7
-2.186887828241261403e-16
-2.415614225387461013e-16
-2.610750073167416024e-16
-2.745241759556019018e-16
-2.789980301111105233e-16
-2.716567057432214682e-16
-2.499741474753795919e-16
-2.175180559205459369e-16
-1.800132065148579091e-16
-1.477217102504211087e-16
-1.260502026373619929e-16
-1.076070971466495083e-16
-8.098275398349598326e-17
-5.704659473256949151e-17
-4.601751955393604638e-17
-3.155254672088227246e-17
-2.369967903078114893e-17
-1.644761892236335132e-17
-1.170909254612138623e-17
-8.372698260596682095e-18
-6.024732613863307456e-18
-4.392503014652182668e-18
-3.253606941836972896e-18
-2.456697534251122027e-18
-1.885236047459569130e-18
-1.463249233388736435e-18
-1.141899679915557614e-18
-8.894972080605546759e-19
-6.869531707003838001e-19
-5.228648221262904817e-19
-3.903932506788217238e-19
