# bin_1_6
-1.813937053768397057e-20
-1.972893522911989044e-20
-2.091723839320501489e-20
-2.147303133355469606e-20
-2.120501545267127690e-20
-1.984979174760488202e-20
-1.756190898011900726e-20
-1.471538633247503013e-20
-1.204384351549028732e-20
-1.013378977444263168e-20
-8.736682939753689798e-21
-6.901230586250782786e-21
-4.834327220575430951e-21
-3.792592738859796404e-21
-2.774092884011751846e-21
-2.003032961114331357e-21
-1.423936860844338526e-21
-1.033577648037522335e-21
-7.436278078935977458e-22
-5.401752976136279463e-22
-3.986236359025960259e-22
-2.992059884266301850e-22
-2.286446421473085049e-22
-1.773697906653682122e-22
-1.388760297602925523e-22
-1.090489440907102926e-22
-8.526943553449576361e-23
-6.595441496290556069e-23
-5.017692932004318969e-23
-3.737487206543403060e-23
-2.716379560119087046e-23
