# bin_1_10
-6.557716989600358218e-32
-7.341647197762061431e-32
-8.066729996096294967e-32
-8.658503884620045073e-32
-9.022892434517625493e-32
-9.074464184756834262e-32
-8.699193948625055790e-32
-7.872251025344320133e-32
-6.735385367233157144e-32
-5.529404646512120374e-32
-4.574625299221079927e-32
-3.946514239548250415e-32
-3.289440523846409439e-32
-2.362004399095164511e-32
-1.731004377430035817e-32
-1.368203690161163334e-32
-9.205418418340726212e-33
-6.834485246537751834e-33
-4.798825058213186103e-33
-3.341129690776330232e-33
-2.347381221371390228e-33
-1.659210733660933509e-33
-1.187844610113167463e-33
-8.638039984290835154e-34
-6.407655265635763481e-34
-4.839298344609353014e-34
-3.709570467785946145e-34
-2.870683029238739733e-34
-2.226741528522579140e-34
-1.718925152380014808e-34
-1.311976761520808297e-34
