# bin_3_5
-8.326235042899400481e-13
-9.051802569720262190e-13
-9.591673721356931987e-13
-9.840257162343274209e-13
-9.708840560035877402e-13
-9.079331182449904160e-13
-8.025327817038811353e-13
-6.720506498693988852e-13
-5.501692494574676030e-13
-4.632428862404015376e-13
-3.990565803893839166e-13
-3.144416835803504804e-13
-2.204969918311703426e-13
-1.731181297000377429e-13
-1.263243744735584708e-13
-9.137062266294200111e-14
-6.495990857951053622e-14
-4.712662287187518001e-14
-3.392365870765131628e-14
-2.465771012775309030e-14
-1.820736680506577725e-14
-1.367491485533025454e-14
-1.045602331428874649e-14
-8.114673839438519452e-15
-6.355126213976471393e-15
-4.990384351338435501e-15
-3.901515108945459847e-15
-3.016721456651999350e-15
-2.293946038486771961e-15
-1.707640662378373973e-15
-1.240271118988324476e-15
