# bin_8_11
-1.492743258704398278e-13
-1.691135895379712570e-13
-1.885068388745217815e-13
-2.059517172687085502e-13
-2.194379888042010371e-13
-2.264770013133144618e-13
-2.251532052000396030e-13
-2.123507141367005164e-13
-1.891575124995610669e-13
-1.592940090291295406e-13
-1.303175014959909131e-13
-1.091809057287053793e-13
-9.456381621128630620e-14
-7.594756745910945818e-14
-5.279035883569201797e-14
-4.088179958824259252e-14
-3.030470726044206093e-14
-2.118286694004671552e-14
-1.477255182239794257e-14
-1.050315134742009829e-14
-7.230881318118822556e-15
-4.963461841777384142e-15
-3.432605679627808688e-15
-2.394365393105452259e-15
-1.694151293564744192e-15
-1.221635012360484405e-15
-8.984260771390275082e-16
-6.738452955136200910e-16
-5.134360839677052295e-16
-3.950332912300907094e-16
-3.046330726973099103e-16
