# bin_4_1
-2.375983231489048368e-09
-2.316703691068306419e-09
-2.150260237508961106e-09
-1.894437073722948343e-09
-1.597604183632677556e-09
-1.323276972232250643e-09
-1.108924901514182073e-09
-9.276279954486067153e-10
-7.316142654992974824e-10
-5.425709162885156401e-10
-4.085659045474245929e-10
-3.070164290606873109e-10
-2.240963794015218355e-10
-1.654293887059916474e-10
-1.221864138187778121e-10
-9.143497027432686427e-11
-6.950375020875608714e-11
-5.377891069129110839e-11
-4.228830256967911237e-11
-3.364294229991913839e-11
-2.690924462427466600e-11
-2.148134509482198906e-11
-1.699513010811758799e-11
-1.324267933901102178e-11
-1.011016375395620166e-11
-7.533962713200179197e-12
-5.468439923439192608e-12
-3.864721106552063648e-12
-2.662805670661400092e-12
-1.792991215067075776e-12
-1.183445070772468262e-12
