# bin_7_14
-2.344159436150497786e-19
-2.669177429847985911e-19
-2.994539627488089486e-19
-3.297575433767442838e-19
-3.548152710321375543e-19
-3.708002733127156111e-19
-3.740709983944373303e-19
-3.600583342929399213e-19
-3.270513009567254462e-19
-2.808614716757845811e-19
-2.308204422810468381e-19
-1.905435415115622131e-19
-1.642847870549721720e-19
-1.379320809861925247e-19
-9.961085097694843988e-20
-7.206013621125840890e-20
-5.753970831784100185e-20
-3.810151389866165808e-20
-2.839591359132818497e-20
-1.955338104298758231e-20
-1.331149738329517985e-20
-9.105111173428668056e-21
-6.201915109501019340e-21
-4.243726105613244340e-21
-2.926873224877415216e-21
-2.051533315891046544e-21
-1.464624293050183159e-21
-1.067960781935427399e-21
-7.952283179770093133e-22
-6.025733284112692834e-22
-4.617941453480324083e-22
