# bin_10_4
1.055377698161930273e-23
1.186380302101213048e-23
1.310047475049562049e-23
1.414820380111349329e-23
1.485864159890927006e-23
1.507521679161025350e-23
1.463805271235512459e-23
1.341896544849735639e-23
1.163298658563256319e-23
9.598622908883873715e-24
7.882376828228304359e-24
6.754760989243710306e-24
5.756703087657305180e-24
4.270245172545970902e-24
3.007386244971557188e-24
2.447993150165833379e-24
1.628588227666013253e-24
1.236605329428925912e-24
8.473472365527577410e-25
5.876541027609617664e-25
4.126302266731924461e-25
2.898531126129365600e-25
2.052005334168400056e-25
1.471543380681685673e-25
1.076420594563478634e-25
8.026463328845323585e-26
6.089717986750242709e-26
4.682558527166256881e-26
3.624724453572300384e-26
2.804161718806053420e-26
2.152623256231961414e-26
