# bin_11_3
4.054815212829799591e-28
4.519823627792760228e-28
4.939793993593674124e-28
5.267059477406015800e-28
5.442307338883041472e-28
5.419405157168293575e-28
5.123360481647402856e-28
4.574144325739806301e-28
3.860314426044952376e-28
3.157879363307009349e-28
2.638690072076301743e-28
2.285035601679739314e-28
1.848960599993615232e-28
1.290670469094800981e-28
9.918333605000558227e-29
7.472614960090142526e-29
5.203236689854475831e-29
3.704222176602946472e-29
2.665954988784759536e-29
1.870882072770976542e-29
1.318290177936860046e-29
9.412304776958801654e-30
6.819147883629138965e-30
5.028669199302531638e-30
3.780235753988295268e-30
2.888062142927442543e-30
2.233001329817942453e-30
1.736012962046677456e-30
1.347231613522254538e-30
1.036475172904682553e-30
7.859173479310160500e-31
