# bin_13_13
4.859460332923669430e-06
5.559074941935500779e-06
6.273942655932265233e-06
6.958724743560544849e-06
7.554249426260654868e-06
7.983014946176032354e-06
8.155329173304083480e-06
7.997142026660531366e-06
7.412573981888494718e-06
6.495662642698392351e-06
5.395271324530810550e-06
4.418226296237469917e-06
3.756940213007610646e-06
3.235041791984846506e-06
2.471759451813255146e-06
1.711835161991746016e-06
1.383576974005434233e-06
9.440801983756395750e-07
7.011787369743170152e-07
4.686561785592870358e-07
3.237944776359596465e-07
2.210882753905795900e-07
1.496314893559197756e-07
1.008458425701010287e-07
6.798851571833729088e-08
4.631418200098950533e-08
3.199677504609462937e-08
2.251863515512755697e-08
1.620697573635203822e-08
1.193244820217634645e-08
8.962319133050061186e-09
