# bin_12_6
6.839887631797063433e-15
7.715754132724411642e-15
8.555650848201716567e-15
9.287488582672072288e-15
9.816662414167601871e-15
1.003284442244909593e-14
9.846687018439772375e-15
9.137852969975543171e-15
8.017228872609434061e-15
6.664723245335857690e-15
5.455001613847555664e-15
4.631450508127401843e-15
3.992205670048655591e-15
3.065965232193415197e-15
2.122503216239372554e-15
1.713625110286666426e-15
1.182146683338993702e-15
8.784010976693287316e-16
5.934950616744110935e-16
4.179433346635237899e-16
2.915776194768918201e-16
2.032811374281078409e-16
1.425364841897706640e-16
1.009676396786237226e-16
7.284228510169253913e-17
5.358941186524325762e-17
4.017597343203288386e-17
3.062150237448932056e-17
2.359006794336070141e-17
1.823979133944621000e-17
1.404924662016268307e-17
