# bin_8_5
2.706678859878206850e-10
3.027554160880418346e-10
3.322942587047647185e-10
3.561867531559036604e-10
3.705307932648490129e-10
3.719186878475073530e-10
3.554625864653204882e-10
3.206396489377345366e-10
2.734042785010303878e-10
2.241025222201582322e-10
1.857175021804488805e-10
1.605690192832760175e-10
1.331669165513780662e-10
9.467692670810769101e-11
7.011890142249967943e-11
5.506536085856434940e-11
3.707858423878227872e-11
2.739743794897264780e-11
1.937189232557832798e-11
1.349459282836611393e-11
9.475659465916479414e-12
6.704828645895915770e-12
4.812304524057810374e-12
3.510834546744429253e-12
2.612703527738637468e-12
1.978994924478321106e-12
1.520648550786701228e-12
1.178606066520635275e-12
9.147996891490499026e-13
7.059664616458585173e-13
5.382364394695271359e-13
