# bin_9_8
2.712937190071138396e-06
3.065514970237702864e-06
3.406119105120376132e-06
3.706705664485768125e-06
3.930070179539323030e-06
4.031374741021223065e-06
3.976686624380069770e-06
3.713091976642687287e-06
3.276579827300209953e-06
2.735828834138457183e-06
2.237426315859814057e-06
1.890129605097367756e-06
1.634574247799624995e-06
1.277397936863088636e-06
8.817024085890554185e-07
7.037952383154049202e-07
4.983483394721631331e-07
3.627265340160671494e-07
2.456544179087713403e-07
1.746966446183387878e-07
1.212299672184914278e-07
8.396582709289217769e-08
5.859068095102315134e-08
4.126248100898143474e-08
2.955732013580724155e-08
2.158938768996202608e-08
1.607789619800585955e-08
1.218959743295996377e-08
9.359501121274554854e-09
7.229026445686659159e-09
5.574328382634884520e-09
