# bin_7_5
7.140071768409501379e-08
7.955372849458297946e-08
8.689827528469834159e-08
9.259214137923505508e-08
9.558880632005329920e-08
9.508724264993382073e-08
8.976355930880696793e-08
8.003184127650475091e-08
6.744926320129695487e-08
5.516225172164066317e-08
4.614555451079718227e-08
3.996767667363918205e-08
3.222986298494355667e-08
2.244296890219042674e-08
1.733542535235555079e-08
1.298434882977980338e-08
9.085639000860289509e-09
6.432820031969132866e-09
4.641397743058494920e-09
3.260543726155567946e-09
2.298711445506425553e-09
1.643308908441617460e-09
1.192056341308935718e-09
8.803076654450332747e-10
6.626278398333187743e-10
5.067977740901009761e-10
3.921532696490712343e-10
3.049859993622242213e-10
2.366742137900034881e-10
1.820064553883424040e-10
1.379087738729568147e-10
