# bin_11_2
4.099701805356146018e-37
4.553879029800550810e-37
4.955665966163886476e-37
5.255767563740328735e-37
5.394694370871590015e-37
5.326826122758971899e-37
4.981562641419486814e-37
4.402720338711181158e-37
3.681844339746017250e-37
3.010740126516373828e-37
2.537933301978604747e-37
2.194057304541451798e-37
1.725501928645325718e-37
1.195592923601685424e-37
9.484064350404883754e-38
6.824043343073773187e-38
4.948575534685421388e-38
3.424484113690709051e-38
2.471072792980559800e-38
1.749186391174299008e-38
1.243221882974280514e-38
8.955786286990002226e-39
6.546080384080668796e-39
4.875679682749149982e-39
3.698327019067554898e-39
2.846034929776094202e-39
2.210939526152258882e-39
1.721807212384468877e-39
1.334619791108568311e-39
1.022929492633850177e-39
7.711633182013710949e-40
