# bin_15_7
3.717117467774957462e-19
4.221968963872522069e-19
4.721312285184351212e-19
5.178600805997299589e-19
5.544843024429828306e-19
5.758411699701203279e-19
5.767796095386935462e-19
5.494546377430648783e-19
4.940254514351853608e-19
4.198016352765448406e-19
3.438458179969417027e-19
2.858050924781162214e-19
2.474891328662794792e-19
2.036561189608270142e-19
1.434365855412792350e-19
1.075161889116681662e-19
8.306134462800759186e-20
5.607654153966133436e-20
4.052677996335490596e-20
2.849124548834608105e-20
1.948512062658059164e-20
1.331248608352462842e-20
9.125186887633259611e-21
6.305057240644215812e-21
4.406559656826325254e-21
3.135463700279956692e-21
2.274899634725397630e-21
1.685393683522061989e-21
1.272157713298843979e-21
9.734150317946847716e-22
7.497366764207700178e-22
