# bin_11_11
4.523351297142058022e-06
5.150943909639713194e-06
5.779449675088459865e-06
6.365146628945724569e-06
6.849941649886287040e-06
7.160024853001787559e-06
7.224871838704141638e-06
6.956620418849828765e-06
6.321093114238085435e-06
5.430293936363588409e-06
4.463385028791668984e-06
3.683787190036076938e-06
3.175540288308376272e-06
2.667786188577952580e-06
1.928357575602920575e-06
1.393430923331759423e-06
1.113648945270299021e-06
7.371649882725460392e-07
5.498035989858984290e-07
3.783445055141467971e-07
2.575432150184960011e-07
1.761707078544153876e-07
1.199811550630909056e-07
8.207328386572106561e-08
5.658079454962059086e-08
3.963911971657689326e-08
2.828329837623302151e-08
2.061169978248703445e-08
1.534027026316563626e-08
1.161947883745158007e-08
8.902888779381588191e-09
