# bin_15_5
2.101838421679986082e-30
2.379038747153456661e-30
2.648856965087022717e-30
2.889964586197148634e-30
3.073844886684513083e-30
3.165377111142388697e-30
3.138354140323867754e-30
2.949122472328417926e-30
2.617993790632553649e-30
2.197273793986442371e-30
1.796787563582510642e-30
1.509865980707786068e-30
1.307821284086033325e-30
1.040537838369908558e-30
7.196584029459723516e-31
5.644815415383221570e-31
4.116691452236066914e-31
2.918826362318796143e-31
2.006137863665220436e-31
1.432486575891952430e-31
9.887627889626995113e-32
6.801454707262212659e-32
4.720095039693631200e-32
3.304233234366454001e-32
2.348744063540772439e-32
1.701964753894589922e-32
1.257797698925810968e-32
9.474930535429552746e-33
7.243047961316770180e-33
5.583200194507720392e-33
4.307198072941866700e-33
