# bin_1_13
7.391622309778397677e-07
7.305131358194063702e-07
6.886013488755352666e-07
6.157593377370455932e-07
5.246818855816941252e-07
4.349006742962401049e-07
3.627727794871949095e-07
3.056891651246069323e-07
2.465174336095587030e-07
1.843385169875394988e-07
1.374995248604542646e-07
1.042967589373466637e-07
7.612434009674309030e-08
5.603938688491815054e-08
4.121482987842008785e-08
3.064365110174881790e-08
2.310348205688727200e-08
1.772598386799811177e-08
1.383474884016754029e-08
1.094581237558569040e-08
8.730229710857453461e-09
6.969690267615019828e-09
5.529529753272828141e-09
4.331099337672251327e-09
3.330313276128234713e-09
2.502867350918517115e-09
1.833341165050780326e-09
1.307485536355026961e-09
9.084651253057401860e-10
6.162429256223583221e-10
4.092741911257709719e-10
