# bin_10_10
8.729201890319192402e-09
9.892907648241390018e-09
1.103243370761564517e-08
1.206018495661543190e-08
1.285898419807023342e-08
1.328356989066604458e-08
1.322022108286759853e-08
1.248720661512831211e-08
1.113917324198422727e-08
9.394112520218971661e-09
7.687292832914764268e-09
6.432762152285338615e-09
5.570446570632193621e-09
4.490131928886692855e-09
3.129239863633344558e-09
2.410182689402713801e-09
1.798115140831769865e-09
1.250211769847844669e-09
8.772898649939447230e-10
6.221916044785496989e-10
4.279185027531985950e-10
2.935812876617778443e-10
2.027526260319057277e-10
1.412178442035646516e-10
9.972887359293608132e-11
7.176578712345850859e-11
5.266893044711896757e-11
3.942831175878178503e-11
2.999809988219601483e-11
2.305932373427952099e-11
1.777730303558143528e-11
