# bin_3_2
4.897984606654458228e-09
5.152868055248688472e-09
5.244076445178653780e-09
5.118858567888708631e-09
4.732042235573408484e-09
4.137602200224619385e-09
3.443011534773600250e-09
2.827488600711098730e-09
2.396439851851826610e-09
2.040874534594404232e-09
1.568073653038212955e-09
1.117715982138383504e-09
8.807566152225505480e-10
6.337134791816481647e-10
4.665724608206813213e-10
3.353745848010246551e-10
2.452052053966466651e-10
1.799920487738141602e-10
1.339580882582327882e-10
1.014746878976338576e-10
7.820595351105679480e-11
6.120221605308474780e-11
4.836482625694053716e-11
3.832635023232907942e-11
3.024300049611462983e-11
2.360227718968808929e-11
1.810811257701123750e-11
1.359131696308894669e-11
9.944579377091302888e-12
7.080930245440583233e-12
4.908027518415964053e-12
