# bin_10_3
1.970749318110309570e-20
2.212652222998650994e-20
2.439647463808493126e-20
2.629917145902267194e-20
2.755588019282322161e-20
2.788565283593133807e-20
2.697452570231772361e-20
2.463528799108449670e-20
2.127511709805213280e-20
1.752992929865324138e-20
1.442762708352147104e-20
1.238820319716040488e-20
1.048844400015833087e-20
7.707649932805401999e-21
5.495634796841191278e-21
4.430394708618389331e-21
2.962023441258846106e-21
2.231088367974179874e-21
1.540223451079228071e-21
1.070598164297095817e-21
7.513006301980471830e-22
5.283416886046999012e-22
3.751926095012761922e-22
2.701295825971172108e-22
1.983808941282990262e-22
1.484643911761210210e-22
1.129733535880683436e-22
8.702657818886713866e-23
6.740336862954304621e-23
5.210852672367647598e-23
3.993197795080595385e-23
