# bin_10_11
1.691248207065651156e-08
1.917899159228695754e-08
2.140481965863925135e-08
2.342118952504410497e-08
2.500223676471360717e-08
2.586680113447481377e-08
2.579054344756440640e-08
2.442056584595956236e-08
2.183488849205893294e-08
1.845580590566779453e-08
1.510754666361891065e-08
1.261765837601509530e-08
1.092501515599670798e-08
8.858975847693385218e-09
6.195320252749422358e-09
4.733258898801833754e-09
3.567282700872714571e-09
2.459777418575338191e-09
1.740738552722975263e-09
1.231142375847059296e-09
8.453431034303229163e-10
5.793316703929008638e-10
3.992449453502171697e-10
2.774173426582701640e-10
1.953130292389530718e-10
1.400849453582210857e-10
1.024649634790672253e-10
7.647375640337773288e-11
5.804810718997680890e-11
4.455958280254956840e-11
3.434061395574636725e-11
