# bin_10_15
5.872209844394909155e-08
6.666988268900412410e-08
7.451855057722399819e-08
8.168764689402012433e-08
8.740110707801111963e-08
9.068666503700330840e-08
9.073130601630595852e-08
8.632238222347540867e-08
7.753617862565610613e-08
6.583738923618296532e-08
5.394618519631820413e-08
4.489513055199844231e-08
3.883836123000963229e-08
3.183445942227389924e-08
2.245608801789729760e-08
1.688177174507263507e-08
1.295631997106791029e-08
8.813376605623920098e-09
6.337649909511151293e-09
4.450022068689360673e-09
3.047073628013678522e-09
2.085894673407688862e-09
1.432118903487686568e-09
9.905605032783488888e-10
6.931955274259465792e-10
4.939041713123441545e-10
3.588072689785756279e-10
2.660912327026825851e-10
2.009529575714909773e-10
1.537523461667428960e-10
1.183461121408409814e-10
