# bin_4_6
1.085200700167582929e-07
1.180709415616354097e-07
1.252412295322042869e-07
1.286720020556161664e-07
1.271600954903983629e-07
1.192389000806160508e-07
1.056872046458229681e-07
8.880054309773305576e-08
7.279285523875845641e-08
6.114983502811157958e-08
5.256320193717806483e-08
4.169988342144117204e-08
2.951137139994512943e-08
2.284040402902808160e-08
1.689833026949339496e-08
1.208963769342064152e-08
8.693538396468759404e-09
6.271428765061679036e-09
4.504354906936034312e-09
3.269331075086692924e-09
2.408261615151096505e-09
1.804145659667401348e-09
1.375707189628372661e-09
1.065177999681617376e-09
8.327534056777441417e-10
6.532220157525776332e-10
5.105346377789580007e-10
3.949145531110265804e-10
3.006175746694364426e-10
2.241558024837870225e-10
1.631694366112100631e-10
