# bin_2_10
4.522817719403313395e-07
4.705864577927360106e-07
4.726128305881044418e-07
4.534935520333365569e-07
4.121078935621444623e-07
3.548989212102684499e-07
2.938534386381990172e-07
2.434084073713895091e-07
2.070528349283796105e-07
1.715904428110738892e-07
1.284934681686883202e-07
9.435201974136009413e-08
7.284748004939563745e-08
5.248351473324206392e-08
3.856761643231115882e-08
2.796885520834773536e-08
2.049290317839578859e-08
1.515722857307704594e-08
1.138605457272476921e-08
8.705683410722813746e-09
6.766076503806409302e-09
5.327229431543918718e-09
4.222497215237919426e-09
3.345473121827971825e-09
2.631250823346296220e-09
2.041182143340292415e-09
1.553240516417405643e-09
1.154584707679748507e-09
8.361498845828777948e-10
5.895008232554925651e-10
4.050026754492867915e-10
