# bin_6_2
1.673990307971762088e-14
1.831449659307471113e-14
1.956061636611845585e-14
2.026292522380942564e-14
2.023960389695738819e-14
1.922829786244595560e-14
1.725360903485730464e-14
1.464200178299162300e-14
1.199807194180999340e-14
9.983456850531775568e-15
8.619068449806649534e-15
7.053030332231706520e-15
5.007138326386973521e-15
3.773126538786835732e-15
2.906384808998657465e-15
2.014438749066681584e-15
1.475319621852566027e-15
1.060347104542100848e-15
7.555634212098912252e-16
5.444243141912843449e-16
3.975952255113294465e-16
2.952633476018656366e-16
2.231906263258294710e-16
1.716228904942304916e-16
1.335703367704465031e-16
1.045917558999322190e-16
8.183810057568397734e-17
6.353777485699316203e-17
4.865059783644193098e-17
3.655374877226869936e-17
2.684503896642676964e-17
