# bin_2_3
1.500138983322565447e-07
1.549606226986129083e-07
1.542426181392509236e-07
1.462805771895518244e-07
1.312799771291338431e-07
1.117664178991132448e-07
9.209903642439935452e-08
7.669799980076076751e-08
6.544858590025264541e-08
5.326636524428431112e-08
3.903718507181084794e-08
2.915631858192936813e-08
2.233946378241209340e-08
1.599307219591965323e-08
1.180370193894773987e-08
8.577418314362651941e-09
6.305373301872076744e-09
4.693750501201609297e-09
3.552006008179345104e-09
2.736137444262303493e-09
2.140761529948761900e-09
1.693901131203932618e-09
1.346181313034957144e-09
1.066846561687936974e-09
8.373501981072520123e-10
6.468544525721128069e-10
4.892900850947227671e-10
3.610517170204311404e-10
2.593590110998417865e-10
1.813597889336880149e-10
1.236455559686290470e-10
