# bin_13_6
3.764297479980048881e-17
4.275730204795093970e-17
4.781751612263909416e-17
5.245333926368522764e-17
5.616898471918152317e-17
5.834098760453654092e-17
5.844448326370018723e-17
5.569255816656689955e-17
5.009273210765608326e-17
4.258619266494301963e-17
3.489148213614505925e-17
2.899868558389282098e-17
2.509806585964604818e-17
2.065811287061662191e-17
1.457789550640175256e-17
1.091117433302322225e-17
8.433720931948415387e-18
5.697259030377785935e-18
4.120008302132872721e-18
2.891991985317894315e-18
1.977757073413187131e-18
1.352031790738924281e-18
9.267655110383712193e-19
6.401199165746519000e-19
4.471520008515680780e-19
3.179831854894722213e-19
2.305589861600428421e-19
1.706944681473552763e-19
1.287569807244067697e-19
9.846365681039344109e-20
7.580409618034334710e-20
