# bin_4_4
2.525853059292444658e-08
2.734738597324022139e-08
2.883104981367915317e-08
2.940237093970666948e-08
2.877376865180366399e-08
2.665738995530059600e-08
2.335246101232189513e-08
1.943778933608166704e-08
1.594292929424536885e-08
1.351231695617376485e-08
1.155796882708606222e-08
8.897107216944308089e-09
6.284651508420502044e-09
4.980092923719633617e-09
3.551561318279438449e-09
2.611883483116303359e-09
1.851133582946978191e-09
1.340511267550658471e-09
9.697616290285625956e-10
7.088218195130497127e-10
5.264980318890548066e-10
3.977942412189800302e-10
3.058517694636010928e-10
2.383455824051868284e-10
1.871111753784401971e-10
1.469997261329350522e-10
1.147622129904875563e-10
8.846427052655235926e-11
6.696923787647948633e-11
4.957492737198116717e-11
3.578121013684331153e-11
