# bin_12_9
9.505808877153512642e-11
1.080559395459166648e-10
1.209635709379991569e-10
1.328511166414676663e-10
1.424758037984728144e-10
1.482702751923189037e-10
1.488635460305863298e-10
1.423007111846308930e-10
1.283799232328974717e-10
1.094806862733197207e-10
8.977156602063114126e-11
7.444297072391115750e-11
6.437053341379273013e-11
5.333259153195576249e-11
3.788553626442243480e-11
2.805159503339415949e-11
2.192611996579577297e-11
1.469722954334611080e-11
1.074232192917404234e-11
7.495879929469309075e-12
5.117701049333261825e-12
3.498284868141479510e-12
2.392386262895616022e-12
1.647490786576188426e-12
1.146275289229358340e-12
8.115364967743939466e-13
5.856643551054926703e-13
4.316470010969098199e-13
3.243857478004246808e-13
2.474383597259265946e-13
1.902823836938605492e-13
