# bin_11_14
3.769292730320123902e-08
4.288639087966196954e-08
4.806691143693066075e-08
5.286797652742993259e-08
5.680144406182568536e-08
5.924917274253410734e-08
5.964386466463349203e-08
5.723701780207711073e-08
5.184165802690414747e-08
4.439093650920255458e-08
3.645419646669643947e-08
3.015570706497625282e-08
2.602361923308021300e-08
2.171739619453636857e-08
1.558913267611824597e-08
1.139055936150208891e-08
9.001267896161241752e-09
6.003925185961782671e-09
4.430860399917721444e-09
3.067361466601109256e-09
2.091734274236073363e-09
1.430651559574460178e-09
9.765168911154177518e-10
6.700322874593776942e-10
4.638360225336568279e-10
3.264899710852311824e-10
2.341492363841845126e-10
1.715001262939036152e-10
1.281866620393069483e-10
9.738683467854727522e-11
7.472306645422161255e-11
