# bin_8_4
2.007211873336493349e-13
2.238018932864700508e-13
2.446815831731459794e-13
2.610075270582333715e-13
2.698604071589446246e-13
2.688968278581159429e-13
2.544872189916460122e-13
2.274631535996784071e-13
1.922317409464646558e-13
1.573466400627342633e-13
1.313755756403671035e-13
1.136629010331943141e-13
9.215549962456718395e-14
6.462688696562429132e-14
4.939453402995955752e-14
3.736041517618098773e-14
2.595391369703836200e-14
1.858464798799785123e-14
1.330745311680427552e-14
9.333024062447866553e-15
6.580331339332534467e-15
4.693638159638083847e-15
3.396553620155679412e-15
2.501380117964184305e-15
1.877945502075391770e-15
1.433071424887951354e-15
1.106990771957056746e-15
8.600970244808049402e-16
6.673201915755972403e-16
5.134565486416384130e-16
3.895013395086943949e-16
