# bin_7_15
1.244332855833458615e-07
1.394603944406967429e-07
1.534377518219765188e-07
1.649672053737470940e-07
1.722747180641750097e-07
1.736757592674202911e-07
1.671052867085411992e-07
1.518330509530890987e-07
1.304531183424563882e-07
1.073316655223015987e-07
8.864416793844513318e-08
7.625118021663373543e-08
6.389726831684372415e-08
4.645830703764001345e-08
3.368950015804235737e-08
2.672677686843839935e-08
1.806019335842638519e-08
1.341840965355559666e-08
9.350590175989733310e-09
6.518712156152272009e-09
4.576409348812115410e-09
3.227688084330119875e-09
2.302091008299213273e-09
1.666330552811581260e-09
1.230166941251826104e-09
9.249627279920045258e-10
7.064167883168430638e-10
5.452972860574294088e-10
4.224915889545049752e-10
3.262098477796262311e-10
2.493357580273465223e-10
