# bin_5_2
2.348342504533709383e-12
2.544489112882918877e-12
2.685051585228419727e-12
2.741014646010712387e-12
2.686340290072679336e-12
2.491955899254368038e-12
2.185675981652738746e-12
1.819514993264650204e-12
1.490830396097008711e-12
1.262998484280863579e-12
1.083448719543993081e-12
8.359896613674670196e-13
5.873560383079710473e-13
4.677281888826040515e-13
3.326054851950371444e-13
2.454504715431534539e-13
1.731618753726678257e-13
1.255227404382752819e-13
9.080647660554362550e-14
6.633618856384792733e-14
4.924227809854194866e-14
3.717873186636959449e-14
2.857128248573960782e-14
2.225895696166448040e-14
1.747377344945575314e-14
1.373119206753003095e-14
1.072492702675132116e-14
8.272702499828315515e-15
6.267523887661311227e-15
4.643597797897054168e-15
3.354315080767191430e-15
