# bin_8_11
5.496678679441361587e-08
6.189660107401970473e-08
6.849073259148075946e-08
7.415883871685077657e-08
7.813456531287020234e-08
7.957383875621892162e-08
7.769100201033168235e-08
7.169764164722489535e-08
6.256169831868885827e-08
5.186518176041106633e-08
4.254347464749830716e-08
3.625509110599095516e-08
3.103537613947239916e-08
2.349255471400528876e-08
1.645595613221216947e-08
1.324409665274980930e-08
9.066223584221250287e-09
6.744043007201098095e-09
4.608098164668017094e-09
3.229917076327032050e-09
2.256547131790197789e-09
1.576638519525403128e-09
1.110104431773735597e-09
7.907600287206818404e-10
5.739443705279648926e-10
4.247170202984642586e-10
3.200286179236745933e-10
2.447855111042603151e-10
1.888865559942476654e-10
1.459974415925279318e-10
1.122197750407001883e-10
