# bin_8_8
1.119926881188821285e-08
1.257719564940012636e-08
1.387180978349874667e-08
1.495948435770407553e-08
1.568200248079892465e-08
1.587856611678239127e-08
1.537306217467052665e-08
1.405468607929712674e-08
1.215054689446851279e-08
1.001893001573108706e-08
8.243989783558565361e-09
7.072051945116532869e-09
5.992481436156537311e-09
4.419045206890197860e-09
3.146039754861156358e-09
2.533038876113126016e-09
1.700372418179325653e-09
1.277507330063552455e-09
8.807281406744563992e-10
6.130720165405850286e-10
4.300205877003540124e-10
3.022567088176475996e-10
2.144601856225454594e-10
1.542367256581058179e-10
1.131319702420396011e-10
8.456626083356422179e-11
6.428333767300490345e-11
4.948063575473491133e-11
3.830614030102516714e-11
2.961085959569964337e-11
2.269662989436296076e-11
