# bin_7_1
6.529180891594629168e-21
7.171939976172203982e-21
7.698022319684911610e-21
8.024496687866023449e-21
8.074607442208907473e-21
7.750153347155666564e-21
7.024596261015756664e-21
6.020913915185860270e-21
4.947736450131444249e-21
4.089016305026997417e-21
3.519770547678657812e-21
2.940113183569402248e-21
2.129226861863925037e-21
1.555069631302593174e-21
1.233145075654877293e-21
8.394235373880752236e-22
6.276302092479695979e-22
4.445216660771955367e-22
3.154640953578978369e-22
2.265830116397301805e-22
1.644142485572601742e-22
1.211780877208430780e-22
9.085699569976780397e-23
6.937919821902700593e-23
5.371792204373629932e-23
4.193942540194103391e-23
3.280058661770129505e-23
2.551348761378175829e-23
1.961211091041207440e-23
1.481830351359930691e-23
1.095877702875753991e-23
