# bin_9_3
2.818585659615179983e-18
3.148992525957764835e-18
3.451235778186442774e-18
3.692767542760631945e-18
3.832781819879029418e-18
3.836804520317131478e-18
3.654068446689493815e-18
3.285596950447535058e-18
2.792949461176341983e-18
2.288611553186334268e-18
1.901918322978647677e-18
1.644255764980831261e-18
1.352351286502102991e-18
9.576856186163599877e-19
7.172136625687731080e-19
5.552621602274633381e-19
3.786974784049419379e-19
2.762676960545201850e-19
1.962082110137562464e-19
1.370399335826020644e-19
9.638027043101368618e-20
6.841297623708133911e-20
4.924343592493038149e-20
3.604212851050786456e-20
2.690305445231757516e-20
2.042943995399824866e-20
1.572541270329653414e-20
1.219725471412177350e-20
9.464545226123047628e-21
7.295337646009459561e-21
5.551569695414452076e-21
