# bin_5_4
3.594605721922270362e-09
3.927597273806513127e-09
4.188068015923041686e-09
4.329887691199908687e-09
4.314210870674244515e-09
4.085751212562054731e-09
3.655357689286778745e-09
3.093996920456256900e-09
2.534853627486124115e-09
2.114165669788887269e-09
1.824490528415961800e-09
1.482051277732610032e-09
1.049689846163320502e-09
7.974096874902560642e-10
6.076905227148684344e-10
4.248379376614248314e-10
3.092301767954615184e-10
2.226352663692326042e-10
1.589600924527214950e-10
1.147300921008957581e-10
8.396478953234873542e-11
6.248785251886455825e-11
4.733855977096120146e-11
3.646583962042411706e-11
2.841496863228476645e-11
2.226231607986573097e-11
1.741625225543623696e-11
1.351081416511898129e-11
1.033118060241426349e-11
7.748408736442078181e-12
5.678319636812460010e-12
