# bin_14_9
5.656925003312039605e-13
6.451653614195385572e-13
7.253227310008970068e-13
8.007515137004937869e-13
8.643065076429214446e-13
9.068309452845302232e-13
9.189148676124454623e-13
8.903674081517908068e-13
8.143094849960105865e-13
7.042082072950853100e-13
5.804788867120767719e-13
4.774543918676942352e-13
4.099778744932014950e-13
3.479853807231594832e-13
2.560320667986825034e-13
1.815086961526092781e-13
1.468651925968439986e-13
9.710981698907469660e-14
7.307687805319773434e-14
4.969811794654013676e-14
3.382669972216097446e-14
2.316056250950683310e-14
1.574593514875126209e-14
1.071310464203750981e-14
7.327134983989484459e-15
5.085053005635790648e-15
3.590254471345533518e-15
2.587960491099030226e-15
1.906969413721170496e-15
1.433109831133474359e-15
1.092690904164187718e-15
