# bin_5_7
8.290100932780473030e-08
9.123749253761102712e-08
9.816518082755743338e-08
1.026426096219062930e-07
1.036470364533402785e-07
1.000067487689204581e-07
9.118134412824973979e-08
7.862782182072985470e-08
6.483649260650033653e-08
5.346576343122226753e-08
4.582426920734727665e-08
3.854422701213490549e-08
2.841313297125640389e-08
2.049088937741093738e-08
1.627485247812323946e-08
1.118842486486892349e-08
8.334680419231061399e-09
5.860264607985623972e-09
4.170666785304965445e-09
2.989133542690715184e-09
2.161226409833696087e-09
1.585699820064780069e-09
1.182962026140515224e-09
8.990242622556381060e-10
6.934029254851831047e-10
5.399191881569018462e-10
4.217512532868781114e-10
3.281313245102608337e-10
2.526256221500423984e-10
1.913880157018854154e-10
1.420569243801680025e-10
