# bin_8_3
4.657641093847789652e-16
5.177290425941279762e-16
5.639021117248826952e-16
5.987122170163855829e-16
6.154298817995020129e-16
6.087497610278753320e-16
5.706829787881114404e-16
5.055417655271198195e-16
4.237845337518325511e-16
3.466865535285475137e-16
2.916405829065993574e-16
2.520310419007081239e-16
1.995034625476749620e-16
1.388061960542538555e-16
1.090399659197227597e-16
7.939966753851452307e-17
5.695269347608755193e-17
3.982984256166679978e-17
2.865204615302732179e-17
2.023793925271216743e-17
1.435827538295301328e-17
1.031984901380424032e-17
7.527021418761752351e-18
5.592627373668036984e-18
4.232723164070878843e-18
3.251295203897214749e-18
2.522522480264369600e-18
1.963290348228365120e-18
1.521929527811340913e-18
1.167317634029865069e-18
8.810831252645032033e-19
