# bin_12_9
7.467754229253410104e-11
8.488067370744066386e-11
9.500843409254455737e-11
1.043298350749670477e-10
1.118676618988375607e-10
1.163899161258772968e-10
1.168240151534810503e-10
1.116307107054516564e-10
1.006727868113341638e-10
8.581959185267317885e-11
7.036257116616041700e-11
5.836376554664834501e-11
5.047326028321923200e-11
4.178545909682533679e-11
2.965791902446235275e-11
2.198857940274291198e-11
1.716429723071599281e-11
1.151550509695070295e-11
8.406238765746379797e-12
5.870083279590071503e-12
4.008490468261858916e-12
2.740053039861428547e-12
1.874354656905409417e-12
1.291223897246361638e-12
8.988337578492811800e-13
6.367023424538665887e-13
4.597586699780712839e-13
3.390429704615721791e-13
2.549132103080940178e-13
1.945086865287935768e-13
1.496015050963372226e-13
