# bin_1_10
7.322453964153538128e-07
7.178382020046960734e-07
6.704390156373063591e-07
5.942588277595580636e-07
5.032797867552812353e-07
4.169709199406169119e-07
3.487441743272881692e-07
2.926113941193670580e-07
2.329528366779124652e-07
1.733344557305694027e-07
1.299824814199743439e-07
9.808343253779327283e-08
7.156913286384154803e-08
5.277404288191845589e-08
3.890226959570727651e-08
2.902978582773061173e-08
2.198858085732422983e-08
1.695185774644853512e-08
1.328714023368754933e-08
1.054575454320499841e-08
8.424718581805266392e-09
6.725400668952553438e-09
5.327041284222487941e-09
4.159958488602487319e-09
3.185572344140045452e-09
2.382453160751477242e-09
1.736050169671716778e-09
1.231714061636933120e-09
8.517362866411670657e-10
5.753468241297769457e-10
3.807737895601038487e-10
