# bin_10_10
8.817478875811558985e-09
9.989489520036044743e-09
1.113533816344469875e-08
1.216624773020154283e-08
1.296354100910161924e-08
1.338053938202901275e-08
1.330314034403758882e-08
1.254870861169458040e-08
1.118000555875263709e-08
9.417490677333469604e-09
7.705581523320461723e-09
6.454968105827797926e-09
5.589226027221328309e-09
4.490044393975379824e-09
3.124805337785843892e-09
2.416757296161452035e-09
1.792844026201890561e-09
1.252513817539571852e-09
8.752324404051628849e-10
6.212687590511542755e-10
4.276877620829963937e-10
2.936652929422082728e-10
2.030479785840986698e-10
1.416041601252166930e-10
1.001666118444853118e-10
7.220750390144253722e-11
5.308612431981603856e-11
3.980249450955315064e-11
3.031782917764709731e-11
2.332000819730736381e-11
1.797987871497771733e-11
