# bin_14_7
1.161367305730189936e-16
1.322588795121651700e-16
1.484095437936653127e-16
1.634666508512893441e-16
1.759397110233108181e-16
1.839343424395983947e-16
1.856346007108647051e-16
1.787912644798707609e-16
1.625033837883883727e-16
1.396429327739957255e-16
1.147918052979536346e-16
9.472663707253422399e-17
8.164433734281394446e-17
6.862224622840126811e-17
4.963995196483497481e-17
3.583821458598966968e-17
2.866073945057734538e-17
1.896821653287467443e-17
1.415438948952618021e-17
9.735116426839266586e-18
6.626501109495430187e-18
4.533012754725799913e-18
3.086909717908503181e-18
2.111088213467360979e-18
1.454856616993119249e-18
1.018816106230992388e-18
7.266141433755013514e-19
5.292796314752299992e-19
3.937524017836846852e-19
2.981517462880858282e-19
2.284011983493584139e-19
