# bin_4_11
2.315526735071207569e-07
2.520085033853346245e-07
2.674163217135612974e-07
2.748827693431981324e-07
2.718187517260843487e-07
2.551242280143943276e-07
2.263487348061000523e-07
1.903838671567517716e-07
1.561257737928852825e-07
1.310633611943324129e-07
1.126012673793412365e-07
8.951776116029270141e-08
6.351720880696556152e-08
4.897827523062930557e-08
3.635512017993951247e-08
2.595842442764159628e-08
1.870694551338718453e-08
1.347486774482223475e-08
9.674622066351072798e-09
7.019103333666658426e-09
5.166832036538366205e-09
3.867697466162358717e-09
2.946757714968525490e-09
2.279972412117119684e-09
1.781518805857676712e-09
1.396987658956047888e-09
1.091735252279312030e-09
8.446032254657232129e-10
6.431466762032845120e-10
4.798109189509648779e-10
3.495061806006024094e-10
