# bin_7_10
7.021471584586636672e-08
7.859577847370775489e-08
8.634139207989974234e-08
9.265400362117476310e-08
9.652739916764410531e-08
9.704394110506626095e-08
9.300495905716546101e-08
8.416529495125240453e-08
7.202226162517253408e-08
5.916501713760657993e-08
4.897677838940654730e-08
4.220773681464468876e-08
3.512175497665577173e-08
2.529181591870268101e-08
1.855129194229341440e-08
1.459383110420430158e-08
9.886230010061790738e-09
7.305408023686000121e-09
5.122792976804654530e-09
3.572408206779780251e-09
2.510543529842273724e-09
1.775115478476402892e-09
1.270469410409816415e-09
9.234993330449855063e-10
6.846714955529578476e-10
5.167807369468224230e-10
3.958874778900966679e-10
3.061714430737834512e-10
2.373628320061348640e-10
1.831533494861255899e-10
1.397539747181525359e-10
