# bin_3_3
3.691737877132870297e-08
3.904333590747041417e-08
3.998653407580686434e-08
3.936226746937313780e-08
3.675928978115801170e-08
3.246104191401963978e-08
2.721457704942486216e-08
2.232806192729335506e-08
1.879135422690577962e-08
1.608917508348552493e-08
1.266813898055103428e-08
9.022262555703350572e-09
6.998630145476504816e-09
5.167558814673667409e-09
3.734914060214461226e-09
2.707683888600322371e-09
1.973087377973824574e-09
1.440424526313372427e-09
1.066033007345688936e-09
8.024548608049715300e-10
6.147189669318239316e-10
4.785282253164084270e-10
3.768148598648912685e-10
2.981204310932514280e-10
2.353275332402762133e-10
1.840702813163272737e-10
1.417786926345247887e-10
1.069841857241917867e-10
7.878048805765529865e-11
5.648151448812840754e-11
3.941545815382539519e-11
