# bin_12_3
4.816834354847768641e-25
5.443970072201431323e-25
6.050483268417464397e-25
6.586661945402661877e-25
6.986593093089621244e-25
7.171011727397204013e-25
7.078597724589925270e-25
6.616097970122692609e-25
5.843919176292276421e-25
4.884915169304273410e-25
3.996130404268562911e-25
3.372744024647063221e-25
2.915409646015830134e-25
2.285220103897957818e-25
1.581220410101621151e-25
1.255474096640995998e-25
8.945507521775941305e-26
6.469168995866246659e-26
4.413492632330921710e-26
3.133011720954743365e-26
2.172109580175261065e-26
1.502736395137788727e-26
1.047403955544899833e-26
7.368868780614918521e-27
5.271191852025072208e-27
3.844602796422819556e-27
2.858968353306717209e-27
2.164695278699166750e-27
1.660398588903259397e-27
1.281605374991377476e-27
9.880088842907296834e-28
