# bin_4_5
6.840240995395461169e-08
7.418030319329608881e-08
7.836539100055124921e-08
8.011710606618772629e-08
7.866551693716121241e-08
7.318047234623252817e-08
6.436511226011823656e-08
5.374792031531874173e-08
4.407276184108913201e-08
3.723633840551681034e-08
3.190725667778533330e-08
2.482746773933444298e-08
1.754113851519691012e-08
1.378497575130181559e-08
9.965009772162081905e-09
7.251962149793195449e-09
5.166027207075539315e-09
3.738076011888728158e-09
2.697019490961125826e-09
1.966259940925377635e-09
1.456257528115746933e-09
1.097071455352956712e-09
8.411325125998109674e-10
6.540601478027067442e-10
5.127569747086738775e-10
4.026367822101291906e-10
3.144649170253636134e-10
2.426974052784714590e-10
1.840779244995485272e-10
1.366077192166203678e-10
9.888862095414315472e-11
