# bin_5_6
5.018815169294680582e-08
5.516237354920536764e-08
5.925406386382960329e-08
6.182921766514286264e-08
6.228459515965924348e-08
5.989177200341205849e-08
5.440676808166769829e-08
4.674579780197982592e-08
3.847848122409333276e-08
3.178275490084970349e-08
2.729638778423715318e-08
2.284153288399864632e-08
1.668289320222316066e-08
1.212838900836319906e-08
9.601111147715377712e-09
6.582799439461490576e-09
4.904883474739596506e-09
3.461342647259686266e-09
2.461468772003529755e-09
1.766821377556000634e-09
1.280485734470357407e-09
9.420990246371433515e-10
7.049560596717468558e-10
5.372632954739190280e-10
4.153109623213221456e-10
3.238624067730467722e-10
2.531280296370796206e-10
1.968775208466123124e-10
1.514065073964920471e-10
1.145012088081241724e-10
8.478987951403890643e-11
