# bin_3_6
-6.766133497501846422e-11
-7.435068249099998759e-11
-7.984241742524409049e-11
-8.327855148196597920e-11
-8.385660894201846063e-11
-8.056619962447132692e-11
-7.309528081722727822e-11
-6.271295361350123684e-11
-5.155233199379448565e-11
-4.257927389624558311e-11
-3.663680550779742764e-11
-3.065864913103003229e-11
-2.225182236218492713e-11
-1.620339942601966800e-11
-1.287975976871797311e-11
-8.757187801905823435e-12
-6.558928049103863996e-12
-4.637968913696195714e-12
-3.290559136661357173e-12
-2.362931924074572111e-12
-1.713633780372252925e-12
-1.262079650131548991e-12
-9.455265429288490969e-13
-7.215065239553405945e-13
-5.583398995425412167e-13
-4.357747965995686090e-13
-3.407907031650322871e-13
-2.651203950047709005e-13
-2.038699575889230562e-13
-1.541188080943899373e-13
-1.140532469354837553e-13
