# bin_3_2
-1.718217054175790475e-08
-1.815681605216527776e-08
-1.857520701491566692e-08
-1.826063675739127539e-08
-1.701682351092277880e-08
-1.499429910015653518e-08
-1.253976719738063865e-08
-1.027956515156455216e-08
-8.667840125953715426e-09
-7.430782880782609086e-09
-5.817434883240073971e-09
-4.120882282306557739e-09
-3.227648371568775011e-09
-2.359365016760472072e-09
-1.717899526618322916e-09
-1.237945620660931144e-09
-9.044724019977371531e-10
-6.611862383901036305e-10
-4.898718661179276908e-10
-3.693129101064003215e-10
-2.833460770862735805e-10
-2.209033807879322049e-10
-1.741494904538049234e-10
-1.378801690946871131e-10
-1.088687556865723483e-10
-8.513970699410533810e-11
-6.553728170878294416e-11
-4.940210738511597088e-11
-3.632709642999333931e-11
-2.600031517640529834e-11
-1.811089449516430735e-11
