# bin_10_6
-2.076382210103986041e-11
-2.341948764567638334e-11
-2.596480070042000317e-11
-2.818056253026389053e-11
-2.977949737489964395e-11
-3.042936649016233897e-11
-2.985386890218770498e-11
-2.769721864021194659e-11
-2.429338406001578836e-11
-2.019751126516104281e-11
-1.653729023527290207e-11
-1.404133179730659061e-11
-1.209084107531838741e-11
-9.281962305664033091e-12
-6.440063341382181398e-12
-5.186494209589063026e-12
-3.585615410828610083e-12
-2.656009373281090567e-12
-1.801850674817918107e-12
-1.268595501563029958e-12
-8.845990552535088321e-13
-6.162995005876871102e-13
-4.321691284667082574e-13
-3.062234182824970323e-13
-2.209650198683449759e-13
-1.625867416130101948e-13
-1.219003287123299945e-13
-9.290591559968323960e-14
-7.156046232052125918e-14
-5.531554864132998591e-14
-4.259290142861087400e-14
