# bin_4_10
-9.984473924171307135e-16
-1.122320212577751929e-15
-1.239216737681283830e-15
-1.338207683494687465e-15
-1.405251765065644256e-15
-1.425612070180725793e-15
-1.384104352419446015e-15
-1.269021448720471749e-15
-1.100246440533889554e-15
-9.082958640102828244e-16
-7.462524212880205370e-16
-6.391722235502059723e-16
-5.440828776971953395e-16
-4.040860598518451125e-16
-2.853889050961425597e-16
-2.310071537163574987e-16
-1.549056076905237272e-16
-1.168072356691387138e-16
-8.011841890686313914e-17
-5.575525025029056221e-17
-3.909920875412125346e-17
-2.744704036848746842e-17
-1.942888207991143966e-17
-1.393150223975348978e-17
-1.018763729703776080e-17
-7.593808384326034517e-18
-5.759068563571028977e-18
-4.426319855622088133e-18
-3.424867324424683025e-18
-2.648523427482911166e-18
-2.032551822480911612e-18
