# bin_1_11
-4.460817147964869896e-30
-5.017868382653105200e-30
-5.545327825561862620e-30
-5.994725648789743633e-30
-6.303543082441645648e-30
-6.404658618182573991e-30
-6.232189996877074572e-30
-5.728278083379763129e-30
-4.978768266783189408e-30
-4.115907775118158843e-30
-3.378656399564525013e-30
-2.888740162159868351e-30
-2.465951654458914734e-30
-1.844327061426755551e-30
-1.296429213630613099e-30
-1.049683949630401115e-30
-7.073344850895416484e-31
-5.322323295497309012e-31
-3.638674000245612421e-31
-2.537001022596742311e-31
-1.777530885379782905e-31
-1.246121649320753672e-31
-8.803177642434480030e-32
-6.296189273310570911e-32
-4.591398039726223440e-32
-3.413321574477906610e-32
-2.582686062736597294e-32
-1.981771550906447059e-32
-1.532142490588347099e-32
-1.184867963575547971e-32
-9.100148856562341426e-33
