# bin_4_7
-1.214083868246477947e-10
-1.347364369190091141e-10
-1.464625444524799434e-10
-1.551208229904697613e-10
-1.589782364879170268e-10
-1.566320671424595692e-10
-1.461206936838715338e-10
-1.288442906278486182e-10
-1.075979682025895587e-10
-8.804524542971788285e-11
-7.435524382878630204e-11
-6.414052699945135773e-11
-5.011222999679728271e-11
-3.484983902409721103e-11
-2.768613860408272178e-11
-1.977838065932414380e-11
-1.441445938553034201e-11
-1.000662335116833157e-11
-7.188822123018592314e-12
-5.096592824655600253e-12
-3.629988076300458446e-12
-2.619012836675814471e-12
-1.917875989814904939e-12
-1.431219904939666525e-12
-1.087383727470145372e-12
-8.377777128088061348e-13
-6.511972497476461175e-13
-5.070945950021084422e-13
-3.928088081019558487e-13
-3.007353102133701259e-13
-2.263811571124119754e-13
