# bin_2_2
-4.923389179476951656e-08
-5.111783112481903709e-08
-5.121120439307874167e-08
-4.893362808225962503e-08
-4.421751019164094154e-08
-3.783146265694865379e-08
-3.114925978429775944e-08
-2.581971132246456235e-08
-2.211366344998702793e-08
-1.827462996337861096e-08
-1.338655817928987816e-08
-9.892639252480165039e-09
-7.705044280353809693e-09
-5.449326757649372192e-09
-4.050472917314069023e-09
-2.931301091766480694e-09
-2.148061118309893560e-09
-1.594134529314191659e-09
-1.202036456425557013e-09
-9.228409460671967466e-10
-7.200533546495706871e-10
-5.688733975571532261e-10
-4.519749437022570124e-10
-3.585428301611342943e-10
-2.820163233560132133e-10
-2.185273869858732457e-10
-1.659133218390990669e-10
-1.229204195172110052e-10
-8.864276528144641041e-11
-6.219938705263275665e-11
-4.252768538610665735e-11
