# bin_2_6
-3.459072081550779220e-13
-3.783481983519851741e-13
-4.039635007233131811e-13
-4.182999871663172268e-13
-4.176196595363116264e-13
-3.964901310172835943e-13
-3.555413480492984320e-13
-3.015302545858166868e-13
-2.470412884080633785e-13
-2.056555933178896732e-13
-1.775786241417296098e-13
-1.451093432757402059e-13
-1.028880987008846435e-13
-7.769649654364446409e-14
-5.972297329020525179e-14
-4.145423734402197910e-14
-3.031260646146393018e-14
-2.180745428216410244e-14
-1.554428034474559330e-14
-1.120300009983093290e-14
-8.185178406645065786e-15
-6.081510906168932043e-15
-4.599451318098595921e-15
-3.538325164220037576e-15
-2.754691780671416748e-15
-2.157438703587447958e-15
-1.688126916913417667e-15
-1.310466553029472201e-15
-1.003159587159942367e-15
-7.534502411588515616e-16
-5.530804563401363542e-16
