# bin_1_8
-4.408640870922327401e-22
-4.880618643958270836e-22
-5.289394812273534236e-22
-5.581039867733772016e-22
-5.694548807561018343e-22
-5.576214682537953607e-22
-5.164296416786417645e-22
-4.522103261734407626e-22
-3.757297859905343794e-22
-3.078009574515974630e-22
-2.614138906374708034e-22
-2.244786951835927677e-22
-1.719338322767831251e-22
-1.200946263708796221e-22
-9.648492998031023693e-23
-6.724025009516202610e-23
-4.995629707954074390e-23
-3.456519877081115321e-23
-2.471178683003816603e-23
-1.760637739660219082e-23
-1.261086361026960810e-23
-9.148474049510292184e-24
-6.738959013220438055e-24
-5.060244369983242315e-24
-3.865157595451422696e-24
-2.989931815077013610e-24
-2.329323769320923750e-24
-1.814495806238563712e-24
-1.403550381506871394e-24
-1.071404102466787104e-24
-8.031548950768540266e-25
