# bin_1_4
-1.470398840464468065e-11
-1.560587993968210095e-11
-1.604847827655046939e-11
-1.588566788749487061e-11
-1.492595812668261711e-11
-1.325602343476806827e-11
-1.115260489884461565e-11
-9.135876842019989754e-12
-7.658765090595776031e-12
-6.592256546689638992e-12
-5.263192337892783613e-12
-3.725767735237955559e-12
-2.879667819960133066e-12
-2.151599376441335846e-12
-1.541474378283825642e-12
-1.118866724061902046e-12
-8.159433417420799165e-13
-5.937850527526331252e-13
-4.379596591924174383e-13
-3.285408464529818984e-13
-2.508686273563631519e-13
-1.947634872856436859e-13
-1.531075096640191143e-13
-1.210629376480306657e-13
-9.561683628615571095e-14
-7.491140450312177108e-14
-5.784479706688548137e-14
-4.378860770021683914e-14
-3.236181833576158097e-14
-2.328691513448101653e-14
-1.630611079292813816e-14
