# bin_9_10
-9.876255604515351300e-09
-1.119660043560562810e-08
-1.249132340722873767e-08
-1.366168940663545305e-08
-1.457540835304369390e-08
-1.506777469284500911e-08
-1.501020276364654551e-08
-1.419454152067915646e-08
-1.267574366802605953e-08
-1.069956621243045389e-08
-8.755191920851654518e-09
-7.319465476881839989e-09
-6.340438958468371694e-09
-5.126845090286708016e-09
-3.573687750445866065e-09
-2.744413996613310060e-09
-2.057690376543272803e-09
-1.424328864308094429e-09
-1.002008076281021675e-09
-7.111361641185408965e-10
-4.886567733857496435e-10
-3.348562898130273367e-10
-2.310320283621008047e-10
-1.607453291213527974e-10
-1.133638920894602887e-10
-8.145978810617224028e-11
-5.969854357214942074e-11
-4.463664371454849628e-11
-3.393233328129073092e-11
-2.607394313310625454e-11
-2.010366559384868106e-11
