# bin_9_15
7.829547314834328471e-08
8.858442997730770188e-08
9.857927171282484090e-08
1.074768875600648722e-07
1.142101912717436341e-07
1.174890385096403415e-07
1.162899054056684742e-07
1.090803616826604936e-07
9.667693333533239747e-08
8.108242653915688692e-08
6.637338800591550548e-08
5.588023828448973779e-08
4.831238118470763922e-08
3.821796454109587678e-08
2.656354797627812135e-08
2.084991421825811004e-08
1.509973790381524853e-08
1.076907830213582715e-08
7.440986774008149825e-09
5.272614731609756578e-09
3.646590519734961156e-09
2.517070958015441520e-09
1.749539463370408630e-09
1.227290632708654328e-09
8.745500107412763418e-10
6.352775170885835833e-10
4.705188567254085037e-10
3.550011219096820910e-10
2.715895550539346810e-10
2.093308644341927617e-10
1.613475603454672564e-10
