# bin_1_10
7.298331455053030546e-07
7.156719339908980254e-07
6.685996409502339684e-07
5.927904853686153602e-07
5.021732968029709762e-07
4.161674652898905307e-07
3.481636451304711874e-07
2.921945595708265066e-07
2.326732600654763865e-07
1.731661354498505066e-07
1.298842512194811499e-07
9.802803732930790547e-08
7.154278166968962646e-08
5.276399244130460818e-08
3.890162028168772631e-08
2.903411058770457162e-08
2.199538998842022052e-08
1.695974872905113431e-08
1.329537974385349422e-08
1.055394850437663896e-08
8.432629418008475787e-09
6.732861238181768086e-09
5.333909161217873546e-09
4.166107695841202532e-09
3.190905772970200513e-09
2.386919242914018528e-09
1.739654604735851271e-09
1.234518186845075443e-09
8.538419541487619179e-10
5.768768221857732529e-10
3.818528709747773904e-10
