# bin_14_1
3.813270379794220259e-39
4.333508682125696832e-39
4.849080357044970157e-39
5.322489591816858771e-39
5.703517642499528984e-39
5.928914208749741121e-39
5.944749152026043706e-39
5.671422682433669783e-39
5.107006263792283648e-39
4.346827973043667774e-39
3.563382537830098196e-39
2.960609034889400476e-39
2.562233853484021072e-39
2.113256883265176361e-39
1.494784566333882250e-39
1.115650774409256959e-39
8.651322876008753938e-40
5.834752042443628883e-40
4.232649043555986533e-40
2.966454515625930932e-40
2.028376958497274234e-40
1.387144216666136939e-40
9.505590840742896908e-41
6.562099729155511332e-41
4.580228262748268527e-41
3.254045229796529736e-41
2.356929357497322250e-41
1.743131683352589363e-41
1.313704148786919713e-41
1.004009711590449849e-41
7.727530009468385459e-42
