# bin_2_5
3.136775920940034919e-07
3.245524985833462306e-07
3.236769473966192470e-07
3.078088045284347960e-07
2.771182362093801284e-07
2.367065680825171535e-07
1.954682016649787281e-07
1.626540628941467546e-07
1.385540459949959866e-07
1.131848394323421358e-07
8.362819519477723009e-08
6.218420615900174491e-08
4.766963206790436609e-08
3.426703959741537602e-08
2.523715187986045500e-08
1.834038673358707648e-08
1.347753245094943857e-08
1.001826315984189861e-08
7.568658533300389089e-09
5.820057875336479708e-09
4.546375434301531796e-09
3.592918606482572279e-09
2.853401077934966703e-09
2.261051564447266340e-09
1.775478126224709942e-09
1.372951228419990937e-09
1.040095771564619710e-09
7.689882483157525421e-10
5.536432454214768979e-10
3.880606024517539646e-10
2.651791719681209980e-10
