# bin_13_8
2.609314759634634886e-13
2.969431533226008443e-13
3.328686189548068043e-13
3.661677023990900240e-13
3.934506067253428946e-13
4.104246137653946569e-13
4.131696389188924682e-13
3.964160248193554659e-13
3.589250846497274176e-13
3.072175361901913268e-13
2.522355800908013553e-13
2.087416776302252907e-13
1.803252191831982497e-13
1.504596263201463128e-13
1.077334600449062612e-13
7.887463036551800182e-14
6.236280931956946287e-14
4.151742920913671163e-14
3.067323643794407198e-14
2.127074052306875382e-14
1.450303943165152290e-14
9.918314601988951052e-15
6.769921373366519841e-15
4.648701141949563011e-15
3.221570126718410403e-15
2.270429665607818271e-15
1.630464891615495803e-15
1.195874495177586024e-15
8.950227576469923903e-16
6.807493294673676153e-16
5.227903544787720846e-16
