# bin_10_1
2.205321445206991818e-29
2.470452826233884718e-29
2.716283378238237928e-29
2.917800081459424074e-29
3.043337560505179768e-29
3.063762628766595966e-29
2.940870612479697415e-29
2.664758393048443256e-29
2.282924566213356080e-29
1.875369566424335212e-29
1.551006296048127699e-29
1.337817111932155635e-29
1.117460976018966007e-29
8.045535076159208821e-30
5.878630062260458026e-30
4.659927715202508090e-30
3.131674396535216128e-30
2.330495528890040169e-30
1.633500707807746124e-30
1.137033773818638813e-30
7.988048127834829243e-31
5.642920024787261909e-31
4.036140692607786923e-31
2.931748245765500234e-31
2.172266930268599496e-31
1.638887372105433191e-31
1.255293574347355844e-31
9.709963655052730872e-32
7.531586457994525300e-32
5.816053209963871029e-32
4.442223152214645241e-32
