# bin_11_7
2.413975159958331072e-12
2.732755428102758057e-12
3.043114468045510205e-12
3.320470700395161190e-12
3.532002929716378640e-12
3.637464272841086648e-12
3.606129651413511821e-12
3.388555665987721601e-12
3.008118208621939482e-12
2.525353675624386904e-12
2.066191005766554613e-12
1.737164453472712406e-12
1.504205677114602859e-12
1.195802640813692321e-12
8.287976273483285044e-13
6.496958589204612051e-13
4.734027289181178177e-13
3.360284813698338176e-13
2.316817551718519438e-13
1.649318175623743751e-13
1.139196668547071177e-13
7.846377620636896896e-14
5.447205294857477917e-14
3.815284984183141783e-14
2.713602688049635193e-14
1.967431360688399720e-14
1.454646677555755237e-14
1.096091979013589536e-14
8.379831813055477590e-15
6.458942265415051649e-15
4.981691274326426053e-15
