# bin_3_1
1.286810584595826003e-10
1.334241146637070275e-10
1.334437706710547425e-10
1.271948976108720345e-10
1.146330471325738172e-10
9.782316223946094942e-11
8.046541275152405858e-11
6.681229855083370470e-11
5.731234028014516184e-11
4.716089074047572028e-11
3.432734934209189078e-11
2.553486100612294546e-11
1.982736089071775333e-11
1.401436128771502456e-11
1.041650589031905501e-11
7.556122978507983735e-12
5.538944977754858254e-12
4.116918103149257442e-12
3.110271533230598057e-12
2.392438004693759553e-12
1.869999313485389725e-12
1.479363256680621554e-12
1.176310951358593069e-12
9.333790968116952285e-13
7.339497197246280377e-13
5.682730178316847097e-13
4.309262767658448990e-13
3.187640714055677572e-13
2.294676091571052725e-13
1.607269567655472059e-13
1.097124785268843029e-13
