# bin_10_12
3.019631375811370987e-08
3.426160770477411760e-08
3.826132185736927116e-08
4.189437597450931625e-08
4.475761856702514998e-08
4.634821683985623748e-08
4.625958589714586028e-08
4.386088189664513266e-08
3.926763214037657977e-08
3.323425224454950860e-08
2.721883710533219459e-08
2.272128706146558864e-08
1.967428492057272084e-08
1.599579259513718037e-08
1.121207109804393382e-08
8.536737530240970110e-09
6.461837674536892361e-09
4.443127765804524560e-09
3.157155433959537811e-09
2.229449124161344448e-09
1.530286672948622760e-09
1.048850835056008244e-09
7.224202430823657239e-10
5.016256764412305098e-10
3.528071273194001774e-10
2.527543642521892145e-10
1.846518131194390998e-10
1.376536637805839121e-10
1.043906099449983999e-10
8.008717098995071855e-11
6.170999824773842034e-11
