# bin_3_12
3.410343583776149211e-07
3.644748953303034649e-07
3.781025222531303112e-07
3.782340680693085825e-07
3.606440063448041952e-07
3.252007725937382478e-07
2.777519822278416972e-07
2.287738697655869530e-07
1.900966899345042347e-07
1.628243648902443856e-07
1.337685447038377379e-07
9.770703868353031796e-08
7.254141700260343992e-08
5.599979118553205336e-08
3.959657299794960456e-08
2.918018761529700555e-08
2.097700397827439018e-08
1.521458006657077709e-08
1.114769562976756561e-08
8.284414899610154581e-09
6.263508397854312848e-09
4.816121157659294253e-09
3.757595951184143666e-09
2.957152242963876560e-09
2.331683196554515378e-09
1.829423668397369087e-09
1.418791557767041177e-09
1.081493555255894083e-09
8.065887146051713567e-10
5.866749120046948125e-10
4.155582451033407069e-10
