# bin_8_11
5.713975230895510984e-08
6.433273352296300745e-08
7.116781299862504287e-08
7.702753226274730709e-08
8.111160714038392776e-08
8.254904684333414130e-08
8.050607285977726221e-08
7.420026598242375015e-08
6.466430239695764921e-08
5.357418455378783102e-08
4.397898492081594362e-08
3.753063082209457167e-08
3.208436071444163263e-08
2.418857800625162615e-08
1.698917513273157855e-08
1.368182253716440372e-08
9.335088332798550613e-09
6.959645334542754878e-09
4.762181416883499753e-09
3.334818838175884016e-09
2.332123937637177794e-09
1.631581507140881615e-09
1.150566654088906647e-09
8.210996908039211748e-10
5.971675277230304486e-10
4.427572980486569435e-10
3.341891498745788935e-10
2.559391289379567026e-10
1.976359177765871352e-10
1.527856122014568365e-10
1.173987012867160478e-10
