# bin_7_10
6.989193299541205589e-08
7.825721800587809820e-08
8.599453971593481785e-08
9.230874414954896812e-08
9.619578478262050601e-08
9.673872785470884507e-08
9.273933243177812273e-08
8.394910858126565388e-08
7.185785426864833824e-08
5.904671223876874780e-08
4.889250955962835400e-08
4.214642012513395132e-08
3.507980669165444581e-08
2.526830609576418839e-08
1.853883410265520659e-08
1.458738718507428805e-08
9.884495527705731522e-09
7.305819885040393825e-09
5.124362982958697988e-09
3.574417541617565284e-09
2.512597232104895955e-09
1.777017221575771575e-09
1.272140764848393003e-09
9.249254498498799818e-10
6.858682199278447887e-10
5.177754585564889588e-10
3.967096000747666788e-10
3.068481443141981905e-10
2.379174321805554411e-10
1.836052387103974480e-10
1.401189455433580728e-10
