# bin_5_3
2.007811291946464575e-10
2.184389837187553143e-10
2.316641003630291688e-10
2.378982004375236612e-10
2.349982342570898713e-10
2.200682187091488550e-10
1.947826708540147411e-10
1.633029054176542552e-10
1.337206828234843794e-10
1.125286047015607836e-10
9.699766596402279822e-11
7.666361981528705939e-11
5.378750437930122334e-11
4.213429151983221079e-11
3.086772544840562510e-11
2.226253695479147119e-11
1.585523184360050057e-11
1.150060414236165959e-11
8.272705127857475443e-12
6.008800116519094970e-12
4.433206959133641189e-12
3.326761403791933105e-12
2.541537010045415834e-12
1.971153748968842102e-12
1.543153944775209386e-12
1.211687494107409705e-12
9.475521540066962450e-13
7.330724521672026290e-13
5.578910764856666384e-13
4.157288133749771599e-13
3.023043775313800103e-13
