# bin_12_8
4.375971958855508768e-12
4.970469566863751814e-12
5.558214462927311642e-12
6.096015603843871950e-12
6.525965942142949014e-12
6.775278120973962025e-12
6.783398623423474904e-12
6.458113977874996785e-12
5.803835943963082935e-12
4.929877437461650129e-12
4.039283566995428722e-12
3.361048595582284925e-12
2.910410903660290800e-12
2.389825230801830474e-12
1.683203689376838524e-12
1.265307814163078466e-12
9.738114114316345185e-13
6.602995445552705881e-13
4.755810650549219936e-13
3.345904282321515809e-13
2.290422788298332630e-13
1.566564818098465310e-13
1.075198099665533721e-13
7.437302765229957246e-14
5.204775130117043046e-14
3.708568775188776756e-14
2.694377747936113452e-14
1.998520548918150199e-14
1.509778819373286995e-14
1.155711795784421503e-14
8.901208084276076236e-15
