# bin_1_13
7.692992464068335289e-07
7.547210402906790875e-07
7.054584082821554237e-07
6.257958558005019377e-07
5.303302332233623860e-07
4.395170627460012834e-07
3.676350968669143196e-07
3.086083330233672534e-07
2.459386987551285813e-07
1.830974595857720791e-07
1.372839782578108887e-07
1.036487461754562665e-07
7.564523046749021614e-08
5.578450073712514064e-08
4.112271534271705004e-08
3.068517803642138803e-08
2.323972171543717607e-08
1.791403557540770092e-08
1.403988940182375439e-08
1.114282979141481444e-08
8.902270002865154405e-09
7.107837793970079419e-09
5.631499068874517416e-09
4.399318908577420539e-09
3.370348975807749864e-09
2.521884323065256099e-09
1.838600009320466663e-09
1.305143445480469560e-09
9.029532298017759736e-10
6.102148114403872071e-10
4.040079791194663733e-10
