# bin_5_13
1.902894300143369216e-07
2.098099080232962461e-07
2.262393615959211935e-07
2.371988143165557394e-07
2.402664077626449172e-07
2.328219228165428848e-07
2.132676106292270961e-07
1.847546586290989064e-07
1.527501805550951333e-07
1.257867666690932270e-07
1.075503456418621264e-07
9.097395365420497645e-08
6.783735951412506288e-08
4.855254390066953646e-08
3.862561066979130900e-08
2.671657527629691346e-08
1.984986323053308116e-08
1.392393558764029421e-08
9.922007789725421143e-09
7.097944002118487748e-09
5.118100889407924767e-09
3.743370527512465396e-09
2.782977713386108685e-09
2.107988417559716969e-09
1.621520170792123595e-09
1.260336482628996757e-09
9.837928998350585992e-10
7.657052842892288481e-10
5.903232920605564941e-10
4.482209140767484299e-10
3.336621388622193575e-10
