# bin_7_13
1.096067998834194400e-07
1.227900239994515304e-07
1.350167704645037991e-07
1.450457674747707441e-07
1.513059289272900290e-07
1.523375153753850820e-07
1.462842795113703813e-07
1.326472142587661222e-07
1.137391491737229715e-07
9.352554708785204477e-08
7.736680678451313264e-08
6.663695040637375135e-08
5.562868613670549338e-08
4.023960484747037476e-08
2.937941045481172671e-08
2.319746330032874108e-08
1.570553649424001843e-08
1.163348565863736120e-08
8.137740866202065164e-09
5.676007500445726848e-09
3.988123583480315175e-09
2.817538070973315775e-09
2.014031830499459519e-09
1.461677171521971661e-09
1.081919131373378284e-09
8.154210771129972999e-10
6.239389322152906050e-10
4.822111633971396103e-10
3.737840366547635550e-10
2.885292329085898224e-10
2.203479189969704391e-10
