# bin_11_10
2.817743252982197074e-09
3.200325130243309665e-09
3.578457397264658952e-09
3.924305424064576452e-09
4.200564222735317127e-09
4.360375402433449943e-09
4.364761674185387825e-09
4.154513838786219676e-09
3.732896395935226501e-09
3.170289674039255070e-09
2.597654294155739993e-09
2.161912041228354133e-09
1.871849106713804024e-09
1.536042580307941679e-09
1.081960430958419958e-09
8.138004417384463241e-10
6.256620394657244325e-10
4.247008852254441514e-10
3.056618980127152180e-10
2.150175971086658641e-10
1.472162235605657809e-10
1.007191386614579582e-10
6.914422141561751286e-11
4.783731275008002430e-11
3.348588342318474876e-11
2.386607984863565397e-11
1.734388385773697207e-11
1.286740374735815519e-11
9.722019567988235481e-12
7.442359713438162201e-12
5.731710578441331810e-12
