# bin_10_13
4.193064435831040735e-08
4.759101484528061835e-08
5.316854997274119597e-08
5.824627381037127208e-08
6.226596461793554726e-08
6.453011739214996715e-08
6.446765686480180739e-08
6.120472073676041574e-08
5.486381346990704283e-08
4.649217154655521752e-08
3.808702264252492461e-08
3.176248506180261009e-08
2.749686298555857197e-08
2.242237141562569635e-08
1.575333942469364532e-08
1.194149096089245098e-08
9.084599980977735914e-09
6.222897256152971446e-09
4.441271655457307152e-09
3.130174765372373329e-09
2.146874117663795245e-09
1.470972056670966350e-09
1.012116810801312061e-09
7.018963754746661259e-10
4.928465260057146620e-10
3.524421214553101457e-10
2.570010572879965535e-10
1.912573403825843035e-10
1.448419602702996777e-10
1.110231735238797686e-10
8.551973548723454640e-11
