# bin_14_6
-2.234468645256410421e-17
-2.543933696763851473e-17
-2.853509175498950575e-17
-3.141574604729141992e-17
-3.379364700401472460e-17
-3.530366515615514071e-17
-3.560133430228688955e-17
-3.424733381162597535e-17
-3.109022941479939365e-17
-2.668310654868362024e-17
-2.192436010165334782e-17
-1.810525532634273147e-17
-1.561446501349780119e-17
-1.309628273782707710e-17
-9.443655140515138920e-18
-6.844848998072590102e-18
-5.456821529717069401e-18
-3.616085575810787652e-18
-2.691247668774513738e-18
-1.855270191379979885e-18
-1.263312804383832749e-18
-8.640650407144194419e-19
-5.887439130550136371e-19
-4.030981114905866468e-19
-2.782311727388638517e-19
-1.952078297694481434e-19
-1.395051129681855839e-19
-1.018271573762050294e-19
-7.589107528887530118e-20
-5.754364197211676845e-20
-4.411555174066187133e-20
