# bin_10_9
-9.540935921763419984e-09
-1.081974240943777267e-08
-1.207545367660124055e-08
-1.321296193110805264e-08
-1.410478557450551007e-08
-1.459189971705941266e-08
-1.454898823782485149e-08
-1.377452226533534623e-08
-1.231454553080046431e-08
-1.040575117821543998e-08
-8.516041766652099501e-09
-7.112914855644022781e-09
-6.161222756419387666e-09
-4.996438296424044074e-09
-3.488325782219612106e-09
-2.668426771396288671e-09
-2.010639323259962497e-09
-1.386032089512556139e-09
-9.792107512517006671e-10
-6.940376534127081414e-10
-4.765458355075068724e-10
-3.263858719068302969e-10
-2.249625704498407356e-10
-1.563535534019195739e-10
-1.101104023286111155e-10
-7.900325312254190520e-11
-5.780880998549569485e-11
-4.316298926718593861e-11
-3.277670216564320021e-11
-2.516968848005286578e-11
-1.940311279645021186e-11
