# bin_12_6
-3.708906132981271790e-14
-4.205493809994980214e-14
-4.692825931905638309e-14
-5.133889533840901795e-14
-5.479074466522788940e-14
-5.666539332236165012e-14
-5.647773802657594108e-14
-5.344441820911842145e-14
-4.775716685608161933e-14
-4.033583849299937989e-14
-3.300835306452733532e-14
-2.758076257645775821e-14
-2.389135135557514601e-14
-1.935115852442905693e-14
-1.350006317343705013e-14
-1.034460302269393589e-14
-7.778328359577257940e-15
-5.371243070298436658e-15
-3.787616109518439578e-15
-2.686368258291734158e-15
-1.845148204602271264e-15
-1.263996128495859127e-15
-8.716049342948740193e-16
-6.060770618964193642e-16
-4.270927649998182160e-16
-3.066437110324002248e-16
-2.245344141015884188e-16
-1.677541961534328231e-16
-1.274493622373491034e-16
-9.789859212302308778e-17
-7.547509799033122854e-17
