# bin_11_12
-9.706269854459972759e-09
-1.106786613583745668e-08
-1.243997397375771413e-08
-1.372963787077141745e-08
-1.481399285427398734e-08
-1.553576937212214416e-08
-1.573497525602597552e-08
-1.523425148134817078e-08
-1.392163186832813842e-08
-1.202927733635906671e-08
-9.911820956353522685e-09
-8.155707337517914596e-09
-7.006775999867494806e-09
-5.940614676418745511e-09
-4.360794223800284842e-09
-3.098010428674419276e-09
-2.504312012738941077e-09
-1.654863772635181179e-09
-1.244790102211661166e-09
-8.477621142316350193e-10
-5.768926229250643445e-10
-3.949724238175317998e-10
-2.685760903701890407e-10
-1.828630919481769832e-10
-1.251914242048679814e-10
-8.699376825758570242e-11
-6.150823838742829613e-11
-4.440276531394676914e-11
-3.276408895051685398e-11
-2.465027906639433332e-11
-1.880865363475983771e-11
