# bin_2_11
-3.947056402388360183e-25
-4.443792406429768790e-25
-4.916015279598604382e-25
-5.321219188878385823e-25
-5.604313191756101888e-25
-5.704642933446008600e-25
-5.565748954634166481e-25
-5.130884141661900002e-25
-4.472580663974273863e-25
-3.703667061824759447e-25
-3.037272644539746967e-25
-2.591356202189312172e-25
-2.219229689196705579e-25
-1.673507809108348507e-25
-1.170238902657538732e-25
-9.473788927332624697e-26
-6.424250614437850677e-26
-4.819167222889115006e-26
-3.283046949401259704e-26
-2.294676238224403737e-26
-1.605926841751572810e-26
-1.123978909664065854e-26
-7.921926907863610229e-27
-5.648788841347179717e-27
-4.105809908388262024e-27
-3.042670142839107148e-27
-2.295827473877925647e-27
-1.758116631311501819e-27
-1.357800917872938759e-27
-1.049989191638600392e-27
-8.071149661867702992e-28
