# bin_1_10
-1.538897434227837206e-27
-1.724005879259421983e-27
-1.895805424458106298e-27
-2.036920352572435635e-27
-2.125342794977690051e-27
-2.140623094011188022e-27
-2.056377364308003901e-27
-1.864833248106618375e-27
-1.598924649976164872e-27
-1.313632599836936989e-27
-1.085396923116314029e-27
-9.354766736689123633e-28
-7.827777803175630003e-28
-5.649288911013753675e-28
-4.112412577971990096e-28
-3.268328475691337267e-28
-2.192903416691018538e-28
-1.635226190096530654e-28
-1.143553252559442753e-28
-7.955375088998142271e-29
-5.586955720907634443e-29
-3.943321506520562948e-29
-2.817239079520550547e-29
-2.043523317192992541e-29
-1.512147826268073377e-29
-1.139486405229232427e-29
-8.719292731361493167e-30
-6.740217437052865033e-30
-5.226518116764869074e-30
-4.036103285025562336e-30
-3.083570642940941141e-30
