# bin_2_12
-1.585157370447819365e-27
-1.791069544103813542e-27
-1.989979809163723474e-27
-2.165479809014074468e-27
-2.295846865300000838e-27
-2.355090823340592401e-27
-2.322895271789051092e-27
-2.169025620641069701e-27
-1.914164979938848937e-27
-1.598894055160461361e-27
-1.308095275447878079e-27
-1.104896631977209154e-27
-9.546692416213632579e-28
-7.463238983586637753e-28
-5.164918748093077719e-28
-4.109206144534527591e-28
-2.916235030853818206e-28
-2.115870014690262926e-28
-1.442028919049964704e-28
-1.022671932588794408e-28
-7.095771717281143267e-29
-4.913831850539720790e-29
-3.427799883547493172e-29
-2.413825537654723502e-29
-1.728727810968254500e-29
-1.262390364043265903e-29
-9.398017300233213356e-30
-7.122216534025049145e-30
-5.466143291446045745e-30
-4.219957789192636579e-30
-3.252653262410070368e-30
