# bin_15_2
-3.363639424506118445e-34
-3.830983676305668036e-34
-4.299359813408801568e-34
-4.736304535391584722e-34
-5.098695147275653135e-34
-5.331684287072582739e-34
-5.382526018349691683e-34
-5.186216332455249505e-34
-4.715957830975199442e-34
-4.054381591447272905e-34
-3.333628967441788142e-34
-2.750347726607445915e-34
-2.369734610495559286e-34
-1.993122242814721037e-34
-1.443721740828809289e-34
-1.040980390562941336e-34
-8.330213875341710304e-35
-5.514546948149271264e-35
-4.116497881645798103e-35
-2.828924031722897008e-35
-1.925815324451198807e-35
-1.317543195490756190e-35
-8.972208239446647887e-36
-6.134239605853128535e-36
-4.225269737246205276e-36
-2.957292118254333389e-36
-2.107791127212018856e-36
-1.534323264483485630e-36
-1.140736613437374250e-36
-8.633321707821307906e-37
-6.611304595684954940e-37
