# bin_10_4
-1.038717639539504296e-15
-1.168005631124081055e-15
-1.290217613787919286e-15
-1.394023879229279160e-15
-1.464841300624461028e-15
-1.487205114713318928e-15
-1.445492436850601716e-15
-1.326924652175888830e-15
-1.151841954327042917e-15
-9.515146229997304755e-16
-7.814009157481607800e-16
-6.687102140824889311e-16
-5.700753012949785258e-16
-4.248240081258638389e-16
-2.992832540871571883e-16
-2.423686882895319513e-16
-1.628422438493492802e-16
-1.227172149094122020e-16
-8.402471416375672821e-17
-5.851900749957866796e-17
-4.102315081133120635e-17
-2.878074828280468178e-17
-2.035370765564832865e-17
-1.457596157805332729e-17
-1.064475867811014918e-17
-7.924390950150519453e-18
-6.003056110939652237e-18
-4.610176010881661824e-18
-3.565669430011759446e-18
-2.757377388458722132e-18
-2.116816931776482765e-18
