# bin_11_1
-4.788113766511358825e-30
-5.387472441764864732e-30
-5.955689505548028691e-30
-6.440879128962293488e-30
-6.776019584482122266e-30
-6.888654078233441338e-30
-6.708568317771937170e-30
-6.171787936567127637e-30
-5.369085142916044240e-30
-4.440899111731023483e-30
-3.644325426717419737e-30
-3.113824513983043328e-30
-2.660779731065900198e-30
-1.995133432286224597e-30
-1.400164168754964271e-30
-1.133625872680668601e-30
-7.653978626743150242e-31
-5.753762929852510111e-31
-3.929375077997405048e-31
-2.741799788799905866e-31
-1.920358042944689223e-31
-1.345577797892299549e-31
-9.499182210354327565e-32
-6.787502767014242029e-32
-4.944739994839382794e-32
-3.672419559235519660e-32
-2.776317391378392328e-32
-2.128999026212236538e-32
-1.645394541297238482e-32
-1.272387938179322558e-32
-9.774494532944958470e-33
