# bin_9_11
-3.863125232971213866e-09
-4.388183317671876531e-09
-4.907770904057645757e-09
-5.383911243107081061e-09
-5.765741805839624368e-09
-5.989284015432169630e-09
-6.000634796031908379e-09
-5.718933263704556357e-09
-5.144781604291813151e-09
-4.374437393824959871e-09
-3.584170974378499854e-09
-2.978508289700281360e-09
-2.577750900005723256e-09
-2.122523660127726608e-09
-1.498230826615820771e-09
-1.120778909548125123e-09
-8.668329260404870169e-10
-5.853057500391871727e-10
-4.235230672590803557e-10
-2.972060701160102392e-10
-2.032392504754143353e-10
-1.389403789102613527e-10
-9.523009059303384448e-11
-6.577005720899453273e-11
-4.593626357089669064e-11
-3.266241925745382714e-11
-2.367856330896675448e-11
-1.752758719295289903e-11
-1.321950333632294165e-11
-1.010829392641397739e-11
-7.781641289164956938e-12
