# bin_2_3
-1.655404984383944405e-08
-1.750707326250982982e-08
-1.792776023065441993e-08
-1.764651312148358890e-08
-1.646979142898557094e-08
-1.453400377042746016e-08
-1.216874557403782271e-08
-9.974288497413755122e-09
-8.401225644335042211e-09
-7.207459374476204477e-09
-5.663714126887268557e-09
-4.011981961344302994e-09
-3.134149038099307534e-09
-2.300696848763659414e-09
-1.670048902993302868e-09
-1.205242411084139772e-09
-8.801916833802592788e-10
-6.428954331274863859e-10
-4.759184478763636714e-10
-3.584522323053902576e-10
-2.747556469380904077e-10
-2.140263289656154238e-10
-1.686290391616970185e-10
-1.334669584185557623e-10
-1.053807221726735317e-10
-8.243206972437384205e-11
-6.348372245617958709e-11
-4.788688668781074873e-11
-3.524220109459027116e-11
-2.524643230512725521e-11
-1.760117977547008032e-11
