# bin_13_5
-2.167047444684126178e-18
-2.460370263131586920e-18
-2.749963146515125875e-18
-3.014439629079785638e-18
-3.225137777223385253e-18
-3.346079132625856584e-18
-3.347625075391132735e-18
-3.184141803859215900e-18
-2.859087232369552850e-18
-2.426364368277932791e-18
-1.987212552883716847e-18
-1.653858025928663310e-18
-1.431886810415447624e-18
-1.173853213217425572e-18
-8.255562555140442638e-19
-6.217666248823412381e-19
-4.772779695692249951e-19
-3.241175077972139034e-19
-2.328594016022680590e-19
-1.639666130797172826e-19
-1.122556174275613989e-19
-7.676569825450993525e-20
-5.270069777696430310e-20
-3.646650418076934803e-20
-2.553320611698227529e-20
-1.820509769313532240e-20
-1.323562920691246692e-20
-9.823906717773684629e-21
-7.425431737750590158e-21
-5.685863471640125598e-21
-4.379449592306223960e-21
