# bin_4_1
-1.444510697324741219e-11
-1.534173928495090078e-11
-1.579022946350287324e-11
-1.564691615165135374e-11
-1.472177436864747533e-11
-1.309223655511306387e-11
-1.102745534176696563e-11
-9.034112979656812243e-12
-7.565918578666807364e-12
-6.513816139686258552e-12
-5.217368541924694893e-12
-3.697089111995886978e-12
-2.848179027857538976e-12
-2.137026128671105932e-12
-1.526376591627541848e-12
-1.110169774659832046e-12
-8.089382036282267732e-13
-5.882565168043548461e-13
-4.335825760925671823e-13
-3.249807108510787112e-13
-2.479371839749805166e-13
-1.923317779540482791e-13
-1.511069073529377393e-13
-1.194388073606622460e-13
-9.432497608348981585e-14
-7.391102446877280784e-14
-5.709407966749098558e-14
-4.324505647261152138e-14
-3.198310884916245076e-14
-2.303280622634805554e-14
-1.614110667507979634e-14
