# bin_6_8
-2.476483975844939910e-09
-2.777066419763693920e-09
-3.057418761800262064e-09
-3.289814040952461295e-09
-3.439008688671017149e-09
-3.471064405001538436e-09
-3.344672483534305434e-09
-3.042461185528143719e-09
-2.616813311060775843e-09
-2.152387037832066213e-09
-1.775154201473119450e-09
-1.527701991021403015e-09
-1.285364112212997758e-09
-9.346941814134211048e-10
-6.739284640259662445e-10
-5.396146196473456753e-10
-3.608920270767562548e-10
-2.706917244426345930e-10
-1.882155124299722479e-10
-1.308241361273837238e-10
-9.185032244433843514e-11
-6.471827464457079491e-11
-4.611445069887753213e-11
-3.334071167170562656e-11
-2.459114456464863756e-11
-1.847646965518756923e-11
-1.410504809033301935e-11
-1.088799064801294809e-11
-8.439214281894477692e-12
-6.520605862668231144e-12
-4.988510008439578908e-12
