# bin_15_5
-4.747368779964360922e-22
-5.411567713336479461e-22
-6.079887228970580971e-22
-6.706764977559067068e-22
-7.231891258410360226e-22
-7.578213903317206781e-22
-7.668540402183751905e-22
-7.414647514193680877e-22
-6.766426245341588022e-22
-5.838457917415292030e-22
-4.807750625229467478e-22
-3.958731709504298034e-22
-3.403940066842494286e-22
-2.879860384103942791e-22
-2.106027968506941434e-22
-1.502099145717798849e-22
-1.211315803030572221e-22
-8.004290556282347449e-23
-6.010922094570170710e-23
-4.103829777263421610e-23
-2.792513529107867086e-23
-1.911523814197481793e-23
-1.300216949866333362e-23
-8.862629273567679715e-24
-6.077697609591430465e-24
-4.231771277374651151e-24
-2.998786024131031100e-24
-2.169932184651632780e-24
-1.604636229443882721e-24
-1.209349349104881822e-24
-9.237685843009621438e-25
