# bin_14_2
-4.363363876128615352e-32
-4.958332170708547359e-32
-5.548200351494223823e-32
-6.090193396874028703e-32
-6.527076987762339385e-32
-6.786751664723538910e-32
-6.807275792167688537e-32
-6.498100453004579698e-32
-5.854784912784018310e-32
-4.986077093812586225e-32
-4.087083705469529539e-32
-3.392582723535460588e-32
-2.934630643975176989e-32
-2.424440457285808690e-32
-1.717343430395255347e-32
-1.277571668495284078e-32
-9.936959232712845187e-33
-6.683997483838766119e-33
-4.862560841852526387e-33
-3.401767025515676767e-33
-2.324306856852037572e-33
-1.588961645342837857e-33
-1.087825235228250008e-33
-7.501549644805935193e-34
-5.228707998091998726e-34
-3.709385949700079939e-34
-2.682688423025584728e-34
-1.981245747645589192e-34
-1.491435422196589398e-34
-1.138942977868427163e-34
-8.762750820313588234e-35
