# bin_7_11
-4.629386957050505964e-11
-5.244047611801315888e-11
-5.844547200968050693e-11
-6.384247711544396080e-11
-6.800744952288533206e-11
-7.016845919066400423e-11
-6.973335801139851098e-11
-6.573608281155472880e-11
-5.853089851378298953e-11
-4.926801347529174212e-11
-4.030344196810071239e-11
-3.377981426238589842e-11
-2.925763404803873571e-11
-2.346969392817788350e-11
-1.630241790054261222e-11
-1.264577886141267796e-11
-9.354496773445634663e-12
-6.550592293293572978e-12
-4.559955799464381457e-12
-3.243927816600556683e-12
-2.234105615026472882e-12
-1.533997724638600657e-12
-1.061396072325139689e-12
-7.407376485492000160e-13
-5.244569997963515600e-13
-3.784505367674243080e-13
-2.785150867736656492e-13
-2.090215169992658421e-13
-1.593359720192166504e-13
-1.226218955655066200e-13
-9.456328135131940528e-14
