# bin_14_11
-1.268987810972055035e-09
-1.450594079171569342e-09
-1.635599877835448559e-09
-1.812075407066267925e-09
-1.964423738405854875e-09
-2.072334191227042895e-09
-2.112883111491297711e-09
-2.065950690877687700e-09
-1.908551093006107612e-09
-1.667083271138831335e-09
-1.381731865193747081e-09
-1.132379425063312192e-09
-9.654119710692860030e-10
-8.290727838500163004e-10
-6.274888796205099519e-10
-4.361727541518376138e-10
-3.537277945089474635e-10
-2.385284304231042671e-10
-1.784547779629003488e-10
-1.195822610793991238e-10
-8.213855991277761329e-11
-5.617591373771564577e-11
-3.809583752466828437e-11
-2.573400039052226494e-11
-1.740707807977479535e-11
-1.191272137022955625e-11
-8.275438714399286850e-12
-5.860362045843382943e-12
-4.244579639236803694e-12
-3.143126476668776849e-12
-2.371358925857928356e-12
