# bin_2_4
-1.333882131846787968e-09
-1.430394298527762838e-09
-1.489906191626864152e-09
-1.498149859229121269e-09
-1.437341150026423536e-09
-1.302987145068914139e-09
-1.117324755513753411e-09
-9.190610172635085068e-10
-7.597213942510155095e-10
-6.525028040598525260e-10
-5.442072621107932013e-10
-3.968261545188746859e-10
-2.904235494692241129e-10
-2.294017861339312309e-10
-1.587719396574386009e-10
-1.187143566677100685e-10
-8.491071901958953899e-11
-6.129547823080019110e-11
-4.480322726347437470e-11
-3.318831773317297863e-11
-2.501112428930067951e-11
-1.917320690216835691e-11
-1.492957169990697322e-11
-1.173845060262207881e-11
-9.257504390402704191e-12
-7.272722867921483674e-12
-5.652546309014712933e-12
-4.321118873992930855e-12
-3.233380043994143011e-12
-2.359689220501070845e-12
-1.676487927972756332e-12
