# bin_3_11
-5.492267800292550132e-21
-6.189112603579962426e-21
-6.854308851559704161e-21
-7.429288220298402421e-21
-7.837727918269963122e-21
-7.993420580787025410e-21
-7.820604074564408889e-21
-7.232460616059076353e-21
-6.324098629480092017e-21
-5.246977288598183069e-21
-4.299135438148846959e-21
-3.659290046233672771e-21
-3.143097865422972900e-21
-2.391341592598312697e-21
-1.664751247650278816e-21
-1.345277214716365352e-21
-9.202491477477261806e-22
-6.866640167656925469e-22
-4.665041333771426293e-22
-3.271570326831977212e-22
-2.285920270027457194e-22
-1.596581612576506956e-22
-1.122467897367155779e-22
-7.978527494021204581e-23
-5.778456913055708474e-23
-4.267305659144540223e-23
-3.209909944112707469e-23
-2.452488726422434422e-23
-1.891700114221781929e-23
-1.462646076916868708e-23
-1.125307771402097545e-23
