# bin_8_11
-6.703216238841527079e-10
-7.603845458166916478e-10
-8.489371538114435231e-10
-9.293148120432842737e-10
-9.925823256363368267e-10
-1.027573204804116297e-09
-1.025408699403517659e-09
-9.719116975785169871e-10
-8.698086955264573387e-10
-7.357327210824283048e-10
-6.022077181301888402e-10
-5.025427759852319345e-10
-4.352856451718299604e-10
-3.539552001201660848e-10
-2.474949735097566550e-10
-1.886282776447934715e-10
-1.427890206419540987e-10
-9.805157533025648464e-11
-6.954809060599745799e-11
-4.923106884890338702e-11
-3.377839271121287725e-11
-2.312279735950548873e-11
-1.592177412905001914e-11
-1.105419537025905395e-11
-7.774014894869974791e-12
-5.569450118460902931e-12
-4.069133538017498885e-12
-3.034036946664053009e-12
-2.301527385003817606e-12
-1.766278618411660948e-12
-1.361412856057919195e-12
