# bin_13_4
-1.335881180193405539e-21
-1.515579667272709459e-21
-1.692381812835526310e-21
-1.853021195241453481e-21
-1.979713014106857064e-21
-2.050215880933677230e-21
-2.046742115336237051e-21
-1.941061201397422609e-21
-1.738078216340356509e-21
-1.470954006418211085e-21
-1.204118352648636957e-21
-1.004398031437149759e-21
-8.699089876821132763e-22
-7.083047156423776350e-22
-4.957443557914313159e-22
-3.770967959915650996e-22
-2.861062640570423940e-22
-1.961122723863960003e-22
-1.393945166665231310e-22
-9.858609055087199332e-23
-6.761784206864633245e-23
-4.628016056343840645e-23
-3.185187280005458527e-23
-2.210210544012031166e-23
-1.553255265300353773e-23
-1.111921274576135632e-23
-8.117451323908826502e-24
-6.048130060336084666e-24
-4.585291964477504731e-24
-3.517668064187290058e-24
-2.711036916009010376e-24
