# bin_13_15
-5.715446280980262503e-09
-6.552006887541449236e-09
-7.413219676376771062e-09
-8.247456619175749893e-09
-8.986853825692548510e-09
-9.541264260906056984e-09
-9.801279890999452159e-09
-9.684475825333295008e-09
-9.059622932002221911e-09
-8.008257878624363361e-09
-6.696006494006342382e-09
-5.476810257241843746e-09
-4.621841655073920857e-09
-3.998818449006477474e-09
-3.136806143864040866e-09
-2.163751397480686335e-09
-1.718818086357475055e-09
-1.221054749099937229e-09
-8.794492753308288949e-10
-5.912460161195329505e-10
-4.153374464342948660e-10
-2.819056937158038715e-10
-1.892520144320105379e-10
-1.268188743587126798e-10
-8.481365066331894049e-11
-5.709205296257540486e-11
-3.887225290626161077e-11
-2.689264703125742991e-11
-1.900442632570450336e-11
-1.374890103208799182e-11
-1.017599722165988131e-11
