# bin_15_11
1.507208574810588869e-11
1.723694760938374266e-11
1.944644710503352544e-11
2.155951775168813560e-11
2.339196647695571157e-11
2.470307427764992895e-11
2.521681261286250318e-11
2.470030911291572741e-11
2.286520887096493727e-11
2.001191198004215700e-11
1.660805602743986569e-11
1.360440124924302592e-11
1.157994863509758010e-11
9.961134691123700413e-12
7.583129705634571821e-12
5.258930837329437789e-12
4.256325286358254481e-12
2.890879986250984225e-12
2.153320793911108178e-12
1.440520876159956731e-12
9.929931636419597928e-13
6.784508677607563066e-13
4.595312770376984413e-13
3.099693952776607674e-13
2.092402288621892845e-13
1.427844818443205211e-13
9.885079875254174720e-14
6.973471070835351690e-14
5.031154195857294028e-14
3.712477091111060079e-14
2.793281107673365456e-14
