# bin_15_10
8.759669207071424397e-13
1.001138006760032753e-12
1.128556213108831209e-12
1.249970710235005991e-12
1.354590902852545571e-12
1.428383230412550378e-12
1.455601740304795348e-12
1.422264538766540376e-12
1.312836430978731053e-12
1.145821977510725791e-12
9.492344174458099267e-13
7.781149122390964224e-13
6.637932461445839672e-13
5.695934526443176655e-13
4.301131816603593245e-13
2.993318996547918770e-13
2.428533204520048569e-13
1.633763559811255563e-13
1.223764387107379041e-13
8.208271044697676167e-14
5.631524237490041336e-14
3.852358659334416036e-14
2.613196105085175534e-14
1.766068864223013786e-14
1.195593771503760381e-14
8.190539449426465056e-15
5.696695284715060794e-15
4.039794200669507187e-15
2.930034881229222305e-15
2.172393974608678703e-15
1.640526418324622840e-15
