# bin_9_15
8.067463367033211199e-08
9.121394893442530227e-08
1.014273084851149772e-07
1.104847867095430400e-07
1.172864556512913011e-07
1.205114523239610763e-07
1.191079365286628056e-07
1.115291808062021708e-07
9.868354877093456787e-08
8.264697482815866808e-08
6.763830039536014844e-08
5.699542536509499823e-08
4.923987187888809428e-08
3.879082390621761377e-08
2.694498972383442760e-08
2.121755778070222022e-08
1.527196410268829018e-08
1.094147241444462345e-08
7.538291303555034949e-09
5.337985131296814171e-09
3.694635558812691878e-09
2.552370711747524102e-09
1.775684980637305717e-09
1.246966902099669494e-09
8.898378252850635303e-10
6.473565962143808135e-10
4.801698906384308526e-10
3.627296765966432993e-10
2.777301099170251047e-10
2.141306344744757421e-10
1.650118853864156685e-10
