# bin_7_7
1.328918337086918994e-08
1.482501548755402416e-08
1.621854423357564964e-08
1.731467742388328138e-08
1.792091403390012584e-08
1.787858225110603395e-08
1.695069840250216894e-08
1.517737860181894280e-08
1.285073233786296609e-08
1.052469214131922279e-08
8.776138702301997169e-09
7.587417332295057838e-09
6.175242510455198403e-09
4.350150559465656967e-09
3.301962728562721575e-09
2.513856630500368504e-09
1.738201031219061659e-09
1.252723845654469910e-09
8.933238260240057079e-10
6.258419950498905476e-10
4.411454007661564005e-10
3.142253271545816071e-10
2.270167502613054568e-10
1.668660496770162879e-10
1.250493449471957628e-10
9.527543681857281106e-11
7.350837263566416112e-11
5.707523480910497782e-11
4.427702713043481892e-11
3.408120071761566278e-11
2.587462901410083179e-11
