# bin_10_1
1.233281444879723076e-29
1.380380595750953843e-29
1.516266846765835259e-29
1.626908702682029859e-29
1.694593550732414944e-29
1.703373650430422514e-29
1.631700279742788377e-29
1.475502466129178687e-29
1.261476009678842589e-29
1.035373266846384791e-29
8.570229351683013901e-30
7.395539572137781228e-30
6.155090285075674303e-30
4.412393825507399720e-30
3.241557652696732716e-30
2.556322749354494802e-30
1.722240724847498750e-30
1.276144463944290937e-30
8.971607162961205037e-31
6.247628485123417308e-31
4.389050415036460428e-31
3.103114840775254283e-31
2.222383891466113250e-31
1.616900819849041497e-31
1.199967221201738048e-31
9.066308137079900773e-32
6.951985554719064124e-32
5.380771938365544276e-32
4.173849425419462493e-32
3.221574062446832101e-32
2.458268815229228289e-32
