# bin_15_6
3.962984357962534240e-21
4.518067744008709291e-21
5.076984755956112013e-21
5.601720579729311676e-21
6.042011906078267597e-21
6.333590473613678521e-21
6.411532483304005634e-21
6.203001932307278349e-21
5.664124861457263011e-21
4.890415875144883594e-21
4.028158889008479053e-21
3.315757619715399324e-21
2.850047875728663226e-21
2.413477154271212872e-21
1.767930226900882796e-21
1.258728998847288331e-21
1.016167510032955439e-21
6.714658793179048627e-22
5.046192760239402688e-22
3.441372992791892025e-22
2.341687716880065046e-22
1.603015274629874344e-22
1.090155746264555014e-22
7.426446734807298110e-23
5.088855844577636203e-23
3.539740029495419860e-23
2.505648389422760515e-23
1.811054872821046531e-23
1.337867274219312229e-23
1.007475432858668536e-23
7.691798902909304848e-24
