# bin_1_8
7.225254234517523885e-07
7.021158543232963146e-07
6.494241489390064448e-07
5.705400472944873995e-07
4.805506078887014394e-07
3.983090179502225827e-07
3.338237810208147345e-07
2.783033342181396983e-07
2.186771811418939681e-07
1.622926292687157368e-07
1.222346244265556758e-07
9.169913712541858040e-08
6.698549053771790710e-08
4.945690416657974265e-08
3.656596981653134182e-08
2.739496786486115201e-08
2.085247142490713460e-08
1.615537216129208747e-08
1.271607976282997261e-08
1.012198278875364318e-08
8.096293832093081969e-09
6.460140371583745830e-09
5.106354775145217888e-09
3.973918262794044022e-09
3.029420884108955855e-09
2.253943859989296701e-09
1.633485531232735742e-09
1.152814336253272150e-09
7.933278167273266986e-10
5.336463518914633323e-10
3.519428251323225291e-10
