# bin_12_7
7.207377774691442961e-14
8.175024251637931073e-14
9.126095706538737282e-14
9.988864468173271910e-14
1.066719236734053963e-13
1.104100299272644378e-13
1.101503432492504331e-13
1.043707309356959106e-13
9.337591041871799678e-14
7.896024135872218999e-14
6.462743128163181246e-14
5.394514590573321989e-14
4.672635165472354033e-14
3.796509556559469696e-14
2.653526746936077480e-14
2.024528530639534478e-14
1.530460048854184283e-14
1.052131531716661239e-14
7.454062578871210852e-15
5.278336181308422441e-15
3.622227029091912466e-15
2.479868465965214393e-15
1.707985393168048448e-15
1.186123699997864512e-15
8.344513525531124603e-16
5.980270530679360848e-16
4.370966926676494560e-16
3.260250405194617508e-16
2.473810647480410258e-16
1.898826409710545278e-16
1.463667325829525665e-16
