# bin_6_13
1.488257389420165365e-07
1.654076529674798969e-07
1.801320832925990592e-07
1.912205784049063326e-07
1.965576964180600607e-07
1.943675028982643360e-07
1.822474173157759552e-07
1.614876801279922904e-07
1.355218304828889366e-07
1.109854815714295842e-07
9.333397335239287911e-08
8.046913953452462014e-08
6.371655370041278206e-08
4.465421199810950727e-08
3.481629545979534833e-08
2.546912258813447858e-08
1.819077951893767619e-08
1.284262329955569014e-08
9.185366009028779019e-09
6.484068593586231672e-09
4.602433304302204018e-09
3.306181221282625336e-09
2.410269597047547205e-09
1.789549531333074828e-09
1.353351343202155798e-09
1.038722524450463269e-09
8.052462241023898406e-10
6.262846907765939048e-10
4.852232481698013809e-10
3.720314959305882677e-10
2.807578345505034303e-10
