# bin_15_8
3.391785816249226919e-16
3.871357354847741998e-16
4.356788282656252297e-16
4.815798571555464041e-16
5.205937178464071309e-16
5.472517848746627641e-16
5.557315167108811202e-16
5.401944849233920301e-16
4.957526975945714328e-16
4.302104501931663101e-16
3.552367372035807083e-16
2.917580379870675130e-16
2.499453358466013826e-16
2.131287380313535622e-16
1.583284625852013232e-16
1.113230016301337336e-16
9.035473768341185047e-17
5.996854522591218092e-17
4.516252528820389601e-17
3.053809425662479937e-17
2.081891917722866893e-17
1.425636720565185931e-17
9.686562039793615937e-18
6.573293400818167373e-18
4.477920066076692072e-18
3.092507986611357437e-18
2.171248765585229983e-18
1.555755815320907603e-18
1.139894185527522105e-18
8.526230357405508042e-19
6.480202681536915039e-19
