# bin_8_13
8.537119540986918125e-08
9.608144129084208684e-08
1.062472476972124407e-07
1.149465732565927526e-07
1.209859721146773819e-07
1.230724964059372357e-07
1.199601873181106219e-07
1.105048575098155982e-07
9.625178830411735196e-08
7.971679897038804301e-08
6.543207279424763704e-08
5.582902468309796321e-08
4.769116227582387691e-08
3.592564410875982376e-08
2.524984833397478010e-08
2.031265339315646348e-08
1.386240998227586733e-08
1.032478012678512983e-08
7.069282340952649328e-09
4.949009121981494059e-09
3.459872031389946027e-09
2.420020188829500041e-09
1.706400055308448990e-09
1.217752585535553016e-09
8.856439535031679746e-10
6.566460499149270426e-10
4.956254700978959540e-10
3.795530558232982499e-10
2.930541342213202449e-10
2.265054470938384611e-10
1.739976590476237535e-10
