# bin_9_5
4.283481642444673026e-13
4.800520671957479672e-13
5.281312824556195039e-13
5.677648597963061224e-13
5.928392803549844333e-13
5.975867061153027433e-13
5.747536816961937171e-13
5.218178723564256549e-13
4.479464196167346055e-13
3.681650170382481091e-13
3.039707015557471157e-13
2.618577414701131908e-13
2.195932827377952793e-13
1.589156646814533318e-13
1.152453049869349433e-13
9.188805806419238511e-14
6.154250783367744887e-14
4.601470798883296922e-14
3.210840898696646303e-14
2.232559182281599641e-14
1.567702079371898765e-14
1.105702781140209231e-14
7.891215764326670574e-15
5.717002522398933851e-15
4.225162615464323265e-15
3.180426378880538684e-15
2.431609344435193936e-15
1.878796407823638801e-15
1.456743378765991852e-15
1.125283039391498987e-15
8.602399167994105266e-16
