# bin_5_14
2.062568986101706581e-07
2.271194928126168820e-07
2.445275784161563219e-07
2.558974050676834565e-07
2.586592237543187873e-07
2.499331981622736413e-07
2.282577957996172628e-07
1.971618597206801097e-07
1.627554819283339505e-07
1.341495602542235046e-07
1.148347444102694409e-07
9.674458964484524481e-08
7.166243305554738087e-08
5.156093353945780355e-08
4.091266512173525049e-08
2.824251861409580176e-08
2.098275022688204622e-08
1.474739745498784758e-08
1.050295981251596090e-08
7.520537134378699598e-09
5.431103212175649228e-09
3.979568802185930410e-09
2.964612737543768200e-09
2.249886170955110373e-09
1.733296573989753715e-09
1.348517047299006218e-09
1.052932543788453235e-09
8.192019449442252831e-10
6.309375304259242447e-10
4.783360821931081311e-10
3.553958560587829900e-10
