# bin_8_4
1.631430281044850784e-13
1.816400902495964416e-13
1.982348605798330994e-13
2.109959957676400975e-13
2.175524230403022005e-13
2.160365203087028320e-13
2.035440110626984377e-13
1.811619792870397363e-13
1.524985777712231406e-13
1.247708402461359698e-13
1.045423224758012912e-13
9.043046721498173439e-14
7.251517995258064949e-14
5.060911973628126780e-14
3.921262034491656859e-14
2.913636311163594865e-14
2.054424067599668572e-14
1.453079786053925640e-14
1.044057257169674386e-14
7.346395383256352009e-15
5.193281761724982745e-15
3.717666337122546415e-15
2.700400993682826796e-15
1.997187833533972229e-15
1.505286772898274217e-15
1.152402239046919693e-15
8.921483887138583433e-16
6.938177326555913902e-16
5.381399123908845820e-16
4.134682740126198385e-16
3.129206213949816407e-16
