# bin_5_11
1.719158650666889444e-07
1.892600910568505762e-07
2.037066532758644406e-07
2.130998501970458114e-07
2.153069308919829950e-07
2.079171216312155536e-07
1.897612751480078300e-07
1.638040994849015773e-07
1.351745311792068240e-07
1.114466971133163502e-07
9.543604780956425309e-08
8.033197929867453502e-08
5.940868239200089627e-08
4.279886976721371024e-08
3.394598334200940105e-08
2.341869781571967328e-08
1.740257787177633595e-08
1.223682109311486113e-08
8.713987985094758536e-09
6.241393885918868962e-09
4.509276693178277622e-09
3.305748990517350119e-09
2.463975360616939440e-09
1.870899703187465764e-09
1.441917972021983010e-09
1.122131786286667781e-09
8.762695413048856185e-10
6.817229248650749524e-10
5.249529365343713119e-10
3.978611774253632682e-10
2.954824869871141720e-10
