# bin_2_6
3.788957221436311428e-07
3.906550406161281520e-07
3.879156957393034817e-07
3.669825801717453630e-07
3.286889251642596784e-07
2.795831492346397275e-07
2.306688015856023477e-07
1.923700751050561221e-07
1.636728113518974972e-07
1.325337078174639899e-07
9.750160500818411670e-08
7.293502806624878271e-08
5.557322454275681150e-08
3.999795229779316310e-08
2.943927285036916564e-08
2.142703983948854035e-08
1.576719285570603176e-08
1.174689750867827737e-08
8.897861161826951549e-09
6.859457696739188575e-09
5.369689374749235338e-09
4.249305149301044155e-09
3.376133597495193204e-09
2.673936909771014547e-09
2.096815113799216705e-09
1.617988904366224240e-09
1.222401355718750030e-09
9.009840326868724545e-10
6.465914996601591526e-10
4.518105371101830504e-10
3.078832299231715594e-10
