# bin_5_12
1.852150665368838222e-07
2.039218427966874269e-07
2.195153055882462619e-07
2.296739834013821134e-07
2.320958903452265027e-07
2.241885988552193826e-07
2.046697336019638990e-07
1.767224754960679574e-07
1.458557343241000781e-07
1.202387782380471328e-07
1.029485345302330111e-07
8.668804650916103027e-08
6.415415365148180485e-08
4.619213061162800832e-08
3.664394944798399379e-08
2.528680451104242668e-08
1.878906022868044596e-08
1.320908476694703063e-08
9.406797925128267572e-09
6.736764092976477530e-09
4.866269990672514119e-09
3.566697493879787973e-09
2.657856021459101741e-09
2.017668960950109621e-09
1.554759559700140638e-09
1.209803555633459168e-09
9.446854756988491001e-10
7.349641523020051734e-10
5.659973729778612469e-10
4.290265205477872015e-10
3.186850004895951984e-10
