# bin_14_8
8.192295434294283706e-15
9.335592337046073538e-15
1.048440096210996740e-14
1.155990482029711487e-14
1.245768814937398625e-14
1.304458746715129675e-14
1.318889214154668095e-14
1.273656799537011911e-14
1.160788672034062932e-14
1.000279560417525298e-14
8.232042893258225711e-15
6.782773606747915900e-15
5.836964732011475428e-15
4.928313431557043380e-15
3.591204029618989376e-15
2.570909876900955025e-15
2.068574735500164183e-15
1.366810139640842863e-15
1.024844339938482370e-15
7.013162144626487733e-16
4.771724621149710650e-16
3.265643402242927121e-16
2.221863032357758344e-16
1.515959488593456892e-16
1.041195485619654370e-16
7.262451340326816802e-17
5.156770981351400769e-17
3.739323916916412459e-17
2.770525367522793838e-17
2.091256742261424937e-17
1.598995276331163026e-17
