# bin_6_9
8.862789314882923447e-08
9.843343918017062759e-08
1.071032656504547962e-07
1.135735764170472386e-07
1.165892503552569533e-07
1.150930583302571227e-07
1.076812152172479456e-07
9.521538140857077741e-08
7.976088616565715052e-08
6.531690533859881470e-08
5.502073209112741172e-08
4.741276335887896227e-08
3.733568581251766469e-08
2.613211143597416205e-08
2.048623674683783159e-08
1.486849969320405614e-08
1.068530962594658007e-08
7.513763182532494110e-09
5.378728426583335785e-09
3.802488529571455545e-09
2.702625039691087781e-09
1.944738267915249665e-09
1.420371429973190340e-09
1.056730209738376250e-09
8.006174399467690074e-10
6.153914318042603548e-10
4.775263513147124685e-10
3.715315127817029487e-10
2.877855191782275922e-10
2.204890679161318581e-10
1.662021840713303942e-10
