# bin_3_15
3.835050306341252817e-07
4.088568153531490628e-07
4.228978988913298124e-07
4.215292953726516954e-07
4.001151360607629641e-07
3.591665922982593904e-07
3.055412511656662045e-07
2.513811147840785299e-07
2.093454504427013636e-07
1.792815732851970420e-07
1.460745065112706197e-07
1.061156027623282836e-07
7.940506309825873907e-08
6.082617290318143131e-08
4.312679423726026158e-08
3.170667041664008942e-08
2.284365062604797745e-08
1.658389051485446111e-08
1.217357588170542919e-08
9.068750348004243805e-09
6.873827945006526329e-09
5.298061908508346269e-09
4.141072441035720872e-09
3.262223173469227117e-09
2.572597829521578213e-09
2.016973223171040499e-09
1.561871459620951717e-09
1.187956689215251106e-09
8.835936658310636423e-10
6.407394980291204378e-10
4.524417735767073241e-10
