# bin_6_5
3.277786183162914137e-09
3.618278803833406494e-09
3.907476776611133635e-09
4.104705844577404161e-09
4.166976798094855223e-09
4.050866431710617067e-09
3.721548968819351048e-09
3.233195065302277646e-09
2.674005913138013601e-09
2.196179534689014269e-09
1.875588096702725675e-09
1.597120055089069050e-09
1.197436984598616670e-09
8.471002094507446345e-10
6.814607263194521997e-10
4.674239293328304010e-10
3.504979437954484001e-10
2.438929185161214257e-10
1.735870305027663957e-10
1.241366341634598388e-10
8.937097159993076495e-11
6.521459988157275165e-11
4.835474351426670190e-11
3.654461759667191682e-11
2.806369794838502850e-11
2.179144254271201268e-11
1.700743477231820724e-11
1.324518036495513721e-11
1.022399775818591866e-11
7.776181198179479250e-12
5.800769705599885478e-12
