# bin_4_13
2.643332360935565073e-07
2.872939285257002868e-07
3.043434178789047240e-07
3.122061203031040385e-07
3.079058207547676997e-07
2.880634584383632113e-07
2.547774558606674663e-07
2.137745657540466799e-07
1.753346287183393159e-07
1.475181926504209494e-07
1.265649055314566299e-07
9.986126831886713065e-08
7.082328212162146614e-08
5.491504967997234604e-08
4.041795837009364725e-08
2.903258189932430598e-08
2.085611643674828519e-08
1.504079196774847808e-08
1.081696003897334314e-08
7.861607860343226278e-09
5.799427420829641252e-09
4.350959290291895472e-09
3.322218503965723957e-09
2.574899207396238367e-09
2.014203917740872989e-09
1.580110612815905885e-09
1.234482595604065125e-09
9.541531630213512951e-10
7.254985749360600633e-10
5.402134933112431537e-10
3.926294951715525462e-10
