# bin_14_15
1.104348615024921163e-08
1.263953410501938133e-08
1.427326567978727775e-08
1.584237312182424924e-08
1.721316703822403296e-08
1.820994772207432097e-08
1.862703219227178949e-08
1.829851326909492359e-08
1.699801395541199928e-08
1.492620788828745924e-08
1.241719420280739341e-08
1.016538324978849085e-08
8.628140615965913996e-09
7.438367833862659953e-09
5.719620593113623720e-09
3.956702208785324476e-09
3.185119487002675752e-09
2.194983033003634105e-09
1.618177855699053591e-09
1.082373099064550970e-09
7.512231210498092010e-10
5.121349969783760276e-10
3.458997964987743231e-10
2.327975305647852438e-10
1.566390088920673844e-10
1.063957950590456237e-10
7.324818674292654681e-11
5.134187847124124613e-11
3.679441694427916244e-11
2.698135558911095316e-11
2.019837717508955825e-11
