# bin_10_8
4.350217762258692191e-10
4.915473938218542018e-10
5.461600595574230749e-10
5.943585052781339617e-10
6.301826264425640060e-10
6.464974649525888707e-10
6.377337524709087258e-10
5.955829811609540526e-10
5.256698549465652498e-10
4.391543650527439662e-10
3.592903994528230547e-10
3.034370266567793030e-10
2.621758990565756488e-10
2.050488549213421777e-10
1.419310636498607426e-10
1.128528502029847009e-10
8.015924891397132645e-11
5.811047311894246051e-11
3.962707418164161235e-11
2.810467597814235964e-11
1.949654830192216255e-11
1.349819145870346020e-11
9.414265089686861999e-12
6.628380484251671381e-12
4.745959460726457515e-12
3.464834490412148371e-12
2.578874448653219545e-12
1.954025142024408880e-12
1.499490025308203659e-12
1.157581544793938166e-12
8.922696621544125842e-13
