# delta_i
1.126756553368874165e+03
1.083336843462914430e+03
1.036689565407027658e+03
9.914183824943767149e+02
9.490600733311447357e+02
9.100602868504062144e+02
8.744007406486819036e+02
8.418660735207272410e+02
8.121693890284890358e+02
7.850119376104599951e+02
7.548191702825929497e+02
7.316941506059429230e+02
7.083029462796615690e+02
6.670360994849608005e+02
5.561159672297285397e+02
