# bin_2_12
-1.274587328947485985e-27
-1.439790251494454565e-27
-1.599197422458081790e-27
-1.739578888086463450e-27
-1.843442147700213320e-27
-1.889936755497928981e-27
-1.862702551511615138e-27
-1.737708065657656140e-27
-1.532166513987891760e-27
-1.278912409792757611e-27
-1.046389390004649009e-27
-8.845147814920917329e-28
-7.639552677943141645e-28
-5.956737054294274955e-28
-4.122718264742600925e-28
-3.286863012226021507e-28
-2.323322626245123706e-28
-1.691228023991469412e-28
-1.151181864286994768e-28
-8.157029064963217002e-29
-5.663804957674823079e-29
-3.925610438765426374e-29
-2.740413824425885134e-29
-1.931459134398324842e-29
-1.384727471493308226e-29
-1.012274175082899096e-29
-7.543832119077053077e-30
-5.721927683828860319e-30
-4.393974765574712239e-30
-3.393071885689784934e-30
-2.615119722337364545e-30
