# bin_3_8
-1.433466114902714113e-14
-1.593979753138532775e-14
-1.736918901622702059e-14
-1.845175273200851995e-14
-1.897991706771166194e-14
-1.879065213684493875e-14
-1.763513738849669708e-14
-1.563860369051558122e-14
-1.312090231410279956e-14
-1.073347315579465023e-14
-9.021288125142873605e-15
-7.798804002057601385e-15
-6.191502136851783270e-15
-4.308827588971453063e-15
-3.375764632806753894e-15
-2.468919707359984236e-15
-1.764428613395417683e-15
-1.236302623341048308e-15
-8.895295588971966732e-16
-6.277867117006221900e-16
-4.450207031283693758e-16
-3.195863898027112041e-16
-2.329036910010334512e-16
-1.728885495719506373e-16
-1.307410428401803305e-16
-1.003644390645952834e-16
-7.784004304681512383e-17
-6.057983971029251579e-17
-4.697202564761462776e-17
-3.604494827296000759e-17
-2.722517307848742443e-17
