# bin_7_9
-2.872793276848661993e-09
-3.236978139733633067e-09
-3.584481197666728615e-09
-3.884639299307749629e-09
-4.097511472219573719e-09
-4.178057437810879449e-09
-4.086612361701235878e-09
-3.778030312059618066e-09
-3.302468275500269673e-09
-2.739368244736690380e-09
-2.244656093668560633e-09
-1.911095518374159597e-09
-1.641130038904092261e-09
-1.247407163974193494e-09
-8.686228159647498194e-10
-7.022662977836514963e-10
-4.797795376310279206e-10
-3.583261901834616574e-10
-2.434283763724095324e-10
-1.706345869633058558e-10
-1.192484982636936511e-10
-8.330655708705564522e-11
-5.857679937717988366e-11
-4.164976405377676849e-11
-3.017325027015222467e-11
-2.228909132144694529e-11
-1.677130368021687418e-11
-1.281716834132820465e-11
-9.888211246068695542e-12
-7.646319199630741829e-12
-5.883022632190668957e-12
