# bin_10_8
-3.236046234469261156e-09
-3.662060057783028083e-09
-4.076416326851960962e-09
-4.446180361038051280e-09
-4.727422133780979688e-09
-4.866354582418568148e-09
-4.822024315375053773e-09
-4.528521619782235368e-09
-4.017944716660414840e-09
-3.371318194716613940e-09
-2.757497796901690959e-09
-2.318273713989773628e-09
-2.006821413465144143e-09
-1.593790193733022629e-09
-1.104006987586344284e-09
-8.659973417907193101e-10
-6.300627739752225337e-10
-4.476022530120149139e-10
-3.082270970939559329e-10
-2.193950535151884487e-10
-1.515222649773457391e-10
-1.043493803499925485e-10
-7.243435974567310889e-11
-5.072942493617906704e-11
-3.608004306234103427e-11
-2.615882225766884992e-11
-1.934185583473100337e-11
-1.457519911326937675e-11
-1.114347992175917386e-11
-8.589096752904160011e-12
-6.624267613082566019e-12
