# bin_12_1
-1.323110879864166412e-32
-1.494074228363195243e-32
-1.658783898899612363e-32
-1.803451724435763572e-32
-1.909884667418145348e-32
-1.956545239104358438e-32
-1.926312696491142355e-32
-1.794759461955766839e-32
-1.580563316839022457e-32
-1.318097222494178967e-32
-1.078618421648734983e-32
-9.126932097454092372e-33
-7.877650679208750282e-33
-6.120586433493723886e-33
-4.238239489113411910e-33
-3.387037564946546403e-33
-2.381900737882129786e-33
-1.740913525701513555e-33
-1.183958812641801594e-33
-8.377135849561787936e-34
-5.822344555752876448e-34
-4.040332233453934218e-34
-2.823407611490053403e-34
-1.992383399328323516e-34
-1.430536413397927066e-34
-1.047342383720783534e-34
-7.816195359731896093e-35
-5.935215889319867978e-35
-4.561034224536731349e-35
-3.522943292744752971e-35
-2.714638566251479155e-35
