# bin_5_6
-1.103954260578787509e-08
-1.223416481841745939e-08
-1.327588727309278218e-08
-1.403040295178321691e-08
-1.434278566740908814e-08
-1.408167480738917847e-08
-1.308189099592308578e-08
-1.148934297636835119e-08
-9.566392142876144737e-09
-7.832517874358767420e-09
-6.636230385415189147e-09
-5.710683497737874283e-09
-4.411373912455625115e-09
-3.074075925312900651e-09
-2.459219696908199069e-09
-1.731388077922932610e-09
-1.276400940327655243e-09
-8.838148251595128464e-10
-6.332894606801265789e-10
-4.502838667048908161e-10
-3.217651914176858716e-10
-2.328869419926778638e-10
-1.711303143035596152e-10
-1.281710637681037689e-10
-9.768715980889439790e-11
-7.544640460166319599e-11
-5.872733433887804737e-11
-4.574599875465194345e-11
-3.541093715307202938e-11
-2.706776694593511344e-11
-2.032888979718892495e-11
