# bin_4_3
-1.383033465076538069e-08
-1.494562118458331411e-08
-1.571875061887001462e-08
-1.598433018651405966e-08
-1.558073619100869660e-08
-1.436484317449785750e-08
-1.252443248261272382e-08
-1.038665344398761142e-08
-8.523691607763485496e-09
-7.252053130148050523e-09
-6.187453407395521609e-09
-4.699249013119717693e-09
-3.324386834361967054e-09
-2.658119459095008567e-09
-1.864177209332537880e-09
-1.388894655683748635e-09
-9.800803354608770518e-10
-7.091660520048484296e-10
-5.146852910014009961e-10
-3.774357718379236328e-10
-2.813146820154491333e-10
-2.132781915694416885e-10
-1.645183649680731263e-10
-1.285267627558129163e-10
-1.010581725421302727e-10
-7.943789263297634754e-11
-6.198709518263812593e-11
-4.771620994155812008e-11
-3.604289558489536871e-11
-2.660440179717145129e-11
-1.913705680432314175e-11
