# bin_1_10
-1.307028075008178687e-27
-1.463428840448313829e-27
-1.608171308147370327e-27
-1.726427943564126156e-27
-1.799456889071574537e-27
-1.810182036827496132e-27
-1.735903964657054470e-27
-1.571436175926636745e-27
-1.344954654558587632e-27
-1.104272409782113663e-27
-9.134046517964127790e-28
-7.878792269034856065e-28
-6.571309784039564316e-28
-4.722239978715501854e-28
-3.456872616283968781e-28
-2.734857313835953610e-28
-1.838941223507818370e-28
-1.366261157334209734e-28
-9.585880593300556885e-29
-6.671934607133339711e-29
-4.686211720130533398e-29
-3.310730905868653949e-29
-2.368662678553068403e-29
-1.721313913032461807e-29
-1.275947066300913774e-29
-9.630476430862465885e-30
-7.378808705123125247e-30
-5.708608840323418916e-30
-4.427834250551482874e-30
-3.418567913397948730e-30
-2.610084325992849235e-30
