# bin_8_9
-9.855927345577450612e-09
-1.112848356137502870e-08
-1.235401430309878954e-08
-1.342972467356226710e-08
-1.422001664522609960e-08
-1.456452788858305643e-08
-1.433570018072768651e-08
-1.335206939868387955e-08
-1.175482536369894784e-08
-9.799860429072912266e-09
-8.019248063627058809e-09
-6.787667488864879255e-09
-5.858383077096270407e-09
-4.547170074527890127e-09
-3.147867596832941192e-09
-2.518506680842415127e-09
-1.767967747226851925e-09
-1.294254505755129316e-09
-8.792500322988955688e-10
-6.220260357447948599e-10
-4.324540596807877264e-10
-3.001989731280075985e-10
-2.098349661883578124e-10
-1.481212557301053927e-10
-1.063914509277673428e-10
-7.792300355454342957e-11
-5.817632542598185101e-11
-4.419147030432238411e-11
-3.396865088440718014e-11
-2.624150234498491800e-11
-2.022163234198675515e-11
