# bin_8_1
-4.366718840330447276e-22
-4.833291801531315774e-22
-5.236891019475140805e-22
-5.524048444321466231e-22
-5.634532014421623083e-22
-5.514812472508160577e-22
-5.104615166850602278e-22
-4.467473252336603912e-22
-3.710552943635560690e-22
-3.040061317825447238e-22
-2.582987731885087595e-22
-2.217125124041783684e-22
-1.695573801708249050e-22
-1.184950422651277964e-22
-9.525938632000456683e-23
-6.627403255024472910e-23
-4.929941494946596953e-23
-3.411073631102378345e-23
-2.437709656718669972e-23
-1.737399752304669357e-23
-1.244966773725388880e-23
-9.035330311038942542e-24
-6.659049019858483138e-24
-5.002755126790630198e-24
-3.822942309320322328e-24
-2.958342745990143748e-24
-2.305240354353480486e-24
-1.795894389720664823e-24
-1.389110767017804126e-24
-1.060229907108730396e-24
-7.945963456582741342e-25
