# bin_2_11
-3.360272844319343773e-25
-3.782171821391671345e-25
-4.182773109370411945e-25
-4.525791642107204320e-25
-4.764267859391748067e-25
-4.846833110185887396e-25
-4.725092304897462724e-25
-4.351960554002207161e-25
-3.790222215149823862e-25
-3.136917965395168579e-25
-2.573187916742933698e-25
-2.196890070688174990e-25
-1.879699784562475260e-25
-1.413860900419927668e-25
-9.900541186810056720e-26
-8.018033529606170942e-26
-5.424370359086958129e-26
-4.074554196087677843e-26
-2.778247435239267739e-26
-1.940070106751859383e-26
-1.358316836707934124e-26
-9.511955350872118797e-27
-6.708694767833669022e-27
-4.788148505286747934e-27
-3.483712822953036341e-27
-2.584176651671935042e-27
-1.951591876246782638e-27
-1.495482777796831820e-27
-1.155395509505480535e-27
-8.935328604128335813e-28
-6.867099202940513246e-28
