# bin_6_4
-1.882475225682222199e-09
-2.077399404947188673e-09
-2.242603897919033705e-09
-2.354692211879559063e-09
-2.389097093065434998e-09
-2.320624402373615398e-09
-2.129782470246793991e-09
-1.848428541156635179e-09
-1.527516790708525364e-09
-1.254701718740964344e-09
-1.072537120304948500e-09
-9.128410696846202618e-10
-6.821431775478657609e-10
-4.828629790673136006e-10
-3.893140887584523521e-10
-2.657693566459018811e-10
-2.000186345988614680e-10
-1.391638238491337057e-10
-9.892009575416224168e-11
-7.079542122164445739e-11
-5.101057041824523247e-11
-3.725184462518626586e-11
-2.764630805728521477e-11
-2.091316906753143483e-11
-1.607276239288197273e-11
-1.248842290962325715e-11
-9.750635746805159188e-12
-7.594748052471863472e-12
-5.861864123532508673e-12
-4.457095544964976973e-12
-3.323277351182845291e-12
