# bin_9_10
-9.773170155495881996e-09
-1.107825179323705985e-08
-1.235723599811961021e-08
-1.351230340404552821e-08
-1.441240328568343734e-08
-1.489452538940307648e-08
-1.483187029354339880e-08
-1.401858880612508809e-08
-1.251270807186689142e-08
-1.055698159290483903e-08
-8.638035541257061484e-09
-7.224542691671176301e-09
-6.258214117209370331e-09
-5.053874009628589617e-09
-3.520488308975076721e-09
-2.708134828047462129e-09
-2.026056407464463808e-09
-1.405017493396898414e-09
-9.866234735312753948e-10
-7.005611306365909375e-10
-4.815498189516488498e-10
-3.300673114663330313e-10
-2.278235209022341582e-10
-1.585855342609158864e-10
-1.119083101201412613e-10
-8.046410814076682328e-11
-5.900772164797956598e-11
-4.414658772906659872e-11
-3.357529394552864396e-11
-2.580688462346618403e-11
-1.989949754050544279e-11
