# bin_3_5
-8.800829126008664435e-13
-9.550343408465476875e-13
-1.009697116552929515e-12
-1.033048220505751543e-12
-1.015544054950345829e-12
-9.454907973003010902e-13
-8.321879147903979048e-13
-6.945586317626179605e-13
-5.687954656152986693e-13
-4.805521467038696745e-13
-4.131402616118229403e-13
-3.218375704817902377e-13
-2.257339913188916143e-13
-1.787581333681427944e-13
-1.285424515718943889e-13
-9.404610960453003745e-14
-6.651435165976779826e-14
-4.825235680860707949e-14
-3.482786120698739075e-14
-2.538140056359901233e-14
-1.879446532856604054e-14
-1.415523283354652432e-14
-1.085268306285203402e-14
-8.440044099657635776e-15
-6.618520285601879632e-15
-5.199388923655805928e-15
-4.062976003173867009e-15
-3.137600518506116600e-15
-2.381231194493464547e-15
-1.768181831367045595e-15
-1.280522908425415113e-15
