# bin_4_8
-6.709510738909272302e-16
-7.462863846103777572e-16
-8.134815974132519891e-16
-8.645420968285161342e-16
-8.897362881268831249e-16
-8.814455268184341095e-16
-8.279265154999724111e-16
-7.347542844956031018e-16
-6.168703603047611636e-16
-5.046189779554880798e-16
-4.238423263901062580e-16
-3.664933460105020307e-16
-2.915933402362630140e-16
-2.029794359586050120e-16
-1.586952436396986960e-16
-1.164494943010856967e-16
-8.298567801482430391e-17
-5.823620145463712978e-17
-4.190638228328388942e-17
-2.955607895680299572e-17
-2.093696298005802767e-17
-1.502541529528201732e-17
-1.094199685372514997e-17
-8.115908012380145035e-18
-6.132964384173822829e-18
-4.705176626526330545e-18
-3.647719804688875643e-18
-2.838368034904286352e-18
-2.200875589188591599e-18
-1.689264619353787073e-18
-1.276396775233150535e-18
