# bin_6_2
-1.656269010449800390e-09
-1.708512794115747925e-09
-1.697586330176887731e-09
-1.607071313110237110e-09
-1.440244375579102871e-09
-1.225511475613131390e-09
-1.010932519841328147e-09
-8.427858258091424453e-10
-7.174556623701503089e-10
-5.816982757371904296e-10
-4.277715155323262303e-10
-3.198184097558264034e-10
-2.439656859010757544e-10
-1.754390001441135082e-10
-1.291799895110625815e-10
-9.399009288137308358e-11
-6.914590209652290554e-11
-5.150075287440285223e-11
-3.899779086241990734e-11
-3.005540495960346612e-11
-2.352280960295321228e-11
-1.861287434640226933e-11
-1.478835325654047101e-11
-1.171395271074390458e-11
-9.187697714512109985e-12
-7.091675007197472055e-12
-5.359620250203164404e-12
-3.951752527460766440e-12
-2.836907847570971859e-12
-1.982870454242071239e-12
-1.351520326275180972e-12
