# bin_6_6
-6.226764818287021529e-11
-6.884665466020899157e-11
-7.449708003915209565e-11
-7.845243146144023503e-11
-7.987214915294761875e-11
-7.796642692085819162e-11
-7.196096658273866492e-11
-6.280286171961574793e-11
-5.208602238667888551e-11
-4.272055208552225291e-11
-3.636429547853149563e-11
-3.110615793424196703e-11
-2.361772090207751679e-11
-1.659669302301039411e-11
-1.332571155953639914e-11
-9.237693466179072748e-12
-6.880224080471255975e-12
-4.776352718799513801e-12
-3.408866108359119284e-12
-2.431966910284999769e-12
-1.745396489257972672e-12
-1.269254384345850643e-12
-9.375382119794223227e-13
-7.058846121383978278e-13
-5.403718960521648454e-13
-4.186595936730266869e-13
-3.263888271002558160e-13
-2.542078987126745583e-13
-1.964493332926033264e-13
-1.497221305980049579e-13
-1.119996363470838716e-13
