# bin_8_3
-1.206115501238937866e-09
-1.284113518618250404e-09
-1.325996859226578314e-09
-1.318969992668823596e-09
-1.248536664540822575e-09
-1.117611314795171051e-09
-9.483000970109309031e-10
-7.796193108411972599e-10
-6.503067780579019602e-10
-5.571444578081796363e-10
-4.515850470455616042e-10
-3.266180147909839736e-10
-2.458402843104980467e-10
-1.874061762389343689e-10
-1.330751874191465702e-10
-9.770642613361605735e-11
-7.051893867092059852e-11
-5.122813871128536920e-11
-3.765667491500096457e-11
-2.810242537205034542e-11
-2.134009810859135233e-11
-1.647704010129321762e-11
-1.289646852286424372e-11
-1.016804726091272170e-11
-8.020741743115199876e-12
-6.286531163245458295e-12
-4.864022247902574701e-12
-3.694802657676411258e-12
-2.743604189120017615e-12
-1.985712086505513244e-12
-1.399324980968614387e-12
