# bin_5_5
-8.193466610040769387e-11
-8.964796717978553926e-11
-9.575708756428602438e-11
-9.921322171839660767e-11
-9.911118764035917092e-11
-9.419709541816128545e-11
-8.456818751965374908e-11
-7.182328835477043830e-11
-5.889049388941324537e-11
-4.899457437865119968e-11
-4.225387749946663194e-11
-3.458700156711441497e-11
-2.464580741222424643e-11
-1.852037034053641723e-11
-1.427144071724255485e-11
-9.901916500019040379e-12
-7.261821326264207239e-12
-5.204861769177174273e-12
-3.709848373613521560e-12
-2.673970897213345525e-12
-1.952365611846011118e-12
-1.449164590202336335e-12
-1.094791503698211509e-12
-8.413750617898108905e-13
-6.545118363809291956e-13
-5.123211446402945700e-13
-4.007725786235870438e-13
-3.111261921246273882e-13
-2.382406997335580796e-13
-1.790353165571158842e-13
-1.315256260335510630e-13
