# bin_2_4
-7.605646171585504276e-13
-8.098996811814667232e-13
-8.362783586851313782e-13
-8.320726244127868948e-13
-7.870502320998925324e-13
-7.035386848179701592e-13
-5.953517009956827706e-13
-4.880389097580739706e-13
-4.071682378123322852e-13
-3.506256302888671644e-13
-2.842268682551986738e-13
-2.025481741397820562e-13
-1.539074529882758057e-13
-1.173444026244341061e-13
-8.286155409392942590e-14
-6.078322585469059119e-14
-4.410572666346503398e-14
-3.198623611433607374e-14
-2.351638155707897611e-14
-1.756843951876434213e-14
-1.335979131243232230e-14
-1.033201432964730546e-14
-8.099547738506846498e-15
-6.394508027508558952e-15
-5.049363244765540953e-15
-3.960296355903043735e-15
-3.064987955271832896e-15
-2.327825145228852383e-15
-1.727394462234514420e-15
-1.248659544694205706e-15
-8.783886897920414742e-16
