# bin_12_9
-1.625734281199510652e-10
-1.837492524365390042e-10
-2.042378038260395578e-10
-2.223609181904117248e-10
-2.358968626277455499e-10
-2.421885633141302098e-10
-2.391205673307673691e-10
-2.236070206236030395e-10
-1.976022902217950510e-10
-1.653040977089705256e-10
-1.352806004185062998e-10
-1.141181665538742481e-10
-9.856394639377497175e-11
-7.737063451144948633e-11
-5.369615462486182066e-11
-4.244276402878301308e-11
-3.037289157212240055e-11
-2.186553129148041125e-11
-1.501449059377792412e-11
-1.063353423967612463e-11
-7.367370795179123936e-12
-5.094710990956112840e-12
-3.548541970345765767e-12
-2.495198443527145730e-12
-1.783502720428539474e-12
-1.299709252226531802e-12
-9.656365207129306158e-13
-7.304884263884852117e-13
-5.598702951407646378e-13
-4.318794755023290785e-13
-3.328113508206886729e-13
