# bin_3_10
-5.896804346826598900e-23
-6.609159600429170381e-23
-7.271948556379359576e-23
-7.818946894664896802e-23
-8.166176733180821209e-23
-8.233866129108663770e-23
-7.922915615950889052e-23
-7.196070029035830568e-23
-6.179743319446109302e-23
-5.078474470232914522e-23
-4.189841422045643936e-23
-3.607866661868634180e-23
-3.029383024168481456e-23
-2.195081369645180897e-23
-1.587667290452334885e-23
-1.268606392409736061e-23
-8.482097722091041170e-24
-6.353756780155972713e-24
-4.427012644329516998e-24
-3.076608246478456597e-24
-2.160173387237739980e-24
-1.522855687860056669e-24
-1.086156417369240316e-24
-7.863079025049952808e-25
-5.807111427211010987e-25
-4.368489176620038004e-25
-3.338304672475284226e-25
-2.578608808354344749e-25
-1.999186028436407713e-25
-1.544481122831189057e-25
-1.181030322365471822e-25
