# bin_8_6
-2.441432042356035899e-10
-2.708895492294751006e-10
-2.943986116737274343e-10
-3.117264931888646472e-10
-3.194347367897179606e-10
-3.146229658284070312e-10
-2.935179888173111975e-10
-2.588145926157263360e-10
-2.162642779640539738e-10
-1.770371400170738288e-10
-1.494023851138465700e-10
-1.286513746114325424e-10
-1.006090814687206613e-10
-7.028910688284072808e-11
-5.547028782009248350e-11
-3.985444977106774892e-11
-2.886723481684234029e-11
-2.019385246253270982e-11
-1.446760704283573166e-11
-1.024652069749948940e-11
-7.294954397247049466e-12
-5.260246722648818328e-12
-3.850566627587607446e-12
-2.871851166533486542e-12
-2.180659132360582286e-12
-1.679124795215682215e-12
-1.304435513643434700e-12
-1.015296674294749389e-12
-7.861918695905521949e-13
-6.017761429111044440e-13
-4.529488270227855028e-13
