# bin_7_7
-4.822971506006767316e-11
-5.377440907312489014e-11
-5.879068496689753660e-11
-6.271422358784069479e-11
-6.484645274639520201e-11
-6.461923966511209645e-11
-6.117202105436984886e-11
-5.468948495025501938e-11
-4.623486582103474018e-11
-3.784391103883203043e-11
-3.157818882435162580e-11
-2.730350603628659105e-11
-2.215556072698197945e-11
-1.556796979433224431e-11
-1.186395484710275964e-11
-8.990505843501409660e-12
-6.236291544448883768e-12
-4.477818309251453155e-12
-3.198821080627731486e-12
-2.242611595158213787e-12
-1.581420397474387943e-12
-1.127524800750676473e-12
-8.155236078808455509e-13
-6.002299432704676125e-13
-4.503757418678454442e-13
-3.435085751022854496e-13
-2.652317049245736252e-13
-2.060148432256540940e-13
-1.598148782335670176e-13
-1.229651747567789072e-13
-9.329070666339530297e-14
