# bin_1_10
-1.290541221911572846e-31
-1.443485660642751523e-31
-1.584281854041871834e-31
-1.698184771593153586e-31
-1.766630161011015087e-31
-1.773268338721113873e-31
-1.695302250386550897e-31
-1.529939693281072289e-31
-1.305309656001228185e-31
-1.070357982704895280e-31
-8.867195900186284773e-32
-7.656343734454699017e-32
-6.350563702666401556e-32
-4.532410527530700350e-32
-3.347639468044974575e-32
-2.627305951488025048e-32
-1.774077113467003189e-32
-1.309335770298536431e-32
-9.233935675042528699e-33
-6.433861112170134766e-33
-4.520508707436562028e-33
-3.199361800317852702e-33
-2.294757617281135148e-33
-1.672596361946406758e-33
-1.243538281201881441e-33
-9.410597737812604480e-34
-7.224947709227982356e-34
-5.596050702170176900e-34
-4.341488698480664938e-34
-3.349658720779483656e-34
-2.553846333604828385e-34
