# bin_3_6
-2.088295958908023601e-14
-2.288951490458165658e-14
-2.450356904140849939e-14
-2.545812370287351078e-14
-2.551866138192944900e-14
-2.436237613254251406e-14
-2.196338127222961172e-14
-1.872418561854163468e-14
-1.535633466946276910e-14
-1.272883261286739907e-14
-1.097581730535076604e-14
-9.078442343783733891e-15
-6.501201916625408908e-15
-4.820586336988632724e-15
-3.773107925258233488e-15
-2.585477126442827466e-15
-1.915497270928777381e-15
-1.367139869718989590e-15
-9.715822662904219119e-16
-6.987995983040885919e-16
-5.086266328367650739e-16
-3.762949657135729476e-16
-2.833022564010601842e-16
-2.171086291732717911e-16
-1.685519642131329049e-16
-1.318006009017808290e-16
-1.031102335168213524e-16
-8.012946247935287786e-17
-6.147387645418373582e-17
-4.631598474180791065e-17
-3.413108910833197483e-17
