# bin_7_10
-1.080592765400491397e-13
-1.218309061143424199e-13
-1.350075719443820550e-13
-1.464451382251777846e-13
-1.546477034823436041e-13
-1.578974923523884687e-13
-1.547496150674637349e-13
-1.433944802782948390e-13
-1.256201682329172977e-13
-1.043394869312810370e-13
-8.542012132761577743e-14
-7.256677177321324434e-14
-6.243818700429183400e-14
-4.779619385524959581e-14
-3.317662625467919192e-14
-2.675003254281297708e-14
-1.842739295120759548e-14
-1.368145621198953674e-14
-9.281153839272435018e-15
-6.525989694466606396e-15
-4.553280730189846054e-15
-3.174646941096076260e-15
-2.227827380242659366e-15
-1.580051815225396470e-15
-1.141412268697275820e-15
-8.408088557654970724e-16
-6.310553943675573774e-16
-4.813421930115501143e-16
-3.709276925074118075e-16
-2.867549700897147525e-16
-2.207487145763441957e-16
