# bin_2_8
-9.897419042464446585e-22
-1.096494385811875262e-21
-1.189406100461874505e-21
-1.256431331249009960e-21
-1.283704466143461708e-21
-1.259505742617665415e-21
-1.169109188291871359e-21
-1.025932784745040728e-21
-8.535327319081769796e-22
-6.986096577246460760e-22
-5.920708357878367233e-22
-5.093908732707774809e-22
-3.927877531894388030e-22
-2.735367323977128746e-22
-2.191881044201175794e-22
-1.538643847563766202e-22
-1.136909795284523795e-22
-7.861724550573363159e-23
-5.631395810065134540e-23
-4.005990760712882266e-23
-2.864112404057039275e-23
-2.073964038857510015e-23
-1.524662677472677196e-23
-1.142515236529890366e-23
-8.711768337812626920e-24
-6.730481835874769954e-24
-5.239842811138151110e-24
-4.081534632794525317e-24
-3.158815268678474203e-24
-2.413733244688174539e-24
-1.811951981904431395e-24
