# bin_2_3
-2.284590453312474651e-11
-2.395386698223296650e-11
-2.428118027119037395e-11
-2.357462748149408740e-11
-2.166223070473819827e-11
-1.883037898156198280e-11
-1.561074147327098312e-11
-1.283616855870000234e-11
-1.091549716330465697e-11
-9.244310700186969291e-12
-7.006194306050881632e-12
-5.021464520525096349e-12
-3.967186463883593021e-12
-2.825555814460006011e-12
-2.094328620321550907e-12
-1.504060922039481292e-12
-1.100102565109369710e-12
-8.099055540187367309e-13
-6.047598389310302822e-13
-4.597026813853008614e-13
-3.554383155977442727e-13
-2.788924626573226378e-13
-2.207482616401747835e-13
-1.750173887073809503e-13
-1.380200206218771239e-13
-1.075357525185838145e-13
-8.229358128951842818e-14
-6.156561743363495586e-14
-4.487873161201813965e-14
-3.183219396585791497e-14
-2.198283956950397032e-14
