# bin_12_6
-5.069039011153635959e-10
-5.635734847648089392e-10
-6.139973151560180318e-10
-6.521300668875437304e-10
-6.707448879949878861e-10
-6.638128830085611610e-10
-6.230363025119438379e-10
-5.525848708167264454e-10
-4.640755502315562797e-10
-3.800265872462881218e-10
-3.193480147342934432e-10
-2.754503859249021520e-10
-2.186517189234134468e-10
-1.532323003695264016e-10
-1.192483806311615779e-10
-8.751753672738165738e-11
-6.234873405958550561e-11
-4.406995769066439522e-11
-3.152092279851948337e-11
-2.223687302275313115e-11
-1.577363446317308415e-11
-1.132264787121656515e-11
-8.247792299889005178e-12
-6.118389928038755519e-12
-4.623470204346426186e-12
-3.546448426082014036e-12
-2.748281663025102400e-12
-2.137273510791421941e-12
-1.656138147824254265e-12
-1.270273993635371954e-12
-9.591559582711833258e-13
