# bin_8_4
-7.247232331085395425e-10
-7.874746943784524537e-10
-8.339562666194506787e-10
-8.551785884409170187e-10
-8.430550108954195844e-10
-7.882357236625882689e-10
-6.966827275318988949e-10
-5.840714309231308662e-10
-4.787652532874602147e-10
-4.028492441281662722e-10
-3.457582082217670217e-10
-2.725195257533212518e-10
-1.928875105534140634e-10
-1.498766496061879396e-10
-1.100855559891965024e-10
-7.916458166001107096e-11
-5.678190986806393048e-11
-4.097929108746907785e-11
-2.947465926752927137e-11
-2.142411485418679169e-11
-1.580860898859616481e-11
-1.186393416857952133e-11
-9.061962193528336745e-12
-7.025631544386476006e-12
-5.496984503050851764e-12
-4.312825746659881321e-12
-3.369496124283415531e-12
-2.604098749978804573e-12
-1.979672358543907681e-12
-1.473675493104665090e-12
-1.070686498086338003e-12
