# bin_1_5
-1.566776377611923957e-17
-1.683458882205866604e-17
-1.757887462707127293e-17
-1.772811491303648924e-17
-1.707948006987047006e-17
-1.554725461471812687e-17
-1.338583581316156966e-17
-1.102430668931801360e-17
-9.087330322918700245e-18
-7.790069950048493041e-18
-6.546550261495867663e-18
-4.816837185568259817e-18
-3.484125275661802606e-18
-2.775022654063646993e-18
-1.915021802761435531e-18
-1.437756845469366443e-18
-1.022935371125258937e-18
-7.379664028446763316e-19
-5.385364620175566667e-19
-3.979013077588476909e-19
-2.990086541537757375e-19
-2.285686556228834784e-19
-1.775750107183235089e-19
-1.394161639466658570e-19
-1.098888261263610748e-19
-8.636064206104005901e-20
-6.720374695286271359e-20
-5.147545614441791636e-20
-3.861726408115458361e-20
-2.826796052716259342e-20
-2.014810155725759544e-20
