# bin_1_11
-1.991016839167287291e-34
-2.239152753901941281e-34
-2.473864869406243792e-34
-2.673470389023052696e-34
-2.810035595062847693e-34
-2.853777734245733859e-34
-2.775024213664236569e-34
-2.548714930068961525e-34
-2.213566699628907049e-34
-1.829170586895979168e-34
-1.501928805551968782e-34
-1.284827251283486358e-34
-1.095832726857171793e-34
-8.178663354745942326e-35
-5.757323862278325134e-35
-4.660968368985809997e-35
-3.136360228315503461e-35
-2.361349013161671637e-35
-1.615969571382457678e-35
-1.126086662081909519e-35
-7.891905243575756710e-36
-5.534791261051401017e-36
-3.912413440724837331e-36
-2.800400780004432878e-36
-2.043872800656602468e-36
-1.520675502217622142e-36
-1.151421343749188907e-36
-8.839574181583534634e-37
-6.835718867172134252e-37
-5.286283308354957993e-37
-4.059043992259629122e-37
