# bin_11_1
1.295315704449702556e-27
1.457189913037680245e-27
1.610523550114746212e-27
1.741254072042020122e-27
1.831234605180120607e-27
1.860933019983794080e-27
1.811282247544028449e-27
1.665300531157530380e-27
1.447812459413918873e-27
1.197087221489736059e-27
9.825679708352213557e-28
8.399225201309238184e-28
7.172171662555413757e-28
5.368444736927529599e-28
3.771700625814404606e-28
3.053844058545255599e-28
2.059063051592526585e-28
1.548902921789693696e-28
1.058560150731262729e-28
7.382307631008987179e-29
5.171798832261273337e-29
3.625065684167860235e-29
2.560330717281143399e-29
1.830664214775610868e-29
1.334560473788974427e-29
9.918329709667550219e-30
7.502710480562099519e-30
5.755964016714499845e-30
4.449608465514285054e-30
3.441063610220712932e-30
2.643073644718594538e-30
