# bin_5_1
2.313194356302850916e-11
2.489739214965255953e-11
2.605567486424499139e-11
2.634498573646874728e-11
2.547572796474529228e-11
2.328173848170549646e-11
2.012369796507925498e-11
1.660359069785390044e-11
1.366073964920012121e-11
1.168509441749356371e-11
9.875219870947716425e-12
7.334187364750686114e-12
5.258053368344445546e-12
4.205644985587268721e-12
2.906307825717468836e-12
2.183508065920657945e-12
1.546983312702944837e-12
1.116302276430499514e-12
8.133054582281991000e-13
5.994611631970134811e-13
4.492555681045966314e-13
3.424870550507153946e-13
2.654730981315461671e-13
2.080999593564176113e-13
1.639004482880027247e-13
1.288167867596093733e-13
1.003265313501066933e-13
7.696259965049956190e-14
5.785773838423664928e-14
4.245837203711707876e-14
3.034482388134497235e-14
