# bin_7_6
2.945023089438287006e-06
3.286620288102988106e-06
3.597436979091421171e-06
3.843308997900544714e-06
3.981592314358073004e-06
3.977197155572677879e-06
3.776956899861234342e-06
3.386754091472699368e-06
2.871057531306770053e-06
2.350645425253161971e-06
1.956585580130997278e-06
1.691930960942617146e-06
1.383377127928537949e-06
9.748960873410314206e-07
7.361678153405791056e-07
5.646214633055828018e-07
3.876412064554679622e-07
2.805790889363581986e-07
2.000083373058273915e-07
1.398805763006034209e-07
9.843152179110943696e-08
6.998682416649282269e-08
5.047615891828130780e-08
3.703179346961448868e-08
2.770403817957249689e-08
2.107826418269237402e-08
1.624742709112150519e-08
1.261039766513712426e-08
9.784045617450281386e-09
7.535379316933033448e-09
5.726095269518985921e-09
