# bin_8_1
2.241044172388069315e-19
2.479019266549801149e-19
2.684233738593953893e-19
2.829257022379116093e-19
2.883387671875314339e-19
2.819118269024188979e-19
2.606272795018427335e-19
2.278276411700015964e-19
1.890530186494440217e-19
1.548739045813705586e-19
1.316476197670321483e-19
1.128992022063817999e-19
8.609694145403891832e-20
6.019640056823954697e-20
4.844432693226373316e-20
3.359128058836030660e-20
2.504133362252081048e-20
1.731845049927255956e-20
1.236551096580481377e-20
8.816683136795700319e-21
6.320939605077408991e-21
4.589743435749520551e-21
3.384431736676145471e-21
2.544157402973199847e-21
1.945115896148308371e-21
1.505669989650599953e-21
1.173362576464982848e-21
9.139440485092305849e-22
7.066282257993465330e-22
5.389825461513296816e-22
4.036119103474359980e-22
