# bin_9_5
2.984591457158501647e-09
3.345964628944051464e-09
3.682804193301712914e-09
3.961751627023285427e-09
4.140446936136657626e-09
4.178046045613639928e-09
4.025105685162537351e-09
3.660456391848165755e-09
3.147591126113644665e-09
2.588079501321000269e-09
2.133668025739748373e-09
1.835908068424127468e-09
1.544654995577785716e-09
1.122813173219538143e-09
8.090355597350089697e-10
6.481595778883192076e-10
4.329299722990063346e-10
3.249374245003284432e-10
2.258480018731751152e-10
1.568872161064347343e-10
1.101204522587607259e-10
7.756170191565845637e-11
5.524618196547713520e-11
3.993131794458966159e-11
2.944364060358127713e-11
2.211743796050504145e-11
1.688197793171412602e-11
1.303030941231795857e-11
1.009923762285374049e-11
7.803103750736515362e-12
5.969626102693394233e-12
