# bin_15_13
2.053298849457340885e-06
2.353708522535573648e-06
2.662916595685353953e-06
2.962356915077422508e-06
3.227634252046623204e-06
3.426351790422407027e-06
3.519214657150725096e-06
3.476642715300597524e-06
3.251596696109616868e-06
2.873598578794066739e-06
2.402314414550312058e-06
1.964947981046793817e-06
1.658520394599698643e-06
1.434828412539888796e-06
1.124772005265392786e-06
7.758925507620985518e-07
6.166740873646029812e-07
4.376084907006293779e-07
3.154662865818664566e-07
2.120048593216173409e-07
1.488712889652972186e-07
1.010568403621448121e-07
6.785549677238750082e-08
4.547332782746173613e-08
3.041559430826967587e-08
2.047778623781009275e-08
1.394569812595857635e-08
9.650701904419595371e-09
6.822081648000311744e-09
4.937033131632667530e-09
3.655064655787780910e-09
