# bin_8_7
2.992889666581498879e-06
3.359951358673362357e-06
3.704465242859672985e-06
3.993406664870754308e-06
4.184588024637243530e-06
4.235222873990981943e-06
4.098192816625156250e-06
3.744065942999463923e-06
3.234519335517034898e-06
2.665043933730822482e-06
2.192030923077319690e-06
1.881024138125094452e-06
1.593807084974082767e-06
1.172795634770290344e-06
8.344294317080758576e-07
6.734178129808546321e-07
4.499210487188851586e-07
3.391491785638684554e-07
2.337855080650108790e-07
1.624346974346834890e-07
1.139571533234907682e-07
8.009475287548031443e-08
5.683160274299678176e-08
4.087856965378759147e-08
2.999279685566812766e-08
2.242685141482923265e-08
1.705354968750418824e-08
1.313041038185759411e-08
1.016710402839255536e-08
7.859745402277367665e-09
6.023937112327253145e-09
