# bin_3_3
1.406947511626900802e-10
1.505549484576137628e-10
1.564025933669554030e-10
1.567645512433332526e-10
1.497439075402953814e-10
1.351676088688258468e-10
1.154057068791576259e-10
9.487458915883586480e-11
7.867634449544891663e-11
6.765454254520718031e-11
5.593105565044717643e-11
4.047668170453819003e-11
2.999191835665715801e-11
2.343221747528308787e-11
1.631788055523076814e-11
1.212831727711271925e-11
8.716448634725234453e-12
6.301119558044672605e-12
4.614035296836509655e-12
3.427073682760009486e-12
2.590151649302290489e-12
1.991304411705550708e-12
1.554039208750121954e-12
1.223616074305929981e-12
9.655222176173069915e-13
7.582304633318691027e-13
5.886065608245776659e-13
4.490996720994103917e-13
3.352120584761404511e-13
2.439310719517406559e-13
1.727875113631171568e-13
