# bin_7_4
4.590401992060113679e-13
5.095806846999002543e-13
5.541188021237250118e-13
5.871135111687869155e-13
6.020002797004036636e-13
5.934482209938576101e-13
5.539928524605119162e-13
4.887683895167460269e-13
4.084793013773262424e-13
3.343470813270396415e-13
2.823304517217446148e-13
2.436150331088710145e-13
1.905788486841155626e-13
1.325734491656449001e-13
1.052446148946157660e-13
7.531257530815113882e-14
5.482963838569420347e-14
3.808685241522902010e-14
2.736918283068936171e-14
1.940074826136636928e-14
1.381520946060381229e-14
9.965575062220266979e-15
7.296012497006709447e-15
5.443314756211890351e-15
4.134723904815899932e-15
3.185132255404115039e-15
2.475643679709987772e-15
1.927913568159582727e-15
1.493641939431340540e-15
1.143808581649908699e-15
8.612743705564849580e-16
