# bin_14_2
1.329060667668617712e-34
1.510170028082220311e-34
1.689636135450173274e-34
1.854416228526713118e-34
1.987036450448211653e-34
2.065482397376619118e-34
2.070996733602993571e-34
1.975814294906985731e-34
1.779425175654615015e-34
1.513969334416950608e-34
1.241616006662484551e-34
1.031540085802166382e-34
8.926253065888182186e-35
7.362650572507567949e-35
5.207783852096099338e-35
3.886284393033261081e-35
3.013964333181626296e-35
2.032145207879430893e-35
1.474294264142013982e-35
1.033099817603376285e-35
7.062618779860870809e-36
4.828703865786504698e-36
3.307862072189030542e-36
2.282819108332213420e-36
1.592821593519045251e-36
1.131220737311451553e-36
8.190601324584016036e-37
6.055728921977456951e-37
4.562794444073339729e-37
3.486627810724167083e-37
2.683351125838214340e-37
