# bin_14_7
1.508901834641388913e-17
1.719045057665098086e-17
1.929906978469071274e-17
2.126950476172517816e-17
2.290858586363952447e-17
2.397022821259905007e-17
2.421568699791562756e-17
2.335386407506364580e-17
2.125677014966359538e-17
1.828208986887571697e-17
1.504861525448462269e-17
1.241390176588508267e-17
1.069456069280800845e-17
9.007383938346679601e-18
6.536214955593893676e-18
4.703909796635442503e-18
3.772228655070693551e-18
2.494727924130364616e-18
1.865904847325593828e-18
1.280969527279573372e-18
8.718306422199115498e-19
5.965393182037508594e-19
4.060820307426952803e-19
2.774591351668373617e-19
1.909527297341090228e-19
1.335070020165537869e-19
9.504466588321727689e-20
6.910429509225113025e-20
5.132420138033310957e-20
3.881381923605165207e-20
2.971171392273074427e-20
