# bin_12_1
5.006286838228820532e-35
5.654020218582193006e-35
6.278436965188182431e-35
6.827378658532400717e-35
7.231970640704185368e-35
7.410648379828842488e-35
7.298158895268147106e-35
6.801940700715422059e-35
5.991467269805196510e-35
4.999355859288883870e-35
4.092151451748071784e-35
3.463219814142361563e-35
2.989602877259731366e-35
2.323633605426193227e-35
1.609538733953176350e-35
1.286267923401740434e-35
9.049313370105359561e-36
6.614075343810501063e-36
4.498939199318804559e-36
3.183696167152232924e-36
2.212952503305973875e-36
1.535720068643791654e-36
1.073199120155636973e-36
7.573172723810446350e-37
5.437482441517535076e-37
3.980819567580935269e-37
2.970732266909900559e-37
2.255772965198230830e-37
1.733498805395006669e-37
1.338998022450568261e-37
1.031842339769476924e-37
