# bin_9_9
4.469385649979497831e-11
5.058462357918303846e-11
5.631714399269812612e-11
6.143663105310731883e-11
6.533605252610940987e-11
6.727183337935084083e-11
6.667504114017487597e-11
6.263435679119958898e-11
5.558870406073679660e-11
4.665789775354852087e-11
3.817718303811338718e-11
3.210326467793103306e-11
2.779279956569750728e-11
2.207769769903926386e-11
1.529933624075537896e-11
1.200157954021525911e-11
8.733546931133334137e-12
6.205589620085741591e-12
4.274559401873835073e-12
3.042455751608003480e-12
2.101640548328565082e-12
1.447567727154855336e-12
1.004948294477144567e-12
7.038557145380689660e-13
5.006382631860679440e-13
3.629972245765343989e-13
2.684065841891409998e-13
2.022623169758680952e-13
1.546403848012639867e-13
1.191920394899486973e-13
9.192487999679426465e-14
