# bin_12_3
1.076288281951682302e-25
1.216737233551751227e-25
1.352715174124011277e-25
1.473131412472004514e-25
1.563260367828005133e-25
1.605352028872097634e-25
1.585634616984023300e-25
1.483121085816749856e-25
1.310895343912762374e-25
1.096633711658456466e-25
8.973516012690522430e-26
7.572463964121798769e-26
6.547608815463350493e-26
5.140004101625661185e-26
3.557623928933905252e-26
2.822099041864526923e-26
2.015128805555455664e-26
1.455202306061623115e-26
9.935524935205783097e-27
7.056300948592840984e-27
4.891075224313644943e-27
3.382641383041216352e-27
2.356984229100391591e-27
1.657581163357182674e-27
1.185137462173650303e-27
8.639375053430877179e-28
6.421260312969968883e-28
4.859932918944987227e-28
3.726791643987815770e-28
2.876374255293048582e-28
2.217681073005695758e-28
