# bin_10_2
1.416839958103858193e-20
1.587388020868645898e-20
1.745738717590021545e-20
1.875904844183355702e-20
1.957634316386074122e-20
1.972030876468293811e-20
1.894899930076542638e-20
1.718755076528852267e-20
1.474019624701943326e-20
1.211066254953342804e-20
1.000474033031438862e-20
8.622514134087183284e-21
7.218507799553322415e-21
5.211779455812381968e-21
3.790887212866835124e-21
3.015400487467640414e-21
2.021792680640983139e-21
1.508804534195483238e-21
1.054710262044548403e-21
7.335794100045911439e-22
5.151577524062125836e-22
3.635337467634692943e-22
2.596602013613245099e-22
1.883064538830790183e-22
1.393067735807491887e-22
1.049551052909823914e-22
8.030108533084449595e-23
6.207186530097610684e-23
4.813406090788665172e-23
3.717554142994324895e-23
2.840749784115663104e-23
