# bin_6_3
1.544059124366366614e-08
1.694890512082720969e-08
1.817656622486382029e-08
1.892689829995408851e-08
1.902117102570697380e-08
1.822433392409664524e-08
1.648860042918720485e-08
1.410730547567479529e-08
1.158540947704423156e-08
9.585081991356190041e-09
8.256904168483748634e-09
6.874575796337428667e-09
4.958368985869386716e-09
3.640569354444670324e-09
2.874979686829274020e-09
1.960630605263184663e-09
1.461861250212580807e-09
1.038269453119845067e-09
7.371051749035494623e-10
5.296830525306096904e-10
3.847623414585494841e-10
2.839626305418759385e-10
2.132234718994686066e-10
1.630302645829981643e-10
1.263532278785560414e-10
9.870739626125298636e-11
7.721017836950099493e-11
6.004047030940882758e-11
4.612300745474494137e-11
3.481582090083592769e-11
2.571661165759018987e-11
