# bin_14_7
1.299423716398760370e-12
1.480246170035030219e-12
1.661640368684366154e-12
1.831075902058685700e-12
1.971927822103317717e-12
2.063034850266171936e-12
2.083818495775644999e-12
2.009432253955099816e-12
1.828621224429827229e-12
1.573358156333259907e-12
1.293999349836682284e-12
1.067053182064977882e-12
9.190689125926731263e-13
7.741130633668770739e-13
5.617988654562233893e-13
4.040160613426848882e-13
3.240686393716516589e-13
2.142509136194184314e-13
1.602702141393736547e-13
1.099770700046706996e-13
7.483856740111645792e-14
5.120531532086490199e-14
3.485396987992191170e-14
2.381058907051359697e-14
1.638386095720941813e-14
1.145282066039313798e-14
8.151908911505241829e-15
5.925991010723372527e-15
4.400618797969641955e-15
3.327571493949809079e-15
2.547046958648369667e-15
