# bin_1_1
1.908377084173654484e-05
1.861173733110084016e-05
1.723899578005706119e-05
1.512558524345354592e-05
1.267048740651810582e-05
1.044873370879787232e-05
8.800908566847784938e-06
7.422608438916645711e-06
5.791914788742262004e-06
4.223449986886557978e-06
3.233720744473406211e-06
2.407236584543356969e-06
1.755822522045976259e-06
1.295129204490332499e-06
9.576843424621527278e-07
7.169483977949843405e-07
5.460250717598864259e-07
4.235464248681158645e-07
3.339362816151934057e-07
2.663629730101825493e-07
2.135223008924245437e-07
1.707232241624541742e-07
1.351873537857797215e-07
1.053435361365322394e-07
8.035345444387281682e-08
5.976644949632088259e-08
4.326283306711694327e-08
3.047421665036744936e-08
2.092381511894601763e-08
1.404198386085086255e-08
9.240728345712468205e-09
