# bin_6_5
2.846110506237077265e-06
3.152153002876528808e-06
3.417957400578236551e-06
3.608785430278488713e-06
3.685025733544288486e-06
3.612347754841568237e-06
3.349785029508715178e-06
2.936845469782668679e-06
2.442310549658850539e-06
2.000321780222088604e-06
1.697166281148161950e-06
1.458609070784587320e-06
1.121171396166404872e-06
7.824107315374036344e-07
6.274156337996798651e-07
4.391675033569955642e-07
3.251825968644810827e-07
2.250785746402695742e-07
1.610761527372575580e-07
1.146616215191348066e-07
8.204567648055313936e-08
5.946252632704308263e-08
4.375589681199314451e-08
3.282049278392832109e-08
2.504602431948806178e-08
1.936121124695184851e-08
1.507769155567025480e-08
1.174464676573667210e-08
9.087080781377020982e-09
6.940264901040505209e-09
5.206444329235681928e-09
