# bin_8_7
2.857131300322874314e-06
3.209364696572070357e-06
3.540655635092595885e-06
3.819516758193731296e-06
4.005631980972629079e-06
4.057680474457930814e-06
3.930983189940620810e-06
3.595786807629013917e-06
3.110308749743297217e-06
2.564734200044695976e-06
2.109307960506591709e-06
1.809342757453980407e-06
1.535330574724919902e-06
1.133128193984974690e-06
8.047052236354682508e-07
6.499354041145150553e-07
4.349394734004601803e-07
3.278392028110740361e-07
2.257106435797400580e-07
1.569490666636031046e-07
1.101127039570909252e-07
7.738012109485069409e-08
5.487848063613852947e-08
3.944563648878666640e-08
2.891852478061357293e-08
2.160717206101370366e-08
1.641969963563213597e-08
1.263714801460016146e-08
9.783907839596567338e-09
7.564838958883118431e-09
5.800561277347339712e-09
