# bin_11_3
1.326688052353791397e-18
1.494743482319581753e-18
1.655036390979028035e-18
1.793392179666232464e-18
1.891358067244215999e-18
1.928169849470642784e-18
1.885467543502957370e-18
1.742566035608323753e-18
1.522765597849021691e-18
1.262894771698870955e-18
1.034916119256949131e-18
8.813228171432942380e-19
7.565924654090651082e-19
5.745982622855426449e-19
4.003063357438953391e-19
3.236804596007461169e-19
2.209636129518261559e-19
1.651016115573405302e-19
1.122046781854577830e-19
7.862740260567459358e-20
5.495872393980807877e-20
3.840256552116967470e-20
2.701108015655010820e-20
1.921181999372953738e-20
1.392376515741033555e-20
1.028956251985759377e-20
7.744850072746051549e-21
5.920244003268763919e-21
4.567866698331814719e-21
3.532147632156279749e-21
2.717222393782693399e-21
