# bin_9_1
1.098251619695698251e-22
1.222696103289584537e-22
1.334303012573920783e-22
1.420066212251061180e-22
1.464030289666368767e-22
1.453616578065678849e-22
1.369316915239362195e-22
1.218547230692142612e-22
1.025613886490251932e-22
8.391448843292955110e-23
7.031989992618200912e-23
6.082353049265149193e-23
4.875048109769047170e-23
3.402396204910439194e-23
2.637304240598409043e-23
1.958186167139886820e-23
1.381632489839555182e-23
9.769160732333075484e-24
7.018534631849954577e-24
4.939221762613384877e-24
3.492201687500705352e-24
2.500279344181996805e-24
1.816375000041240084e-24
1.343575469627243839e-24
1.012793851053090750e-24
7.754467329995969317e-25
6.003614876706257467e-25
4.669042931864123254e-25
3.621300455514687445e-25
2.782155527064976885e-25
2.105377673991661902e-25
