# bin_12_8
2.303906086541695495e-08
2.617898619708110587e-08
2.929118116484534234e-08
3.214965683815386108e-08
3.445203701735051530e-08
3.581752496879275286e-08
3.591975072061610528e-08
3.428008604139342234e-08
3.087753225712225427e-08
2.628883199909082998e-08
2.154618725230383777e-08
1.788752025904708069e-08
1.547596604539625583e-08
1.277959805341203669e-08
9.044821315802685276e-09
6.735075757665332769e-09
5.234831342554823814e-09
3.521930640889185672e-09
2.560458964013385192e-09
1.792412766718339747e-09
1.224751022038568555e-09
8.371444111853437853e-10
5.731526935782555513e-10
3.953107076902240897e-10
2.756196559799763184e-10
1.955894569840121594e-10
1.415026593968684554e-10
1.045416890614041057e-10
7.872207397156359436e-11
6.013241331469318068e-11
4.627279691045057514e-11
