# bin_6_6
4.809781385515127972e-06
5.348882920396794729e-06
5.829235482199675087e-06
6.193477389345675953e-06
6.372010664114914287e-06
6.309944697958556024e-06
5.923926103056142693e-06
5.254897251588606324e-06
4.410435062652080347e-06
3.608212673548775861e-06
3.031781387029901384e-06
2.620700928277278074e-06
2.082366576060991506e-06
1.450201741345562514e-06
1.134560682315830001e-06
8.311140335576484296e-07
5.931098925448167538e-07
4.162158420956288108e-07
2.992968216819162578e-07
2.111645395651289149e-07
1.496557254898878133e-07
1.074368246732090492e-07
7.826760383919079757e-08
5.807559803547567306e-08
4.390111682264022587e-08
3.368934838290484026e-08
2.612148972736062172e-08
2.032582334190093096e-08
1.575890342420327628e-08
1.209305724865160995e-08
9.134792503131984166e-09
