# bin_12_7
1.098534712477738077e-13
1.246149199262383084e-13
1.391304217963030090e-13
1.523077016568365766e-13
1.626827227748776166e-13
1.684258280584819209e-13
1.680801441095791926e-13
1.593255630551851607e-13
1.425958500216255130e-13
1.206264975486160356e-13
9.873618276117155634e-14
8.238986704201361634e-14
7.136271538068090543e-14
5.803839128614103341e-14
4.058950919934665326e-14
3.092619038569076217e-14
2.341775950766389632e-14
1.607680632895141620e-14
1.140672690731381624e-14
8.073050932984859091e-15
5.538623081127401643e-15
3.791266585123007473e-15
2.610270004990503408e-15
1.812018612558413238e-15
1.274132067091133078e-15
9.126341128471623511e-16
6.666706560398319972e-16
4.970083534666049390e-16
3.769712021498532606e-16
2.892838853796534901e-16
2.229738066326419690e-16
