# bin_12_6
1.012317819082161962e-15
1.147173317218135321e-15
1.279159084438408571e-15
1.398114574563250629e-15
1.490434832599396238e-15
1.539234006253211882e-15
1.531466023194489417e-15
1.445889232880311866e-15
1.289217391610137436e-15
1.086650402722348870e-15
8.890376236497402954e-16
7.442178862388815753e-16
6.446498348865360289e-16
5.191323680110299955e-16
3.611761238478793383e-16
2.788215052556742940e-16
2.076096373374715560e-16
1.445598303264174856e-16
1.011322752128486875e-16
7.187378554872400975e-17
4.944408323414590141e-17
3.391434905345872216e-17
2.343295700802623392e-17
1.632928140013957136e-17
1.153922915435374543e-17
8.309591732836568251e-18
6.102921757708754030e-18
4.571968894802841937e-18
3.480599626882337080e-18
2.676711609158315708e-18
2.064098470036883456e-18
