# bin_10_9
2.645477034426311755e-09
2.994101077019031824e-09
3.333386607169074648e-09
3.636432591126441512e-09
3.867367557436712393e-09
3.982277863943957047e-09
3.947452328702925678e-09
3.709152316691175551e-09
3.292579519047441295e-09
2.764203438590429693e-09
2.261194719077339232e-09
1.900166475263575910e-09
1.644651274365465922e-09
1.307950880735888626e-09
9.070548531879994526e-10
7.098743128958704222e-10
5.178270422646262404e-10
3.669981375101754073e-10
2.534629608913174304e-10
1.802200535171029876e-10
1.244201461535331377e-10
8.566454424273332419e-11
5.943432479000689310e-11
4.160339874045477144e-11
2.956986919681566144e-11
2.142395169129152852e-11
1.582936321308942490e-11
1.192030993607336476e-11
9.108771282372574062e-12
7.018251290120849316e-12
5.411871159545059129e-12
