# bin_7_15
1.274158606262645853e-07
1.427177005775360394e-07
1.569071948175567622e-07
1.685452583481864332e-07
1.758109457464305240e-07
1.770076456124897113e-07
1.699931092491978911e-07
1.541650643828325795e-07
1.322067516832261826e-07
1.086982212202684357e-07
8.987211179558287364e-08
7.737174549315768391e-08
6.461889250304341414e-08
4.677753004694668806e-08
3.410458852989240434e-08
2.694404882236492089e-08
1.823388222152556411e-08
1.350994976849367027e-08
9.441940236731153861e-09
6.583916483807280524e-09
4.624368949814796642e-09
3.265362760348739215e-09
2.332741923868116805e-09
1.691855964808161827e-09
1.251490273098740119e-09
9.426817232488073864e-10
7.209761026242574012e-10
5.570213225433103015e-10
4.316897570771174988e-10
3.332047999918885914e-10
2.544736798985002401e-10
