# bin_13_5
3.818032023857376899e-20
4.333057975404224327e-20
4.840584692864960191e-20
5.302797811589807982e-20
5.669016432013823647e-20
5.875748135350730424e-20
5.871538555519431254e-20
5.575853382411854014e-20
4.998916916252581609e-20
4.235912933406970489e-20
3.468214145510262494e-20
2.889953821186755681e-20
2.502709147743239838e-20
2.044135020704787049e-20
1.433663166903704751e-20
1.085688667358973230e-20
8.281364604498662754e-21
5.651783983704338879e-21
4.036604081440210251e-21
2.849587629597060915e-21
1.952745525965444356e-21
1.335857146423570677e-21
9.182880974886043507e-22
6.363552035231078435e-22
4.464425999819536166e-22
3.189883770609388268e-22
2.324289781485415380e-22
1.728744484435500812e-22
1.308834066649968120e-22
1.003265645658231840e-22
7.730389549746330746e-23
