# bin_15_13
7.353116974862505838e-10
8.419636664026541413e-10
9.513211184748812004e-10
1.056610311957703937e-09
1.148979403787597688e-09
1.216755852968801433e-09
1.246100158738769759e-09
1.226170463708337848e-09
1.141270806484727882e-09
1.004045462456974472e-09
8.363650316518577273e-10
6.844364755946118344e-10
5.800224399224879458e-10
5.007190991415653257e-10
3.871521019916720883e-10
2.673860401189080228e-10
2.146805325776474660e-10
1.490644046000254777e-10
1.093308524401950580e-10
7.309164095520813138e-11
5.091183754341537523e-11
3.467018829986380958e-11
2.338345888810489801e-11
1.571784192802237165e-11
1.055644753680806999e-11
7.151708345245899674e-12
4.908028213853430068e-12
3.427583562991216702e-12
2.446972246690902440e-12
1.787913261611499442e-12
1.334546922139715712e-12
