# bin_2_10
4.699712957938918520e-07
4.871356485988670065e-07
4.869376275186234101e-07
4.644731464998292780e-07
4.195068083678158425e-07
3.593495593627159061e-07
2.970037093379525210e-07
2.466947197076751820e-07
2.099770890773762811e-07
1.723987074759636453e-07
1.280261728175913787e-07
9.473842307482068030e-08
7.279737274853454252e-08
5.237724130901276036e-08
3.853482426104149635e-08
2.797967726692390053e-08
2.053661618738984393e-08
1.523562422655803073e-08
1.148487254319670235e-08
8.811999683833345201e-09
6.869965883181488689e-09
5.421164109365848011e-09
4.301733985523787370e-09
3.408093338062926592e-09
2.677387831146767267e-09
2.072497072925640224e-09
1.572397386061572892e-09
1.164695597229936907e-09
8.402557124732724812e-10
5.901635417627586001e-10
4.040530712284543464e-10
