# bin_13_3
2.729541474613318172e-27
3.093945140750346019e-27
3.451016481736398825e-27
3.773423245365077253e-27
4.024558281819647570e-27
4.158908027776388173e-27
4.141042878466949193e-27
3.913593503825520581e-27
3.492838270377259668e-27
2.946727656371356659e-27
2.411136465654715257e-27
2.016748835481210200e-27
1.746904256662978450e-27
1.410302166009667397e-27
9.824906984648495556e-28
7.559412503534066018e-28
5.652858832661669080e-28
3.921957633422625437e-28
2.753594724123419354e-28
1.954889968018888000e-28
1.343893620106841371e-28
9.213144306355626001e-29
6.360040614158689482e-29
4.427699596490143156e-29
3.124944393221705366e-29
2.247298389977010869e-29
1.648280268730050998e-29
1.233299558138167086e-29
9.380357104135888289e-30
7.210003500961111932e-30
5.559233297366433802e-30
