# bin_7_12
9.849910505824954041e-08
1.103021085014002254e-07
1.212337646691887480e-07
1.301792819760123788e-07
1.357295719590108789e-07
1.365818689636223963e-07
1.310708624219728870e-07
1.187750611955078430e-07
1.017783886481963481e-07
8.365461637134681477e-08
6.919588781941921664e-08
5.959351523087995767e-08
4.970538041342132594e-08
3.591378234112735547e-08
2.624069404573258756e-08
2.069973556686939334e-08
1.401302047525847638e-08
1.037284130063976995e-08
7.258127455801942892e-09
5.061238684757935544e-09
3.555591307721663730e-09
2.511888142228622767e-09
1.795664004489928728e-09
1.303389358464054463e-09
9.649250044355752492e-10
7.273653301349577450e-10
5.566294628382147182e-10
4.302076450391103506e-10
3.334513337296103521e-10
2.573491421895272191e-10
1.964790059874182317e-10
