# bin_6_12
1.333264392408503674e-07
1.482856044360657710e-07
1.616250376287372786e-07
1.717583784385456868e-07
1.767815440833978197e-07
1.751077472779925778e-07
1.645349732043048418e-07
1.460859170889009703e-07
1.228011186039683927e-07
1.005643084270042826e-07
8.443517395291346219e-08
7.284533698167590434e-08
5.798562998012457214e-08
4.066619688412287021e-08
3.155760140516652949e-08
2.325393296097791289e-08
1.651408593116311051e-08
1.169730559730730899e-08
8.362437541722961511e-09
5.894999719631175474e-09
4.178799855903102102e-09
2.997051806067440373e-09
2.181104178402996155e-09
1.616304744301611238e-09
1.220239772247755084e-09
9.352771733073521303e-10
7.244191899199424379e-10
5.632557163014495962e-10
4.365049485258124831e-10
3.349290905743818922e-10
2.530472716804277627e-10
