# bin_2_15
5.274215187567166246e-07
5.469346047810605816e-07
5.470228442305808746e-07
5.221662147099335715e-07
4.719743376688792270e-07
4.045675564778365947e-07
3.344599809718604826e-07
2.777128834082556853e-07
2.363510597829860322e-07
1.942750357893608881e-07
1.444368542142499014e-07
1.067764515022709741e-07
8.209277551037202320e-08
5.907947508570514779e-08
4.345779604846959984e-08
3.154960893370449713e-08
2.315187170423399171e-08
1.716921116016905080e-08
1.293672292590554282e-08
9.921551750619956637e-09
7.731935759571452006e-09
6.099594780371610290e-09
4.839362136334188793e-09
3.834026984157632718e-09
3.012416168341279041e-09
2.332450462341877899e-09
1.770276208283551925e-09
1.311850864888154842e-09
9.468790961188202422e-10
6.653742819404690282e-10
4.557507711168037596e-10
