# bin_5_3
2.016249010810403607e-10
2.192933615692887240e-10
2.325026806558696411e-10
2.386900769420442021e-10
2.357123039749973204e-10
2.206735019857422152e-10
1.952627473414425490e-10
1.636590581717436259e-10
1.339748992809896816e-10
1.127120156269440042e-10
9.713110028406795549e-11
7.675010516193490846e-11
5.383416800107299408e-11
4.216146708191984485e-11
3.088064155365161270e-11
2.226693717660448928e-11
1.585483766278054932e-11
1.149801601978785422e-11
8.269185616269045754e-12
6.005100967809401821e-12
4.429700403773831635e-12
3.323591728038095615e-12
2.538737556652066068e-12
1.968704629074544807e-12
1.541017922850005768e-12
1.209828374973706700e-12
9.459417304368157196e-13
7.316921510235650378e-13
5.567295199703385040e-13
4.147772341009891465e-13
3.015504002249748414e-13
