# bin_4_1
8.596071014996392237e-13
9.100795799403243466e-13
9.331160528509136332e-13
9.200551839095266945e-13
8.603555149689835920e-13
7.606088340222878047e-13
6.375753635606984293e-13
5.223713689111774420e-13
4.394279773060673846e-13
3.775701495880770417e-13
2.980307323258182723e-13
2.107668126932577924e-13
1.644122313046507727e-13
1.211653811302642807e-13
8.770383833948083602e-14
6.331686257656198826e-14
4.624814501999163298e-14
3.374638246394703661e-14
2.495454062652957221e-14
1.877454554548493466e-14
1.437618269561974288e-14
1.118916958461632450e-14
8.811275183479678027e-15
6.972988818842348937e-15
5.506896160926668898e-15
4.310177026396169321e-15
3.322350987156539683e-15
2.508928070953723248e-15
1.848808421578972992e-15
1.326179942008039909e-15
9.257419708396777188e-16
