# bin_9_7
3.893714223951307648e-10
4.381794415840774131e-10
4.844848108079370713e-10
5.240754264009449352e-10
5.515050447639191826e-10
5.608514972094884650e-10
5.464628566001797505e-10
5.030156895450605037e-10
4.378336551304884898e-10
3.622623154436953088e-10
2.972340552856281916e-10
2.538623215343129013e-10
2.170419434659556193e-10
1.630032239043326647e-10
1.142937695897436504e-10
9.251480899118570829e-11
6.255548268348050027e-11
4.698581092491436927e-11
3.206645324935403495e-11
2.238778318070882937e-11
1.567624374385523308e-11
1.098047481342760179e-11
7.748020645016199963e-12
5.533249455063793077e-12
4.028394973664753996e-12
2.990030950668198434e-12
2.259269769698254725e-12
1.731870806804950779e-12
1.338241776149481133e-12
1.034896869278630180e-12
7.951804801312593509e-13
