# bin_12_4
2.430318305497732227e-21
2.748846427014628749e-21
3.057947425073899401e-21
3.332748601298612976e-21
3.540148008650135777e-21
3.639881357496736553e-21
3.601199524454476549e-21
3.375491178178695669e-21
2.989487892920646771e-21
2.504473981381573008e-21
2.048530179825328345e-21
1.724948364840871899e-21
1.492469729753415492e-21
1.179078350394145090e-21
8.161620391874044795e-22
6.435220777338269434e-22
4.642319618430261954e-22
3.322263760980032203e-22
2.277939686965119917e-22
1.620221509673619268e-22
1.120726847152800446e-22
7.732293449234350133e-23
5.376506737177795886e-23
3.772380689078611040e-23
2.689357016634241580e-23
1.954658226183795421e-23
1.448688143498678292e-23
1.093840330020302072e-23
8.374391234752227813e-24
6.458691353431017812e-24
4.980425978015149784e-24
