# bin_11_10
-1.006040897439688244e-08
-1.144169654018406360e-08
-1.281662553218671230e-08
-1.408713418607404756e-08
-1.512232937603159187e-08
-1.575681706224301636e-08
-1.584232871732825368e-08
-1.517443095039455025e-08
-1.371658939581213459e-08
-1.172063848595909394e-08
-9.615944656029630113e-09
-7.962879864088646551e-09
-6.880976918819398492e-09
-5.724424817959317236e-09
-4.084115593870743035e-09
-3.003417761240815074e-09
-2.363725332410929715e-09
-1.577148208948344247e-09
-1.160198627907645899e-09
-8.064680446826024081e-10
-5.499933267103354052e-10
-3.759114420261335722e-10
-2.566677484189279182e-10
-1.763740489999722235e-10
-1.223678250049244820e-10
-8.635671003464038564e-11
-6.210924211174375903e-11
-4.562461192478830528e-11
-3.419217202603469597e-11
-2.603123701337386214e-11
-2.000023420950689815e-11
