# bin_5_14
-3.141960259310664248e-20
-3.574312660584878261e-20
-4.005231067377514992e-20
-4.404145587763908194e-20
-4.730287644660343874e-20
-4.932086573681488977e-20
-4.962674288922713653e-20
-4.758745289299603479e-20
-4.306278500412103081e-20
-3.683815886535972663e-20
-3.023406344996634509e-20
-2.501820019913507882e-20
-2.160891894365880890e-20
-1.801557152628434368e-20
-1.288773603893594749e-20
-9.441741987028209443e-21
-7.456703073183033132e-21
-4.965349059006227678e-21
-3.664375023712958949e-21
-2.541630910679873286e-21
-1.732518415151075942e-21
-1.184282184051125191e-21
-8.080859666178800448e-22
-5.547186908727134840e-22
-3.843178926129887509e-22
-2.707819341192829653e-22
-1.944130063673435039e-22
-1.425679917336261285e-22
-1.066865113214691595e-22
-8.113643192402739745e-23
-6.230421695332664453e-23
