# bin_2_10
-8.917794127758148885e-23
-9.998224362571352928e-23
-1.100495365062314776e-22
-1.183796951180292001e-22
-1.237024748364734507e-22
-1.248017131130474098e-22
-1.201854776658161442e-22
-1.092572760210315338e-22
-9.391372503361779955e-23
-7.722739663802892449e-23
-6.371519101354879462e-23
-5.485161014442887245e-23
-4.609998445363461811e-23
-3.347105604870404913e-23
-2.417886103797501181e-23
-1.933187240774246623e-23
-1.293556405501719127e-23
-9.691004876680939615e-24
-6.745424904708148329e-24
-4.688538274856354929e-24
-3.291226373594946412e-24
-2.319166071346134674e-24
-1.652861024994401326e-24
-1.195453530998889572e-24
-8.820166582087591090e-25
-6.629080579089715355e-25
-5.062050125775819177e-25
-3.908185357829687134e-25
-3.029428680212705082e-25
-2.340640114281463169e-25
-1.790480457562065181e-25
