# bin_10_9
-9.599468772432261562e-09
-1.088468211838577733e-08
-1.214595786451841669e-08
-1.328747788898687789e-08
-1.418084208736413192e-08
-1.466600988062972824e-08
-1.461736576809039310e-08
-1.383241781294629167e-08
-1.236021494131919379e-08
-1.043965727607280432e-08
-8.543239747961746199e-09
-7.138449857747612929e-09
-6.183523335165771785e-09
-5.008260626930847197e-09
-3.494191179431070749e-09
-2.677360237648982073e-09
-2.013070681713319854e-09
-1.390092451656673050e-09
-9.802309053347455537e-10
-6.951059325824808853e-10
-4.773681380831971794e-10
-3.269610713505468188e-10
-2.254033901454564509e-10
-1.566883282927538446e-10
-1.103778949899449257e-10
-7.921775140678187268e-11
-5.798451457761547633e-11
-4.330752433438101827e-11
-3.289448341456880149e-11
-2.526416932953238167e-11
-1.947720489517632438e-11
