# bin_1_4
-1.454641135527061592e-11
-1.544543322572351343e-11
-1.589201145401073291e-11
-1.574163309884656895e-11
-1.480358546284818623e-11
-1.315847917118854865e-11
-1.107864864042925443e-11
-9.075757686161067593e-12
-7.603590330974084684e-12
-6.545838715093268542e-12
-5.236791299421990066e-12
-3.709260576717798686e-12
-2.860971409265128545e-12
-2.143188269550617421e-12
-1.532344376685208653e-12
-1.113517761124198718e-12
-8.115123965539193366e-13
-5.901640641088298439e-13
-4.349943806262300391e-13
-3.260572466282926271e-13
-2.487760178283933683e-13
-1.929996499403154256e-13
-1.516406234278903156e-13
-1.198667488844697393e-13
-9.466617142706387734e-14
-7.417956160707015880e-14
-5.730188897575749672e-14
-4.340254955781287217e-14
-3.209965432790448969e-14
-2.311695205043277057e-14
-1.620037250855296773e-14
