# bin_2_13
-7.553221364873579872e-30
-8.559530595262662228e-30
-9.544512573486913047e-30
-1.043235393440667526e-29
-1.112156564151476017e-29
-1.148622215460493733e-29
-1.142875591919066899e-29
-1.079098323021045233e-29
-9.622485434498166508e-30
-8.111413814756087388e-30
-6.636624110090572585e-30
-5.555232869047705186e-30
-4.811661472806691383e-30
-3.875337105104030169e-30
-2.697184425382490655e-30
-2.081264555243453651e-30
-1.550148652969098472e-30
-1.079139082878719485e-30
-7.553428841604088244e-31
-5.365161475113993383e-31
-3.690287981358969233e-31
-2.531031726746880172e-31
-1.748303665289718246e-31
-1.217892067834126333e-31
-8.602880473407264029e-32
-6.192392289442193297e-32
-4.545982731855456039e-32
-3.404255350262963250e-32
-2.590826365896963819e-32
-1.992049943033473359e-32
-1.536022745194866991e-32
