# bin_11_7
-4.658128056664240209e-11
-5.275887887868238879e-11
-5.879059335258696185e-11
-6.420648667959395340e-11
-6.837801603241886822e-11
-7.052851345543834490e-11
-7.006383585784171511e-11
-6.601448293435208675e-11
-5.874971102551711175e-11
-4.943076850582334359e-11
-4.043530348143868540e-11
-3.390425946175591233e-11
-2.936428912312346584e-11
-2.352361255291215036e-11
-1.633219145996811782e-11
-1.268886263278347595e-11
-9.365126924675617107e-12
-6.570446065735045908e-12
-4.565993681460787995e-12
-3.248736479730276492e-12
-2.237912181138548267e-12
-1.536868520372239967e-12
-1.063599785917604811e-12
-7.424231927840324827e-13
-5.258063624587666606e-13
-3.795374631405386626e-13
-2.794072616597186953e-13
-2.097549185344384458e-13
-1.599324742792876358e-13
-1.230988663914875750e-13
-9.493580021262556349e-14
