# bin_5_6
-1.082711296414983465e-08
-1.200424159355367271e-08
-1.303369761066759481e-08
-1.378407994011216359e-08
-1.410257530611421393e-08
-1.386164934549449796e-08
-1.289504823627367921e-08
-1.133996399631231243e-08
-9.451205603465022282e-09
-7.736776878908265927e-09
-6.548158320953579415e-09
-5.639345019863209675e-09
-4.372493543000441868e-09
-3.044952586088231113e-09
-2.430318790334942104e-09
-1.719187843143992150e-09
-1.262573651137389513e-09
-8.749341309969949919e-10
-6.273872433822674412e-10
-4.456073160856560013e-10
-3.180323701276421344e-10
-2.299073194767209060e-10
-1.687137966494374113e-10
-1.261871654021793410e-10
-9.605988665814748330e-11
-7.412046722683707033e-11
-5.766330792293787772e-11
-4.491082647461031026e-11
-3.477269415841393832e-11
-2.659481033747243207e-11
-1.999011952318520509e-11
