# bin_4_15
-1.438226256744107772e-25
-1.638564543314703971e-25
-1.839649588377267406e-25
-2.027624710620328689e-25
-2.184113630667942470e-25
-2.285708931865702316e-25
-2.309514596161359219e-25
-2.228199569223878122e-25
-2.028785970038253321e-25
-1.746533838820011662e-25
-1.436784002236612020e-25
-1.184479657582436531e-25
-1.019866601434036932e-25
-8.597100522317907249e-26
-6.248590087858607526e-26
-4.486737297058787397e-26
-3.602056121998501696e-26
-2.381579383776914255e-26
-1.782520425245642781e-26
-1.221904583574217274e-26
-8.314552945654240634e-27
-5.688608130730871054e-27
-3.870944120137321497e-27
-2.642678090041569823e-27
-1.816697607725856866e-27
-1.268519442129178765e-27
-9.017983027920472163e-28
-6.547302856603752206e-28
-4.856422338905633279e-28
-3.668910120384916179e-28
-2.806724331194053810e-28
