# bin_9_12
-8.967447597291924976e-10
-1.020173768252549364e-09
-1.143211316212254478e-09
-1.257134394394542065e-09
-1.350310750946261838e-09
-1.408024707674318176e-09
-1.416881717677083882e-09
-1.358824666641875416e-09
-1.229765625146559070e-09
-1.052127852772586683e-09
-8.635308136151630936e-10
-7.144941651616984292e-10
-6.171121190072002363e-10
-5.146247659745273873e-10
-3.682274431849093840e-10
-2.696579973978437631e-10
-2.130638383781361992e-10
-1.418264195170620937e-10
-1.047146494038441232e-10
-7.261431337523532130e-11
-4.949407101652570461e-11
-3.383214902534919626e-11
-2.308270786917115174e-11
-1.584350374159042492e-11
-1.097495295687247168e-11
-7.731380380516847102e-12
-5.549870906086668964e-12
-4.069136952564587482e-12
-3.044568739821999679e-12
-2.315204406405434819e-12
-1.777761776361381066e-12
