# bin_13_4
-1.344043448357052895e-21
-1.524640603405698012e-21
-1.702225564957745368e-21
-1.863433598447624774e-21
-1.990351854801160531e-21
-2.060595345425023196e-21
-2.056338322813081747e-21
-1.949203703043081089e-21
-1.744510959056374793e-21
-1.475728313009465824e-21
-1.207933516910156605e-21
-1.007970378310457418e-21
-8.730512507255598506e-22
-7.100034749379232738e-22
-4.965564292309971450e-22
-3.783492845559699888e-22
-2.864626454531211161e-22
-1.966762588490573631e-22
-1.395296558521091896e-22
-9.874086587640227792e-23
-6.773563302304316940e-23
-4.636011337216966578e-23
-3.191281820936956290e-23
-2.214819284031640452e-23
-1.556930424502431275e-23
-1.114859241364329303e-23
-8.141470470029107224e-24
-6.067876204625154339e-24
-4.601383838353591435e-24
-3.530585835121347299e-24
-2.721179132643001388e-24
