# bin_14_9
-1.453344959436741521e-11
-1.658376155280747775e-11
-1.865653332086772047e-11
-2.061319397170933013e-11
-2.227124853868543545e-11
-2.339604938093243222e-11
-2.374078502939468156e-11
-2.305116341889528031e-11
-2.112891399191834421e-11
-1.831306574317818980e-11
-1.511194367515916929e-11
-1.241756385753110148e-11
-1.064700111687764378e-11
-9.064774436001062390e-12
-6.710817108757114179e-12
-4.731160228355386600e-12
-3.837326515405507216e-12
-2.542070766207595088e-12
-1.914762417707818056e-12
-1.297225052869304648e-12
-8.835798209112670907e-13
-6.049986665482820806e-13
-4.110912845991033950e-13
-2.791576340423294970e-13
-1.903804636745100178e-13
-1.316623700830914450e-13
-9.258866805269735975e-14
-6.645806990596149008e-14
-4.877511762141114602e-14
-3.653466480828932777e-14
-2.779484905870251490e-14
