# bin_11_1
-4.819616359626760712e-30
-5.422081990117999534e-30
-5.992841041966084784e-30
-6.479585940032116220e-30
-6.814805171955162602e-30
-6.925769311093616903e-30
-6.741614772884222283e-30
-6.198920069649673061e-30
-5.389902633802794041e-30
-4.456785358638648503e-30
-3.658016009005711850e-30
-3.126733107626153630e-30
-2.670235921052512773e-30
-1.999274927059935726e-30
-1.404370513963190391e-30
-1.137040655104962443e-30
-7.668053115223328653e-31
-5.767157268657630515e-31
-3.940590622285675143e-31
-2.748028896915068087e-31
-1.924765370973006445e-31
-1.348747894797637880e-31
-9.522699673844262474e-32
-6.806046914701798869e-32
-4.959477503969405421e-32
-3.684299506375660763e-32
-2.785985663916898380e-32
-2.136811928560085696e-32
-1.651620706098146018e-32
-1.277249388894114834e-32
-9.811511639227777455e-33
