# bin_3_13
-2.085500735559272728e-25
-2.364312472852774177e-25
-2.637720714525521360e-25
-2.884874491879920632e-25
-3.077841151673003749e-25
-3.181850550475741353e-25
-3.169718287469140164e-25
-2.997545918925120553e-25
-2.676886281851875861e-25
-2.259651027957934990e-25
-1.849069715396534093e-25
-1.545830312485925800e-25
-1.339002580130583943e-25
-1.082724636480787362e-25
-7.548691619964228172e-26
-5.795988366919246231e-26
-4.345867417311758076e-26
-3.008149265483996298e-26
-2.116554656254503730e-26
-1.501632572782602805e-26
-1.031723032460936684e-26
-7.069383077139372540e-27
-4.876381100635009522e-27
-3.391883935181153129e-27
-2.391300080089932466e-27
-1.717700447353941396e-27
-1.258381165172581415e-27
-9.405873168661447796e-28
-7.148424393554287566e-28
-5.492028463003525978e-28
-4.234240452770727811e-28
