# bin_13_9
-1.349679400742676101e-10
-1.537826316997519508e-10
-1.726757040638044668e-10
-1.903475892138285323e-10
-2.050754498009303274e-10
-2.146638291993023108e-10
-2.169555595880124229e-10
-2.093954029069206593e-10
-1.907261657822530210e-10
-1.642538894334474142e-10
-1.351411724175647954e-10
-1.113840123685368512e-10
-9.588693408296433362e-11
-8.088425146652513602e-11
-5.884301840256588650e-11
-4.219885333756556818e-11
-3.391532609483573454e-11
-2.241084270754070953e-11
-1.678985813989435854e-11
-1.150131791449008035e-11
-7.824813819051788890e-12
-5.353921069116234097e-12
-3.642570165932957052e-12
-2.485938328792245919e-12
-1.708139197336346325e-12
-1.192063878241324080e-12
-8.469314397043760800e-13
-6.145152139244944313e-13
-4.555631227054924797e-13
-3.440253063245167511e-13
-2.631199390381801719e-13
