# bin_12_1
-1.516568603884312600e-32
-1.712725507187326217e-32
-1.901803649918388167e-32
-2.068018676196287138e-32
-2.190530744829499896e-32
-2.244618398018778833e-32
-2.210697243792351517e-32
-2.060591261249320338e-32
-1.815393615598212399e-32
-1.514409841561861873e-32
-1.239215681434353888e-32
-1.048228975118780776e-32
-9.049255036761268507e-33
-7.039158974043088091e-33
-4.873838410921805657e-33
-3.891517080483938344e-33
-2.741418929153019468e-33
-2.000739294314935501e-33
-1.361169254571780799e-33
-9.634097970687686180e-34
-6.692829752666626232e-34
-4.641699951102865539e-34
-3.241811210108331261e-34
-2.286122479737293753e-34
-1.640164363886649345e-34
-1.199871917014823026e-34
-8.947965530419764615e-35
-6.790655792995299340e-35
-5.216466549597443931e-35
-4.028662319297066160e-35
-3.104637781545300164e-35
