# bin_5_12
-1.417969535204910150e-16
-1.605869301654571386e-16
-1.789254675616516818e-16
-1.953806594391257992e-16
-2.080378838888022068e-16
-2.145335441614464882e-16
-2.130610296668857994e-16
-2.006756054601606521e-16
-1.785323668358220680e-16
-1.501681310864569551e-16
-1.228386130862905643e-16
-1.030277671422254262e-16
-8.922734413040922152e-17
-7.141248292708752653e-17
-4.956772277209762038e-17
-3.855117563359164742e-17
-2.840862657534011312e-17
-1.995835997784383492e-17
-1.385518510906643239e-17
-9.858692385420458356e-18
-6.793034561650358057e-18
-4.666406603425544130e-18
-3.230427740112155581e-18
-2.255687914035529473e-18
-1.598239277386897912e-18
-1.154169811491876972e-18
-8.500594879630453517e-19
-6.384030512788996261e-19
-4.869038453550051955e-19
-3.748214435886813439e-19
-2.890690490880422685e-19
