# bin_14_6
6.976786662245424152e-08
6.548383567380195403e-08
5.988961178529400681e-08
5.328724682220903040e-08
4.610969241780162345e-08
3.886476070335658552e-08
3.204176110635365197e-08
2.597958383497595714e-08
2.079472677647595699e-08
1.640549700063238944e-08
1.267399677469797328e-08
9.571119973281085520e-09
7.157258511320634726e-09
5.370625915536583991e-09
4.015608948467760027e-09
3.004748716718614292e-09
2.267909511091978464e-09
1.723219488000089837e-09
1.320160220952935916e-09
1.017916338935089507e-09
7.876301038895956934e-10
6.093461437098865804e-10
4.694873560814748583e-10
3.588631014045700977e-10
2.711835658557553056e-10
2.020158472808007060e-10
1.480214491692014739e-10
1.065116792543496202e-10
7.519867905485816854e-11
5.207881437256202813e-11
3.539333162282798520e-11
