# bin_9_5
5.874855028389935894e-08
5.435430260543164382e-08
4.896750159716320601e-08
4.291313443034472870e-08
3.660430253574549204e-08
3.047719554792471055e-08
2.489243640637936144e-08
2.004077823802415209e-08
1.592740961924467044e-08
1.244230059585223653e-08
9.505145033021531119e-09
7.138706620024908775e-09
5.355288845371731809e-09
4.026184911584873919e-09
3.016838723931327837e-09
2.277968290158928461e-09
1.732288455782105747e-09
1.328783356353661417e-09
1.026510332584352764e-09
7.967624437480447522e-10
6.191265362907938216e-10
4.796867467503395101e-10
3.690859577842159994e-10
2.809772458891400348e-10
2.109692526585582460e-10
1.558436158421441041e-10
1.130538955121486625e-10
8.044849061405915447e-11
5.612975917020151725e-11
3.840765332507865459e-11
2.579703875825305460e-11
