# bin_5_3
3.894839398729236070e-08
3.480839293109312126e-08
3.027211351839196666e-08
2.564687658318261247e-08
2.123861302236902329e-08
1.727771372940429281e-08
1.386573103701553187e-08
1.097931301088152201e-08
8.538323326270659607e-09
6.503200563956245693e-09
4.893200276520204216e-09
3.689004076270111466e-09
2.786001869100846766e-09
2.105440519628664520e-09
1.606281575596273605e-09
1.235528993670915911e-09
9.587817846585763034e-10
7.487921725377537288e-10
5.865966324197420387e-10
4.590349125222213081e-10
3.572734017804215818e-10
2.754451357699533680e-10
2.095950609466364759e-10
1.569497684696058206e-10
1.153997742195754771e-10
8.318795758401009097e-11
5.874987151074428534e-11
4.064945576263146873e-11
2.757601086749633311e-11
1.836754162729255897e-11
1.203463145304641331e-11
