# bin_15_3
4.746876496297816282e-08
4.294444828069124165e-08
3.777858296355375361e-08
3.232610374381514432e-08
2.697988404604247114e-08
2.207829644417875641e-08
1.781165935277044365e-08
1.419341894319675592e-08
1.111937618675478300e-08
8.512243333852128527e-09
6.403035399631022883e-09
4.815095134610637389e-09
3.630420070676337262e-09
2.730221580925633009e-09
2.070827347357109921e-09
1.583476140395562696e-09
1.222262970412455488e-09
9.507926964200177444e-10
7.433270337513217333e-10
5.817373141299819073e-10
4.537645646870820823e-10
3.512648900831277250e-10
2.688025990358130426e-10
2.026702307286442472e-10
1.501669535090548610e-10
1.091364351072826251e-10
7.771327734509327034e-11
5.420147639483570801e-11
3.704352378409181820e-11
2.483776765359802620e-11
1.636707306279960801e-11
