# bin_6_3
4.086511184285738051e-08
3.663860755438402203e-08
3.196066079231916002e-08
2.714930423693229894e-08
2.253003041643978157e-08
1.835751932473182877e-08
1.475328736100551689e-08
1.170225410715906235e-08
9.118867963249493400e-09
6.955079466045358113e-09
5.232792736335129856e-09
3.942283426248867790e-09
2.975928882012671521e-09
2.245967105462122727e-09
1.710768252855703068e-09
1.313791111347724598e-09
1.018045931960003304e-09
7.942281133072000385e-10
6.218502942091469360e-10
4.866347456112935519e-10
3.789774974215314104e-10
2.924995058142885793e-10
2.229127249215652336e-10
1.672336772654882416e-10
1.232198811372370358e-10
8.902442456550238880e-11
6.301516466135923647e-11
4.369756587097546220e-11
2.970540662592478834e-11
1.982277894533694931e-11
1.300904022311254166e-11
