# bin_5_1
2.179971126228605881e-08
1.859318075375045378e-08
1.548865979966534722e-08
1.266136577068216723e-08
1.020288209233969632e-08
8.114138670167339395e-09
6.345974792137561048e-09
4.865857170862449107e-09
3.680771756093520320e-09
2.782788573346175226e-09
2.111264628413952059e-09
1.605690798058435784e-09
1.231665709125015239e-09
9.543265566951790828e-10
7.463132004424485358e-10
5.878111565233589109e-10
4.645386776959713737e-10
3.667140717764090393e-10
2.878379470627377160e-10
2.236702767898027692e-10
1.714233536674500502e-10
1.291812245237618933e-10
9.549888628330763731e-11
6.915395475985184237e-11
4.901964229293153431e-11
3.402051495856534946e-11
2.313940999962060748e-11
1.544921882555869225e-11
1.014608735786010618e-11
6.569181095962463084e-12
4.202713874195909548e-12
