# bin_13_4
1.396227221284011667e-23
1.583324335095913315e-23
1.767025383734223119e-23
1.933406794247766626e-23
2.063809273065538927e-23
2.134960050828136569e-23
2.128531049052169181e-23
2.015059887050171868e-23
1.801291155604720319e-23
1.521975159297261485e-23
1.245566814564699223e-23
1.040414580924347971e-23
9.012184524103335792e-24
7.306631466728708016e-24
5.100698897046259062e-24
3.903011383330348490e-24
2.939697914859624607e-24
2.027150103772573241e-24
1.431624792069033049e-24
1.014794432392229149e-24
6.968064535075106687e-25
4.772469510151129569e-25
3.289569930642595704e-25
2.286399992629753415e-25
1.610276909653790731e-25
1.155409124176553393e-25
8.455036399618322478e-26
6.313403050659983449e-26
4.794492860216187648e-26
3.681930351703724307e-26
2.838462885495485186e-26
