# bin_1_8
6.916960838237977337e-07
6.771120566657795960e-07
6.313636081665558163e-07
5.587501086296358188e-07
4.727033762739148464e-07
3.916301890010185217e-07
3.277144001614787720e-07
2.747321680028497384e-07
2.181948346849293793e-07
1.622380406353808405e-07
1.217854328525205366e-07
9.179728231129407298e-08
6.699330947885246670e-08
4.941122342835191985e-08
3.644138767803641058e-08
2.721172086564742519e-08
2.062879937803172195e-08
1.591702733243408926e-08
1.248502374944535961e-08
9.914063129333702783e-09
7.921721062692109747e-09
6.323191231596815778e-09
5.006459521532327300e-09
3.907043074278764609e-09
2.989307024740456131e-09
2.233411191921872025e-09
1.625690958913357369e-09
1.152178425989764575e-09
7.959387581126947897e-10
5.371754396336082618e-10
3.552385076515233328e-10
