# bin_6_12
1.343530787944648952e-07
1.493994454733910966e-07
1.628016260326216715e-07
1.729591113925396709e-07
1.779546882453112905e-07
1.761903121570537637e-07
1.654563798733033774e-07
1.468225342593223869e-07
1.233601393165952289e-07
1.010194305426860263e-07
8.485481572235639931e-08
7.319982829354677712e-08
5.818412128361361894e-08
4.078822901811354602e-08
3.170000304804588286e-08
2.330988352402537738e-08
1.658108897731850242e-08
1.173146942053470580e-08
8.389230979517015251e-09
5.916170452253219713e-09
4.195236500029062786e-09
3.010182818531197503e-09
2.191729358172880327e-09
1.625061202792958320e-09
1.227454385982905973e-09
9.411823381185296501e-10
7.291863506924519329e-10
5.670212726567789584e-10
4.394001662015662939e-10
3.370860472867647212e-10
2.545993022078736958e-10
