# bin_8_3
4.354346732094073321e-16
4.839873092495047461e-16
5.271123078507203392e-16
5.595994142473463986e-16
5.751612513068483081e-16
5.688308085146527837e-16
5.331549555071232669e-16
4.722185417813917690e-16
3.957852302690432196e-16
3.237797081820602428e-16
2.724129145186419476e-16
2.354040718364510257e-16
1.862506878283246174e-16
1.295712405020353959e-16
1.018382556887222859e-16
7.410001598189405529e-17
5.318746186228873509e-17
3.718316274393389109e-17
2.674999517368853865e-17
1.889865824056537166e-17
1.341120285656018287e-17
9.641673434930989969e-18
7.034149815872961079e-18
5.227888658018949637e-18
3.957704002099225613e-18
3.040621645429554432e-18
2.359345360828310891e-18
1.836346749503036027e-18
1.423446947436621553e-18
1.091639973783681492e-18
8.238033345366720587e-19
