# bin_3_11
3.287265449133292793e-07
3.512095197668111799e-07
3.642212846966633313e-07
3.642264586043262861e-07
3.471612886614318357e-07
3.129234456515924050e-07
2.671602893766193903e-07
2.199696630979304542e-07
1.827361214140900208e-07
1.564972555006307769e-07
1.285280596215466623e-07
9.381919512971906635e-08
6.965308651772387774e-08
5.376093230479127235e-08
3.799578390938282268e-08
2.799809453179157742e-08
2.012386068796667508e-08
1.459257018252067676e-08
1.069049280788992168e-08
7.943764993038741841e-09
6.005394852948573777e-09
4.617262692204381353e-09
3.602132873604157465e-09
2.834506490804171182e-09
2.234680826995783575e-09
1.753024452669510136e-09
1.359267378331839038e-09
1.035880846566198956e-09
7.723735152453213333e-10
5.616365388996421935e-10
3.977123359456405531e-10
