# bin_3_2
4.981834447836984450e-09
5.223493025854108913e-09
5.294894306127644613e-09
5.140475124182522747e-09
4.723446608396595018e-09
4.106116224254683714e-09
3.404915006400291298e-09
2.801069285296790486e-09
2.382580443172281647e-09
2.016974274536178771e-09
1.528215817245960998e-09
1.096466485846649958e-09
8.658017930480244450e-10
6.169048677883068028e-10
4.571909371372890967e-10
3.284865508977033498e-10
2.402708369853068679e-10
1.769118393322943185e-10
1.321208376987866365e-10
1.004439060486325949e-10
7.767011032283499683e-11
6.094767981090091423e-11
4.824225413552296635e-11
3.824718873222459748e-11
3.015987998480159438e-11
2.349582558259392629e-11
1.797782459304586034e-11
1.344714544657416960e-11
9.800437081741470817e-12
6.950008193164397481e-12
4.798671242165559266e-12
