# bin_7_2
5.548000931446258194e-17
6.111152459429013568e-17
6.582049108472255976e-17
6.891108412136537674e-17
6.968867811833905155e-17
6.736829119868176085e-17
6.151239334818385003e-17
5.311383257779389602e-17
4.377905455168172283e-17
3.603765423794419939e-17
3.090499760069444655e-17
2.612779011248174670e-17
1.926272224391172434e-17
1.378918391283495669e-17
1.107721762830375019e-17
7.523029831955472488e-18
5.666786621316101559e-18
3.968409296473429229e-18
2.815802307317034208e-18
2.018660434917987239e-18
1.458727312184067603e-18
1.069280254230459752e-18
7.968413011151439363e-19
6.051499586396251427e-19
4.665409252339103304e-19
3.632434866888044843e-19
2.838295931016261805e-19
2.209600755030893684e-19
1.702599748663058358e-19
1.291188100122807815e-19
9.594444201606098474e-20
