# bin_1_9
7.144284738873475253e-07
6.995797523576431137e-07
6.525450611494886963e-07
5.776944594977082040e-07
4.888493761529187221e-07
4.050145658580530454e-07
3.388764829262378050e-07
2.841361731785434706e-07
2.257829556017506285e-07
1.679139707105529911e-07
1.260165018345889472e-07
9.500866746169137209e-08
6.933671874051467982e-08
5.113659865159276789e-08
3.771020183829682090e-08
2.815509385138241464e-08
2.133999457080195650e-08
1.646262682529906433e-08
1.291079963100268593e-08
1.025088391862172618e-08
8.190332113086239688e-09
6.537611109777152902e-09
5.176557791467902760e-09
4.040266035257492190e-09
3.091741049453140392e-09
2.310392076435735901e-09
1.682077904493323668e-09
1.192391037975475591e-09
8.238783186190352172e-10
5.561269319743292601e-10
3.678242932900865985e-10
