# bin_9_15
8.163208545777672293e-08
9.231594947181558058e-08
1.026790600183667664e-07
1.118835289438340360e-07
1.188178124770188385e-07
1.221425145946869773e-07
1.207954944711238638e-07
1.131965718263596225e-07
1.002316801786610177e-07
8.399318856575867359e-08
6.873695751780393775e-08
5.788571913266992954e-08
5.002379333971019539e-08
3.948976514979039772e-08
2.743208051972192265e-08
2.156410385586832160e-08
1.556885604935800189e-08
1.112670094926072960e-08
7.674997647679468189e-09
5.436590219650523520e-09
3.760807132612802784e-09
2.596479804281969976e-09
1.805215274513408565e-09
1.266770351221726810e-09
9.031414706221011136e-10
6.564137330041411904e-10
4.864472846784257959e-10
3.671951185793080016e-10
2.810061586604745217e-10
2.166091761544050275e-10
1.669339219680418136e-10
