# bin_3_8
2.722869831438831304e-07
2.906725689668411448e-07
3.011396909912043034e-07
3.007712667981607865e-07
2.862129491105906038e-07
2.575650850948427104e-07
2.195718899574553089e-07
1.807128309194599589e-07
1.502656716688695737e-07
1.287144878271254132e-07
1.053947173333533146e-07
7.674928161485615552e-08
5.716684090389189360e-08
4.400217914312698201e-08
3.112695433890770575e-08
2.291974740177137582e-08
1.648988319113494647e-08
1.196222363832505289e-08
8.770476118079406741e-09
6.523659450599060765e-09
4.936951588178891826e-09
3.799476100271449443e-09
2.966375058783309719e-09
2.335229110830717198e-09
1.841207073029431607e-09
1.443975120278032761e-09
1.118982177514645055e-09
8.520312949574061776e-10
6.346076422949546820e-10
4.608944975224061249e-10
3.259568773741865802e-10
