# bin_5_13
1.920861229601610095e-07
2.116947836270002021e-07
2.281592385047154225e-07
2.390811604285129290e-07
2.420307389240273234e-07
2.343652737716720609e-07
2.145203640594028588e-07
1.857021856678606373e-07
1.534510747809632582e-07
1.263499315127588104e-07
1.080342090390765980e-07
9.131027722264605192e-08
6.798960390466725723e-08
4.868729049182222059e-08
3.872105554703756855e-08
2.675762802201155170e-08
1.988324496154181778e-08
1.394749385127234293e-08
9.935479050996109721e-09
7.107655426370796711e-09
5.125649801740077728e-09
3.749516768109028701e-09
2.788146562272000148e-09
2.112367247504919871e-09
1.625153871180843328e-09
1.263255726180364319e-09
9.860292624241853074e-10
7.673139364316763083e-10
5.913891025806336128e-10
4.488496986575396982e-10
3.339673374830694376e-10
