# bin_13_9
5.913839488736596120e-12
6.733174326833747284e-12
7.553020176011735756e-12
8.316148709127101103e-12
8.946470730120161921e-12
9.347389373379840614e-12
9.427401791880208735e-12
9.070853102971302674e-12
8.236260631487147236e-12
7.070355231792486744e-12
5.809871310121074716e-12
4.797210473751888848e-12
4.136825044049331966e-12
3.470841639317649745e-12
2.504251554453031956e-12
1.813850829452531547e-12
1.446790109353981515e-12
9.585661318521186338e-13
7.137056704797979554e-13
4.918053898018322701e-13
3.348558925502794351e-13
2.290317107987743923e-13
1.560343582442403260e-13
1.068043691698059818e-13
7.369724825392206428e-14
5.168485548445189263e-14
3.692076499675936879e-14
2.693773620740900102e-14
2.006902022276070987e-14
1.521294247696193197e-14
1.166120226554519896e-14
