# bin_8_13
8.403461579536551651e-08
9.460437017772258368e-08
1.046501671432533994e-07
1.132670540816114938e-07
1.192819431546807635e-07
1.214132650577210189e-07
1.184469482250301033e-07
1.092168346873376943e-07
9.522062006262446850e-08
7.890590745230893544e-08
6.474542643525923404e-08
5.520625779362843713e-08
4.720912251844896365e-08
3.565571337985529641e-08
2.501902763353639624e-08
2.012726319941053789e-08
1.376160982428957877e-08
1.024020945612821304e-08
7.005446890074736637e-09
4.907422725489089600e-09
3.429438390266968574e-09
2.397263130371365359e-09
1.689024839735493156e-09
1.204170627688480902e-09
8.748162449909669878e-10
6.479393833041011647e-10
4.886062163910686272e-10
3.739306584677089856e-10
2.886145956416691224e-10
2.230726714458480583e-10
1.714116142109241225e-10
