# bin_8_10
4.253961850479969391e-08
4.785970797882406975e-08
5.290100828588204463e-08
5.720234851337909571e-08
6.016795675608983780e-08
6.115844117027928062e-08
5.954502055864125205e-08
5.477908799005188122e-08
4.765174130050188759e-08
3.942928524610661736e-08
3.237206394746116102e-08
2.765002900172881285e-08
2.359758683946696210e-08
1.770676639069085246e-08
1.245923935737048395e-08
1.004132589039516920e-08
6.819871825784367509e-09
5.097419109263163565e-09
3.489542858727012722e-09
2.439732424801337023e-09
1.707180055073847407e-09
1.195433272297560496e-09
8.439046193429380304e-10
6.030418981148213701e-10
4.392727178813031533e-10
3.261908402396332997e-10
2.465380316670267781e-10
1.889951625085630020e-10
1.460111364534015833e-10
1.128684702985298215e-10
8.667631790500802484e-11
