# bin_9_7
6.783636181416601619e-08
6.361412324918682205e-08
5.814314512343260881e-08
5.171942386237874964e-08
4.475975635979935994e-08
3.774616561213274690e-08
3.113731582145181836e-08
2.525323515667269318e-08
2.020857134968652239e-08
1.593965421987663867e-08
1.232498123866503256e-08
9.325497189457755603e-09
6.978163432032044448e-09
5.232709974807306838e-09
3.917607895009298244e-09
2.931066966790547741e-09
2.212400168706553045e-09
1.680199249441694463e-09
1.286610058904376143e-09
9.912937239122326219e-10
7.663536533879541218e-10
5.923431795753800096e-10
4.559786177417532585e-10
3.482598587895895996e-10
2.630014171131509733e-10
1.958325948938550102e-10
1.434605064844198526e-10
1.032352410946962662e-10
7.290952371446652602e-11
5.052372266056036833e-11
3.436525393149122175e-11
