# bin_10_4
5.252655185299247611e-08
4.804923603489897978e-08
4.276480521862729037e-08
3.701542953080636381e-08
3.120615157423898547e-08
2.573122238634059318e-08
2.086668841791137932e-08
1.670980863560230415e-08
1.319473245804905626e-08
1.020668672439962055e-08
7.720210000314923954e-09
5.787209548824968202e-09
4.359200335384667879e-09
3.275246407423969496e-09
2.466142265553473976e-09
1.875246348840172620e-09
1.436824359596439663e-09
1.110458072579669647e-09
8.637253081608174353e-10
6.738098154836695395e-10
5.250772690786922812e-10
4.070035451908871916e-10
3.125483391531074350e-10
2.369371556818280254e-10
1.768043641865047859e-10
1.295800379558751514e-10
9.313661001128815467e-11
6.560177281259504043e-11
4.528096571958558451e-11
3.064999949719288037e-11
2.037250017177738469e-11
