# bin_10_6
6.510250853234237932e-08
6.078732335368119524e-08
5.529625253569687053e-08
4.893875569312127412e-08
4.213698610005844454e-08
3.536619429627173939e-08
2.906217831164807419e-08
2.350430966625208751e-08
1.876658638694502106e-08
1.475771374384032291e-08
1.136063455873079220e-08
8.562799740059651636e-09
6.407682253212718873e-09
4.812572250556834777e-09
3.600986791793782477e-09
2.702170225958928208e-09
2.044951669728315682e-09
1.558800715538019792e-09
1.197538192238209067e-09
9.254730210870377695e-10
7.171466859480997024e-10
5.550978846851208414e-10
4.274934828852641710e-10
3.263146996410592753e-10
2.460527292027073926e-10
1.827769960570398536e-10
1.334778553080731279e-10
9.569176582521988334e-11
6.729639015092338061e-11
4.642217278053190391e-11
3.142758325546402628e-11
