# bin_6_1
2.084071359781101788e-08
1.768270486369774331e-08
1.466244725152292586e-08
1.194423624861516828e-08
9.601517572772915671e-09
7.616778626181183114e-09
5.933220737139225112e-09
4.527466251573734612e-09
3.417482745660337246e-09
2.587217357216143823e-09
1.964103149215087119e-09
1.495508139500664281e-09
1.150831077611618447e-09
8.943018921771688880e-10
7.015756144175396126e-10
5.539820007070775036e-10
4.385512912671266592e-10
3.464299441429092345e-10
2.717995980559932725e-10
2.108913514992420858e-10
1.612285619561106293e-10
1.210929421367373989e-10
8.915675057531338641e-11
6.426504438464328559e-11
4.533027779851977214e-11
3.130286359161670203e-11
2.118805862250915531e-11
1.408330863559926388e-11
9.212615070107982329e-12
5.944827410199806551e-12
3.792815565667730415e-12
