# bin_2_2
2.232302395121254517e-08
1.914089291628106818e-08
1.601828537964133470e-08
1.313751716106030379e-08
1.060945214359550310e-08
8.457875343011544249e-09
6.643173682758393170e-09
5.119841251103263266e-09
3.880414197964537991e-09
2.929152489880874918e-09
2.221924922754014834e-09
1.687978335244000831e-09
1.290594175344070402e-09
9.971541839580886202e-10
7.772891851803972346e-10
6.105706824237286559e-10
4.816228116374588686e-10
3.798794995190724678e-10
2.982511738368725870e-10
2.320783105126320871e-10
1.782916718798208365e-10
1.347968338474694044e-10
1.000488564378945836e-10
7.277663805392049608e-11
5.183578206242281034e-11
3.614886077179179773e-11
2.470029697343258679e-11
1.656026694624431197e-11
1.091523697071948464e-11
7.088650164366800214e-12
4.546224586648449277e-12
