# bin_10_10
4.390397310033680692e-06
4.986410077656359315e-06
5.575846861328467193e-06
6.115488255344474324e-06
6.547457263746219163e-06
6.799002168698103238e-06
6.809147427381677221e-06
6.485997874699197688e-06
5.831679347731629095e-06
4.955932559430850409e-06
4.060136202722189740e-06
3.375400822956257555e-06
2.921602085483132296e-06
2.402694580150126129e-06
1.694296986456703115e-06
1.269817128666850810e-06
9.800581934688217370e-07
6.627951357650344009e-07
4.786418593537367052e-07
3.361995003904903867e-07
2.299695336486074993e-07
1.572212889428693399e-07
1.078029045537083609e-07
7.448750151168871381e-08
5.205828688813593623e-08
3.704027054041349173e-08
2.687185934641973865e-08
1.990523051505696777e-08
1.502124945716641183e-08
1.149035081617112783e-08
8.847009441943332247e-09
