# bin_13_11
1.583345525870047276e-06
1.807606090975810254e-06
2.034822664723782064e-06
2.249949064143554237e-06
2.433218550345579709e-06
2.559129582252891572e-06
2.600276532018305131e-06
2.529751264862271213e-06
2.323799494934673918e-06
2.018462246662920044e-06
1.667515518281373638e-06
1.369037351149266907e-06
1.172076428452949608e-06
1.000596472382651065e-06
7.452696426227439970e-07
5.229484443165103526e-07
4.246621038539371634e-07
2.822537704980552607e-07
2.125302526589087549e-07
1.434934423755898028e-07
9.788573983025640096e-08
6.702910354435447243e-08
4.553600277568949183e-08
3.087949722474651863e-08
2.101387671368526401e-08
1.449331640883150242e-08
1.016028268887535426e-08
7.268126588120713595e-09
5.316898504691178293e-09
3.971644633689311037e-09
3.015761487058117423e-09
