# bin_11_2
1.165406111373370569e-22
1.311974576444163520e-22
1.451263773678573547e-22
1.570714381738324668e-22
1.654054478648723425e-22
1.683387911669317955e-22
1.642054651240756897e-22
1.513375210570904044e-22
1.318880936377658715e-22
1.091978933007640482e-22
8.955692850081270410e-23
7.642326644913755661e-23
6.543122395878771204e-23
4.930654717227995943e-23
3.449233442160734987e-23
2.792620195505568596e-23
1.892482395303269023e-23
1.420150794678773655e-23
9.677130962470737848e-24
6.762027776309066894e-24
4.732875075552097666e-24
3.312946982646156123e-24
2.335369081512359096e-24
1.665704191882325430e-24
1.211021163354756291e-24
8.976783244593216099e-25
6.775066018884252838e-25
5.189260069856082381e-25
4.008178475351723298e-25
3.099684585103555560e-25
2.382653434003021372e-25
