# bin_4_3
3.225050773569110308e-06
3.487754294594434480e-06
3.671644010376618703e-06
3.737781143998803378e-06
3.649053284273261170e-06
3.370195004073555943e-06
2.943437759094340752e-06
2.443698242522605961e-06
2.004484219724801082e-06
1.703348443806594462e-06
1.455571727159852397e-06
1.110560202241584019e-06
7.840757423910211430e-07
6.262097137904583577e-07
4.409342024502139606e-07
3.276128266350331879e-07
2.311710002609851969e-07
1.673576773694892200e-07
1.213490836608445376e-07
8.889054012716817713e-08
6.617559696000702542e-08
5.010982584950520863e-08
3.861132583481608698e-08
3.013957363921908159e-08
2.368630873762281324e-08
1.861630636962027112e-08
1.452979964392754460e-08
1.119048912967907661e-08
8.459428320935766657e-09
6.250369727353219357e-09
4.501069303484879488e-09
