# bin_7_2
5.097219404240553750e-13
5.620386105227816626e-13
6.061164627031045704e-13
6.355948074431291410e-13
6.439350471127106741e-13
6.241538071321830717e-13
5.715008788294330886e-13
4.948643131450432966e-13
4.084477652162672230e-13
3.357996887381408584e-13
2.874850654113551097e-13
2.439857347400583866e-13
1.811991531738279568e-13
1.288684941624836534e-13
1.037989390188367664e-13
7.063761250142994606e-14
5.322286914334440770e-14
3.713054108829144469e-14
2.636590432466829064e-14
1.888568203960375524e-14
1.362597635440896693e-14
9.967679117400075826e-15
7.411263383014032253e-15
5.616392254067928621e-15
4.322687620960510405e-15
3.361916573383276348e-15
2.625890713571185178e-15
2.044873581644499854e-15
1.577137652891200712e-15
1.197776465868424781e-15
8.917067773674765317e-16
