# bin_14_5
1.064529665025400619e-17
1.211083759571373056e-17
1.357192353491275678e-17
1.492501469548874584e-17
1.603206272674107916e-17
1.671840136193533969e-17
1.682482879719020270e-17
1.613727113041790985e-17
1.460633571697443808e-17
1.249803468987337506e-17
1.025828067184093581e-17
8.487239080951031026e-18
7.329896272256187121e-18
6.113781458964639337e-18
4.376148721138341116e-18
3.203468078463421084e-18
2.531838610573318795e-18
1.685290037399383093e-18
1.244597155733012994e-18
8.629151609699757137e-19
5.882140944326220669e-19
4.021484895270304530e-19
2.744189384066089967e-19
1.883823887156957877e-19
1.305138268092515955e-19
9.195670405759589450e-20
6.602129632290307922e-20
4.841402493862940899e-20
3.622843131496664664e-20
2.755169594441806240e-20
2.115659116270721922e-20
