# bin_3_1
2.613474904328014320e-07
2.724946234158605281e-07
2.743946427064627621e-07
2.639586902038035934e-07
2.401131966640798099e-07
2.066872402123061879e-07
1.704689559620730561e-07
1.407469987724448164e-07
1.204073077774344232e-07
1.007287840273083411e-07
7.452054128777641171e-08
5.428677068640003207e-08
4.280623898566244507e-08
3.012028422653418949e-08
2.248837901132905010e-08
1.619810717420939684e-08
1.184997996811026549e-08
8.768565999440782492e-09
6.587376835152509893e-09
5.038635443717830511e-09
3.918407503502333115e-09
3.088587683737183796e-09
2.451274477175688636e-09
1.944905754032406170e-09
1.531928629007608672e-09
1.189985713335351317e-09
9.065020100344012859e-10
6.742473360387852435e-10
4.882612171275678463e-10
3.439893400837330374e-10
2.360461323126636135e-10
