# bin_10_3
2.127773606752366940e-16
2.388806038320180539e-16
2.633679522256763831e-16
2.838824370601295766e-16
2.974137521721394482e-16
3.009341734532353384e-16
2.910461381275045064e-16
2.657534243631921367e-16
2.294591573182049228e-16
1.890485341069036028e-16
1.556072790955220380e-16
1.336275916827300724e-16
1.131021212638103822e-16
8.307092250810964389e-17
5.926163121534375304e-17
4.776148402457181056e-17
3.192978261154990343e-17
2.404718380285287874e-17
1.660667133277606705e-17
1.154285801906973953e-17
8.100505681828491817e-18
5.697085116837722509e-18
4.046355075499129235e-18
2.913888732293044829e-18
2.140399212113803098e-18
1.602155610452365032e-18
1.219357609704792780e-18
9.394094429456063037e-19
7.276191452199954662e-19
5.624998820790573569e-19
4.310234669341794289e-19
