# bin_8_8
4.367204310598174721e-06
4.921466139092556461e-06
5.450635898672407310e-06
5.908163562858749309e-06
6.233368859463209405e-06
6.357593034522268500e-06
6.220870217055555069e-06
5.753762971333130763e-06
5.031716342926635224e-06
4.175063364698201356e-06
3.420778984475094351e-06
2.911381728524352341e-06
2.500890347976776674e-06
1.903417939338501704e-06
1.324926206321816187e-06
1.070491847133679933e-06
7.326164542912921486e-07
5.464737024035456383e-07
3.712294903426299350e-07
2.603892152659019879e-07
1.819196894221544585e-07
1.270432134786778134e-07
8.930392739719412081e-08
6.347016298574671942e-08
4.596003011716686367e-08
3.393512275570527749e-08
2.552301383291536358e-08
1.949874622863411415e-08
1.503959927625022583e-08
1.162877684582804703e-08
8.947497605124273495e-09
