# bin_4_4
6.059559364877683629e-06
6.603756811225148471e-06
7.019008960241557223e-06
7.227676767023729162e-06
7.165622054504299922e-06
6.741695648691642701e-06
5.993560795638283234e-06
5.043650722385349441e-06
4.128959137467056596e-06
3.460600137168557782e-06
2.986043762631237762e-06
2.388597388475880622e-06
1.679261318183935143e-06
1.299726570598961406e-06
9.683399340006762760e-07
6.888193713090150276e-07
4.945194586068634814e-07
3.579978343335105746e-07
2.566332428532761593e-07
1.858258435159761801e-07
1.366083054901464636e-07
1.021455024943314724e-07
7.775742299348321824e-08
6.013517549134434585e-08
4.698728635231012712e-08
3.686210081572426190e-08
2.883247839216165967e-08
2.233219502655275278e-08
1.702949707358040160e-08
1.272428094927155634e-08
9.282555719089442691e-09
