# bin_9_11
-3.599803242716743486e-09
-4.088154987690965738e-09
-4.570927244344505773e-09
-5.012662372529014092e-09
-5.365868225453385607e-09
-5.570864477009517955e-09
-5.577841267205403300e-09
-5.311322215141080059e-09
-4.773945652842409616e-09
-4.055672117936515502e-09
-3.322313425308129879e-09
-2.762690652389395883e-09
-2.391497737777372028e-09
-1.965324196194332343e-09
-1.384877325086314285e-09
-1.039151962546898121e-09
-8.010336228078593882e-10
-5.421979535994091415e-10
-3.910831586469990480e-10
-2.748797616939697368e-10
-1.880602688023895387e-10
-1.285707081894460705e-10
-8.818082068557065966e-11
-6.094944502553594732e-11
-4.261518644242642707e-11
-3.033594698749042651e-11
-2.201913033632622212e-11
-1.631843930503577105e-11
-1.231938395038848632e-11
-9.426096762525146757e-12
-7.258474550912886773e-12
