# bin_10_1
-2.657767431655524317e-27
-2.974268659272200892e-27
-3.266370312635274311e-27
-3.503774356559163456e-27
-3.648245564359003734e-27
-3.665732021933021584e-27
-3.509245688562439089e-27
-3.171571840905411281e-27
-2.710004966802671087e-27
-2.224360269502770495e-27
-1.842638438788026253e-27
-1.590855733002182662e-27
-1.322068836252611027e-27
-9.459357614771615846e-28
-6.970636689779577063e-28
-5.484996357352471195e-28
-3.699984020157237207e-28
-2.736925316144480890e-28
-1.927742400473312662e-28
-1.342926697989145691e-28
-9.435699839111838244e-29
-6.675069058180386143e-29
-4.784497031016355530e-29
-3.484448769396199073e-29
-2.588452336195058493e-29
-1.957384313433717014e-29
-1.501940786500411353e-29
-1.162982838070514234e-29
-9.022543032741545042e-30
-6.963166429561416208e-30
-5.311475834094813973e-30
