# bin_1_5
-9.792920146273825056e-14
-1.054375699078625092e-13
-1.103787729708483763e-13
-1.116434720809779455e-13
-1.079928069119771286e-13
-9.872957407207649206e-14
-8.537287023061605850e-14
-7.047806015835026033e-14
-5.802376477687610679e-14
-4.965638672607199537e-14
-4.196633006871444356e-14
-3.116817054314150847e-14
-2.236751144680433571e-14
-1.789105055766790963e-14
-1.236761928255223455e-14
-9.294429454910788452e-15
-6.588710321805407252e-15
-4.755415410721142235e-15
-3.465899932025706636e-15
-2.555561172571815769e-15
-1.915911339898211464e-15
-1.461106502413771419e-15
-1.132918528355665538e-15
-8.883296050387333197e-16
-6.998277741486368373e-16
-5.501456910893794025e-16
-4.285508457365349998e-16
-3.288024387795670421e-16
-2.472130923274622293e-16
-1.814311797320420019e-16
-1.296757157199829464e-16
