# bin_4_7
-1.333029779257316610e-10
-1.478624635140916139e-10
-1.606308293401539085e-10
-1.699933286500966572e-10
-1.740582024620102285e-10
-1.712657996333704423e-10
-1.595194864045156270e-10
-1.404596414599545212e-10
-1.171767158280275937e-10
-9.592892425842715733e-11
-8.114649648426291714e-11
-6.994330923466186974e-11
-5.438210809371878717e-11
-3.784231371244164606e-11
-3.018245717357101984e-11
-2.141179117608383385e-11
-1.569926627220540451e-11
-1.087602512453670542e-11
-7.807616966936754942e-12
-5.543668109683729578e-12
-3.954821970022883167e-12
-2.857750776498004761e-12
-2.096069382539917705e-12
-1.566885920759439073e-12
-1.192246554663691672e-12
-9.196454583447797961e-13
-7.153474045886829588e-13
-5.571683115293153379e-13
-4.314857480662099367e-13
-3.301255477819342552e-13
-2.482558245085806087e-13
