# bin_4_10
-1.151814070891013197e-15
-1.293822395336838036e-15
-1.427390373973314728e-15
-1.539816729012058843e-15
-1.614840422666693754e-15
-1.635854693272566678e-15
-1.584668588597505919e-15
-1.449493343384333587e-15
-1.253793966074688367e-15
-1.034028382144375446e-15
-8.507174662630549671e-16
-7.300214754479538846e-16
-6.193295732519974606e-16
-4.567307252048890640e-16
-3.246112633809382614e-16
-2.622710832181433434e-16
-1.753431692801072825e-16
-1.322800087232426025e-16
-9.112606618374378897e-17
-6.333614393729202306e-17
-4.444896544735794250e-17
-3.124405308917593501e-17
-2.216557497099337499e-17
-1.593851433698034570e-17
-1.168978057174830168e-17
-8.737729807514364713e-18
-6.642262808418892280e-18
-5.113433340584098509e-18
-3.959531008252125137e-18
-3.061621206584897922e-18
-2.347458069421247749e-18
