# bin_6_4
2.448101147516264592e-10
2.696208997574025292e-10
2.903460024578160251e-10
3.039136120692323595e-10
3.072642116630094188e-10
2.969405070343885601e-10
2.710543454997924826e-10
2.339867923759768472e-10
1.928652383966043393e-10
1.588033868538048811e-10
1.361841176701492204e-10
1.150418709999387872e-10
8.479394972260353825e-11
6.077142044516347316e-11
4.874081714782574231e-11
3.315571090840401367e-11
2.493561669694353173e-11
1.747273233814928159e-11
1.240327853512536964e-11
8.891840747204039697e-12
6.426377703684855583e-12
4.711607381369976184e-12
3.512074831806758953e-12
2.667690964003052671e-12
2.056969925266613707e-12
1.601692681961105470e-12
1.251561375223242796e-12
9.743104360416498492e-13
7.506996625602635500e-13
5.692457137926217456e-13
4.229387461008041799e-13
