# bin_9_9
9.839499310521609978e-09
1.110378783324242333e-08
1.231844523377659798e-08
1.338019876587471698e-08
1.415331951340671707e-08
1.447957171325985121e-08
1.422876897337102490e-08
1.322790103836554433e-08
1.162475300268522403e-08
9.680568255858716441e-09
7.925344555714965681e-09
6.717484017666980890e-09
5.788475809401900854e-09
4.470453358552310761e-09
3.102004720045693225e-09
2.485122259298699664e-09
1.735174875295152951e-09
1.274610990955463578e-09
8.673351122584788933e-10
6.121390256676019803e-10
4.260343170268184932e-10
2.961430059977817743e-10
2.073017980869675869e-10
1.465979570352507346e-10
1.055222654696943451e-10
7.745054551614056489e-11
5.793354541475602187e-11
4.406991353498930812e-11
3.390191667128402307e-11
2.619215349262872015e-11
2.017209676774597116e-11
