# bin_8_11
5.740903044119708639e-08
6.461710410930280796e-08
7.146153677157170107e-08
7.732282909856276414e-08
8.139875102184092640e-08
8.281708726187219102e-08
8.074398256155324997e-08
7.439800288899588212e-08
6.481800484408370401e-08
5.368616478170563817e-08
4.405846425359662740e-08
3.758814622068896083e-08
3.212506768090992369e-08
2.421291402668723103e-08
1.700169356038064989e-08
1.368867569682693207e-08
9.337299521348829180e-09
6.959660303759220756e-09
4.760920019137768666e-09
3.333074250212254607e-09
2.330285080770604589e-09
1.629853368741803933e-09
1.149037270075897991e-09
8.197918705741791252e-10
5.960709752974421447e-10
4.418484290318851460e-10
3.334411795774094229e-10
2.553266610955847428e-10
1.971368241467816027e-10
1.523812697533416345e-10
1.170736276601461405e-10
