# bin_4_2
1.624603724898950895e-10
1.734748206075551774e-10
1.797361285424359444e-10
1.795832430786540516e-10
1.708144958998244084e-10
1.535253043652570724e-10
1.305772299501774061e-10
1.071536561426934541e-10
8.906010073679182774e-11
7.665356660950241718e-11
6.287169294157468235e-11
4.515514056593555382e-11
3.381111200672658715e-11
2.617170308963866074e-11
1.830450909572528186e-11
1.353782427834880134e-11
9.772170427874451613e-12
7.071031858917841322e-12
5.186142023695059889e-12
3.861407047566741312e-12
2.926114059336948843e-12
2.255376237027169221e-12
1.763614767486101064e-12
1.390310341708783565e-12
1.097456453227004257e-12
8.614140290282515069e-13
6.678573054180773400e-13
5.085757855986762195e-13
3.786600467603282010e-13
2.747571438300348736e-13
1.940387073368711583e-13
