# bin_6_10
1.053308370749364586e-07
1.171142477048562254e-07
1.276031756844310043e-07
1.355419382841180881e-07
1.394279522343619801e-07
1.380093917854010474e-07
1.295570699685578351e-07
1.149280256143396359e-07
9.653329732350514977e-08
7.904853470062991876e-08
6.641688411234979616e-08
5.729255374442306040e-08
4.550170520719903698e-08
3.188661963738779351e-08
2.480546390183070628e-08
1.821752056761660110e-08
1.297099186651682883e-08
9.170632328524100965e-09
6.559576427933390803e-09
4.626897388618830447e-09
3.281610564945697803e-09
2.355258583505073491e-09
1.715382699372007744e-09
1.272294489869085125e-09
9.612899079222458704e-10
7.372760108939413998e-10
5.713049367718520397e-10
4.442834711958976527e-10
3.442797944191649832e-10
2.640862835895621983e-10
1.994278385042236675e-10
