# bin_7_9
5.164005579948246859e-08
5.777665283230765340e-08
6.343393018508908183e-08
6.802293500889049967e-08
7.080219122497466955e-08
7.110608954145460836e-08
6.804359169479868921e-08
6.148124790311185118e-08
5.252891088107735654e-08
4.312617803258840383e-08
3.573235308689737010e-08
3.081552365197368006e-08
2.557129267403399669e-08
1.834545542251180581e-08
1.351785717002743954e-08
1.059747402377067876e-08
7.187572529787915157e-09
5.298745363884166916e-09
3.725201186621901959e-09
2.598262090641504709e-09
1.826618963197677553e-09
1.292775718893697130e-09
9.264986507720845309e-10
6.745677961221265200e-10
5.009293591804836177e-10
3.786455503318537553e-10
2.904018210963408321e-10
2.247492491670182593e-10
1.742772145826291354e-10
1.344413451489636195e-10
1.025174702156049871e-10
