# bin_4_15
2.733498391196665856e-07
2.975774333104516049e-07
3.158763716595344337e-07
3.248274899411983159e-07
3.213741700818072470e-07
3.018350409548810620e-07
2.679636068253932969e-07
2.255097693746106390e-07
1.849371653329274910e-07
1.551776524668165297e-07
1.333375301441558904e-07
1.061650419627869358e-07
7.536317409424663674e-08
5.802899273810257839e-08
4.315371088241295498e-08
3.077326778443802251e-08
2.219535212683470783e-08
1.598137423718109303e-08
1.147048722748217019e-08
8.319182857333173977e-09
6.121102950737306195e-09
4.579861676268523303e-09
3.487692905691968010e-09
2.697475073296760421e-09
2.107201813567004551e-09
1.652182571380889161e-09
1.291212183730487289e-09
9.990943435913111375e-10
7.610065278643133279e-10
5.679569425661617813e-10
4.139035191152282327e-10
