# bin_9_11
3.522173819811780206e-08
3.980677983724697649e-08
4.424151594726871622e-08
4.816214776699380168e-08
5.108706761927320355e-08
5.244049483804044550e-08
5.176511143783819235e-08
4.839249228361544854e-08
4.275261178571253717e-08
3.575465717828927646e-08
2.925954252870336581e-08
2.468847775703703230e-08
2.132379670288711439e-08
1.672551852588684629e-08
1.160274292939867941e-08
9.181020105532350442e-09
6.560750623743661032e-09
4.728947503993553883e-09
3.243485363276137680e-09
2.297722243872233714e-09
1.592341625150703214e-09
1.101360713948111214e-09
7.673296069800639785e-10
5.397160492363049367e-10
3.859206395752835504e-10
2.813467736520270643e-10
2.091115021052758873e-10
1.582435468587833640e-10
1.213140796127460085e-10
9.359461080290880247e-11
7.212762293443662269e-11
