# bin_1_13
7.718441865326423214e-07
7.570076732987008780e-07
7.074011801900699984e-07
6.273477021314723692e-07
5.315002366265210721e-07
4.403667912133196078e-07
3.682490191008264282e-07
3.090492767919486465e-07
2.462347436680776513e-07
1.832758176989060264e-07
1.373880381856608255e-07
1.037074804364434514e-07
7.567319484608703084e-08
5.579518636006958724e-08
4.112343493245523705e-08
3.068062472647151309e-08
2.323253508934075808e-08
1.790570319328397802e-08
1.403118889099920361e-08
1.113417839428628426e-08
8.893918587700135932e-09
7.099962235162183322e-09
5.624248948128625013e-09
4.392826607659855602e-09
3.364716749653467713e-09
2.517166723196142107e-09
1.834791401765599089e-09
1.302179531731843564e-09
9.007268758946127766e-10
6.085966434785818916e-10
4.028664068645471851e-10
