# bin_11_2
5.732462163620982999e-27
6.451548226942812461e-27
7.134017098657965907e-27
7.717902960686087028e-27
8.123056515041701443e-27
8.262074929653548874e-27
8.052045440238120887e-27
7.413636233328648476e-27
6.454510335885531759e-27
5.340943022707498854e-27
4.381642189531330802e-27
3.741794152983451411e-27
3.200333296617391229e-27
2.404916036793320789e-27
1.685085421149573133e-27
1.364668366518230616e-27
9.225823382610104499e-28
6.932278773630214384e-28
4.728853006004930596e-28
3.301288093757972551e-28
2.311649424684625972e-28
1.619091242728261171e-28
1.142242987763080016e-28
8.155307100907470775e-29
5.935838466952025158e-29
4.404764381487860946e-29
3.327589135823819128e-29
2.550483720928024605e-29
1.970710939340729331e-29
1.524060857294422991e-29
1.171164800846940614e-29
