# bin_7_8
3.115827042689517574e-08
3.483123721255765274e-08
3.820198343108463171e-08
4.091262483597766817e-08
4.251426950321145687e-08
4.261519558304256343e-08
4.066876411783155661e-08
3.664614074786978204e-08
3.122373801687902876e-08
2.561091630923970832e-08
2.125707152401423869e-08
1.835190330875278032e-08
1.514864826244679519e-08
1.079972169898334843e-08
8.026637083614044869e-09
6.246561411654641082e-09
4.252544570456997610e-09
3.117723616343811089e-09
2.202154698376877808e-09
1.537222948057574886e-09
1.081340432426329975e-09
7.666441109301554571e-10
5.507544471226873505e-10
4.021546936844552929e-10
2.994830623496731875e-10
2.269429408133152669e-10
1.743928499459583087e-10
1.351211011038300144e-10
1.048064662204112310e-10
8.080670952590981107e-11
6.154314877596283909e-11
