# bin_4_10
2.169810816678571085e-07
2.361219948385229195e-07
2.505219198709843082e-07
2.574708069814981579e-07
2.545425508261119618e-07
2.388397754053433993e-07
2.118408874246753052e-07
1.781382496543985770e-07
1.460815297647930191e-07
1.226566044517363066e-07
1.053721639490377580e-07
8.371420472770016953e-08
5.938749730010862110e-08
4.582300975247677900e-08
3.398501498603433689e-08
2.427987605094051500e-08
1.749082588482703927e-08
1.260105314971008250e-08
9.048549148387060550e-09
6.565870105876535734e-09
4.834153756534404917e-09
3.619421940335675534e-09
2.758175803509774062e-09
2.134421512268006469e-09
1.667978164757670261e-09
1.308020739531532242e-09
1.022192928327160373e-09
7.907440467587295273e-10
6.020580581215849420e-10
4.490812704104401292e-10
3.270558965187068308e-10
