# bin_7_6
3.015161642358100872e-09
3.359329328367024633e-09
3.669344527811447793e-09
3.909690917342799259e-09
4.036618580197730439e-09
4.015049947759617800e-09
3.791312611215222676e-09
3.381593267556174694e-09
2.852523510861271736e-09
2.334699714623884579e-09
1.952782577119487309e-09
1.688838998981945211e-09
1.361579050159977014e-09
9.534910343784295440e-10
7.331948566788283437e-10
5.497369760974596789e-10
3.847398512326090355e-10
2.740968303741686436e-10
1.963940392905899888e-10
1.379653852124290104e-10
9.742371667404012688e-11
6.961360069655531636e-11
5.046780608039564316e-11
3.724341722679066151e-11
2.801350040102920328e-11
2.140992250041836997e-11
1.655495800925059629e-11
1.286745633512857546e-11
9.980990194400260669e-12
7.673646789852498316e-12
5.814054926508225983e-12
