# bin_8_6
8.867999441998036774e-12
9.941005823046443226e-12
1.093999941414489944e-11
1.176525211224913707e-11
1.229012308935761896e-11
1.239468720944261078e-11
1.192822636524845730e-11
1.083709029555445390e-11
9.304258190578981863e-12
7.654425021904693466e-12
6.320167796171596948e-12
5.444476400528951490e-12
4.569508812337363392e-12
3.310374770914469419e-12
2.398687570963105735e-12
1.914504501315189854e-12
1.281874412496833037e-12
9.592895706633402449e-13
6.690458749689604347e-13
4.651880122089320089e-13
3.266549507444723018e-13
2.303445588706850477e-13
1.643428009892726820e-13
1.190165398345126065e-13
8.792466776094973623e-14
6.615958958128273238e-14
5.056822098494673942e-14
3.906553018300249724e-14
3.028921399461081060e-14
2.339999098611781990e-14
1.789254793080742477e-14
