# bin_10_4
3.387865467412980867e-18
3.808348358072789928e-18
4.205200106765283642e-18
4.541295807857927666e-18
4.768924453255273303e-18
4.838204891772673440e-18
4.696980565797450602e-18
4.306268279946241230e-18
3.731736822704311573e-18
3.082722894464879732e-18
2.533744443422798895e-18
2.171021720446814946e-18
1.847546865922953146e-18
1.371173843009132962e-18
9.694321405494311795e-19
7.846068295715017629e-19
5.259949828652355436e-19
3.967140700168179511e-19
2.722887341203352210e-19
1.894825528591511621e-19
1.328906278340424908e-19
9.330451619729511657e-20
6.606534343280705225e-20
4.738805806918836150e-20
3.466528900429949824e-20
2.584735540816827625e-20
1.960764554676372715e-20
1.507300284516167207e-20
1.166399693070917278e-20
9.020194273062897941e-21
6.921959614727857147e-21
