# bin_8_8
5.037830896576423952e-11
5.675844418046514739e-11
6.284280435224148948e-11
6.809216210583690803e-11
7.180472436989719178e-11
7.319448119287251750e-11
7.155399303046223049e-11
6.611072108244267576e-11
5.773909614297975935e-11
4.790287734413358262e-11
3.927062561005792468e-11
3.346318410308480161e-11
2.871665249769023895e-11
2.177814612938922696e-11
1.518849938291350626e-11
1.228754298508366091e-11
8.375601034325785043e-12
6.266019279205228692e-12
4.260555545240832531e-12
2.984179840920822205e-12
2.086642658606480652e-12
1.458734557707668934e-12
1.026530195134300871e-12
7.305595044591189225e-13
5.298267733781325048e-13
3.917871288283950815e-13
2.950620677742515997e-13
2.256463742220569604e-13
1.741469376319368165e-13
1.346711670258365895e-13
1.035906492328863743e-13
