# bin_8_2
2.877890556235619174e-20
3.192950808675355825e-20
3.469620405272311671e-20
3.673050699692645131e-20
3.762308805020863332e-20
3.703688956265637898e-20
3.451578457577369097e-20
3.040212718925594988e-20
2.537687072796280924e-20
2.077430354283503290e-20
1.756596741355190112e-20
1.514524333892727418e-20
1.179334932277879606e-20
8.206445948643684949e-21
6.537395709703562435e-21
4.647924484519783452e-21
3.401787068013721253e-21
2.358655197764055215e-21
1.693438847575560744e-21
1.201918869567142845e-21
8.570712330342306588e-22
6.190524808845062969e-22
4.538455236644706085e-22
3.391015064802570571e-22
2.579142854683688847e-22
1.988795804432118495e-22
1.546709004779576811e-22
1.204669893916252242e-22
9.330446801718507679e-23
7.140447047244205619e-23
5.371568954413851527e-23
