# bin_6_4
7.308736279295313132e-12
8.067423483351778453e-12
8.711344901221358749e-12
9.149625038804484044e-12
9.286661400527808614e-12
9.024252496526748451e-12
8.286142364910827813e-12
7.192292787652785909e-12
5.948750201075524008e-12
4.887225236561221943e-12
4.177842009732535437e-12
3.557065574297021060e-12
2.660054748595457090e-12
1.882881136256697457e-12
1.518268931585708244e-12
1.036996255872005505e-12
7.804294555390470753e-13
5.429516508270175060e-13
3.860247877060009830e-13
2.762602906542191478e-13
1.990388285553566001e-13
1.453363446372202222e-13
1.078394655673099128e-13
8.156276365885109609e-14
6.267565706295807717e-14
4.869308127309978886e-14
3.801635846763653428e-14
2.961105499569967201e-14
2.285601343995986728e-14
1.738032265057191261e-14
1.296061248295796584e-14
