# bin_9_1
2.592637019770275696e-27
2.888283064842947773e-27
3.154386095679951266e-27
3.360331459798599075e-27
3.468379722306917210e-27
3.448576633069741665e-27
3.254383561351283808e-27
2.901121257244229508e-27
2.445349230033116004e-27
2.001908622010098846e-27
1.675999126074961582e-27
1.450069849392939707e-27
1.166915989237087887e-27
8.157173952762640534e-28
6.296172167844894693e-28
4.703892313811748789e-28
3.302792747943530032e-28
2.344563718814612871e-28
1.683261482904916580e-28
1.183429914296655187e-28
8.359981023880025438e-29
5.978736526898347419e-29
4.338276473681493301e-29
3.204773009472828930e-29
2.412846689112691057e-29
1.845583761956371836e-29
1.427973620176759559e-29
1.110313680515816232e-29
8.613386938607983667e-30
6.621291210680232821e-30
5.015008562739124157e-30
