# bin_6_1
2.119475719622865948e-08
1.802732872450137143e-08
1.498295193211536217e-08
1.222742119753559354e-08
9.840378912330041013e-09
7.813757234152699356e-09
6.097849160545467681e-09
4.666334949178620695e-09
3.528322707112568854e-09
2.669466222341472450e-09
2.026320656298831771e-09
1.542826700225218450e-09
1.185550647617390521e-09
9.201897830055703261e-10
7.208222082074922920e-10
5.684644981459151959e-10
4.495881774181293787e-10
3.549615934717955066e-10
2.784797079279947196e-10
2.161694963744147819e-10
1.654156017475992164e-10
1.244070786366925432e-10
9.175833612999657475e-11
6.627913052029074206e-11
4.686050629826185938e-11
3.243944638485128913e-11
2.201139846153584589e-11
1.466455541709404646e-11
9.612878811298148829e-12
6.214278028756562116e-12
3.970646601145575987e-12
