# bin_5_1
2.057908700364237050e-08
1.748282557921944865e-08
1.451664941531258813e-08
1.183811464804309830e-08
9.520638388843438114e-09
7.554071006207815611e-09
5.890427087586860994e-09
4.505296992708387203e-09
3.406682849874982554e-09
2.578243684058198787e-09
1.957725200680751592e-09
1.491460367217985147e-09
1.146878209136762131e-09
8.907435675528971527e-10
6.981201645035193466e-10
5.507297613455769624e-10
4.355843210429791832e-10
3.438326682337482701e-10
2.696270400270829024e-10
2.091608209830810096e-10
1.599226659098413487e-10
1.201651756907405538e-10
8.854251196773504601e-11
6.389229770504943698e-11
4.512895076172405764e-11
3.121227059397369862e-11
2.116130317694948187e-11
1.408812228041587707e-11
9.229458165589306617e-12
5.963478575555217053e-12
3.808905510302696089e-12
