# bin_3_2
2.608491003266455448e-08
2.260285035911654455e-08
1.909275258225447267e-08
1.577667365404761207e-08
1.281424151551923577e-08
1.026878930422939582e-08
8.116938601517621096e-09
6.302495725494170502e-09
4.801260942522307028e-09
3.622276986722539661e-09
2.740093762961255303e-09
2.078108295536644927e-09
1.580873857434395283e-09
1.214621004538350003e-09
9.416432665335112065e-10
7.363107046113193603e-10
5.790430864225434337e-10
4.562241923209653538e-10
3.585379174342023447e-10
2.798068003297699772e-10
2.159669740183702367e-10
1.642882972718225883e-10
1.228312733985339216e-10
9.007669070619701092e-11
6.470992477954230857e-11
4.551866142490800226e-11
3.136337019540293970e-11
2.119058744979086045e-11
1.406329594172014234e-11
9.186776224231735408e-12
5.920412797111535196e-12
