# bin_14_8
7.882890479861169323e-08
7.485471391509958393e-08
6.933252169370120253e-08
6.252085567481056675e-08
5.483503011683029883e-08
4.680450763874981489e-08
3.898953326692283288e-08
3.185537082988001575e-08
2.564989125942112128e-08
2.038318422661365321e-08
1.591584484058275988e-08
1.214435053539710351e-08
9.098280092872518603e-09
6.799683019575499229e-09
5.088003299241248756e-09
3.786680450598128651e-09
2.836338019923671515e-09
2.136763527333681502e-09
1.622769027662925248e-09
1.240905947048849696e-09
9.538644847743055018e-10
7.347597184653433360e-10
5.650904369683555051e-10
4.322895458753482733e-10
3.277506285453745563e-10
2.455103198327828974e-10
1.812439180618819106e-10
1.316118584361555590e-10
9.388828760551462434e-11
6.575583998910905919e-11
4.521145436744544517e-11
