# bin_14_11
8.862985271932630530e-08
8.508689089760143378e-08
7.975938072965106360e-08
7.285233728670417623e-08
6.474924211138320205e-08
5.598482059982053532e-08
4.717206304061683525e-08
3.888623326683908845e-08
3.151995506400024370e-08
2.520467289998951432e-08
1.985279765514933995e-08
1.531621275684066170e-08
1.155631983060193760e-08
8.620710446288600486e-09
6.436768008305185011e-09
4.789402009128938784e-09
3.557612355230105855e-09
2.662107354449074889e-09
2.002247683253680397e-09
1.517467788790552769e-09
1.157104171911772626e-09
8.857126095697087927e-10
6.784518836657043087e-10
5.182140473677337168e-10
3.932948203414422789e-10
2.956027700683756043e-10
2.194273367643747262e-10
1.605168003348806261e-10
1.155336395584069885e-10
8.173913834341580597e-11
5.682146523874054826e-11
