# bin_9_3
4.334399049934138506e-08
3.896845467645141828e-08
3.407562697450906333e-08
2.900216528442746005e-08
2.410225804689440339e-08
1.966074058359686935e-08
1.581952883371500237e-08
1.256668407136703674e-08
9.805879559006856102e-09
7.482323986787107723e-09
5.627054718606839517e-09
4.238188096824886282e-09
3.197672438707797776e-09
2.410709892863118980e-09
1.834503734392845103e-09
1.407411571845995364e-09
1.089790565430270974e-09
8.498691689587740032e-10
6.654329140873102175e-10
5.209740083197393232e-10
4.060555921744581100e-10
3.137548697155305799e-10
2.394359730659167024e-10
1.798975021606209874e-10
1.327547035088291560e-10
9.605785838553277294e-11
6.808968219710742531e-11
4.727612222136596653e-11
3.217292109452660407e-11
2.148858918194090700e-11
1.411232335602514532e-11
