# bin_11_4
5.328077582118478746e-08
4.879334347488593059e-08
4.347728605813039348e-08
3.767562432003239242e-08
3.179744979678543508e-08
2.624324868550827246e-08
2.129751783999319828e-08
1.706458401441097587e-08
1.348287510959734048e-08
1.043813330932303195e-08
7.902612854279443248e-09
5.925770750054471634e-09
4.461159700423407944e-09
3.351910743743368894e-09
2.522814902425811173e-09
1.916916060437369122e-09
1.467689407373160562e-09
1.133555689664255241e-09
8.811477264956441881e-10
6.871037394941132411e-10
5.353213456839903368e-10
4.149478901779112042e-10
3.187222160039636414e-10
2.417219938761528844e-10
1.804847325979966509e-10
1.323779826392215487e-10
9.523173568619649525e-11
6.714295690424325350e-11
4.639267016079658042e-11
3.143556594439086040e-11
2.091615354455317876e-11
