# bin_3
0.000000000000000000e+00
2.131907540043270536e-56
7.815568775894830759e-45
9.188987287591961279e-36
1.907344948363876806e-28
1.663037657183911597e-22
1.125358681588702008e-17
9.447773849867861877e-14
1.424056502822805914e-10
5.182534813054596285e-08
5.791495297885063600e-06
2.420589715322671168e-04
4.455810559238129048e-03
4.143116162604143504e-02
2.186017773478549364e-01
7.232154159916516223e-01
1.634237616330150633e+00
2.707705432958767755e+00
3.473437315081127519e+00
3.580910325721589071e+00
3.037226833300535223e+00
2.152375474580060288e+00
1.290749137609668917e+00
6.634405494904682676e-01
2.962614776355546042e-01
1.165524325131672145e-01
4.095855861884877686e-02
1.302857866422352587e-02
3.797999010213420207e-03
1.026261797189414841e-03
2.597126302758533687e-04
6.212988894779745378e-05
1.416773534231428859e-05
3.102575402794442871e-06
6.568102289878213074e-07
1.352086982656384456e-07
2.720686389468368836e-08
5.376061476721360164e-09
1.047449768405733804e-09
2.019531036352301194e-10
3.865429262782706663e-11
7.365343449030531164e-12
1.400584489762647190e-12
2.663731661786223962e-13
5.076512437932226597e-14
9.710936002144014201e-15
1.867296853686627022e-15
3.613910717470578995e-16
7.047522270253143214e-17
1.386148139734803444e-17
2.752067880133291882e-18
1.567573021855531712e-18
3.553854118489525533e-19
8.173366777027211409e-20
1.907611931424585980e-20
4.519545399610379916e-21
1.087217676449137560e-21
2.656029798727534645e-22
6.590232126786141340e-23
1.660954839095136956e-23
4.252318578512918774e-24
1.105889001055063400e-24
2.921521469951399330e-25
7.839729452269800430e-26
2.136781711623502590e-26
5.914937712341393533e-27
1.662751204614355225e-27
4.746143442831241054e-28
1.375417364791916525e-28
4.046193900858519682e-29
1.208124086727837191e-29
6.638074019050638658e-30
