# bin_7_7
4.676666694183412424e-06
5.236493538832441776e-06
5.754688834464758595e-06
6.178210645696189888e-06
6.440013369853695569e-06
6.478912723996174713e-06
6.213724256121984825e-06
5.625341108975826631e-06
4.814922017878486652e-06
3.953115556493812158e-06
3.269473052369768283e-06
2.820365011619426674e-06
2.353019042089929066e-06
1.690784207549058156e-06
1.237260754751899433e-06
9.795589109928235514e-07
6.581040574038743053e-07
4.893232025152204015e-07
3.432963592188397343e-07
2.388946321278190299e-07
1.677960278433664803e-07
1.185370957273880861e-07
8.480764930520183761e-08
6.162771540951381413e-08
4.568324132955644575e-08
3.448055846632637334e-08
2.641898710059036283e-08
2.043941936937188082e-08
1.585398613829416243e-08
1.224047303921787624e-08
9.345681265689842659e-09
