# bin_10_7
1.321549170690878432e-07
1.492005138964315852e-07
1.656070017570969598e-07
1.799942132574142874e-07
1.905426012759878150e-07
1.951029953904583181e-07
1.919667258294173844e-07
1.787105342479455705e-07
1.572609468033384719e-07
1.310552117015275653e-07
1.072437719043039621e-07
9.080994713882835282e-08
7.836745845466090561e-08
6.074369300669320398e-08
4.204497972371258026e-08
3.368413874369795522e-08
2.359099026990166145e-08
1.730545893866355753e-08
1.174416856535706379e-08
8.305451872289539521e-09
5.776925004589357978e-09
4.012487535539601291e-09
2.806015297068907777e-09
1.981680005716611015e-09
1.424285926643246186e-09
1.043842414241136534e-09
7.797743580832947946e-10
5.926087005848744748e-10
4.556619213089721962e-10
3.520487983868515179e-10
2.712661190333289417e-10
