# bin_15_11
9.590993812696600691e-08
1.097604872091217983e-07
1.239339017920473681e-07
1.375395746688098989e-07
1.494151793751484892e-07
1.580339611171936141e-07
1.616096913385995082e-07
1.587035834764799472e-07
1.473545693641623437e-07
1.293382525010476268e-07
1.075512944358711398e-07
8.804600765377312119e-08
7.476490397838912296e-08
6.445443962286363326e-08
4.948725791498831370e-08
3.422437253849155004e-08
2.759629006117049355e-08
1.895855194770114250e-08
1.401572923855289247e-08
9.363042836242848668e-09
6.490227360886701282e-09
4.427067063899373485e-09
2.992413039139642731e-09
2.014546352637019855e-09
1.355985024354240625e-09
9.215999742594404946e-10
6.349498755592141357e-10
4.454516734885928663e-10
3.195457775518626796e-10
2.345491709309965417e-10
1.757354795288789529e-10
