# bin_7_4
3.480196202026523416e-08
3.860220230873021023e-08
4.193466674897378661e-08
4.437790616435179317e-08
4.543740785254670743e-08
4.470851874086412247e-08
4.164134794713510596e-08
3.666201429205791858e-08
3.057899605595410060e-08
2.502520929110594524e-08
2.116126471041436938e-08
1.824171203445729666e-08
1.418976371536644238e-08
9.869111239215790381e-09
7.867866278822020793e-09
5.585499879149322576e-09
4.091855033340921241e-09
2.834732904398616748e-09
2.035116437746777136e-09
1.444587070293671502e-09
1.030244877642951094e-09
7.442481116251938510e-10
5.457210677024305373e-10
4.078241235073396762e-10
3.102337644989666668e-10
2.392505296811679989e-10
1.860751092357286702e-10
1.449201207251940190e-10
1.122300873813293592e-10
8.587141822250698449e-11
6.458290398181932712e-11
