# bin_13_1
1.605138861167911827e-32
1.818606502699345113e-32
2.027352017056821471e-32
2.215230384925045829e-32
2.360640235425316911e-32
2.436831033121626740e-32
2.423139174713153863e-32
2.286081632372142541e-32
2.037009436793297573e-32
1.715941939402290115e-32
1.403883817981591455e-32
1.175887649860204532e-32
1.018414842349335909e-32
8.185463591142189197e-33
5.692907930456255899e-33
4.403636166616613199e-33
3.268670426318767385e-33
2.282340016192338366e-33
1.593702571068825747e-33
1.132475063009640472e-33
7.794894406788943059e-34
5.350161339396050912e-34
3.698973683695679852e-34
2.579357255357253601e-34
1.824308923922471274e-34
1.314921635113417748e-34
9.666090454545007866e-35
7.246954596445706257e-35
5.520100188323363892e-35
4.246301332816160081e-35
3.274364753459187490e-35
