# bin_10_3
2.624836343634338133e-21
2.946099130674905045e-21
3.247109421429349879e-21
3.498737092616672372e-21
3.663819460186693518e-21
3.705232346885663748e-21
3.580834485978193811e-21
3.266940654323319398e-21
2.818252664329584595e-21
2.320454922416926751e-21
1.909917367146038436e-21
1.640542297830883828e-21
1.387421137441423754e-21
1.017222395072088251e-21
7.264284629014724776e-22
5.851108495130718390e-22
3.909120981294214141e-22
2.943203401587940945e-22
2.034023603940983494e-22
1.413516428051596281e-22
9.919056520639410768e-23
6.976832848076705441e-23
4.956942606734121192e-23
3.571198838089123987e-23
2.624474989590160060e-23
1.965377338639279103e-23
1.496344212446932852e-23
1.153069894634453326e-23
8.931731297042473259e-24
6.904229146254726343e-24
5.289250822439026931e-24
