# bin_8_3
5.611694089885188871e-17
6.241460888411267312e-17
6.803043367931000306e-17
7.229589920768199569e-17
7.439754854615954617e-17
7.369806007260193699e-17
6.921681157966869559e-17
6.141785779491175325e-17
5.155342839143036266e-17
4.215897682979143224e-17
3.539891971763664667e-17
3.060756029204110331e-17
2.435854408390315838e-17
1.695432855912904906e-17
1.324610706388210902e-17
9.725703257012108454e-18
6.925493330075137015e-18
4.862584625523680988e-18
3.497638571723682109e-18
2.466348391487438475e-18
1.746883108061898615e-18
1.253408040278124397e-18
9.125912199566217487e-19
6.767477919214863934e-19
5.113063740499032200e-19
3.922108032627785236e-19
3.040281233796395660e-19
2.365537049742395127e-19
1.834190832508847680e-19
1.407838818618183801e-19
1.063806509109837718e-19
