# bin_3_2
7.322681926015799073e-11
7.739868143720231268e-11
7.920439383731449720e-11
7.789371901490731657e-11
7.262128232064102298e-11
6.401410501594632817e-11
5.354388395644995184e-11
4.387550735632516661e-11
3.697112010664647998e-11
3.170546243137711003e-11
2.486083649954919961e-11
1.760281979939223732e-11
1.377060223015055558e-11
1.008435536016281633e-11
7.331241254742424851e-12
5.285860347225003780e-12
3.861061335305561803e-12
2.821242737591300633e-12
2.089346896961589517e-12
1.574414324082302711e-12
1.207383592521758470e-12
9.409244853414261058e-13
7.415670499493249418e-13
5.870320470019972091e-13
4.635042954363356623e-13
3.625196011478228846e-13
2.791186748384783125e-13
2.104713158442843111e-13
1.548319084314290059e-13
1.108684851111034728e-13
7.726238136874347312e-14
