# bin_14_3
4.473280255959251257e-30
5.083143133555050708e-30
5.687794349117776943e-30
6.243365516689978590e-30
6.691207351951237945e-30
6.957455727004336527e-30
6.978472677177070018e-30
6.661741973449401401e-30
6.001772115396686640e-30
5.110716238255599416e-30
4.187868955453281987e-30
3.474657484543428651e-30
3.005430745750610027e-30
2.484119352744724142e-30
1.759725932757675876e-30
1.307678122989676699e-30
1.018163388267275436e-30
6.840716006463637667e-31
4.981201121982131815e-31
3.482682401662582490e-31
2.378746542381372966e-31
1.625851321659434811e-31
1.112614104402005501e-31
7.669093924807220753e-32
5.342742921944605099e-32
3.788061346442089990e-32
2.738007300950097392e-32
2.021019710925701194e-32
1.520717492109598878e-32
1.160975418172526512e-32
8.931275506524672385e-33
