# bin_7_1
1.210145561210385537e-21
1.329764211004277497e-21
1.427963068185599621e-21
1.489402451175119980e-21
1.499718283073591197e-21
1.440882288888123456e-21
1.307214925953934077e-21
1.121428420047257982e-21
9.216100385882954956e-22
7.608893735133994851e-22
6.545694060586166283e-22
5.479547072420789089e-22
3.978120999944428971e-22
2.894052704566178634e-22
2.301478898864379588e-22
1.564265680555114183e-22
1.171790387624253562e-22
8.281769212591912525e-23
5.875361685957029688e-23
4.218254440967114460e-23
3.058374125300466591e-23
2.251876137347871121e-23
1.686578809132606369e-23
1.286657087720785680e-23
9.954778172353998461e-24
7.768381306368594945e-24
6.074654193896224557e-24
4.725752827555602609e-24
3.634136217815415465e-24
2.747556242518943152e-24
2.033585013584049393e-24
