# bin_11_6
3.626199062840137305e-15
4.100689530120135693e-15
4.560760404131963794e-15
4.969240946533424204e-15
5.276701641393657324e-15
5.423115081941021990e-15
5.362716527418682574e-15
5.023262649529656494e-15
4.445730647503897805e-15
3.721793332698074955e-15
3.043135691543273803e-15
2.562832729134505376e-15
2.217237610693501180e-15
1.749459006286922254e-15
1.210104754907198219e-15
9.552440729471687364e-16
6.877484573385538619e-16
4.928891336988962755e-16
3.375086647869298326e-16
2.400333480853401818e-16
1.660754046546870031e-16
1.146117159833506067e-16
7.971740562093157598e-17
5.595099425224886293e-17
3.990570882927125820e-17
2.901811206356385256e-17
2.151704911089836144e-17
1.625336258996840058e-17
1.244720740336606108e-17
9.601233455107857217e-18
7.403637786442026647e-18
