# bin_11_1
1.663286969602502804e-32
1.870874110163158372e-32
2.067380234801609495e-32
2.234730849234852715e-32
2.349618510169357531e-32
2.387020337942571599e-32
2.322420258639131418e-32
2.134234621050519382e-32
1.854527974715572133e-32
1.532624849596703370e-32
1.257669145795864757e-32
1.075107815939642144e-32
9.178377104508201267e-33
6.864570745998771336e-33
4.822580299440097791e-33
3.904992604427672325e-33
2.631077480164771642e-33
1.979510071620072938e-33
1.352834092188165302e-33
9.432840445445230158e-34
6.607757674573499265e-34
4.631454750887208967e-34
3.271267240494981053e-34
2.339178522200351118e-34
1.705460557378120131e-34
1.267629550279452917e-34
9.589934062561738313e-35
7.357733852761308964e-35
5.687949564634087725e-35
4.398580946312786065e-35
3.378275713791807056e-35
