# bin_11_3
1.878273388958765472e-23
2.115910336677861190e-23
2.342435225538522624e-23
2.537761477254591690e-23
2.675758509730944064e-23
2.727080114179661693e-23
2.665716539500310475e-23
2.462579667330635831e-23
2.150891502187287851e-23
1.782959472355469173e-23
1.460687211754065633e-23
1.243900144255845930e-23
1.067693239453213919e-23
8.102776865991085836e-24
5.643736181833467452e-24
4.564359251910591229e-24
3.113420288362391598e-24
2.327006818557295344e-24
1.581201649999276688e-24
1.107796298019199199e-24
7.742899362565006074e-25
5.410411194487744306e-25
3.805655026318503458e-25
2.707002275202765401e-25
1.962124680339968856e-25
1.450177468026040698e-25
1.091659640380868487e-25
8.345473392445069642e-26
6.439357404218036030e-26
4.979249952105969170e-26
3.830237698962842920e-26
