# bin_9_8
3.197288275533795052e-11
3.610764931645646943e-11
4.009285731527305529e-11
4.359585357650385789e-11
4.617737507212755077e-11
4.731553774266720751e-11
4.659981941293125484e-11
4.343309919689653257e-11
3.825997745887194874e-11
3.190784115802835546e-11
2.609867834856816680e-11
2.206935371139139460e-11
1.905646847334320672e-11
1.482900224773136630e-11
1.025837318156078531e-11
8.191219651060916598e-12
5.772526557534371650e-12
4.211490993295619985e-12
2.863038742598135011e-12
2.027542702033030621e-12
1.408439799944995811e-12
9.767227554993110547e-13
6.821689222887881086e-13
4.810639548790931677e-13
3.451415168101541278e-13
2.525000691993263604e-13
1.883090510903223349e-13
1.429166533590757025e-13
1.097923988715856203e-13
8.479671764751499813e-14
6.535012097450802059e-14
