# bin_14_1
1.030085626903372640e-39
1.170169956858966697e-39
1.308860896211397739e-39
1.436033210560082017e-39
1.538143397627276794e-39
1.598155500871779997e-39
1.601595080968139499e-39
1.527062826528632711e-39
1.374209785119025082e-39
1.168836781782009789e-39
9.575308655802730375e-40
7.951641763563515487e-40
6.879637164119876545e-40
5.671516943001580722e-40
4.008566024845422122e-40
2.990965363338179465e-40
2.318427793013368545e-40
1.562853567531407797e-40
1.133237118076223801e-40
7.939619350470583304e-41
5.426638034330415303e-41
3.709622992171942064e-41
2.541019932386895251e-41
1.753487282097524424e-41
1.223426488415422267e-41
8.688789568873515193e-42
6.291326343266849271e-42
4.651644948128455079e-42
3.504918501167520019e-42
2.678202514368089433e-42
2.061049450394146882e-42
