# bin_9_6
1.042391645069556140e-12
1.172274684070048629e-12
1.295120507289087007e-12
1.399579714431581857e-12
1.471032939546794128e-12
1.493864960537246107e-12
1.452606885275180842e-12
1.334020184916696279e-12
1.158433295692624809e-12
9.569572141051403437e-13
7.854159865526755491e-13
6.717490856443102825e-13
5.731399494177663186e-13
4.278280974186977464e-13
3.008374718046709305e-13
2.437184617224077308e-13
1.638757944588844193e-13
1.234525112300698594e-13
8.441787141323038993e-14
5.881552340116610073e-14
4.121578790035092745e-14
2.890185709317559464e-14
2.042474978244003796e-14
1.461486917257643167e-14
1.066350493780102707e-14
7.931701917158348222e-15
6.004380910014429637e-15
4.608952891406805976e-15
3.563915577732360700e-15
2.756132667542985418e-15
2.116451130832578492e-15
