# bin_8_1
1.866582529769527796e-24
2.066529965960916686e-24
2.239778562442325904e-24
2.363511784217589207e-24
2.411855068697090225e-24
2.362185722858632674e-24
2.188125215757659041e-24
1.916270837516345849e-24
1.592085168596504369e-24
1.303701528862444027e-24
1.106668914343428041e-24
9.506241679458582771e-25
7.288933057533871560e-25
5.087032844828324981e-25
4.084727961079701072e-25
2.850234243336124617e-25
2.115085526364033136e-25
1.463200286504286510e-25
1.046408428131528233e-25
7.452438436501716426e-26
5.335670271065504162e-26
3.869184109809892021e-26
2.848891791094141682e-26
2.138293494112152224e-26
1.632693176959176340e-26
1.262636426452633912e-26
9.835040666714540694e-27
7.660982879273624585e-27
5.926344236296095840e-27
4.524640590160113671e-27
3.392632402543820264e-27
