# bin_11_4
4.801285237967270924e-20
5.414962277004497605e-20
6.002958400894223919e-20
6.514572522344402641e-20
6.883381292476256614e-20
7.032596557965906619e-20
6.898420843276467994e-20
6.398674630847069631e-20
5.610758778442047465e-20
4.663220452572799332e-20
3.816866389455870124e-20
3.240165086611047334e-20
2.790100115272113068e-20
2.141782444225668120e-20
1.485376863290533482e-20
1.196125410576068088e-20
8.269486631872844870e-21
6.123704447055941053e-21
4.153655040854421087e-21
2.924469614902675052e-21
2.038910999188630460e-21
1.420275885810447750e-21
9.958175100816043826e-22
7.055177899545667394e-22
5.090242325794583119e-22
3.745002939682606612e-22
2.807565186531853699e-22
2.139615056264964014e-22
1.647946718391086305e-22
1.273812966297414319e-22
9.808309744495615429e-23
