# bin_5_8
-1.984647036413769636e-10
-2.219130018168695023e-10
-2.434614889200199375e-10
-2.608366980455960512e-10
-2.711797715057527970e-10
-2.720007463506198334e-10
-2.597763522521812296e-10
-2.342059847878652543e-10
-1.996204858543985965e-10
-1.636453383482658713e-10
-1.356648168590144658e-10
-1.171742586364348668e-10
-9.698674161798440467e-11
-6.907718992095446761e-11
-5.119211453822695873e-11
-4.004428409547429397e-11
-2.710125638459286638e-11
-1.994561573457106245e-11
-1.409099607917263242e-11
-9.823472765756507405e-12
-6.903524120298513415e-12
-4.889389089008873068e-12
-3.510027394706964008e-12
-2.561046783417732856e-12
-1.905993092214189356e-12
-1.443644130332698158e-12
-1.109086596897028760e-12
-8.593488989854118249e-13
-6.667255892639519579e-13
-5.142826864045603751e-13
-3.919078189131423383e-13
