# bin_9_5
-9.747130943666950166e-12
-1.093889938877049754e-11
-1.205500666164140514e-11
-1.298727265562403104e-11
-1.359777899425591169e-11
-1.374908384492515366e-11
-1.328464714416385376e-11
-1.211762964090098836e-11
-1.045159682645739389e-11
-8.605015046508912893e-12
-7.083288667413482967e-12
-6.084549986336693204e-12
-5.143873522204915096e-12
-3.769545123059772184e-12
-2.693338037098405015e-12
-2.168631182838316725e-12
-1.448803114216549441e-12
-1.090679407305979471e-12
-7.540191455519906114e-13
-5.239322576247834272e-13
-3.677174759248565658e-13
-2.586982413204520924e-13
-1.838495031675335222e-13
-1.324957467419956375e-13
-9.740404154533538334e-14
-7.296591038251555590e-14
-5.556752232959392567e-14
-4.282761359476552875e-14
-3.317715672215955830e-14
-2.564548113663919000e-14
-1.964460474062491322e-14
