# bin_13_5
-2.193492742329276405e-18
-2.489796451007291785e-18
-2.782054723074966811e-18
-3.048588201211873160e-18
-3.260371010786835390e-18
-3.381016122334612704e-18
-3.380735097499537355e-18
-3.213443020464099953e-18
-2.883312521412813798e-18
-2.445167872548039638e-18
-2.001788230799004972e-18
-1.666092753675619978e-18
-1.442401631634796401e-18
-1.181150135555926120e-18
-8.298171366760415047e-19
-6.257235324628944332e-19
-4.794970264757714172e-19
-3.259338253701052805e-19
-2.337842004370006112e-19
-1.647146325974970023e-19
-1.127784677941754654e-19
-7.711982271443511919e-20
-5.295745936393507387e-20
-3.665606040765797469e-20
-2.567801952030688828e-20
-1.831789635165128793e-20
-1.332540491387515967e-20
-9.896026181840613409e-21
-7.483298406325437269e-21
-5.731841274529844523e-21
-4.415349043283177655e-21
