# bin_12_15
-1.714594513485149323e-09
-1.963515170954865917e-09
-2.218871089213494657e-09
-2.464905074164197686e-09
-2.681035849404635512e-09
-2.840099972382171613e-09
-2.909732339637400542e-09
-2.864946641630234890e-09
-2.668556653705854243e-09
-2.349249885211365464e-09
-1.957663360790053144e-09
-1.601303431242449495e-09
-1.355598671905605779e-09
-1.170814930372959456e-09
-9.077064961393494363e-10
-6.263225062377467016e-10
-5.019341298610964566e-10
-3.499530212868124403e-10
-2.558161942529050586e-10
-1.710547621776580933e-10
-1.193570976218843493e-10
-8.121671683967837720e-11
-5.472523270323693121e-11
-3.675871142003770413e-11
-2.466413608608967051e-11
-1.668637822898866655e-11
-1.143276699357277983e-11
-7.969114639870810313e-12
-5.677865366405480016e-12
-4.140756762351149462e-12
-3.085943085793397796e-12
