# bin_10_11
-1.012201234716714898e-08
-1.151048381224280796e-08
-1.289205705872972311e-08
-1.416802891872445821e-08
-1.520677693638178079e-08
-1.584210692580997717e-08
-1.592518111938047298e-08
-1.525087104711673108e-08
-1.378253053842101343e-08
-1.177405884750221050e-08
-9.656795794043309758e-09
-7.994180872859075903e-09
-6.906764127267861143e-09
-5.745934482125415696e-09
-4.099040288982551087e-09
-3.012788885820629540e-09
-2.371529523723687025e-09
-1.581720506343090337e-09
-1.163789350277219211e-09
-8.087528856791036542e-10
-5.515300947160199687e-10
-3.769844674644525566e-10
-2.574280374522770080e-10
-1.769207153706534034e-10
-1.227685586987027010e-10
-8.666025163036364604e-11
-6.234447369587648741e-11
-4.580928040574590622e-11
-3.433824402110392560e-11
-2.614642085871434620e-11
-2.009007990765972105e-11
