# bin_13_9
-1.357964044584541051e-10
-1.547097353582825906e-10
-1.736952711341558957e-10
-1.914446940680536439e-10
-2.062254191663617572e-10
-2.158311159226400697e-10
-2.180953670150703222e-10
-2.104560403047474558e-10
-1.916493039196241176e-10
-1.650088995853273721e-10
-1.357213066499699249e-10
-1.118262727045753042e-10
-9.624730873771738517e-11
-8.118756544920747834e-11
-5.906084026941851032e-11
-4.233252046299230950e-11
-3.402571071698771133e-11
-2.247817656486299317e-11
-1.684131032384835743e-11
-1.153301589868089948e-11
-7.845981468787030364e-12
-5.368832888403652315e-12
-3.653134145034212415e-12
-2.493460836574450163e-12
-1.713592470235543864e-12
-1.196151669851513024e-12
-8.500776922932409649e-13
-6.169758247078292211e-13
-4.575099448406015941e-13
-3.455664169037248083e-13
-2.643310864445850066e-13
