# bin_7_7
-1.602940059984133628e-08
-1.796268709612056061e-08
-1.975985955742192468e-08
-2.124064688497348962e-08
-2.217656583143364535e-08
-2.235192538587218191e-08
-2.149648884344470006e-08
-1.951481324285826544e-08
-1.675037397539914355e-08
-1.376376517057118157e-08
-1.135956687455047627e-08
-9.783020797171597177e-09
-8.205610403955725632e-09
-5.940065057884232941e-09
-4.303866040852686402e-09
-3.432609053074225748e-09
-2.298381898695637363e-09
-1.718750784715595419e-09
-1.198644648574565086e-09
-8.333379918331661157e-10
-5.851351339089858379e-10
-4.126495887455241464e-10
-2.944448340869724631e-10
-2.132693149781578074e-10
-1.575838736074571370e-10
-1.185967579744267150e-10
-9.065897906886345699e-11
-7.003998482804018416e-11
-5.430231862687397041e-11
-4.194557890196769309e-11
-3.206637354608447033e-11
