# bin_4_3
-1.362940570080682810e-08
-1.473561966071223618e-08
-1.550764264234083862e-08
-1.578136008689949542e-08
-1.540011636226205472e-08
-1.421621100162918926e-08
-1.240972086347736238e-08
-1.029801727329624858e-08
-8.445045860462851470e-09
-7.176021928503357214e-09
-6.130374048854494072e-09
-4.673805598385505010e-09
-3.299454765529813985e-09
-2.635343430003550981e-09
-1.854399203882665317e-09
-1.378111759296891199e-09
-9.723218741760009172e-10
-7.038222557920290251e-10
-5.103675177745110751e-10
-3.738930746323856188e-10
-2.783841733100946807e-10
-2.108262742835928937e-10
-1.624667470375484148e-10
-1.268282799668717320e-10
-9.967359280285785367e-11
-7.833440488601986804e-11
-6.113216431933712917e-11
-4.707480939941642679e-11
-3.557894400913091654e-11
-2.628199673941179678e-11
-1.892181395075570662e-11
