# bin_10_8
-3.217282829852685204e-09
-3.641576296849151806e-09
-4.054675075077522523e-09
-4.423941236647658733e-09
-4.705827286276321359e-09
-4.846852766792595803e-09
-4.806377308976364315e-09
-4.518395991230947480e-09
-4.012527225537470883e-09
-3.369303534863294825e-09
-2.755065250579212767e-09
-2.313252816287613203e-09
-2.002671462587932942e-09
-1.595694550096175153e-09
-1.105899618654352960e-09
-8.640897502381115743e-10
-6.322065837345099453e-10
-4.467920366881935142e-10
-3.087350032140158219e-10
-2.197444508979513475e-10
-1.515950800252033422e-10
-1.042821361000326893e-10
-7.230668978486998997e-11
-5.058022348207379850e-11
-3.592021347991433017e-11
-2.600335103484808486e-11
-1.919796349595512832e-11
-1.444795181614497367e-11
-1.103585291104399061e-11
-8.501942286883207736e-12
-6.556814926699248924e-12
