# bin_6_3
-6.741208214171758723e-11
-7.408765189705224288e-11
-7.957588663249503605e-11
-8.302388424838925263e-11
-8.362828913637897438e-11
-8.039135882699087974e-11
-7.297567997061912979e-11
-6.264290859761011537e-11
-5.149473525168482437e-11
-4.250027588139102397e-11
-3.654830703586250359e-11
-3.062388587491509920e-11
-2.226549660524761689e-11
-1.617052940522667905e-11
-1.287378997899276144e-11
-8.747078405906404615e-12
-6.557487430535744579e-12
-4.630220844008383594e-12
-3.284484714505230854e-12
-2.357996743040431089e-12
-1.709206327902924568e-12
-1.258021298777129452e-12
-9.418235735057912847e-13
-7.182342661763770674e-13
-5.555360132477303732e-13
-4.334435828687545594e-13
-3.389206998269029996e-13
-2.636772299128241296e-13
-2.028021103364551239e-13
-1.533641394248660019e-13
-1.135471234584880786e-13
