# bin_12_5
-1.426604655825682811e-16
-1.615464334135567486e-16
-1.799710109048947854e-16
-1.964935102715095035e-16
-2.091890155284793755e-16
-2.156826348745489836e-16
-2.141634906294466371e-16
-2.016732577223346889e-16
-1.793780387970981032e-16
-1.508392938449781683e-16
-1.233485472756617270e-16
-1.034249040116056322e-16
-8.956076055806191635e-17
-7.168107659786890324e-17
-4.974132671063553358e-17
-3.867041449856642729e-17
-2.850417256624785627e-17
-2.001483344950971023e-17
-1.389750790051843465e-17
-9.888828917369329094e-18
-6.813277992941618264e-18
-4.680485533434453532e-18
-3.240497916809669857e-18
-2.263160277872107627e-18
-1.603887550093310097e-18
-1.158557947688743878e-18
-8.535191900774435374e-19
-6.411475124374111039e-19
-4.890775753317764753e-19
-3.765248463090611988e-19
-2.903801087670332880e-19
