# bin_3_12
-3.319364331590600592e-23
-3.751926624940607880e-23
-4.170491297513119891e-23
-4.540885825514022625e-23
-4.817782287971187970e-23
-4.946512349289217995e-23
-4.885092140151716091e-23
-4.568687523015831894e-23
-4.037607184109569298e-23
-3.376225272971075101e-23
-2.760930741839229732e-23
-2.328029337874950119e-23
-2.012769455982260597e-23
-1.581286350927682446e-23
-1.093823749608516260e-23
-8.665304545065706540e-24
-6.197235757674576277e-24
-4.466198884897302205e-24
-3.051085461598325354e-24
-2.167261426673463640e-24
-1.501293196022979599e-24
-1.037684820068890813e-24
-7.227107019388127186e-25
-5.080373641141799955e-25
-3.630470802471602136e-25
-2.645246791061405375e-25
-1.965209970304571776e-25
-1.486807653390604944e-25
-1.139835811562710392e-25
-8.796054843677696772e-26
-6.781544148523541215e-26
