# bin_1_12
-1.525772713715023883e-32
-1.722919120385588070e-32
-1.912866862997823637e-32
-2.079737780883307693e-32
-2.202582300749330936e-32
-2.256561736074285312e-32
-2.222056051521437720e-32
-2.070747300956567916e-32
-1.823913485631511000e-32
-1.521093211425881843e-32
-1.244286623222521868e-32
-1.052227897128558549e-32
-9.083050406552279568e-33
-7.065597070968376418e-33
-4.890386239163429635e-33
-3.903666107666205435e-33
-2.750523614021254230e-33
-2.006527318076525189e-33
-1.365196859095599067e-33
-9.663534864823543891e-34
-6.713099723580770243e-34
-4.655986252552397457e-34
-3.252251402395165788e-34
-2.293964260780185604e-34
-1.646178233084042985e-34
-1.204590120922135205e-34
-8.985351959867714043e-35
-6.820348537189187786e-35
-5.239900345713844809e-35
-4.046892585897502378e-35
-3.118522994904432570e-35
