# bin_12_6
-3.754455623656582058e-14
-4.256095638600846826e-14
-4.747903521587326367e-14
-5.192356982067747275e-14
-5.539217263405837349e-14
-5.725951483837692121e-14
-5.703797034672708881e-14
-5.393708072152689104e-14
-4.816243502717313137e-14
-4.064932727587592698e-14
-3.325239008057732857e-14
-2.778732304480162585e-14
-2.406758560439876835e-14
-1.946978589070848578e-14
-1.357091247068873771e-14
-1.041142826660570662e-14
-7.813844627571352009e-15
-5.402304625185915779e-15
-3.803343459236595793e-15
-2.698585728804834230e-15
-1.853763571797252058e-15
-1.270020320954844357e-15
-8.760152235570527635e-16
-6.093670906904744798e-16
-4.296257143375102476e-16
-3.086319055690950546e-16
-2.261247955963907154e-16
-1.690346008089027966e-16
-1.284764671789832252e-16
-9.871272444723020798e-17
-7.610811677515076862e-17
