# bin_11_14
-1.283843185922689994e-09
-1.467257635441664887e-09
-1.653963115765218648e-09
-1.831866326610026278e-09
-1.985172372374296725e-09
-2.093340812368304348e-09
-2.133267843121852745e-09
-2.084644425666192772e-09
-1.924474064657979725e-09
-1.679798065827535776e-09
-1.391450445981519699e-09
-1.140125948462438976e-09
-9.721384887619207370e-10
-8.344310175091616621e-10
-6.306756534303809659e-10
-4.384636187219697641e-10
-3.556679270560663764e-10
-2.394622754926986750e-10
-1.792595332356465070e-10
-1.201545684448412095e-10
-8.245768686221627464e-11
-5.639966451895109294e-11
-3.825048742028270190e-11
-2.584249186575205244e-11
-1.748669841309194556e-11
-1.197264265770235253e-11
-8.321986003801156113e-12
-5.897439726023494446e-12
-4.274498998995562256e-12
-3.167343477424453146e-12
-2.390847005964651915e-12
