# bin_9_9
-1.399158179890933542e-08
-1.583316762306941287e-08
-1.762433576795708840e-08
-1.922281009237994287e-08
-2.043891544618231887e-08
-2.104032326376010626e-08
-2.085052315477369432e-08
-1.958436284791936537e-08
-1.737777907813866120e-08
-1.458164627984612080e-08
-1.192319692481765857e-08
-1.001819654898226152e-08
-8.671699672441498569e-09
-6.893533991961898774e-09
-4.775205553572919722e-09
-3.740215877342638839e-09
-2.726157487590959519e-09
-1.932966579437258959e-09
-1.332715511915486822e-09
-9.484955681357045711e-10
-6.547751770793974360e-10
-4.507552251409459210e-10
-3.127768823441435578e-10
-2.189730792854352863e-10
-1.556692461499735140e-10
-1.128153860886399540e-10
-8.337921881084684718e-11
-6.280677468424129497e-11
-4.800509403306382036e-11
-3.699451604913652109e-11
-2.853003299547761646e-11
