# bin_6_15
-5.047985805148522331e-19
-5.755985556058191366e-19
-6.469515226423411771e-19
-7.140212383031909680e-19
-7.704273902967586538e-19
-8.080039648247736331e-19
-8.184021894745032503e-19
-7.925118116598494930e-19
-7.243443958459899953e-19
-6.259872711990838973e-19
-5.157416955450155990e-19
-4.241549701230238680e-19
-3.642307970785744232e-19
-3.089614214409947544e-19
-2.270427553383928191e-19
-1.610536758335810987e-19
-1.302462279453603987e-19
-8.608266355378251193e-20
-6.475678893027106948e-20
-4.405719324918383900e-20
-2.997974480253354462e-20
-2.052492077951811712e-20
-1.395413699028534257e-20
-9.496199176638942617e-21
-6.497304723534608817e-21
-4.511418943406810855e-21
-3.187160790216578614e-21
-2.298876836604248680e-21
-1.694991223914174320e-21
-1.274439741469537374e-21
-9.720284296056405332e-22
