# bin_7_8
-9.928394178165343063e-09
-1.115860650251396020e-08
-1.231886549180693267e-08
-1.330051235718352796e-08
-1.396404456335447892e-08
-1.416325162980249687e-08
-1.374760415774006346e-08
-1.260127110853984593e-08
-1.092228309455583739e-08
-9.014151154215322219e-09
-7.403987458277425787e-09
-6.340125988721243943e-09
-5.396043353889749563e-09
-4.007299995636957697e-09
-2.829502226694093280e-09
-2.289483383404014070e-09
-1.535646397379749338e-09
-1.157368452076204134e-09
-7.937314837267092053e-10
-5.523851279994958563e-10
-3.873326157990257746e-10
-2.718826785980132778e-10
-1.924493852330991013e-10
-1.379903422271502168e-10
-1.009044847865098339e-10
-7.521211004197915224e-11
-5.703846321628728553e-11
-4.383719233866629788e-11
-3.391744721601223013e-11
-2.622761807988745337e-11
-2.012654655616890392e-11
