# bin_11_11
-1.319575529713294163e-08
-1.502415729314541391e-08
-1.685409541147409744e-08
-1.855791773390779268e-08
-1.996614096244755548e-08
-2.086363997160055871e-08
-2.104556497012654320e-08
-2.025582157431223255e-08
-1.839701218713248408e-08
-1.579688339002316452e-08
-1.297900297195196731e-08
-1.071003991279537145e-08
-9.231672201136257587e-09
-7.752492924364585576e-09
-5.599990447016207281e-09
-4.047323292852513744e-09
-3.233202678070647448e-09
-2.139921201810491317e-09
-1.595404660142155298e-09
-1.097944553099629222e-09
-7.473207842326466130e-10
-5.111483426598713134e-10
-3.481236535762870564e-10
-2.381550876574569502e-10
-1.642081239183740986e-10
-1.150659370703450906e-10
-8.212407475294437986e-11
-5.986538387679148028e-11
-4.456625934577715412e-11
-3.376314055354497963e-11
-2.587216947144723313e-11
