# bin_1_9
-8.072775666756670125e-25
-8.994006342662169771e-25
-9.823800236688389341e-25
-1.046715668898683741e-24
-1.080681416096561825e-24
-1.074973010355591553e-24
-1.015107946774327882e-24
-9.053790824181024164e-25
-7.635831637590994083e-25
-6.246911143105522402e-25
-5.222493676847798029e-25
-4.517522839168551774e-25
-3.644754510684347657e-25
-2.549736691238335347e-25
-1.960023157912855792e-25
-1.471040272789186423e-25
-1.028266771619940508e-25
-7.322734575983765382e-26
-5.251336106060054269e-26
-3.687882810870986825e-26
-2.603040938262817734e-26
-1.859654116492298093e-26
-1.348004057437160350e-26
-9.946319209616073784e-27
-7.480611817551201737e-27
-5.716902009697790167e-27
-4.420496189027607508e-27
-3.436012580595190396e-27
-2.665445708716833742e-27
-2.049474294126042483e-27
-1.552993724863545503e-27
