# bin_9_11
-3.910125449424976523e-09
-4.440513020191537614e-09
-4.964882947078471729e-09
-5.444739309630514535e-09
-5.828574001719881683e-09
-6.051680642732168764e-09
-6.059877650680693586e-09
-5.771489606958529278e-09
-5.188315562047750333e-09
-4.408276962027891282e-09
-3.610359700883210764e-09
-3.000413937961311800e-09
-2.596627238356179192e-09
-2.135770864083352757e-09
-1.505915836440545855e-09
-1.127856955233802861e-09
-8.708861127445099154e-10
-5.885363948987674498e-10
-4.251908838643339790e-10
-2.985622798278276017e-10
-2.041843714242472449e-10
-1.395742647309661902e-10
-9.568763835320720850e-11
-6.610667295263238473e-11
-4.619291164957741719e-11
-3.286191442628072055e-11
-2.383715618369191290e-11
-1.765497213889221916e-11
-1.332178812445888136e-11
-1.018968632669299786e-11
-7.845330344520125396e-12
