# bin_9_3
-1.500478693521367221e-16
-1.675738458317522363e-16
-1.835727324095288403e-16
-1.963066053999945832e-16
-2.035994692599404629e-16
-2.036378556271756865e-16
-1.937032894104322510e-16
-1.739639521033484346e-16
-1.477009024883756160e-16
-1.209898906621351240e-16
-1.006332619175419001e-16
-8.703162180958132808e-17
-7.139795525663334885e-17
-5.043161095690213271e-17
-3.792625064747908859e-17
-2.924176097917205071e-17
-2.000049459150422075e-17
-1.453878535285172786e-17
-1.034848573254678728e-17
-7.232795171189553991e-18
-5.088062030809251517e-18
-3.614791611989502618e-18
-2.604707399627089757e-18
-1.908832739179546639e-18
-1.426530822148156519e-18
-1.084399107532483536e-18
-8.353633564131064166e-19
-6.482178280380189688e-19
-5.030176808054404286e-19
-3.876173217109868677e-19
-2.947972232271195193e-19
