# bin_5_10
-3.167418412871627995e-13
-3.563467887921216033e-13
-3.938730160100908857e-13
-4.258833978261040124e-13
-4.479418713412336671e-13
-4.552583067508880043e-13
-4.431899550121581687e-13
-4.075230757446526577e-13
-3.543497869971810972e-13
-2.929741061735629984e-13
-2.404316467832794408e-13
-2.055272799602099505e-13
-1.755856973084269415e-13
-1.314495790974894164e-13
-9.226082271498006126e-14
-7.479818315971169297e-14
-5.035969308616256671e-14
-3.794074803827520121e-14
-2.590832202065155112e-14
-1.805817610894677861e-14
-1.265435992980100905e-14
-8.871337633716290531e-15
-6.265134521167913381e-15
-4.478993863673600526e-15
-3.264859897515607203e-15
-2.426210462113844255e-15
-1.835219402339058550e-15
-1.407962533598744247e-15
-1.088480324653402552e-15
-8.418527664627141319e-16
-6.467095116961386089e-16
