# bin_1_2
-2.443200661401679927e-08
-2.490391696208286380e-08
-2.436972409355112681e-08
-2.261376570277306308e-08
-1.985319075470826201e-08
-1.658580097539620736e-08
-1.362676492338248648e-08
-1.150394641375993220e-08
-9.793476190666530724e-09
-7.618062461220203749e-09
-5.463221027461011624e-09
-4.253111686040867388e-09
-3.121522604690580388e-09
-2.281478118581192273e-09
-1.663183113267357669e-09
-1.223662573097983883e-09
-9.065438281800400650e-10
-6.824440408261143543e-10
-5.232290121282658155e-10
-4.080776074743206882e-10
-3.226621050678005510e-10
-2.570672002062809148e-10
-2.048496781768299446e-10
-1.621089719395559715e-10
-1.265519496532471988e-10
-9.689625823061502835e-11
-7.243693636908360728e-11
-5.272398131595234050e-11
-3.732913809874172129e-11
-2.573943688761342053e-11
-1.732834299678244490e-11
