# bin_4_4
-2.634178014782741720e-08
-2.868420617407501827e-08
-3.045706904473530877e-08
-3.132343130856897785e-08
-3.100522979076359788e-08
-2.911112915769059169e-08
-2.582985692422383474e-08
-2.169798480820719200e-08
-1.776061565197134354e-08
-1.490905325124338742e-08
-1.286108258009582259e-08
-1.023635858884364796e-08
-7.184302377774901471e-09
-5.591502327783462236e-09
-4.135416069553859561e-09
-2.958870833949191767e-09
-2.115550027522569797e-09
-1.533411756842205301e-09
-1.100726015797321165e-09
-7.979328143853647714e-10
-5.874346955545156554e-10
-4.398793914742141678e-10
-3.353480444219090735e-10
-2.596540410852471946e-10
-2.030456033080077200e-10
-1.593487566362385860e-10
-1.246246759220979294e-10
-9.647755002435001963e-11
-7.350405562497746177e-11
-5.485614156861293606e-11
-3.996129365338206904e-11
