# bin_10_6
-2.158993302979815727e-11
-2.433112520156530199e-11
-2.694872562734047353e-11
-2.921271213943106672e-11
-3.082315362104770888e-11
-3.143987492830805826e-11
-3.076772489871899701e-11
-2.846049060393374139e-11
-2.489173281593391491e-11
-2.065373341609667726e-11
-1.692053930782233617e-11
-1.440040025895808982e-11
-1.237383665241853212e-11
-9.419529105621323388e-12
-6.552488837127235800e-12
-5.297855893653046655e-12
-3.623436032198689818e-12
-2.705013889417742544e-12
-1.836033015099848785e-12
-1.287688991243887671e-12
-8.997681021275858068e-13
-6.284419239961628069e-13
-4.417318890352208687e-13
-3.139123397549260140e-13
-2.272893406403449293e-13
-1.678082904043798554e-13
-1.262036866420386313e-13
-9.641408669992459965e-14
-7.436728883659664436e-14
-5.750531899279859881e-14
-4.425022923759529689e-14
