# bin_1_3
-1.361356144025396191e-09
-1.419810646873441830e-09
-1.430179139025844295e-09
-1.376379530089958510e-09
-1.252555943783209145e-09
-1.078594165359415083e-09
-8.896604417946996563e-10
-7.343442045427911012e-10
-6.281863161147054946e-10
-5.259540565995763279e-10
-3.893306664921727727e-10
-2.833210258529704247e-10
-2.236324679474320362e-10
-1.572632442935314706e-10
-1.174791071537069334e-10
-8.458071671280502449e-11
-6.186983079070132142e-11
-4.577454887021433730e-11
-3.438067407048819897e-11
-2.629175990341522053e-11
-2.044232275611871724e-11
-1.611102016038559089e-11
-1.278586985464918705e-11
-1.014485251674970115e-11
-7.991472409239662218e-12
-6.208677369955802799e-12
-4.730615535536275387e-12
-3.519440810230036121e-12
-2.549272978030851361e-12
-1.796437688161025599e-12
-1.232973351921398251e-12
