# bin_7_10
-4.467855336676454824e-10
-5.043794727473470073e-10
-5.597977950846546675e-10
-6.083710184857103693e-10
-6.439455012480483991e-10
-6.592620261579060129e-10
-6.485353827714220221e-10
-6.036055084094062346e-10
-5.310370385808042646e-10
-4.424681541654517667e-10
-3.620865626308315158e-10
-3.066611285069146672e-10
-2.646104202110203801e-10
-2.049634946228067429e-10
-1.418827211502110806e-10
-1.137215327959777329e-10
-7.956637986725544519e-11
-5.841341771329524854e-11
-3.963487061410821508e-11
-2.802146805479248397e-11
-1.949432593069494209e-11
-1.354340449812280407e-11
-9.473040937226468505e-12
-6.691654447316121435e-12
-4.810828983793982692e-12
-3.526806638602514699e-12
-2.635306367736873922e-12
-2.003191070955071340e-12
-1.540478107032993530e-12
-1.190243244513602452e-12
-9.170885065850267566e-13
