# bin_11_10
-9.725501701069733639e-09
-1.105973486780033961e-08
-1.238721607662007226e-08
-1.361308181049753125e-08
-1.461067469191175664e-08
-1.522001410383057035e-08
-1.529838623050589467e-08
-1.464759656853375865e-08
-1.323520892660978271e-08
-1.130475765645845813e-08
-9.273574255550613489e-09
-7.681394258128082040e-09
-6.638782844760130298e-09
-5.518656103616818323e-09
-3.933635247576056620e-09
-2.896694802935923866e-09
-2.276847753806918193e-09
-1.520390932126606873e-09
-1.117162815525705048e-09
-7.772074321653469562e-10
-5.301884190976854342e-10
-3.624153261367789968e-10
-2.475620469953037548e-10
-1.702223923877530799e-10
-1.181952574256269329e-10
-8.348844911036353954e-11
-6.010502330332036052e-11
-4.419432756500624232e-11
-3.314704651726750616e-11
-2.525006613378298946e-11
-1.940566161161188757e-11
