# bin_4_5
-1.268343590476925554e-08
-1.390659151448270718e-08
-1.489286627188587151e-08
-1.548006036349478220e-08
-1.552476779003757946e-08
-1.483121369097585248e-08
-1.338029219541593400e-08
-1.141544410869544925e-08
-9.366777373869542076e-09
-7.764214388128364821e-09
-6.694541574221347189e-09
-5.542079361802765283e-09
-3.974013191232598327e-09
-2.943689154079973591e-09
-2.306300021882466075e-09
-1.580226034150536020e-09
-1.171553015624675261e-09
-8.356588042233160121e-10
-5.938922557076416597e-10
-4.271324746590267067e-10
-3.108264560542818896e-10
-2.298891446628410899e-10
-1.730214946449485719e-10
-1.325570182303473147e-10
-1.028892123919068428e-10
-8.044699388027975947e-11
-6.293635080955971803e-11
-4.891571281992239725e-11
-3.753577017856597462e-11
-2.828906695635980338e-11
-2.085442702786197376e-11
