# bin_1_4
-1.917161687006410389e-11
-2.035455585574940375e-11
-2.094046030595150149e-11
-2.073924163259741656e-11
-1.949910930140674675e-11
-1.732830591877664544e-11
-1.458590543841608979e-11
-1.194793237967327735e-11
-1.001137394585189707e-11
-8.619455223336092047e-12
-6.892479783034156491e-12
-4.879479348930396654e-12
-3.766678566070496275e-12
-2.819769914085919865e-12
-2.017181305020157963e-12
-1.465265237648478872e-12
-1.068377403087085152e-12
-7.771917118153544839e-13
-5.730310218844248477e-13
-4.296963555738954582e-13
-3.279857133809578514e-13
-2.545476704899533937e-13
-2.000587056665658892e-13
-1.581699858497440973e-13
-1.249262602956271976e-13
-9.788741526245838230e-14
-7.560469740818098706e-14
-5.725188399543441133e-14
-4.232859048595736012e-14
-3.047173358635896554e-14
-2.134596903937407537e-14
