# bin_8_9
-1.040979921586358286e-08
-1.174543270636516895e-08
-1.302759704421144866e-08
-1.414684224563447431e-08
-1.495939948316398447e-08
-1.529756660609286670e-08
-1.502453573036035059e-08
-1.395686692828485649e-08
-1.225653774857873254e-08
-1.019863214455290341e-08
-8.348319156791718323e-09
-7.081284478383123163e-09
-6.103231255056275716e-09
-4.702023599080777938e-09
-3.258632312705573468e-09
-2.620165608809784858e-09
-1.819526963167455434e-09
-1.343501271718056856e-09
-9.111119679076009982e-10
-6.425471917799476246e-10
-4.476662442453260987e-10
-3.115616215228397527e-10
-2.182591690634304933e-10
-1.544615705536560923e-10
-1.112945242330909777e-10
-8.177234548760880135e-11
-6.122835328431599077e-11
-4.661755414342056803e-11
-3.588542744818290416e-11
-2.773513684071101203e-11
-2.136223083811211691e-11
