# bin_8_10
-3.297590034822433930e-09
-3.729007465772946834e-09
-4.147254954782722785e-09
-4.518512197319996668e-09
-4.797798525243986084e-09
-4.930515434007370942e-09
-4.875038668538182661e-09
-4.565754696034107912e-09
-4.040530596647832049e-09
-3.382617322909273316e-09
-2.766721270942453822e-09
-2.331279252594605027e-09
-2.016840712972365889e-09
-1.589778118344408307e-09
-1.099775523391756081e-09
-8.693278450039804461e-10
-6.247645245682667448e-10
-4.486001736054241373e-10
-3.068286160423699917e-10
-2.182568684949024763e-10
-1.510697167016691563e-10
-1.043030554921864655e-10
-7.257911591629219446e-11
-5.096472550992256954e-11
-3.636979901642803296e-11
-2.646180244717022481e-11
-1.963210835090067841e-11
-1.483632238188253497e-11
-1.136571003203821615e-11
-8.768496098958382727e-12
-6.761555707930197557e-12
