# bin_14_3
-9.886455753539443574e-28
-1.123474998060407424e-27
-1.257166780749348222e-27
-1.380028205437322942e-27
-1.479094285584530822e-27
-1.538032872577650630e-27
-1.542783492908509908e-27
-1.472865552374245079e-27
-1.327129134549174654e-27
-1.130312850819010458e-27
-9.265116694716400242e-28
-7.690089462057863407e-28
-6.652252071712825330e-28
-5.496894897920831370e-28
-3.893984033915910578e-28
-2.896020936708969535e-28
-2.253421953849157743e-28
-1.515144757097534734e-28
-1.102664311704133296e-28
-7.713276920547774368e-29
-5.269661155779934123e-29
-3.602151452093103395e-29
-2.465716550596785297e-29
-1.700073910792667111e-29
-1.184798334932793647e-29
-8.403497563727541035e-30
-6.076380373981063151e-30
-4.486835570746928273e-30
-3.377157758454601243e-30
-2.578825442231143014e-30
-1.984103129332904040e-30
