# bin_2_2
-4.900815632392152700e-08
-5.095219144259332642e-08
-5.112933174964748191e-08
-4.896136457815474028e-08
-4.433867970899721340e-08
-3.801053225278193346e-08
-3.131476727267028982e-08
-2.592420324858915794e-08
-2.219444999802346310e-08
-1.841371101202707955e-08
-1.353355751390260010e-08
-9.955338243275673370e-09
-7.783368209684111992e-09
-5.497257189882703093e-09
-4.091069079848817083e-09
-2.956207263209539633e-09
-2.165248253351887634e-09
-1.605330715384115233e-09
-1.208991632064165941e-09
-9.270478933891624854e-10
-7.225475759124352275e-10
-5.704102345264716803e-10
-4.530337174617838443e-10
-3.594016634986249431e-10
-2.828187725705598225e-10
-2.193246326974357665e-10
-1.667001507492960773e-10
-1.236625944002977472e-10
-8.930081460265074194e-11
-6.274488814521512263e-11
-4.295227162366425157e-11
