# bin_2_10
-1.260706812809987471e-22
-1.412050990112290247e-22
-1.552361474321928892e-22
-1.667376242498900590e-22
-1.739048606817999050e-22
-1.750725234015106951e-22
-1.680677067846695070e-22
-1.522976774772278941e-22
-1.304826687096529344e-22
-1.071623160533685878e-22
-8.857564773314643956e-23
-7.637842716259767821e-23
-6.383818305615800786e-23
-4.597347588974356007e-23
-3.353804948826503762e-23
-2.662357007911261637e-23
-1.786019279351180511e-23
-1.330906784125547226e-23
-9.320767852966506278e-24
-6.483743255330535403e-24
-4.553575031358998948e-24
-3.214919666745232023e-24
-2.298221081690419739e-24
-1.668392575198912101e-24
-1.235527262563076575e-24
-9.317279377725878605e-25
-7.134009896597542576e-25
-5.517116467982326477e-25
-4.278984033243869355e-25
-3.304344861502878691e-25
-2.523996290722024725e-25
