# bin_1_4
5.042640898601481408e-07
4.896719154411302343e-07
4.535501218910193123e-07
3.999752206588843614e-07
3.387526070741206435e-07
2.816137826950168968e-07
2.350160428967265555e-07
1.949444917944115642e-07
1.543022096070934657e-07
1.157730664060223862e-07
8.668697106974993518e-08
6.509460207944177793e-08
4.779314661710714091e-08
3.521609029226564603e-08
2.606300928709134478e-08
1.950467306134135505e-08
1.482081071309936788e-08
1.145571080761831915e-08
8.993274339919729363e-09
7.139914744903526701e-09
5.697736978668465036e-09
4.538270933650051593e-09
3.583341807532596905e-09
2.787878505629614264e-09
2.126598145583442318e-09
1.584685806415096608e-09
1.151192234643629873e-09
8.148610066823962852e-10
5.625757221619405443e-10
3.796344522239878144e-10
2.510997454168571452e-10
