# bin_9_4
1.578278053215017287e-12
1.764991778019285118e-12
1.936689610670653400e-12
2.075305396594543199e-12
2.158150373707054363e-12
2.165109049261350036e-12
2.068858707464516812e-12
1.866769809669925151e-12
1.592818874129935070e-12
1.307341901453820865e-12
1.084321318615394654e-12
9.353416182111241996e-13
7.737486869964863759e-13
5.538237287919135492e-13
4.099466172484425226e-13
3.197766704810096993e-13
2.177131207355491874e-13
1.598565377855607642e-13
1.126108511709085744e-13
7.861786453682297932e-14
5.529149560542801230e-14
3.917021973126046262e-14
2.810585055497327935e-14
2.049233878093730069e-14
1.523795736311633356e-14
1.153156230069982410e-14
8.851691796083284841e-15
6.853515880212950771e-15
5.314407957287178228e-15
4.098000026004427329e-15
3.122632433856326790e-15
