# bin_10_7
3.490616019547303325e-10
3.935695928497077793e-10
4.361688135131321462e-10
4.731603285140593335e-10
4.997094997853457728e-10
5.103209845075075152e-10
5.001913313088277585e-10
4.636956989986374695e-10
4.063881596923501812e-10
3.379000299990272570e-10
2.768876508551109220e-10
2.351569950564091126e-10
2.020343886445825852e-10
1.548668031892587175e-10
1.079784622116651684e-10
8.652088257694895895e-11
6.004393348453324059e-11
4.424480938630116328e-11
3.022224365290338573e-11
2.126168998472660683e-11
1.481560829002908568e-11
1.031687665910421119e-11
7.237143236349218747e-12
5.132048169985332127e-12
3.705583087077099281e-12
2.728105819728229108e-12
2.046177187569891171e-12
1.559591635596454410e-12
1.200973246461026635e-12
9.278473238262824098e-13
7.139185388610897665e-13
