# bin_2_13
5.103976089041031912e-07
5.278163315019685619e-07
5.261630124044607884e-07
5.008574735467311187e-07
4.521710886882334680e-07
3.880578605183289095e-07
3.221629197533320136e-07
2.679807527916723789e-07
2.264573885187326173e-07
1.849706789912157879e-07
1.391825375596067403e-07
1.031461987434153336e-07
7.842748305203180115e-08
5.713099683745873126e-08
4.176638731746760372e-08
3.044701416467845726e-08
2.234338950381203245e-08
1.657606342442692740e-08
1.249193409779435016e-08
9.577152716962236150e-09
7.457971153803400856e-09
5.876035486845970950e-09
4.654924410979929324e-09
3.681748304657328671e-09
2.887850926225407689e-09
2.232541111280609600e-09
1.692406484758728690e-09
1.253317258926040356e-09
9.046641797838545682e-10
6.361607735024272848e-10
4.362718327837166728e-10
