# bin_4_4
3.432723931998183027e-08
3.697123594518760110e-08
3.872514340988701232e-08
3.919521925514509235e-08
3.796631112497437821e-08
3.480641878385165628e-08
3.019230884486860821e-08
2.502576341639087757e-08
2.062582471053501619e-08
1.756103810710791813e-08
1.479575874876384041e-08
1.115363924225342888e-08
8.038555155908830398e-09
6.305230496357135362e-09
4.479311276933089148e-09
3.295488625181434351e-09
2.352713306540419964e-09
1.702152645751472137e-09
1.236798933672256231e-09
9.095303700897887551e-10
6.799981902447141784e-10
5.171501982215029320e-10
3.998218720793409060e-10
3.127377776053832467e-10
2.459180807321211642e-10
1.930943495002468576e-10
1.503573456507661203e-10
1.154005595180828533e-10
8.686049597566081775e-11
6.386862153082204592e-11
4.577102729325587606e-11
