# bin_11_5
5.926106673704390327e-14
6.711561809658176997e-14
7.478322417367224494e-14
8.166526399172896512e-14
8.696212073079888672e-14
8.968840002402147575e-14
8.908177692737515477e-14
8.392188696941521107e-14
7.467869746977441069e-14
6.283547577963365692e-14
5.140883038230571217e-14
4.311007478973316262e-14
3.732404275074209570e-14
2.988418035835803289e-14
2.077228224346050123e-14
1.612970112158775610e-14
1.189885652324193835e-14
8.353107254202693811e-15
5.813223917784228860e-15
4.129046517659026221e-15
2.845155915935698503e-15
1.955359973613300750e-15
1.353535850823205600e-15
9.451004367999636832e-16
6.695923423985829301e-16
4.835003712461049004e-16
3.560550787591002599e-16
2.673506641734895979e-16
2.038616140951297312e-16
1.568978658790303793e-16
1.209758304773199205e-16
