# bin_7_13
1.123475005245843728e-07
1.256842973634800168e-07
1.379733296736281933e-07
1.479348700875783751e-07
1.539660656077131728e-07
1.545930172356823867e-07
1.479562544597256231e-07
1.337778383208174509e-07
1.144198843027713357e-07
9.408544567507939391e-08
7.800162514912463914e-08
6.710678606811705083e-08
5.558365669600734944e-08
4.017261631323060194e-08
2.957959959329569676e-08
2.303393382109644584e-08
1.580017121360234412e-08
1.157648874068760068e-08
8.115910864850249677e-09
5.678368652740300157e-09
3.993005210449262068e-09
2.825650014294540072e-09
2.023674178037180965e-09
1.471999285004064252e-09
1.091746147766506148e-09
8.241509366841348890e-10
6.312161830518943060e-10
4.878839085209391503e-10
3.779060698152346407e-10
2.912897781928963451e-10
2.220164183482484272e-10
