# bin_15_9
1.285378053015917080e-12
1.470560475724907705e-12
1.659831680905726629e-12
1.841221795064455556e-12
1.999094641580790103e-12
2.112959730817974594e-12
2.159084911386689347e-12
2.117872373288308352e-12
1.963884218635125010e-12
1.721622912523913268e-12
1.430496220185429430e-12
1.171444537055624781e-12
9.957209381526518224e-13
8.574408708968680417e-13
6.559968657099621520e-13
4.543944469536812520e-13
3.667579514726784275e-13
2.509269701353212248e-13
1.859326671508756961e-13
1.243833778514656263e-13
8.603622962937077047e-14
5.871749303652895972e-14
3.971377130567327444e-14
2.675849465012237976e-14
1.803411934119402597e-14
1.227829098230320957e-14
8.476994198253883750e-15
5.961260505195965736e-15
4.286782450106899493e-15
3.153554152989696233e-15
2.366885438966645188e-15
