# bin_11_9
1.027985457542762718e-09
1.167132506169683817e-09
1.304532413696998781e-09
1.430032331792970341e-09
1.530041392601745047e-09
1.587512974621304254e-09
1.588306021231517995e-09
1.510966145429879660e-09
1.356935827254007801e-09
1.151873009507229941e-09
9.435731952800665478e-10
7.852513917661562782e-10
6.796394266903437522e-10
5.571671545977486784e-10
3.923576083004876183e-10
2.952449245938421952e-10
2.266553560371212326e-10
1.540062624721569366e-10
1.107003777785949258e-10
7.785275113956544100e-11
5.329993055663821466e-11
3.646426769461250882e-11
2.503243367159428083e-11
1.731707300962389903e-11
1.212146267017852199e-11
8.639201421836509743e-12
6.278392635457051069e-12
4.658015923326757456e-12
3.519317564278459521e-12
2.693873244031804204e-12
2.074349265811765731e-12
