# bin_8_4
1.809180698591428235e-11
2.013559037900989943e-11
2.196548155357209255e-11
2.336711980340077273e-11
2.408081501713093100e-11
2.389215617436618180e-11
2.249512740876473287e-11
2.001109316267467841e-11
1.684773713395181343e-11
1.379594021434224472e-11
1.156553108177939752e-11
9.985136643347078105e-12
7.988625792698253437e-12
5.604723638109999306e-12
4.330713583245665396e-12
3.213274310557414158e-12
2.269553529921773287e-12
1.612182699288939356e-12
1.152407363160316539e-12
8.113034819607451232e-13
5.743569075856978908e-13
4.113057731385015473e-13
2.988354898662380273e-13
2.210514158500757604e-13
1.666137705200822363e-13
1.275398671337156188e-13
9.870564902496517321e-14
7.672672123257399976e-14
5.947720279351565298e-14
4.567056397852013364e-14
3.454369109622402423e-14
