# bin_2_6
3.610146871211940398e-07
3.723406523149361608e-07
3.699437125413598345e-07
3.507087523354770017e-07
3.152462254918006020e-07
2.695435348261050645e-07
2.234513778649155313e-07
1.861273507148761756e-07
1.573031248637232176e-07
1.277639934617242831e-07
9.559333228510345602e-08
7.105231712408188791e-08
5.396604625128495294e-08
3.922247163894776295e-08
2.871677302919851817e-08
2.094065924745007691e-08
1.539251283865389638e-08
1.144433676878254904e-08
8.646665351298836981e-09
6.646346641140166971e-09
5.187567490515071607e-09
4.094142364860050737e-09
3.246193514138118726e-09
2.567645373298076400e-09
2.012450448819465772e-09
1.553475939616504803e-09
1.175180274340367254e-09
8.680876567607035076e-10
6.248602008808893595e-10
4.381661711874394795e-10
2.996890157799151840e-10
