# bin_10_13
4.438436107525323420e-08
5.030457882454476244e-08
5.610637841080015427e-08
6.134358958266676589e-08
6.542188807142627080e-08
6.760965027024614854e-08
6.730762258281203231e-08
6.362678825775838910e-08
5.680924205016200621e-08
4.797560724943903618e-08
3.929283301817686009e-08
3.286242738151242792e-08
2.841268661954069315e-08
2.292847035770111316e-08
1.607961054470109406e-08
1.230870347980076165e-08
9.213458863342232401e-09
6.395845766059297469e-09
4.522026316687201712e-09
3.185725243890462251e-09
2.190518713568253513e-09
1.504878319714179982e-09
1.038611527008710577e-09
7.226809033478734337e-10
5.096692558967230816e-10
3.661916179153890340e-10
2.682862209093713210e-10
2.004757593031873143e-10
1.522647495428572788e-10
1.168707521852844769e-10
8.999832757007665420e-11
