# bin_8_5
2.298774852773423124e-10
2.563781759992296151e-10
2.803901596186888557e-10
2.992280250027719347e-10
3.095773910747815525e-10
3.086596242624578294e-10
2.924757286231945877e-10
2.617736535371482647e-10
2.216231678198561146e-10
1.815923837298643926e-10
1.515063994959862818e-10
1.308542870968182519e-10
1.062947089957675105e-10
7.506876670463351151e-11
5.698014207646967253e-11
4.325423127038818363e-11
3.001525342755587755e-11
2.162152070488426659e-11
1.538366464332630698e-11
1.078620820966983437e-11
7.610393587324632761e-12
5.423684395519731999e-12
3.919480411277907300e-12
2.881646898731436714e-12
2.159814172557061657e-12
1.645620541959720157e-12
1.269500183605368013e-12
9.854401787897275620e-13
7.641919961331400988e-13
5.879687265319016781e-13
4.461895025771849537e-13
