# bin_4_9
1.986094292199650824e-07
2.156712221778258164e-07
2.282346898837606817e-07
2.338893295915854258e-07
2.303189953926165737e-07
2.153071964451117174e-07
1.903614821198062934e-07
1.599435690359477517e-07
1.314859755307728996e-07
1.106010996603623844e-07
9.439491091899354149e-08
7.442216405609630770e-08
5.338921563058228841e-08
4.097238727034222389e-08
3.030530837563132343e-08
2.172073115607729521e-08
1.568204546206797933e-08
1.127059947129993652e-08
8.111228949766369449e-09
5.898232852953875915e-09
4.351146692837605199e-09
3.263905152841024458e-09
2.490946973683751573e-09
1.929254138813865568e-09
1.507870502337680694e-09
1.181754772366388297e-09
9.223499744869701938e-10
7.122328911219052523e-10
5.411089381962142211e-10
4.026633871315902756e-10
2.925716276972383898e-10
