# bin_6_8
6.541594883352001051e-08
7.252885813631755331e-08
7.875213052984775984e-08
8.329397675236233482e-08
8.525431024639107460e-08
8.381588936720338925e-08
7.807395732183591659e-08
6.874987053037707338e-08
5.745916413980973415e-08
4.712342862499101109e-08
3.980830608696464087e-08
3.414264740060914259e-08
2.660135632298783282e-08
1.874922599825578107e-08
1.469949697550606974e-08
1.058757595871787641e-08
7.646230812431173220e-09
5.389554327090816043e-09
3.847817310530710257e-09
2.725881134026395071e-09
1.943110953716701801e-09
1.402509634020308868e-09
1.027815433473624818e-09
7.672680768753731160e-10
5.829625814159816655e-10
4.489951461478755206e-10
3.487290276946374639e-10
2.712629787751781995e-10
2.098565538855142232e-10
1.604485699126381864e-10
1.206143915247114936e-10
