# bin_14_9
7.663461623576355797e-12
8.753225424190163157e-12
9.859672211770037138e-12
1.091028651029668929e-11
1.180997051918109853e-11
1.243558771289340175e-11
1.265230650968397613e-11
1.233327712506991139e-11
1.135460193067639408e-11
9.884491065710168231e-12
8.176864641722745120e-12
6.708852190673527377e-12
5.733906892142667885e-12
4.905785318229299664e-12
3.677680153228100434e-12
2.571776905687487502e-12
2.086105561725020772e-12
1.395703206447333299e-12
1.047419964511958889e-12
7.052306790635851426e-13
4.826026697597447952e-13
3.302498818273465852e-13
2.241625107703869097e-13
1.517740433775687756e-13
1.030391989996395168e-13
7.084555458323654916e-14
4.948506182055358626e-14
3.525762102268970823e-14
2.569066089880259106e-14
1.912428600053834681e-14
1.448418866171293438e-14
