# bin_13_4
4.303471911432726546e-18
4.897681814103488697e-18
5.491110946899586949e-18
6.041996976631390648e-18
6.494742950615347122e-18
6.778876233456510452e-18
6.828976559463179033e-18
6.559890803108909063e-18
5.946937228225176656e-18
5.096873709934012236e-18
4.186309968885827862e-18
3.460488162939067711e-18
2.985831097276341251e-18
2.497047347223015824e-18
1.795303000591767081e-18
1.307546831156364872e-18
1.037182394049509717e-18
6.897244137636498031e-19
5.108620321351482656e-19
3.530991228215119001e-19
2.406305248976348392e-19
1.645625707689817367e-19
1.122339736778106698e-19
7.693910713476102011e-20
5.319826282331263652e-20
3.739562191133472688e-20
2.678078044629281852e-20
1.958832925277700418e-20
1.462468961403844717e-20
1.110263749748421270e-20
8.516627534154758654e-21
