# bin_10_9
5.182237294902028036e-09
5.857216687621784295e-09
6.510346081544532188e-09
7.088110521522601777e-09
7.519720487147202208e-09
7.720787221721169082e-09
7.623153670845601611e-09
7.129639670436442596e-09
6.301409695774998382e-09
5.273161710357176986e-09
4.316365709262691085e-09
3.640477797462719370e-09
3.142771176023803364e-09
2.468081316921541169e-09
1.715599151461998811e-09
1.353225602089293756e-09
9.701856371867988060e-10
6.971433316428834534e-10
4.800507539319058925e-10
3.396076953356945510e-10
2.352299037602661734e-10
1.626538825499002430e-10
1.132644015468657557e-10
7.962915800231773988e-11
5.690101066771813649e-11
4.145298872583263678e-11
3.078736627007175180e-11
2.328157015679992164e-11
1.783752488991159146e-11
1.375556726358869021e-11
1.059778133838345481e-11
