# bin_10_2
1.669087366754081294e-17
1.870171487072902144e-17
2.056963231612272203e-17
2.210664905687791730e-17
2.307451645796468116e-17
2.324902354607032137e-17
2.235110246292823438e-17
2.029102309383594189e-17
1.741873101140072246e-17
1.432615892060734991e-17
1.183718588377889582e-17
1.018696185990920232e-17
8.524754392371418188e-18
6.184535867210421224e-18
4.495309080896220303e-18
3.560964332181336518e-18
2.406518859167552863e-18
1.786438258074531967e-18
1.246630164462932321e-18
8.690386178955658503e-19
6.102137520599464204e-19
4.305898218815007835e-19
3.073350099880879626e-19
2.226596104854932080e-19
1.645287834352435606e-19
1.238126699755966531e-19
9.462309941396759352e-20
7.307326673251619641e-20
5.662569299602398665e-20
4.371657174090870463e-20
3.340305942434621718e-20
