# bin_1_13
7.631928502886415732e-07
7.461457361041735498e-07
6.964262633200622978e-07
6.187319724275821678e-07
5.268157082351430134e-07
4.385334245150325367e-07
3.656101598530673131e-07
3.042263496331951479e-07
2.430331995841683261e-07
1.834296783796046630e-07
1.370352799375655645e-07
1.030820591291287419e-07
7.582849077420255287e-08
5.576391571617302559e-08
4.119657366493339814e-08
3.072348208680353741e-08
2.324937038325656826e-08
1.789258465171685068e-08
1.399198571103795523e-08
1.107626632143918797e-08
8.825099701758559475e-09
7.028470761109362010e-09
5.556684709597735428e-09
4.334049245806172900e-09
3.317715656977425067e-09
2.482854868903423975e-09
1.812144261346155242e-09
1.288856376841961772e-09
8.938886155005488413e-10
6.057014773027315921e-10
4.020524864216120171e-10
