# bin_3_13
3.561973380975847121e-07
3.798350986377131572e-07
3.930897823279890356e-07
3.920364946304824588e-07
3.727794359297342221e-07
3.355673165283696610e-07
2.866095317301425490e-07
2.367245024289409956e-07
1.970359225910847103e-07
1.677803470616805147e-07
1.368973492706238307e-07
1.010609640426819332e-07
7.508169692621192548e-08
5.733976733200973527e-08
4.105700659772795366e-08
3.003325276358252271e-08
2.164239378359272627e-08
1.571822615288850542e-08
1.151851155281321587e-08
8.562387892955038787e-09
6.473929215823051446e-09
4.976767412205213687e-09
3.880051960652135651e-09
3.050267437592978682e-09
2.401820218433247989e-09
1.881469735712120902e-09
1.456731321349472875e-09
1.108621879696012927e-09
8.256724150539162610e-10
5.999901013583235657e-10
4.248323047940191036e-10
