# bin_1_2
2.773390558011113013e-07
2.656636786683474418e-07
2.423271786110145293e-07
2.106538854782907405e-07
1.767275856356558184e-07
1.467718604568727707e-07
1.227409394572653011e-07
1.009257946500690876e-07
7.829177248722101822e-08
5.825345524223590007e-08
4.389771950913422661e-08
3.274312333745374424e-08
2.401221349588173287e-08
1.776024979754230588e-08
1.320155919532925168e-08
9.950776591058894736e-09
7.625333962954262357e-09
5.944194522949333772e-09
4.700479849403551327e-09
3.750877096476455108e-09
3.000294173077888552e-09
2.388465277040320253e-09
1.879828519058277346e-09
1.454395503107412823e-09
1.101144259751111216e-09
8.133396489194399014e-10
5.852634981545723395e-10
4.103531094407287467e-10
2.807903626581683906e-10
1.879843789464310931e-10
1.235017175635904785e-10
