# bin_9_14
7.297249866804606426e-08
8.244707085394215481e-08
9.160257756785151376e-08
9.968192461890368886e-08
1.056872755429731765e-07
1.084460419017070780e-07
1.069691276877097364e-07
9.995658473825573148e-08
8.827397359017565367e-08
7.386383762745660612e-08
6.050422101378717313e-08
5.105602556140419493e-08
4.399324919416958995e-08
3.447117972766800446e-08
2.406544176290593508e-08
1.892616577883572387e-08
1.357090631858703900e-08
9.742524487511901022e-09
6.742935606416206463e-09
4.755113765878832927e-09
3.294167253173219059e-09
2.279737265834721548e-09
1.588298577051641749e-09
1.117477297061596714e-09
7.991287869705562622e-10
5.825803976728234977e-10
4.329152540974097226e-10
3.274423551145469936e-10
2.508388343582812580e-10
1.933412007370750232e-10
1.488427132684841722e-10
