# bin_8_2
3.312851756821387449e-08
2.911250293994068659e-08
2.489734460585686741e-08
2.077781068355331682e-08
1.700453022415216001e-08
1.371735000745316904e-08
1.092676397606639591e-08
8.560297948677578154e-09
6.563700650737935051e-09
4.952588974715189142e-09
3.733834634435438673e-09
2.824150642881407119e-09
2.135936561556609930e-09
1.628780114050338164e-09
1.253721870176806904e-09
9.740922935256958124e-10
7.626392738913933540e-10
5.997098315351995069e-10
4.716557984509349460e-10
3.693217386528276178e-10
2.866782964163291377e-10
2.197376350749247729e-10
1.657785418381524650e-10
1.227956274502958718e-10
8.914895979623233218e-11
6.337646312820438594e-11
4.411439815020522244e-11
3.008713078907326169e-11
2.013469744856976753e-11
1.324701518907866358e-11
8.587525869138806897e-12
