# bin_5_4
4.401329435472220419e-08
3.976962357563920395e-08
3.497397287277793503e-08
2.994328024212581266e-08
2.501770643483623021e-08
2.048925764672386444e-08
1.652794632805752823e-08
1.316071384596153894e-08
1.031548779197332889e-08
7.921512166544522708e-09
5.976977673558863040e-09
4.492473874954624896e-09
3.389070371191506064e-09
2.553560062362064571e-09
1.935277320627963689e-09
1.479871517805614044e-09
1.141036444112474706e-09
8.863854217343249245e-10
6.918284911186828581e-10
5.404753303443951583e-10
4.208559360416912610e-10
3.252948831134288765e-10
2.486351154285242618e-10
1.873228134793977142e-10
1.387598766981945401e-10
1.008754581672341095e-10
7.189100560972009167e-11
5.020764053513260810e-11
3.437314264314775516e-11
2.309230800533696834e-11
1.524745505498651465e-11
