# bin_14_3
4.618080818801254172e-08
4.168319726041182587e-08
3.658443390622805086e-08
3.123700787068087230e-08
2.602455512679525059e-08
2.126872339883224720e-08
1.714176868957906247e-08
1.364426038120182087e-08
1.067146299900335035e-08
8.155671498397909854e-09
6.132317439065061273e-09
4.614513779092627026e-09
3.479400155525168459e-09
2.618566694773150935e-09
1.988644204038907001e-09
1.522503656968795026e-09
1.176699209435370522e-09
9.163411556104913843e-10
7.169260819659468609e-10
5.612610299467240069e-10
4.377457444082350221e-10
3.386840778175246828e-10
2.589378570929005352e-10
1.949906215417187543e-10
1.442604486960558657e-10
1.046670614724645522e-10
7.439688737922848930e-11
5.179372342552004732e-11
3.533523330581633559e-11
2.365340241693188947e-11
1.556387622630739123e-11
