# bin_14_13
9.305255082697440138e-08
8.972550508741801870e-08
8.451232438848663866e-08
7.759280390271547586e-08
6.933369578087080278e-08
6.026812716150090491e-08
5.102833925985934291e-08
4.223205325862278069e-08
3.433438177987185768e-08
2.752455006179111848e-08
2.174799488585628086e-08
1.684907392820817205e-08
1.275985343016218087e-08
9.523603975150006411e-09
7.101437911239055171e-09
5.284457865673916113e-09
3.916442667352365543e-09
2.921359585513747861e-09
2.189325223400542118e-09
1.653077170340729395e-09
1.255912856734789918e-09
9.584299196772362171e-10
7.325452414423375780e-10
5.588488405913559600e-10
4.240517592912251547e-10
3.189718515792873013e-10
2.371738858492957584e-10
1.739309157040658214e-10
1.255862260004935250e-10
8.918345528128152014e-11
6.225492617755336699e-11
