# bin_5_15
2.108478545667167997e-07
2.323967102876174156e-07
2.505044933118932205e-07
2.625398892665308694e-07
2.658306627646339640e-07
2.574820879147819249e-07
2.357504496956877647e-07
2.041405128229016714e-07
1.687142229945035497e-07
1.389017087092936191e-07
1.187448997746882998e-07
1.003996038655263250e-07
7.481427778146960247e-08
5.354619342207307041e-08
4.258936368542679503e-08
2.944236849097255433e-08
2.187406766698454626e-08
1.534138563746126826e-08
1.092914040754884353e-08
7.817407110638221483e-09
5.636371928072877376e-09
4.122185437148555570e-09
3.064504372532229545e-09
2.321190857390558700e-09
1.785468244681658690e-09
1.387686312665845841e-09
1.083089283913634181e-09
8.428579940564375412e-10
6.496668016484183509e-10
4.931498309500045936e-10
3.669972181035813230e-10
