# bin_14_9
4.230450199231975249e-13
4.824336182233596545e-13
5.423088043643412800e-13
5.986199873288929856e-13
6.460181883257915829e-13
6.776525167606696890e-13
6.865120679813971970e-13
6.649369631344404167e-13
6.078947662844916267e-13
5.254915293263316996e-13
4.330787869964163561e-13
3.562794232551598812e-13
3.060079614263248770e-13
2.595922485361750568e-13
1.907841105305517977e-13
1.353900391500172022e-13
1.094983074790640661e-13
7.238024551551858524e-14
5.445601019464102284e-14
3.705978356166031537e-14
2.522129051172056398e-14
1.726801897681006609e-14
1.174064832788773883e-14
7.990481463972966366e-15
5.467570851624525383e-15
3.796665983673125067e-15
2.682328730406618132e-15
1.934821458739864405e-15
1.426607512924150765e-15
1.072672589772238562e-15
8.181551112433982784e-16
