# bin_10_3
1.305587199329306997e-20
1.464750578767338722e-20
1.613557939134827477e-20
1.737454901957883056e-20
1.817907742644242877e-20
1.836728142686059908e-20
1.772544303930775578e-20
1.614858509479782303e-20
1.391130979005950001e-20
1.144965252014889891e-20
9.434918901907026412e-21
8.113058253822569994e-21
6.843352889241574914e-21
4.996194780503454122e-21
3.586103678445117537e-21
2.880184275780718601e-21
1.924906962608487622e-21
1.446869707464810430e-21
1.003186302859520460e-21
6.971646568494804346e-22
4.893904939397129221e-22
3.445527673899234844e-22
2.451795685281237080e-22
1.769797361940287722e-22
1.303176448950514831e-22
9.776679102914799203e-23
7.454620834667026333e-23
5.750116026299506164e-23
4.455877178769644847e-23
3.443827962952387510e-23
2.636542882370411310e-23
