# bin_11_8
4.715077404610948458e-11
5.342095503011361051e-11
5.955206822176379611e-11
6.506988104606116828e-11
6.933975752731622645e-11
7.157558035693936320e-11
7.117145807803872618e-11
6.714220326086546715e-11
5.982355388220118612e-11
5.039045501151491401e-11
4.122500677046062021e-11
3.453127811681868249e-11
2.990871768663938813e-11
2.403691926737929297e-11
1.671239767348003142e-11
1.293166614535359217e-11
9.596808219693346741e-12
6.701604417224535129e-12
4.677594529490113525e-12
3.325162399183825284e-12
2.288772058448721118e-12
1.570801526458585187e-12
1.086072762171222379e-12
7.573847130701857785e-13
5.357196514265807696e-13
3.861688251508761359e-13
2.839023674477638527e-13
2.128702797811395470e-13
1.621599556063349525e-13
1.247491029242495771e-13
9.619978165460912763e-14
