# bin_7_7
1.308506674952961876e-08
1.460389567611913966e-08
1.598546553873976159e-08
1.707756612785431595e-08
1.769073221568705355e-08
1.766739267181292041e-08
1.677395510599870298e-08
1.503916455061028579e-08
1.274997329227108387e-08
1.044443765664608566e-08
8.700137077431578892e-09
7.520938710098724137e-09
6.140866917764944380e-09
4.334462246635400089e-09
3.275802247654605570e-09
2.506717879332763724e-09
1.726345508156651161e-09
1.248880061005451674e-09
8.892012246208414672e-10
6.223871781033783657e-10
4.384427507559551770e-10
3.119686995146102700e-10
2.251199347399780121e-10
1.652462298469139744e-10
1.236776159302778509e-10
9.412896362552142841e-11
7.256821685301324867e-11
5.632479076871934968e-11
4.369665578268448296e-11
3.364823274391439091e-11
2.556399720871887839e-11
