# bin_1_15
7.810554193020181598e-07
7.680599061721348163e-07
7.198335712820915029e-07
6.401055872582611516e-07
5.432510798593861226e-07
4.500619758242976952e-07
3.760616803218751140e-07
3.161625396287173441e-07
2.529318227649789276e-07
1.884168548719432453e-07
1.410314975468689457e-07
1.066614057553072379e-07
7.779679611453994384e-08
5.734437130414068226e-08
4.222862049558202201e-08
3.146916580709438930e-08
2.379541308733436265e-08
1.831267892260809864e-08
1.433192603840659319e-08
1.136256696706951450e-08
9.072624563247851564e-09
7.243383394184924958e-09
5.741215045902884910e-09
4.488666836109701291e-09
3.442674396494878630e-09
2.579424973846835061e-09
1.883191388926681225e-09
1.338615647230351294e-09
9.272440463619082339e-10
6.272819543958741732e-10
4.156578166778246438e-10
