# bin_10_6
1.000118372798227422e-12
1.127050750781315667e-12
1.248237931781986749e-12
1.353019880341500987e-12
1.427500493848741463e-12
1.455953289912250871e-12
1.424651506555221219e-12
1.317681587512548470e-12
1.152328007464353099e-12
9.561363049012740257e-13
7.833887386434366765e-13
6.667349173389285666e-13
5.727445194759944965e-13
4.359113071064979193e-13
3.034082774268926646e-13
2.451653351953753931e-13
1.677664936748016098e-13
1.251555992323335314e-13
8.501258929062975210e-14
5.962809514476311022e-14
4.165991236789554404e-14
2.909389441942401312e-14
2.045132673382774239e-14
1.453513539799406772e-14
1.052519454754016221e-14
7.771415780128474224e-15
5.844997744068015006e-15
4.465413927802984712e-15
3.444249592463174377e-15
2.663152518644653578e-15
2.049118799734410131e-15
