# bin_9_1
1.086968437894190328e-26
1.210553724334531154e-26
1.321613581824391107e-26
1.407304955740134842e-26
1.451825409669636415e-26
1.442689022609990031e-26
1.360476180664860339e-26
1.211896692950217509e-26
1.020949114351691629e-26
8.353822051832198002e-27
6.994563201673120112e-27
6.050720808824487405e-27
4.862752747702186757e-27
3.396884617057846105e-27
2.624882904744056633e-27
1.957315778043655443e-27
1.376036864942441328e-27
9.755798541208823130e-28
7.005222268073097014e-28
4.925916804657717365e-28
3.480345397385920493e-28
2.489654870157955136e-28
1.807056848539613937e-28
1.335349323935674418e-28
1.005679003193124526e-28
7.694289160168866708e-29
5.954075139453668581e-29
4.629612616468576940e-29
3.591065273792582308e-29
2.759908427704291831e-29
2.089720465172779266e-29
