# bin_2_14
-4.390845841272465094e-32
-4.989090794174041214e-32
-5.581958416553665804e-32
-6.126364572500931715e-32
-6.564665052460382278e-32
-6.824276619743896292e-32
-6.843065500338654808e-32
-6.529879987918962869e-32
-5.881221570760772962e-32
-5.006795473000396487e-32
-4.103666664449598236e-32
-3.407244075039324908e-32
-2.947660640531506221e-32
-2.433246677514496122e-32
-1.722265718481014365e-32
-1.282873870400007559e-32
-9.964824887506872061e-33
-6.708978548664210234e-33
-4.874483890625472530e-33
-3.412427496656385738e-33
-2.331974571841498943e-33
-1.594166975112350145e-33
-1.091635376800295139e-33
-7.529952111628433210e-34
-5.250677115646529118e-34
-3.726564871442313468e-34
-2.696388649399342669e-34
-1.992283498687187975e-34
-1.500318139799716599e-34
-1.146031057688159711e-34
-8.818405752407806781e-35
