# bin_8_9
-9.679737127390221747e-09
-1.093366000597737385e-08
-1.214322616459786845e-08
-1.320789112589262417e-08
-1.399475591224891585e-08
-1.434556507653269599e-08
-1.413598815920340706e-08
-1.318402992354458315e-08
-1.162181520182379802e-08
-9.698780178271812345e-09
-7.935436714426526018e-09
-6.709267185387841110e-09
-5.794414952601121111e-09
-4.514796763717076499e-09
-3.124420863728523597e-09
-2.492719539916807209e-09
-1.759915764277146625e-09
-1.282404575362729501e-09
-8.723944093585386228e-10
-6.180931304436559100e-10
-4.292631760251290207e-10
-2.975987063057811182e-10
-2.077978732497510324e-10
-1.464930230858791803e-10
-1.050590487890777299e-10
-7.682620728835966816e-11
-5.727138598581700460e-11
-4.345113249724880404e-11
-3.337295993771201346e-11
-2.577314150494311768e-11
-1.986376840925697558e-11
