# bin_7_11
-4.659355327937236785e-11
-5.277452517711732523e-11
-5.881034242354288398e-11
-6.423109757954989265e-11
-6.840823498471884154e-11
-7.056486863905237206e-11
-7.010629762448308493e-11
-6.606215614155260691e-11
-5.879892616386293512e-11
-4.947711227697401594e-11
-4.047344899968219220e-11
-3.393294937628774569e-11
-2.938942412212751612e-11
-2.355112903079029042e-11
-1.635313617556309567e-11
-1.270054548649974059e-11
-9.378859903072270193e-12
-6.577333106358602777e-12
-4.572802260488656377e-12
-3.253664820741870551e-12
-2.241394138763409707e-12
-1.539390814305445917e-12
-1.065463349831579182e-12
-7.438332678878475208e-13
-5.268855840509134887e-13
-3.803799009565693850e-13
-2.800708292683135639e-13
-2.102805398763978578e-13
-1.603485895590116404e-13
-1.234255117003719837e-13
-9.518834007035484866e-14
