# bin_2_8
-8.103866147582702115e-18
-8.993241178113377844e-18
-9.775570461471477529e-18
-1.035299407923308470e-17
-1.060990184951850366e-17
-1.045251806819352403e-17
-9.750200939761784929e-18
-8.596719694129908470e-18
-7.178717561282659527e-18
-5.874298660197900953e-18
-4.961248999092763152e-18
-4.279424691403220505e-18
-3.342652016868519221e-18
-2.324806668853032895e-18
-1.847132587083559324e-18
-1.319145977768197414e-18
-9.616427209115842706e-19
-6.676105105449299128e-19
-4.795559622001522360e-19
-3.400206903504574797e-19
-2.422079286681184414e-19
-1.747721152232406305e-19
-1.279999207327695190e-19
-9.553352969443178192e-20
-7.259189757653839013e-20
-5.593442043220146410e-20
-4.348047689123266436e-20
-3.386000034609526583e-20
-2.622895037096058493e-20
-2.008045340947029436e-20
-1.511502081872405361e-20
