# bin_14_7
-5.231806603453844388e-15
-5.960271021677507124e-15
-6.691267879482470120e-15
-7.374374726789901626e-15
-7.942704319230885346e-15
-8.311084334883954771e-15
-8.396449603748106404e-15
-8.098986639354318238e-15
-7.372410035492665937e-15
-6.345151680840096498e-15
-5.219191925998872205e-15
-4.303149795496297401e-15
-3.705723090563023468e-15
-3.122764316061700968e-15
-2.268089868051316117e-15
-1.629632695270638775e-15
-1.307970920257221572e-15
-8.646200744105022140e-16
-6.470890885277810342e-16
-4.437911832027036305e-16
-3.019864412123897273e-16
-2.066316159579475428e-16
-1.406352309559852783e-16
-9.605152124910767509e-17
-6.606727629326789067e-17
-4.616315358952575474e-17
-3.284220013455597919e-17
-2.386254121014804074e-17
-1.771222909560842573e-17
-1.338853952727643816e-17
-1.024585137987678354e-17
