# bin_3_6
-6.703590809843040719e-11
-7.368747245130899983e-11
-7.916216182062860679e-11
-8.261113725957355754e-11
-8.323354246122765949e-11
-8.003456201927876629e-11
-7.267558751907188039e-11
-6.240668994391929646e-11
-5.131810436188626521e-11
-4.236543385797439325e-11
-3.643753316073108996e-11
-3.053642689661171392e-11
-2.220898259765075943e-11
-1.613289904792394944e-11
-1.284514472076208779e-11
-8.729545100002169022e-12
-6.544948072740260500e-12
-4.621749098296943421e-12
-3.278764844238945556e-12
-2.353910770569035046e-12
-1.706217082496794944e-12
-1.255784389249362227e-12
-9.401150235669035228e-13
-7.169090036917548851e-13
-5.545010340970534821e-13
-4.326406205021453089e-13
-3.383067058181721044e-13
-2.632180658477050588e-13
-2.024681255898860245e-13
-1.531289518895058425e-13
-1.133871219258351450e-13
