# bin_7_4
-1.202396081941140314e-10
-1.334776904505688841e-10
-1.451453088791638380e-10
-1.537930537354840658e-10
-1.577006127907006551e-10
-1.554826318621122842e-10
-1.451738866916179454e-10
-1.281149881861142109e-10
-1.070594779156042086e-10
-8.759901589774128371e-11
-7.392720143790011378e-11
-6.379442575214108350e-11
-4.995886404267373538e-11
-3.474179542612320084e-11
-2.754829869404187431e-11
-1.974624765656429537e-11
-1.435133675098049363e-11
-9.974301186604157639e-12
-7.168185562448301451e-12
-5.078818725383599388e-12
-3.614968516899569149e-12
-2.606576275463509381e-12
-1.907540862829298119e-12
-1.422519616362445411e-12
-1.080124820831779948e-12
-8.318024883910419164e-13
-6.463820024139317999e-13
-5.033232723398400528e-13
-3.899509291263263149e-13
-2.986491630697406054e-13
-2.249196907986426872e-13
