# bin_7_3
-1.313861722730816392e-12
-1.453544120070030653e-12
-1.573982444848652284e-12
-1.659049161937668448e-12
-1.690755923104216972e-12
-1.652798326417398645e-12
-1.527679762904410211e-12
-1.335148539313386480e-12
-1.107901138448031584e-12
-9.079905581575095617e-13
-7.723063178231651902e-13
-6.621651281064041977e-13
-5.044128200022986176e-13
-3.530243597548035694e-13
-2.842203380104790029e-13
-1.969041365797290695e-13
-1.469212427512350270e-13
-1.016705862992426643e-13
-7.258485591987526040e-14
-5.177753267545040306e-14
-3.714082744846333775e-14
-2.698401611539117652e-14
-1.990959178631558395e-14
-1.497521391324621776e-14
-1.145488627966865804e-14
-8.870422245299430963e-15
-6.914512731043961087e-15
-5.386557524283107033e-15
-4.164868188504807733e-15
-3.176654441852891923e-15
-2.378575385947186207e-15
