# bin_11_6
-1.116361945502362147e-12
-1.262675642849751569e-12
-1.404655062268406969e-12
-1.530875007411974878e-12
-1.626129282178267140e-12
-1.671919351886809718e-12
-1.654128318509137546e-12
-1.550413142223186604e-12
-1.373088127928607803e-12
-1.150276084406353582e-12
-9.408508046026696441e-13
-7.922543651502259727e-13
-6.854989383635455098e-13
-5.415234056131516533e-13
-3.747942486700639600e-13
-2.955695046210849684e-13
-2.131897217585009098e-13
-1.525919827626767495e-13
-1.045962566484096193e-13
-7.440744603356146333e-14
-5.146963463326747299e-14
-3.551087385803791558e-14
-2.469293375767549710e-14
-1.732617261753047251e-14
-1.235257342863274278e-14
-8.978525315921008944e-15
-6.654781478110058250e-15
-5.025014165219636250e-15
-3.847318174644416904e-15
-2.967330423664546803e-15
-2.288224331000496454e-15
