# bin_3_12
-3.300126685384607914e-23
-3.730740817219912842e-23
-4.147658793820424075e-23
-4.516915505476687484e-23
-4.793420625068690673e-23
-4.922742337609792673e-23
-4.862957037323046056e-23
-4.549457532457166383e-23
-4.022016511805048086e-23
-3.364419425320712458e-23
-2.752132347046894182e-23
-2.321036451578390508e-23
-2.006989315702860557e-23
-1.577238559307188268e-23
-1.091401630191944356e-23
-8.646413547809658444e-24
-6.185716656907608038e-24
-4.458206226788465605e-24
-3.046118585019720007e-24
-2.163919177608467662e-24
-1.499116165419286521e-24
-1.036203176856892324e-24
-7.216741296295082029e-25
-5.072760914538309253e-25
-3.624722552582359427e-25
-2.640755950235349979e-25
-1.961640333550798707e-25
-1.483960370828749801e-25
-1.137579884590323468e-25
-8.778469716911395349e-26
-6.768161623506207607e-26
