# bin_10_8
-3.198644019407973754e-09
-3.621014825409295561e-09
-4.032469843001541014e-09
-4.400571481772459673e-09
-4.682003305002586906e-09
-4.823522322751227018e-09
-4.784545620609313559e-09
-4.499309195771890700e-09
-3.996972031569230121e-09
-3.357469675657242443e-09
-2.746265703710801032e-09
-2.306312945872290347e-09
-1.996920750630874521e-09
-1.591585255756246503e-09
-1.103450426371387371e-09
-8.622140542732488679e-10
-6.310163824774698989e-10
-4.459956872245630535e-10
-3.082467651131463221e-10
-2.194059216403746012e-10
-1.513785669232629764e-10
-1.041372472670860561e-10
-7.220673878079032634e-11
-5.050758912294895919e-11
-3.586597684979087559e-11
-2.596132755804402026e-11
-1.916470435002386041e-11
-1.442147300048916349e-11
-1.101485420193458326e-11
-8.485527604036913939e-12
-6.544267828937422427e-12
