# bin_13_10
-1.154806852121680526e-09
-1.317138283329580691e-09
-1.480918542323400414e-09
-1.635103486719094915e-09
-1.765118146095197790e-09
-1.852276100515444504e-09
-1.877320348006197760e-09
-1.819502715883466293e-09
-1.664564719481749451e-09
-1.439925215772136804e-09
-1.187088124822039023e-09
-9.762591851061501092e-10
-8.381347559476639829e-10
-7.117207082798638106e-10
-5.240674417228334800e-10
-3.712218169450333772e-10
-3.005168866820548618e-10
-1.987102913750119447e-10
-1.495828205563877505e-10
-1.016760316660014792e-10
-6.920586772387448924e-11
-4.738605270881666931e-11
-3.221383534071076508e-11
-2.191231269858898407e-11
-1.498123109386520469e-11
-1.039257819998991500e-11
-7.334000365272398270e-12
-5.283827560258729008e-12
-3.891581313945210762e-12
-2.923432352915709007e-12
-2.228442048476774080e-12
