# bin_4_5
-1.183798580458866728e-08
-1.299024241508253702e-08
-1.392567421130364356e-08
-1.449337016602124192e-08
-1.455706709579065733e-08
-1.393623772789871378e-08
-1.259967106031335623e-08
-1.077235993753125501e-08
-8.845437745855691662e-09
-7.322271566693888494e-09
-6.308286386160835353e-09
-5.243442606146838525e-09
-3.777634162607254095e-09
-2.780146997969687291e-09
-2.189823801499164114e-09
-1.496353358920777438e-09
-1.113500233740031919e-09
-7.915861665267622370e-10
-5.622318553053519893e-10
-4.041147769878676118e-10
-2.936873386231001602e-10
-2.168586850664876902e-10
-1.629242285695345596e-10
-1.246286878099204664e-10
-9.662244438584467843e-11
-7.549429983601315278e-11
-5.905208696193260713e-11
-4.591250998330127303e-11
-3.525902796462751853e-11
-2.660397485695070433e-11
-1.964096563472239694e-11
