# bin_15_14
-1.153237049035897433e-08
-1.323010347101054876e-08
-1.498202857219680254e-08
-1.668554386988968919e-08
-1.820488000509356449e-08
-1.935898803472145644e-08
-1.992552116801391051e-08
-1.973886836172766001e-08
-1.852483206366878476e-08
-1.642396901471233900e-08
-1.376793915877699765e-08
-1.125991467653994735e-08
-9.476734583645528414e-09
-8.206451996159805056e-09
-6.496033393227025915e-09
-4.484085580047199886e-09
-3.532103362477247850e-09
-2.547320927781644757e-09
-1.811068111933749428e-09
-1.226491097961890364e-09
-8.646110318390341699e-10
-5.856824330199958403e-10
-3.920310226657472406e-10
-2.621569518866825641e-10
-1.748728233358029852e-10
-1.172303028249149634e-10
-7.940614638734121444e-11
-5.459182744061150871e-11
-3.831071744800224280e-11
-2.752239865332267382e-11
-2.024327951154600900e-11
