   0.1000E+05   0.3233E-10   0.4515E-05   0.9049E-03   0.3373E+00
   0.8129E+04   0.4676E-10   0.4515E-05   0.9049E-03   0.3346E+00
   0.6608E+04   0.6603E-10   0.4515E-05   0.9049E-03   0.3316E+00
   0.5372E+04   0.9082E-10   0.4515E-05   0.9049E-03   0.3283E+00
   0.4367E+04   0.1215E-09   0.4515E-05   0.9049E-03   0.3250E+00
   0.3550E+04   0.1580E-09   0.4515E-05   0.9049E-03   0.3220E+00
   0.2885E+04   0.2003E-09   0.4515E-05   0.9049E-03   0.3194E+00
   0.2346E+04   0.2488E-09   0.4515E-05   0.9049E-03   0.3176E+00
   0.1907E+04   0.3045E-09   0.4515E-05   0.9049E-03   0.3165E+00
   0.1550E+04   0.3699E-09   0.4515E-05   0.9049E-03   0.3162E+00
   0.1260E+04   0.4492E-09   0.4515E-05   0.9049E-03   0.3169E+00
   0.1024E+04   0.5499E-09   0.4515E-05   0.9049E-03   0.3183E+00
   0.8326E+03   0.6829E-09   0.4515E-05   0.9049E-03   0.3203E+00
   0.6768E+03   0.8640E-09   0.4515E-05   0.9049E-03   0.3227E+00
   0.5501E+03   0.1115E-08   0.4515E-05   0.9049E-03   0.3250E+00
   0.4472E+03   0.1463E-08   0.4515E-05   0.9049E-03   0.3269E+00
   0.3635E+03   0.1943E-08   0.4515E-05   0.9049E-03   0.3283E+00
   0.2955E+03   0.2593E-08   0.4515E-05   0.9049E-03   0.3288E+00
   0.2402E+03   0.3451E-08   0.4515E-05   0.9049E-03   0.3286E+00
   0.1953E+03   0.4545E-08   0.4515E-05   0.9049E-03   0.3276E+00
   0.1587E+03   0.5875E-08   0.4515E-05   0.9049E-03   0.3257E+00
   0.1290E+03   0.7397E-08   0.4515E-05   0.9049E-03   0.3233E+00
   0.1049E+03   0.9139E-08   0.4515E-05   0.9049E-03   0.3220E+00
   0.8527E+02   0.1093E-07   0.4515E-05   0.9049E-03   0.3181E+00
   0.6931E+02   0.1253E-07   0.4515E-05   0.9049E-03   0.3142E+00
   0.5635E+02   0.1382E-07   0.4515E-05   0.9049E-03   0.3111E+00
   0.4580E+02   0.1474E-07   0.4515E-05   0.9049E-03   0.3082E+00
   0.3723E+02   0.1524E-07   0.4515E-05   0.9049E-03   0.3055E+00
   0.3027E+02   0.1529E-07   0.4515E-05   0.9049E-03   0.3028E+00
   0.2460E+02   0.1489E-07   0.4515E-05   0.9049E-03   0.3002E+00
   0.2000E+02   0.1409E-07   0.4515E-05   0.9049E-03   0.2976E+00
