# bin_1
0.000000000000000000e+00
2.926522082849438257e-15
1.536792883387530617e-10
2.851417179850831767e-07
6.769623713652405078e-05
3.522845595456358843e-03
5.737589590831607134e-02
3.826711842202620284e-01
1.298182784652745614e+00
2.678778232975456586e+00
3.850635212632447679e+00
4.166447288408809513e+00
3.481255325080592655e+00
2.257740090714988934e+00
1.147190262605996658e+00
4.653947934158956246e-01
1.545259351238303935e-01
4.312122350161003842e-02
1.037598682840152296e-02
2.204159927082778841e-03
4.221409962781184824e-04
7.424783548434628019e-05
1.218672753719155817e-05
1.892724065964434307e-06
2.814928067823864158e-07
4.050211398162477586e-08
5.687648658559357974e-09
7.854094145254846979e-10
1.073385652520227199e-10
1.459787839235367801e-11
1.984825472213329034e-12
2.708776012755029431e-13
3.723049497529674692e-14
5.168083967622471278e-15
7.262729321570493584e-16
1.035321873257465831e-16
1.499602180532193316e-17
2.210018333150010187e-18
3.317569677689579161e-19
5.077382116791673338e-20
7.928031233901347709e-21
1.263678396573388840e-21
2.056993787341696402e-22
3.420439754651259443e-23
5.811200341718485014e-24
1.008854206141471734e-24
1.789699579627155897e-25
3.244166012828759178e-26
6.008345763585087561e-27
1.136770113029548613e-27
2.196724678273486413e-28
2.609205374454578137e-28
5.900829070813635487e-29
1.365463808621519167e-29
3.231982708026167102e-30
7.822261191712812501e-31
1.935163458409103516e-31
4.891799640209801848e-32
1.263065745704801738e-32
3.329876058502761222e-33
8.960086115056033876e-34
2.459885052625446089e-34
6.887670539439016059e-35
1.966172562165674968e-35
5.720055100647084900e-36
1.695301232120970176e-36
5.116840418615131925e-37
1.572197781667231904e-37
4.915941826567219076e-38
1.563675446385725894e-38
5.057957682724574713e-39
2.894516374805966822e-39
