# bin_4_3
-1.424698967986836626e-08
-1.539500727919634528e-08
-1.619058974296139107e-08
-1.646323013065836627e-08
-1.604762301869457774e-08
-1.479476150745760518e-08
-1.289845338490616705e-08
-1.069439537685574453e-08
-8.772561859312940643e-09
-7.461403157425638483e-09
-6.367698727865446959e-09
-4.837947289151126526e-09
-3.419358983348698097e-09
-2.734759457458956422e-09
-1.917712632158584800e-09
-1.428767956875554396e-09
-1.007759912293717715e-09
-7.292056022132593005e-10
-5.291729323637078573e-10
-3.879999249503156871e-10
-2.891425939908529665e-10
-2.191668854193607014e-10
-1.690312688077861403e-10
-1.320318002339338251e-10
-1.037989573376327196e-10
-8.158238142886605961e-11
-6.365417280442046569e-11
-4.899546196199427846e-11
-3.700676782364600974e-11
-2.731448326464578730e-11
-1.964693629129261237e-11
