# bin_2_8
-1.166619084281082120e-17
-1.293329745559715900e-17
-1.404094812148279389e-17
-1.484766643386668124e-17
-1.518859995360696018e-17
-1.492766133738729818e-17
-1.388432696460137995e-17
-1.220755153268567915e-17
-1.017054501514631534e-17
-8.321911951313537853e-18
-7.041666839242816271e-18
-6.065887044550454711e-18
-4.703355497744910242e-18
-3.271501826041897013e-18
-2.613119961058838837e-18
-1.847262238577724463e-18
-1.357492548506609573e-18
-9.395812066069181616e-19
-6.739976557380157658e-19
-4.787892877731029493e-19
-3.417701031977855967e-19
-2.471088270685730354e-19
-1.813648406226258226e-19
-1.356738104281816850e-19
-1.032997494863196851e-19
-7.971805010016841025e-20
-6.202371430572546897e-20
-4.830847413712507601e-20
-3.740221582654420630e-20
-2.860339167408440255e-20
-2.149696137525234849e-20
