# bin_13_8
-5.542399071849549112e-12
-6.308238151493742309e-12
-7.073377243472963280e-12
-7.784069452305300321e-12
-8.368765234505296970e-12
-8.736769659856020113e-12
-8.803539604283059664e-12
-8.459266246553710727e-12
-7.670580459724380592e-12
-6.575608770982076589e-12
-5.400504359953251808e-12
-4.462826279089249499e-12
-3.851191158009945431e-12
-3.223433063450614579e-12
-2.317520933242154581e-12
-1.686066079038591262e-12
-1.340058697909193670e-12
-8.891957922692175403e-13
-6.600353105405827064e-13
-4.560044646099300659e-13
-3.106034499868651571e-13
-2.123975052211774605e-13
-1.447860555575597102e-13
-9.922480829574775052e-14
-6.858452398850604665e-14
-4.819454131148142925e-14
-3.450218892433411073e-14
-2.522831902149043265e-14
-1.883180107985645675e-14
-1.429584338394180874e-14
-1.096727050687547532e-14
