# bin_15_14
-1.023486037087018837e-08
-1.174160360808409524e-08
-1.329645302331881627e-08
-1.480837298718936032e-08
-1.615687259477671122e-08
-1.718128099460558501e-08
-1.768429806294183421e-08
-1.751885718252977379e-08
-1.644177632148495671e-08
-1.457741879302207137e-08
-1.222042958845992969e-08
-9.994451329516821766e-09
-8.411491642488824894e-09
-7.283836864852411891e-09
-5.765949343201172308e-09
-3.980658792992032186e-09
-3.135072977411059151e-09
-2.261203037682778320e-09
-1.607535767822794856e-09
-1.088926984059420569e-09
-7.674806916722387628e-10
-5.198851553593181353e-10
-3.480059219873720865e-10
-2.327093364722536401e-10
-1.552262205699330309e-10
-1.040555245910578628e-10
-7.047817560573705854e-11
-4.845053063821586132e-11
-3.399812132248280467e-11
-2.442196131549238789e-11
-1.796113224404786147e-11
