# bin_1_10
-2.669237792645795722e-27
-2.986437100270666900e-27
-3.278889039660732578e-27
-3.516168524064916031e-27
-3.659931024276967837e-27
-3.676049151709123584e-27
-3.517643019683551348e-27
-3.177379056754686711e-27
-2.713345259832205012e-27
-2.225569504098265933e-27
-1.842606330792199496e-27
-1.590464121240844417e-27
-1.321608474114150271e-27
-9.451493919815268166e-28
-6.959760383865302889e-28
-5.477411571315206176e-28
-3.692156987311137927e-28
-2.731394095265854043e-28
-1.923049866099421421e-28
-1.339320493970657381e-28
-9.408959648564036890e-29
-6.655116604404569374e-29
-4.769595539222947505e-29
-3.473127738843494836e-29
-2.579799247479628946e-29
-1.950692313009697469e-29
-1.496694995807147242e-29
-1.158844914063555117e-29
-8.989847097107222096e-30
-6.937484458577427005e-30
-5.291537910411350328e-30
