# bin_7_8
-1.046911399207594979e-08
-1.175420302153889551e-08
-1.296023967843571433e-08
-1.397148899505590529e-08
-1.464012926546917386e-08
-1.481655419428333305e-08
-1.433530590045088512e-08
-1.309421855516087481e-08
-1.130986023971714011e-08
-9.317385439248838706e-09
-7.664248871570986806e-09
-6.578217771423752213e-09
-5.573171091941764089e-09
-4.099146290441680193e-09
-2.917605088834821049e-09
-2.354549976230285467e-09
-1.572994746232628263e-09
-1.185803804122809364e-09
-8.177289762977422721e-10
-5.682095724133605376e-10
-3.987430111635848640e-10
-2.803514809928297806e-10
-1.990079941056566698e-10
-1.432105906436962172e-10
-1.051233929530471300e-10
-7.863944404095971068e-11
-5.981980207235571968e-11
-4.607078930873751752e-11
-3.567940554452721231e-11
-2.758436975079855623e-11
-2.114167123632661182e-11
