# bin_4_4
-2.589802101137774171e-08
-2.819687404802578923e-08
-2.993481518042207456e-08
-3.078094516030672439e-08
-3.046279807051888232e-08
-2.859610769590512148e-08
-2.536706358388773451e-08
-2.130358681688794837e-08
-1.743235189062028292e-08
-1.462934728744501266e-08
-1.261845700835968678e-08
-1.004345546677771240e-08
-7.047026931901108361e-09
-5.482694792448121107e-09
-4.055650596100381426e-09
-2.900530162423477482e-09
-2.073984936867358650e-09
-1.503114597472052101e-09
-1.078829151209874093e-09
-7.819846910993366084e-10
-5.756461801360986264e-10
-4.310207327980799955e-10
-3.285685697075569871e-10
-2.543873906344116434e-10
-1.989137292839943836e-10
-1.560953256298774266e-10
-1.220721999878225071e-10
-9.449556056846569040e-11
-7.198988210680986275e-11
-5.372346840207981820e-11
-3.913463206804908258e-11
