# bin_9_9
-1.468991996998122067e-08
-1.660582900588604686e-08
-1.846046489389951535e-08
-2.010277464121128859e-08
-2.133224034453454809e-08
-2.190646622777364534e-08
-2.164043389496159150e-08
-2.024516008355158636e-08
-1.789701646123886741e-08
-1.496824487372309815e-08
-1.223948872448400670e-08
-1.031785500654219322e-08
-8.922738346105413681e-09
-7.016043162527135324e-09
-4.851350198313218945e-09
-3.842022693950855857e-09
-2.750886384566696868e-09
-1.980820298827210385e-09
-1.352745881668882543e-09
-9.616166129558391662e-10
-6.659576490370254056e-10
-4.601443415784290157e-10
-3.204048457632701296e-10
-2.251680522175468172e-10
-1.608510518976798832e-10
-1.171589733641089898e-10
-8.701195105338056320e-11
-6.581400488239855145e-11
-5.044820814625727159e-11
-3.892990084763882671e-11
-3.001683317539375903e-11
