# bin_8_9
-1.023680558166622185e-08
-1.154889126526966539e-08
-1.280788531424394371e-08
-1.390617457914677178e-08
-1.470249654163600644e-08
-1.503215507635875459e-08
-1.476119184405695519e-08
-1.370937330986797561e-08
-1.203639108278872724e-08
-1.001263682561682578e-08
-8.193457397874036175e-09
-6.948069947547390832e-09
-5.988012111644656716e-09
-4.613335661947889384e-09
-3.195889117115467371e-09
-2.569114732134175416e-09
-1.784305071934458202e-09
-1.316948220818794881e-09
-8.930367946539519286e-10
-6.297967378466450602e-10
-4.387230620669383842e-10
-3.053003262962245597e-10
-2.138580943758929428e-10
-1.513384843051517051e-10
-1.090388416331352616e-10
-8.011303449714309805e-11
-5.998475583925585421e-11
-4.567007728720302970e-11
-3.515566229598942589e-11
-2.717079522992137343e-11
-2.092727741301108997e-11
