# bin_7_1
-5.195575107008027099e-19
-5.705386585962193963e-19
-6.121790030526618930e-19
-6.378805409725412820e-19
-6.415724397607955168e-19
-6.154239726667212748e-19
-5.574364723764607747e-19
-4.774539012215399920e-19
-3.921444224490405819e-19
-3.240499734166071098e-19
-2.789670055449591049e-19
-2.328797146509279467e-19
-1.684203510007115319e-19
-1.230865791140740324e-19
-9.756984716424706827e-20
-6.637614936983740760e-20
-4.962460298430707475e-20
-3.516400310495328065e-20
-2.494926477345685611e-20
-1.792082757581610368e-20
-1.300608228406522357e-20
-9.588442598238127845e-21
-7.191387481473615681e-21
-5.492957775875005742e-21
-4.253924234883844999e-21
-3.321587733209216727e-21
-2.597830224326838167e-21
-2.020497520597778957e-21
-1.552856918957763868e-21
-1.172979839470711535e-21
-8.671854998919307567e-22
