# bin_10_9
-9.776131938794891512e-09
-1.107234410776842568e-08
-1.233790136697304822e-08
-1.347426536853259596e-08
-1.434968945940692016e-08
-1.480129234070432563e-08
-1.470484768871608954e-08
-1.385659013986618433e-08
-1.233247166010466116e-08
-1.037617334974390280e-08
-8.485226553855243790e-09
-7.110790220511086525e-09
-6.158304120808653703e-09
-4.937691673258494318e-09
-3.427766833666161861e-09
-2.659766231104441385e-09
-1.966265665741665541e-09
-1.377155071127648582e-09
-9.578890121764677250e-10
-6.816469962246968060e-10
-4.694062394546246600e-10
-3.222758231333656290e-10
-2.229979760988344867e-10
-1.556435200599130355e-10
-1.102134591555544418e-10
-7.954345906535033543e-11
-5.855073508418138104e-11
-4.395004211931919984e-11
-3.350830150811478496e-11
-2.579025027862924731e-11
-1.988997197967860407e-11
