# bin_6_3
-7.709584424813389429e-11
-8.466787181178066369e-11
-9.085669326786197591e-11
-9.468365130270049983e-11
-9.524595016851821897e-11
-9.138376208863223371e-11
-8.279097635346237994e-11
-7.092734212031829080e-11
-5.825863349082436065e-11
-4.813570023886338217e-11
-4.143502972198778993e-11
-3.460360099886218708e-11
-2.503807135512305723e-11
-1.828591754256214329e-11
-1.450334488297180236e-11
-9.863459310424159623e-12
-7.377526499114196160e-12
-5.225631847495091599e-12
-3.707339577164443271e-12
-2.662869217860576566e-12
-1.932353592555431435e-12
-1.424354411957130822e-12
-1.068084120889685805e-12
-8.157028038308720820e-13
-6.316326334561234193e-13
-4.931623717618904697e-13
-3.856984152585515737e-13
-2.999925541947141451e-13
-2.305781316084141632e-13
-1.741918103016739182e-13
-1.287991770925587357e-13
