# bin_12_8
2.741260486166813623e-08
3.114812004755008767e-08
3.485094802125295215e-08
3.825230307725457101e-08
4.099294963111216107e-08
4.262064713925633085e-08
4.274639800334161006e-08
4.080327178486154471e-08
3.675869473755387947e-08
3.130030756389194612e-08
2.564826406394264016e-08
2.128046262157876771e-08
1.840620172725756254e-08
1.521195359951980769e-08
1.077389284427961012e-08
8.007547863902345413e-09
6.233770238057192940e-09
4.187964990383534471e-09
3.049287126054787875e-09
2.132397518756416578e-09
1.456539338739377133e-09
9.954765821840293990e-10
6.812917249353765803e-10
4.696710814121156394e-10
3.272635097009462779e-10
2.320871426368376307e-10
1.677954650844703053e-10
1.238872622451561267e-10
9.324044373852844462e-11
7.119625022274926075e-11
5.477700717522441055e-11
