# bin_4_2
3.149004571646865091e-07
3.375919463872689285e-07
3.515254992669822998e-07
3.533426240185612998e-07
3.388578371558878843e-07
3.070352539546456384e-07
2.631585454871973086e-07
2.163765687996909528e-07
1.788317606335851965e-07
1.535820257039652342e-07
1.280349220297681818e-07
9.330201356428213103e-08
6.829641379595473720e-08
5.392638417623819398e-08
3.731758276217833421e-08
2.789636279291109553e-08
1.995485551106735659e-08
1.440406641651869505e-08
1.052897776748847903e-08
7.800231050692294319e-09
5.879106144428450529e-09
4.507541929732935271e-09
3.510281097710241166e-09
2.760211656223339695e-09
2.176928351014348982e-09
1.710193638049240468e-09
1.329149887869387296e-09
1.016003024544276359e-09
7.601789871772562966e-10
5.547148818801470646e-10
3.940689786227302909e-10
