# bin_5_5
5.228368378228742998e-06
5.767808239237162443e-06
6.224007148285577293e-06
6.531977084729068978e-06
6.623881698978795391e-06
6.429676788388338886e-06
5.896712804914793975e-06
5.114005544499432934e-06
4.224157829903577856e-06
3.469605164808664351e-06
2.965904452637991468e-06
2.522066116205758991e-06
1.882538355117632001e-06
1.333897913391437006e-06
1.074250078993119654e-06
7.336339599807691796e-07
5.516012439809041738e-07
3.840623887908779380e-07
2.730090786231331530e-07
1.953868760234794900e-07
1.408046230010047711e-07
1.028579055720476116e-07
7.635830922840162405e-08
5.777863816268470920e-08
4.441476128290063754e-08
3.451267254063751331e-08
2.694510968101361517e-08
2.098354620653411019e-08
1.619080462456099725e-08
1.230582949745049177e-08
9.171071304700110812e-09
