# bin_15_2
1.173139883037811383e-31
1.335913012888176522e-31
1.498951842668136855e-31
1.650919947352307927e-31
1.776777060924105476e-31
1.857413736033361401e-31
1.874483995976406570e-31
1.805413047368349156e-31
1.640955431119031404e-31
1.410107288359769564e-31
1.158970951242157145e-31
9.560002179932375526e-32
8.236462493111822444e-32
6.924649271769891386e-32
5.012689815158086691e-32
3.614911241845227794e-32
2.891498755639317716e-32
1.913913263696192847e-32
1.428136637294871959e-32
9.814819111699048829e-33
6.680658306431737969e-33
4.569957414981389963e-33
3.111919703576829924e-33
2.127579272308565201e-33
1.465622103482803604e-33
1.025895404052772687e-33
7.313141454130081930e-34
5.324387140613439496e-34
3.959218722934245486e-34
2.996801536376144084e-34
2.295101475458051334e-34
