# bin_8_3
3.966988312491043667e-12
4.412840459166995548e-12
4.810818919697904831e-12
5.113756635450601760e-12
5.264167821514726320e-12
5.217055608766187775e-12
4.902854604668686223e-12
4.353084648639683837e-12
3.656035151980010143e-12
2.989978324840688963e-12
2.509181919766951632e-12
2.169559314401318969e-12
1.729395818959946650e-12
1.204380731931247234e-12
9.391746488608702966e-13
6.913745669893794113e-13
4.912110716717596403e-13
3.454440669047750945e-13
2.484437786483938469e-13
1.751048502515718612e-13
1.239759747335000587e-13
8.891586964338996273e-14
6.471245283619686025e-14
4.796597094765397591e-14
3.622480565746664443e-14
2.777789990186647845e-14
2.152775273735097185e-14
1.674874345997024125e-14
1.298743947752334789e-14
9.970364221593760726e-15
7.536011676245513208e-15
