# bin_10_8
1.005013733443977891e-06
1.137630696455777087e-06
1.266787772260218045e-06
1.382296470551710876e-06
1.470559868723749901e-06
1.514868104018213130e-06
1.502516583058170547e-06
1.412853272402736386e-06
1.254974257696620176e-06
1.054026254104512364e-06
8.618811585374176336e-07
7.235150659977845374e-07
6.263978618940027445e-07
4.994431537809999329e-07
3.462064980173380529e-07
2.703003296475379549e-07
1.979877602943275797e-07
1.397840339879471120e-07
9.666265537304239170e-08
6.879737122281199001e-08
4.745197868558824245e-08
3.263541810926430044e-08
2.262347055825489567e-08
1.582178381700886320e-08
1.123252207183074335e-08
8.128763671807567453e-09
5.999428281228425271e-09
4.513769989322756185e-09
3.447083142882743852e-09
2.655335701526570018e-09
2.047830349824424771e-09
