# bin_3_11
-3.199760152311235680e-25
-3.603853051349554107e-25
-3.988687628932297104e-25
-4.319950445824128561e-25
-4.553063468194376257e-25
-4.638330502682464440e-25
-4.530877558581203656e-25
-4.182485652480402010e-25
-3.650677292516988913e-25
-3.025436004591962226e-25
-2.480061637911255761e-25
-2.113891371834392979e-25
-1.812767286574022550e-25
-1.372112112290712611e-25
-9.574319597184865609e-26
-7.747942204377162884e-26
-5.270985869971793367e-26
-3.946980220881589616e-26
-2.684940188218650997e-26
-1.878987472277536623e-26
-1.314210394966327060e-26
-9.190543584318025214e-27
-6.470442615597635484e-27
-4.607636624850203240e-27
-3.343905096856163567e-27
-2.474391013513127844e-27
-1.864644649983997203e-27
-1.426602960818218818e-27
-1.101254653350534407e-27
-8.516128817247701777e-28
-6.549219904754751970e-28
