# bin_6_7
-1.147094993608920598e-11
-1.277897718336889011e-11
-1.395649891025811833e-11
-1.486829915953674772e-11
-1.534794748841289116e-11
-1.526217730719748668e-11
-1.440702383865613832e-11
-1.284614372321686573e-11
-1.083319008453550248e-11
-8.866335277387572082e-12
-7.417816824250331397e-12
-6.415124544845019746e-12
-5.167927591621073178e-12
-3.617727096548328902e-12
-2.784601741470482150e-12
-2.085215178736530242e-12
-1.460876378913344483e-12
-1.039864096560773165e-12
-7.452689430391780221e-13
-5.236673307171774482e-13
-3.698525771574707160e-13
-2.643442274107319944e-13
-1.916939573586475980e-13
-1.415069284913728171e-13
-1.064679241403651206e-13
-8.138947944256999509e-14
-6.294352223038886393e-14
-4.892665860219027072e-14
-3.795047077428713777e-14
-2.917432697375151861e-14
-2.210066044745929793e-14
