# bin_3_2
-7.220009724183990756e-10
-7.425519908790100525e-10
-7.350424083510768258e-10
-6.923817429448828578e-10
-6.172038134259293039e-10
-5.225921235585774055e-10
-4.303029768017013966e-10
-3.596784453912341407e-10
-3.065346132697745337e-10
-2.463627235995146242e-10
-1.795272349846571820e-10
-1.354242576200541003e-10
-1.027406495217969222e-10
-7.381516305512088900e-11
-5.438544495141263847e-11
-3.963982404013110696e-11
-2.920187887884412128e-11
-2.181169339562100466e-11
-1.657034160911413526e-11
-1.281179212588362629e-11
-1.005556395626199662e-11
-7.972918915079109262e-12
-6.341221715959066256e-12
-5.022984887959658434e-12
-3.935855969895519585e-12
-3.032223454092474617e-12
-2.285541477864598775e-12
-1.679696911794958620e-12
-1.201499945319299399e-12
-8.367564285005234574e-13
-5.684043898959512521e-13
