# bin_10_3
-1.381788714962555401e-09
-1.475639131120854686e-09
-1.529476473864518305e-09
-1.528469005640793049e-09
-1.455585747760795432e-09
-1.310882772099224397e-09
-1.118299727584651215e-09
-9.205800177415613112e-10
-7.651461688872586372e-10
-6.553283815156742324e-10
-5.373299634601329728e-10
-3.917559957080230170e-10
-2.913513157385471215e-10
-2.245313863703457024e-10
-1.587775943422993967e-10
-1.169467710658137703e-10
-8.410021098121794465e-11
-6.099753856369960878e-11
-4.470544745754442402e-11
-3.323709391746459297e-11
-2.514094277314868466e-11
-1.934002916628552892e-11
-1.509428989797739259e-11
-1.188063649839825295e-11
-9.367206174499088261e-12
-7.347456460136288439e-12
-5.695579457401922654e-12
-4.338769172839590869e-12
-3.233405941166450731e-12
-2.349813928649664958e-12
-1.662963794000539177e-12
