# bin_6_4
-4.758140884038986097e-10
-5.167992391262742856e-10
-5.470078812252982186e-10
-5.605452855650544996e-10
-5.520840604530480745e-10
-5.155636365595210251e-10
-4.551564308201405582e-10
-3.812429346284332229e-10
-3.125892351576240294e-10
-2.633587773365994051e-10
-2.259759299191706191e-10
-1.775136628821579541e-10
-1.255706027965535113e-10
-9.789878298196779335e-11
-7.160775449180042180e-11
-5.165845120164262253e-11
-3.698540199725179727e-11
-2.671782516680935926e-11
-1.923324319380107534e-11
-1.399161923277997300e-11
-1.033501151582007889e-11
-7.764607694544410904e-12
-5.937247587597766237e-12
-4.607096934665240608e-12
-3.606857321199786370e-12
-2.830722886304738484e-12
-2.211527632799020112e-12
-1.708644583899072869e-12
-1.298205162301656400e-12
-9.656354437252252826e-13
-7.009086286487753733e-13
