# bin_14_1
-3.643873482078814009e-09
-3.572969986325040516e-09
-3.337878249846896227e-09
-2.959298678914327741e-09
-2.506629782741712794e-09
-2.076759797504672484e-09
-1.736829661340392440e-09
-1.457477263528776080e-09
-1.160734916001276755e-09
-8.637560764809022915e-10
-6.476355082553444680e-10
-4.887784768244402829e-10
-3.566419209767784420e-10
-2.629741769411988306e-10
-1.938368351863745855e-10
-1.446312156525684003e-10
-1.095370018208128450e-10
-8.443551557652757797e-11
-6.617451958975353362e-11
-5.251724773907753815e-11
-4.195300683016480686e-11
-3.349104389633817853e-11
-2.652879679869138531e-11
-2.071845193397416762e-11
-1.586737680686058466e-11
-1.186860535345415558e-11
-8.649654425622512111e-12
-6.137710665732783075e-12
-4.244795057196118543e-12
-2.867670487955825708e-12
-1.898045404238502282e-12
