# bin_6_13
-6.625675243919368048e-20
-7.524808374609761109e-20
-8.413834152781811687e-20
-9.227508605678395171e-20
-9.878451444206610064e-20
-1.025684130735888395e-19
-1.027084183285073139e-19
-9.781644783673622031e-20
-8.793336338141161955e-20
-7.471503023554868992e-20
-6.120737137682328355e-20
-5.089152252658517636e-20
-4.405171437648326550e-20
-3.621379178603782266e-20
-2.552700675790815496e-20
-1.914366936090916296e-20
-1.476550287514538123e-20
-9.990339924032410721e-21
-7.209933126187619188e-21
-5.066076507908887471e-21
-3.465679876995964003e-21
-2.369360843632981914e-21
-1.624842350193376681e-21
-1.122896436040394269e-21
-7.849562771218544668e-22
-5.586501631944769336e-22
-4.053955541076024883e-22
-3.003713744152556409e-22
-2.267188110418038134e-22
-1.734504031456809497e-22
-1.335562995276480790e-22
