# bin_14_13
-3.725727665895907592e-11
-4.255911839583251664e-11
-4.794408671669513660e-11
-5.305992470770601524e-11
-5.744480948459363667e-11
-6.050033479223865206e-11
-6.156924371854012899e-11
-6.003763793901592869e-11
-5.529626517679645439e-11
-4.815632879366153343e-11
-3.984754709706816103e-11
-3.269058872427847437e-11
-2.793066685422891198e-11
-2.390474983716592748e-11
-1.794226788450555533e-11
-1.254109018183035619e-11
-1.016781507964336562e-11
-6.813570483511924266e-12
-5.108446230238255676e-12
-3.437960058564588938e-12
-2.354496057504957450e-12
-1.610900707575585746e-12
-1.093218878771695618e-12
-7.399832624266916317e-13
-5.021636178518366702e-13
-3.450723762714010076e-13
-2.408702907875482390e-13
-1.714904560387919919e-13
-1.248644534873000908e-13
-9.288773777960980668e-14
-7.031419110889510583e-14
