# bin_15_1
-3.678321889086410151e-09
-3.607036413525515238e-09
-3.370015163129542989e-09
-2.988058888057257491e-09
-2.531152090072746705e-09
-2.097087990952830365e-09
-1.753778643714647333e-09
-1.471760818775043353e-09
-1.172271365819630632e-09
-8.723876044210916565e-10
-6.540667875891755565e-10
-4.936621785408544555e-10
-3.602052095963974377e-10
-2.655975329679283304e-10
-1.957656101435246496e-10
-1.460649330467202550e-10
-1.106175246291517972e-10
-8.526419118363226773e-11
-6.682103730971907114e-11
-5.302860845843675078e-11
-4.236079180961017256e-11
-3.381658570602744151e-11
-2.678709947253354667e-11
-2.092081970132172672e-11
-1.602303688315966758e-11
-1.198563954527283764e-11
-8.735420970839729954e-12
-6.198904889883751323e-12
-4.287331844047407905e-12
-2.896535187481885778e-12
-1.917221541879665134e-12
