# bin_15_15
-1.336041873032666167e-11
-1.531007189035296036e-11
-1.731456418965433988e-11
-1.925238830678497194e-11
-2.096418498092339602e-11
-2.223875648148986121e-11
-2.282160706460651080e-11
-2.251912105052773000e-11
-2.103118591690875456e-11
-1.856134409230358735e-11
-1.550046160497487391e-11
-1.268006797655831270e-11
-1.071537242911013404e-11
-9.264600545562176255e-12
-7.233296464239842611e-12
-4.990725515334777358e-12
-3.978991765469514987e-12
-2.805588551151669607e-12
-2.032850126945222887e-12
-1.363634205124213973e-12
-9.555325856245409783e-13
-6.492249760802904872e-13
-4.364695586508047926e-13
-2.927630024823195628e-13
-1.960551957489577081e-13
-1.322397926487436958e-13
-9.026284498345359590e-14
-6.263405400251445575e-14
-4.440772541030909575e-14
-3.223112068118126447e-14
-2.392208546602948853e-14
