# bin_4_15
-5.045547859853734928e-30
-5.747264595530486077e-30
-6.450968488068479604e-30
-7.107982872077067095e-30
-7.653708691131518553e-30
-8.005944126355921013e-30
-8.085022925915187381e-30
-7.794224139299536841e-30
-7.090954670845319877e-30
-6.099400842764765674e-30
-5.015967004153903043e-30
-4.136995149642106688e-30
-3.563691021586338715e-30
-3.000048177423214810e-30
-2.175808996433138839e-30
-1.566208086613577915e-30
-1.255168980748497546e-30
-8.302736845057755668e-31
-6.205818457057186042e-31
-4.260632462660774731e-31
-2.899765066732536761e-31
-1.983951512818018154e-31
-1.350621656518161089e-31
-9.229112681792598554e-32
-6.352679550394670546e-32
-4.442491015377019355e-32
-3.163470551171106189e-32
-2.300686368185275024e-32
-1.709139991063462756e-32
-1.292747548781292308e-32
-9.896620103691091197e-33
