# bin_5_6
-1.296934569784164204e-11
-1.432878694845651797e-11
-1.549030102231054313e-11
-1.629362421898633900e-11
-1.656584575325532256e-11
-1.613922440374276940e-11
-1.486271849037916877e-11
-1.294284427639601658e-11
-1.071876592475811636e-11
-8.796239048132694642e-12
-7.500022247035783604e-12
-6.403349842205223529e-12
-4.831597122275027640e-12
-3.404108967959426302e-12
-2.738507486989400527e-12
-1.886505464820388649e-12
-1.411288010110785939e-12
-9.801855218431511498e-13
-6.984897117465743945e-13
-4.989733224059464976e-13
-3.586868973201144354e-13
-2.612768476531694249e-13
-1.933494505745828974e-13
-1.458468839017356841e-13
-1.118242105786083416e-13
-8.673583325715805656e-14
-6.765963478297163749e-14
-5.269747191953264687e-14
-4.070331421553444061e-14
-3.099203300142164951e-14
-2.315294309016385560e-14
