# bin_7_14
-3.440566608013452092e-19
-3.917971980575207192e-19
-4.396097222951782498e-19
-4.841688826373506637e-19
-5.210565230882656277e-19
-5.446588078541781483e-19
-5.496088476284968611e-19
-5.292274850975262785e-19
-4.809036732814886234e-19
-4.131536975543081493e-19
-3.395964022791722691e-19
-2.802737864730828696e-19
-2.415969476508197324e-19
-2.029820670166012217e-19
-1.467430218940564044e-19
-1.060211770073725594e-19
-8.474024604723921106e-20
-5.609358459459197222e-20
-4.183862801008441654e-20
-2.878834795634983052e-20
-1.959665872157697334e-20
-1.340504963045697948e-20
-9.129417702088518784e-21
-6.244723789670623192e-21
-4.304799389408245671e-21
-3.015610071600351216e-21
-2.151517615827523383e-21
-1.567801594835293393e-21
-1.166745233893912155e-21
-8.836949495821236501e-22
-6.770629972087031853e-22
