# bin_3_1
-1.958470428567416043e-09
-1.906450088115193241e-09
-1.765971368818231828e-09
-1.552761618296866863e-09
-1.307491766681842134e-09
-1.082743849079644019e-09
-9.080061553041262750e-10
-7.590147364515074303e-10
-5.967289719360456181e-10
-4.418197993658587015e-10
-3.332266769982125243e-10
-2.500440286940355230e-10
-1.824590318014099804e-10
-1.347341606202652148e-10
-9.954744325517116849e-11
-7.453941943792345502e-11
-5.670838392377851332e-11
-4.391685620170652830e-11
-3.456020815691890736e-11
-2.751052957491634820e-11
-2.201065251439040493e-11
-1.757056371795166704e-11
-1.389682756256977930e-11
-1.082231244563391127e-11
-8.255791674320709084e-12
-6.146216906560841053e-12
-4.456457814131638119e-12
-3.146138793986181544e-12
-2.165495431118303799e-12
-1.456802439516112597e-12
-9.608026481968910823e-13
