# bin_6_8
-1.249126302784492329e-12
-1.397862107187124212e-12
-1.535130165989127226e-12
-1.646697962483353067e-12
-1.714613362188486148e-12
-1.722802271770789469e-12
-1.649390268419216265e-12
-1.490695417732138181e-12
-1.273784142677310142e-12
-1.045326790193229507e-12
-8.655908099732387012e-13
-7.470581983643963680e-13
-6.210456945864997254e-13
-4.447385148629230380e-13
-3.272980559254152340e-13
-2.576628593798525365e-13
-1.737961984088342369e-13
-1.285989202136505638e-13
-9.048503219514640332e-14
-6.302848411731057658e-14
-4.428500152923054082e-14
-3.132202714127595766e-14
-2.244270826910057245e-14
-1.633738638233642621e-14
-1.213120332461588448e-14
-9.170037607654392942e-15
-7.034047885113986031e-15
-5.445349557043871655e-15
-4.224040864476880050e-15
-3.259867772858747773e-15
-2.486821720953186286e-15
