# bin_7_8
-1.032156896760832356e-11
-1.157243723207135453e-11
-1.273816207867331271e-11
-1.370304286519949118e-11
-1.432008987497815216e-11
-1.444830821297584012e-11
-1.391583125587565574e-11
-1.265312417972253981e-11
-1.087863073152174810e-11
-8.947583467297743789e-12
-7.382102981797252800e-12
-6.353249834133118959e-12
-5.339623928320269521e-12
-3.880779633455160457e-12
-2.802641240729358518e-12
-2.239354597424359476e-12
-1.500667943920852712e-12
-1.123276271956049366e-12
-7.815877604049412648e-13
-5.435551614281184128e-13
-3.816321238843303800e-13
-2.689888539508130607e-13
-1.917293886925906589e-13
-1.386815479841193285e-13
-1.023255128061092713e-13
-7.690806437402610980e-14
-5.872725013973322527e-14
-4.533867395731327037e-14
-3.514179745087726271e-14
-2.714951842066523509e-14
-2.076639435079325663e-14
