# bin_13_4
-1.081395127558639109e-09
-1.176857400939324183e-09
-1.248717627785342605e-09
-1.283467582256462776e-09
-1.269013121033702989e-09
-1.190902010630159376e-09
-1.056433815651603232e-09
-8.884764743752910019e-10
-7.286041337130131163e-10
-6.117055624874768805e-10
-5.255118443825436148e-10
-4.176395277194442249e-10
-2.963228399525950566e-10
-2.285584022946859418e-10
-1.695836842374564941e-10
-1.211221408351909637e-10
-8.727211780866638487e-11
-6.286704707955014679e-11
-4.514046591569620395e-11
-3.275269529085316451e-11
-2.411188690889186038e-11
-1.805105828110924848e-11
-1.375426661406666209e-11
-1.064281411371511087e-11
-8.316478822794063443e-12
-6.521544676383251538e-12
-5.096478706160935882e-12
-3.942650159745326255e-12
-3.002047131789023963e-12
-2.239447383764959871e-12
-1.631107472771089199e-12
