# bin_10_1
-3.414566540661169207e-09
-3.346226571139539062e-09
-3.124000831731438475e-09
-2.767914465247380920e-09
-2.343459674471479556e-09
-1.941497889128841374e-09
-1.624046880470285006e-09
-1.362434473743853240e-09
-1.083985859331996917e-09
-8.063356505857763135e-10
-6.048477675292310808e-10
-4.562902216394605289e-10
-3.329371590730972892e-10
-2.455221071999238709e-10
-1.810050666168707290e-10
-1.350926702561829011e-10
-1.023478758023775327e-10
-7.892171346911955864e-11
-6.187253442335097711e-11
-4.911447909650756231e-11
-3.923941128207341068e-11
-3.132473160977956823e-11
-2.480995647183697546e-11
-1.937186909057441568e-11
-1.483164293954716304e-11
-1.108992563729770919e-11
-8.079047058740586812e-12
-5.730608233309547594e-12
-3.961829191292131796e-12
-2.675664055163253554e-12
-1.770491775596595410e-12
