# bin_7_6
-1.510461400422504527e-10
-1.676020129981875055e-10
-1.821557297770623636e-10
-1.928836075009302701e-10
-1.976545391714956860e-10
-1.946722290918886240e-10
-1.815968326137080747e-10
-1.601170892984246170e-10
-1.337887509821737606e-10
-1.095488643553059996e-10
-9.249739615841688731e-11
-7.966250538933148144e-11
-6.224822355890743820e-11
-4.347809062365896588e-11
-3.436398681735021578e-11
-2.464983542178013292e-11
-1.788427719110305314e-11
-1.249582109209292256e-11
-8.956366144796415109e-12
-6.345624055858681264e-12
-4.518861538004743420e-12
-3.259446429727813563e-12
-2.386632917388862355e-12
-1.780581347866419527e-12
-1.352412433075536600e-12
-1.041613959199654679e-12
-8.093271787642934152e-13
-6.299981010332152838e-13
-4.878521668658145643e-13
-3.734032919722203754e-13
-2.810284147158502107e-13
