# bin_10_14
-3.334901735131636251e-14
-3.806041389137811832e-14
-4.282719872602933179e-14
-4.733176044713003145e-14
-5.115621305167600608e-14
-5.376259194401492952e-14
-5.458068639037232074e-14
-5.303301526956553065e-14
-4.864861262254461936e-14
-4.219829990159541065e-14
-3.483661206955975162e-14
-2.861683259417253731e-14
-2.452292113324486447e-14
-2.089860113470204548e-14
-1.550619306166162414e-14
-1.091386482078836957e-14
-8.854845790804767374e-15
-5.874070068050549973e-15
-4.423437886642654860e-15
-2.993200468802562116e-15
-2.040135763096673118e-15
-1.397024531650854484e-15
-9.492905590355139925e-16
-6.444002515156145284e-16
-4.392051880482618498e-16
-3.035097097914652394e-16
-2.132466177237044179e-16
-1.529144005508906105e-16
-1.121217884809911432e-16
-8.391667776375121621e-17
-6.380594743931923941e-17
