# bin_2_12
-7.017969306523854873e-32
-7.926628884032672877e-32
-8.802943067237772276e-32
-9.573968479592758671e-32
-1.014332583140423693e-31
-1.039638827162791497e-31
-1.024286273096705976e-31
-9.551317704983067562e-32
-8.418056475828967509e-32
-7.024340335909636538e-32
-5.747486979183617696e-32
-4.860094635619402801e-32
-4.196778201216013175e-32
-3.268299523227863583e-32
-2.262288526024203506e-32
-1.805234266105604583e-32
-1.273707325862138962e-32
-9.285417792251972795e-33
-6.317746350627058036e-33
-4.474526543967895062e-33
-3.107951550626041319e-33
-2.155047760296085051e-33
-1.504950851446021761e-33
-1.061144775008351973e-33
-7.611643025494620168e-34
-5.567252395905608340e-34
-4.150967577099947145e-34
-3.149726836418297114e-34
-2.419355491826175993e-34
-1.868425943706088175e-34
-1.439944469487747432e-34
