# bin_1_10
-8.110368765616751278e-32
-9.081999399784599964e-32
-9.981769738783252327e-32
-1.071776832934367817e-31
-1.117377532125564327e-31
-1.124335156062140474e-31
-1.078627359629454988e-31
-9.768068449219188418e-32
-8.363652343166199432e-32
-6.867915207422384308e-32
-5.679422391588402824e-32
-4.898065959956197353e-32
-4.088151934326736437e-32
-2.940654601026622327e-32
-2.149978590816995582e-32
-1.702658129864807710e-32
-1.144350497447586424e-32
-8.509078148411262580e-33
-5.965814862273797407e-33
-4.151942976856500745e-33
-2.916231669481064653e-33
-2.059903047352887139e-33
-1.473359828443511646e-33
-1.070282504635478315e-33
-7.930922795656168672e-34
-5.984077164611304608e-34
-4.583721916347361260e-34
-3.545585414381357063e-34
-2.749911904238382321e-34
-2.123164215228662974e-34
-1.621216475770629166e-34
