# bin_8_13
-7.916454559297169357e-16
-9.005887756994081514e-16
-1.009176237712955022e-15
-1.109705583305312646e-15
-1.191905773497736134e-15
-1.242784122152949222e-15
-1.250526470229316219e-15
-1.199186246456272289e-15
-1.085205456382933876e-15
-9.283761322330029434e-16
-7.619483590151013276e-16
-6.304805876153436269e-16
-5.445581307518307480e-16
-4.540421641510999589e-16
-3.248319979717464931e-16
-2.379445888448270852e-16
-1.879513782303729095e-16
-1.251424166299188208e-16
-9.237237333320165698e-17
-6.406908235174027729e-17
-4.367619936741262683e-17
-2.985968533776169377e-17
-2.037771206930012948e-17
-1.399136293015110819e-17
-9.695845161243335468e-18
-6.833414919567352076e-18
-4.907655689486932287e-18
-3.599949374503344241e-18
-2.694585303077688424e-18
-2.049637125785857646e-18
-1.574059813376824327e-18
