# bin_1_15
-8.455762263701929134e-44
-9.628802094859731065e-44
-1.080346134773256695e-43
-1.189799825613426758e-43
-1.280380616491272934e-43
-1.338288022952397993e-43
-1.350346634633641067e-43
-1.300149200031918045e-43
-1.181359773489485016e-43
-1.014866060218704710e-43
-8.342089156823062203e-44
-6.885537514491355674e-44
-5.935045911819334351e-44
-4.985082767235034010e-44
-3.604050312484153755e-44
-2.604922562596457134e-44
-2.080476422254473451e-44
-1.378387305519975288e-44
-1.027220480700289951e-44
-7.069107955308663899e-45
-4.813178876961675491e-45
-3.292444993789527684e-45
-2.242692854093484179e-45
-1.534195234029353377e-45
-1.057701640371027155e-45
-7.410167472701992787e-46
-5.287376313020952382e-46
-3.853197749571292279e-46
-2.867644528736717324e-46
-2.171948986002289961e-46
-1.663995116565961594e-46
