# bin_8_10
-1.465176954160889814e-12
-1.656101092315500400e-12
-1.840831485178613731e-12
-2.004262117215812604e-12
-2.126357447897211544e-12
-2.183003999493501897e-12
-2.155522299579254867e-12
-2.015485203020234713e-12
-1.780916201364906047e-12
-1.489184551254073384e-12
-1.218260943769795628e-12
-1.027865903563357761e-12
-8.885208073527458528e-13
-6.972465422817058509e-13
-4.826066684424348167e-13
-3.826790690929380644e-13
-2.732159298450345323e-13
-1.972221170535765378e-13
-1.347252467286481066e-13
-9.564541162062211855e-14
-6.628676160064454675e-14
-4.583982471991423208e-14
-3.193864541303051651e-14
-2.246145024376262091e-14
-1.605948835768029817e-14
-1.170718116744118375e-14
-8.701516905468498973e-15
-6.585639656281083607e-15
-5.049889196227405100e-15
-3.897232693445135367e-15
-3.004426485528272965e-15
