# bin_9_3
-1.299417088382093151e-09
-1.387445979017130019e-09
-1.437775001397676359e-09
-1.436470501018164268e-09
-1.367523784986642952e-09
-1.231158427660739382e-09
-1.049960900935489201e-09
-8.642369903866265320e-10
-7.184500262067000145e-10
-6.153745879996714049e-10
-5.042691138210195184e-10
-3.674484280556131157e-10
-2.734582181932007989e-10
-2.106330372540256563e-10
-1.489656142448820819e-10
-1.097075555895325199e-10
-7.890955607064438215e-11
-5.723669478010874831e-11
-4.195603208511232266e-11
-3.119959590564940661e-11
-2.360498275560334432e-11
-1.816233861244624855e-11
-1.417753082060589395e-11
-1.116023980108590195e-11
-8.799542298689234172e-12
-6.901967732728015069e-12
-5.349730975741551488e-12
-4.074690779126993424e-12
-3.036007768526715589e-12
-2.205855389199857993e-12
-1.560708078524233515e-12
