# bin_12_7
-3.603563263390911589e-10
-4.034732386586604751e-10
-4.433742955910149067e-10
-4.759755323981510576e-10
-4.961185934776259736e-10
-4.990584680301448923e-10
-4.786824807688247056e-10
-4.335581019610895303e-10
-3.713282081852630714e-10
-3.051495534052523981e-10
-2.524843269633159489e-10
-2.174937518422001353e-10
-1.812394180806115934e-10
-1.307984554966717292e-10
-9.571042140320664564e-11
-7.541202754992240367e-11
-5.107519234254907201e-11
-3.777685682298883477e-11
-2.645451360364079123e-11
-1.844877226438701229e-11
-1.296214321279424747e-11
-9.160170515601604207e-12
-6.551153733145584886e-12
-4.757696135420818527e-12
-3.524074952245823613e-12
-2.657723133373161090e-12
-2.034631850543384196e-12
-1.572881625914238936e-12
-1.219210889430595444e-12
-9.408716525244489561e-13
-7.181714172089254305e-13
