# bin_12_4
-1.033354228680573695e-09
-1.124493460108834447e-09
-1.193047553599202406e-09
-1.226112235016817148e-09
-1.212130376755197588e-09
-1.137315327538474938e-09
-1.008720065685842109e-09
-8.482224422813785073e-10
-6.955882605371222628e-10
-5.840611802168396395e-10
-5.017416760836853735e-10
-3.985813072815744971e-10
-2.827683236065200942e-10
-2.181884960688636221e-10
-1.618066963025897901e-10
-1.156084607973816167e-10
-8.328044615383175548e-11
-5.999780173339035434e-11
-4.308415857339459313e-11
-3.126364768211017014e-11
-2.301848988927421955e-11
-1.723472706744701780e-11
-1.313394839264630344e-11
-1.016387736508105615e-11
-7.942783905821139812e-12
-6.228696015620122469e-12
-4.867573591516275782e-12
-3.765392210482835297e-12
-2.866851709873118153e-12
-2.138369748985528170e-12
-1.557291951862098302e-12
