# bin_13_2
-2.319527792474742031e-09
-2.404310659550548092e-09
-2.403418819681362248e-09
-2.292640012123334063e-09
-2.070779212208650150e-09
-1.773896874541289765e-09
-1.466148049920333974e-09
-1.217774676458419990e-09
-1.036523620333688227e-09
-8.510830809712671943e-10
-6.320615548127429423e-10
-4.676962986086959691e-10
-3.593932625907049993e-10
-2.585821020845415152e-10
-1.902422058699867765e-10
-1.381312655049656322e-10
-1.013845862265000437e-10
-7.521311777658616289e-11
-5.669547505401106244e-11
-4.349963690072162991e-11
-3.391220811318294611e-11
-2.676006803953545316e-11
-2.123415609350117700e-11
-1.682299919841347329e-11
-1.321621951885861383e-11
-1.023050351179531248e-11
-7.762024710212417045e-12
-5.749584793875744341e-12
-4.148085005091489218e-12
-2.913536445350074559e-12
-1.994790971372114659e-12
