# bin_11_1
-3.482802055068623071e-09
-3.413698994731778496e-09
-3.187644413823890500e-09
-2.824864484659640538e-09
-2.392013889451877094e-09
-1.981747505106002014e-09
-1.657607498490185543e-09
-1.390716183131001945e-09
-1.106823758983451181e-09
-8.234219736446450706e-10
-6.175799640306109108e-10
-4.659575959088713675e-10
-3.399908762127673926e-10
-2.507152419769488232e-10
-1.848233644295426569e-10
-1.379310205486414512e-10
-1.044871226762037093e-10
-8.056244298052541451e-11
-6.315266897973498534e-11
-5.012703687871935487e-11
-4.004689332824085075e-11
-3.196935912038570029e-11
-2.532142980146540959e-11
-1.977256962635134434e-11
-1.513984402868731120e-11
-1.132163513360406356e-11
-8.248840633100826293e-12
-5.851747934318634286e-12
-4.046029923469395005e-12
-2.732798333908688416e-12
-1.808447133140153535e-12
