# bin_6_13
-9.853427043228647344e-16
-1.119642172202141100e-15
-1.252735749572151127e-15
-1.374956844844533401e-15
-1.473352935380336696e-15
-1.531602991349144170e-15
-1.535796981880502975e-15
-1.465323626995831553e-15
-1.319751332713587201e-15
-1.122910293106014469e-15
-9.208819274949240105e-16
-7.650136811552136373e-16
-6.620367816269171423e-16
-5.461998722337777894e-16
-3.862960530845113259e-16
-2.882198117321454862e-16
-2.236220247840159024e-16
-1.506972449034470159e-16
-1.093725810677189401e-16
-7.664464561534451579e-17
-5.239249478441725688e-17
-3.581648726573811490e-17
-2.453275534061047105e-17
-1.692937031323417468e-17
-1.181141126521703257e-17
-8.387758285845160190e-18
-6.072671210806337849e-18
-4.489561825424759313e-18
-3.382634976771286014e-18
-2.584835568013653915e-18
-1.989408587435193853e-18
