# bin_5_5
-2.048606708020600352e-08
-2.260356634070436101e-08
-2.439567121508027345e-08
-2.560715447742422960e-08
-2.597243466200095435e-08
-2.521300526937478484e-08
-2.312646857047678763e-08
-2.005236467090611426e-08
-1.657736055487463666e-08
-1.362594877177061958e-08
-1.165522982160346905e-08
-9.908446479823698527e-09
-7.390360834766156665e-09
-5.244394347692789437e-09
-4.223556104037832777e-09
-2.883621357838950402e-09
-2.169215794596671350e-09
-1.511427572150703251e-09
-1.074396114433513106e-09
-7.690996165285045603e-10
-5.544195663460533921e-10
-4.051375790576761386e-10
-3.008695662630900530e-10
-2.277391705292983006e-10
-1.751139035157447218e-10
-1.361042073275089084e-10
-1.062778841901960037e-10
-8.277158561538405992e-11
-6.386792998880155340e-11
-4.854149084567736806e-11
-3.617317207934797091e-11
