# bin_11_2
-3.972816847492364990e-25
-4.472635505930218199e-25
-4.947683380866109903e-25
-5.355097763592911229e-25
-5.639336770907301759e-25
-5.739518192282142450e-25
-5.598135010541610082e-25
-5.159051025550207803e-25
-4.494214840245601547e-25
-3.723097717500607778e-25
-3.054506789337659098e-25
-2.607698757469399896e-25
-2.232167661045510970e-25
-1.680756640218040869e-25
-1.176816110981412670e-25
-9.529903676437500175e-26
-6.453673619288505367e-26
-4.846101676802206558e-26
-3.303826518218715518e-26
-2.308154077060331822e-26
-1.615842342791898010e-26
-1.131373799799357022e-26
-7.977709588352819253e-27
-5.692169719110872692e-27
-4.140032270153331540e-27
-3.069952245036618273e-27
-2.317742584443998460e-27
-1.775674696534158119e-27
-1.371733183426071385e-27
-1.060866037867143561e-27
-8.154262790083605145e-28
