# bin_15_8
-2.383793083880714395e-14
-2.722218513185520756e-14
-3.065484476081009635e-14
-3.390993629313859476e-14
-3.669040084597275288e-14
-3.861225326046168601e-14
-3.926019301116489169e-14
-3.822941981722500695e-14
-3.515246412113793986e-14
-3.055205309540684729e-14
-2.527143043738080237e-14
-2.074757012408783500e-14
-1.775640672854587370e-14
-1.517368481220627119e-14
-1.132746270402843652e-14
-7.939932826866830563e-15
-6.448846965317513767e-15
-4.293570833326994756e-15
-3.231890415995103134e-15
-2.180047989546539048e-15
-1.488474622904508409e-15
-1.019198973958706428e-15
-6.923213761458717660e-16
-4.692584154624911491e-16
-3.190877450943454824e-16
-2.198521737166359080e-16
-1.539360898936314812e-16
-1.099703311416998424e-16
-8.034181810476784568e-17
-5.994668760463113090e-17
-4.548230455777323487e-17
