# bin_13_2
-7.552679640950379045e-30
-8.559890442859292262e-30
-9.546139891809823447e-30
-1.043563644497849595e-29
-1.112683152678008278e-29
-1.149365615535044205e-29
-1.143817217268525619e-29
-1.080185400465270637e-29
-9.634747552708233606e-30
-8.122360593164517993e-30
-6.648624800734214553e-30
-5.567042556427724319e-30
-4.822424303657467685e-30
-3.883989341248728638e-30
-2.703766847231225075e-30
-2.087303215589619374e-30
-1.554291404557266311e-30
-1.082688370403448476e-30
-7.577372661008420392e-31
-5.383243834490262446e-31
-3.704005074335350383e-31
-2.541253311738640730e-31
-1.755997467119047800e-31
-1.223710688649693248e-31
-8.647781709073392298e-32
-6.227462102885297156e-32
-4.573653296213996357e-32
-3.426245052980433927e-32
-2.608295945036573134e-32
-2.005828460164149313e-32
-1.546737517823073941e-32
