# bin_4_14
-1.301923382979831168e-23
-1.480419053654034342e-23
-1.657910697357372230e-23
-1.821691594081949702e-23
-1.954765481774319098e-23
-2.035657989168272561e-23
-2.045414124999571264e-23
-1.957224392085081411e-23
-1.767719468114363438e-23
-1.508312486424865802e-23
-1.237991923485526635e-23
-1.026356821191496817e-23
-8.873910245479162542e-24
-7.365155962980900057e-24
-5.241717526039640460e-24
-3.872190679624295210e-24
-3.034867445446959226e-24
-2.031214183663071761e-24
-1.488435295251803097e-24
-1.037324692657926267e-24
-7.080319377078396128e-25
-4.840241486346403138e-25
-3.308488346541319197e-25
-2.276822175275654041e-25
-1.582674156173282309e-25
-1.119293618434366427e-25
-8.068225498977090534e-26
-5.939720656670956524e-26
-4.459516934303620337e-26
-3.399488065748840837e-26
-2.613508878032084375e-26
