# bin_8_12
-8.227880278336580456e-11
-9.350655145362388480e-11
-1.046410348380807228e-10
-1.148759417628528680e-10
-1.231311816065539096e-10
-1.280450229496430692e-10
-1.284488684645173082e-10
-1.226258752680722511e-10
-1.105047669131151442e-10
-9.407485640018116873e-11
-7.716100111215634434e-11
-6.407381410358030218e-11
-5.544089857365305649e-11
-4.579700195582397428e-11
-3.242712835444878053e-11
-2.414635330458178278e-11
-1.877425660495875559e-11
-1.263242784925264887e-11
-9.186969327872003797e-12
-6.431088755271276207e-12
-4.394721650147776768e-12
-3.004190447302764964e-12
-2.056809980756561912e-12
-1.418559600746968465e-12
-9.889849673485255518e-13
-7.017437333982351349e-13
-5.076195727933414970e-13
-3.749773106183352044e-13
-2.823337230032899534e-13
-2.156473540526286640e-13
-1.659406671654980551e-13
