# bin_7_6
-1.022389709843786583e-08
-1.142471270648464516e-08
-1.252423735835641403e-08
-1.340443022603616352e-08
-1.391715479414364516e-08
-1.393680552999262622e-08
-1.327875823544025060e-08
-1.194617593894221540e-08
-1.015599757728559819e-08
-8.328266472003781773e-09
-6.922198772479270443e-09
-5.984600849360303652e-09
-4.924733376779644400e-09
-3.490148506968696732e-09
-2.612713246033536582e-09
-2.024028559033312777e-09
-1.380335679527351893e-09
-1.007612885064909201e-09
-7.153880756175368089e-10
-4.996743563643294252e-10
-3.514525607977240807e-10
-2.494512979292915301e-10
-1.795314261293993612e-10
-1.313811281984585374e-10
-9.805096908475016978e-11
-7.444586797537221408e-11
-5.729806612052165003e-11
-4.444067610789106049e-11
-3.448493993804828407e-11
-2.658365941745386585e-11
-2.023249374516654225e-11
