# bin_13_3
-2.085344215948732822e-25
-2.364403966490569924e-25
-2.638160502678726420e-25
-2.885770163734307285e-25
-3.079284303903730427e-25
-3.183890638620220710e-25
-3.172315160878147591e-25
-3.000548350423338900e-25
-2.680316284189559692e-25
-2.262606057515320850e-25
-1.852395614095140837e-25
-1.549109541649543591e-25
-1.341997234390126099e-25
-1.085143396015745674e-25
-7.567000405684083888e-26
-5.812812252932362198e-26
-4.357478332231706635e-26
-3.018034197761760141e-26
-2.123224321777099318e-26
-1.506699761252708890e-26
-1.035553960793191208e-26
-7.097841066641270598e-27
-4.897758586092332606e-27
-3.408029767318640458e-27
-2.403740615105339925e-27
-1.727404628482075675e-27
-1.266030055994747622e-27
-9.466628324916394479e-28
-7.196692410509341781e-28
-5.530120193456950965e-28
-4.263892833913041859e-28
