# bin_10_11
-1.005939536421255482e-08
-1.144183387879887532e-08
-1.281837191318150072e-08
-1.409103141764572156e-08
-1.512886098326590265e-08
-1.576622845469189538e-08
-1.585483795703724484e-08
-1.518897837767649063e-08
-1.373377655143788955e-08
-1.173172329868917672e-08
-9.632524747194341512e-09
-7.979401717570153829e-09
-6.896330845864571500e-09
-5.737341403751808355e-09
-4.093636573848231734e-09
-3.012100963069341867e-09
-2.370177454758893926e-09
-1.582159842751010765e-09
-1.163756098919963425e-09
-8.092537425772432072e-10
-5.520352049210885516e-10
-3.773937509601807940e-10
-2.577531172465604891e-10
-1.771839299860864435e-10
-1.229822283309208855e-10
-8.682963451750639033e-11
-6.247774588129444265e-11
-4.591516445209663806e-11
-3.442239581388347293e-11
-2.621337914203371417e-11
-2.014301869725270255e-11
