# bin_5_8
-1.972849350680380110e-10
-2.206492596119449866e-10
-2.421436379457301244e-10
-2.595060391526951227e-10
-2.698875093287273281e-10
-2.708046760133010345e-10
-2.587281345223462716e-10
-2.333805145494935984e-10
-1.989228362934524087e-10
-1.632391715003576650e-10
-1.354158311149972983e-10
-1.169966345317344375e-10
-9.684015244000286404e-11
-6.898759484265851201e-11
-5.117887397595272292e-11
-4.001963242308979902e-11
-2.710772143659691017e-11
-1.994475501905362020e-11
-1.409793431328942389e-11
-9.831168359495202070e-12
-6.909935137121692863e-12
-4.894659762813669404e-12
-3.514355797152870969e-12
-2.564637277805954468e-12
-1.908914315340127720e-12
-1.446006738569928789e-12
-1.111014358626185179e-12
-8.609173693784324230e-13
-6.679973402411143440e-13
-5.153021483507247084e-13
-3.927129680083500314e-13
