# bin_7_13
-1.391492007475959678e-13
-1.582587688249913595e-13
-1.772790567875647714e-13
-1.948539699289929031e-13
-2.091705529726785550e-13
-2.179364628392908484e-13
-2.191080702521679777e-13
-2.098328529647736478e-13
-1.896648421207972438e-13
-1.619598226129918186e-13
-1.329643084178373847e-13
-1.101709010283581937e-13
-9.523027021076797378e-14
-7.917172730204126284e-14
-5.644306781997874841e-14
-4.158059037301049260e-14
-3.268201109629756036e-14
-2.183124306587250182e-14
-1.604095413058294663e-14
-1.116220333547198496e-14
-7.615570014152162286e-15
-5.206153831716477416e-15
-3.556493127248568101e-15
-2.445599444380645031e-15
-1.698235091971652774e-15
-1.199619949955993755e-15
-8.636495386637502145e-16
-6.350396904295898030e-16
-4.763035421786173001e-16
-3.628331558442355338e-16
-2.788557663491789775e-16
