# bin_6_6
-1.772719776211195889e-08
-1.973541688793320164e-08
-2.153593033262914283e-08
-2.291848018333612034e-08
-2.362546839546534812e-08
-2.345294505249844758e-08
-2.208663413553085037e-08
-1.965052691983414150e-08
-1.653531276090518368e-08
-1.353480769485243024e-08
-1.134969823896662127e-08
-9.817068033877413264e-09
-7.859176937682321569e-09
-5.484856249716140217e-09
-4.258401280048170876e-09
-3.155554679695181968e-09
-2.230919353057511612e-09
-1.575817892787996076e-09
-1.132377672723723709e-09
-7.973493381566965560e-10
-5.640340658568670685e-10
-4.040411128032701333e-10
-2.936820399211366543e-10
-2.173679384589392491e-10
-1.639420032825343474e-10
-1.255785983053886191e-10
-9.725596510494040975e-11
-7.564910049854677243e-11
-5.867447904268305926e-11
-4.507314799038840090e-11
-3.410140595426731762e-11
