# bin_1_14
-3.391015340426287125e-37
-3.853173937349639124e-37
-4.311183375275264885e-37
-4.731768486898618072e-37
-5.070354817639457440e-37
-5.270783323022577779e-37
-5.285141522273072874e-37
-5.042667184125878519e-37
-4.541845224354975378e-37
-3.864668505105951956e-37
-3.169577834806753817e-37
-2.633164172509425039e-37
-2.278421237556679268e-37
-1.879585982223494784e-37
-1.329869545016630938e-37
-9.920839344853436993e-38
-7.695816106784937317e-38
-5.188473710331997718e-38
-3.765040796356571924e-38
-2.637698953893559171e-38
-1.803170833384028293e-38
-1.232879438092439885e-38
-8.445422141183620713e-39
-5.827852547691059128e-39
-4.065866897321060493e-39
-2.887189970263001139e-39
-2.090167632955741349e-39
-1.545143487478389640e-39
-1.164066227406902615e-39
-8.894252021885782304e-40
-6.844704959926127248e-40
