# bin_15_7
-1.796745295533296416e-16
-2.050441283930466980e-16
-2.306996240617393905e-16
-2.549295458033430760e-16
-2.754768107567184955e-16
-2.894372605728339357e-16
-2.937608680248756108e-16
-2.852730281190826518e-16
-2.615398069681150124e-16
-2.266254327157363300e-16
-1.871695425054851973e-16
-1.538438732302163141e-16
-1.319352641254322119e-16
-1.123336276169648805e-16
-8.316403128592905779e-17
-5.866457027456985800e-17
-4.757782841351295613e-17
-3.152654070535171219e-17
-2.374767540544999230e-17
-1.609491683462439693e-17
-1.096597737169631381e-17
-7.509451319803245726e-18
-5.103770876197121764e-18
-3.466899923492172207e-18
-2.365303212551016376e-18
-1.636521946144844411e-18
-1.151393150953816503e-18
-8.268436701794742917e-19
-6.071086721911973563e-19
-4.549156911908716256e-19
-3.461755398351435624e-19
