# bin_9_2
-2.742530563779900700e-20
-3.060637118194545206e-20
-3.349819737757393619e-20
-3.578095133191538548e-20
-3.705570326624765853e-20
-3.699643841696458721e-20
-3.510455437809924704e-20
-3.145710960837527602e-20
-2.664153860356902991e-20
-2.182710030795219484e-20
-1.819700821071638911e-20
-1.574314492997722310e-20
-1.283653137357713021e-20
-9.033647945234715236e-21
-6.854970099914336487e-21
-5.231608376896926960e-21
-3.609239067330223486e-21
-2.602331946766677411e-21
-1.858707031428438917e-21
-1.301685258857770919e-21
-9.168611548451310840e-22
-6.528298726841708752e-22
-4.715200437450233534e-22
-3.464872832222255025e-22
-2.595970139883624672e-22
-1.977592088827410881e-22
-1.525783379802155362e-22
-1.184862475938172394e-22
-9.194313763660439606e-23
-7.079756119255591040e-23
-5.377344002710961157e-23
