# bin_12_10
-4.313633361531271165e-09
-4.913558509496016966e-09
-5.515056532407147932e-09
-6.076522151026819293e-09
-6.542632707662057186e-09
-6.842970905107761984e-09
-6.909778934378111149e-09
-6.659227122049811834e-09
-6.056976389829792857e-09
-5.205565779591624721e-09
-4.283616311421790754e-09
-3.535080088964989789e-09
-3.046663400217550312e-09
-2.562931986604706825e-09
-1.856288713999198283e-09
-1.338897063581584449e-09
-1.071920359711373634e-09
-7.092801756588497809e-10
-5.297822663058848840e-10
-3.641846024838351400e-10
-2.478976879086195496e-10
-1.696021623242190329e-10
-1.154823397678530972e-10
-7.895274462335327053e-11
-5.438490512325188702e-11
-3.806324833282703745e-11
-2.712856293850957288e-11
-1.974754527313865490e-11
-1.468202915715169504e-11
-1.111221088277812961e-11
-8.510380727619132455e-12
