# bin_8_8
-1.447823050520759466e-08
-1.631447951330271069e-08
-1.806699622618139899e-08
-1.958132768660036760e-08
-2.065623072879179029e-08
-2.106444807619437538e-08
-2.060662955857535894e-08
-1.905416809119943892e-08
-1.665865988092790797e-08
-1.382009998975965733e-08
-1.132401089754694579e-08
-9.639737707602679605e-09
-8.278752827918750060e-09
-6.296098228571176990e-09
-4.383900031397509711e-09
-3.542982792226277955e-09
-2.422589119363530649e-09
-1.808141021503441624e-09
-1.228471307197446988e-09
-8.613975211699804490e-10
-6.019114314142390722e-10
-4.204300380748520374e-10
-2.956015586310508420e-10
-2.101466862946617214e-10
-1.522186535528723575e-10
-1.124266882914383810e-10
-8.458065364348638037e-11
-6.463023727008181300e-11
-4.985594056824527183e-11
-3.855002535015440693e-11
-2.965946831081435664e-11
