# bin_7_14
-5.140800164805222555e-15
-5.856414018801971248e-15
-6.574429643665804960e-15
-7.245287400938249383e-15
-7.803244496721995934e-15
-8.164600690727419741e-15
-8.247798493675069365e-15
-7.954729951384400989e-15
-7.240224646709083609e-15
-6.230656993686623809e-15
-5.124753370544125176e-15
-4.225551307784722347e-15
-3.639157131203253756e-15
-3.066066562798906862e-15
-2.226205633181629797e-15
-1.600111526670814500e-15
-1.283953149221420430e-15
-8.487946621182788674e-16
-6.351196618791115586e-16
-4.356764864727095374e-16
-2.964690763335404509e-16
-2.028528815969021073e-16
-1.380688174977467264e-16
-9.430808634563823967e-17
-6.487850254587787445e-17
-4.534048366189123785e-17
-3.226338005302754532e-17
-2.344686275333355718e-17
-1.740696356637226518e-17
-1.315974560273281441e-17
-1.007169886279513050e-17
