# bin_2_7
-1.974551444591300083e-15
-2.177006445977456345e-15
-2.347460505578376245e-15
-2.461262196618127741e-15
-2.493135013436808051e-15
-2.415950829348099538e-15
-2.211552688556661554e-15
-1.914479639577508154e-15
-1.579940131990287355e-15
-1.299065643417009999e-15
-1.112349444937692927e-15
-9.437213905079325737e-16
-7.003663930545094976e-16
-4.983792787598193031e-16
-4.013677968896305638e-16
-2.730509930094347254e-16
-2.057539010793889630e-16
-1.435888863815866686e-16
-1.019494772945901782e-16
-7.303250208831956890e-17
-5.270089586055831957e-17
-3.855933428644144034e-17
-2.867633099586976541e-17
-2.173599398606675233e-17
-1.673205366083440436e-17
-1.301464296393702869e-17
-1.016583710009726980e-17
-7.916355627887079158e-18
-6.105131685881600820e-18
-4.636031317073246270e-18
-3.450801529782094751e-18
