# bin_9_5
-9.523489244201804205e-12
-1.068921891630142497e-11
-1.178148528382768666e-11
-1.269455199381846414e-11
-1.329352395778506723e-11
-1.344388272706163521e-11
-1.299216510132284715e-11
-1.185345454486946591e-11
-1.022618981865392524e-11
-8.421942134212744240e-12
-6.934794963587625189e-12
-5.958274023371993966e-12
-5.037183732734695175e-12
-3.691508251337718757e-12
-2.638944291742362291e-12
-2.124742767942080695e-12
-1.419788166776708450e-12
-1.068870635319639786e-12
-7.391721555098856020e-13
-5.136806116550693744e-13
-3.605378336960120541e-13
-2.536629405180028274e-13
-1.802855824351178861e-13
-1.299392701495448463e-13
-9.553151763200820392e-14
-7.156722858509763988e-14
-5.450530855923737822e-14
-4.201081861389028807e-14
-3.254572033052736592e-14
-2.515826291714144947e-14
-1.927200679086457848e-14
