# bin_6_3
-6.587443866131079276e-11
-7.240785009958727075e-11
-7.778367875740913520e-11
-8.116766422123791867e-11
-8.177329183304042361e-11
-7.862288333947379816e-11
-7.138617837233337017e-11
-6.129330672888410169e-11
-5.040040837963664054e-11
-4.161010261393726314e-11
-3.578979927651763208e-11
-2.998840249792962828e-11
-2.180503287401105032e-11
-1.584400777770392537e-11
-1.261277533152841558e-11
-8.572067735733443672e-12
-6.426191922384939989e-12
-4.538673734393357837e-12
-3.219896974882469179e-12
-2.311752160769146132e-12
-1.675793905852249621e-12
-1.233514598894063047e-12
-9.235494201127947059e-13
-7.043441005618030075e-13
-5.448244126505974772e-13
-4.251118444866042316e-13
-3.324252509554608691e-13
-2.586385380188711631e-13
-1.989374541634451133e-13
-1.504491105360948021e-13
-1.113935922331014833e-13
