# bin_3_13
-2.049931354378744119e-25
-2.323986702946897288e-25
-2.592730150342883964e-25
-2.835666288670155300e-25
-3.025338857243941198e-25
-3.127570873570774449e-25
-3.115641904587461694e-25
-2.946402892477221487e-25
-2.631210285065749519e-25
-2.221090762540841665e-25
-1.817512950639844252e-25
-1.519446679252081235e-25
-1.316148175813290526e-25
-1.064245177617451899e-25
-7.419883601545398853e-26
-5.697136446374177185e-26
-4.271820528406902090e-26
-2.956995981176699076e-26
-2.080677558685796323e-26
-1.476294966098734102e-26
-1.014435239253655455e-26
-6.952057858014394646e-27
-4.796446328512667426e-27
-3.337132120318045009e-27
-2.353393132566552862e-27
-1.691006254113915326e-27
-1.239212218354773622e-27
-9.265133467315444360e-28
-7.042917384524231945e-28
-5.411609484115452507e-28
-4.172339529303541800e-28
