# bin_9_3
-1.149072612986970026e-16
-1.284471911551269870e-16
-1.408696102196969048e-16
-1.508532887560444991e-16
-1.567381185691334006e-16
-1.570967545220263143e-16
-1.498718018722398779e-16
-1.349815989018825548e-16
-1.149320838432138462e-16
-9.421610438088204708e-17
-7.820112683484720218e-17
-6.757952620026829026e-17
-5.578656407920814073e-17
-3.963377873965993801e-17
-2.951364208287757664e-17
-2.298454410551511629e-17
-1.560824629738147661e-17
-1.144357607813552392e-17
-8.104876852257362195e-18
-5.655067498365526169e-18
-3.975426630284340342e-18
-2.818317043915566543e-18
-2.025624523441944166e-18
-1.480027812874905781e-18
-1.102922761221313906e-18
-8.363364351334422813e-19
-6.430825013025181140e-19
-4.985224823723287400e-19
-3.868167060991122050e-19
-2.982923734742545603e-19
-2.271823439613009326e-19
