# bin_10_13
-1.134695146825720171e-09
-1.294160412424081501e-09
-1.455030387827313310e-09
-1.606450185730051273e-09
-1.734094174378961526e-09
-1.819599288783789257e-09
-1.844057505202879787e-09
-1.787072462554167169e-09
-1.634698883778916442e-09
-1.413922947407114403e-09
-1.165582513044307173e-09
-9.586234037529004404e-10
-8.230613385955366784e-10
-6.988014900791589363e-10
-5.143832239964965655e-10
-3.644718803951713033e-10
-2.950129602230568005e-10
-1.950527939309882294e-10
-1.468206271406574847e-10
-9.981886047784238616e-11
-6.793912344831720099e-11
-4.651832013828845309e-11
-3.162465773871962670e-11
-2.151351441750204780e-11
-1.471088958427505735e-11
-1.020684764787216727e-11
-7.204416402061423806e-12
-5.191619746469315167e-12
-3.824468210167916066e-12
-2.873515140387595913e-12
-2.190653523428867135e-12
