# bin_11_2
-3.905142768515954906e-25
-4.395928166996361614e-25
-4.862169562065945689e-25
-5.261746606521351198e-25
-5.540113320857278462e-25
-5.637415817021510202e-25
-5.497652213005268522e-25
-5.065426698259235081e-25
-4.413234286264552157e-25
-3.653370176420152718e-25
-2.996496570381225295e-25
-2.557579590293621274e-25
-2.189126072877263068e-25
-1.648359101320187356e-25
-1.153593253720041500e-25
-9.340996771773005886e-26
-6.325583038393373426e-26
-4.748810077763387227e-26
-3.236785894380961614e-26
-2.261123172827380659e-26
-1.582813445445733959e-26
-1.108141119852812027e-26
-7.813256797588737561e-27
-5.574370200610443573e-27
-4.054014744684006499e-27
-3.005978070200743723e-27
-2.269313780955681300e-27
-1.738486579490961403e-27
-1.342946019757181827e-27
-1.038563431975524166e-27
-7.982562628524920898e-28
