# bin_2_15
-3.325485484018435125e-34
-3.787073953124292192e-34
-4.249446481861479611e-34
-4.680469976061688685e-34
-5.037461033411434485e-34
-5.266166775291911662e-34
-5.314620136302044004e-34
-5.118451460916225080e-34
-4.652047612330831327e-34
-3.997514860990035564e-34
-3.286217641235798693e-34
-2.711966552441065948e-34
-2.337314254603522823e-34
-1.964196831522074211e-34
-1.420979845577483433e-34
-1.026125917836038362e-34
-8.201981136334144083e-35
-5.431708431801858686e-35
-4.050820889166065609e-35
-2.786261431845261268e-35
-1.896883491145271132e-35
-1.297609201202633932e-35
-8.837597535708156462e-36
-6.044213409347218897e-36
-4.165578519763709644e-36
-2.917230685013190543e-36
-2.080642690106126098e-36
-1.515625423014355725e-36
-1.127542392913565619e-36
-8.537628508338027136e-37
-6.539971040804579191e-37
