# bin_6_8
-2.450629840829609168e-09
-2.747630589899376264e-09
-3.024421017622463902e-09
-3.253525197954141794e-09
-3.400043388748205847e-09
-3.430515563819167676e-09
-3.303982577078895951e-09
-3.003861784610120822e-09
-2.582280325313607331e-09
-2.123518242591526400e-09
-1.751835392133683397e-09
-1.508073994372953106e-09
-1.267735436239055595e-09
-9.206533011710380811e-10
-6.648134139227405772e-10
-5.317617050557066621e-10
-3.557293839037182209e-10
-2.666193480567120886e-10
-1.855594982345585765e-10
-1.289831564463646913e-10
-9.056080777824102980e-11
-6.382515298700857376e-11
-4.549656892973833659e-11
-3.291263341714357752e-11
-2.428830265110548017e-11
-1.825821336609040242e-11
-1.394443891412549440e-11
-1.076712188498098477e-11
-8.346649608103966367e-12
-6.448977417132769588e-12
-4.932992877873181171e-12
