# bin_4_1
-1.429820685610978109e-11
-1.518185333536337338e-11
-1.562076388413709439e-11
-1.547289311164105058e-11
-1.455079122370574622e-11
-1.293370773312859698e-11
-1.088934583213449767e-11
-8.920636398832326912e-12
-7.473588034396961122e-12
-6.433860817532439494e-12
-5.147200822866902534e-12
-3.645914949686340010e-12
-2.812165858698502629e-12
-2.106722704943105807e-12
-1.506402848161614467e-12
-1.094788753888854454e-12
-7.979760325062943178e-13
-5.804338513225960478e-13
-4.279225319823067276e-13
-3.208388867282212913e-13
-2.448580102545876749e-13
-1.900044586711870322e-13
-1.493146468781625154e-13
-1.180423252343906679e-13
-9.323003007705078831e-14
-7.305291469356026732e-14
-5.642697061869064099e-14
-4.273386148770536327e-14
-3.159915611049971618e-14
-2.275149244347148062e-14
-1.594062080966075167e-14
