# bin_10_4
-1.027751357440993735e-15
-1.155493836497706334e-15
-1.276157341421930163e-15
-1.378514728751765596e-15
-1.448126532277041046e-15
-1.469737549199337088e-15
-1.427847506069744864e-15
-1.310032605565159708e-15
-1.136587162598656437e-15
-9.386441030539853159e-16
-7.709829267021468913e-16
-6.600404939419985705e-16
-5.623189899643549441e-16
-4.184333271553047324e-16
-2.950969847661728056e-16
-2.389341377639148100e-16
-1.603952334183125840e-16
-1.209069751694376626e-16
-8.284687290802659485e-17
-5.767833272850347073e-17
-4.043974202967314175e-17
-2.837838797237890093e-17
-2.007694705466769867e-17
-1.438593551460945152e-17
-1.051190088113997449e-17
-7.829820775824404823e-18
-5.934358388155535844e-18
-4.559059674841194707e-18
-3.526836902322670354e-18
-2.727441596758045162e-18
-2.093598455495710354e-18
