# bin_3_15
-1.272833313203021207e-29
-1.449707737818834390e-29
-1.626998501311972086e-29
-1.792417844521993252e-29
-1.929652235523884482e-29
-2.017952775470610534e-29
-2.037309529251340073e-29
-1.963221821071288414e-29
-1.785342392199901555e-29
-1.535041197038125110e-29
-1.262174610054652912e-29
-1.041257544744258551e-29
-8.971506423739743131e-30
-7.546989100576311510e-30
-5.467726418729394244e-30
-3.941113121444754279e-30
-3.154958700193998794e-30
-2.087962719175559253e-30
-1.559164693381739431e-30
-1.071285477353608803e-30
-7.292053898146277400e-31
-4.988731962129186528e-31
-3.396811842421807269e-31
-2.321976973803232930e-31
-1.599125468399757281e-31
-1.118965985155569860e-31
-7.973447082064640542e-32
-5.802790200793371940e-32
-4.313409357861890274e-32
-3.264043450737013781e-32
-2.499437631971374928e-32
