# bin_14_13
-1.004322142218284702e-08
-1.150033819221371318e-08
-1.299463998147438123e-08
-1.443363259376209775e-08
-1.569646997936965693e-08
-1.662375007348446928e-08
-1.702622825009171831e-08
-1.675616006967124851e-08
-1.559831154913512410e-08
-1.372478974679586507e-08
-1.143363886811323862e-08
-9.356288689316924916e-09
-7.928077903884999267e-09
-6.845125531777315895e-09
-5.294664007499737278e-09
-3.655994249773570492e-09
-2.935163396771717838e-09
-2.038838678808291103e-09
-1.495157363945362899e-09
-9.993133659692020777e-10
-6.962096538423142364e-10
-4.740880808811285998e-10
-3.197420378517665195e-10
-2.149024348215332940e-10
-1.443112314556421105e-10
-9.774725731723437442e-11
-6.706503921988441370e-11
-4.682263508124550734e-11
-3.341735536864293791e-11
-2.441043946482257536e-11
-1.821694720320727473e-11
