# bin_10_11
-9.888831005566607028e-09
-1.124655054042139200e-08
-1.259802216128452133e-08
-1.384685190518509957e-08
-1.486437864175897729e-08
-1.548802965742079259e-08
-1.557206654388200935e-08
-1.491554535247115495e-08
-1.348255799120819878e-08
-1.152064551192732129e-08
-9.451850973838564893e-09
-7.826985404377057498e-09
-6.763542148868519344e-09
-5.626731011153645452e-09
-4.014423976425262289e-09
-2.952184946609544620e-09
-2.323431987683393513e-09
-1.550303910348956231e-09
-1.140496290132814350e-09
-7.928256097835485758e-10
-5.407455883253762821e-10
-3.696445395881501718e-10
-2.524381608973795348e-10
-1.735107634923141561e-10
-1.204177128522376002e-10
-8.500961935552742830e-11
-6.116255241755830306e-11
-4.494475844924638751e-11
-3.369256902411611988e-11
-2.565622110371858856e-11
-1.971418005014197774e-11
