# bin_10_14
-2.075476101682341902e-10
-2.370336697427711474e-10
-2.669576163110313827e-10
-2.953527097711571170e-10
-3.196396195239908591e-10
-3.364817116815295871e-10
-3.422366406226175268e-10
-3.334548474118852634e-10
-3.068170065446239067e-10
-2.669434879210289716e-10
-2.207317904440928071e-10
-1.811151309589815393e-10
-1.548738956606780057e-10
-1.324674135518186056e-10
-9.912862222498554354e-11
-6.933609400481197816e-11
-5.631803830187435334e-11
-3.756018431784863554e-11
-2.825094614316101398e-11
-1.902662898125788093e-11
-1.299949138797789670e-11
-8.899980897245887533e-12
-6.043899586728556628e-12
-4.093691848078837440e-12
-2.780722254746504098e-12
-1.913408755007521316e-12
-1.337740452203559846e-12
-9.541268613878087144e-13
-6.959766707464613206e-13
-5.186038786957480075e-13
-3.930927932187960524e-13
