# bin_12_11
-9.595280198787390486e-09
-1.094002106564697985e-08
-1.229448549718656354e-08
-1.356667236361541829e-08
-1.463497395865760564e-08
-1.534383920665235852e-08
-1.553561264286675908e-08
-1.503455884959827920e-08
-1.373239363856991314e-08
-1.186003537126254746e-08
-9.770095741834546854e-09
-8.040932749829964662e-09
-6.910404598735808557e-09
-5.854623280042618335e-09
-4.291923280786702874e-09
-3.053060329204827372e-09
-2.466278399120220827e-09
-1.629397263672151256e-09
-1.225125768376253622e-09
-8.350694169987962044e-10
-5.681889467945733373e-10
-3.889798134823329435e-10
-2.645128759224465756e-10
-1.801508897246326884e-10
-1.234023277884660921e-10
-8.580147890308908117e-11
-6.070741697660171460e-11
-4.385744876697594981e-11
-3.238422739158430943e-11
-2.437839530531639816e-11
-1.860833312474109320e-11
