# bin_6_4
-1.828160968549712298e-09
-2.018416750286031139e-09
-2.180200507992914461e-09
-2.290843802386614066e-09
-2.326247362671956470e-09
-2.262323550499830911e-09
-2.079041069176915481e-09
-1.806775336165468368e-09
-1.494203965050028558e-09
-1.226763813603544950e-09
-1.047705055603494937e-09
-8.930409386365268661e-10
-6.697612019287243589e-10
-4.729597140845801650e-10
-3.813765005499549606e-10
-2.609645259990544662e-10
-1.961707970644858058e-10
-1.363142627358725492e-10
-9.696625080918716830e-11
-6.935864249901473260e-11
-4.993493507747103614e-11
-3.643132495312230423e-11
-2.700661215478161426e-11
-2.040739052337956514e-11
-1.566995316103535162e-11
-1.216746002488512201e-11
-9.496864349613655433e-12
-7.397017206962213132e-12
-5.710846256871076229e-12
-4.344531627194719380e-12
-3.241680817016953466e-12
