# bin_3_2
-1.638459757101683699e-08
-1.732335603486231439e-08
-1.773400297477950083e-08
-1.744869218260050803e-08
-1.627706105751841784e-08
-1.435684065419582116e-08
-1.201588241326593597e-08
-9.849253149196258224e-09
-8.298868851774074888e-09
-7.118078235404916477e-09
-5.586638486797024886e-09
-3.957198132061520292e-09
-3.094113853927038062e-09
-2.268100476688434244e-09
-1.648050232353391400e-09
-1.188737920870602849e-09
-8.682728779696781028e-10
-6.343581138536397005e-10
-4.697254216575043648e-10
-3.538987529065020027e-10
-2.713542908203304521e-10
-2.114406406342858451e-10
-1.666291402668118550e-10
-1.319040115663970094e-10
-1.041535425010933227e-10
-8.147075923731304754e-11
-6.273796099080456953e-11
-4.731749219158611047e-11
-3.481663590969604536e-11
-2.493647128564207864e-11
-1.738167069083362126e-11
