# bin_11_6
-1.097047678816943073e-12
-1.240787527104433904e-12
-1.380249767902106721e-12
-1.504203077886427916e-12
-1.597701070789594906e-12
-1.642567650268064270e-12
-1.624935319034173562e-12
-1.522870111618694408e-12
-1.348537894829293816e-12
-1.129601668332019444e-12
-9.239428073392187517e-13
-7.780930502919417581e-13
-6.732242158891355143e-13
-5.316508509604016726e-13
-3.679471149752339913e-13
-2.902630136241706020e-13
-2.092496983234422692e-13
-1.498408527780337641e-13
-1.026827905255692256e-13
-7.304247327545624326e-14
-5.053012143457317074e-14
-3.486641963719252128e-14
-2.424706740102630040e-14
-1.701517396241590627e-14
-1.213246161859059708e-14
-8.819716396095388907e-15
-6.537933800749386528e-15
-4.937318106056427413e-15
-3.780446651862170004e-15
-2.915838792779291358e-15
-2.248484100034262848e-15
