# bin_4_3
-1.331985928007751970e-08
-1.440310979773733537e-08
-1.516019932984274132e-08
-1.543053530671958526e-08
-1.506050048568413693e-08
-1.390563070272876162e-08
-1.214144220066801750e-08
-1.007823238157239187e-08
-8.267405775528797116e-09
-7.026801437244233289e-09
-6.003198276815549753e-09
-4.576861976667682619e-09
-3.232308253236895709e-09
-2.582098702404607843e-09
-1.816893967863484319e-09
-1.350600109354241751e-09
-9.529953043940664093e-10
-6.898717560474368667e-10
-5.002960830847290030e-10
-3.665432146493453264e-10
-2.729294178103662804e-10
-2.067086218582598577e-10
-1.593039089560891007e-10
-1.243668354357229400e-10
-9.774546400591714977e-11
-7.682424064225522726e-11
-5.995759940708818434e-11
-4.617331817910625457e-11
-3.489965504358197340e-11
-2.578149470742179133e-11
-1.856223534763896604e-11
