# bin_11_8
5.521667865011147367e-11
6.256524361744273591e-11
6.975386212927660517e-11
7.622766446232087349e-11
8.124398581742246806e-11
8.388222904927940085e-11
8.343136717113712605e-11
7.873637546457933374e-11
7.017759004412315972e-11
5.913073172848136591e-11
4.837711853981012776e-11
4.051036206460106727e-11
3.508788014762829003e-11
2.822507779200799203e-11
1.963230207166219319e-11
1.517351993580169896e-11
1.127796210922175535e-11
7.865174661399169991e-12
5.496396947644367877e-12
3.906141262160910148e-12
2.687984087255165807e-12
1.844375881757709675e-12
1.274815802933924626e-12
8.887005485469854151e-13
6.283232840481660869e-13
4.527065829977241801e-13
3.326617724106775816e-13
2.493251974593884241e-13
1.898709398793138338e-13
1.460415045262233701e-13
1.126162818560795391e-13
