# bin_7_11
8.497471536112661088e-08
9.514134232373547751e-08
1.045493517404250709e-07
1.122356273838561115e-07
1.169837087847910175e-07
1.176750243441500631e-07
1.128673371268566891e-07
1.022236695610412522e-07
8.754760571617660798e-08
7.194225401923977586e-08
5.952603664948225679e-08
5.127894319445888306e-08
4.273063921011032232e-08
3.083316304292858059e-08
2.256297220332813739e-08
1.777942303752379028e-08
1.203907784074565416e-08
8.905704438260680601e-09
6.236822360776891489e-09
4.349129809046291810e-09
3.055754802595002272e-09
2.159507414849271029e-09
1.544484489134554809e-09
1.121710442323793472e-09
8.309021888058602820e-10
6.266637222845269703e-10
4.797653285271133804e-10
3.708971292777368220e-10
2.875052433617500166e-10
2.218714335308080792e-10
1.693549267240584893e-10
