# bin_15_15
5.185157521117596308e-09
5.942126961121613211e-09
6.720527321499568237e-09
7.473245623805221427e-09
8.138473329877705965e-09
8.634269321840459570e-09
8.861792321033940875e-09
8.745970627399393222e-09
8.169961734684221482e-09
7.212050400472386978e-09
6.023780775821986637e-09
4.927620476951896163e-09
4.163323014024773849e-09
3.599977990228366939e-09
2.812505098611801021e-09
1.940460604319950669e-09
1.546300534108631961e-09
1.091439356788429240e-09
7.901530496443578795e-10
5.301966829801889402e-10
3.716584320357145169e-10
2.524809911867866884e-10
1.697044946203217300e-10
1.138134492533583515e-10
7.620307230785824052e-11
5.138407158242999161e-11
3.506040773056244221e-11
2.431809366898498688e-11
1.723343631463798967e-11
1.250221743514100666e-11
9.275488251132259091e-12
