# bin_3_9
2.954380229921232080e-07
3.155346509657327038e-07
3.270857088040148382e-07
3.269183795222895824e-07
3.113897354414376552e-07
2.804885695256068561e-07
2.393240622826613194e-07
1.970204181280161996e-07
1.637363540766864636e-07
1.402324037673901590e-07
1.150235716066131044e-07
8.388558365280749534e-08
6.236124489450949804e-08
4.807534838947794223e-08
3.399262336484620812e-08
2.503957546198387082e-08
1.800454300737885605e-08
1.305804382133875106e-08
9.569425434488376944e-09
7.113708559057069141e-09
5.380219147832624249e-09
4.138311134109090645e-09
3.229518748715483888e-09
2.541790556416263344e-09
2.004020722163436066e-09
1.571949628900612385e-09
1.218610233877939741e-09
9.283940819261562455e-10
6.919517979319014672e-10
5.029283771974358392e-10
3.559713469424996724e-10
