# bin_2_12
4.984124821166307504e-07
5.167395884254960901e-07
5.166832703481532476e-07
4.930345383880064295e-07
4.454812556981442907e-07
3.817350814184391193e-07
3.155467316120107819e-07
2.620504962017990285e-07
2.230337051392590978e-07
1.832287472659791066e-07
1.361504281884088760e-07
1.006979184408894501e-07
7.739914063859237509e-08
5.569522496196038464e-08
4.097198755804194558e-08
2.974699410882368256e-08
2.183131637346628630e-08
1.619286051223901233e-08
1.220362197286876201e-08
9.361291834818512488e-09
7.296690581493865084e-09
5.757026341545712865e-09
4.567890862581072900e-09
3.618955001654372537e-09
2.843246132398197193e-09
2.201188955200236359e-09
1.670358790073315289e-09
1.237545927948897928e-09
8.930404315184408735e-10
6.273971935422779491e-10
4.296464117403381125e-10
