# bin_13_8
2.622148229557448495e-13
2.983168478773525989e-13
3.343107694815985960e-13
3.676463574269529253e-13
3.949235186754115824e-13
4.118401798589048514e-13
4.144731897798026869e-13
3.975505582890632940e-13
3.598476584484295659e-13
3.079177907586366739e-13
2.527381439169697996e-13
2.090982958272082773e-13
1.805835576839915373e-13
1.506346908491635902e-13
1.078294530564855304e-13
7.892385078248795115e-14
6.238656225477482221e-14
4.152176548945124809e-14
3.066890639779860306e-14
2.126206200890326744e-14
1.449304891832535252e-14
9.908589393110136636e-15
6.761207558431210182e-15
4.641242418403373943e-15
3.215359717132964617e-15
2.265338098335828691e-15
1.626330082707941099e-15
1.192536326644981786e-15
8.923391513929500523e-16
6.786024806639323265e-16
5.210837819369711262e-16
