# bin_8_14
9.285544204589046691e-08
1.045655952945665051e-07
1.157104994893534780e-07
1.252932827470573569e-07
1.320196718156025834e-07
1.344646511571621835e-07
1.312991307565110508e-07
1.211940424801338366e-07
1.057708151364126629e-07
8.770603941386663806e-08
7.194674577018789854e-08
6.129921382110377676e-08
5.246849915046903773e-08
3.974354043798023685e-08
2.785107493298263721e-08
2.238955920223350255e-08
1.535232139725071698e-08
1.140267575158783404e-08
7.797972645193213885e-09
5.467121324254173889e-09
3.818445833005269605e-09
2.667191619290630120e-09
1.877590573241790906e-09
1.337199699027206030e-09
9.703009683271444934e-10
7.178241408265214995e-10
5.407441540925715326e-10
4.135106394385655928e-10
3.190242725752311024e-10
2.465580285587884714e-10
1.895075491986274171e-10
