# bin_10_4
2.626410086873809040e-17
2.951304180721445065e-17
3.257430612739998948e-17
3.515949078458105157e-17
3.689866483110598885e-17
3.740779071707875760e-17
3.628215724906021617e-17
3.322968966825740838e-17
2.877922185673971976e-17
2.374558887060849998e-17
1.951825641726224915e-17
1.672927566195443619e-17
1.422004824066119629e-17
1.053030198331271597e-17
7.455799623074483383e-18
6.029422921770700892e-18
4.038904719622903766e-18
3.045281063520671597e-18
2.092380567106094970e-18
1.455518873672670950e-18
1.020925171688881701e-18
7.170236247897575342e-19
5.080009599140988775e-19
3.646693102645655353e-19
2.669846605917573727e-19
1.992299016294601167e-19
1.512361168169773097e-19
1.163119823988106350e-19
9.002231137213417694e-20
6.961117850793384250e-20
5.340083552148531793e-20
