# bin_15_8
5.426735497468058750e-16
6.194425165474920733e-16
6.971712467047083192e-16
7.706973716664188264e-16
8.332339536493052687e-16
8.760341112390209369e-16
8.897593867674140632e-16
8.651033152243423686e-16
7.941512782779485562e-16
6.893495780871729626e-16
5.692983238526020177e-16
4.675177219225706477e-16
4.004389945677228492e-16
3.415718062681446556e-16
2.539438046110920627e-16
1.784454449718884016e-16
1.448540153801532721e-16
9.618266057945387678e-17
7.243056902927366841e-17
4.895463542133552419e-17
3.338068060367884030e-17
2.285820359437272860e-17
1.553033508126484931e-17
1.053672788540545245e-17
7.175689216613592002e-18
4.953683388225791088e-18
3.476411930437834541e-18
2.489724447321370118e-18
1.823353647057844722e-18
1.363300092320476959e-18
1.035864067848247878e-18
