# bin_15_9
3.759861879256687429e-14
4.294541109355555429e-14
4.837441184741382912e-14
5.352968015927672273e-14
5.794464025239038063e-14
6.101519111600694659e-14
6.207875607264930152e-14
6.051468415142635822e-14
5.571046645038757650e-14
4.849620052973937549e-14
4.011329395778942157e-14
3.290825405969634288e-14
2.812905760535412362e-14
2.407295380190489411e-14
1.804196837346492824e-14
1.260829809784832167e-14
1.023961578482575137e-14
6.838666666860190181e-15
5.140478219030586766e-15
3.459519697808893783e-15
2.365207072031789521e-15
1.619119000774801187e-15
1.099344385169471413e-15
7.443339605542440919e-16
5.053127315332277109e-16
3.474445219483946382e-16
2.427002654374302558e-16
1.729364245403393625e-16
1.260270250842218639e-16
9.383092211241400760e-17
7.107904006138734481e-17
