# bin_6_1
4.633895422279683667e-18
5.042136418130951583e-18
5.348702098162661396e-18
5.494405196387108477e-18
5.430456342515071567e-18
5.088833263298555295e-18
4.506891183971185431e-18
3.779646754958951634e-18
3.093444161299645513e-18
2.600717615419190342e-18
2.242870450492279021e-18
1.776468558644058085e-18
1.244878365410746640e-18
9.741375840767462348e-19
7.151999079698368104e-19
5.147961024043609914e-19
3.665527992682868838e-19
2.659627402401279034e-19
1.911777065741796625e-19
1.387481581019757204e-19
1.022871661495079087e-19
7.669922007782711853e-20
5.855371353279240920e-20
4.538717435085294485e-20
3.551844240833768083e-20
2.788372763864454388e-20
2.180511020853235256e-20
1.687186755004797755e-20
1.284345816041511210e-20
9.574246294797981675e-21
6.965137043646291378e-21
