# bin_13_1
7.322757013703774935e-37
8.296344833394206422e-37
9.248258611677683570e-37
1.010481985056978650e-36
1.076745818127398996e-36
1.111414410341778773e-36
1.105065359311116545e-36
1.042433329329684127e-36
9.287528990559024090e-37
7.822839043971818327e-37
6.400148738877070921e-37
5.361268192692669530e-37
4.643234612792139338e-37
3.730799234505153620e-37
2.594463492143478609e-37
2.007634030353396253e-37
1.489415140910860115e-37
1.040453139250481146e-37
7.262563595049261873e-38
5.160955945912724384e-38
3.552630560679714330e-38
2.438625293723009679e-38
1.686184369964971083e-38
1.175937474858698279e-38
8.318297320757161244e-39
5.996570964981421096e-39
4.408799621515084820e-39
3.305849783616620839e-39
2.518353380307384038e-39
1.937324511636462440e-39
1.493891809283151471e-39
