# bin_2_7
3.992470347772696916e-07
4.135199874800018903e-07
4.129695971916223499e-07
3.934499764271175663e-07
3.549165548425035952e-07
3.036838316144591972e-07
2.508930661006276696e-07
2.085097502752086001e-07
1.775094058809104187e-07
1.454678176685634897e-07
1.078237152927673413e-07
7.991903972317220447e-08
6.135422904198544281e-08
4.412646379012694407e-08
3.247436868306842703e-08
2.358491833311710014e-08
1.731710562695457302e-08
1.285527979780098814e-08
9.697569603729122438e-09
7.446083482808179527e-09
5.808836236127310123e-09
4.585980730711579292e-09
3.639885823933165977e-09
2.883746922711213937e-09
2.264950578031423693e-09
1.752480977497931834e-09
1.328798294320889222e-09
9.835398214528289277e-10
7.089967808541457280e-10
4.975752062500655275e-10
3.404105153455354016e-10
