# bin_1_15
7.889448836292936525e-07
7.739238265052124238e-07
7.233650199765895833e-07
6.416395268025144256e-07
5.436898187124524300e-07
4.504724722211801055e-07
3.766737594891198912e-07
3.161494466596017456e-07
2.519723178367504832e-07
1.875704524510904698e-07
1.405870377488897960e-07
1.061370535189725205e-07
7.744612247652422887e-08
5.710029168479606013e-08
4.208293879716852838e-08
3.139374547817477304e-08
2.376987589158756878e-08
1.831771528489826866e-08
1.435257066552422050e-08
1.138833478042989765e-08
9.096576646437545068e-09
7.261743728310211931e-09
5.752620805473963843e-09
4.493410407400204487e-09
3.442097455514917729e-09
2.575357535390360145e-09
1.877445061372038570e-09
1.332619803458807997e-09
9.218908872369904607e-10
6.229609931082580750e-10
4.124109080294740040e-10
