# bin_11_1
6.366139550957869673e-32
7.160955565612430789e-32
7.913468308238969317e-32
8.554489606648416792e-32
8.994787471945798017e-32
9.138636042596802829e-32
8.891917127937109710e-32
8.172340453683935966e-32
7.102511294601447433e-32
5.871379926664527197e-32
4.819842721219386481e-32
4.121144974855276677e-32
3.517625106681919637e-32
2.630373858861914647e-32
1.849295305146332304e-32
1.497208732471077801e-32
1.008847195502029889e-32
7.590861092591899651e-33
5.190267939038210734e-33
3.618742712358457301e-33
2.535471713748738354e-33
1.777520479152618483e-33
1.255797064179577164e-33
8.982377724807103653e-34
6.550792329103995695e-34
4.870343045391786840e-34
3.685380884543117064e-34
2.828027650325687694e-34
2.186440530145484588e-34
1.690853075866478807e-34
1.298590194035030417e-34
