# bin_11_5
2.087260156484888207e-16
2.356302309944828278e-16
2.615176935216390450e-16
2.842066069808265355e-16
3.008223142127559662e-16
3.079771498373964872e-16
3.029606631974841148e-16
2.819730504108459259e-16
2.480733011882300249e-16
2.067095870241831727e-16
1.691661243139551361e-16
1.432680014957564251e-16
1.236062280883708360e-16
9.574878922827349756e-17
6.630418768957100190e-17
5.311894871624098628e-17
3.718077354967661578e-17
2.728161748013645279e-17
1.852533155053724335e-17
1.309478874000607020e-17
9.109308264761617423e-18
6.328031145166517386e-18
4.426024265898639022e-18
3.126476529520970230e-18
2.247651497516790069e-18
1.647689103020659252e-18
1.231134933187257111e-18
9.357798261012751006e-19
7.195847305000000840e-19
5.559524681825008742e-19
4.283430226685743392e-19
