# bin_5_15
2.081331648298390661e-07
2.294403665086616277e-07
2.473655249787981206e-07
2.593130852013299688e-07
2.626379010152637824e-07
2.544915191016517380e-07
2.331153190242859424e-07
2.019466957867909388e-07
1.669420427309166221e-07
1.374210056266457096e-07
1.174463793539183340e-07
9.935270149287133645e-08
7.411876891955591713e-08
5.300926651674541353e-08
4.216484828542451214e-08
2.916859066576365774e-08
2.166283676253474451e-08
1.518992414787723998e-08
1.082245609080980571e-08
7.739451608936587072e-09
5.578528433956993413e-09
4.078511710077111616e-09
3.030925931548396350e-09
2.294944618570322786e-09
1.764769911370737029e-09
1.371324321589772676e-09
1.070220302089969988e-09
8.328588673273334166e-10
6.420355070872733558e-10
4.874557652094422804e-10
3.628584794154814823e-10
