# bin_1_2
2.751699907230761987e-07
2.660056874594483087e-07
2.444194013887182014e-07
2.132362846375439272e-07
1.785958657125375684e-07
1.479127651808272706e-07
1.243788585307870746e-07
1.034877059120546459e-07
8.030088687059804798e-08
5.925997781002034563e-08
4.496263012667703787e-08
3.350309980556335311e-08
2.448777277839379194e-08
1.809435228912609334e-08
1.340762032138144399e-08
1.007350317954436463e-08
7.697467767233865107e-09
5.987639706507943271e-09
4.729879669395140085e-09
3.775280015444751420e-09
3.024365215407122018e-09
2.413723930476090570e-09
1.905941550901921566e-09
1.480009186188325940e-09
1.124632625021559721e-09
8.334080055027054976e-10
6.012956393060023913e-10
4.224154365241828571e-10
2.894280560799160563e-10
1.939310895836662638e-10
1.274740963798624946e-10
