# bin_4_4
4.042810563131250223e-08
3.628178639574821718e-08
3.169079947174342719e-08
2.696159186083317743e-08
2.240716745595167172e-08
1.827679182096506331e-08
1.469594212611914877e-08
1.166188879846506356e-08
9.099543234625942960e-09
6.956179083631262400e-09
5.239936518512837008e-09
3.944708854156075272e-09
2.978858801995931624e-09
2.248301470370193841e-09
1.710701881924679710e-09
1.312668773772444325e-09
1.015983541230142364e-09
7.916802885267806268e-10
6.192071139904696399e-10
4.841689774009904499e-10
3.768597560560782631e-10
2.908117568404413074e-10
2.216666603796780011e-10
1.663888903901474898e-10
1.227066304177122654e-10
8.876115830632815023e-11
6.292214292150066693e-11
4.370656580901481953e-11
2.976459392463587003e-11
1.989755646663439881e-11
1.307984762493621348e-11
