# bin_14_6
6.919482658176025013e-08
6.489462722929102139e-08
5.929994686028585398e-08
5.271531058726287006e-08
4.557427036541067688e-08
3.838264710256825550e-08
3.162422262769805080e-08
2.562933978063864317e-08
2.050648375795250743e-08
1.616939518349458130e-08
1.248214222217753563e-08
9.420768895317967056e-09
7.045429555384281562e-09
5.287832392191918221e-09
3.953454778471235837e-09
2.959847256400630752e-09
2.234961435947468996e-09
1.699245535890581280e-09
1.302514334339731675e-09
1.004807266848471030e-09
7.777749837036904898e-10
6.018484387575006087e-10
4.637288092760555949e-10
3.544139075800526310e-10
2.677429880953956288e-10
1.993663949873974626e-10
1.459992931579363462e-10
1.049883938841672697e-10
7.406993720190135070e-11
5.125814052197996140e-11
3.480877188547842995e-11
