# bin_3_3
3.168596709291790897e-08
2.788465613868182992e-08
2.389602845353971860e-08
1.998525699507982961e-08
1.638207151306526022e-08
1.322359381704558288e-08
1.053641346367718935e-08
8.268256632301243167e-09
6.362988256461593347e-09
4.814025588108809698e-09
3.627003639007603780e-09
2.744141551436981960e-09
2.077166807263495693e-09
1.581679091629731241e-09
1.216244137707447804e-09
9.432664437372736136e-10
7.371439024653097649e-10
5.786259419071769902e-10
4.543807479971183913e-10
3.553996734110524068e-10
2.757056325698835328e-10
2.113220178078329563e-10
1.595204909737940275e-10
1.182974371589786158e-10
8.603067368188131662e-11
6.129331385159126374e-11
4.277196094812968080e-11
2.924991884364360083e-11
1.962655457485128200e-11
1.294473932591146180e-11
8.409944826927015351e-12
