# bin_15_11
8.969064095728754336e-08
8.618930444625907931e-08
8.087713539357489479e-08
7.395391829858960455e-08
6.580047828737928074e-08
5.695303344085848171e-08
4.803122467478336487e-08
3.962238631486538001e-08
3.213387081699253335e-08
2.570866359479585679e-08
2.026327899606641584e-08
1.564522223918944523e-08
1.181051404066543598e-08
8.809564184319766634e-09
6.576574188942789577e-09
4.893084403929439587e-09
3.632528341926353219e-09
2.716641326135914865e-09
2.041777090470869273e-09
1.546368971733265021e-09
1.178407563906958034e-09
9.015830193771882275e-10
6.904002787993487063e-10
5.272862423877667981e-10
4.002196131024818794e-10
3.008927442112569799e-10
2.234537216829713765e-10
1.635576036002100019e-10
1.178038616859016494e-10
8.340974072006571658e-11
5.803056502705061097e-11
