# bin_14_10
8.597882026793378019e-08
8.231251107071591235e-08
7.692395530138051989e-08
7.003296807341219224e-08
6.203239784252389311e-08
5.345685636780480117e-08
4.490653424816661469e-08
3.692949438351433484e-08
2.987991210639984378e-08
2.385547884617581712e-08
1.875102726311291362e-08
1.442635659852297219e-08
1.086142372396132777e-08
8.102757959670391126e-09
6.054872022413045184e-09
4.504660839654433773e-09
3.352318339944156942e-09
2.513035559057445797e-09
1.894795813988376910e-09
1.439337083864194430e-09
1.099945350607315879e-09
8.434709052691864741e-10
6.468879213335711385e-10
4.944015018787260370e-10
3.752022088595335485e-10
2.818155783346408111e-10
2.089363954098239956e-10
1.525792762416366470e-10
1.095855533756586644e-10
7.733892242231058580e-11
5.361607709545487379e-11
