# bin_10_10
7.904989584168274245e-08
7.514788921955275311e-08
6.970063648990240262e-08
6.295907005187287073e-08
5.532845419553982895e-08
4.732753569684560091e-08
3.950690389764493587e-08
3.233110109094055673e-08
2.606072250418691044e-08
2.072619557975027706e-08
1.620721792859275100e-08
1.239829611502729721e-08
9.307540348663451084e-09
6.952473184353957573e-09
5.200605493517084143e-09
3.873241096424568149e-09
2.895918967893620373e-09
2.179818602363578845e-09
1.652367946078507446e-09
1.261311193808822187e-09
9.679409381482171488e-10
7.445260360214351183e-10
5.719669282624654689e-10
4.372388044374680007e-10
3.314162935610616978e-10
2.483009872097942960e-10
1.834169852993143574e-10
1.333279369193254220e-10
9.524827691908166527e-11
6.682688742296723508e-11
4.604298769732881991e-11
