# bin_12_3
4.532925950392636510e-08
4.087211833673748649e-08
3.583814586066005592e-08
3.057475878679075613e-08
2.545663199337248937e-08
2.079461878606066616e-08
1.675239094141476333e-08
1.332731988370656709e-08
1.041739114116704085e-08
7.958455173667640284e-09
5.984332563176246148e-09
4.504054017921011906e-09
3.396600338193157853e-09
2.557312358167198856e-09
1.943038832540999065e-09
1.488308050303293631e-09
1.150762481276064388e-09
8.964232610727395556e-10
7.014487472700532466e-10
5.491300650627106561e-10
4.281997496271463773e-10
3.311821114484595081e-10
2.530819054098495640e-10
1.904725562750492292e-10
1.408291621475505786e-10
1.021102124933581145e-10
7.253172650243088224e-11
5.046340491305883324e-11
3.440769775656747601e-11
2.302070766015845790e-11
1.514095270961322445e-11
