# bin_2_8
-6.577074856530880203e-22
-7.290993456265461635e-22
-7.914836370729444952e-22
-8.368823038777538092e-22
-8.560163341125029810e-22
-8.411863411058082732e-22
-7.822781833229943272e-22
-6.877067383531654328e-22
-5.729220771021967287e-22
-4.688209357958663299e-22
-3.967347630486271655e-22
-3.416833143939250659e-22
-2.648356322212072306e-22
-1.842917947351674101e-22
-1.471725506932124520e-22
-1.040262018038711461e-22
-7.644258477422663575e-23
-5.293575069691124427e-23
-3.796280676419196835e-23
-2.696863653949403685e-23
-1.925223797890384522e-23
-1.392100111422569168e-23
-1.021837650540107195e-23
-7.644835088509797537e-24
-5.821111909485133715e-24
-4.492471991146039867e-24
-3.495363169204264213e-24
-2.722374505061908222e-24
-2.107649388358540039e-24
-1.611701618188134713e-24
-1.211161941878658634e-24
