# bin_4_2
-1.124931652190184911e-09
-1.160360313373098658e-09
-1.152915352906926035e-09
-1.091292979214896102e-09
-9.777187172752419325e-10
-8.315014160729798847e-10
-6.854068172148459786e-10
-5.712184111713396199e-10
-4.865626897594106025e-10
-3.945778681024392681e-10
-2.896483401734958353e-10
-2.165929317215394288e-10
-1.653207688441374353e-10
-1.187350413490317242e-10
-8.747133163198300538e-11
-6.362481225332665534e-11
-4.680289131760447245e-11
-3.486094597280813021e-11
-2.639944157647760846e-11
-2.034795551295326579e-11
-1.592706826125609213e-11
-1.260412107593541569e-11
-1.001524774347516830e-11
-7.933692600905434180e-12
-6.222910194275045318e-12
-4.803212909153606251e-12
-3.629862728369750852e-12
-2.676038877994431513e-12
-1.920729198810624117e-12
-1.342184341215685135e-12
-9.145914481288815808e-13
