# bin_7_15
-5.499846942106645020e-21
-6.273086100408575993e-21
-7.053313794238802536e-21
-7.787934477504981086e-21
-8.407551807909752257e-21
-8.823182550923201077e-21
-8.942994378313628401e-21
-8.668403598955655777e-21
-7.931029620144629111e-21
-6.861409190057738000e-21
-5.656891326983284915e-21
-4.652014747881870923e-21
-3.993575538811369354e-21
-3.391665797485993876e-21
-2.498117204658785157e-21
-1.769112736522996442e-21
-1.432281931730119540e-21
-9.471764502107284611e-22
-7.130155563125028617e-22
-4.845775250445774045e-22
-3.298446082466904832e-22
-2.258493183633458214e-22
-1.535336919457595568e-22
-1.044277586349382689e-22
-7.138920069825395302e-23
-4.951642674106602997e-23
-3.493831058163779177e-23
-2.516759188575137214e-23
-1.853341084682307955e-23
-1.392100866292793342e-23
-1.061073987742344551e-23
