# bin_3_7
-2.186687224780396849e-16
-2.415066848688987221e-16
-2.609767079651964564e-16
-2.743759303609705491e-16
-2.787977342334246400e-16
-2.714129207713198172e-16
-2.496972323206645034e-16
-2.172268817673488618e-16
-1.797211131365699629e-16
-1.474357931193212899e-16
-1.257766230322275774e-16
-1.073699966518617644e-16
-8.080334301419783339e-17
-5.689314406843360162e-17
-4.588886677593483431e-17
-3.146125028347447967e-17
-2.362460643591821609e-17
-1.639058770484180603e-17
-1.166609123960394872e-17
-8.339848747092585143e-18
-5.999307027529578289e-18
-4.372586846076147010e-18
-3.237770599556907081e-18
-2.443978138906810741e-18
-1.874980551711367616e-18
-1.454988363160860905e-18
-1.135298463195127087e-18
-8.842980448580755961e-19
-6.829379215372723843e-19
-5.198382521296481967e-19
-3.881756940466106751e-19
