# bin_3_3
-1.628825406074229479e-10
-1.721142122179839494e-10
-1.760928944892582938e-10
-1.731206059499986832e-10
-1.614227907791483975e-10
-1.423294264299168929e-10
-1.191735742541338164e-10
-9.775284197235766367e-11
-8.232240615569006012e-11
-7.043530748389426363e-11
-5.528625013108599740e-11
-3.935755159083284413e-11
-3.058916971734969010e-11
-2.251268135588522863e-11
-1.630443642991938114e-11
-1.180609171098931578e-11
-8.607097853827522941e-12
-6.287307314887541585e-12
-4.656207274120031340e-12
-3.507689949316420792e-12
-2.689092280759009448e-12
-2.094701220437024406e-12
-1.650175076330213990e-12
-1.305773710783258857e-12
-1.030639311727007337e-12
-8.058693859877786642e-13
-6.203585404081467666e-13
-4.677597742187357768e-13
-3.441410296972216688e-13
-2.464973380296255988e-13
-1.718571526471082244e-13
