# bin_5_6
-1.274086519142965404e-11
-1.407066404505396245e-11
-1.520391712552738748e-11
-1.598310443018950877e-11
-1.623943343748395072e-11
-1.580749032235333497e-11
-1.454292198669157265e-11
-1.265182372580390145e-11
-1.046996856667361697e-11
-8.591354757294934555e-12
-7.327544064565186473e-12
-6.250999749586410278e-12
-4.706776140733699891e-12
-3.318530668980801344e-12
-2.670054230163186999e-12
-1.836213494571405399e-12
-1.374785666912343917e-12
-9.551133375011485457e-13
-6.802796776877855904e-13
-4.861173227497073708e-13
-3.496002700927430410e-13
-2.547900763388173282e-13
-1.886589300531956087e-13
-1.423916547630985808e-13
-1.092279140631142008e-13
-8.475015833786233690e-14
-6.611993122256770728e-14
-5.149525927046384847e-14
-3.976526595392335171e-14
-3.026605091568425977e-14
-2.259911243061355400e-14
