# bin_1_6
-1.813598902675636947e-20
-1.972239744067706097e-20
-2.090698002235290532e-20
-2.145878661212335494e-20
-2.118721813544758827e-20
-1.982920051036643249e-20
-1.753973224050287156e-20
-1.469293421645338632e-20
-1.202175705205683248e-20
-1.011244247152607359e-20
-8.717508468101383338e-21
-6.886213685038837581e-21
-4.822250178494639132e-21
-3.781826207655160454e-21
-2.766528867886695073e-21
-1.996573819621519871e-21
-1.419249172188232123e-21
-1.029947740960604482e-21
-7.407815862558820465e-22
-5.379362169599658858e-22
-3.968406841600444441e-22
-2.977696160891863415e-22
-2.274747723563091620e-22
-1.764154181055949044e-22
-1.381002230648822301e-22
-1.084246024960156918e-22
-8.477541148574981639e-23
-6.557204652721415551e-23
-4.988894811657719806e-23
-3.716472697718429360e-23
-2.701560235095321596e-23
