# bin_6_6
-6.111081835358007502e-11
-6.766303473350577729e-11
-7.334481579053480175e-11
-7.741047633744834146e-11
-7.901667066612822982e-11
-7.741883892929275427e-11
-7.176363226096105524e-11
-6.289051984912248093e-11
-5.229763940595393998e-11
-4.283747601011778998e-11
-3.633282363087198346e-11
-3.118967073856021809e-11
-2.397285809649763107e-11
-1.676451347068618930e-11
-1.339804072128379996e-11
-9.407275952680149965e-12
-6.940248339068218813e-12
-4.818800029935886517e-12
-3.447659793239093142e-12
-2.452852412299821255e-12
-1.754581335037360478e-12
-1.271569242367173302e-12
-9.357626773928618282e-13
-7.018826308983809286e-13
-5.355915694060794738e-13
-4.139785663872705614e-13
-3.223308761815196656e-13
-2.510218675796804872e-13
-1.941735451544285026e-13
-1.482636783163249159e-13
-1.111976037573838702e-13
