# bin_9_6
-3.305485231640684494e-10
-3.672137254296473968e-10
-3.996885355975194271e-10
-4.240169936142192569e-10
-4.355072733951887944e-10
-4.302458562337607494e-10
-4.029172438072998253e-10
-3.565786236988804644e-10
-2.988766963254769711e-10
-2.446543200814948573e-10
-2.058527485560371426e-10
-1.774625527716726060e-10
-1.401558599985682006e-10
-9.806420268415770247e-11
-7.668486521172725401e-11
-5.587633974881793996e-11
-4.002021297372579822e-11
-2.818135124810286408e-11
-2.017276485079805939e-11
-1.424892718052277429e-11
-1.011912982078692743e-11
-7.274887070639190892e-12
-5.308287962111860672e-12
-3.945226583641792325e-12
-2.986384148702814410e-12
-2.293869774319430356e-12
-1.779200028254605276e-12
-1.384090853493496442e-12
-1.072263652834386475e-12
-8.218452591772223138e-13
-6.198634470654606754e-13
