# bin_6_8
-1.216974339092926397e-12
-1.361418832948949007e-12
-1.494504551650813542e-12
-1.602346962046973006e-12
-1.667458746783435013e-12
-1.674319782160572529e-12
-1.601576347720925603e-12
-1.446180219855516517e-12
-1.234595912574152898e-12
-1.012637755397130070e-12
-8.386358454750015335e-13
-7.238542718781995013e-13
-6.009609091186623786e-13
-4.296443050594455045e-13
-3.167322533404244509e-13
-2.488886742298685007e-13
-1.680088876894525543e-13
-1.241270383005899452e-13
-8.742263556386733080e-14
-6.090514507826508597e-14
-4.279481827351366081e-14
-3.027928494720322534e-14
-2.170696439269743927e-14
-1.581186014830606842e-14
-1.174850266911976397e-14
-8.885824836843137625e-15
-6.818968685925347141e-15
-5.280078494159238236e-15
-4.095912627241613985e-15
-3.160405430316764383e-15
-2.410093247438723147e-15
