# bin_9_2
-2.010492276360970657e-09
-2.083007746618463252e-09
-2.081028704236299419e-09
-1.983633130834017042e-09
-1.790288024200888334e-09
-1.532564811979933985e-09
-1.266374181775314521e-09
-1.052210370833447770e-09
-8.956955789273584788e-10
-7.345823632459429865e-10
-5.449211382480661293e-10
-4.036286611547783161e-10
-3.099766231837875583e-10
-2.229812629193382846e-10
-1.640774704147021570e-10
-1.191530436625258161e-10
-8.747469105351690190e-11
-6.491957782631900238e-11
-4.895841454293139492e-11
-3.758039661117379861e-11
-2.930927028214663343e-11
-2.313461893591347043e-11
-1.836002350566691659e-11
-1.454588503942431684e-11
-1.142564238338968777e-11
-8.842020987818161700e-12
-6.706022993231065786e-12
-4.965114730500199286e-12
-3.580358275968430706e-12
-2.513547163515406112e-12
-1.720156984062057328e-12
