# bin_13_4
-1.059329716349513088e-09
-1.152890656332389711e-09
-1.223347873121635643e-09
-1.257468086631620635e-09
-1.243400312288987429e-09
-1.166975655167178389e-09
-1.035308631436412072e-09
-8.707772612043311944e-10
-7.140930301587374239e-10
-5.994827832749823310e-10
-5.150229707987693797e-10
-4.093948354840117594e-10
-2.904892157395567652e-10
-2.240120607223672750e-10
-1.662545497437718071e-10
-1.187207679113360438e-10
-8.555095504181065181e-11
-6.162258758949012474e-11
-4.424364825571312142e-11
-3.209938416813777595e-11
-2.362859772047025962e-11
-1.768735745803561417e-11
-1.347572321083627089e-11
-1.042641251181678399e-11
-8.146887524247606147e-12
-6.388357982080640695e-12
-4.992393578974319247e-12
-3.862233450896590441e-12
-2.940964970762569469e-12
-2.194037161327406643e-12
-1.598170367095786455e-12
