# bin_14_9
-2.292156209281486719e-10
-2.592167027659005721e-10
-2.883174708412711102e-10
-3.141653668242515010e-10
-3.336393495324022416e-10
-3.429784093323805510e-10
-3.391998314592268833e-10
-3.178650037032736622e-10
-2.814626119010428440e-10
-2.358634845151265925e-10
-1.930206462368528488e-10
-1.625477493736621783e-10
-1.404734246668545208e-10
-1.108967329905641253e-10
-7.703225165312713409e-11
-6.055486826085437168e-11
-4.372127561072095055e-11
-3.124549551149939654e-11
-2.155179867723553432e-11
-1.526708962661653580e-11
-1.056106476699006779e-11
-7.291286516061580144e-12
-5.069298973371025336e-12
-3.557244314521206095e-12
-2.536122711290564052e-12
-1.843286561097955064e-12
-1.366001535099031849e-12
-1.031132382841946077e-12
-7.891095970000054755e-13
-6.082801585849018582e-13
-4.687894762672653004e-13
