# bin_12_10
-9.421717316963892564e-11
-1.068630788020090278e-10
-1.192929361022839824e-10
-1.305677930161950141e-10
-1.394315196293493651e-10
-1.443194782150465331e-10
-1.439715015544812678e-10
-1.364277033562087222e-10
-1.220734982648104619e-10
-1.032605757889711656e-10
-8.454285378458963726e-11
-7.056884696148749984e-11
-6.108981486662790122e-11
-4.962171901832486427e-11
-3.475819820551762915e-11
-2.648175195887285325e-11
-2.001780725638204894e-11
-1.377284702838180447e-11
-9.775009341285966070e-12
-6.903065711268232281e-12
-4.737765882280731426e-12
-3.246653188982542652e-12
-2.236048069267943346e-12
-1.552569319869669868e-12
-1.092002041729252249e-12
-7.823881430370707815e-13
-5.716477064346452328e-13
-4.262043596909583903e-13
-3.232458116233857704e-13
-2.479976633317230550e-13
-1.910802051245277769e-13
