# bin_14_8
-3.157387871857899784e-10
-3.555178608195181892e-10
-3.933571105256456445e-10
-4.258628557747283826e-10
-4.486316287150794050e-10
-4.568309589915778589e-10
-4.459210837769385231e-10
-4.114402339057906899e-10
-3.589422761043566397e-10
-2.975655300874214920e-10
-2.441239780229715181e-10
-2.080552409131193229e-10
-1.780191260605871242e-10
-1.346981390370100018e-10
-9.444067888874072769e-11
-7.593867037999159293e-11
-5.201667615935706128e-11
-3.865973069269993894e-11
-2.644258483857051163e-11
-1.853301104599080199e-11
-1.294670512172052602e-11
-9.045734494759184215e-12
-6.369839027798975316e-12
-4.538244023525307976e-12
-3.294494029111074247e-12
-2.438293358151144404e-12
-1.837486000595822267e-12
-1.405534919456228250e-12
-1.084544047256642429e-12
-8.382102105659690717e-13
-6.441944783488135104e-13
