# bin_1_7
-2.620967701429258701e-23
-2.878813007805389986e-23
-3.089748133913379164e-23
-3.220472905489402383e-23
-3.240228814730621257e-23
-3.109519566882148774e-23
-2.817962227082249676e-23
-2.414926221708851219e-23
-1.984365527096915920e-23
-1.640122002398605819e-23
-1.411896836964380330e-23
-1.179042211120526674e-23
-8.535306222932357893e-24
-6.236666688975637404e-24
-4.943841084878830711e-24
-3.365756474849866019e-24
-2.515961308742799232e-24
-1.782378637997778530e-24
-1.264912223176330582e-24
-9.085462336358470824e-25
-6.593105630762747543e-25
-4.859787370049316482e-25
-3.644150294419776302e-25
-2.782976364295887502e-25
-2.154917733227172280e-25
-1.682489577677959155e-25
-1.315877564272096825e-25
-1.023513434859149195e-25
-7.867296100360234439e-26
-5.943838092242897235e-26
-4.395309443788625090e-26
