# bin_13_11
-8.167695336711539758e-11
-9.290039889523142455e-11
-1.040782621846146370e-10
-1.144146219889105467e-10
-1.228481576757040516e-10
-1.280369502816886690e-10
-1.287696447899738603e-10
-1.234046308992910443e-10
-1.116196653956151080e-10
-9.544315152339487355e-11
-7.833950695643171613e-11
-6.485976264246022267e-11
-5.600834856113051053e-11
-4.662210522614474609e-11
-3.335060083683968183e-11
-2.447766487660480725e-11
-1.927095393397280195e-11
-1.287588832344742785e-11
-9.471759189959125927e-12
-6.574086264516897538e-12
-4.484686046177814969e-12
-3.067017210824211644e-12
-2.094874593004849577e-12
-1.439187175733811828e-12
-9.980227014534942327e-13
-7.039101537886159095e-13
-5.059203516260789881e-13
-3.713579975402037647e-13
-2.780911764239214506e-13
-2.115665343333327910e-13
-1.624546175444131055e-13
