# bin_8_8
-3.915448077965875334e-11
-4.396891773707041894e-11
-4.849070249608899352e-11
-5.228732242954031924e-11
-5.480542581922819326e-11
-5.548418984827002162e-11
-5.370574153107238235e-11
-4.908860383934399648e-11
-4.242797975801557500e-11
-3.498077837375089203e-11
-2.878675270689588916e-11
-2.469801830349478562e-11
-2.092094249526858035e-11
-1.541812553288747703e-11
-1.098285950012771542e-11
-8.840536815273881915e-12
-5.933524686843031413e-12
-4.457549462466618150e-12
-3.074210318460143136e-12
-2.139785964869555603e-12
-1.500949051119000318e-12
-1.055114270541965805e-12
-7.487712517376055274e-13
-5.386228492323951833e-13
-3.951716289287246625e-13
-2.954559702329126249e-13
-2.246325877508538827e-13
-1.729265748522450582e-13
-1.338799964941782480e-13
-1.034874549783413317e-13
-7.931589686758247448e-14
