# bin_2_12
-6.871667232020898010e-32
-7.761653541759557669e-32
-8.620082040201265199e-32
-9.375554821793630020e-32
-9.933720372379919093e-32
-1.018231349164165757e-31
-1.003291674366587505e-31
-9.356656236072790897e-32
-8.247449182591152033e-32
-6.882590059563426178e-32
-5.631435722253637603e-32
-4.761496291628604027e-32
-4.111867163512050145e-32
-3.203253268057314222e-32
-2.217204489536392742e-32
-1.768808081485592099e-32
-1.248642653867882942e-32
-9.098931410859864157e-33
-6.191696197597736703e-33
-4.385785307306240700e-33
-3.046027382179183389e-33
-2.111871314817363847e-33
-1.474665483354463487e-33
-1.039671097063951527e-33
-7.456619872751155341e-34
-5.453141208716645393e-34
-4.065368335667796624e-34
-3.084463206932458861e-34
-2.369075841292549141e-34
-1.829558472112311993e-34
-1.410021273687990596e-34
