# bin_3_10
-5.146067288070814398e-23
-5.774387230041669267e-23
-6.362305009927425390e-23
-6.852540696847294461e-23
-7.172100125777022281e-23
-7.248949583914865305e-23
-6.999266269182975167e-23
-6.380103749392627229e-23
-5.499212523101916097e-23
-4.527218807479045998e-23
-3.729564132642290192e-23
-3.206006914507179953e-23
-2.706545416117144381e-23
-1.978862729698917452e-23
-1.418230135374886333e-23
-1.140049517099704042e-23
-7.619436545911921616e-24
-5.730144843962442391e-24
-3.969095389042951145e-24
-2.758377562501106452e-24
-1.936157878567547453e-24
-1.362769115200049420e-24
-9.692726842074827528e-25
-6.992347281849606081e-25
-5.145631374881749928e-25
-3.858173169336838956e-25
-2.940445228157505786e-25
-2.267417813919474830e-25
-1.756850652674926878e-25
-1.357901593785193627e-25
-1.039812905950833804e-25
