# bin_13_14
-6.530781534755434767e-12
-7.468118001382786224e-12
-8.424379608605893255e-12
-9.338406866428701787e-12
-1.013029237132868790e-11
-1.069568316595698784e-11
-1.091542518202088539e-11
-1.068785093673283974e-11
-9.889791989055753001e-12
-8.652220190741510562e-12
-7.179030593093381057e-12
-5.881493944041027694e-12
-5.007685754090606050e-12
-4.305650731501645219e-12
-3.274225246078905765e-12
-2.272395165313876517e-12
-1.839038255717227640e-12
-1.248114379348488603e-12
-9.298502366014078682e-13
-6.224877813027042264e-13
-4.289408420333077272e-13
-2.930771930895912924e-13
-1.985173707894226022e-13
-1.339445171861453708e-13
-9.045566460254937583e-14
-6.176108282526498156e-14
-4.278592830989882637e-14
-3.020567005446774214e-14
-2.180842128708096463e-14
-1.610267171192983372e-14
-1.212131601268104737e-14
