# bin_8_12
-1.343342233924918275e-14
-1.525352800666865494e-14
-1.705155059301704335e-14
-1.869501388856341658e-14
-2.000644737578404687e-14
-2.076298771933018116e-14
-2.077985834851345739e-14
-1.977496783213315319e-14
-1.776427181576710087e-14
-1.508295594328312075e-14
-1.235432059895682044e-14
-1.027804013279456583e-14
-8.897787949346945587e-15
-7.302186731545296703e-15
-5.140401090651305916e-15
-3.864905844515987964e-15
-2.972320312146858223e-15
-2.015608179069652909e-15
-1.450697472560237958e-15
-1.020587220015389288e-15
-6.984965660014067928e-16
-4.776162957259991781e-16
-3.277434340162287717e-16
-2.266636053113455620e-16
-1.586002552401334080e-16
-1.129955096691483165e-16
-8.208794833683425449e-17
-6.088476766146727432e-17
-4.599368487397607931e-17
-3.520601204582399554e-17
-2.711369603617736416e-17
