# bin_14_4
-1.098980118264180283e-09
-1.196110854587576537e-09
-1.269299214518555519e-09
-1.304813440127345061e-09
-1.290359161663466891e-09
-1.211217781694638217e-09
-1.074705902634559745e-09
-9.040178189447274920e-10
-7.413568318491599378e-10
-6.223093759798386578e-10
-5.346507394838918212e-10
-4.251353206142259410e-10
-3.016851069789851859e-10
-2.325754764805721989e-10
-1.726785047112798723e-10
-1.232742855840267773e-10
-8.884791157999884239e-11
-6.399225442007087780e-11
-4.594180244969562034e-11
-3.332898214965028198e-11
-2.453139249469062893e-11
-1.836131155947977207e-11
-1.398779504158310466e-11
-1.082173944939355582e-11
-8.455325200851787758e-12
-6.630058965012490359e-12
-5.181318579219825105e-12
-4.008535633544962026e-12
-3.052555953205263234e-12
-2.277473136260758014e-12
-1.659107803665496725e-12
