# bin_14_14
-1.626899390702992364e-11
-1.861317507895415198e-11
-2.100925755173410972e-11
-2.330576289972920003e-11
-2.530482625614318766e-11
-2.674711485912131566e-11
-2.733217020251227673e-11
-2.681197109443198187e-11
-2.486419993983053632e-11
-2.179846492041520929e-11
-1.811306722424388755e-11
-1.483265765968027477e-11
-1.260696472372122293e-11
-1.085688474898956172e-11
-8.307794278098063347e-12
-5.754083277165201321e-12
-4.644069272637952244e-12
-3.178227813993064468e-12
-2.354703711550269607e-12
-1.574931018753918422e-12
-1.089616130886968023e-12
-7.435973777521456966e-13
-5.029145254803938363e-13
-3.388443053451952825e-13
-2.283499285858874176e-13
-1.554555683282186595e-13
-1.073160411637093409e-13
-7.545833252682453503e-14
-5.425580565848368466e-14
-3.990851551852931667e-14
-2.995051348171293591e-14
