# bin_14_1
-3.571576025850127182e-09
-3.502200841519524770e-09
-3.271902460766755111e-09
-2.900935332258643746e-09
-2.457280807024636824e-09
-2.035893404787806932e-09
-1.702626991336926503e-09
-1.428787874897929562e-09
-1.137963108966048084e-09
-8.468527802070951134e-10
-6.349420324182789892e-10
-4.792124715326529552e-10
-3.496707457412748070e-10
-2.578339664576754188e-10
-1.900500775344473567e-10
-1.418062445940746819e-10
-1.073975413516445542e-10
-8.278628948070389211e-11
-6.488192798391984279e-11
-5.149144678129324223e-11
-4.113374123072781364e-11
-3.283729286146047687e-11
-2.601125723515198159e-11
-2.031458535337509836e-11
-1.555837392169014656e-11
-1.163773270084511471e-11
-8.481600446578324569e-12
-6.018607627031959260e-12
-4.162521433142017058e-12
-2.812148642836432038e-12
-1.861331495427215281e-12
