# bin_3_1
-1.919845052240773774e-09
-1.868916299527132952e-09
-1.731275943859979961e-09
-1.522320702338203626e-09
-1.281899553893745680e-09
-1.061555073758864175e-09
-8.902233505063416400e-10
-7.441629844934526905e-10
-5.850944521823242074e-10
-4.332203217229752963e-10
-3.267305902618124967e-10
-2.451795267375807943e-10
-1.789114532495133557e-10
-1.321154338079106893e-10
-9.761322098528698138e-11
-7.309140291193215324e-11
-5.560676216723670808e-11
-4.306370217670509067e-11
-3.388881053696708967e-11
-2.697612354221182311e-11
-2.158320778245957535e-11
-1.722950271954154944e-11
-1.362725234446406897e-11
-1.061255525092597644e-11
-8.095940787753935950e-12
-6.027347787653610929e-12
-4.370372952848712057e-12
-3.085438519559315835e-12
-2.123762747273522028e-12
-1.428756138945132245e-12
-9.423216359399980539e-13
