# bin_14_3
-1.565735775437718452e-09
-1.672731698026659729e-09
-1.734594833380219716e-09
-1.734478061702343939e-09
-1.653058670033867408e-09
-1.489923562400843646e-09
-1.271974802579789990e-09
-1.047336260588460952e-09
-8.701186730246452186e-10
-7.451162305191413082e-10
-6.118130021351476566e-10
-4.466460052181161969e-10
-3.316429806650241507e-10
-2.558915257063679916e-10
-1.809078005433632300e-10
-1.332793579096242449e-10
-9.580015218038945926e-11
-6.947094986908119322e-11
-5.089453450814742712e-11
-3.781851054023729744e-11
-2.859058425613522886e-11
-2.198197289700969316e-11
-1.714901699721792488e-11
-1.349429118207622290e-11
-1.063842437152558528e-11
-8.345185336160452530e-12
-6.470489128315953947e-12
-4.930889521323250772e-12
-3.676433655382999817e-12
-2.673261397402841760e-12
-1.892980763432348785e-12
