# bin_8_1
-3.157411133612925179e-09
-3.092652163151217513e-09
-2.885576623497435140e-09
-2.555222986009514125e-09
-2.162522271963127971e-09
-1.791545788777963630e-09
-1.498890269269275827e-09
-1.257097875689150097e-09
-9.993113009622703077e-10
-7.431124238662711936e-10
-5.576404994003383140e-10
-4.205173610031500919e-10
-3.068427014703307334e-10
-2.263030592012135951e-10
-1.668663574198697172e-10
-1.245724794672465712e-10
-9.440857646182232134e-11
-7.282422135271512588e-11
-5.710931821664064221e-11
-4.534349891743267205e-11
-3.623093941644875786e-11
-2.892327012341792527e-11
-2.290567951765168400e-11
-1.788156187070258171e-11
-1.368696201105904695e-11
-1.023074789456018100e-11
-7.450554087188824520e-12
-5.282984756800615412e-12
-3.651197577626942908e-12
-2.465182151598216576e-12
-1.630830288258609837e-12
