# bin_14_10
-1.614738570337801008e-10
-1.832386142778214494e-10
-2.046822841905665525e-10
-2.242022279595028710e-10
-2.396551239780923079e-10
-2.483636598971186636e-10
-2.481294028877338564e-10
-2.356062256714939637e-10
-2.112284028156407439e-10
-1.790236421661541297e-10
-1.466330318195754238e-10
-1.222101009572825165e-10
-1.057565035949962969e-10
-8.630067125649871214e-11
-6.067114995167031878e-11
-4.590793330512979827e-11
-3.497317789244591424e-11
-2.392268898281006035e-11
-1.709407055957536684e-11
-1.203549641423915583e-11
-8.250441080270052447e-12
-5.650921095937046903e-12
-3.885708951340769511e-12
-2.692707148932523131e-12
-1.889041968140883990e-12
-1.349634663419674633e-12
-9.832451097092219426e-13
-7.311015965820074145e-13
-5.532962458923872122e-13
-4.239085492224247072e-13
-3.264509752993940391e-13
