# bin_1_2
-3.005927794666891374e-11
-3.020710969502222775e-11
-2.901035742088565262e-11
-2.638062378956201960e-11
-2.272619144314159568e-11
-1.879973395902591269e-11
-1.555070349449692851e-11
-1.324169269841246657e-11
-1.101375207275211365e-11
-8.239852265966173096e-12
-6.037680773478054539e-12
-4.696241124319111240e-12
-3.377880874750875093e-12
-2.502587211532025562e-12
-1.824380963459507395e-12
-1.348802240636182740e-12
-1.009075198343285100e-12
-7.678763319132738030e-13
-5.950940036817588220e-13
-4.684494326142106243e-13
-3.728425397868089664e-13
-2.979258181838913852e-13
-2.372454221661053316e-13
-1.869693879673714448e-13
-1.449094951055161735e-13
-1.098817695145502124e-13
-8.121941760735926203e-14
-5.841184953635632606e-14
-4.088077381598804391e-14
-2.789611355745418075e-14
-1.861453283631540135e-14
