# bin_6_6
-6.065849982773285245e-11
-6.719134777707918590e-11
-7.287119055338859074e-11
-7.695848671873173165e-11
-7.861193604549862377e-11
-7.709361126647074061e-11
-7.154002404147333042e-11
-6.276249436159214663e-11
-5.223740757393869403e-11
-4.279512289986185031e-11
-3.628197631714540871e-11
-3.116659828115761883e-11
-2.401219658768891046e-11
-1.678844343741387413e-11
-1.340367924888733349e-11
-9.436718927184889735e-12
-6.949654233239431368e-12
-4.827552694756473326e-12
-3.455595042278131564e-12
-2.457384302445875969e-12
-1.756845480568468352e-12
-1.272452521037197343e-12
-9.357915452180291759e-13
-7.014214397476242843e-13
-5.349233737249290921e-13
-4.132839270718544122e-13
-3.217207914235429860e-13
-2.505509141572457038e-13
-1.938541008790733429e-13
-1.480809996019615958e-13
-1.111227434316465395e-13
