# bin_2_11
-1.963553190307526679e-29
-2.209767702678354624e-29
-2.443395473752130490e-29
-2.643200946459014890e-29
-2.781724426518673084e-29
-2.829070326368504962e-29
-2.756758211035820755e-29
-2.537789906363480838e-29
-2.209124606347496308e-29
-1.827826064228372863e-29
-1.499598492326434133e-29
-1.280758220872413839e-29
-1.095253300152802847e-29
-8.226724826881914705e-30
-5.765791249198354770e-30
-4.669635757956724372e-30
-3.155689626787687057e-30
-2.371678183349510263e-30
-1.618104908108019103e-30
-1.129452088206619877e-30
-7.909209308074316744e-31
-5.540120419190104038e-31
-3.908925953969375099e-31
-2.791246237764175966e-31
-2.031939119891234426e-31
-1.508061020706283210e-31
-1.139421311700443017e-31
-8.734130365756603237e-32
-6.749039876573342086e-32
-5.219411937635008587e-32
-4.010678944061234078e-32
