# bin_7_2
-1.780846833249841511e-09
-1.844036673301763821e-09
-1.840991436882897322e-09
-1.753249938675884907e-09
-1.580866080847768986e-09
-1.352153561468787046e-09
-1.116958534997309415e-09
-9.284551389708396444e-10
-7.904562662896025818e-10
-6.473421390235682735e-10
-4.795278870303708399e-10
-3.556346899471523583e-10
-2.729233569030024930e-10
-1.962729289412364063e-10
-1.444554264987823814e-10
-1.049236266086279504e-10
-7.704922295720401978e-11
-5.720979541901153167e-11
-4.316797272216220488e-11
-3.315398458006707607e-11
-2.586974490694077719e-11
-2.042698447419817040e-11
-1.621412614043571154e-11
-1.284578756560453055e-11
-1.008848562823193668e-11
-7.804654089400339422e-12
-5.916535926912461186e-12
-4.378152471045979832e-12
-3.155186754755783803e-12
-2.213721828657813899e-12
-1.514120254596743393e-12
