# bin_9_5
3.427257751451897403e-14
3.846328943233835765e-14
4.238774184955102853e-14
4.566500532282645010e-14
4.780930864162255917e-14
4.833903505040868119e-14
4.669730100001891920e-14
4.258900098513738864e-14
3.672792736605504318e-14
3.024284260765547078e-14
2.490731405304858501e-14
2.140451483401888848e-14
1.808588346205635973e-14
1.324074711910404508e-14
9.474994636182458830e-15
7.624571457918040365e-15
5.094350878129486428e-15
3.834132200982698468e-15
2.653224701414307392e-15
1.843758573108115189e-15
1.294137452941800393e-15
9.106690226922710832e-16
6.474330412812467761e-16
4.668183105409928898e-16
3.433404890123994287e-16
2.573072162856732194e-16
1.960237489920096512e-16
1.511179787968344721e-16
1.170796103568664174e-16
9.049989118066790121e-17
6.931524360486093699e-17
