# bin_15_4
4.163418414273968328e-28
4.742961747909377406e-28
5.324421311143940672e-28
5.867676219360381179e-28
6.319480407481284449e-28
6.612032652344485231e-28
6.679413448814600848e-28
6.441856586775085659e-28
5.863306723618414653e-28
5.045646582164513333e-28
4.150185664730411196e-28
3.422101719177239291e-28
2.947076916724461146e-28
2.482879665023938569e-28
1.802837056541965560e-28
1.295952366435023544e-28
1.039629220381925045e-28
6.874883863636259575e-29
5.142760322876197115e-29
3.527859188886162407e-29
2.400874272717617317e-29
1.642728443027846370e-29
1.118151465633045791e-29
7.637568991461514799e-30
5.254302906957849854e-30
3.671953547895797270e-30
2.612874772541533202e-30
1.898842965787977288e-30
1.409672623936206675e-30
1.065687596957194492e-30
8.155849852041519159e-31
