# bin_9_3
4.279532670887193463e-19
4.783228161344284878e-19
5.245056650736701540e-19
5.615764374093830761e-19
5.833484331291229383e-19
5.845302307956736404e-19
5.574281589704524016e-19
5.018737929563548906e-19
4.271632413012556507e-19
3.501362963754890697e-19
2.906994298630763425e-19
2.512382804574053933e-19
2.072368890582053294e-19
1.471168727559840834e-19
1.096910480475425702e-19
8.531842381023733923e-20
5.798849547606290782e-20
4.247109436348780173e-20
3.009996057684877692e-20
2.100693139413603917e-20
1.476928384324711629e-20
1.047372591438965614e-20
7.530686178426108822e-21
5.504797242409802140e-21
4.103929563538374426e-21
3.113136440903137383e-21
2.394457105061149507e-21
1.856495289444132479e-21
1.440545878902753755e-21
1.110771056458710582e-21
8.458128021392457628e-22
