# bin_14_8
1.248068046007561095e-15
1.422827480295685330e-15
1.598757942421584214e-15
1.763889578632406112e-15
1.902385308631169140e-15
1.993999231276423684e-15
2.018353833420312200e-15
1.952354049970787221e-15
1.782446231727036112e-15
1.538670431136048189e-15
1.267267080715353775e-15
1.043227486836286209e-15
8.968016056112713600e-16
7.592760996986200261e-16
5.558874479772579017e-16
3.959503600406640925e-16
3.196107906128303280e-16
2.111333956257907553e-16
1.586742612497055031e-16
1.082447506593264858e-16
7.364755814370614230e-17
5.041509133505304528e-17
3.428603567422033266e-17
2.335932424670287371e-17
1.600995901489465562e-17
1.113891341755521817e-17
7.886950465895794317e-18
5.702255284800195130e-18
4.213529452330806629e-18
3.173696878342030502e-18
2.423405941325313867e-18
