# bin_6_5
4.182779996293339289e-11
4.636901490243839975e-11
5.033713852425248003e-11
5.322417996072153612e-11
5.444114194140565474e-11
5.349260062159743016e-11
4.974213605361024076e-11
4.372697709003338187e-11
3.643311017132329864e-11
2.982559852623763023e-11
2.525129674100888015e-11
2.174195156141602743e-11
1.683936617939833599e-11
1.172873512381810307e-11
9.368023522431600479e-12
6.617759876200891558e-12
4.865945093551533679e-12
3.371379958481063525e-12
2.417271756117506368e-12
1.717693729006357263e-12
1.226597792480111539e-12
8.872154241256581922e-13
6.514748441765930756e-13
4.875684328652371721e-13
3.713647733181031367e-13
2.866691093667898084e-13
2.230753649455050745e-13
1.737528220103791892e-13
1.345157382788323041e-13
1.028539857265360663e-13
7.728163318212554399e-14
