# bin_13_13
3.387014248545057474e-11
3.874148122860297714e-11
4.371650933745328076e-11
4.847885613178841428e-11
5.261543816010487709e-11
5.558577558886591282e-11
5.676729450406991634e-11
5.563894663309621421e-11
5.154266301764947168e-11
4.514278863727544608e-11
3.748143857859403864e-11
3.069720212225650779e-11
2.611439159996250816e-11
2.247787879656102534e-11
1.714682341576986413e-11
1.188114613940058631e-11
9.609687246383815212e-12
6.542970236174136989e-12
4.866505021559424220e-12
3.253537161351147372e-12
2.245465593902005549e-12
1.533692438515482841e-12
1.038404028195775945e-12
7.000914442457927166e-13
4.722496763230278777e-13
3.219401440459653359e-13
2.226173038203033880e-13
1.568358837501212275e-13
1.129977260843776515e-13
8.327720195482551899e-14
6.259778131338111135e-14
