# bin_14_13
2.644367209401294887e-11
3.027790174602359079e-11
3.420887091505246565e-11
3.799282041563890516e-11
4.131125952139543117e-11
4.374434042298932065e-11
4.479483709120580199e-11
4.407161083356730138e-11
4.101217267860242049e-11
3.607506865683772830e-11
3.004545234344961723e-11
2.458754749820146575e-11
2.084020026338176297e-11
1.799051976140701313e-11
1.390214825689701043e-11
9.600783071778115327e-12
7.712727948221448210e-12
5.349537677382806961e-12
3.927453475687615471e-12
2.624485499978785811e-12
1.827261720087126569e-12
1.244568185105929464e-12
8.396404146209024811e-13
5.644457976733749768e-13
3.791537696306027371e-13
2.569269244822765593e-13
1.763737316847722620e-13
1.232166878669824454e-13
8.799928895204201453e-14
6.432263906652223774e-14
4.802857939008932751e-14
