# bin_12_5
4.538045781646898999e-19
5.138889121150852950e-19
5.725037331406427236e-19
6.250621636318871438e-19
6.654324469463008970e-19
6.860529485287182377e-19
6.811454834928770893e-19
6.413020354104230712e-19
5.703509083898885344e-19
4.795756917571643917e-19
3.922870930234651415e-19
3.291236628961967513e-19
2.850253711861990975e-19
2.278974778152407754e-19
1.581290187853478960e-19
1.231278784700356704e-19
9.058756231317787770e-20
6.373505032432377813e-20
4.419688364741595477e-20
3.145527299472069947e-20
2.168280957309882914e-20
1.490145771100264956e-20
1.032145000198654262e-20
7.211536578831671741e-21
5.113494737285662430e-21
3.695627792846335654e-21
2.723991333490848547e-21
2.047120048561303420e-21
1.562078089504409372e-21
1.202803042691166800e-21
9.276344947793340832e-22
