# bin_7_1
1.212929150163329322e-21
1.332929311893464428e-21
1.431496092279755961e-21
1.493251024678972074e-21
1.503808821743930646e-21
1.445019403478563197e-21
1.311272823415874300e-21
1.125205139263863364e-21
9.250352492117011874e-22
7.639640146069794585e-22
6.572759034123144995e-22
5.501893391744968511e-22
3.994879592080425486e-22
2.907753357575524589e-22
2.311866381802142420e-22
1.571918990915927920e-22
1.177415455740296867e-22
8.323864525864788990e-23
5.905764485367630038e-23
4.240540647514369910e-23
3.074917572639034535e-23
2.264304937312649314e-23
1.696108015312637419e-23
1.294054457897480576e-23
1.001286757407991462e-23
7.814250896006015154e-24
6.110803315571605124e-24
4.753996840736260645e-24
3.655878427604685775e-24
2.763958221773994857e-24
2.045657650518211283e-24
