# bin_9_1
3.006520125712290148e-27
3.349612681698298914e-27
3.658607596846966053e-27
3.898073264771035662e-27
4.024291726382339597e-27
4.002549888299427329e-27
3.778847955328207406e-27
3.369954219805227529e-27
2.841863668456267404e-27
2.325569197224183951e-27
1.945398347804164827e-27
1.682984834839277163e-27
1.356509201701031194e-27
9.487174242722679702e-28
7.305180325502597237e-28
5.472926010348189209e-28
3.832625179843513065e-28
2.725974915713053591e-28
1.955856514832756589e-28
1.374231859889614563e-28
9.703486091993757810e-29
6.935577441495961848e-29
5.029758288025152425e-29
3.713211294527503917e-29
2.794021264577343370e-29
2.136134090580728318e-29
1.652224489419934964e-29
1.284472091809180543e-29
9.964521456623541429e-30
7.661168968310864199e-30
5.804263627112419769e-30
