# bin_15_15
3.707392578716323503e-11
4.256024772247925718e-11
4.823355424802008446e-11
5.376904580507699931e-11
5.873358138507074041e-11
6.254787479584436827e-11
6.449441397113110291e-11
6.403748495006528579e-11
6.027411197655600616e-11
5.358514791276133509e-11
4.502755342578251032e-11
3.682636905434351871e-11
3.091984125730182575e-11
2.678915444194311558e-11
2.137789436965100911e-11
1.477926922760549640e-11
1.154286785118314377e-11
8.438861201599570745e-12
5.928221779510761457e-12
4.050038559686748190e-12
2.859335516676491101e-12
1.933847767266206415e-12
1.291487403928832550e-12
8.620102555512803002e-13
5.737342899318942100e-13
3.832299850724370658e-13
2.583920276779534409e-13
1.766433653610061120e-13
1.231681523838053911e-13
8.789974482269333667e-14
6.426017006970622650e-14
