# bin_6_11
1.194147376777402438e-07
1.328351131297822535e-07
1.448047429487143515e-07
1.538990776392192720e-07
1.584089297080312471e-07
1.569077313416096266e-07
1.474194474087674710e-07
1.308784002351702647e-07
1.100125352275667712e-07
9.011469868645461125e-08
7.570461222721253558e-08
6.532651417972886102e-08
5.196427579131380273e-08
3.644137812751298501e-08
2.831495131622753177e-08
2.084036806402820798e-08
1.481971510680084063e-08
1.049158078185347480e-08
7.503867192842387545e-09
5.292381955829373056e-09
3.753351762704007154e-09
2.693342829977315522e-09
1.961151375353171400e-09
1.454130734260946061e-09
1.098364976850737060e-09
8.422247935883158561e-10
6.525583829037925069e-10
5.074909875001912613e-10
3.933347531222362766e-10
3.018156978924499599e-10
2.280237846495952924e-10
