# bin_4_5
6.811850847686379122e-08
7.389381298212422636e-08
7.808536401948055107e-08
7.985392968403959044e-08
7.842970130863962416e-08
7.298198407322859845e-08
6.420875932647093150e-08
5.363248353733428776e-08
4.399035281926046924e-08
3.717671209340288242e-08
3.186418188728653514e-08
2.480006129504293993e-08
1.752629657559124296e-08
1.377631948253039182e-08
9.961040810454373882e-09
7.250631611852709778e-09
5.166220980264338173e-09
3.738971186700827030e-09
2.698201586214470274e-09
1.967492758188529970e-09
1.457425268841167342e-09
1.098129398118686292e-09
8.420702451023144086e-10
6.548838618150790545e-10
5.134779128094463290e-10
4.032656237673125438e-10
3.150097571710823685e-10
2.431633914694783666e-10
1.844683501990563369e-10
1.369256514585139321e-10
9.913889177831169237e-11
