# bin_12_5
2.965638199080649860e-18
3.358354394857091833e-18
3.741246329513217924e-18
4.084217315621226320e-18
4.347034431849006944e-18
4.480176716908703703e-18
4.445834122798720204e-18
4.182687670891194463e-18
3.717316097417987161e-18
3.123878939094002247e-18
2.555936022278130077e-18
2.146790125944001126e-18
1.859349379002663060e-18
1.482958487961053483e-18
1.028528512098400622e-18
8.035057686709100166e-19
5.886082697915725632e-19
4.158813040286478432e-19
2.876305095754076888e-19
2.047854435225272538e-19
1.413140787724107725e-19
9.723020775912898720e-20
6.742910616759764548e-20
4.717376525460160419e-20
3.350265382263853029e-20
2.425280165207361211e-20
1.790462769404739894e-20
1.347391127468585491e-20
1.029164995621172017e-20
7.928965794292822498e-21
6.115692070537805834e-21
