# bin_8_8
1.114717462913798788e-08
1.252233488679304619e-08
1.381533370471096610e-08
1.490293666387328629e-08
1.562729280206295430e-08
1.582779131949106108e-08
1.532836102126361991e-08
1.401787268406317036e-08
1.212220321353367526e-08
9.998412094821899263e-09
8.229422272944339342e-09
7.061476442324432284e-09
5.985088688792067132e-09
4.414757868680332167e-09
3.143820960559934420e-09
2.531838511910898468e-09
1.700020711465790047e-09
1.277534153523390824e-09
8.809735784843428317e-10
6.133991193539515517e-10
4.303595421075837386e-10
3.025719033051542063e-10
2.147369533961855653e-10
1.544719815877216065e-10
1.133283057497427636e-10
8.472841984695154710e-11
6.441648557831241909e-11
4.958956194557029364e-11
3.839495225672886566e-11
2.968296054494953819e-11
2.275478739267471784e-11
