# bin_13_5
3.799539706452370479e-20
4.313326854956989441e-20
4.819950863472672542e-20
5.281740660946906041e-20
5.648161162663418514e-20
5.855848890452334520e-20
5.853366065524313355e-20
5.560216857749372282e-20
4.986344762507223336e-20
4.226479386864287975e-20
3.461478866359033534e-20
2.885152957879735935e-20
2.499229398327005274e-20
2.041835665929964089e-20
1.432442255226261419e-20
1.085044519313928183e-20
8.278491367760355304e-21
5.651348194084769558e-21
4.037331421808739804e-21
2.850850791530006079e-21
1.954167178283012813e-21
1.337230680992770291e-21
9.195193382113440035e-22
6.374134009890687368e-22
4.473295020092246089e-22
3.197209713941852275e-22
2.330285039281218576e-22
1.733618983181183351e-22
1.312774404304364209e-22
1.006429392936665138e-22
7.755579875923945427e-23
