# bin_11_13
2.742772981399266902e-08
3.120755846705910422e-08
3.497544757912657130e-08
3.846395587960001584e-08
4.131623495566352579e-08
4.308059452265249183e-08
4.334733980109599124e-08
4.156412957579338898e-08
3.761493767550012587e-08
3.218119905252244446e-08
2.642392398674555019e-08
2.187971764631736366e-08
1.889713825915313958e-08
1.574214185677489972e-08
1.127068299929622846e-08
8.267364535667793988e-09
6.515417456090887200e-09
4.352556562590891073e-09
3.204831877491172457e-09
2.223939999426126984e-09
1.517396324591005322e-09
1.038040766736998079e-09
7.091309755629895797e-10
4.872167897953383206e-10
3.378712186608357909e-10
2.382904691483604695e-10
1.712501713350421191e-10
1.256861413635103844e-10
9.410888448454986653e-11
7.159086606495715336e-11
5.497195219732090527e-11
