# bin_14_9
5.628937338654372270e-13
6.421598157623617183e-13
7.221548750341353312e-13
7.974879840226204687e-13
8.610367311128337905e-13
9.036656710636957130e-13
9.159761212198640525e-13
8.877796810418531027e-13
8.121794475616182336e-13
7.025697803155234790e-13
5.792953665558326602e-13
4.766167886056227194e-13
4.093724985583443826e-13
3.475658418157994702e-13
2.557928855353223663e-13
1.813884236906146383e-13
1.468043304687844233e-13
9.709614281136098341e-14
7.308458603377452799e-14
4.971691939902140325e-14
3.384899702155621720e-14
2.318269829795029533e-14
1.576597778176247329e-14
1.073035334293218485e-14
7.341540794121109191e-15
5.096889787776083484e-15
3.599884583381613590e-15
2.595748510051190266e-15
1.913242932022364610e-15
1.438139795169198409e-15
1.096698667935468669e-15
