# bin_14_6
4.008161273757026126e-19
4.562815495183840702e-19
5.116998133356141407e-19
5.631774626450310583e-19
6.055246344857358492e-19
6.321600789934310463e-19
6.369751416469894171e-19
6.119635784592417598e-19
5.548203706479021460e-19
4.755385879155040262e-19
3.906109058637185774e-19
3.229782217246593961e-19
2.788441880144455570e-19
2.332502978709919413e-19
1.675621031359137253e-19
1.221268799156892399e-19
9.694941414111174357e-20
6.440232993889877032e-20
4.775375822391364333e-20
3.302987896392978672e-20
2.250890443368896969e-20
1.539578682719183216e-20
1.050098037356619759e-20
7.201873426390389282e-21
4.982477443440906741e-21
3.504646915998297197e-21
2.511517247193764714e-21
1.838244900248111611e-21
1.373309842524391992e-21
1.043160194134660665e-21
8.005530180385778958e-22
