# bin_14_2
4.960030207954313109e-34
5.636793389001395534e-34
6.307521267396954723e-34
6.923449372416938250e-34
7.419263164306474819e-34
7.712692326119999825e-34
7.733572894695762603e-34
7.378316713246306968e-34
6.644257080595944240e-34
5.655420925963479411e-34
4.636079325026428501e-34
3.851695744131392915e-34
3.333500396874523816e-34
2.749715578783859816e-34
1.944928029204653665e-34
1.451455987818330940e-34
1.125779730107225165e-34
7.590798727872573783e-35
5.507620769250017416e-35
3.860011414810220070e-35
2.639260015194216049e-35
1.804819710892743620e-35
1.236706276025264033e-35
8.537171365999474076e-36
5.958521460105201428e-36
4.233056437154233938e-36
3.065889606419991589e-36
2.267374602842083621e-36
1.708757175114010462e-36
1.305926795569633103e-36
1.005144134524612265e-36
