# bin_10_7
3.404421135016271140e-11
3.844110778019718457e-11
4.267360066238176509e-11
4.638510371728249299e-11
4.910559193666740807e-11
5.028172468504197366e-11
4.946774487979396663e-11
4.604462201450310237e-11
4.051251583238401993e-11
3.376334862688509769e-11
2.764075815988931015e-11
2.341912855238115346e-11
2.020612437560610048e-11
1.564773912007045755e-11
1.084252101768830693e-11
8.688708682280589785e-12
6.080333223037018058e-12
4.463603580674182058e-12
3.032958305047668407e-12
2.143813250207151176e-12
1.491891039588544421e-12
1.036811270068394253e-12
7.255096078196433500e-13
5.127526512497054451e-13
3.688175688802676660e-13
2.705057806677147943e-13
2.022090598272219138e-13
1.537520474629089232e-13
1.182588968923782521e-13
9.137933325878937734e-14
7.040817128337809268e-14
