# bin_5_4
3.579352914375301114e-09
3.912066305765704649e-09
4.172719491680871994e-09
4.315272752977410328e-09
4.300894309915448071e-09
4.074312967872352458e-09
3.646166641769242920e-09
3.087093773051883676e-09
2.529907352764356943e-09
2.110618218972049240e-09
1.821899634374567718e-09
1.480314232078395982e-09
1.048731753501324317e-09
7.968699475622837879e-10
6.074106793959806234e-10
4.247436683477220654e-10
3.092272172010782662e-10
2.226791830874222120e-10
1.590244438546140800e-10
1.147990026042111698e-10
8.403044068459582131e-11
6.254707324910868889e-11
4.739058376307287867e-11
3.651101463378435295e-11
2.845406117002185128e-11
2.229611282553644684e-11
1.744540218626364207e-11
1.353578182719942937e-11
1.035226661054731853e-11
7.765817857904330021e-12
5.692261629486433318e-12
