# bin_2_3
1.572166725216700681e-07
1.617774886301374060e-07
1.602366202222503599e-07
1.510376105681751099e-07
1.347278388002183711e-07
1.141433566922068250e-07
9.401611934437098010e-08
7.858950450758435303e-08
6.699857615398161699e-08
5.389909921785261924e-08
3.930007772811994651e-08
2.963422258018701661e-08
2.250022383559959852e-08
1.616532854730027522e-08
1.191395715412253458e-08
8.683734086664154275e-09
6.397502179015249831e-09
4.778358223599849867e-09
3.629899275564246183e-09
2.806397099072374487e-09
2.202598698347816558e-09
1.746482290978109866e-09
1.389224189076169680e-09
1.100650990288158276e-09
8.626797525274556202e-10
6.648505281123245401e-10
5.013339117143433071e-10
3.686024338621924289e-10
2.637816085134512626e-10
1.837838659616842765e-10
1.248934535430159909e-10
