# bin_8_13
8.251762980130681558e-08
9.294206544996608019e-08
1.028660146879508430e-07
1.114014607573863886e-07
1.173950437238605235e-07
1.195787419999348632e-07
1.167625447324143662e-07
1.077698981496828768e-07
9.405012209393871095e-08
7.799184585902309044e-08
6.400138560505155460e-08
5.455896125791436229e-08
4.669796089518192583e-08
3.534723411331559846e-08
2.478643555835084168e-08
1.993680721229417687e-08
1.366000008342180292e-08
1.015523784886999468e-08
6.947049979881725402e-09
4.870462440427995102e-09
3.403299918309389734e-09
2.378476546844381626e-09
1.675291303982504396e-09
1.193863677470991959e-09
8.668576459568924555e-10
6.416925545310623065e-10
4.836564883036271407e-10
3.700130698204659009e-10
2.855485299861776343e-10
2.207205857465199399e-10
1.696556382040455930e-10
