# bin_1_8
6.884036881128426634e-07
6.746802381494842357e-07
6.299072725035717919e-07
5.581432294188149186e-07
4.726156789809688127e-07
3.916563308966868947e-07
3.277235706807407446e-07
2.749642738844966428e-07
2.187479399568379160e-07
1.627407866862541353e-07
1.221164271451213279e-07
9.212773152866307375e-08
6.723626002050453436e-08
4.959323126078117883e-08
3.657003806690849712e-08
2.730091136835880860e-08
2.068915899920062778e-08
1.595799056573510523e-08
1.251383397274222874e-08
9.935772798530724543e-09
7.939626088880466014e-09
6.339231093471687715e-09
5.021515374356010962e-09
3.921295229800619015e-09
3.002536096848191904e-09
2.245240319026253914e-09
1.635787194238963861e-09
1.160379724780802301e-09
8.022876896252600669e-10
5.418804794549895771e-10
3.585956921471180033e-10
