# bin_3_14
3.622137954536996069e-07
3.871637414819407287e-07
4.017085154755825052e-07
4.019328257975745648e-07
3.833473556917497211e-07
3.457719051510910177e-07
2.953995161061092494e-07
2.433306775877175856e-07
2.021610598012940235e-07
1.731477138413467365e-07
1.423206146254336405e-07
1.040028840043083117e-07
7.717211823136424606e-08
5.959977423904351566e-08
4.213880150154565539e-08
3.105628457007423170e-08
2.232211775702533423e-08
1.618928568180082909e-08
1.186021104159513387e-08
8.812349080312358816e-09
6.661411530141490947e-09
5.121151988709033089e-09
3.995011228766728445e-09
3.143708804929898558e-09
2.478700092529095954e-09
1.944823506936985381e-09
1.508410404647417170e-09
1.149953484245352848e-09
8.577889885477924530e-10
6.240356312645361493e-10
4.421117800608384674e-10
