# bin_4_11
2.305813306569277557e-07
2.510240184881418028e-07
2.664488590277047509e-07
2.739675996478828320e-07
2.709918960752822920e-07
2.544210065168462373e-07
2.257889909719380150e-07
1.899667023742965808e-07
1.558272125106025095e-07
1.308482942051816770e-07
1.124451719762291724e-07
8.941569758234979974e-08
6.346115879981927025e-08
4.894624377795765034e-08
3.633943881788465692e-08
2.595311542430723294e-08
1.870716660085499393e-08
1.347780589801072921e-08
9.678699364205180399e-09
7.023412813916070047e-09
5.170927346542859461e-09
3.871400584863722936e-09
2.950025691034975442e-09
2.282826484134007268e-09
1.784002282447310689e-09
1.399143648474600280e-09
1.093598171628362053e-09
8.461966835012578681e-10
6.444860791712183029e-10
4.809084343258409811e-10
3.503772685492265581e-10
