# bin_10_15
6.010445012646289046e-08
6.823839741397867367e-08
7.626457332753550550e-08
8.358670124223728139e-08
8.940675338805682084e-08
9.272595520827572852e-08
9.271674909244852270e-08
8.813051916293172306e-08
7.909225817954403919e-08
6.710203356961400167e-08
5.498572117058547459e-08
4.581431916954802569e-08
3.965139228284999800e-08
3.242082709053846240e-08
2.283011218531108813e-08
1.723529561803269294e-08
1.317080078087715784e-08
8.992683838213724306e-09
6.443246836287603942e-09
4.532673547592443799e-09
3.106725186669808863e-09
2.128100719781094535e-09
1.462925593153757228e-09
1.013352119070129003e-09
7.104471854050616961e-10
5.071945867378145844e-10
3.692006967004152514e-10
2.743048507073526639e-10
2.074608987396798333e-10
1.588839734201817056e-10
1.223442382203464571e-10
