# bin_8_5
1.473090846427706931e-11
1.645583977234599803e-11
1.803159921777053796e-11
1.928727277902257170e-11
2.000883542324770792e-11
2.001710096037274244e-11
1.904527751462161203e-11
1.710925047074418876e-11
1.453103145232450168e-11
1.190770390857105009e-11
9.907648008417177213e-12
8.569169510800622912e-12
7.029905561851135520e-12
4.969739833232970729e-12
3.737845603864132384e-12
2.881372158003255052e-12
1.972632192549202848e-12
1.434166611477693822e-12
1.020511522993314898e-12
7.135213994958423765e-13
5.021845090957296735e-13
3.568931201644275424e-13
2.572264711911911219e-13
1.885440997365032328e-13
1.409282981979634474e-13
1.071425255202962437e-13
8.254433564180075147e-14
6.405634270466264698e-14
4.971094281463105786e-14
3.830943129161249119e-14
2.913876285581857145e-14
