# bin_1_4
5.122945495848695542e-07
5.004320053927455226e-07
4.654331386567240269e-07
4.108642154634654108e-07
3.469718542602429766e-07
2.874642109349656410e-07
2.408367580718206881e-07
2.017216379584674816e-07
1.595540881217983107e-07
1.184246893532732623e-07
8.909697246220426478e-08
6.704670670946779241e-08
4.893009887643506248e-08
3.611496689788574009e-08
2.665894915554093239e-08
1.993342835004992923e-08
1.513663036819938525e-08
1.169971338037882109e-08
9.191634758693991558e-09
7.308026777346236439e-09
5.843962985782315278e-09
4.665984023013398881e-09
3.693588507261392805e-09
2.880643799876817983e-09
2.201812409798718473e-09
1.642990320934173642e-09
1.194266885605626626e-09
8.452315959848253739e-10
5.831407018331464196e-10
3.931180340410402796e-10
2.597341401571697219e-10
