# bin_4_6
1.116406505197495026e-07
1.213170522422391446e-07
1.284785866064789806e-07
1.317369223593606550e-07
1.298385971396539974e-07
1.213446723495997004e-07
1.072088965446262476e-07
8.985832380529344340e-08
7.369523297827643449e-08
6.208354956985473661e-08
5.329598937506185070e-08
4.192702930108493000e-08
2.966777465262055434e-08
2.311438142416696191e-08
1.693457326809782463e-08
1.220683304051964026e-08
8.746230874831420352e-09
6.318432821175476814e-09
4.548063237301490412e-09
3.308289351892227099e-09
2.443303277045101328e-09
1.835298184646502443e-09
1.403109057514313240e-09
1.088634080655157621e-09
8.522620594735199991e-10
6.689303700380606262e-10
5.227197212568601235e-10
4.039899827659791426e-10
3.070769677565948624e-10
2.285257479127028601e-10
1.659671690665398921e-10
