# bin_3_5
1.603090378781688576e-07
1.708748264142572163e-07
1.766833754998869544e-07
1.760318239939103305e-07
1.669458209376999896e-07
1.497060273925138462e-07
1.272091042893462078e-07
1.046023159747851732e-07
8.718440240079477259e-08
7.475969253947030465e-08
6.081840948261884311e-08
4.401219041656503800e-08
3.304609067054704087e-08
2.529360217614702641e-08
1.791579808685104756e-08
1.317865664092907519e-08
9.504815428569865905e-09
6.901331763434905309e-09
5.070407592162662353e-09
3.781282033516541799e-09
2.869332792488189347e-09
2.214030729818862542e-09
1.732214455617141724e-09
1.365592557762385934e-09
1.077422344855811036e-09
8.448965578875968451e-10
6.542212636549319364e-10
4.974510463852932021e-10
3.698062357247066526e-10
2.679699967354121912e-10
1.890555829989243104e-10
