# bin_12_10
6.122796227697813407e-10
6.967667030976759471e-10
7.810441003439526459e-10
8.591499894614539629e-10
9.231288142450151846e-10
9.629061246155007492e-10
9.692893866350623985e-10
9.299227043656733256e-10
8.419371985413754816e-10
7.206164281480712958e-10
5.916655204997775463e-10
4.896774732692529158e-10
4.229931833599639159e-10
3.528654666746505225e-10
2.526814153140395294e-10
1.850305436312491486e-10
1.462324863940762844e-10
9.740322293416561306e-11
7.192736098792049972e-11
4.988171349642866418e-11
3.401404158244585178e-11
2.326285176946215322e-11
1.588050900629140082e-11
1.090535635126925433e-11
7.557961627625070161e-12
5.326906766575100559e-12
3.825670140286407041e-12
2.806107135705910288e-12
2.100215479758596312e-12
1.597398942767008161e-12
1.226691369508767847e-12
