# bin_13_13
6.809015874312198135e-09
7.777236643180384801e-09
8.759596361877658366e-09
9.691454810740400878e-09
1.048787482049779446e-08
1.103900818398195159e-08
1.122583346661817076e-08
1.093326753445160128e-08
1.005560501734810561e-08
8.745013496290080948e-09
7.231064946183528834e-09
5.937153442968189498e-09
5.080526750122780723e-09
4.341782453123613728e-09
3.243908168824816785e-09
2.274356781807769024e-09
1.845282313171781473e-09
1.231344140427823030e-09
9.253698576278289935e-10
6.242622243626689796e-10
4.267234624563974677e-10
2.921716143191085464e-10
1.984691694904595212e-10
1.345478448227350203e-10
9.150543682768104836e-11
6.305268120843082005e-11
4.415100034114284221e-11
3.154094769120448141e-11
2.304158403850591540e-11
1.719013044035879984e-11
1.304016847982697903e-11
