# bin_3_6
2.073884377982671968e-07
2.213046334990129446e-07
2.291452983408137653e-07
2.286919630794138838e-07
2.173836620511205834e-07
1.953955526883951121e-07
1.663954018328806687e-07
1.369201454718783304e-07
1.139701846983004732e-07
9.768360070784287643e-08
7.980492507165369157e-08
5.798062319232297695e-08
4.332183891604002371e-08
3.328401440918307469e-08
2.355526027010869376e-08
1.734210148741941169e-08
1.248941166922347385e-08
9.064224486612251917e-09
6.651738563510583288e-09
4.953151349862796398e-09
3.752731769786289567e-09
2.891363869270001017e-09
2.259491030357531716e-09
1.779966338655344128e-09
1.403994433266899902e-09
1.101241030021255080e-09
8.532896110173447587e-10
6.495067942933202215e-10
4.835123580035097244e-10
3.509276022494689829e-10
2.480052094255172929e-10
