# bin_11_6
3.976042837841600614e-14
4.495473476283278041e-14
4.998381926825773509e-14
5.443730144960012110e-14
5.777024457877781437e-14
5.932554691109307717e-14
5.859561382935500218e-14
5.480282575730025283e-14
4.843703704808456528e-14
4.051065474881172266e-14
3.314807206603609808e-14
2.797663546369643278e-14
2.419365892172559198e-14
1.898805168325546198e-14
1.314060282869707479e-14
1.042853678993850615e-14
7.443634114199868514e-15
5.377825012271578790e-15
3.671098444231816243e-15
2.607869686159683877e-15
1.808026210610237364e-15
1.250777020404931895e-15
8.718166302938198722e-16
6.133483880084862221e-16
4.387050789263524507e-16
3.199338051286348732e-16
2.378806971604011041e-16
1.800953009276191383e-16
1.381354538499109765e-16
1.066293551871763667e-16
8.221667956874639702e-17
