# bin_3_2
4.990426755036169942e-09
5.235441913929114006e-09
5.310225730285070818e-09
5.159178697839475339e-09
4.744304979779787254e-09
4.127371481727005842e-09
3.424442728640281519e-09
2.817461828041568828e-09
2.396470802476168414e-09
2.030260378363075344e-09
1.540399435475548245e-09
1.104817283030947960e-09
8.724838739856945528e-10
6.222512026214850465e-10
4.610126673842488798e-10
3.312951250804243727e-10
2.423602705161808563e-10
1.784370140997309191e-10
1.332454597131173702e-10
1.012868464605596200e-10
7.831630772877803217e-11
6.145339087659410491e-11
4.864655148133581756e-11
3.857554862361316300e-11
3.042849788087523592e-11
2.371527013239937519e-11
1.815526050433238695e-11
1.358798640379016508e-11
9.909461898348970874e-12
7.031921433832232910e-12
4.858310426994886167e-12
