# bin_10_10
4.051272596218364913e-11
4.602111488318027137e-11
5.147356956629512051e-11
5.647185539092981416e-11
6.048284452464511426e-11
6.283588247319151343e-11
6.296389083027260541e-11
6.002124342439893654e-11
5.400507512276132206e-11
4.592865684061641962e-11
3.763313582550885193e-11
3.126884898971061011e-11
2.706054473908816702e-11
2.229112655252658499e-11
1.574159905529419760e-11
1.176732775534796542e-11
9.107909133183479162e-12
6.146515743043836267e-12
4.450714722618710622e-12
3.122039316980959254e-12
2.134636534903773994e-12
1.459227735558062185e-12
9.999530021139163085e-13
6.904281607355159806e-13
4.820715924871425872e-13
3.426397618303850321e-13
2.483032207614174446e-13
1.837376405332854749e-13
1.385380476185493324e-13
1.059143986203440760e-13
8.153117890608886379e-14
