# bin_11_7
2.027062031182645475e-13
2.296065740131811629e-13
2.558807014088222391e-13
2.794851600910819221e-13
2.976862810951667141e-13
3.071037246871564994e-13
3.051490950233883601e-13
2.875968803259406276e-13
2.560170249806442592e-13
2.154611257535153584e-13
1.762537941525619552e-13
1.477502410790990979e-13
1.279698014943723774e-13
1.025947729002049180e-13
7.124857334850608578e-14
5.530590008060761816e-14
4.087203855667809340e-14
2.864441576710952224e-14
1.992480998532441711e-14
1.417635350889225732e-14
9.764525622555100089e-15
6.705313708885300307e-15
4.640199825385442938e-15
3.238895113672290225e-15
2.293706769854774002e-15
1.655507139771780052e-15
1.218640737643101422e-15
9.147736092704046499e-16
6.974457547588458112e-16
5.367995605714888492e-16
4.139858103713588478e-16
