# bin_6_5
4.124883282004960884e-11
4.576900747390690387e-11
4.974155642783874523e-11
5.266799520619833272e-11
5.396110624640249209e-11
5.314177797484100665e-11
4.955097733308980118e-11
4.367183337832047630e-11
3.645898609839185315e-11
2.983682029357806079e-11
2.520689005439529756e-11
2.173582112097839126e-11
1.695967206861691960e-11
1.180025401597948660e-11
9.379329060086016407e-12
6.690609601986049821e-12
4.881274137234165059e-12
3.389092360058358926e-12
2.433588169233304392e-12
1.725835652676881830e-12
1.229658335623477452e-12
8.874982017832608201e-13
6.501588876367988231e-13
4.853791876417290305e-13
3.688997013290181774e-13
2.842929079656997218e-13
2.210085435014212721e-13
1.721028968640362722e-13
1.333004242024059279e-13
1.020334730152791325e-13
7.678423024927635824e-14
