# bin_9_1
4.994626017784257895e-27
5.568598507102592149e-27
6.087650319771487300e-27
6.493213008364229234e-27
6.712651995878583264e-27
6.687683549107223531e-27
6.328108026672518167e-27
5.655149843205788222e-27
4.778497730906038691e-27
3.911315147643316420e-27
3.266224580192597457e-27
2.825756470015440612e-27
2.289953696265584388e-27
1.605734920309402474e-27
1.227922127858101009e-27
9.280293567830085275e-28
6.451537175024537719e-28
4.617313566547745396e-28
3.306372554966107918e-28
2.319234646845261912e-28
1.635434713751961074e-28
1.166713553267946485e-28
8.444201422255942782e-29
6.219761551173819012e-29
4.670294238857414270e-29
3.564377210430549352e-29
2.753565262190045002e-29
2.139494707752290673e-29
1.659923537196539378e-29
1.277109039274982590e-29
9.686980860539392726e-30
