# bin_11_3
4.433862254858901233e-23
4.995810754866147015e-23
5.531946560922602831e-23
5.994928157326855057e-23
6.323103039843320010e-23
6.446983750070022410e-23
6.305352980049031148e-23
5.828677757689862959e-23
5.094503345151437901e-23
4.225634609697339872e-23
3.462633490276621722e-23
2.948275780815286892e-23
2.531486448440538820e-23
1.923672963879719458e-23
1.339805556673087871e-23
1.083179684508111759e-23
7.398944714743300049e-24
5.526270099477315571e-24
3.755108848405146498e-24
2.632007386289518414e-24
1.839502980527715478e-24
1.285174122108139983e-24
9.037995548501816920e-25
6.427003149175710872e-25
4.656869461577589451e-25
3.440596740222303808e-25
2.589167166950453451e-25
1.978881165129091235e-25
1.526708880044177665e-25
1.180527885394578805e-25
9.082109088590994893e-26
