# bin_15_14
2.844194703780345644e-11
3.262663645679065844e-11
3.694393480712965754e-11
4.114040459870146912e-11
4.488093523987495356e-11
4.771878745309552373e-11
4.910583633496243910e-11
4.863389066555908603e-11
4.562856505431705450e-11
4.044202182167188850e-11
3.389332772903215615e-11
2.771924885365557285e-11
2.333548825615080049e-11
2.020619207258554415e-11
1.598081036839785093e-11
1.102987632833515038e-11
8.695820584848052023e-12
6.262153142011912917e-12
4.457897153365189834e-12
3.016388977852955675e-12
2.125898768794465355e-12
1.440319573315050281e-12
9.643326695082410027e-13
6.449826787980554936e-13
4.303371925496466361e-13
2.885928571534825392e-13
1.955686254325410248e-13
1.345300222926424722e-13
9.446894130889577464e-14
6.791056883582421491e-14
4.997901916009095122e-14
