# bin_10_7
1.469186769709665700e-12
1.660867454940133566e-12
1.846438844482921095e-12
2.010778811752762033e-12
2.133810413382476918e-12
2.191291934045154109e-12
2.164590569622841844e-12
2.024920713687278250e-12
1.790046037796680328e-12
1.497270711253365255e-12
1.224761551804176245e-12
1.032971765746016260e-12
8.932301414921580153e-13
7.018425198446990281e-13
4.855728514344592672e-13
3.848103892255898109e-13
2.751970474168811931e-13
1.984101668083333171e-13
1.355055976971243579e-13
9.627677708868158528e-14
6.670173647798065382e-14
4.610648558534005537e-14
3.211331487518518223e-14
2.257434932009221608e-14
1.613163594074525771e-14
1.175344778395771804e-14
8.731548113829571019e-15
6.605802013766792490e-15
5.064183138003205705e-15
3.908063202661234156e-15
3.013134390706113452e-15
