# bin_9_8
3.178649070486949049e-11
3.591572229684761436e-11
3.990459101226021889e-11
4.342412082167735788e-11
4.603868256980271733e-11
4.722650801710311121e-11
4.658185307827040722e-11
4.349654725153982954e-11
3.838530298920178935e-11
3.206225257254866570e-11
2.623015213031391739e-11
2.215571919397093413e-11
1.914474451993235154e-11
1.496643022834228890e-11
1.035518114944579441e-11
8.240721974044185914e-12
5.847275307857216795e-12
4.243376021920019815e-12
2.890517012496230006e-12
2.050404372290973728e-12
1.422643677623918468e-12
9.851436588558581082e-13
6.871991334281855087e-13
4.839133719312091366e-13
3.465559159011683178e-13
2.530614473086125919e-13
1.883945542582900175e-13
1.427759868611367722e-13
1.095816186303572142e-13
8.460405712005214266e-14
6.521607676461534577e-14
