# bin_14_4
9.010601227609618755e-26
1.024470707721350561e-25
1.147139910310853104e-25
1.260266250014705366e-25
1.352092027305117977e-25
1.407776971434158820e-25
1.414214656332868814e-25
1.352954181141695898e-25
1.221542580320461392e-25
1.042536829352074128e-25
8.550343924901932438e-26
7.086359043655100422e-26
6.126074218550605981e-26
5.084024819302806492e-26
3.617577395539080896e-26
2.671303207195939296e-26
2.093795225967058708e-26
1.400825241475454954e-26
1.026554041793601245e-26
7.152685317648759750e-27
4.881402312937492851e-27
3.336689133199110037e-27
2.280578093645320008e-27
1.569313280307366079e-27
1.090780274469415277e-27
7.713721963278951976e-28
5.560087858388835564e-28
4.093130482737117287e-28
3.073034088640319301e-28
2.342524166841982967e-28
1.800886551655671176e-28
