# bin_10_8
1.034002076260094697e-11
1.170863475352486163e-11
1.304355757930982791e-11
1.424023072969081586e-11
1.515890281649695002e-11
1.562728573750176352e-11
1.551385322171029020e-11
1.460452995402360294e-11
1.298679445425539308e-11
1.091876150647328472e-11
8.931409825617057862e-12
7.494092635091042389e-12
6.489820942866554392e-12
5.187120153520039935e-12
3.598983072252144614e-12
2.803387250947147914e-12
2.061276134532761041e-12
1.450985660902763291e-12
1.005851238237731114e-12
7.158588523848824546e-13
4.935037398121410685e-13
3.391969955490276522e-13
2.349703324449654358e-13
1.641912712417498043e-13
1.164411191394431061e-13
8.416840731102723004e-14
6.204898645597237358e-14
4.663702509419217226e-14
3.559029287993913840e-14
2.740580214095183182e-14
2.113594328264438191e-14
