# bin_9_3
5.395087364419023790e-19
6.034144744213239604e-19
6.622196879926236519e-19
7.097484606438449737e-19
7.382248327047868617e-19
7.408350520126610307e-19
7.079985543865662028e-19
6.387361451339030435e-19
5.447903906043801064e-19
4.467999226936916512e-19
3.704030453546051792e-19
3.199319954264969589e-19
2.650582387818838537e-19
1.889784446148701609e-19
1.399121029028647396e-19
1.095860755190072068e-19
7.412245394261166562e-20
5.461116531718317105e-20
3.856222802361320951e-20
2.688062721407212389e-20
1.888987533903774650e-20
1.337530541244611875e-20
9.598822681722015429e-21
7.000920847080344634e-21
5.208192922734422025e-21
3.943433849737842888e-21
3.028803318053958606e-21
2.346511956769876427e-21
1.820577886053850393e-21
1.404524677947361308e-21
1.070591818770809321e-21
