# bin_9_7
9.678217257113143344e-12
1.091334387665265177e-11
1.209584831571090454e-11
1.312327824765883451e-11
1.386156841996077469e-11
1.415660434770427387e-11
1.387847545022424213e-11
1.286465866537049956e-11
1.127420007586334614e-11
9.368014018643484221e-12
7.671729910304259582e-12
6.518258409425286892e-12
5.609103743551405911e-12
4.295519996120469873e-12
2.982874834081613673e-12
2.404681501090730399e-12
1.657518935556313960e-12
1.230354159434560216e-12
8.349232452435022580e-13
5.871893179442265790e-13
4.096824331321482745e-13
2.856234105058641395e-13
2.004265714250431559e-13
1.421383223119910548e-13
1.026668579898687702e-13
7.561750246264283129e-14
5.674570806959719106e-14
4.327835842519735814e-14
3.334846640488580960e-14
2.578037447898657924e-14
1.984679909308879033e-14
