# bin_4_15
-4.941572434176404408e-30
-5.629283249515914345e-30
-6.319115549293923075e-30
-6.963448558236597018e-30
-7.499029619156849155e-30
-7.845323076071967930e-30
-7.924375710089885832e-30
-7.640917222816728147e-30
-6.953608272027058588e-30
-5.983234300085489033e-30
-4.922326635744995742e-30
-4.060903441725996562e-30
-3.498438785881488447e-30
-2.945276661254787539e-30
-2.136729172184581769e-30
-1.538620443338516497e-30
-1.232908351771031742e-30
-8.158968700682082046e-31
-6.098133428602873999e-31
-4.187343445800662236e-31
-2.850270969141785654e-31
-1.950307189909100580e-31
-1.327885416695398119e-31
-9.074483141755499961e-32
-6.246856686426096212e-32
-4.368830111488720397e-32
-3.111223357023477020e-32
-2.262815811900347837e-32
-1.681076635755578586e-32
-1.271559756563208260e-32
-9.734589798231595021e-33
