# bin_13_5
-7.547316029688838069e-10
-8.318422604603133246e-10
-8.966209612962898210e-10
-9.396432533373828892e-10
-9.513707246665391110e-10
-9.213670246783781950e-10
-8.435387151298964405e-10
-7.304159173105946731e-10
-6.037756483952483287e-10
-4.973053789147827815e-10
-4.252726708168908206e-10
-3.594124962546925773e-10
-2.676554016866824451e-10
-1.917684924727908303e-10
-1.524851148070903780e-10
-1.054081262430951520e-10
-7.832419093420340762e-11
-5.495736293566136175e-11
-3.915149432172396824e-11
-2.801145818564394811e-11
-2.020278971129278929e-11
-1.478037820720160389e-11
-1.099201734646384038e-11
-8.328668389465333648e-12
-6.408228141566091709e-12
-4.981557621463698143e-12
-3.888531241285626505e-12
-3.026096771925490384e-12
-2.332327940162236413e-12
-1.770177595877994282e-12
-1.317081063578995197e-12
