# bin_9_8
-8.945413670429848168e-11
-1.005714189084208503e-10
-1.110716172146869541e-10
-1.199775234620911436e-10
-1.260314114689394138e-10
-1.279138726779037089e-10
-1.242621668659777767e-10
-1.140358291094932682e-10
-9.896317395926013684e-11
-8.178631075752329241e-11
-6.722676297721400051e-11
-5.754052077950315521e-11
-4.896659642208403541e-11
-3.647091793733241341e-11
-2.578910606268056721e-11
-2.079281266016929064e-11
-1.403893779690786790e-11
-1.052894904046689908e-11
-7.226940980677470919e-12
-5.041628120459252535e-12
-3.532604521280798763e-12
-2.478343909368498125e-12
-1.753547665950760023e-12
-1.256670855002430918e-12
-9.182454309141336097e-13
-6.839035453722221180e-13
-5.182604904517107462e-13
-3.980569122651638150e-13
-3.078430058999522479e-13
-2.379942688892634283e-13
-1.826342466034573432e-13
