# bin_3_9
-1.029998553878933754e-20
-1.150758396630085171e-20
-1.261228983491891887e-20
-1.349512141365489748e-20
-1.400687134318845606e-20
-1.402179563173762229e-20
-1.335361283475647932e-20
-1.200808671558005076e-20
-1.020858125721419562e-20
-8.367782942987754593e-21
-6.956864487944824423e-21
-6.014979268429947036e-21
-4.944990832628891633e-21
-3.501495410671390256e-21
-2.624994982638122418e-21
-2.030465885524740695e-21
-1.386128985148091060e-21
-1.010494412348158636e-21
-7.180683130230567844e-22
-5.016647968348726270e-22
-3.528745532712217098e-22
-2.505484860895908729e-22
-1.803962342568973710e-22
-1.320782529679722300e-22
-9.861690989620023545e-23
-7.490610684751901912e-23
-5.766970848184226885e-23
-4.473606881775107771e-23
-3.471450333041019423e-23
-2.675715548794439245e-23
-2.035951299445926442e-23
