# bin_10_1
-3.346604982017681965e-09
-3.280460398547849471e-09
-3.063544923849544247e-09
-2.715333764384420141e-09
-2.299799500466162706e-09
-1.905916411910247794e-09
-1.594564292893996017e-09
-1.337864430904619665e-09
-1.064680567673030037e-09
-7.921976364363244032e-10
-5.943190315539793340e-10
-4.483983930255073746e-10
-3.272235863299903389e-10
-2.413266274439856071e-10
-1.779242283280714397e-10
-1.327986830440416212e-10
-1.006134786092263341e-10
-7.758693989338182620e-11
-6.082845116061933585e-11
-4.828795086695693127e-11
-3.858113056150317984e-11
-3.080104394482773298e-11
-2.439668033044146225e-11
-1.905032464373007740e-11
-1.458627739060675147e-11
-1.090700779133426923e-11
-7.946136586328282865e-12
-5.636541514778680030e-12
-3.896916838842167703e-12
-2.631889070029621018e-12
-1.741556323728945306e-12
