# bin_14_1
-3.571431023256215026e-09
-3.502826497304911263e-09
-3.273354171511939995e-09
-2.903143240480962435e-09
-2.459981534020016310e-09
-2.038745231830580749e-09
-1.705340870950471030e-09
-1.431227089306050569e-09
-1.140087410651164210e-09
-8.486304428700097283e-10
-6.363775507557254149e-10
-4.803359817476227356e-10
-3.505300892624231235e-10
-2.584868188916526874e-10
-1.905423786424419314e-10
-1.421788521712027379e-10
-1.076835127855283930e-10
-8.300960025753506585e-11
-6.505949005806502462e-11
-5.163475830397030278e-11
-4.125023870323187078e-11
-3.293196349839779211e-11
-2.608753987749115747e-11
-2.037506429245891654e-11
-1.560526576622495443e-11
-1.167313487737684649e-11
-8.507568709729531337e-12
-6.037111811050990146e-12
-4.175350503575807136e-12
-2.820824588023202151e-12
-1.867072032871667599e-12
