# bin_7_9
-1.334939339292570449e-12
-1.502284669362180908e-12
-1.661052067733034406e-12
-1.796793234440441992e-12
-1.890827807597359762e-12
-1.922911008106406863e-12
-1.873478809841222530e-12
-1.724524353696543630e-12
-1.501134027237252933e-12
-1.242304697769909916e-12
-1.019705321845887452e-12
-8.712019790618918981e-13
-7.446331682954784305e-13
-5.589385667093974518e-13
-3.922622907626087410e-13
-3.175033790960901891e-13
-2.146154833519941888e-13
-1.612547643411339447e-13
-1.101137966512413642e-13
-7.685975906946955193e-14
-5.383182051496816853e-14
-3.771670342611769785e-14
-2.662151267013502309e-14
-1.901851045480433547e-14
-1.385122412539747420e-14
-1.028444812382833926e-14
-7.773258595969117865e-15
-5.959980634874262819e-15
-4.605922303771846208e-15
-3.561956356023671533e-15
-2.736703707436315063e-15
