# bin_15_13
-5.463406920996145784e-11
-6.243172052695057102e-11
-7.036314038459652055e-11
-7.791378798286727502e-11
-8.440903940476138451e-11
-8.897256567694741534e-11
-9.063260919300456771e-11
-8.849617865850148515e-11
-8.163628219731063674e-11
-7.120963898054282228e-11
-5.899253109788575088e-11
-4.839422389716974255e-11
-4.131248995914763062e-11
-3.540152458888721926e-11
-2.667746754424129986e-11
-1.861990189825897963e-11
-1.508392104156145358e-11
-1.015068171014459099e-11
-7.594328965470294731e-12
-5.105724898325872652e-12
-3.503249500123027117e-12
-2.396146327558267628e-12
-1.625305744190713222e-12
-1.099272981996316563e-12
-7.450581525466721128e-13
-5.111163184304860823e-13
-3.560548403062729311e-13
-2.529255825099432806e-13
-1.837423508269860364e-13
-1.364133615817243491e-13
-1.031059796519962267e-13
