# bin_13_8
-2.822897375786885370e-10
-3.178416532175842271e-10
-3.516531949953670499e-10
-3.806873474279540450e-10
-4.010044327455214822e-10
-4.082971640997012870e-10
-3.984708486976662491e-10
-3.675954583625968487e-10
-3.206571581342857754e-10
-2.658509971002700506e-10
-2.181972691541911194e-10
-1.860470755134198309e-10
-1.591281427165999264e-10
-1.202820291307451228e-10
-8.441360732995185523e-11
-6.789500933815906052e-11
-4.646106112690349585e-11
-3.456116193597729341e-11
-2.364764135298053286e-11
-1.656894223968088547e-11
-1.157895984896839196e-11
-8.093647675588470567e-12
-5.701987817795247149e-12
-4.064665659760887334e-12
-2.952441992919388717e-12
-2.186368771696751767e-12
-1.648465759066592916e-12
-1.261426516873531509e-12
-9.735646570411972518e-13
-7.524828931651268572e-13
-5.782565698799091683e-13
