# bin_11_15
-3.996355582430607738e-14
-4.570466324207697299e-14
-5.156430721455997183e-14
-5.716865417303145226e-14
-6.202914866675282647e-14
-6.550735255689181241e-14
-6.687289886227180133e-14
-6.550272440990621265e-14
-6.063816916890229133e-14
-5.307668030536119418e-14
-4.405877275206641062e-14
-3.610381304146174061e-14
-3.074169294232676561e-14
-2.643934327416175759e-14
-2.011879457352636094e-14
-1.396206690595522601e-14
-1.130242658900414037e-14
-7.671914965816427207e-15
-5.717905823958932987e-15
-3.826987208880186701e-15
-2.636822464157437457e-15
-1.802086203433899644e-15
-1.220929078011528443e-15
-8.237821841450885087e-16
-5.562752641668510664e-16
-3.797632651831389756e-16
-2.630410099994128865e-16
-1.856627855017824015e-16
-1.340217614933960163e-16
-9.894207449403606132e-17
-7.447239194080429275e-17
