# bin_10_2
-2.094516858386233483e-09
-2.170777068997946169e-09
-2.169584865196493371e-09
-2.069071533057652623e-09
-1.868472680374322189e-09
-1.600427320850280539e-09
-1.323016787000345125e-09
-1.099403215595021723e-09
-9.359247999769002473e-10
-7.679779595144221091e-10
-5.700735128959304758e-10
-4.221999457096337115e-10
-3.243252853866964851e-10
-2.333564177952755346e-10
-1.717166968295924984e-10
-1.247054424984203088e-10
-9.154862527789266872e-11
-6.793747162290120715e-11
-5.122879231992438784e-11
-3.931882994689303001e-11
-3.066254202484956650e-11
-2.420170289049297595e-11
-1.920703388951656276e-11
-1.521786152663128339e-11
-1.195475171688269279e-11
-9.252825970455287924e-12
-7.018797073526232204e-12
-5.197665264444059926e-12
-3.748762839490448883e-12
-2.632246447764371312e-12
-1.801678119798402128e-12
