# bin_2_2
-2.589579781302003085e-10
-2.641474014418053393e-10
-2.587243614111854755e-10
-2.405452854393430733e-10
-2.116700139001506657e-10
-1.773836391437678415e-10
-1.459896679213063472e-10
-1.230060904811511376e-10
-1.044439814596844879e-10
-8.172590731829806024e-11
-5.904253695034201618e-11
-4.547766401941467517e-11
-3.370560079729913831e-11
-2.449541945834848828e-11
-1.794155426946079923e-11
-1.316887631433006139e-11
-9.749134366888060040e-12
-7.332464583869698427e-12
-5.614462683916911501e-12
-4.373133292322902256e-12
-3.453468480611617665e-12
-2.748827550256243742e-12
-2.189222631597027652e-12
-1.732141146121327475e-12
-1.352519475182365937e-12
-1.036234409461889446e-12
-7.754753023983296658e-13
-5.652359724974190998e-13
-4.008578862664404691e-13
-2.768785121115898584e-13
-1.867030980164595636e-13
