# bin_4_10
-9.136299012081174446e-20
-1.026663562298825247e-19
-1.133173094557902966e-19
-1.223122019540808447e-19
-1.283635470632661347e-19
-1.301395682873797397e-19
-1.262194520395111575e-19
-1.156049666674687112e-19
-1.001295576067287395e-19
-8.263729342536417817e-20
-6.795269126763138179e-20
-5.825905193305594305e-20
-4.950600364075440041e-20
-3.664504806291666473e-20
-2.597075522790064468e-20
-2.099637756664838975e-20
-1.406559041055140794e-20
-1.060542753660553289e-20
-7.291289949596853612e-21
-5.071629866972267776e-21
-3.557974659670549005e-21
-2.499392892652045254e-21
-1.771253247676369629e-21
-1.271904594899992604e-21
-9.314923872269450959e-22
-6.953013544715491457e-22
-5.279345418414563810e-22
-4.060900351377436085e-22
-3.143293567355496440e-22
-2.430602760905694972e-22
-1.864452003290774923e-22
