# bin_14_5
-7.925408787166848314e-10
-8.735649821888945247e-10
-9.416600762007581828e-10
-9.869321456997225897e-10
-9.993546690073762206e-10
-9.679807640794712251e-10
-8.863579312660242359e-10
-7.676149141946898098e-10
-6.345797205541600233e-10
-5.226456606146969916e-10
-4.468991095855735104e-10
-3.777641633078183613e-10
-2.814367285042927649e-10
-2.015852448460674139e-10
-1.602993214059387246e-10
-1.108331294426434712e-10
-8.234696239614445594e-11
-5.777470912370063638e-11
-4.116001720417858056e-11
-2.944626457174397032e-11
-2.123536566057975407e-11
-1.553391578680581220e-11
-1.155087597397259064e-11
-8.750997847309573795e-12
-6.732477733098453934e-12
-5.233246158532345340e-12
-4.084866694522480519e-12
-3.178914552917132032e-12
-2.450220113944008245e-12
-1.859794642513547293e-12
-1.383898456392637873e-12
