# bin_14_7
-4.289621829355438227e-10
-4.804227040030614897e-10
-5.281123756851389997e-10
-5.671790764130605580e-10
-5.914857957250744460e-10
-5.953550695611880880e-10
-5.715099113166608487e-10
-5.181124741420444902e-10
-4.441678951537056764e-10
-3.652325805195747399e-10
-3.021726936388430374e-10
-2.602402382989584985e-10
-2.171060653700479425e-10
-1.569659994591304756e-10
-1.146920978129628471e-10
-9.047690681085898657e-11
-6.127794911546981803e-11
-4.536000847967489992e-11
-3.174013572055697872e-11
-2.213605687811327185e-11
-1.555196628688573145e-11
-1.098720421314331093e-11
-7.854187654100485693e-12
-5.700736520018570338e-12
-4.220083922348547037e-12
-3.180903145685062930e-12
-2.434106084180617278e-12
-1.881206572633210752e-12
-1.458104894384130486e-12
-1.125356451714055083e-12
-8.592244232075208959e-13
