# bin_9_2
-2.010051084671125268e-09
-2.082868422807055459e-09
-2.081268507762731598e-09
-1.984289828324305216e-09
-1.791384082394062576e-09
-1.533996738932487263e-09
-1.267980863167452104e-09
-1.053806877377282484e-09
-8.971458350986988853e-10
-7.358294132855898166e-10
-5.459708468649058516e-10
-4.045054291118406595e-10
-3.106637040650022911e-10
-2.235077313449564953e-10
-1.644802504218873019e-10
-1.194572204527931014e-10
-8.770314129279266443e-11
-6.509346029808833609e-11
-4.909263450648863169e-11
-3.768575897025772162e-11
-2.939347028230493106e-11
-2.320260018022640560e-11
-1.841515331922167394e-11
-1.459044913321764013e-11
-1.146125307943189036e-11
-8.869952766257342486e-12
-6.727403314920998199e-12
-4.981019051298182798e-12
-3.591833446798384945e-12
-2.521583345670309442e-12
-1.725633099889223190e-12
