# bin_3_12
-1.574116513160400863e-27
-1.779086562800201880e-27
-1.977324131473532029e-27
-2.152578530706656613e-27
-2.283302987737939115e-27
-2.343617321500521026e-27
-2.313375402863979464e-27
-2.162204432138310300e-27
-1.910020135059270548e-27
-1.596837315656858130e-27
-1.306760575118006897e-27
-1.103348327858447461e-27
-9.536577323501344970e-28
-7.471038988182338041e-28
-5.171717178833841012e-28
-4.108908942752019592e-28
-2.924810126522814059e-28
-2.117495899539036008e-28
-1.444345504544368000e-28
-1.025180198044266523e-28
-7.109772752416018392e-29
-4.920631247060435078e-29
-3.430767545809185692e-29
-2.414555561127575215e-29
-1.727936767343920543e-29
-1.260813273432922680e-29
-9.379463667425539578e-30
-7.104042236079264361e-30
-5.450275417602639370e-30
-4.207350823904680108e-30
-3.243507027265369132e-30
