# bin_8_5
-4.387268715252304306e-10
-4.831303958350561653e-10
-5.201924342735121148e-10
-5.444131355081035405e-10
-5.503335668755365618e-10
-5.317843201290049271e-10
-4.856725003738325006e-10
-4.195239772732970923e-10
-3.463313456275449940e-10
-2.855244973610041774e-10
-2.445290197727220043e-10
-2.060384417867702467e-10
-1.524805766500341937e-10
-1.097270732571243393e-10
-8.717838415037905787e-11
-6.007026275451936320e-11
-4.470439324490316446e-11
-3.141206581110750553e-11
-2.236565476136767824e-11
-1.602027260728368299e-11
-1.157314063709717846e-11
-8.482719033577313118e-12
-6.321342797135363076e-12
-4.799010678100779979e-12
-3.698262765252949990e-12
-2.878020757787319734e-12
-2.247613093254793383e-12
-1.748885963228313470e-12
-1.347017148888799796e-12
-1.021184843944368123e-12
-7.586436358060419117e-13
