# bin_15_10
-1.857713043746730338e-10
-2.108440016587773367e-10
-2.355632024829115431e-10
-2.580875977249725860e-10
-2.759534458957794302e-10
-2.860804299279306082e-10
-2.859294262236947954e-10
-2.716450493982704740e-10
-2.436907649318053267e-10
-2.066708140100350840e-10
-1.693528964836456864e-10
-1.411469886540245861e-10
-1.221394102797037438e-10
-9.974891288605821386e-11
-7.019578833634262203e-11
-5.306805371118865333e-11
-4.047418431096140849e-11
-2.767165151800795134e-11
-1.979351976704054556e-11
-1.393148005389319053e-11
-9.549775118641241841e-12
-6.541110796208060932e-12
-4.497255977717646026e-12
-3.115847160594075575e-12
-2.185230693743139173e-12
-1.560671291293514094e-12
-1.136544236093817136e-12
-8.447691688494588447e-13
-6.391207385624362804e-13
-4.895627981768148539e-13
-3.769802931210837792e-13
