# bin_14_2
-2.316321328577642723e-09
-2.401622380775156824e-09
-2.401500766699574944e-09
-2.291705515142138287e-09
-2.070904810434935781e-09
-1.774871871824509951e-09
-1.467539392297922272e-09
-1.219137797130457011e-09
-1.037757107645541943e-09
-8.523989377318756267e-10
-6.333663769714450291e-10
-4.686652203065836395e-10
-3.602001313519324820e-10
-2.592187844102186988e-10
-1.907193736582725884e-10
-1.384871116862263456e-10
-1.016467486302548511e-10
-7.540575797807274255e-11
-5.683827705412285552e-11
-4.360722380901180827e-11
-3.399508485164957601e-11
-2.682531512597301831e-11
-2.128648704441063520e-11
-1.686542627443097994e-11
-1.325066309572658399e-11
-1.025823845873295895e-11
-7.783987486273295593e-12
-5.766571077678735101e-12
-4.160854273301702510e-12
-2.922844153511596640e-12
-2.001369897724139698e-12
