# bin_7_15
-9.230987078321528821e-21
-1.053063869010185460e-20
-1.184292602200177810e-20
-1.307973204894025626e-20
-1.412474064600218329e-20
-1.482864175924647427e-20
-1.503686476581187125e-20
-1.458375301877753543e-20
-1.335266618287992826e-20
-1.156051512632808804e-20
-9.536732016493969242e-21
-7.843521803398356229e-21
-6.732217300032518335e-21
-5.720947601073654351e-21
-4.219864107798021272e-21
-2.986539166959512467e-21
-2.418643302576904033e-21
-1.600760961995101760e-21
-1.205150036516141166e-21
-8.186279474205746999e-22
-5.573563282138650684e-22
-3.816969395105575086e-22
-2.594935385397141483e-22
-1.764580852765235154e-22
-1.205853383170373390e-22
-8.359763030526818071e-23
-5.895071916241215766e-23
-4.243741362344278370e-23
-3.123162397236260608e-23
-2.344703999359860163e-23
-1.786543809748476326e-23
