# bin_4_4
6.039297590930391869e-06
6.582530353260546030e-06
6.997532662883264385e-06
7.206936862624246843e-06
7.146644004778887732e-06
6.725690086605942458e-06
5.981500694749987121e-06
5.035420826377853827e-06
4.123669440989179587e-06
3.456785828100920514e-06
2.982838412057319623e-06
2.386573621172231095e-06
1.678551854212515439e-06
1.299181751567832852e-06
9.681271135947834490e-07
6.887467710033894119e-07
4.945504098244748645e-07
3.580491450402659102e-07
2.566870397801742115e-07
1.858750233814909795e-07
1.366501344712751086e-07
1.021806075963909986e-07
7.778680143485837689e-08
6.015976893760710298e-08
4.700819372421579548e-08
3.688003861971101827e-08
2.884783840254528710e-08
2.234519741447095502e-08
1.704024790444315467e-08
1.273288564974332060e-08
9.289184056616164031e-09
