# bin_10_2
2.509937586972305491e-20
2.814528039789428199e-20
3.098585444491895689e-20
3.333991653907872615e-20
3.485001573415673169e-20
3.517318552897844465e-20
3.388848500656193764e-20
3.082518765509918780e-20
2.651261430659520845e-20
2.181277182075302376e-20
1.799838332968622079e-20
1.549341421880231559e-20
1.302823019360450298e-20
9.469106248878608822e-21
6.836953007776167897e-21
5.469041991765421801e-21
3.660646574050133814e-21
2.743651481901866581e-21
1.909246908437828076e-21
1.327345165614773793e-21
9.320042662381082395e-22
6.568623410354549990e-22
4.681885330665316102e-22
3.386482606526255057e-22
2.498709465073017932e-22
1.878066606525848786e-22
1.434163470015837898e-22
1.107289592524234488e-22
8.583447859808642323e-23
6.632126135809188381e-23
5.073488122432116403e-23
