# bin_11_11
4.509643729030015997e-06
5.135751557940165441e-06
5.762930212453750709e-06
6.347637992162698694e-06
6.831971369649234436e-06
7.142316774517200294e-06
7.208424488389914873e-06
6.942214934515383512e-06
6.309955705276095770e-06
5.422521234808833365e-06
4.458709117273710346e-06
3.680948752797614943e-06
3.173343130407835072e-06
2.666103675662481483e-06
1.927736128363122560e-06
1.393453664842222148e-06
1.113533922409268988e-06
7.374027961485062666e-07
5.499616759212152694e-07
3.785086407404367716e-07
2.576926200285725403e-07
1.762912128962533716e-07
1.200782959527181577e-07
8.214597090243120178e-08
5.663614847639032086e-08
3.968071856558550405e-08
2.831462773031709709e-08
2.063551245330902806e-08
1.535850607262436016e-08
1.163356169872395419e-08
8.913789165017466735e-09
