# bin_13_2
2.395631132028466428e-27
2.715216324954089697e-27
3.028227260070833824e-27
3.310650492309932729e-27
3.530319492278692542e-27
3.647285848636281330e-27
3.630490822579138530e-27
3.429638633984057162e-27
3.060073144013905359e-27
2.581064420463840120e-27
2.112600467744974111e-27
1.768362439319418207e-27
1.531705929768963113e-27
1.234658783543753464e-27
8.599543905821346760e-28
6.630694585949968577e-28
4.944848441545260374e-28
3.439916828240848839e-28
2.410387063310555962e-28
1.712111216525709491e-28
1.177674568499922494e-28
8.078147276199416765e-29
5.580321853316425085e-29
3.887741025682110690e-29
2.746371847055470493e-29
1.976934418757468492e-29
1.451351296924363295e-29
1.086854884750014824e-29
8.271623506252904596e-30
6.359996098072130504e-30
4.904114626596915051e-30
