# bin_11_3
1.631973529580044182e-18
1.839059668189207390e-18
2.036752695460331553e-18
2.207643301705665953e-18
2.329044936401172234e-18
2.375375862259449296e-18
2.323998911719332819e-18
2.149273093206786246e-18
1.879497161271480020e-18
1.559723338725791680e-18
1.278447334091256044e-18
1.088547261608425519e-18
9.347920691934271479e-19
7.108768671630006042e-19
4.952460616898518099e-19
4.002698556836223697e-19
2.736632782349800247e-19
2.043140432766983668e-19
1.388640549999514862e-19
9.735447349378903237e-20
6.804149699482906617e-20
4.753538751465264453e-20
3.342732936451895793e-20
2.376827907388485034e-20
1.721963380829868551e-20
1.272036519089652295e-20
9.571210108599586983e-21
7.314453352540887060e-21
5.642812644101305426e-21
4.363323910032228748e-21
3.357013459964901168e-21
