# bin_13_8
2.358855722456681152e-09
2.685417171281139013e-09
3.011996225570402633e-09
3.315765000475247187e-09
3.566325563148262749e-09
3.725095454497250799e-09
3.755883910126106068e-09
3.611980897518993398e-09
3.278276792847421137e-09
2.813028828037451662e-09
2.311747557327168812e-09
1.910159368374814505e-09
1.647973153385641581e-09
1.380989921152788949e-09
9.947837933958602203e-10
7.224825200409902404e-10
5.751319300471828714e-10
3.814918405315320653e-10
2.835847538286489246e-10
1.957170086107663848e-10
1.333047679409080852e-10
9.117417267412637385e-11
6.214114526377375769e-11
4.256591315220223522e-11
2.940115601621497438e-11
2.064289179477988099e-11
1.476425208719477057e-11
1.078542969931850561e-11
8.044008599006889876e-12
6.102590438098139633e-12
4.680021741114151094e-12
