# bin_14_7
1.814447506790477492e-12
2.067302164293156641e-12
2.321133631522966474e-12
2.558475546108339861e-12
2.756143080658176878e-12
2.884592961608935865e-12
2.914999780823424487e-12
2.812621636200713243e-12
2.561355861247533379e-12
2.205448496512516873e-12
1.814870452765896056e-12
1.496663190642183314e-12
1.288906177981483076e-12
1.086394646469360336e-12
7.895340129326887304e-13
5.672933386327349988e-13
4.553694208950611577e-13
3.011334739211502282e-13
2.254021896526674220e-13
1.545786720633581479e-13
1.051987507410132667e-13
7.199103457249378438e-14
4.900239048159258217e-14
3.346734202725752393e-14
2.301932911799595905e-14
1.608300441948770862e-14
1.144086233535677326e-14
8.311747100447196518e-15
6.168777728805665024e-15
4.662517394703187492e-15
3.567901793969684477e-15
