# bin_7_7
4.470500246957741908e-06
5.011201858478052845e-06
5.514534237448739307e-06
5.930255056236370702e-06
6.194581961307011379e-06
6.247117590273211686e-06
6.012087276381848815e-06
5.462311908045243193e-06
4.692580081036684817e-06
3.858958929159532104e-06
3.186249605516264818e-06
2.744397453380844551e-06
2.303155674753723125e-06
1.669102207519685732e-06
1.209322861086895238e-06
9.649279517133158039e-07
6.464001179195932492e-07
4.835740666069092321e-07
3.372233114567691786e-07
2.344910354980732398e-07
1.646702094395026276e-07
1.161300572291352268e-07
8.285564062966057802e-08
6.000431684020683511e-08
4.432857444095749342e-08
3.335527499647017701e-08
2.549427418216334686e-08
1.969462792848955697e-08
1.526959127114360333e-08
1.179610122556304841e-08
9.019389867658149378e-09
