# bin_15_8
8.681071517200958248e-12
9.913723152432980610e-12
1.116419833357024492e-11
1.235024316020889943e-11
1.336381634621326309e-11
1.406524304987007781e-11
1.430311559415551058e-11
1.393090392655665030e-11
1.281357842255375300e-11
1.114501138447165581e-11
9.216012996024572138e-12
7.565909490215523007e-12
6.473454971991921040e-12
5.532976030429055199e-12
4.134231940880297153e-12
2.896403648630937472e-12
2.352176759586364465e-12
1.567251467969399643e-12
1.179286225474359766e-12
7.951999116603457767e-13
5.429742527178189189e-13
3.718324404954438334e-13
2.525739529522695654e-13
1.711704275917201189e-13
1.163644226623082744e-13
8.014900964717695515e-14
5.609813724344279387e-14
4.005974937113523504e-14
2.925525729590235838e-14
2.182126218543648730e-14
1.655201918946624769e-14
