# bin_13_13
4.844989552680364384e-06
5.542925291889283224e-06
6.256243548683243374e-06
6.939789541595831876e-06
7.534585521967553166e-06
7.963360227143056767e-06
8.136744698581032940e-06
7.980431390979731259e-06
7.399005367918010391e-06
6.485880990101991970e-06
5.389157948345550828e-06
4.414634027268639810e-06
3.754499803651548367e-06
3.232935088057720861e-06
2.470676165092968805e-06
1.711857616512999216e-06
1.383528461231268348e-06
9.442472311592926080e-07
7.013537630525205513e-07
4.689269920572847836e-07
3.239671181456021410e-07
2.212406206188746838e-07
1.497538763875067264e-07
1.009404178612017900e-07
6.806061906942355896e-08
4.636893799244979638e-08
3.203833363665055899e-08
2.255048544560245325e-08
1.623160256909761600e-08
1.195167442500779464e-08
8.977394825127462372e-09
