# bin_10_7
1.327688633447344904e-07
1.500625105933489695e-07
1.667906573651267613e-07
1.815832362069182918e-07
1.926231930858959989e-07
1.977262493172179248e-07
1.951954664693007136e-07
1.824625479547419565e-07
1.611999376602730323e-07
1.347789838757339274e-07
1.102928476137219252e-07
9.311547245341562683e-08
8.048920392857550759e-08
6.307748299448469856e-08
4.365950201261054903e-08
3.468162867983894650e-08
2.469869257854950566e-08
1.787492657843688640e-08
1.219184273830279553e-08
8.655758010759254532e-09
6.002304548719285405e-09
4.153616175343570289e-09
2.895730252061579309e-09
2.037770367891822137e-09
1.458096997028907277e-09
1.063773554080590977e-09
7.912628213913724512e-10
5.992458732937201653e-10
4.597189802949608669e-10
3.548764774029935753e-10
2.735879387756347695e-10
