# bin_7_1
7.515274217561254182e-17
8.261759155186414756e-17
8.876583838071724542e-17
9.264565462370966777e-17
9.335983957697110283e-17
8.978831443093962651e-17
8.155539175166033221e-17
7.005353683803034534e-17
5.762793833042993136e-17
4.758846035738881103e-17
4.093314725338443697e-17
3.430350958499012063e-17
2.495552992853384908e-17
1.813603450561380127e-17
1.443661057267407067e-17
9.816172127854426296e-18
7.358205345018096514e-18
5.197438155706750324e-18
3.687675405387217425e-18
2.647679307322778261e-18
1.919329925885267118e-18
1.412747839248100522e-18
1.057720219282977484e-18
8.066454571432729363e-19
6.239452774581499722e-19
4.868479454781221155e-19
3.807091835476697065e-19
2.962177237225930250e-19
2.278559649275178412e-19
1.723315748110839838e-19
1.276055473931886519e-19
