# bin_11_1
1.400882372806785853e-27
1.576269713838087807e-27
1.742558030832887613e-27
1.884562192818249503e-27
1.982665978142442142e-27
2.015701913202274592e-27
1.963013775375119169e-27
1.806034082963713010e-27
1.571304631640873358e-27
1.299988039077452907e-27
1.067212623756717938e-27
9.121320852330610808e-28
7.792241404668511221e-28
5.840633854350200469e-28
4.102285144768165992e-28
3.321075512685681082e-28
2.241953679639417828e-28
1.685732842768208339e-28
1.151821684759409525e-28
8.035554029138681300e-29
5.629264741331925820e-29
3.945184002552022323e-29
2.785724522066103609e-29
1.991143605483050868e-29
1.450970692061976375e-29
1.077921998621936685e-29
8.151104723073998202e-30
6.251851076848585969e-30
4.832368043431620439e-30
3.737119783065668018e-30
2.870866803000498888e-30
