# bin_12_11
3.443621100293575943e-06
3.926748889741620359e-06
4.413606708736649900e-06
4.871225965092563025e-06
5.256000170868695533e-06
5.512104876143180363e-06
5.582894730138105008e-06
5.405076064457746478e-06
4.939513140135582565e-06
4.268408220048236235e-06
3.517973412790087489e-06
2.895872269634616753e-06
2.488615536070851989e-06
2.109170941571291117e-06
1.547608536766989031e-06
1.100649825908544585e-06
8.892860077594234415e-07
5.878300003770934468e-07
4.420477093823959013e-07
3.012436137839958485e-07
2.049957925778275641e-07
1.403623677070539014e-07
9.545652728822323333e-08
6.500647218253161458e-08
4.452179565457549838e-08
3.094867572763278785e-08
2.189092768707103375e-08
1.580988429244400137e-08
1.167044607072597013e-08
8.783183685060586054e-09
6.703238272348397245e-09
