# bin_2_1
1.695720939366571704e-08
1.428466507223242131e-08
1.178073622581883315e-08
9.555448634457206916e-09
7.646922810167665171e-09
6.033572058640093107e-09
4.677137032872170898e-09
3.563614568430450586e-09
2.694948561985407468e-09
2.044191800925647681e-09
1.555835881882987252e-09
1.190082447440281369e-09
9.196680230220525235e-10
7.174746655333072289e-10
5.643682575142777877e-10
4.461529753320249958e-10
3.529814395573623253e-10
2.782058421109879202e-10
2.174659826685335428e-10
1.679171115272538338e-10
1.276500352613994076e-10
9.528744744248194888e-11
6.971798020618237039e-11
4.994658978813355311e-11
3.502987770268412804e-11
2.406659649497400583e-11
1.621848945400263528e-11
1.074071521029430064e-11
7.005290551492418654e-12
4.509951784162638850e-12
2.872240812829320021e-12
