# bin_5_5
4.773501233338188533e-08
4.343856379381227144e-08
3.847768282430657026e-08
3.317327045275219501e-08
2.788623299583683358e-08
2.294805747589646472e-08
1.857814168622775035e-08
1.484335042855898156e-08
1.168698789755679978e-08
9.023438238753294095e-09
6.830804804334852311e-09
5.128660780667364055e-09
3.863054227481982638e-09
2.908526504147621116e-09
2.195134299890107167e-09
1.672536422105287851e-09
1.283977104772973015e-09
9.937926554015654540e-10
7.734864355774481937e-10
6.033133779733174608e-10
4.696896713680466526e-10
3.634620684381222950e-10
2.784887241316463627e-10
2.105651116531951953e-10
1.566810368420373958e-10
1.145023195129348204e-10
8.207327808294788770e-11
5.766525182106070857e-11
3.971822249243180569e-11
2.683884532557883197e-11
1.781650273250806581e-11
