# bin_3_1
1.892481857941274921e-08
1.602844382612088029e-08
1.327645187165840268e-08
1.080538964033731029e-08
8.674051980918651047e-09
6.868452529226443538e-09
5.345074796747989786e-09
4.083074149361521334e-09
3.087412953705294654e-09
2.338308094260024341e-09
1.777042632579191365e-09
1.355629203621617532e-09
1.044153233521669628e-09
8.121562208450010093e-10
6.372689181621517720e-10
5.030384055671220386e-10
3.978635824584064055e-10
3.138602221747214071e-10
2.458300564355250157e-10
1.903847893803684432e-10
1.452747967801955475e-10
1.089147617671171450e-10
8.006391017357585225e-11
5.763760209532787336e-11
4.061840161224877983e-11
2.803341596716370206e-11
1.897032586340400223e-11
1.260901894786487046e-11
8.249332544142079575e-12
5.324406700216016159e-12
3.397858463168511119e-12
