# bin_10_8
7.194987860784030578e-08
6.782355626227385552e-08
6.233664664387341563e-08
5.577074499371403452e-08
4.854163458021926422e-08
4.114865090482183064e-08
3.408810428430694026e-08
2.773474991353998169e-08
2.225368857937417395e-08
1.760990050812519323e-08
1.367555238943063761e-08
1.038651890258542692e-08
7.775990509385902503e-09
5.821937990560037876e-09
4.358140727899927135e-09
3.252949095226941780e-09
2.447173172994543326e-09
1.851952348813938315e-09
1.413128346812641438e-09
1.085262752551401254e-09
8.369755662111715338e-10
6.460168041397192832e-10
4.971346467003767974e-10
3.799857163009457616e-10
2.874740457314825034e-10
2.146301826916031524e-10
1.577741393025988044e-10
1.139978950551471624e-10
8.087551678337821238e-11
5.631404334786171887e-11
3.849263553590862173e-11
