# bin_8_5
5.543732370620835544e-08
5.105159508124612255e-08
4.577130214686631185e-08
3.992304540379391099e-08
3.390750225411406808e-08
2.813252635880872401e-08
2.291666205481611185e-08
1.841046490108305574e-08
1.459515938078860671e-08
1.136371442591092149e-08
8.654935345335563746e-09
6.496184858160220385e-09
4.879290612927120913e-09
3.669523893136229774e-09
2.754122907972662556e-09
2.085241236629506462e-09
1.589910265898458130e-09
1.222921774560999635e-09
9.469860597578576404e-10
7.362899787198939152e-10
5.726389296699763282e-10
4.436676452293566421e-10
3.410755376682026788e-10
2.592250510721155822e-10
1.941867735365212573e-10
1.430377008236132361e-10
1.034270987883336037e-10
7.334044021255540391e-11
5.098587953507274166e-11
3.476365973751491628e-11
2.327073319701888385e-11
