# bin_2_2
2.251476389014131995e-08
1.932190629627549768e-08
1.618333222597308418e-08
1.328249453028911392e-08
1.073249527495061737e-08
8.559517936420387225e-09
6.726044903654128651e-09
5.187259938543181784e-09
3.934455094070057340e-09
2.970409600827339182e-09
2.252284882910165972e-09
1.711023292612127110e-09
1.307715941816484093e-09
1.009841288900406123e-09
7.867845214453389087e-10
6.177561693712174621e-10
4.871285020557906215e-10
3.841599955839522102e-10
3.016198539548918453e-10
2.347499778457296951e-10
1.804155061746573375e-10
1.364791900046378347e-10
1.013691876735054446e-10
7.379830951429897013e-11
5.261218183131845297e-11
3.672654662546627594e-11
2.512030875998265000e-11
1.685840424399006612e-11
1.112191068294589999e-11
7.228779387712196738e-12
4.639367779493928258e-12
