# bin_7_2
3.232064150854138618e-08
2.836650930435716651e-08
2.423230755611453179e-08
2.020459510495690918e-08
1.652388652029282639e-08
1.332155933375027288e-08
1.060437270383422521e-08
8.301415399914258845e-09
6.361416957795536622e-09
4.799438588786050256e-09
3.619303505461934363e-09
2.738202127876231656e-09
2.071842323918537108e-09
1.580952031869262284e-09
1.217672036505749813e-09
9.466479175880675534e-10
7.414808526958822942e-10
5.832130485072672150e-10
4.586903447151104476e-10
3.590982470072262067e-10
2.786334993653098245e-10
2.134541935438566549e-10
1.609309047577393029e-10
1.191163624008357030e-10
8.641039884008928208e-11
6.138178847206041805e-11
4.269425299575657908e-11
2.909884689684931588e-11
1.946183417150347491e-11
1.279802384662483999e-11
8.293208476733913835e-12
