# bin_9_6
6.215965042610418213e-08
5.782697068526123085e-08
5.240400243529429264e-08
4.620487665565373023e-08
3.964462609305412823e-08
3.317753478244739777e-08
2.720390641906918645e-08
2.196450541062330820e-08
1.750607643766937753e-08
1.373294250873744378e-08
1.054445102462049143e-08
7.939492168580435026e-09
5.946659905162282195e-09
4.467989480434545433e-09
3.345514689295793812e-09
2.516164885379026431e-09
1.907635812541976469e-09
1.457460944155881646e-09
1.121937671602856531e-09
8.683886612599178377e-10
6.735534638377622741e-10
5.215005580130096199e-10
4.014577493954959260e-10
3.061220293047519235e-10
2.304604110185672673e-10
1.708458599582731305e-10
1.244680727645799290e-10
8.900000192874004860e-11
6.242018976861020414e-11
4.294163274473083025e-11
2.899571457882429070e-11
