# bin_4_1
2.018258435896181884e-08
1.714356230149079350e-08
1.423334188472984282e-08
1.160535148645235311e-08
9.331592214430034585e-09
7.402987752026420033e-09
5.772773289616297059e-09
4.415814594143055952e-09
3.338952593364689172e-09
2.526860379188016077e-09
1.918821755557265229e-09
1.461750316001221999e-09
1.123946876373812858e-09
8.728314858361996438e-10
6.839746502182409550e-10
5.394731458960140842e-10
4.266021950180108362e-10
3.366849529763035797e-10
2.639849897577251583e-10
2.047646623765042213e-10
1.565553443353552545e-10
1.176377533449129208e-10
8.668772577517548165e-11
6.256295937738635292e-11
4.419849536750161551e-11
3.057558098986300603e-11
2.073457563649301201e-11
1.380731152960294036e-11
9.047547067665873057e-12
5.847169073052330835e-12
3.735331211969239127e-12
