# bin_8_4
4.947171921795495216e-08
4.507445658038236666e-08
3.996249977193222783e-08
3.446961503918184823e-08
2.897813990816507641e-08
2.384489287137852515e-08
1.930661090943549587e-08
1.543388232521472986e-08
1.215830302319666005e-08
9.382915250422689949e-09
7.092751410716876297e-09
5.322700906646684609e-09
4.010460727575510432e-09
3.015900640633688442e-09
2.275833505174468716e-09
1.733413732970794545e-09
1.330825326242302447e-09
1.030231223565434360e-09
8.022079278331718949e-10
6.261132593560166979e-10
4.878078098281282662e-10
3.777912981432915229e-10
2.897014921966823019e-10
2.192041845958662636e-10
1.632090526337203281e-10
1.193252698456144803e-10
8.555009877274504189e-11
6.010863620912724746e-11
4.139261366669636940e-11
2.795946677037178187e-11
1.855094898432813439e-11
