# bin_15_6
7.665212884995441837e-21
8.739574993550307271e-21
9.821742299566637227e-21
1.083823276038978781e-20
1.169191270804513573e-20
1.225852133563408287e-20
1.241211876382379154e-20
1.201227004938472468e-20
1.097248304564207128e-20
9.476916985156769462e-21
7.807231304136437652e-21
6.425415654384322731e-21
5.521738319837817550e-21
4.678317667854638590e-21
3.430210214553529288e-21
2.439942168297417000e-21
1.970792829771622005e-21
1.302385778764643743e-21
9.790905520539902071e-22
6.673128319180761131e-22
4.540940269480505039e-22
3.108651723813949554e-22
2.113930022007679745e-22
1.439674787140561829e-22
9.860937212595450318e-23
6.855716154214602172e-23
4.850149677884258064e-23
3.503537105802678947e-23
2.586707997308032740e-23
1.947036421687477245e-23
1.486073927657207369e-23
