# bin_11_7
2.420391137135745887e-12
2.739313252182567165e-12
3.049648520460086247e-12
3.326787232694347036e-12
3.537896865730458872e-12
3.642738713246348295e-12
3.610639688070237506e-12
3.392205731325908262e-12
3.010838190456480315e-12
2.527158641776398487e-12
2.067083641262979703e-12
1.737263032486915263e-12
1.503923761791765040e-12
1.195648740343894745e-12
8.285206881314896733e-13
6.490949022375865802e-13
4.730956972159020255e-13
3.355703161512088801e-13
2.313763185084945783e-13
1.646716769344105590e-13
1.136970905675642334e-13
7.827880257716910617e-14
5.432104544219079635e-14
3.803042361820066443e-14
2.703646135548560195e-14
1.959339315355715180e-14
1.448064803121410771e-14
1.090753101138332655e-14
8.336811292192644052e-15
6.424633986365527402e-15
4.954712390897143863e-15
