# bin_2_15
5.267519034698918415e-07
5.462618619409280286e-07
5.463763561534180644e-07
5.215804722280057126e-07
4.714767553956972830e-07
4.041655093732604337e-07
3.341364815977074687e-07
2.774370205556254672e-07
2.361122403490078961e-07
1.940970619263905679e-07
1.443211014928364935e-07
1.066821015856070255e-07
8.202299414410825384e-08
5.903172035124998388e-08
4.342157429469674485e-08
3.152313966499973534e-08
2.313206477840088393e-08
1.715397742683581896e-08
1.292476683520997513e-08
9.911998582623235786e-09
7.724200223869292009e-09
6.093325733193203671e-09
4.834310547588652086e-09
3.830007681853850405e-09
3.009282548635066955e-09
2.330070180689334246e-09
1.768522817598066602e-09
1.310602480329335434e-09
9.460207254823133298e-10
6.648027901599554718e-10
4.553804384432573873e-10
