# bin_8_13
8.273036725956451977e-08
9.315789615224772627e-08
1.030791408433460885e-07
1.116053334491963580e-07
1.175829454900306495e-07
1.197442337113373839e-07
1.169019018183055552e-07
1.078800533532279501e-07
9.413008243260728400e-08
7.804149171850223372e-08
6.402198286429172335e-08
5.455675467465107295e-08
4.668903350037660323e-08
3.534274523392309952e-08
2.477268118424740121e-08
1.991968881041618825e-08
1.364886947421056330e-08
1.014259249426245792e-08
6.936152862057078037e-09
4.861994705569219220e-09
3.396250692494497249e-09
2.372687214633421371e-09
1.670586154718718114e-09
1.190027984834857623e-09
8.637328745655226188e-10
6.391469783965522579e-10
4.815843469939244761e-10
3.683343390207636422e-10
2.841995892044673119e-10
2.196491424141470970e-10
1.688169979431026956e-10
