# bin_3_8
2.722011681127777954e-07
2.906620519305156795e-07
3.012318618185246033e-07
3.009906738823045143e-07
2.865826456359710529e-07
2.580413987193407076e-07
2.200904277861435020e-07
1.811647156335051459e-07
1.505919549346904229e-07
1.289853153942436943e-07
1.057251072857953550e-07
7.705304286625712959e-08
5.732681087423179068e-08
4.416795541158745491e-08
3.123291111068434350e-08
2.300375319092665533e-08
1.654410751275106058e-08
1.199954383670750130e-08
8.795212951648416669e-09
6.539627063300123310e-09
4.947183956554177463e-09
3.806078243956874471e-09
2.970776802864787608e-09
2.338404056888755343e-09
1.843729946455099893e-09
1.446160423554868971e-09
1.120973434536211831e-09
8.538655293704322270e-10
6.362655675824181767e-10
4.623378060331957563e-10
3.271545258874759244e-10
