# bin_5_12
1.793708738272062232e-07
1.977064030798140516e-07
2.131158579078360143e-07
2.233609466924162678e-07
2.261681578731135990e-07
2.190742428177971265e-07
2.005947365192920234e-07
1.737072282519890078e-07
1.435668989146916941e-07
1.181963778062215229e-07
1.010402830680064003e-07
8.543460771701405243e-08
6.367201175016826071e-08
4.556794039326365516e-08
3.624272758830945131e-08
2.505778365304835558e-08
1.861516178479497134e-08
1.305543327939038733e-08
9.300819405655014011e-09
6.652503216173855609e-09
4.796291917869863161e-09
3.507652035172862599e-09
2.607522373456322199e-09
1.974975236447354013e-09
1.519111662990674081e-09
1.180648030266332682e-09
9.214922772334644688e-10
7.171114240846786996e-10
5.527559062435735302e-10
4.196014710144601057e-10
3.122772271450141335e-10
