# bin_8_8
1.117652238847683116e-08
1.255210892536164260e-08
1.384473717738954388e-08
1.493107191309321816e-08
1.565324129530890697e-08
1.585066989319589993e-08
1.534765779914402982e-08
1.403311135436562824e-08
1.213328206252374271e-08
1.000527306575387094e-08
8.232341399287691778e-09
7.061527211995870491e-09
5.984537156731032532e-09
4.414561095979478752e-09
3.141987268619578931e-09
2.530055483802477699e-09
1.698533658970672053e-09
1.276147810885043497e-09
8.796289332841693322e-10
6.123286748328180978e-10
4.294830045641370762e-10
3.018567866541416383e-10
2.141535109406261091e-10
1.539935995591406122e-10
1.129374647881480625e-10
8.440929742311413800e-11
6.415647589955559655e-11
4.937900041830962969e-11
3.822598056029914318e-11
2.954901005769291495e-11
2.265017198876022758e-11
