# bin_2_7
3.987583201725167347e-07
4.130301171625661508e-07
4.125002196256720781e-07
3.930263187479919296e-07
3.545580909022255345e-07
3.033950752109043271e-07
2.506606255744143740e-07
2.083109060626969501e-07
1.773375988014994674e-07
1.453411934917871071e-07
1.077416036387294555e-07
7.985137047435998062e-08
6.130486335692605009e-08
4.409244767408904456e-08
3.244871163650187468e-08
2.356610886629169921e-08
1.730303924541250224e-08
1.284445206623621712e-08
9.689062385869635879e-09
7.439279988321317737e-09
5.803323868674898274e-09
4.581513759368915405e-09
3.636288076907714104e-09
2.880887264889372536e-09
2.262724515776821620e-09
1.750793515579075598e-09
1.327558375268511112e-09
9.826595977825720441e-10
7.083934838154832416e-10
4.971748498263363729e-10
3.401518931233852945e-10
