# bin_5_15
2.077565796543833571e-07
2.290342150537949801e-07
2.469393492183721155e-07
2.588815493941332780e-07
2.622193184836894717e-07
2.541094333893688680e-07
2.327899212848956010e-07
2.016853125339286635e-07
1.667352329053152313e-07
1.372454824260263486e-07
1.172887826798336750e-07
9.923214879879244128e-08
7.404811317100244123e-08
5.294901144965712143e-08
4.211819242991751684e-08
2.914021879032490361e-08
2.164028780359085686e-08
1.517318572520149425e-08
1.081073987084242915e-08
7.730676205010806262e-09
5.571811145226458526e-09
4.073285206556951759e-09
3.026767057868602491e-09
2.291615842167045360e-09
1.762101594105134214e-09
1.369196493480687577e-09
1.068547712227187036e-09
8.315710858384305049e-10
6.410692032287191888e-10
4.867522800166388645e-10
3.623633736742168534e-10
