# bin_3_11
3.284631039652390925e-07
3.509186747416176613e-07
3.639092476947538957e-07
3.639000510882065130e-07
3.468370724004153645e-07
3.126261275001895193e-07
2.669079711257117042e-07
2.197733103193546135e-07
1.825799328862328670e-07
1.563491726040585895e-07
1.283912739154767686e-07
9.373789045849890790e-08
6.959393093089235086e-08
5.370336113494936902e-08
3.796515834375544432e-08
2.797087052867944657e-08
2.010446257330732280e-08
1.457887739296821538e-08
1.068023554562303019e-08
7.935958470099047818e-09
5.999328623953477330e-09
4.612448595056740637e-09
3.598260915053275377e-09
2.831369355859123470e-09
2.232141117264073791e-09
1.750987882946156403e-09
1.357661656097874304e-09
1.034643738810713805e-09
7.714476537032428664e-10
5.609670130601560158e-10
3.972454170565570096e-10
