# bin_5_13
1.907690952285217663e-07
2.102860226009320589e-07
2.266976144641814787e-07
2.376241778880626849e-07
2.406444366487111022e-07
2.331425661583789609e-07
2.135226670686360942e-07
1.849417947444328355e-07
1.528701206162157051e-07
1.258455270716734453e-07
1.075648478452147893e-07
9.097499348169742650e-08
6.783853193323634616e-08
4.853180580665561602e-08
3.860201390463923912e-08
2.669708537040505415e-08
1.982989919317881110e-08
1.390581501632834462e-08
9.907126754994136542e-09
7.085442741992971014e-09
5.107701077486955303e-09
3.734781509526595133e-09
2.775869604976364605e-09
2.102121851694232102e-09
1.616683904441917131e-09
1.256359355415467503e-09
9.805421316373942865e-10
7.630724983869212947e-10
5.882179557884282876e-10
4.465657651219360837e-10
3.323892403782303540e-10
