# bin_14_10
1.175045430887143486e-11
1.341163338718667486e-11
1.509293468943122709e-11
1.668252345264283424e-11
1.803330063962147015e-11
1.895578830084610578e-11
1.924851913767887131e-11
1.870876284233952313e-11
1.716819889732646629e-11
1.489717608015002074e-11
1.230062279409466203e-11
1.010304960982562656e-11
8.655533583140370054e-12
7.379608923515518652e-12
5.480985765372341895e-12
3.854765565352669673e-12
3.128083213150235019e-12
2.076273395641225017e-12
1.563397429021633302e-12
1.057299198354102322e-12
7.208268980998507163e-13
4.935939186644510872e-13
3.353775024072401791e-13
2.276020267365520165e-13
1.550616947707528322e-13
1.070993046391811038e-13
7.520340651771076000e-14
5.389180976369818664e-14
3.949067185882284882e-14
2.954090896831369782e-14
2.245304202280186958e-14
