# bin_1_4
5.134875635565224855e-07
5.014755957237628362e-07
4.662948135476966032e-07
4.115301813226058400e-07
3.474508366616408008e-07
2.877847283862280171e-07
2.410387570285401239e-07
2.018453665184772011e-07
1.596271325013805130e-07
1.184566631514445361e-07
8.909937334172568755e-08
6.703811886112110269e-08
4.891517962346712980e-08
3.609776540277728012e-08
2.664191037599284875e-08
1.991751186625795782e-08
1.512215340910984657e-08
1.168671961362136742e-08
9.180015061617003085e-09
7.297655806789863783e-09
5.834755025418768341e-09
4.657877216560171564e-09
3.686550857820131302e-09
2.874656705907462815e-09
2.196847314135125646e-09
1.638992708304254121e-09
1.191148708616727998e-09
8.428759071460872669e-10
5.814151144474557566e-10
3.918898192483553007e-10
2.588823999733053610e-10
