# bin_13_9
7.361673945649640197e-12
8.382603059126845508e-12
9.404724805725034837e-12
1.035686212119688443e-11
1.114441259081884859e-11
1.164720397778385915e-11
1.175079522894157463e-11
1.131178740485369744e-11
1.027607969100654442e-11
8.825831563812875239e-12
7.253803778751672223e-12
5.987750442991616602e-12
5.162100597607762093e-12
4.334777260914424688e-12
3.131635072286110234e-12
2.264696610083414758e-12
1.808623098559359338e-12
1.197739038626151629e-12
8.927012576683196444e-13
6.145770549036932847e-13
4.183972926981887756e-13
2.861935268484097800e-13
1.949390380523661110e-13
1.333768240126663540e-13
9.197484233920198261e-14
6.445679278605708605e-14
4.600768321948160636e-14
3.354045267435625760e-14
2.497018524365892113e-14
1.891781222401619740e-14
1.449646547114285937e-14
