# bin_13_8
2.616291890827322030e-13
2.976598130005847345e-13
3.335870145557292990e-13
3.668669873658895653e-13
3.941081631628006028e-13
4.110186087746075369e-13
4.136805466659890923e-13
3.968345416963462472e-13
3.592422620844334121e-13
3.074349247281050655e-13
2.523520416752102926e-13
2.087636620397002978e-13
1.802847532791828337e-13
1.504189968218389092e-13
1.077055093411808112e-13
7.880240158517359204e-14
6.231253370293433201e-14
4.146431265197223962e-14
3.063635546062123658e-14
2.123469614171014790e-14
1.447372155085120395e-14
9.895504706054006430e-15
6.751829056922409925e-15
4.634312916524934818e-15
3.210050916212532066e-15
2.261214668894748939e-15
1.623063921468209255e-15
1.189917024751496745e-15
8.902343365416810044e-16
6.769204595722313772e-16
5.197579997290171620e-16
