# bin_3_15
3.705631911216919387e-07
3.960079965000759637e-07
4.108100766276848403e-07
4.109745746030103278e-07
3.919250379800569164e-07
3.534715998948821874e-07
3.019413772674406820e-07
2.486640026477406165e-07
2.065163984530601711e-07
1.768254272907430638e-07
1.453523562818429186e-07
1.062231875699761210e-07
7.877338589972843556e-08
6.083872751043311378e-08
4.300288857278070102e-08
3.168777033347662490e-08
2.276868190988644261e-08
1.650899224358044066e-08
1.209079553481925455e-08
8.980829591260348556e-09
6.786644402963208077e-09
5.215851473816201549e-09
4.067803559537405541e-09
3.200252104217097700e-09
2.522786629534485305e-09
1.979088331085774480e-09
1.534774087417896043e-09
1.169919192801281616e-09
8.726039029087305466e-10
6.347710034157722146e-10
4.496943459301529611e-10
