# bin_15_10
1.196148965100671511e-12
1.367204662959635283e-12
1.541397763091592866e-12
1.707472137177387056e-12
1.850710225029453391e-12
1.951957518156453155e-12
1.989656489228912309e-12
1.944790332127796781e-12
1.795909306320837409e-12
1.568080212218362006e-12
1.299376408968793644e-12
1.065016170399692632e-12
9.082514421508434051e-13
7.796633179570756197e-13
5.894393410246693813e-13
4.099793806375854761e-13
3.325311133224733306e-13
2.239973754264383428e-13
1.676651024859565609e-13
1.124088825535524410e-13
7.717072675529440306e-14
5.278216470188787836e-14
3.579732265606069565e-14
2.418604024829900172e-14
1.636621875480928869e-14
1.120538891380349822e-14
7.788257146720393405e-15
5.518767568110612641e-15
3.999631830597375508e-15
2.963367566505446291e-15
2.236666299324724012e-15
