# bin_3_10
3.137887494210420465e-07
3.352024176190358878e-07
3.475616020619105492e-07
3.474918969031317199e-07
3.311213877766961967e-07
2.983892251582240687e-07
2.546969221343007027e-07
2.097033363519499019e-07
1.742367619737823556e-07
1.492120744909695223e-07
1.224794371541189862e-07
8.938611372176248201e-08
6.639439513702096862e-08
5.121631674124689822e-08
3.620923959026432287e-08
2.667533663027562476e-08
1.917584334819585421e-08
1.390613024169265976e-08
1.018858002764812112e-08
7.571764406949284199e-09
5.724906063864229299e-09
4.402129404334082501e-09
3.434599205621994516e-09
2.702793123063444965e-09
2.130834909389129523e-09
1.671482152168611724e-09
1.295928142672057743e-09
9.874927906908307341e-10
7.361891810328452016e-10
5.352423381563157296e-10
3.789641649470024828e-10
