# bin_13_13
6.827291468816946889e-09
7.796080949637080420e-09
8.778567361884198775e-09
9.710008883941635176e-09
1.050541394086166349e-08
1.105493611619139862e-08
1.123959010046030625e-08
1.094459993788483524e-08
1.006430242346445089e-08
8.751075994133838070e-09
7.234469450918932696e-09
5.938006457093924463e-09
5.079386386607995786e-09
4.340226299487451257e-09
3.242961413033416902e-09
2.272564670911381993e-09
1.843379764765615876e-09
1.230060570712571477e-09
9.240897775281253321e-10
6.231233115828788361e-10
4.258790475914859462e-10
2.915012583580088007e-10
1.979438079399382264e-10
1.341349826294855835e-10
9.117819414137035590e-11
6.279283319968836390e-11
4.394359102690928144e-11
3.137452737388548813e-11
2.290776723590368264e-11
1.708268366947254627e-11
1.295441232646867499e-11
