# bin_6_3
4.618754829614455565e-12
5.067789757256943982e-12
5.432008996257132757e-12
5.652499362465885295e-12
5.676251302920318456e-12
5.432613790708530579e-12
4.910103936696640110e-12
4.196679376746283174e-12
3.445505229306471903e-12
2.852646999727966885e-12
2.458062488742029816e-12
2.042167084031663101e-12
1.470028777321223539e-12
1.082825703189418493e-12
8.524785752175523421e-13
5.825213830638284756e-13
4.333522975082009321e-13
3.082401540416357174e-13
2.189281401599157257e-13
1.573679707843728439e-13
1.143845896117199436e-13
8.448115170091974974e-14
6.348643227482866459e-14
4.857512537416260301e-14
3.766625882814927417e-14
2.943333253626580710e-14
2.302388503413253818e-14
1.790031598283205924e-14
1.374541978220574587e-14
1.036975223511404456e-14
7.654172248907649197e-15
