# bin_8_9
2.581112950711007254e-08
2.902069189586451217e-08
3.205300191093247045e-08
3.462641566891861933e-08
3.637832479322813789e-08
3.692633306396398370e-08
3.588133376898797910e-08
3.293555695539202129e-08
2.858711702526204369e-08
2.362270382872303023e-08
1.940795536660778391e-08
1.660399671953232326e-08
1.413812752963973246e-08
1.054189625347145225e-08
7.443939124605718127e-09
6.003432632741196468e-09
4.055277511618384196e-09
3.040525954632069151e-09
2.085194753847761084e-09
1.455047835301394866e-09
1.019223597739163011e-09
7.147621916257094010e-10
5.054821040923953718e-10
3.620310689326024150e-10
2.643705154563610311e-10
1.967866744947504560e-10
1.490495803324633349e-10
1.144388951536112232e-10
8.848673545149089980e-11
6.840881261674407984e-11
5.250403155903309873e-11
