# bin_10_9
2.639775097181492333e-09
2.987748510202166175e-09
3.326447578813446013e-09
3.629038093919538343e-09
3.859734112354190533e-09
3.974713116184917346e-09
3.940319104742733533e-09
3.702884385760834037e-09
3.287398030940573171e-09
2.760123569289347379e-09
2.257862555773430628e-09
1.897183691754511245e-09
1.642105250890824266e-09
1.306342671083048837e-09
9.060053963828829442e-10
7.088107497532499418e-10
5.173225973678800956e-10
3.664764650794386833e-10
2.531836827779831580e-10
1.800206328361473720e-10
1.242717833566163315e-10
8.555471383140159040e-11
5.935259077857227730e-11
4.154181755994553843e-11
2.952222165695717696e-11
2.138659300148621189e-11
1.579967081404285172e-11
1.189662460495763317e-11
9.089981426516562166e-12
7.003537447841409997e-12
5.400579500096920395e-12
