# bin_6_5
3.243993620599117900e-09
3.584578936777439449e-09
3.875881156496879618e-09
4.077844288412477797e-09
4.147111017210125097e-09
4.041863553699335575e-09
3.723801536705188803e-09
3.244167811960224431e-09
2.687392216033081381e-09
2.205093557764114281e-09
1.879568207882660453e-09
1.605429832247394277e-09
1.212791661736808652e-09
8.539274884818905729e-10
6.868490467675772770e-10
4.736163645632574290e-10
3.540952987462619377e-10
2.458730705746189792e-10
1.752566075163385560e-10
1.251696609885038154e-10
8.995286797169745780e-11
6.550385757797994537e-11
4.845706417361636181e-11
3.653972020933695368e-11
2.800812037782026606e-11
2.172013905889383447e-11
1.694166575997085330e-11
1.319551698368814593e-11
1.019340814447879764e-11
7.762986312922828754e-12
5.801010202665647131e-12
