# bin_14_13
2.455092770104940043e-09
2.807627943987504045e-09
3.167365200329721754e-09
3.511327591872319521e-09
3.809497564200787953e-09
4.022657288607896355e-09
4.105942220615814411e-09
4.021238726025935228e-09
3.721945274168663320e-09
3.257015965064710447e-09
2.702903855279742714e-09
2.214248263839805887e-09
1.884893620367558210e-09
1.620987686652119079e-09
1.233591567308737934e-09
8.558984240107462979e-10
6.924910692884063638e-10
4.704119364532281941e-10
3.502573106771536746e-10
2.344377388122293681e-10
1.616180030197202935e-10
1.104129736747928509e-10
7.477706178537153329e-11
5.044519955782028881e-11
3.405800731260373146e-11
2.324583412523979723e-11
1.609712448724775287e-11
1.135869057805558526e-11
8.196948488631799223e-12
6.049688518667010517e-12
4.552335004616947675e-12
