# bin_2_3
1.576143990221621299e-07
1.621468950036359607e-07
1.605646402536399925e-07
1.513132013728844846e-07
1.349445811671722328e-07
1.143012611919640225e-07
9.412138579695853640e-08
7.865377897176205544e-08
6.703693010302182898e-08
5.392366213592358064e-08
3.931140962186734532e-08
2.963315926157670703e-08
2.249703382971197728e-08
1.615930940761276023e-08
1.190751145740789747e-08
8.677212415990706948e-09
6.391504873356588172e-09
4.772965324853460890e-09
3.625117709611139419e-09
2.802183832394413907e-09
2.198894553003607623e-09
1.743243772198099004e-09
1.386409873982906302e-09
1.098231548897620036e-09
8.606340408668857578e-10
6.631588356932786768e-10
4.999730468944538100e-10
3.675411535335899581e-10
2.629802272636675567e-10
1.831973053486956993e-10
1.244762881318777627e-10
