# bin_13_1
7.306971002140977259e-37
8.278734772815756213e-37
9.228993748683279313e-37
1.008425174839671761e-36
1.074617500151596432e-36
1.109299654796957071e-36
1.103062695756512553e-36
1.040665478507482412e-36
9.272859125766939771e-37
7.811279396200272323e-37
6.390752197020871719e-37
5.352891571849285948e-37
4.636007129016329300e-37
3.726127979433664034e-37
2.591529632381174881e-37
2.004614419554301704e-37
1.487940294269346609e-37
1.038968206030660008e-37
7.255028993202459844e-38
5.155212476006500453e-38
3.548397986435089083e-38
2.435554968093883842e-38
1.683906042857217137e-38
1.174231422900643413e-38
8.305156097327732431e-39
5.986313321752908979e-39
4.400670442543786127e-39
3.299371002730285537e-39
2.513209650225113389e-39
1.933286965868119496e-39
1.490781887416674683e-39
