# bin_15_3
-1.593917136681642024e-09
-1.702849476708055386e-09
-1.765840372909092025e-09
-1.765739849959399596e-09
-1.682880810714187506e-09
-1.516821480735112842e-09
-1.294956616431027588e-09
-1.066264832917160590e-09
-8.858424677811215645e-10
-7.585887701122992438e-10
-6.228894942662859690e-10
-4.547276298283595883e-10
-3.376290183728849972e-10
-2.605095826913535670e-10
-1.841550394424940126e-10
-1.356622320616196007e-10
-9.749961853859644979e-11
-7.069118950797242685e-11
-5.177771132670344020e-11
-3.846560199816388355e-11
-2.907254345576395850e-11
-2.234733599719607672e-11
-1.743065061752346483e-11
-1.371402054262685743e-11
-1.081087707756787155e-11
-8.480417414968716548e-12
-6.575716742397613127e-12
-5.011650102890942132e-12
-3.737254060126380975e-12
-2.718026073087610968e-12
-1.925094955439520987e-12
