# bin_4_5
-1.467184106092814562e-11
-1.602898645290263484e-11
-1.708934287657245621e-11
-1.766461813709124762e-11
-1.759647708576865938e-11
-1.665937314141926345e-11
-1.489992730689641314e-11
-1.260811118008574223e-11
-1.032911441639736679e-11
-8.616918418019470370e-12
-7.436435236615241320e-12
-6.036341540651540548e-12
-4.273431156716381190e-12
-3.249303272768393299e-12
-2.473538443980162693e-12
-1.730447543624462779e-12
-1.258585769981320111e-12
-9.063076022517261131e-13
-6.470909870690435324e-13
-4.669997413228159877e-13
-3.417554627015164299e-13
-2.543269147233722987e-13
-1.926627623221358102e-13
-1.484066779753641143e-13
-1.156375051953281081e-13
-9.059565833126792440e-14
-7.087235749406823321e-14
-5.497805375212767911e-14
-4.203821475662101482e-14
-3.152792719633471246e-14
-2.310437724680572849e-14
