# bin_13_2
-2.267258081990625875e-09
-2.350137666923004004e-09
-2.349275215225538924e-09
-2.241002935824782161e-09
-2.024150479537500523e-09
-1.733963142760247736e-09
-1.433149977228576514e-09
-1.190374314423809752e-09
-1.013211482909291238e-09
-8.319454432151228907e-10
-6.178367378335607916e-10
-4.571591982438637178e-10
-3.512861217931497424e-10
-2.527291331040626294e-10
-1.859193751127808005e-10
-1.349736679583545561e-10
-9.904947187873422558e-11
-7.346495155292357414e-11
-5.536441788650600645e-11
-4.246810736498467180e-11
-3.310079828794139284e-11
-2.611533143585967134e-11
-2.072028638063997135e-11
-1.641517153720212925e-11
-1.289612710233848063e-11
-9.983569181956529546e-12
-7.575724281933587029e-12
-5.612600335116186167e-12
-4.050087862472838890e-12
-2.845304566048879691e-12
-1.948460452643545864e-12
