# bin_13_9
-1.964332380071541127e-10
-2.221074162551892810e-10
-2.469930138362906556e-10
-2.690706230014365919e-10
-2.856626597351240334e-10
-2.935490064040036885e-10
-2.901754272238648554e-10
-2.717575816720881961e-10
-2.404947493895406854e-10
-2.014308617378444299e-10
-1.648421711893246486e-10
-1.388869748738050316e-10
-1.200083036208957947e-10
-9.458521031016154950e-11
-6.568013009906914435e-11
-5.171561436544062515e-11
-3.724163855211499380e-11
-2.667060765735997223e-11
-1.836942614806536370e-11
-1.301159978049633798e-11
-9.003734115417662715e-12
-6.217881509232072964e-12
-4.324342084359472815e-12
-3.035518377901534156e-12
-2.165150723854078922e-12
-1.574406203295151095e-12
-1.167293426693182497e-12
-8.814975737657638724e-13
-6.747945594980675539e-13
-5.202397718566490327e-13
-4.009397770103985394e-13
