# bin_5_13
-1.175016381916548854e-22
-1.333436349136462680e-22
-1.489504458805063476e-22
-1.631577380604840728e-22
-1.744049253060375984e-22
-1.807374925734662233e-22
-1.805755996670731762e-22
-1.714396915485638356e-22
-1.536650044026551848e-22
-1.301802581887506009e-22
-1.065824185740035650e-22
-8.882877824004463827e-23
-7.692864241841624627e-23
-6.279703862448990889e-23
-4.402438485822059511e-23
-3.336676986057005444e-23
-2.542601182867885295e-23
-1.736541926079905789e-23
-1.239081263484948130e-23
-8.749850162761603214e-24
-5.996269192723665302e-24
-4.101626972179471412e-24
-2.819542608010782912e-24
-1.953861058644903300e-24
-1.370775876813133795e-24
-9.794525723041952768e-25
-7.136903689198037432e-25
-5.308409928603769441e-25
-4.019115630469395090e-25
-3.080850900477156868e-25
-2.373888102821266091e-25
