# bin_7_10
-1.132009980304674963e-13
-1.277743058334963930e-13
-1.417883338348376985e-13
-1.540579081976604719e-13
-1.630228995097120210e-13
-1.668510478018014658e-13
-1.640646931803219320e-13
-1.526252202614043502e-13
-1.342140935647618845e-13
-1.118005644320842605e-13
-9.150436388801363230e-14
-7.752473990611650167e-14
-6.686093912641824796e-14
-5.172342850712201049e-14
-3.583412821776493173e-14
-2.872327131639995514e-14
-2.007219588716257835e-14
-1.474385221623301834e-14
-1.001290363151840183e-14
-7.072661263827436166e-15
-4.920879332731134790e-15
-3.419092258465068861e-15
-2.391786239374102815e-15
-1.689872327754021455e-15
-1.215189927134128624e-15
-8.910598110448227632e-16
-6.659562127305082821e-16
-5.062870669204566548e-16
-3.893608476169502320e-16
-3.008257664275719215e-16
-2.317601135996247925e-16
