# bin_14_6
-5.798388258438039166e-10
-6.448796947635527341e-10
-7.028692346389297459e-10
-7.469072939992034874e-10
-7.687150462570649925e-10
-7.613891189758127824e-10
-7.153640900641931651e-10
-6.351075438361343530e-10
-5.338492790518153440e-10
-4.371847979345262507e-10
-3.670887473248968502e-10
-3.166892270945323914e-10
-2.520375629605665537e-10
-1.767596035107953526e-10
-1.371855012978641205e-10
-1.010585856004216898e-10
-7.178041589668316817e-11
-5.083560110622445598e-11
-3.633855529476066094e-11
-2.561484325115485581e-11
-1.815605806730411372e-11
-1.302019643736214332e-11
-9.474304180708835178e-12
-7.020114036702259799e-12
-5.299336977030573899e-12
-4.061462891684457104e-12
-3.145661898381541598e-12
-2.445810145715394401e-12
-1.895466905152691433e-12
-1.454463421132894692e-12
-1.098968937976324669e-12
