# bin_11_3
-1.413545048615816661e-09
-1.509728890915393981e-09
-1.565036287099647748e-09
-1.564283878280546295e-09
-1.490043188292958846e-09
-1.342239803040280264e-09
-1.145305660989623530e-09
-9.428819817379193766e-10
-7.835846589053704649e-10
-6.710951441136916610e-10
-5.504894950069387558e-10
-4.014970823689701859e-10
-2.984469422000896585e-10
-2.300756192755881519e-10
-1.626712826126708586e-10
-1.198129542789715312e-10
-8.613706773639165243e-11
-6.246009423369544083e-11
-4.576163500935187057e-11
-3.400846582256458923e-11
-2.571347855964703022e-11
-1.977247047725682854e-11
-1.542672386563941592e-11
-1.213957415263969905e-11
-9.570345947890637733e-12
-7.506896936020554457e-12
-5.819900812070096641e-12
-4.434469034368598371e-12
-3.305740221592379521e-12
-2.403265960174505108e-12
-1.701464886341891300e-12
