# bin_6_9
-8.085285819290151448e-14
-9.082377866302678621e-14
-1.002034386326961114e-13
-1.081011310287861715e-13
-1.133761374576128722e-13
-1.148580439394799556e-13
-1.112844850870786071e-13
-1.018090383685684432e-13
-8.807550050020394361e-14
-7.263285439314633158e-14
-5.973338959484123799e-14
-5.123316017235875447e-14
-4.347953078948016489e-14
-3.210281008170941967e-14
-2.279314377300672160e-14
-1.840705837653018591e-14
-1.232287282972552856e-14
-9.285515720022536419e-15
-6.391139232494662266e-15
-4.444194366306635424e-15
-3.117225626249734320e-15
-2.189941347928269428e-15
-1.552526478653152186e-15
-1.115424474265283817e-15
-8.173564128604054896e-16
-6.104330272618566863e-16
-4.637029058375984978e-16
-3.567845209694158093e-16
-2.761903698035778646e-16
-2.135465873618527181e-16
-1.637614282436684562e-16
