# bin_12_7
-3.522326398799226433e-10
-3.943778628012071989e-10
-4.333798510886173114e-10
-4.652467346465133656e-10
-4.849364406667852717e-10
-4.878108859346551625e-10
-4.678950821345231413e-10
-4.237886193432834200e-10
-3.629619325529636318e-10
-2.982751340882460303e-10
-2.467969971006481915e-10
-2.125951772344406625e-10
-1.771576863540990443e-10
-1.278519597535468328e-10
-9.355306619809215513e-11
-7.371098812664618399e-11
-4.992046208077311635e-11
-3.692069367963992179e-11
-2.585244022402514400e-11
-1.802646110647118311e-11
-1.266326905731052681e-11
-8.947070680597851242e-12
-6.397173735278631537e-12
-4.644616732600437363e-12
-3.439397581291746452e-12
-2.593239740374794138e-12
-1.984894399353123912e-12
-1.534251466899912100e-12
-1.189217765301760877e-12
-9.177537797939088422e-13
-7.005900958293749443e-13
