# bin_13_11
-8.155082577090983881e-11
-9.275414031949062917e-11
-1.039105435989906297e-10
-1.142251550119585023e-10
-1.226380028788500612e-10
-1.278090803992185679e-10
-1.285299392140650284e-10
-1.231613054431985011e-10
-1.113865189955079727e-10
-9.523313423903595542e-11
-7.816421394094144421e-11
-6.471948848125970226e-11
-5.589004056877849223e-11
-4.651303413643618125e-11
-3.326348476661071754e-11
-2.442292601228584276e-11
-1.922087753766358686e-11
-1.284466174345026165e-11
-9.445430248780582917e-12
-6.556788666602908744e-12
-4.472616398570950093e-12
-3.058307579333995790e-12
-2.088660580251698660e-12
-1.434713436426866863e-12
-9.947751664823600471e-13
-7.014962962766083084e-13
-5.040954321476982957e-13
-3.699575033456087193e-13
-2.770038581880568977e-13
-2.107189234038092217e-13
-1.617960365328814828e-13
