# bin_6_6
-6.053260355984091161e-11
-6.704934992028042005e-11
-7.271387759108432684e-11
-7.678803214535228251e-11
-7.843248823868408617e-11
-7.691083200473633087e-11
-7.136280881907999908e-11
-6.260049619342983799e-11
-5.209880306671899257e-11
-4.268248037333369263e-11
-3.618964991782931722e-11
-3.108508281361650225e-11
-2.394216944945515984e-11
-1.674038848151537276e-11
-1.336725707593393746e-11
-9.407272087960417044e-12
-6.929491835228933665e-12
-4.812795766726261466e-12
-3.444455708177874262e-12
-2.449271744774456040e-12
-1.750864593176243919e-12
-1.267954028532025840e-12
-9.323583604676056647e-13
-6.987585142258566032e-13
-5.328328410716138024e-13
-4.116354915997340262e-13
-3.204228836217540678e-13
-2.495374816804202056e-13
-1.930743644344268881e-13
-1.474928314356299057e-13
-1.106895801048778136e-13
