# bin_6_11
-1.301404513139856648e-16
-1.470889378402018947e-16
-1.634822211866917335e-16
-1.779777000748959629e-16
-1.887947764101240318e-16
-1.937904928101400974e-16
-1.913104789114487503e-16
-1.788290686552725313e-16
-1.579726993980556071e-16
-1.320570691625993297e-16
-1.080274088436453456e-16
-9.116833188820322901e-17
-7.881263133324863901e-17
-6.179392326188823285e-17
-4.275112190678974443e-17
-3.394061977396221416e-17
-2.419153540560866339e-17
-1.748948122251296408e-17
-1.192948859162523560e-17
-8.469789350330524312e-18
-5.870864876704680752e-18
-4.060513339571835644e-18
-2.829382279797945286e-18
-1.989895158682198962e-18
-1.422888521084287532e-18
-1.037394223147462018e-18
-7.711622809826053875e-19
-5.837283205509817687e-19
-4.476625762405288088e-19
-3.455177301383425296e-19
-2.663825925638853332e-19
