# bin_4_9
-9.031345131650166351e-18
-1.010752110287803164e-17
-1.110112776557547476e-17
-1.190931758165434229e-17
-1.240230818913947368e-17
-1.246374955219398097e-17
-1.193522287619185757e-17
-1.078879656634813724e-17
-9.220369379312687154e-18
-7.566481443852106630e-18
-6.264323655287681287e-18
-5.406937797794963494e-18
-4.497446919594629451e-18
-3.220639714744697846e-18
-2.368659151639161469e-18
-1.866652745438895424e-18
-1.257591761980994612e-18
-9.313538377189560211e-19
-6.551914442993654069e-19
-4.562053133297015342e-19
-3.204348116444612304e-19
-2.265382503955269009e-19
-1.622505990228368501e-19
-1.180584610082507388e-19
-8.762578342897388323e-20
-6.621236686341309135e-20
-5.077611398512258852e-20
-3.930287680517793198e-20
-3.048811608795952402e-20
-2.353202761425759920e-20
-1.795572281298008033e-20
