# bin_5_4
-2.851798385230852003e-10
-3.092121988079844905e-10
-3.265826580298973521e-10
-3.337919940186818152e-10
-3.276242552838886278e-10
-3.046477741068405580e-10
-2.678374582704751313e-10
-2.235883647471988771e-10
-1.833516574258087322e-10
-1.549599756619175701e-10
-1.327487664984252832e-10
-1.031802185720629082e-10
-7.290723034932086768e-11
-5.733051956699913845e-11
-4.139171867711108417e-11
-3.014670265425351325e-11
-2.146499848921688592e-11
-1.553019774020651730e-11
-1.120554992261623835e-11
-8.169495699721171286e-12
-6.050638340070996902e-12
-4.558319745595618834e-12
-3.494982561995064783e-12
-2.717695507559120001e-12
-2.130537692913927609e-12
-1.672928720649708012e-12
-1.306511934354244814e-12
-1.008269814479980991e-12
-7.646782289729113381e-13
-5.674333596560988903e-13
-4.107222509375495760e-13
