# bin_15_11
-1.343517931306821302e-10
-1.528711743463070769e-10
-1.713488450616513289e-10
-1.884789340591165530e-10
-2.025224743461754052e-10
-2.112767677920701504e-10
-2.127151218063851217e-10
-2.041756865966380512e-10
-1.849717895786645639e-10
-1.584249816589735452e-10
-1.301135522173526780e-10
-1.076199452950638673e-10
-9.286053027891493567e-11
-7.752265742227321780e-11
-5.568311251631561296e-11
-4.065832850602792324e-11
-3.214301900204348137e-11
-2.143905844710218280e-11
-1.582609891067707484e-11
-1.095052222605781067e-11
-7.466946463521306920e-12
-5.106455997747285225e-12
-3.484581857874695554e-12
-2.389879106212288965e-12
-1.653454621451809602e-12
-1.163069096466234639e-12
-8.335124861959266127e-13
-6.100556664173733428e-13
-4.556916975998321782e-13
-3.460344159919935070e-13
-2.654306778990779598e-13
