# bin_1_11
-2.188091729027375056e-34
-2.461074889155367920e-34
-2.719430310103674263e-34
-2.939357434092412975e-34
-3.090174487956105344e-34
-3.139050701570454065e-34
-3.053527943775624603e-34
-2.805630630488564593e-34
-2.437668922182294391e-34
-2.014813058788414039e-34
-1.654135686696523086e-34
-1.414636669264033750e-34
-1.207089828423094902e-34
-9.019059305937317405e-35
-6.344140704733425499e-35
-5.136127949453287175e-35
-3.458686142115080240e-35
-2.602964982623437106e-35
-1.780241553354704201e-35
-1.240775435519342220e-35
-8.692916651784077688e-36
-6.093885815527935655e-36
-4.305094751355172328e-36
-3.079271127915024143e-36
-2.245689239711250279e-36
-1.669608159549483458e-36
-1.263394660828856399e-36
-9.694845113662821539e-37
-7.495375612342378920e-37
-5.796381760103503450e-37
-4.451596275284389058e-37
