# bin_1_1
-4.587133025229082906e-10
-4.354807071851228717e-10
-3.922865275772426284e-10
-3.361847825049750009e-10
-2.789835663007953951e-10
-2.320627665730023875e-10
-1.959100108705119176e-10
-1.597669872196121942e-10
-1.202823005855232670e-10
-8.936057850657688400e-11
-6.811603935011470290e-11
-4.995065571126325299e-11
-3.683863183734674335e-11
-2.721938127684398573e-11
-2.033223306547533821e-11
-1.541360866780414404e-11
-1.189906241229772866e-11
-9.346833310547513635e-12
-7.441246705695847495e-12
-5.968532471748192291e-12
-4.787925419400525204e-12
-3.813336186548888311e-12
-2.995512068483579795e-12
-2.307824597477551077e-12
-1.736330646049022196e-12
-1.272401252248787456e-12
-9.075052532438074744e-13
-6.305439151146924647e-13
-4.277727088113005482e-13
-2.842051694466259206e-13
-1.855066055793811342e-13
