# bin_6_13
-6.476299192988812401e-20
-7.355166295796474875e-20
-8.224154205270450103e-20
-9.019491355879443744e-20
-9.655767585890400658e-20
-1.002563707077650101e-19
-1.003933293188484691e-19
-9.561174379188844624e-20
-8.595153418423053640e-20
-7.303122270300637332e-20
-5.982806811074610244e-20
-4.974474928389332689e-20
-4.305909131983149644e-20
-3.539776075799045725e-20
-2.495171694864888345e-20
-1.871210254760277276e-20
-1.443243449240788002e-20
-9.764693057203745867e-21
-7.046761928313018046e-21
-4.951067389612909573e-21
-3.386627945811915412e-21
-2.314961045555442752e-21
-1.587217721464680231e-21
-1.096619884860497650e-21
-7.663592248878676980e-22
-5.452350397977368719e-22
-3.955270011574138970e-22
-2.929684146597564164e-22
-2.210758424743049345e-22
-1.691058209233465631e-22
-1.302027698581781378e-22
