# bin_10_7
-2.519783583895609558e-10
-2.820129251563319069e-10
-3.097484893047846649e-10
-3.323192770164980772e-10
-3.461122297940052626e-10
-3.478480390922346757e-10
-3.332126556510755855e-10
-3.013995307327522986e-10
-2.577925655824711675e-10
-2.117384210212836643e-10
-1.753296855360954927e-10
-1.511261427114624732e-10
-1.256412982202340252e-10
-9.037929018559975450e-11
-6.638715765571580054e-11
-5.216066677640116508e-11
-3.535391667939474534e-11
-2.610015796276502997e-11
-1.831456532456496814e-11
-1.277157131098810471e-11
-8.974861915154819093e-12
-6.346406723977213330e-12
-4.542965190303727905e-12
-3.303037144214535622e-12
-2.449400869136935482e-12
-1.849155378257166161e-12
-1.416803805762959001e-12
-1.095828155452566519e-12
-8.495661695004817176e-13
-6.555017533478605376e-13
-5.001162044368991850e-13
