# bin_9_1
-3.252263526840618707e-09
-3.186433776834656501e-09
-2.974021928002480983e-09
-2.634346585869211411e-09
-2.229967094800199784e-09
-1.847456114231563387e-09
-1.545532947655522452e-09
-1.296424814187396999e-09
-1.031046668153653386e-09
-7.668193368330566185e-10
-5.753002197796278315e-10
-4.339052762308260853e-10
-3.165796187386730945e-10
-2.334458920893360095e-10
-1.720891512842512130e-10
-1.284286200973536208e-10
-9.729202273863592823e-11
-7.501731940075251477e-11
-5.880703262542417280e-11
-4.667772440873531046e-11
-3.729025857402295052e-11
-2.976721831017931480e-11
-2.357553336654791227e-11
-1.840767645945168450e-11
-1.409339903789949063e-11
-1.053805934338680173e-11
-7.677195104070299766e-12
-5.445731586711310517e-12
-3.765003894647887832e-12
-2.542816346833127086e-12
-1.682635638638965194e-12
