# bin_6_2
-1.614703639469398068e-09
-1.671109299011813247e-09
-1.667248427244758204e-09
-1.586443946052731724e-09
-1.429184717870689613e-09
-1.221446813709615753e-09
-1.008698264981691253e-09
-8.388069463990409273e-10
-7.142344384268813036e-10
-5.841225870121417404e-10
-4.321018749492711998e-10
-3.208366303908409075e-10
-2.460432944579221845e-10
-1.768797844062135020e-10
-1.301969019525571418e-10
-9.457061468871433440e-11
-6.945179262134269197e-11
-5.158086554892940369e-11
-3.893156674286219026e-11
-2.990877293060621506e-11
-2.334338020597475460e-11
-1.843530180251860527e-11
-1.463419372588835199e-11
-1.159366046796721468e-11
-9.103900959780020688e-12
-7.041396226586350366e-12
-5.336364553637139300e-12
-3.947474592342743198e-12
-2.843752465092439861e-12
-1.994476345858012750e-12
-1.363692070294609545e-12
