# bin_12_12
8.751933299892004092e-08
8.394167893112605543e-08
7.860836824350660303e-08
7.172914705505514027e-08
6.368906807246170052e-08
5.501976202419226938e-08
4.632569319333281393e-08
3.816824072942221586e-08
3.092520089734905835e-08
2.471794616488495160e-08
1.945757016019627066e-08
1.500215914868257380e-08
1.131702887159125177e-08
8.444056507948548096e-09
6.305279637429525509e-09
4.692425267973378051e-09
3.487526502705185804e-09
2.610827108453399645e-09
1.964856210806913496e-09
1.489933355657733695e-09
1.136608892411494823e-09
8.702890223183604837e-10
6.667297412165428112e-10
5.092421313554342486e-10
3.864064076268264696e-10
2.903230014648158496e-10
2.154054435335877131e-10
1.574843712093386607e-10
1.132784069894541452e-10
8.008917639923769589e-11
5.563613526521440868e-11
