# bin_15_2
3.563870896606252871e-08
3.143061053767315543e-08
2.696314853535204567e-08
2.255697179864805505e-08
1.849489066393116765e-08
1.494371426913863044e-08
1.192576324891937474e-08
9.362796459657353169e-09
7.190064950164282424e-09
5.425552348664758096e-09
4.087326179745560619e-09
3.089622801041041119e-09
2.333601576735015028e-09
1.776391608101395957e-09
1.365043454300645322e-09
1.058978791309854959e-09
8.282231161701921263e-10
6.509843730410581644e-10
5.120817188318852803e-10
4.013061325988762801e-10
3.119329625576459486e-10
2.395292388503216479e-10
1.810965153005929996e-10
1.344562224193804901e-10
9.785176347627639891e-11
6.973086014093489706e-11
4.864854440100262806e-11
3.324881027589374333e-11
2.229133483360022475e-11
1.468871380331412224e-11
9.534278107171196434e-12
