# bin_9_1
2.245978013057044642e-08
1.915339030753034775e-08
1.595214326243608447e-08
1.303931330155048134e-08
1.050868946851922671e-08
8.357903730071919763e-09
6.534119483468473705e-09
5.006231717639684996e-09
3.785126861734024725e-09
2.861583452693528191e-09
2.170462456282958212e-09
1.650350349927521712e-09
1.266043377374557755e-09
9.811154040433657484e-10
7.675115674452998623e-10
6.047546043002673902e-10
4.781463733575450374e-10
3.776254160773602662e-10
2.965200457074468078e-10
2.304880958799692009e-10
1.766828045898500555e-10
1.331529024571940549e-10
9.842756458328293763e-11
7.125999342489839242e-11
5.049652311717557134e-11
3.503171761689455364e-11
2.381691663679290511e-11
1.589470059417308012e-11
1.043444737582365291e-11
6.753477031047103783e-12
4.319317724736831878e-12
