# bin_13_9
8.150384528261786990e-08
7.765799522936056218e-08
7.220024590873224327e-08
6.537310725789608522e-08
5.758140556537100497e-08
4.935433325553584763e-08
4.126496848673365497e-08
3.381008983056326005e-08
2.728008935884055363e-08
2.172204541997864068e-08
1.701207139198398789e-08
1.303051771323494552e-08
9.783528068126387015e-09
7.304294249828939797e-09
5.463267433484432386e-09
4.065421594331540437e-09
3.035965739986653294e-09
2.282318694382036640e-09
1.727795348863496372e-09
1.317289847578164536e-09
1.009970896821694832e-09
7.764308863766189860e-10
5.963983272709658609e-10
4.560460700688853890e-10
3.459040180488378244e-10
2.594147036383704531e-10
1.918695932185821633e-10
1.396768804189178515e-10
9.994318434614010782e-11
7.023695887397053273e-11
4.847228082108737350e-11
