# bin_14_9
8.274681717526292657e-08
7.893619961995787334e-08
7.348085444063435548e-08
6.661836476490531256e-08
5.875234133211782859e-08
5.041608379149456153e-08
4.219286406222448524e-08
3.459524686061195619e-08
2.792962942412019651e-08
2.225333992076853811e-08
1.744279876380955926e-08
1.337144725310164329e-08
1.004236563095350774e-08
7.495600820603833140e-09
5.605783179090459239e-09
4.170223273994747159e-09
3.111976026051712809e-09
2.337900409343299170e-09
1.768460072037213720e-09
1.347306839909051656e-09
1.032372067530548380e-09
7.933331191239253942e-10
6.092730748790237541e-10
4.659166116914638684e-10
3.534888694724938622e-10
2.652285708879654239e-10
1.962950972464630294e-10
1.430088144900177425e-10
1.024161294223535885e-10
7.204170496096105543e-11
4.976517957285682669e-11
