# bin_4_3
3.544016491276910737e-08
3.145380373712638407e-08
2.717294290799404999e-08
2.288603821120072647e-08
1.886361493750443584e-08
1.529114117420828657e-08
1.223265615535842290e-08
9.648505479340370544e-09
7.468398332671745591e-09
5.669549569020012325e-09
4.266968147545199288e-09
3.222191385598189601e-09
2.435678515818129304e-09
1.846463390949565144e-09
1.413768656721567866e-09
1.091441637999392523e-09
8.497280738642916975e-10
6.652345994950270246e-10
5.217928736581887633e-10
4.083120238833460159e-10
3.173855660463876828e-10
2.440950765800382679e-10
1.851031966322781154e-10
1.380258319901993946e-10
1.009994229791688876e-10
7.243218769680512641e-11
5.088355257975978090e-11
3.502394374998922327e-11
2.364363708435322072e-11
1.567881952922275436e-11
1.023363943194223898e-11
