# bin_13_6
6.835756376810154552e-08
6.405481754701286958e-08
5.848199161008358095e-08
5.194458072513944482e-08
4.487371952015383568e-08
3.776886917448661017e-08
3.110375892206600505e-08
2.519820442580983574e-08
2.015365852494448668e-08
1.588311071258999455e-08
1.225488078847871867e-08
9.247383245618904651e-09
6.916824014844123504e-09
5.191822080512520412e-09
3.882328902285150377e-09
2.907882069651053869e-09
2.196602541172917900e-09
1.670867379424939026e-09
1.281286885548396662e-09
9.887422800770447011e-10
7.654799749659000167e-10
5.923550685214223786e-10
4.563623201225896238e-10
3.486966041078412161e-10
2.633274949041960627e-10
1.959887856143422876e-10
1.434504619690274124e-10
1.030970547845088240e-10
7.269312133155507789e-11
5.027632239153568349e-11
3.412329142268922906e-11
