# bin_9_5
5.801886621396288678e-08
5.361885784289150802e-08
4.824770147318072546e-08
4.223177549207777709e-08
3.598261975461044903e-08
2.993129845534576240e-08
2.442924930170861597e-08
1.965726010908078260e-08
1.561330191075163821e-08
1.218646737374567034e-08
9.301273842643593779e-09
6.983525340951565518e-09
5.240692985237331750e-09
3.940233969300579763e-09
2.953372345785829968e-09
2.231663895003747754e-09
1.698175023981733520e-09
1.303567781275632976e-09
1.007688407510446723e-09
7.825359130441802133e-10
6.082450597504966439e-10
4.712839733966804463e-10
3.625598670226244694e-10
2.759041814029177134e-10
2.070430911093067196e-10
1.528329727568710751e-10
1.107761358240339813e-10
7.875407465265712157e-11
5.489354107242439887e-11
3.752450853249533634e-11
2.517968191876298740e-11
