# bin_14_3
2.986414284262170891e-30
3.393486733590558512e-30
3.797005869065600274e-30
4.167679740300140773e-30
4.466321654863364877e-30
4.643579283674944854e-30
4.657094469096931034e-30
4.444919352228231358e-30
4.004135591142971639e-30
3.409466286294078369e-30
2.794539645351633979e-30
2.319895982352037679e-30
2.006957522004324955e-30
1.657520627804479529e-30
1.173557584354664472e-30
8.735487600972390441e-31
6.791119697455058625e-31
4.568986078633723852e-31
3.322320178589713997e-31
2.325105780386557003e-31
1.588707049074838991e-31
1.085989548684349622e-31
7.435097437249103376e-32
5.127613138234847047e-32
3.574623170516195023e-32
2.536299696992807836e-32
1.834631309350683913e-32
1.355192834157740965e-32
1.020333871986461924e-32
7.792941797377253857e-33
5.996295232784670093e-33
