# bin_2_1
7.080290781748462916e-11
7.218643382985738267e-11
7.067180768503689062e-11
6.552186734956844827e-11
5.745664640918350525e-11
4.784460197968823782e-11
3.920293277342936015e-11
3.316903283018703646e-11
2.840979556603577367e-11
2.198933557794359810e-11
1.554338685442396293e-11
1.234319607523924292e-11
8.901629536757132480e-12
6.597111055054641975e-12
4.748222585241256530e-12
3.508571565734411456e-12
2.603260408830447667e-12
1.961185155765015563e-12
1.505464369271876475e-12
1.175557511966213918e-12
9.307620320073340607e-13
7.424017759119885992e-13
5.921355244259393619e-13
4.688787901548880002e-13
3.661314393227170647e-13
2.802951737930086542e-13
2.094073492324164261e-13
1.522476138075419159e-13
1.076272630409839479e-13
7.408450019029511986e-14
4.979149985407988273e-14
