# bin_9_3
7.650372362562302036e-31
8.578849371241482111e-31
9.446057266875851802e-31
1.016632529667778556e-30
1.063112717578162370e-30
1.074247262161498756e-30
1.036211032244898584e-30
9.468374855901830187e-31
8.181962300464014600e-31
6.789401766335205071e-31
5.629297866364995353e-31
4.811076730803296575e-31
4.000691705332558639e-31
2.965575436184736859e-31
2.210441352934080159e-31
1.670747786299919773e-31
1.196155454135270236e-31
8.450224157555117242e-32
6.127055629000369168e-32
4.251344570317944622e-32
2.957465960667456908e-32
2.078192188550980966e-32
1.473464426463896955e-32
1.059492335377455820e-32
7.752390364795859209e-33
5.775855234605411973e-33
4.371119938136333854e-33
3.345296938190922793e-33
2.572945840601184159e-33
1.975310310124364270e-33
1.504201443867810120e-33
