# bin_7_3
2.101220594419294188e-20
2.323258954659265034e-20
2.513937891456868575e-20
2.647384349829421101e-20
2.694790131745283360e-20
2.630182682400796610e-20
2.425649415480387074e-20
2.115504143536171625e-20
1.751663253634387461e-20
1.435214804799426692e-20
1.223454262523877049e-20
1.049227363828815829e-20
7.934459362605108918e-21
5.540450411605767097e-21
4.504281462491172543e-21
3.070952585003242481e-21
2.324449935974001096e-21
1.600463267190824534e-21
1.137695240534494383e-21
8.141413913314453621e-22
5.858734497353669788e-22
4.264396778302545667e-22
3.152152856826255144e-22
2.375917710707932465e-22
1.820772755267498335e-22
1.412058232956399923e-22
1.101767969576477140e-22
8.586198710110212860e-23
6.637514226634673884e-23
5.059019940571028442e-23
3.783733660308769385e-23
