# bin_2_8
4.289487257642195089e-07
4.443464602828315025e-07
4.438359446907846309e-07
4.229597740974173099e-07
3.816173932933386978e-07
3.265661471607337575e-07
2.697493202551525934e-07
2.240757408242302221e-07
1.907292103605356375e-07
1.564060175702683859e-07
1.159891145416566955e-07
8.589491676952142768e-08
6.596346218651706675e-08
4.744170233103520610e-08
3.490734032024221846e-08
2.534727441433664479e-08
1.860768769423054258e-08
1.380925541790909566e-08
1.041381779727581925e-08
7.993439754498948889e-09
6.233976783740400034e-09
4.920484107380558735e-09
3.904824884164209172e-09
3.093494724068341195e-09
2.429796690513366036e-09
1.880276066872024075e-09
1.425993920690477274e-09
1.055763641360062734e-09
7.612910651382912113e-10
5.344407733550008113e-10
3.657381756558070474e-10
