# bin_4_12
2.455535413666482753e-07
2.672365184562408748e-07
2.835645791138897405e-07
2.914694269606154442e-07
2.882083671388679450e-07
2.704925415592531211e-07
2.399562158101773994e-07
2.017899846823964277e-07
1.654246095571027528e-07
1.388229614622484738e-07
1.192687726483875490e-07
9.484895388944230477e-08
6.728386709094256866e-08
5.185408635675554357e-08
3.850809973187464072e-08
2.747924521799971764e-08
1.980576508786186405e-08
1.426288344271019967e-08
1.023823335213202944e-08
7.426422627817019920e-09
5.465347229815143143e-09
4.090143750226110708e-09
3.115477334866899502e-09
2.410022463134440578e-09
1.882838710367326018e-09
1.476282981779705591e-09
1.153648854492121453e-09
8.925063206241257610e-10
6.796610009927910803e-10
5.071024770875125945e-10
3.694369120511691281e-10
