# bin_13_4
1.996673990480936127e-23
2.264281544624091492e-23
2.527073907787439500e-23
2.765146693377733400e-23
2.951836106752421580e-23
3.053879443908582549e-23
3.045021239715149442e-23
2.883159025574080900e-23
2.577503556680359790e-23
2.177850879810515239e-23
1.781782004033753600e-23
1.487497967640071032e-23
1.288420486782131157e-23
1.045508373457867414e-23
7.299901820082130363e-24
5.577380891456210992e-24
4.207747850773964760e-24
2.896720424604589613e-24
2.048656981088088437e-24
1.451166965779282291e-24
9.960546517021510807e-25
6.820202610942707944e-25
4.698866604374770949e-25
3.264299858617183083e-25
2.297593558916455226e-25
1.647528149461521588e-25
1.204860846182566796e-25
8.991575655724276424e-26
6.825311029938705101e-26
5.240066335169188813e-26
4.039307698138613433e-26
