# bin_8_9
2.593903498656957076e-08
2.916073520095857709e-08
3.220276850889752646e-08
3.478188827092916337e-08
3.653364114378129788e-08
3.707433447797251189e-08
3.601312461887435207e-08
3.304297579418083969e-08
2.866707357908416068e-08
2.367818523124914462e-08
1.944847841059656760e-08
1.663831401894774719e-08
1.416492711832192951e-08
1.055526404868187762e-08
7.452289137659431259e-09
6.010451414135771061e-09
4.057801951833765522e-09
3.042642152815094161e-09
2.086473206763936435e-09
1.455752036500382516e-09
1.019625597520463421e-09
7.150152883756851655e-10
5.056649650634048207e-10
3.621778036231500925e-10
2.644935611245548564e-10
1.968915230383856896e-10
1.491378631813402487e-10
1.145108166326785587e-10
8.854272169005036418e-11
6.845006718597861024e-11
5.253249044665086839e-11
