# bin_15_11
1.511542293594645778e-11
1.728527087668750380e-11
1.949929510340406221e-11
2.161592408504479565e-11
2.345037639250056855e-11
2.476125942081970658e-11
2.527192054111815376e-11
2.474917095986419645e-11
2.290432371546945482e-11
2.003969557127288470e-11
1.662485771602507602e-11
1.361364907472792960e-11
1.158612416237698141e-11
9.966499492541975722e-12
7.585525546080002534e-12
5.258227768295841115e-12
4.255997003803586003e-12
2.889986259733362923e-12
2.152532713895691052e-12
1.439519761503480182e-12
9.923495321116881799e-13
6.779008052867507316e-13
4.590994116770908956e-13
3.096401843716541562e-13
2.089916804835443724e-13
1.425972207043415793e-13
9.870938154526827576e-14
6.962668060326028036e-14
5.022817132216623612e-14
3.705976004508184917e-14
2.788187967570584457e-14
