# bin_8_3
4.671031666740431660e-16
5.191621914040506696e-16
5.653918425823361407e-16
6.002039278351914887e-16
6.168520652101503540e-16
6.100236683035905464e-16
5.717169014201051487e-16
5.062880393212339495e-16
4.242454990776539321e-16
3.469424698353909313e-16
2.918063747578994407e-16
2.521691845379527907e-16
1.995716558688867070e-16
1.387915291375601929e-16
1.090291270978956101e-16
7.937554688169807808e-17
5.692944532480803850e-17
3.980586741222709388e-17
2.863227086712536159e-17
2.022277563468651677e-17
1.434676133365382624e-17
1.031127132957362185e-17
7.520536122088817885e-18
5.587718340142251907e-18
4.228979379938348854e-18
3.248391922597387488e-18
2.520234846617822323e-18
1.961468838530022713e-18
1.520472627900656952e-18
1.166158209351219335e-18
8.801725781902447973e-19
