# bin_7_4
8.727713130983927104e-12
9.672138178055239837e-12
1.049570692741670849e-11
1.109228194092461657e-11
1.133926184983758033e-11
1.113325446474077633e-11
1.034307243732999506e-11
9.083512745725441905e-12
7.561993796076103918e-12
6.189111180170078294e-12
5.241805512322711215e-12
4.511424399633068549e-12
3.487096822789303408e-12
2.428641464611215819e-12
1.941921737563741842e-12
1.368364964236090017e-12
1.007838899989027181e-12
6.978378069900094166e-13
5.000995590168712932e-13
3.554745087281182320e-13
2.539342808570016210e-13
1.837394499574985909e-13
1.349673474322665781e-13
1.010519834903666154e-13
7.699476108752239123e-14
5.944916982435864232e-14
4.626594948897908465e-14
3.603469478035084997e-14
2.789204198706861335e-14
2.132041375002721312e-14
1.601320174634477714e-14
