# bin_14_6
4.039538349683107291e-19
4.596841250045025314e-19
5.153172395974197211e-19
5.669306647075430596e-19
6.093024861267979714e-19
6.358189404211543569e-19
6.403574413700780835e-19
6.148898696661797085e-19
5.571484116814037400e-19
4.772264652169751003e-19
3.917388196942895702e-19
3.237306993568137448e-19
2.793984612602505659e-19
2.336383736732474672e-19
1.677378496451694574e-19
1.221850541383858377e-19
9.698213036812464252e-20
6.437964401806862902e-20
4.772647479538426391e-20
3.299708441925426697e-20
2.247640972922664726e-20
1.536724677578908205e-20
1.047659923289901441e-20
7.181955656349215702e-21
4.966306686354365454e-21
3.491646498450070818e-21
2.501091131651091483e-21
1.829883102001990793e-21
1.366609292093202321e-21
1.037804844300268634e-21
7.962996366401203998e-22
