# bin_1_15
7.906167891712889287e-07
7.753652127170151200e-07
7.244865549995526025e-07
6.424033196205605349e-07
5.441319524947120044e-07
4.506973269616047615e-07
3.767950919148378480e-07
3.162147591083762267e-07
2.519684598135112685e-07
1.875147421511717029e-07
1.405275957952128077e-07
1.060810700765007976e-07
7.739579511261403403e-08
5.705994654178599535e-08
4.205127867059767817e-08
3.136973596259315649e-08
2.375158911237679868e-08
1.830356841055748256e-08
1.434133769600342488e-08
1.137915071242432948e-08
9.088907596400525072e-09
7.255267272985960658e-09
5.747160044050301456e-09
4.488868668653631720e-09
3.438405755607994843e-09
2.572443202875669460e-09
1.875218183965926776e-09
1.330974346267336057e-09
9.207139629681039278e-10
6.221443747063068693e-10
4.118596051224644627e-10
