# bin_8_11
5.757414779819368971e-08
6.479701312884157477e-08
7.165274559015766054e-08
7.751980516930792602e-08
8.159365993064193142e-08
8.300033078477227492e-08
8.090436654562725652e-08
7.452438708892162511e-08
6.490586525452692776e-08
5.373837747200092962e-08
4.408751460115540413e-08
3.760851550346605109e-08
3.214172564388360184e-08
2.421868560642081651e-08
1.699900043001503502e-08
1.368742780226245590e-08
9.333503751313176555e-09
6.956639032157479873e-09
4.757727821012080375e-09
3.330657751407580844e-09
2.328293550333777640e-09
1.628276365688999187e-09
1.147823184584316404e-09
8.188503006276444994e-10
5.953413748340502579e-10
4.412801061881243393e-10
3.329945637781446052e-10
2.549739947324367584e-10
1.968580620527696109e-10
1.521619964917260291e-10
1.169030234877384130e-10
