# bin_8_6
3.404158366938739938e-10
3.809468146490336672e-10
4.183529040454678219e-10
4.487571088289282587e-10
4.672695645465909833e-10
4.695039600693474547e-10
4.495135640752428265e-10
4.062535957675904246e-10
3.471113296148562631e-10
2.847752325659086481e-10
2.357067243105635153e-10
2.033962900631257528e-10
1.691665795027690538e-10
1.211744074686490484e-10
8.907330794606131557e-11
7.018193214496182631e-11
4.729937018595804601e-11
3.502153516027467682e-11
2.462559951683056245e-11
1.714901104231541421e-11
1.204739715864951072e-11
8.518386581566684827e-12
6.101506432526896738e-12
4.439911343357134828e-12
3.295609880524654754e-12
2.490354434029711084e-12
1.909773222145419592e-12
1.478186958310036210e-12
1.146570888756311189e-12
8.848753326089226357e-13
6.751023489701349591e-13
