# bin_4_4
2.610988104147687606e-08
2.821745576712066272e-08
2.968054041668921783e-08
3.018768095959245831e-08
2.943407345605951338e-08
2.715494984680478198e-08
2.369034290002539527e-08
1.966364502523232990e-08
1.613875640140383955e-08
1.371261552152514698e-08
1.168877582279615898e-08
8.907894456134311564e-09
6.314514522211099497e-09
5.017345125001386298e-09
3.547201414144453823e-09
2.623919249649727414e-09
1.858132030684866483e-09
1.344845585104466751e-09
9.748445797757255364e-10
7.141980636659422761e-10
5.318359452658893762e-10
4.028486112313154907e-10
3.104561964361335447e-10
2.423410152400714252e-10
1.904237195956305365e-10
1.496170695105233926e-10
1.167231360005429789e-10
8.984932588022037365e-11
6.788179022476545978e-11
5.012623941215267214e-11
3.607919516995309121e-11
