# bin_5_4
3.604731878579379253e-09
3.938162354501995728e-09
4.198700466721198546e-09
4.340092318105938840e-09
4.323439946155553713e-09
4.093348116428299084e-09
3.660929178397620624e-09
3.097504716513042917e-09
2.536806238416472579e-09
2.115371588592984138e-09
1.825471465424573730e-09
1.482586521890134534e-09
1.049614305655346150e-09
7.972971648616286204e-10
6.075230977586381624e-10
4.246378096173777938e-10
3.090406897062325674e-10
2.224744325356389521e-10
1.588290136612274776e-10
1.146243392984832430e-10
8.387983990495428206e-11
6.241952666351905136e-11
4.728303380033909608e-11
3.642052200093462315e-11
2.837776012987564983e-11
2.223175747239230780e-11
1.739133065277683072e-11
1.349075939538805189e-11
1.031536771445798881e-11
7.736264832197135693e-12
5.669278091618340377e-12
