# bin_11_6
4.006652574000113344e-14
4.528369474922712098e-14
5.032971617294636787e-14
5.479134575291082571e-14
5.812057774354723244e-14
5.965753406998853210e-14
5.889404643214459807e-14
5.505111603920542517e-14
4.862664099301104171e-14
4.064214971696859884e-14
3.323468536206286784e-14
2.803716012961130435e-14
2.423920142728346247e-14
1.901531193993837634e-14
1.314980284718743348e-14
1.043326997624106598e-14
7.443746901878033347e-15
5.375856067362765093e-15
3.667892654487470802e-15
2.604679191149172435e-15
1.805163186791631453e-15
1.248306091167749692e-15
8.697701262678282641e-16
6.116704904572574533e-16
4.373462562346119177e-16
3.188398779860895743e-16
2.370008099927442128e-16
1.793879649063999415e-16
1.375678643740250418e-16
1.061758309574797443e-16
8.185701955006417939e-17
