# bin_1_13
7.735313599775329032e-07
7.584679425437053540e-07
7.085450062304879002e-07
6.281362683037402180e-07
5.319680765856601530e-07
4.406163934854646807e-07
3.683926256264787745e-07
3.091339460735039143e-07
2.462476176677235462e-07
1.832339270225283878e-07
1.373393332321649282e-07
1.036598837426441458e-07
7.562923750232831794e-08
5.575959813699343964e-08
4.109532954126531027e-08
3.065927825507438278e-08
2.321626228978067005e-08
1.789310480493877496e-08
1.402116810785995879e-08
1.112595892423417176e-08
8.887025395808664514e-09
7.094112062803945920e-09
5.619291540024980208e-09
4.388684612520757486e-09
3.361336701477498511e-09
2.514489725532124031e-09
1.832740507598668851e-09
1.300660962673835140e-09
8.996389579401151616e-10
6.078408772525216977e-10
4.023557635299161057e-10
