# bin_5_13
1.916593660699817166e-07
2.112344840638552260e-07
2.276778753119605194e-07
2.385981915016429627e-07
2.415664242267944052e-07
2.339562425875284807e-07
2.141793249939310778e-07
1.854242744776133392e-07
1.532015916427315878e-07
1.260873027635474672e-07
1.077686913325877460e-07
9.112937972656918542e-08
6.791306038945902581e-08
4.857940494618136072e-08
3.863953491176948926e-08
2.671149196793951320e-08
1.984109416258641149e-08
1.391218279989731162e-08
9.910747381461101474e-09
7.087758301928686796e-09
5.109356012966491810e-09
3.736093634012407384e-09
2.776957203531545293e-09
2.103029305333619758e-09
1.617424805196989532e-09
1.256939626570370224e-09
9.809692906889873898e-10
7.633621562811623787e-10
5.883931537541156208e-10
4.466535274993956937e-10
3.324166240494201032e-10
