# bin_15_7
3.302611086344793182e-18
3.767217194642782145e-18
4.236211293051154195e-18
4.678022052912547967e-18
5.051038244222810805e-18
5.301872518928051647e-18
5.375102779382856797e-18
5.212085152136613230e-18
4.770489486117437706e-18
4.128438542521139689e-18
3.403512364259505047e-18
2.797268710771060734e-18
2.400047746696590389e-18
2.040103881245769111e-18
1.504954291298840615e-18
1.063634956471356407e-18
8.617816985146753984e-19
5.700385669682190049e-19
4.292201678241190318e-19
2.913199284904685535e-19
1.983392580314710571e-19
1.357890087896145790e-19
9.228757660237941065e-20
6.273179533636308804e-20
4.284651594428922447e-20
2.968741908163410412e-20
2.092235824815132705e-20
1.505246973621796280e-20
1.107167958531783176e-20
8.308251638293066054e-21
6.328498711488085165e-21
