# bin_14_14
6.219042282213439247e-09
7.114862392569761966e-09
8.030412386159356451e-09
8.907767825082968150e-09
9.671299003649809116e-09
1.022189520904842465e-08
1.044464701289661614e-08
1.024511761676248873e-08
9.499799466195702198e-09
8.327021796503637636e-09
6.917307030546812475e-09
5.662460784213566706e-09
4.811467202884299458e-09
4.143993919059029078e-09
3.171744951188393403e-09
2.195488518184487715e-09
1.771694257305841378e-09
1.212930213069451124e-09
8.982201786987868921e-10
6.005467640042771210e-10
4.156113853877197073e-10
2.835652611453692450e-10
1.917371329922833559e-10
1.291559362629847595e-10
8.701616428333351218e-11
5.921886008514821890e-11
4.086551555973269230e-11
2.872259754142845784e-11
2.064364817636549682e-11
1.517906445011042931e-11
1.138823712082593183e-11
