# bin_2_2
5.758402360449044152e-08
5.872505714054011001e-08
5.750534061679173051e-08
5.344745673578046543e-08
4.701051733053049844e-08
3.937338919334395843e-08
3.238389739403992320e-08
2.727344285515847877e-08
2.315810625213776518e-08
1.812214165768154136e-08
1.308407764378354149e-08
1.007401818184511329e-08
7.467487324074828473e-09
5.424350043402608650e-09
3.972829470787981492e-09
2.915366815310994694e-09
2.157899964872611200e-09
1.622676040181401912e-09
1.242239155786675132e-09
9.673998873096452212e-10
7.638194111082044859e-10
6.078813949313341697e-10
4.840746336504090599e-10
3.829784142855375072e-10
2.990355545229190145e-10
2.291105913506871074e-10
1.714670242194219017e-10
1.249916089786286945e-10
8.865147122794178141e-11
6.123916664451965253e-11
4.129831115637228098e-11
