# bin_6_1
4.646869712598473639e-18
5.055587761951269387e-18
5.362128805546856768e-18
5.507159605917406290e-18
5.441814748169722449e-18
5.097980299573438466e-18
4.513424481197638005e-18
3.783626236234855922e-18
3.095633003989031157e-18
2.602147605607765034e-18
2.244044762838183791e-18
1.776971822661279428e-18
1.244690008967850773e-18
9.740132449816223135e-19
7.149339445681151719e-19
5.145600208850573359e-19
3.663088676587250988e-19
2.657598970686945293e-19
1.910141953854882195e-19
1.386170239047281348e-19
1.021822239109144481e-19
7.661404156301040191e-20
5.848408523500918982e-20
4.532994384156990883e-20
3.547117355914958505e-20
2.784476320644231043e-20
2.177329329298451052e-20
1.684630000302533782e-20
1.282338166289054587e-20
9.558930334801135340e-21
6.953829026238993123e-21
