# bin_15
0.000000000000000000e+00
0.000000000000000000e+00
0.000000000000000000e+00
0.000000000000000000e+00
0.000000000000000000e+00
0.000000000000000000e+00
0.000000000000000000e+00
0.000000000000000000e+00
0.000000000000000000e+00
0.000000000000000000e+00
1.788634177539076565e-297
3.684400294949583951e-268
4.335702684973990351e-242
7.723591205401932114e-219
4.752502661202875096e-198
2.037798227238106045e-179
1.109235057277863613e-162
1.282614030666959908e-147
4.909891287165400252e-134
9.133927418744199072e-122
1.152390460700921953e-110
1.318283962480327467e-100
1.762451156762657809e-91
3.440117413104629812e-83
1.192248068801214981e-75
8.718497456842150159e-69
1.566971755022502226e-62
7.924299390256931446e-57
1.271541652104101591e-51
7.205287719924756701e-47
1.586396089089260738e-42
1.478163848051391780e-38
6.292849901925175780e-35
1.311169244105627964e-31
1.422443816306953995e-28
8.495805876857935947e-26
2.937950549676111442e-23
6.156627833967527211e-21
8.147557531032462229e-19
7.069128212406220885e-17
4.160470855291440107e-15
1.713221362516548483e-13
5.077429283088445155e-12
1.111293104590208984e-10
1.839075349169962914e-09
2.351364646448671048e-08
2.369019615145649486e-07
1.915196943839215600e-06
1.263213639666711556e-05
6.902293858890346152e-05
3.168554164785943972e-04
1.237900461667908007e-03
4.165058141491637111e-03
1.220126246733830438e-02
3.143333909112606961e-02
7.187498063142166993e-02
1.471089833796467294e-01
2.716107498057392378e-01
4.556140760883037877e-01
6.989296594119590589e-01
9.864380777611521101e-01
1.287987075738966869e+00
1.563778517602633755e+00
1.773812794323997855e+00
1.888003793181440404e+00
1.893287537151825628e+00
1.795482213328998933e+00
1.615908893728052576e+00
1.384660078450655085e+00
1.133150237831193952e+00
8.881648880847818894e-01
6.685417783947406045e-01
4.844944932553000849e-01
3.388486544911818443e-01
2.292187341572394788e-01
1.502921746869371467e-01
9.570320085748523775e-02
5.929705351261722879e-02
3.581153157119238567e-02
2.111635887756071334e-02
1.217598160283234372e-02
9.172917087017418494e-03
