# bin_12_2
-1.600022465535375203e-27
-1.807604743560264730e-27
-2.008002344204205704e-27
-2.184627449836183995e-27
-2.315535140638304129e-27
-2.374519744809201459e-27
-2.341075993610573825e-27
-2.184869696160509873e-27
-1.927175689901599313e-27
-1.609129004889256567e-27
-1.316526972816679250e-27
-1.112492457274330845e-27
-9.610205867201679615e-28
-7.501843429546844701e-28
-5.191941189432835555e-28
-4.135524506640747772e-28
-2.928307631624146689e-28
-2.128543879419752893e-28
-1.449642677584152722e-28
-1.027564562669464946e-28
-7.132513289737243846e-29
-4.941618246960474307e-29
-3.448502953485116069e-29
-2.429577760606182696e-29
-1.741003777859376899e-29
-1.272094806586301841e-29
-9.475698145203425044e-30
-7.184499746784059549e-30
-5.515731351846397626e-30
-4.258881141996228764e-30
-3.282582225027728153e-30
