# bin_12_10
-4.327081660844240245e-09
-4.928323775632490173e-09
-5.530950047828669740e-09
-6.093184481502269124e-09
-6.559559087885737025e-09
-6.859536602727557992e-09
-6.925126616573628777e-09
-6.672920119026900868e-09
-6.067847388979171903e-09
-5.216736566403039581e-09
-4.289135257868015090e-09
-3.538430374339958951e-09
-3.048999369781308752e-09
-2.564790632228207751e-09
-1.857574197629495498e-09
-1.339077376250927128e-09
-1.072182436818112488e-09
-7.092450414899766943e-10
-5.297863001128483704e-10
-3.640563605527988062e-10
-2.477736466927088191e-10
-1.695084574551749496e-10
-1.154107207272355530e-10
-7.889521579399387181e-11
-5.433884744028403526e-11
-3.802687497425278444e-11
-2.710023924615474068e-11
-1.972528222075778384e-11
-1.466449723396492368e-11
-1.109834909614267035e-11
-8.499461690085476980e-12
