# bin_11_8
-6.764473791945679180e-10
-7.672323087546649041e-10
-8.564435728998495263e-10
-9.373468220627946539e-10
-1.000915475258137114e-09
-1.035877418133946536e-09
-1.033307853877935993e-09
-9.789151716036603864e-10
-8.756442008965390683e-10
-7.403326797721235417e-10
-6.059278035620677270e-10
-5.058438131467380461e-10
-4.381650289055199382e-10
-3.558610416904428229e-10
-2.486456878159474098e-10
-1.898248825063971381e-10
-1.433964699122039109e-10
-9.863571454016098810e-11
-6.983270710868384058e-11
-4.946466781127804810e-11
-3.394863247305466782e-11
-2.324309800884448354e-11
-1.601095935403251629e-11
-1.112087366967756991e-11
-7.825428260411245275e-12
-5.609636440716589029e-12
-4.101104648394105805e-12
-3.059676175293306570e-12
-2.322045661892795416e-12
-1.782541836188335751e-12
-1.374085961654114873e-12
