# bin_1_10
-1.553974231325347539e-27
-1.740611893107312254e-27
-1.913687738734152816e-27
-2.055631780547905357e-27
-2.144205487103267111e-27
-2.158838313242636352e-27
-2.072847214903739169e-27
-1.878779797301487645e-27
-1.610057984372647150e-27
-1.322522607461978451e-27
-1.093076895409393489e-27
-9.423348049596612115e-28
-7.877665510919766905e-28
-5.678199228151319111e-28
-4.140114579740676493e-28
-3.286115359932667715e-28
-2.206116016525076741e-28
-1.643385343170383041e-28
-1.150352266130205191e-28
-8.003664697398508893e-29
-5.621062597252335734e-29
-3.968474168553497334e-29
-2.836369897014328642e-29
-2.058541839295249425e-29
-1.524043539858221893e-29
-1.149009522371732498e-29
-8.795717145500187342e-30
-6.801079388751911749e-30
-5.274302445177220909e-30
-4.072870976878184007e-30
-3.111180271072360260e-30
