# bin_8_15
-2.391266752958043029e-14
-2.730459322421892360e-14
-3.074397886958757887e-14
-3.400389654132035361e-14
-3.678647035798340480e-14
-3.870690406916273810e-14
-3.934850523316499531e-14
-3.830922476372032843e-14
-3.521878758362328956e-14
-3.061576864146317719e-14
-2.530382961000258755e-14
-2.076855584592658334e-14
-1.777036761639400923e-14
-1.518464017925331685e-14
-1.133570492227259219e-14
-7.941683879514341129e-15
-6.450002617223401119e-15
-4.294004075493062536e-15
-3.231659160929714279e-15
-2.179260518072624409e-15
-1.487709493582741335e-15
-1.018649617031543990e-15
-6.918901873155553010e-16
-4.689215646031403976e-16
-3.188230055024375141e-16
-2.196441451629000960e-16
-1.537757754160685893e-16
-1.098457850647214962e-16
-8.024470145017586062e-17
-5.987037282401465161e-17
-4.542235860654096131e-17
