# bin_7_8
-9.898467028098405912e-09
-1.112631394636401329e-08
-1.228490317703324202e-08
-1.326586921532123862e-08
-1.392999333445969996e-08
-1.413127938006765775e-08
-1.371909099601836068e-08
-1.257786747734775254e-08
-1.090457858441207125e-08
-9.002184526398972338e-09
-7.396517835611597892e-09
-6.335193043440620345e-09
-5.391987834789729118e-09
-4.004355245486463914e-09
-2.828826768258551882e-09
-2.289001565680069123e-09
-1.535499094603476418e-09
-1.157413999326265600e-09
-7.939817672180458177e-10
-5.526208502844039911e-10
-3.875157288477336072e-10
-2.720302999776129595e-10
-1.925684094421739132e-10
-1.380877009240596975e-10
-1.009827120092105639e-10
-7.527434533808225798e-11
-5.708848465724283481e-11
-4.387741114177636543e-11
-3.394977751554823017e-11
-2.625342418935042022e-11
-2.014691658777010233e-11
