# bin_7_6
2.809005288086526783e-06
3.140891349227280677e-06
3.445851038817681524e-06
3.691660487316066616e-06
3.837792550349805333e-06
3.849031550274682840e-06
3.675358757367296986e-06
3.313160898796496981e-06
2.823619106482380619e-06
2.315304882254683551e-06
1.920555160147268807e-06
1.659165573236562626e-06
1.372156608873008381e-06
9.768363928978121411e-07
7.251656558838345063e-07
5.663794841307800881e-07
3.838917871901649341e-07
2.821664375384285472e-07
1.995008875466355658e-07
1.391334107738989158e-07
9.779571746857643288e-08
6.928782926115806505e-08
4.975969811421787974e-08
3.632246586361068427e-08
2.704282040825013566e-08
2.048982810356991959e-08
1.574551742343396309e-08
1.220182607851358141e-08
9.467121524546806714e-09
7.302023166162335497e-09
5.563654073571326289e-09
