# bin_9_4
2.490110770256012944e-11
2.790959193681697291e-11
3.070859031616363937e-11
3.301808383986099197e-11
3.448285199021913065e-11
3.476656197755888642e-11
3.344852565285401077e-11
3.037705651976047869e-11
2.608469555072807724e-11
2.144098079783221149e-11
1.769897054518451271e-11
1.524507790246989780e-11
1.279197127178779434e-11
9.263623367746962918e-12
6.711378941054637649e-12
5.355826921941141481e-12
3.585255216796142322e-12
2.682615996276843752e-12
1.870858709916509395e-12
1.300673271627884963e-12
9.132995132892963840e-13
6.440291351150246732e-13
4.595122042991319758e-13
3.328000184738161533e-13
2.458795023290113004e-13
1.850301596030778492e-13
1.414346711924912067e-13
1.092663777076703944e-13
8.471837000739817195e-14
6.544627669597566667e-14
5.003862261309131326e-14
