# bin_15_3
1.204756400626151111e-26
1.372282894812889783e-26
1.540268380594491969e-26
1.697088536258353708e-26
1.827315733551434983e-26
1.911319614527538677e-26
1.930093526827466176e-26
1.860530696572694187e-26
1.692536773397706403e-26
1.455758445595984558e-26
1.197153475990931066e-26
9.874242696769329830e-27
8.506052729542048354e-27
7.159597493141140184e-27
5.191804192711275538e-27
3.738215232525663894e-27
2.994912624975953867e-27
1.981568237814440681e-27
1.480662221766464145e-27
1.016695779129629859e-27
6.920060980212499691e-28
4.734489495013444183e-28
3.223303911945940631e-28
2.202717788675070488e-28
1.516343910339878268e-28
1.060509541188406035e-28
7.552717452627533193e-29
5.493482540640825586e-29
4.081417693154866108e-29
3.087285355326865295e-29
2.363538585657143092e-29
