# bin_5_5
5.152425342506080823e-06
5.690609913066923281e-06
6.149369143922019426e-06
6.464924463957619074e-06
6.568927418876209894e-06
6.394157819731410515e-06
5.882182852153087054e-06
5.117041086781169838e-06
4.234510868094214525e-06
3.475621021927405933e-06
2.966052720921285424e-06
2.530605891474569529e-06
1.903406640536665897e-06
1.342206486152615072e-06
1.081590617424306015e-06
7.421208329758100442e-07
5.568540452290766418e-07
3.867240560449816389e-07
2.753113825434029018e-07
1.968152075897358789e-07
1.415971807837552038e-07
1.032269800508340557e-07
7.645741265965413843e-08
5.772579815710677639e-08
4.429398499271129270e-08
3.437618841426362794e-08
2.682427586587017666e-08
2.089335186343996876e-08
1.613461599058617036e-08
1.227990563346710667e-08
9.168292590818548720e-09
