# bin_14_12
1.840662143245322775e-06
2.105868952145700314e-06
2.376960916746323653e-06
2.636784481611566503e-06
2.862953765231579069e-06
3.026126694595545667e-06
3.092248130243895208e-06
3.033387311586650645e-06
2.812880381237829148e-06
2.465964703057228670e-06
2.048810930116715025e-06
1.677639391571231920e-06
1.426046325791467795e-06
1.228330736640265069e-06
9.396787630290495445e-07
6.505262111704076325e-07
5.254887480172023264e-07
3.591697009732117692e-07
2.664613831327231865e-07
1.780637889815513588e-07
1.231256731140452226e-07
8.405003424466097272e-08
5.686728739997176128e-08
3.831551793429696023e-08
2.582091838054243942e-08
1.757910260058060575e-08
1.213623787217907051e-08
8.534353349941428825e-09
6.137189912308027255e-09
4.515059890097771554e-09
3.389132823488700004e-09
