# bin_14_8
1.035691648294583638e-10
1.180772207734575764e-10
1.326863162770625457e-10
1.464030409495957210e-10
1.579139624279365650e-10
1.655396052301745367e-10
1.675823538798238723e-10
1.621396211369121201e-10
1.480605007643941740e-10
1.278414796411065168e-10
1.053021559307599726e-10
8.667597258083527188e-11
7.450077068141239560e-11
6.309481350246299674e-11
4.622300277206027324e-11
3.290373265184463085e-11
2.656843204159518873e-11
1.755304739860385315e-11
1.319404175454497820e-11
8.997220266566321801e-12
6.121792573642505921e-12
4.190789264794171834e-12
2.849950224346137674e-12
1.941386368950940058e-12
1.330227792001571836e-12
9.252290193484984196e-13
6.548881127376980739e-13
4.733121068138137915e-13
3.496249849951270949e-13
2.632724143731515849e-13
2.009975462016323444e-13
