# bin_11_10
3.179413517072179713e-06
3.615666472927314614e-06
4.049753927713842113e-06
4.450667509542052163e-06
4.777009419283295816e-06
4.976485763070279850e-06
5.002397941694978465e-06
4.790001261777201969e-06
4.328495060702183975e-06
3.697478969789829012e-06
3.033230046110252315e-06
2.512319720281615191e-06
2.171225224082127130e-06
1.805170976327134769e-06
1.286994122820475906e-06
9.474534066091380241e-07
7.448999775029972568e-07
4.973535387953967727e-07
3.655308408074006408e-07
2.542548421512733398e-07
1.734397097072045364e-07
1.185580867319351354e-07
8.098224831599346589e-08
5.567856850386331222e-08
3.865660803268727352e-08
2.730208329815957308e-08
1.965267055692815782e-08
1.444837917430670296e-08
1.083545317316791657e-08
8.253300980160959264e-09
6.342687114660180364e-09
