# bin_11_1
4.102070492435174205e-28
4.615039141316227931e-28
5.101108102400873590e-28
5.515777574244594119e-28
5.801599087759691342e-28
5.896605219330760088e-28
5.740586105377026790e-28
5.279276456691934521e-28
4.590968416578032682e-28
3.796506408621089427e-28
3.115923794613837224e-28
2.663061299425185157e-28
2.274604569168203012e-28
1.703809797290811775e-28
1.196546967639457108e-28
9.687311673899505457e-29
6.535901987354515764e-29
4.914776724931324680e-29
3.357980165560353151e-29
2.342403527319001252e-29
1.640816810319313489e-29
1.149913993686260208e-29
8.119991300994435875e-30
5.804362870275399036e-30
4.230173386575867239e-30
3.142947289998223942e-30
2.376897225189270734e-30
1.823194645482074617e-30
1.409275183394017539e-30
1.089842879845561278e-30
8.371677180064980462e-31
