# bin_12_5
2.381226506739095536e-14
2.696666660586566189e-14
3.004474999263800348e-14
3.280595813516981715e-14
3.492867804198820772e-14
3.601604050195519856e-14
3.576477351792296327e-14
3.368084487526332014e-14
2.996032551268099651e-14
2.519731521388526446e-14
2.061145746993938503e-14
1.728933463161009312e-14
1.497310755826719494e-14
1.197907706753704878e-14
8.313950146926870964e-15
6.468928492138170661e-15
4.764094828988376204e-15
3.348948251530820121e-15
2.324059321006584016e-15
1.653845225263053671e-15
1.139827529999552396e-15
7.832138480162141660e-16
5.423771948566894753e-16
3.788674230908323652e-16
2.685647195660415593e-16
1.940378340324616697e-16
1.429781284915065268e-16
1.074210844384375983e-16
8.195259140693425774e-17
6.309680355975315273e-17
4.866135458873165128e-17
