# bin_9_4
1.831222930357113925e-11
2.049993083799023654e-11
2.252268348857472764e-11
2.417242452508762167e-11
2.518634850844789983e-11
2.532649910511523630e-11
2.427352222058876275e-11
2.196061903233309712e-11
1.878429973104849497e-11
1.541903891871533080e-11
1.275818886977762947e-11
1.100837402123913305e-11
9.172153965324272204e-12
6.581016419305451292e-12
4.826464797650775515e-12
3.813361144268548009e-12
2.565301655707286650e-12
1.904027288969016187e-12
1.337469559780141395e-12
9.310438964810602486e-13
6.539992981290860207e-13
4.622070004921730617e-13
3.308787590716127700e-13
2.406090235080802191e-13
1.784788077343014996e-13
1.347920870566253782e-13
1.033254225427302102e-13
7.996020566920061578e-14
6.202489070072463210e-14
4.788073225766359369e-14
3.654571376875549274e-14
