# bin_9_6
8.388903369662585430e-08
9.431539504701566026e-08
1.041637273769935674e-07
1.125175938318990044e-07
1.181983543552897806e-07
1.199610034560724585e-07
1.165402147775426872e-07
1.069228500448346806e-07
9.276530699620551649e-08
7.660953131018680229e-08
6.292615731460334032e-08
5.387141396738146205e-08
4.589418148305814049e-08
3.415004515079412158e-08
2.408531941874641028e-08
1.950017665832906371e-08
1.309112715791768967e-08
9.867580441494201537e-09
6.761506244282305296e-09
4.707489876139392290e-09
3.300531270650875800e-09
2.316154172446904348e-09
1.638635027071781073e-09
1.174162909499055020e-09
8.579795072840488847e-10
6.390756677656559958e-10
4.843706697285140909e-10
3.721183798611372860e-10
2.878664487811142279e-10
2.226174257475953776e-10
1.708809725829800429e-10
