# bin_13_7
2.993786865336717881e-11
3.404415984112406942e-11
3.812917768296299591e-11
4.190085447706291906e-11
4.496920598290684387e-11
4.684168761937754104e-11
4.707948048129614210e-11
4.507209157996768058e-11
4.072200772997453897e-11
3.477886434329256728e-11
2.852917093466510082e-11
2.363268811501832761e-11
2.042566846786421222e-11
1.697582021924958819e-11
1.209747205704701025e-11
8.911607582917079377e-12
7.002159130074825783e-12
4.676901851318516457e-12
3.435346418823939012e-12
2.390437218779875710e-12
1.630776472569658773e-12
1.114727121871270711e-12
7.615143294236776288e-13
5.236643224295039194e-13
3.636577648662350193e-13
2.569111275776053110e-13
1.849844978769035401e-13
1.360371132970861553e-13
1.020449208714149189e-13
7.774057163236070560e-14
5.974913335916670024e-14
