# bin_15_5
6.340067351411837815e-08
5.894456301135761903e-08
5.335691571159975940e-08
4.696728629281695868e-08
4.021401569711798232e-08
3.358042776598355486e-08
2.748672656823835767e-08
2.217285903801793313e-08
1.766481252004397704e-08
1.383853805912113518e-08
1.059128202952861169e-08
7.952409082992384472e-09
5.960498937724293452e-09
4.479052180191632465e-09
3.349578017955474841e-09
2.523825205294791456e-09
1.914697415925183915e-09
1.465531896002778306e-09
1.130181109472879467e-09
8.763037675666215865e-10
6.807570245917840074e-10
5.277251985524583471e-10
4.065758261551412014e-10
3.101167160217259007e-10
2.334150614815200509e-10
1.729051807564307272e-10
1.258066899620469552e-10
8.979745786416510016e-11
6.284038323615609153e-11
4.312053288220047827e-11
2.903610575525459045e-11
