# bin_7_5
5.357858591064116065e-08
4.921583044680352116e-08
4.401404106845813859e-08
3.829821082104935530e-08
3.245916696321146980e-08
2.688617690733098924e-08
2.187400565125741761e-08
1.755329963765464581e-08
1.389659024651802577e-08
1.080204362602000218e-08
8.217492215540122848e-09
6.168193993293457832e-09
4.635459393706809746e-09
3.487040503599785533e-09
2.619966632123958775e-09
1.986143768189237089e-09
1.516356535102703671e-09
1.167763381931223405e-09
9.051468560621412370e-10
7.041615246902340401e-10
5.477166523841812464e-10
4.242145357223768955e-10
3.258698421169219092e-10
2.473850528162908039e-10
1.850488527595821784e-10
1.360774991834031518e-10
9.821346178017967095e-11
6.950985674113940019e-11
4.823003713247654860e-11
3.282375049079224512e-11
2.193439102128644654e-11
