# bin_5_4
4.350596101675608194e-08
3.927312380778148004e-08
3.450357299239410934e-08
2.951318740706820323e-08
2.463873948866146590e-08
2.016646061796331356e-08
1.625984470795631263e-08
1.294106273502838745e-08
1.013687970896908439e-08
7.778909598139315787e-09
5.867379085520959194e-09
4.410961323437577672e-09
3.328157437028842496e-09
2.508098014077593116e-09
1.901921668412474740e-09
1.455082816327838432e-09
1.122570046213194243e-09
8.724536544762308575e-10
6.811892947548761558e-10
5.322563802221550537e-10
4.144511909989251016e-10
3.202825410944499553e-10
2.447157072145873425e-10
1.842770074804073648e-10
1.364189066157498174e-10
9.910318264415728660e-11
7.057367224468570728e-11
4.924847237202804248e-11
3.368994712123769480e-11
2.261642814411448366e-11
1.492309931446176757e-11
