# bin_5_2
3.027340215230849977e-08
2.647778378463595177e-08
2.255084420558971058e-08
1.875776999089828134e-08
1.531275758758201560e-08
1.232539900864546444e-08
9.793182897396325753e-09
7.650204006322160802e-09
5.853677737706410821e-09
4.416369535110924318e-09
3.332984512201682476e-09
2.523183185608689528e-09
1.911764606062227047e-09
1.461339808918393337e-09
1.127404756327986817e-09
8.777432108489162723e-10
6.881790169656725635e-10
5.414850868363760977e-10
4.257471565146775057e-10
3.330014475155342183e-10
2.580048528829023650e-10
1.972726716926545541e-10
1.483972135346848818e-10
1.095692425121292482e-10
7.928133966667314288e-11
5.617424849765886401e-11
3.897702178714899681e-11
2.650583312753127460e-11
1.769238234530492560e-11
1.161462190981105346e-11
7.515679800780570142e-12
