# bin_7_3
6.412011004520078771e-15
7.087086303453651609e-15
7.665503496877633888e-15
8.068185250662617056e-15
8.208681132363185580e-15
8.005394650554114494e-15
7.379210593342183708e-15
6.432083961070319635e-15
5.328058297533801068e-15
4.369592683685971100e-15
3.724227006526825215e-15
3.185650040999444956e-15
2.408434073486915506e-15
1.691088814624183558e-15
1.364604532522335906e-15
9.381914525875926508e-16
7.037602891918298192e-16
4.874358471608753495e-16
3.472798719801714468e-16
2.481135457581002655e-16
1.783161468336889666e-16
1.298112222107627537e-16
9.599102277037758478e-17
7.236177045900477786e-17
5.545468041034084819e-17
4.300110330212164574e-17
3.354254301309817931e-17
2.613009629856773158e-17
2.019067160279963773e-17
1.538176336441690561e-17
1.149869727612857589e-17
