# bin_5_3
7.428620389114999997e-12
8.098138255274088504e-12
8.610448749068758224e-12
8.870022873664651244e-12
8.798893080543450678e-12
8.283479893042346481e-12
7.368382686502223169e-12
6.202640335055589713e-12
5.076797426463661020e-12
4.253022016050553162e-12
3.671873005198513393e-12
2.941987368097888008e-12
2.066308115534331564e-12
1.598602727671155052e-12
1.193163216226940781e-12
8.474517031444939394e-13
6.083168407352000776e-13
4.407460883743404879e-13
3.158264324174084581e-13
2.285691445221158140e-13
1.679665831537055015e-13
1.255480416429456426e-13
9.554081304753832438e-14
7.387062202165717915e-14
5.771234068472910361e-14
4.527610196474576066e-14
3.541809437135962663e-14
2.743934593790526388e-14
2.093052908520964521e-14
1.564501278781657666e-14
1.141793726276263429e-14
