# bin_14_4
2.599175301457756848e-26
2.954718969296810139e-26
3.307872700700707903e-26
3.633221378165423540e-26
3.896798963848824954e-26
4.055758875831845181e-26
4.072547017628492771e-26
3.893731761915895481e-26
3.513431839443757935e-26
2.996723824358884287e-26
2.457320698587798607e-26
2.037445582337474866e-26
1.761727804247384759e-26
1.460240186774371932e-26
1.037609675386585433e-26
7.678138206605215623e-27
6.005699191075151489e-27
4.023441357733946201e-27
2.942685583892877719e-27
2.052803939582670744e-27
1.401372406486390068e-27
9.578869991180056615e-28
6.549744136271268749e-28
4.509638344565381529e-28
3.136963598642985783e-28
2.220339303232138861e-28
1.601936943705317707e-28
1.180366701554758292e-28
8.868760394660317283e-29
6.764146310578042031e-29
5.201472581824780162e-29
