# bin_3_1
6.171878353498216289e-12
6.436047296437042581e-12
6.482042959798220726e-12
6.236869283988379448e-12
5.674495784870676465e-12
4.885317839895978719e-12
4.029167029536855626e-12
3.326102764095544678e-12
2.845578082322428740e-12
2.381709311934395024e-12
1.762153659883160225e-12
1.282905282385257868e-12
1.012432177229788330e-12
7.118851728302738003e-13
5.318091822240186662e-13
3.829348019155341727e-13
2.801151712615547613e-13
2.072653674699017894e-13
1.556947680039150128e-13
1.190796020722687132e-13
9.259793603270637231e-14
7.298511710029999308e-14
5.792469247296418911e-14
4.596027575729096470e-14
3.620334342847809688e-14
2.812477416013035739e-14
2.142699320692581865e-14
1.593895653481786345e-14
1.154353089959406074e-14
8.133366174431311519e-15
5.581517974905023114e-15
