# bin_10_8
1.092770092934077214e-11
1.235656735496002760e-11
1.374142349570929322e-11
1.497011731865564759e-11
1.589353059794490407e-11
1.633081665179412381e-11
1.614400798446930802e-11
1.511619828964052368e-11
1.337431859235115125e-11
1.119446489172133363e-11
9.156267176243139476e-12
7.716711834426675859e-12
6.675446463916546973e-12
5.258476749548152760e-12
3.637459517054764478e-12
2.877055849770862780e-12
2.065481475207134268e-12
1.484430395781419867e-12
1.014802059490186067e-12
7.217667356190047146e-13
4.996781262668635350e-13
3.450725332015183476e-13
2.401670014479567516e-13
1.686822394254560124e-13
1.204106411343418695e-13
8.763384828309042512e-14
6.503435799580406730e-14
4.915929583175811642e-14
3.766577011095320101e-14
2.906077969812603855e-14
2.240893906716053875e-14
