# bin_14_6
4.569931029141828898e-20
5.201433601411206664e-20
5.832380907756571023e-20
6.418458484167104573e-20
6.900675567262644520e-20
7.204252848205373215e-20
7.259458328564202659e-20
6.975788468288513368e-20
6.325631083619290577e-20
5.422844040657375138e-20
4.453826714085006852e-20
3.680459844297742050e-20
3.175968594537261938e-20
2.658404079812347950e-20
1.911494876309536748e-20
1.390528173901625029e-20
1.105221802264479890e-20
7.333870042660334575e-21
5.443937556782537521e-21
3.760858378353871160e-21
2.561687298389315806e-21
1.751752079926034801e-21
1.194123569869638283e-21
8.183343331113409875e-22
5.656115759011238107e-22
3.974370336682860519e-22
2.845070830482376630e-22
2.080222824971660823e-22
1.552710874298533922e-22
1.178664272275057169e-22
9.042045118511359069e-23
