# bin_3_2
7.948114892580388045e-11
8.402440759718672890e-11
8.600212301267195906e-11
8.460120305950999733e-11
7.889715644432612120e-11
6.956902493497989246e-11
5.820765028861158013e-11
4.770845686043836204e-11
4.020837129577195939e-11
3.449011808706084239e-11
2.704927063365580965e-11
1.914938783124537297e-11
1.498934493222348439e-11
1.097433994339559434e-11
7.981503642405667676e-12
5.752898420751519345e-12
4.203305283479917869e-12
3.071504123154224361e-12
2.274720981606033991e-12
1.714160136474875145e-12
1.314608527167030993e-12
1.024546604173422214e-12
8.075250873958341964e-13
6.392927508157238454e-13
5.048078512795073644e-13
3.948546750007371131e-13
3.040358888228607024e-13
2.292727242601075907e-13
1.686685672246761070e-13
1.207772027275118643e-13
8.416638102985064594e-14
