# bin_15_5
7.880564773020566541e-25
8.980682679958952874e-25
1.008629029325073207e-24
1.112158842431480918e-24
1.198617458743213509e-24
1.255197642894618763e-24
1.269210087735091596e-24
1.225864541928977756e-24
1.117406825529244292e-24
9.630501879535800414e-25
7.926226023302132478e-25
6.530282827403553265e-25
5.619134112977224888e-25
4.745524222607885672e-25
3.459512557797462503e-25
2.475540583088936488e-25
1.992347924732965347e-25
1.316483213141427717e-25
9.872730015905156722e-26
6.754152486142324399e-26
4.595582774426500357e-26
3.145156212170759520e-26
2.139808240081823091e-26
1.459788890436851340e-26
1.002427482612239870e-26
6.990467708818583492e-27
4.962396494362722846e-27
3.597434600361341250e-27
2.664757456145998428e-27
2.011036458719105872e-27
1.537471611071587384e-27
