# bin_8_8
5.556957333623573660e-11
6.254672493234386003e-11
6.917170276846424906e-11
7.484441732385565373e-11
7.878828706606018822e-11
8.015305486169903514e-11
7.813960508799379258e-11
7.196621474356310553e-11
6.267502525128679521e-11
5.186759130450443128e-11
4.254411999285062896e-11
3.632534811648539156e-11
3.108516479650512308e-11
2.337657194209159227e-11
1.636345845535015911e-11
1.326146805125032280e-11
8.962712704908413245e-12
6.738882389897824357e-12
4.592959867663495817e-12
3.206159719115395910e-12
2.245200012691838626e-12
1.572549867343987156e-12
1.109154177443724943e-12
7.916545037060615018e-13
5.760225753423261271e-13
4.273182041061196248e-13
3.227398484339162333e-13
2.473316792863546397e-13
1.910999404459481682e-13
1.477971385415662482e-13
1.135915778703108807e-13
