# bin_15_13
1.293770408633345807e-11
1.482914137799973005e-11
1.677535670148987571e-11
1.865914862151013361e-11
2.032663187208298076e-11
2.157355837024040870e-11
2.215260012376200144e-11
2.187719706257604573e-11
2.045244732125484388e-11
1.806775344194375440e-11
1.509958408617170233e-11
1.235084962735744517e-11
1.042844764905918254e-11
9.020669176577279241e-12
7.062885551778588833e-12
4.872025100343450591e-12
3.876262276750581137e-12
2.745272473622826563e-12
1.982315236555294770e-12
1.331143387900525919e-12
9.342015588231051248e-13
6.343271111906676359e-13
4.260936261577713186e-13
2.856217112850752217e-13
1.911081829062460001e-13
1.287354780520050516e-13
8.772936618025130526e-14
6.075914495829020450e-14
4.298851755250625398e-14
3.113734893229170679e-14
2.306979857163023445e-14
