# bin_10_3
3.314868918330733976e-21
3.717312987260730265e-21
4.092730019806802402e-21
4.404013208991623839e-21
4.604001591863014495e-21
4.647166013440863945e-21
4.478357116165121406e-21
4.073837778710324307e-21
3.504072337406385277e-21
2.882030318760056401e-21
2.376681751829399492e-21
2.045543933394268150e-21
1.721464739404328075e-21
1.251694829710779497e-21
9.021549904065579270e-22
7.228865698395908800e-22
4.830166719197801520e-22
3.625874066606177025e-22
2.520843863193956063e-22
1.751660298972413798e-22
1.229833102722449603e-22
8.664593715679950271e-23
6.173409698149027088e-23
4.463283063061502146e-23
3.291847662427522535e-23
2.473307366226925243e-23
1.888199092071883706e-23
1.457632049652868524e-23
1.129906000095768860e-23
8.731301569586162594e-24
6.680657701562213369e-24
