# bin_7_7
6.290414957243458260e-11
7.042307363812992875e-11
7.737713532450737693e-11
8.305193451789627437e-11
8.654495746371163963e-11
8.703742330803971695e-11
8.343306897379999504e-11
7.549504698547570505e-11
6.458587893544431688e-11
5.301666850056687161e-11
4.386205021051393593e-11
3.784518528759781605e-11
3.154424548643576957e-11
2.263926397826734532e-11
1.659376547898758338e-11
1.311941132707385094e-11
8.820637954685344753e-12
6.550968775239198585e-12
4.600365088804579449e-12
3.201945695277377935e-12
2.249111162161869488e-12
1.589331009622988315e-12
1.137587797132013097e-12
8.270962189683820612e-13
6.134268036570042753e-13
4.632140285860545449e-13
3.550434321407176473e-13
2.747432956220986809e-13
2.131182715983011600e-13
1.645271639384653025e-13
1.255890721326041239e-13
