# bin_7_2
1.141626658840926256e-17
1.257603416206482805e-17
1.354636459823666537e-17
1.418413635881920910e-17
1.434595759364231819e-17
1.387103502345074493e-17
1.266717559185801324e-17
1.093942470727555413e-17
9.016791438066376215e-18
7.421213586131981889e-18
6.364266878620413085e-18
5.382708080355135774e-18
3.969224489198313299e-18
2.839309119885606709e-18
2.282967313424980989e-18
1.549079332282837203e-18
1.167914528801846299e-18
8.175340992836547630e-19
5.799411587024388207e-19
4.157824932083750835e-19
3.004404802077408265e-19
2.202081165882526405e-19
1.640917687158174352e-19
1.246094583642266383e-19
9.606631077737200669e-20
7.479869894263678514e-20
5.845040956542865602e-20
4.550880853201200734e-20
3.507212046355967996e-20
2.660230231718281758e-20
1.977149908067704558e-20
