# bin_3
0.000000000000000000e+00
9.582489071377362373e-53
6.159078390781631463e-42
2.253102240522989160e-33
1.860627649381340674e-26
7.580944744220738549e-21
2.703031673368059246e-16
1.315075952655244688e-12
1.241899451155305639e-09
3.023096962334327719e-07
2.389489933023329534e-05
7.414298832570784172e-04
1.057380196818739210e-02
7.913625261226717167e-02
3.479812482824951592e-01
9.906469585786538135e-01
1.982974549457570124e+00
2.983849270546900190e+00
3.544744693874316344e+00
3.432000798085016680e+00
2.761180998652532192e+00
1.871108446978204887e+00
1.081198051795420056e+00
5.397186873827215514e-01
2.359924517561748925e-01
9.167080491327722624e-02
3.207505241889786751e-02
1.024223322023633601e-02
3.021234809951646363e-03
8.324323284287703196e-04
2.163890565676391815e-04
5.354796041290245981e-05
1.271604938886594031e-05
2.918492303504490513e-06
6.514904537007928359e-07
1.422434217676049510e-07
3.052675110465004980e-08
6.467720690179575998e-09
1.358057337754403680e-09
2.835670162722730313e-10
5.905566138853305085e-11
1.229916799694605569e-11
2.567431000129729494e-12
5.382786362534260190e-13
1.135447787314441244e-13
2.413500588767484830e-14
5.176420590413573446e-15
1.121548679420307430e-15
2.457248461117758339e-16
5.448756352216055857e-17
1.223725219150202514e-17
2.785359891927090309e-18
6.428645635978511632e-19
1.505186272231205515e-19
3.576445582538678245e-20
8.626439514710531430e-21
2.112668825425751137e-21
5.254468064963649906e-22
1.327333865426118465e-22
3.405835318279523939e-23
8.877294637814370071e-24
2.350487889348516578e-24
6.321931363266256116e-25
1.727183656856716477e-25
4.792883227167558997e-26
1.350792275107542313e-26
3.866070648756856553e-27
1.123543470950355003e-27
3.315067513404266127e-28
9.929233722580905559e-29
3.018519839661737210e-29
1.673524798687389597e-29
