# bin_12_1
4.668863882515073220e-30
5.272375597529026062e-30
5.853936187066458332e-30
6.364917414426673782e-30
6.741138532452828548e-30
6.906581541089135996e-30
6.800802279911942875e-30
6.337447335951031569e-30
5.582054370375701796e-30
4.655722286574239455e-30
3.809791494472570532e-30
3.223274445387991951e-30
2.782293398226668482e-30
2.162779365209410713e-30
1.497592754996336927e-30
1.196347905008332026e-30
8.419527855478240715e-31
6.149885059373734391e-31
4.183318732725630538e-31
2.960321027074442622e-31
2.057156104035702618e-31
1.427239322932611579e-31
9.971576984277228611e-32
7.035329691688236183e-32
5.050071019220811973e-32
3.696350161108776743e-32
2.757932051559100536e-32
2.093869663091524829e-32
1.608915367227739622e-32
1.242709978419404016e-32
9.576497918725466944e-33
