# bin_6_3
1.700711345544753552e-08
1.869194285519260185e-08
2.007716409354676641e-08
2.094728582931682676e-08
2.109982918123053289e-08
2.028150543221793417e-08
1.840995649256492522e-08
1.580276870269882235e-08
1.299301956518249290e-08
1.072856875652448005e-08
9.229010061802423265e-09
7.729555354273774321e-09
5.616666236453376687e-09
4.084272289742847401e-09
3.249584130412261704e-09
2.208849250912842244e-09
1.655336694068784318e-09
1.169605773913389030e-09
8.297726884300332304e-10
5.957768667707166663e-10
4.319440529308100030e-10
3.180049806271046923e-10
2.381563117448206991e-10
1.816674178348944139e-10
1.405497036248209684e-10
1.096831721891993528e-10
8.577653504014552748e-11
6.673945713709470171e-11
5.133357860171353358e-11
3.881989761427377093e-11
2.874033314484896455e-11
