# bin_15_2
1.183074864119313275e-31
1.347213824825075563e-31
1.511588498059341520e-31
1.664764187939108406e-31
1.791547261715452696e-31
1.872629266740676303e-31
1.889579176190109910e-31
1.819407757082789955e-31
1.653253410950622275e-31
1.420301860738999617e-31
1.167480736576273091e-31
9.636049811284664471e-32
8.305811190936015379e-32
6.977176004199378464e-32
5.044524907278931763e-32
3.645470236863884991e-32
2.912191545849113078e-32
1.928972950546546135e-32
1.437872441759981835e-32
9.894165152026501547e-33
6.736082489322260435e-33
4.607611370247145985e-33
3.138187561446904201e-33
2.146479003792628207e-33
1.479652790752729122e-33
1.036429328975193280e-33
7.393857146323768431e-34
5.387373496320744209e-34
4.008817828505398713e-34
3.035969354606670212e-34
2.325858201308765355e-34
