# bin_8_3
4.006885791145943242e-12
4.457001996780864719e-12
4.858610183517581897e-12
5.163986085756312815e-12
5.315038019071209627e-12
5.266157772693197015e-12
4.947263252606693217e-12
4.391302232959052843e-12
3.687405218170714878e-12
3.016530414472149746e-12
2.533312786138185891e-12
2.190448979991550356e-12
1.743534948919178037e-12
1.214108200418379648e-12
9.485748974112937105e-13
6.965869521558301008e-13
4.960994255951143927e-13
3.483943157385498353e-13
2.506187237180868598e-13
1.767377435104720643e-13
1.251923230489653782e-13
8.983287124628057097e-14
6.541281210985343204e-14
4.851227426600379685e-14
3.665524176262477698e-14
2.811989865338256169e-14
2.179958358678998936e-14
1.696309597747452710e-14
1.315418566116316285e-14
1.009761844253402995e-14
7.630926243232305708e-15
