# bin_5_1
1.621553634792953795e-11
1.746102862273433168e-11
1.828245991656538913e-11
1.849539715399823050e-11
1.789648018170535767e-11
1.636654136546820256e-11
1.415616282341417375e-11
1.168613142138345733e-11
9.616377322214126719e-12
8.225366465645967088e-12
6.955861921059512005e-12
5.173105699732920322e-12
3.707406264123151429e-12
2.965403416855627979e-12
2.051559907366571791e-12
1.540713223325157420e-12
1.091613103627565844e-12
7.879817315282470493e-13
5.740819705099748207e-13
4.231004230413806799e-13
3.170481790623963763e-13
2.416793952471172800e-13
1.873193362179595639e-13
1.468382816170362802e-13
1.156641766217282540e-13
9.092638598101439415e-14
7.084038735760085057e-14
5.436713405717450971e-14
4.089275306857590525e-14
3.002644745514347397e-14
2.147318870306329756e-14
