# bin_8_7
2.889131589275583576e-06
3.247251495067801745e-06
3.585049304720482096e-06
3.870871613260143207e-06
4.064067555003608274e-06
4.122142842048403775e-06
4.000914762389035529e-06
3.667150834555691696e-06
3.178453652353051534e-06
2.623597311187966194e-06
2.155874853536287604e-06
1.846846576532130467e-06
1.571376090421678184e-06
1.166135273736170830e-06
8.242729470060573492e-07
6.668653492094730527e-07
4.471839010025890364e-07
3.370901783180970493e-07
2.313288310035821441e-07
1.609800419147879525e-07
1.128867340205515454e-07
7.925021331528001289e-08
5.610750256914285326e-08
4.024332803313531722e-08
2.943557821187062170e-08
2.194631705689863942e-08
1.664740184179517895e-08
1.279672399799229045e-08
9.902133741005226815e-09
7.657481134801465176e-09
5.876162164246194579e-09
