# bin_15_9
4.795692533617280785e-10
5.479594223408260482e-10
6.175048760321009512e-10
6.836788804889963343e-10
7.405558263689893810e-10
7.804435150607546470e-10
7.947929648621800019e-10
7.758321446158202443e-10
7.153446463486955980e-10
6.236614299086640154e-10
5.163148033449329313e-10
4.233681039435574845e-10
3.614711253337367101e-10
3.098543402441313648e-10
2.332396250339050450e-10
1.625731851720153982e-10
1.319880935804992810e-10
8.849180293604988808e-11
6.640434997993716265e-11
4.459596936252229419e-11
3.054465765508340360e-11
2.090192895827896699e-11
1.418451738864883950e-11
9.592587589774934743e-12
6.501199716754971876e-12
4.459949761085058750e-12
3.107162926599924352e-12
2.207586280944454467e-12
1.604160240131471796e-12
1.191356003913420556e-12
9.008226716672777221e-13
