# bin_11_3
1.657491894350427477e-18
1.867360188999718047e-18
2.067494278708661795e-18
2.240176655637430357e-18
2.362348221787400527e-18
2.408106202681771295e-18
2.354432995935364562e-18
2.175640087274133965e-18
1.900919675906509126e-18
1.576362517895517401e-18
1.291852604562209054e-18
1.100258176347640278e-18
9.444124847594883240e-19
7.169168734347768582e-19
4.995616757057041544e-19
4.039754382730128417e-19
2.756516728609324863e-19
2.060186753705644723e-19
1.400285784982238823e-19
9.810482862535285288e-20
6.857608635189855546e-20
4.792050196407600441e-20
3.370724265464407271e-20
2.397780812229878277e-20
1.737974467571268279e-20
1.284496192441289916e-20
9.669450147441787138e-21
7.392138985660173953e-21
5.703911897167795517e-21
4.410765846178353982e-21
3.393156300099633217e-21
