# bin_12_9
3.075393781017336663e-07
3.498466036898664985e-07
3.920069716732114616e-07
4.310277538014933499e-07
4.629171336648442547e-07
4.826260099823008824e-07
4.855765563575684323e-07
4.655553150023723738e-07
4.212336514338031889e-07
3.602892273261269090e-07
2.956822071644936099e-07
2.446936438969608106e-07
2.113648550801409012e-07
1.761753586736084067e-07
1.259791116400268812e-07
9.233852558754083175e-08
7.290023591771979531e-08
4.854964501855670249e-08
3.581988859564529115e-08
2.485298474164626845e-08
1.694294282657652548e-08
1.158234294787171066e-08
7.904574039617699803e-09
5.427684365023814450e-09
3.761965309804913155e-09
2.651716933073297122e-09
1.904765627158312825e-09
1.397483726828130122e-09
1.046200266315667995e-09
7.958979226642271064e-10
6.112781189541075425e-10
