# bin_14_8
1.564641273529989447e-10
1.783758177273548449e-10
2.004367783700958016e-10
2.211460808983436254e-10
2.385188220679010068e-10
2.500172321518421181e-10
2.530818878498199550e-10
2.448283224534108037e-10
2.235390582251283159e-10
1.929845421274334680e-10
1.589502450056727629e-10
1.308439706720307280e-10
1.124739565717929892e-10
9.523580189346233487e-11
6.974193380399128343e-11
4.966464760803664838e-11
4.009387339301312266e-11
2.648708675174772330e-11
1.990694621751975357e-11
1.357798312726561988e-11
9.238085610367894877e-12
6.323739063384573675e-12
4.300326667668288087e-12
2.929404786992269386e-12
2.007446027716307268e-12
1.396353728381363420e-12
9.884534625099022095e-13
7.144775277591781501e-13
5.278259343094377164e-13
3.974973258693024965e-13
3.034935120718190339e-13
