# bin_12_4
4.474409485947566788e-17
5.061948216801557119e-17
5.632658935445544200e-17
6.140858632334136382e-17
6.525689365461677352e-17
6.712920036890762400e-17
6.645922311764780751e-17
6.234494636757485182e-17
5.525854900809777877e-17
4.632398184715858221e-17
3.789009285825345764e-17
3.188370065394134597e-17
2.759269114826100462e-17
2.184779105951851833e-17
1.512722945185082477e-17
1.190147647776673280e-17
8.616796920255191414e-18
6.147383706825037882e-18
4.222501817530435462e-18
3.004319403677093645e-18
2.076715753335261448e-18
1.431658427698337605e-18
9.947317555302125937e-19
6.973906328412538006e-19
4.966637492186788225e-19
3.605932752035030128e-19
2.669825120789171134e-19
2.014165559693326111e-19
1.541155656423485711e-19
1.188322601172154946e-19
9.164287698423572490e-20
