# bin_3_2
3.866055371317629865e-06
4.087055702669368466e-06
4.183332527825207635e-06
4.115216415983106188e-06
3.837972802669550483e-06
3.384440567687518891e-06
2.832072107359170869e-06
2.321443285028834397e-06
1.956353190437798134e-06
1.677821033707771427e-06
1.316080667291014104e-06
9.321941287980278862e-07
7.291828265485436217e-07
5.341609310833474620e-07
3.883165576441516985e-07
2.800237065522117336e-07
2.045484995492747107e-07
1.494629620042889125e-07
1.106892886903152606e-07
8.340913788762511856e-08
6.396670736045026717e-08
4.985212593743025434e-08
3.929236406602283238e-08
3.110755532425947546e-08
2.456497035866691879e-08
1.921597940091051231e-08
1.479780272069854828e-08
1.116051636013168070e-08
8.211790643603949610e-09
5.881285844676177881e-09
4.099374881421206209e-09
