# bin_13_2
2.431978362555279486e-27
2.755806321234902143e-27
3.072679493985404046e-27
3.358173691036814622e-27
3.579595078117810618e-27
3.696400776734496467e-27
3.677213703018456474e-27
3.471131692465881570e-27
3.094576123568066709e-27
2.608033000627293806e-27
2.133803092877763784e-27
1.786477853494174052e-27
1.547336013496120826e-27
1.245452673482069798e-27
8.665818670550951518e-28
6.692230778326946179e-28
4.979253682600115091e-28
3.469555592654821898e-28
2.426654968296159926e-28
1.724040522862652601e-28
1.186159935424377028e-28
8.137780646479470182e-29
5.623309424039256353e-29
3.919054027449852541e-29
2.769864292379355646e-29
1.994904362429966468e-29
1.465379550338644672e-29
1.097930088894678559e-29
8.359208762489759890e-30
6.428817082673572162e-30
4.957436301883601755e-30
