# bin_12_3
1.027719411105415758e-20
1.161695383488415209e-20
1.291351773636355662e-20
1.406099699217246795e-20
1.491888263537586734e-20
1.531783876623469792e-20
1.512713566302884789e-20
1.414650214553067544e-20
1.250198437210265649e-20
1.045478339308564184e-20
8.552293273990940327e-21
7.214942753953587105e-21
6.237918210503086028e-21
4.897005628845792217e-21
3.388411975939632280e-21
2.686906692790964569e-21
1.919020341799565374e-21
1.385026421682859438e-21
9.457005219837826988e-22
6.716108580372034687e-22
4.654084820158521752e-22
3.218025292399253894e-22
2.241812487991653884e-22
1.576352596893109711e-22
1.126830099056498097e-22
8.212752781385547533e-23
6.103251633826093763e-23
4.618669738774394167e-23
3.541470775040494299e-23
2.733224936837216614e-23
2.107312800365367413e-23
