# bin_10_2
2.549935421109995214e-20
2.858636891009640923e-20
3.146166755757485062e-20
3.383907499692608032e-20
3.535521656005504258e-20
3.566343289458558044e-20
3.433544938946584312e-20
3.120565110351122053e-20
2.681614934369688981e-20
2.204931790742994123e-20
1.819409068667475171e-20
1.566498993700361295e-20
1.316002599794221962e-20
9.548728580176514693e-21
6.903189276076514747e-21
5.516373183183696885e-21
3.691966643055740622e-21
2.764930768435291985e-21
1.925589898456102276e-21
1.338626701211905264e-21
9.398338193897844194e-22
6.624613913104445741e-22
4.723284853977041949e-22
3.418032464184792798e-22
2.523113805727665384e-22
1.897232210591770610e-22
1.449326007039381682e-22
1.119254960555554196e-22
8.676936669376441552e-23
6.703974638503251436e-23
5.127531178419459782e-23
