# bin_2_1
5.157241855227051670e-06
5.248657240775765432e-06
5.125394993337001407e-06
4.745040212704264762e-06
4.156579520253387762e-06
3.467711367895701451e-06
2.850591519063090523e-06
2.409646052938080049e-06
2.047193472928338897e-06
1.584582162618759394e-06
1.138216438448175383e-06
8.872563946501748280e-07
6.488356244010424528e-07
4.753845834142557707e-07
3.463533760694044953e-07
2.549761629758235905e-07
1.891152891997571556e-07
1.425451901261563042e-07
1.094323247297995449e-07
8.545002120099153246e-08
6.762610248780819234e-08
5.390547792308827560e-08
4.295994437165289531e-08
3.398633781050634774e-08
2.651418702359306557e-08
2.028155627155626809e-08
1.514435270368391975e-08
1.100917102315401231e-08
7.785124534012662470e-09
5.362184807200941067e-09
3.606635749748583578e-09
