# bin_8_8
4.421565581226705534e-06
4.981956566084614463e-06
5.516615865115574361e-06
5.978336417497361093e-06
6.305637109057190888e-06
6.429257160468015384e-06
6.288046975462767577e-06
5.812775377935893056e-06
5.080687212703876015e-06
4.214258263249796307e-06
3.453331603053119565e-06
2.940296213626661826e-06
2.524626880231633051e-06
1.918571545735966334e-06
1.336293392032689099e-06
1.080214494474273764e-06
7.380039454761774461e-07
5.511173713696912555e-07
3.744884969083850894e-07
2.624999305741280759e-07
1.834466823621026668e-07
1.281548899602224822e-07
9.011690659729526388e-08
6.408083565679045925e-08
4.642730381173287240e-08
3.429869791559012738e-08
2.580955683336675712e-08
1.972532456546654005e-08
1.521795114501315092e-08
1.176752625285944617e-08
9.053516210004270579e-09
