# bin_3_8
2.749974784677113946e-07
2.926532121512855056e-07
3.021132910746797949e-07
3.003681474679586353e-07
2.844909595151963152e-07
2.550484793579484860e-07
2.170685370684779661e-07
1.790960534303204889e-07
1.493568199888375756e-07
1.271970794113707287e-07
1.030951371288606493e-07
7.570108518721117039e-08
5.655096557126425861e-08
4.301590494851676076e-08
3.079213211223039422e-08
2.253064608582276593e-08
1.625305545284387209e-08
1.181827050405315246e-08
8.678981760465723500e-09
6.468119103110217628e-09
4.903602397816240953e-09
3.779158390213869688e-09
2.952284263678834507e-09
2.323806237723442062e-09
1.830565924742898370e-09
1.433386433422282116e-09
1.108497789515177166e-09
8.420626888221788441e-10
6.256731029077224813e-10
4.534287294596599121e-10
3.201424516117772932e-10
