# bin_6_1
5.662582310798773280e-14
6.154161050898437398e-14
6.518926029556668544e-14
6.686370189593769240e-14
6.593458149905386068e-14
6.166100692590546425e-14
5.451194054640502078e-14
4.570539875656059501e-14
3.746900514796518803e-14
3.153839111775696858e-14
2.708436282641783791e-14
2.134568722580783899e-14
1.509525415735439338e-14
1.174858026822184327e-14
8.619627873602913523e-15
6.206421209867908556e-15
4.446425245289956891e-15
3.210895177669123744e-15
2.309946823477105773e-15
1.679112338089717463e-15
1.239127224340531204e-15
9.300286273755612335e-16
7.104804452928661677e-16
5.509057539028544100e-16
4.311027251208373649e-16
3.382862157644568144e-16
2.643317065578974268e-16
2.043138984705338699e-16
1.553389950968268181e-16
1.156439668582555322e-16
8.402305003004331218e-17
