# bin_5_1
1.954839882573947313e-12
2.098147768926379328e-12
2.188116217664572034e-12
2.203226598185739825e-12
2.118749656270468719e-12
1.926725693688310773e-12
1.657976992500960154e-12
1.367887945972785126e-12
1.130462683337720405e-12
9.672422727798025315e-13
8.075465412295963763e-13
5.965825240464690756e-13
4.350159766473320551e-13
3.412681550786727362e-13
2.395724091516262829e-13
1.775203355492982941e-13
1.268830713401160734e-13
9.180075501901197114e-14
6.698187921782477111e-14
4.950917928602225696e-14
3.722102296001254305e-14
2.846449821237001790e-14
2.211393880376675480e-14
1.735723223103928896e-14
1.367382838097244488e-14
1.073794675225563956e-14
8.348473437701053353e-15
6.388285105211229746e-15
4.787891604742222632e-15
3.501957987586357964e-15
2.494832782094414508e-15
