# bin_9_12
4.985426934307602506e-08
5.635483569912684100e-08
6.264784616926002969e-08
6.821934369474197911e-08
7.238852932831147844e-08
7.433964839026607245e-08
7.342462330371212659e-08
6.869203301334968051e-08
6.072928089103121075e-08
5.082094822390776529e-08
4.158960931533478379e-08
3.507085088664240685e-08
3.029567751049260429e-08
2.381061771032492746e-08
1.652586373500952585e-08
1.304868583433967919e-08
9.355208081261538660e-09
6.724648076889464714e-09
4.621150563263918547e-09
3.273403703134468818e-09
2.267195287087572022e-09
1.567232410031498167e-09
1.091183908526290053e-09
7.669451466271089397e-10
5.478961683218619225e-10
3.990516739134857529e-10
2.963233937659002339e-10
2.240649226331275151e-10
1.716793901702218458e-10
1.324148849381560036e-10
1.020444088939687414e-10
