# bin_9_3
3.491474066874620943e-14
3.896676435047630845e-14
4.265244174502898097e-14
4.556588500100005265e-14
4.720327164110363026e-14
4.713894887387898993e-14
4.476161964745360144e-14
4.014349488951543760e-14
3.404944859378644772e-14
2.790658942966593776e-14
2.324709999543557529e-14
2.007837601540004182e-14
1.638915126783493323e-14
1.160302297696759423e-14
8.754995636586197006e-15
6.694512162218551781e-15
4.619912882357973915e-15
3.343501336216204758e-15
2.374702856944788247e-15
1.662910124409219715e-15
1.172102631935391517e-15
8.340258996043317402e-16
6.016583661560231946e-16
4.414531838172705804e-16
3.302488447493593198e-16
2.512277137247300828e-16
1.935921133675965407e-16
1.501979127265824335e-16
1.164866746579636206e-16
8.968185396722331139e-17
6.812993696102535195e-17
