# bin_7_2
2.074676836929833495e-13
2.282551704582089631e-13
2.454864896033911911e-13
2.565517265708306634e-13
2.589100405361706549e-13
2.496062447754178858e-13
2.273835164140839535e-13
1.959110827701254863e-13
1.614942198692971067e-13
1.332347547769016160e-13
1.142403312394023444e-13
9.595433948465805840e-14
7.059085234990527833e-14
5.102829148534735642e-14
4.046649448606660241e-14
2.782667855048166885e-14
2.071232691944124826e-14
1.458384836829158209e-14
1.037785726284765049e-14
7.439615731443109761e-15
5.381665912454078127e-15
3.950987630088265219e-15
2.949558901711207676e-15
2.243000097962420741e-15
1.730831226364390097e-15
1.348126601561226037e-15
1.053169039236864528e-15
8.192932828518499572e-16
6.305798778909345224e-16
4.775113047203305711e-16
3.542292178524714658e-16
