# bin_10_2
1.414003538934156650e-17
1.583690724863676129e-17
1.740978072195306832e-17
1.869882373991000351e-17
1.950183955802380462e-17
1.963114199269724784e-17
1.884798780357844466e-17
1.708770494221707986e-17
1.464899122364236493e-17
1.204187598359978208e-17
9.957463206845485329e-18
8.574669202324351002e-18
7.158701410921535700e-18
5.176725984848979511e-18
3.777255720132883681e-18
2.983703437583714703e-18
2.018120829843819616e-18
1.495335093575747259e-18
1.045713603152301789e-18
7.290598761042068746e-19
5.120918572341180317e-19
3.616532381695640054e-19
2.584312021367258183e-19
1.874947113502321631e-19
1.387418823056244270e-19
1.045417000059539494e-19
7.997760330271682977e-20
6.180248957252099174e-20
4.790158323703333602e-20
3.697342010885000032e-20
2.823461381444350595e-20
