# bin_1_11
7.370885596450413232e-07
7.244784451494858140e-07
6.786094213585795701e-07
6.031168398174710590e-07
5.116535408381176434e-07
4.238625981464028548e-07
3.542364665648385403e-07
2.977510765441249275e-07
2.380048581316673877e-07
1.772294717074871738e-07
1.327106498194758423e-07
1.003327523246698756e-07
7.317875715278096222e-08
5.394599440183181164e-08
3.973159504690592643e-08
2.961494423414113821e-08
2.239982288676576552e-08
1.724386228650402176e-08
1.349910297620010172e-08
1.070447597359767098e-08
8.548098679654546416e-09
6.824656829946638608e-09
5.408830591437472573e-09
4.228040433431894466e-09
3.241967396987579975e-09
2.428311103851897012e-09
1.772283615900818588e-09
1.259365136254742315e-09
8.720801596662952205e-10
5.898035481609061465e-10
3.907340477143164396e-10
