# bin_10_1
4.318953925138772683e-20
4.833857011770215165e-20
5.309401887674390564e-20
5.696484316922513688e-20
5.933192297417057627e-20
5.963254561204569605e-20
5.712901101990507840e-20
5.168187497991062699e-20
4.421117725739466781e-20
3.631795936786839132e-20
3.007297211506314599e-20
2.591660757415076813e-20
2.154649458983764963e-20
1.550968173635348737e-20
1.139085493432789095e-20
8.945995105077411827e-21
6.069609343146771660e-21
4.478398298552984577e-21
3.142215169528186124e-21
2.192147433721649598e-21
1.540637971847589097e-21
1.089576292869158066e-21
7.800463713000248664e-22
5.672064121543096780e-22
4.206513136279550424e-22
3.175853184911960815e-22
2.433349173466167657e-22
1.882037600054484823e-22
1.459014485099901774e-22
1.125647772152060769e-22
8.587367026429455958e-23
