# bin_8_7
5.844153233547864132e-09
6.539738802067027189e-09
7.181571036322545379e-09
7.703122315481397034e-09
8.020638867358381195e-09
8.058107533519872667e-09
7.715952970954050071e-09
6.977053106489265581e-09
5.966078059469740191e-09
4.900753609902804841e-09
4.059524390201440370e-09
3.498312266786323155e-09
2.905146966685163846e-09
2.090376040804681829e-09
1.537198026714340936e-09
1.205213272423677148e-09
8.188404203478905005e-10
6.035217259416556184e-10
4.235598559177457317e-10
2.955871283547751864e-10
2.077934838369774438e-10
1.470105698794965070e-10
1.052882985098489576e-10
7.659424368550463669e-11
5.682789939825658910e-11
4.291957995083155920e-11
3.289331780528323951e-11
2.544354031053792216e-11
1.972388150976549622e-11
1.521468795874998932e-11
1.160391583049843282e-11
