# bin_10_3
1.922906765725422399e-15
2.155840741875836495e-15
2.372865797449072528e-15
2.552435331382114450e-15
2.667168292096184688e-15
2.690805697001880902e-15
2.591610984906280702e-15
2.357054302029507111e-15
2.027101229939857954e-15
1.668289658471144375e-15
1.376935816582358153e-15
1.184057484231349332e-15
9.941464554550518885e-16
7.242342736063839832e-16
5.236145723161703702e-16
4.165649997204163016e-16
2.810056354271365781e-16
2.092360199546540325e-16
1.455861480380771607e-16
1.014542029084348754e-16
7.120905186332024926e-17
5.019128260821230175e-17
3.576823574278661848e-17
2.586413683880511460e-17
1.907518783081918128e-17
1.432991011838807005e-17
1.093657889445956317e-17
8.438856814437021201e-18
6.537871534970188269e-18
5.049105413844959118e-18
3.861083586197681501e-18
