# bin_4_1
5.683970108413204533e-11
6.000172120068919453e-11
6.132136872476905074e-11
6.019117205030557605e-11
5.604975905961105468e-11
4.936906846370289641e-11
4.134747911508497630e-11
3.397258295670303215e-11
2.863290210856967243e-11
2.441474133775242922e-11
1.910998328119761196e-11
1.369429068022499074e-11
1.060035022710959681e-11
7.805046943265133020e-12
5.655271632536923726e-12
4.103301316677298085e-12
2.987707737630519150e-12
2.184505637947299789e-12
1.619185885927362987e-12
1.220629626542510902e-12
9.363014665414883476e-13
7.295876143273320010e-13
5.747984076359887996e-13
4.547529052882001023e-13
3.587840285516856142e-13
2.803655703059569866e-13
2.156637708414701548e-13
1.624824662091901128e-13
1.194498698438296702e-13
8.550620231958495395e-14
5.959094966616308407e-14
