# bin_9_4
1.477321007242974573e-12
1.651419773022115146e-12
1.811169751503770635e-12
1.939604985813383968e-12
2.015461512222668355e-12
2.020107759702503323e-12
1.927833084240700017e-12
1.737318998285165067e-12
1.480503892253673316e-12
1.214704013939993167e-12
1.008340873663259796e-12
8.701447558070534508e-13
7.179630266462967510e-13
5.125493077451492282e-13
3.808978605011422337e-13
2.960229299831713375e-13
2.019807402790127126e-13
1.479015272110606716e-13
1.043901624173462370e-13
7.291327844335816044e-14
5.129846404158737609e-14
3.637287897275098959e-14
2.612766278663894228e-14
1.907522823701094614e-14
1.420244561749069052e-14
1.076005435612559899e-14
8.266596048179641718e-15
6.403607258504532359e-15
4.965981445623850158e-15
3.828239379202617202e-15
2.915342835772965397e-15
