# bin_3_6
2.101876228702803301e-07
2.233319745806204283e-07
2.301059945626543811e-07
2.282219510707938206e-07
2.154892412098664736e-07
1.925635223490971278e-07
1.634255170883627338e-07
1.347213230998949493e-07
1.125250968781225778e-07
9.584184343075908686e-08
7.726538106760121284e-08
5.648573990053789421e-08
4.238869766109136407e-08
3.213807836315644725e-08
2.299985674307527800e-08
1.683313158537661625e-08
1.215354062055065213e-08
8.845769837761391863e-09
6.507281873394851130e-09
4.859645451702066036e-09
3.692117355441072317e-09
2.851240173178040633e-09
2.230954623571205407e-09
1.757767181507205247e-09
1.385132393024463952e-09
1.084244514311341455e-09
8.377094306780292356e-10
6.354345784388825841e-10
4.712572908786830578e-10
3.407820426678998650e-10
2.400552747952898999e-10
