# bin_3_2
1.209806642542904729e-08
1.261635636504917205e-08
1.270609908662950874e-08
1.223477367096331918e-08
1.115665295133548439e-08
9.636165669440800856e-09
7.984337412961636222e-09
6.601491602032677461e-09
5.614984191462526701e-09
4.681168854384649428e-09
3.518996149978787326e-09
2.569786498438390325e-09
1.993757174896498073e-09
1.434157753772486890e-09
1.054973681324788049e-09
7.638929201933434552e-10
5.591879798503663428e-10
4.129436583060766817e-10
3.096195260077930338e-10
2.362923384605903578e-10
1.833447330586160819e-10
1.441905054671805683e-10
1.142302368183415640e-10
9.051601129840418370e-11
7.124493055247214129e-11
5.533887497844966031e-11
4.218205340647178308e-11
3.141758924938377225e-11
2.279970756363613601e-11
1.610600035955195176e-11
1.108469934695478854e-11
