# bin_8_9
2.864713320271142638e-08
3.214258312493854568e-08
3.541213150356774276e-08
3.813728282084411445e-08
3.991193557766289379e-08
4.033530023268049973e-08
3.894913607370619044e-08
3.552717794887924049e-08
3.064474501558760543e-08
2.526307759416341117e-08
2.082866588211733633e-08
1.787267730330204413e-08
1.505724712269426403e-08
1.106616080582908513e-08
7.951290687579368149e-09
6.331105436548853202e-09
4.293240273887424745e-09
3.191246373600297700e-09
2.211697596457818833e-09
1.544011388004642578e-09
1.082734139410519951e-09
7.618485402901154231e-10
5.415816382523176756e-10
3.904199179113065916e-10
2.869987622138140265e-10
2.149395744737728748e-10
1.636101445231745186e-10
1.260099697729803408e-10
9.753260183946443247e-11
7.532345807390967086e-11
5.764992848415581101e-11
