# bin_13_13
9.108599784531316749e-08
8.770797214524415204e-08
8.248725216546808839e-08
7.561130827340833226e-08
6.745072586542931964e-08
5.853648316093772307e-08
4.949089088487875746e-08
4.091375086682301643e-08
3.323611282158812046e-08
2.662654082824112071e-08
2.102013331516065570e-08
1.626559201833972296e-08
1.230586446356452470e-08
9.185141009361448969e-09
6.853307169160517756e-09
5.100956611745791697e-09
3.784063178031377103e-09
2.826228710767949427e-09
2.120997176867673678e-09
1.603825356212329058e-09
1.220220572183141195e-09
9.323089880329908779e-10
7.132270112946654014e-10
5.444222410823504443e-10
4.131954578791001417e-10
3.107693053711097313e-10
2.309775942274553402e-10
1.692701400284066270e-10
1.221090123470880907e-10
8.661887135849667326e-11
6.038992080086594550e-11
