# bin_4_2
2.854406284643365220e-08
2.488776989352898793e-08
2.113937348874558226e-08
1.754650714473885580e-08
1.430156837272109318e-08
1.149599722290349621e-08
9.119332762033196373e-09
7.109981863019092915e-09
5.432796064117776145e-09
4.099378885628854403e-09
3.096634062336895430e-09
2.345961732853049006e-09
1.780137007205330942e-09
1.363263645966832801e-09
1.053626491672272671e-09
8.216281218712726786e-10
6.449373382484129872e-10
5.077633350500626047e-10
3.992232485984157554e-10
3.120616976933101644e-10
2.415031979540605512e-10
1.843630497969514194e-10
1.384209290829225156e-10
1.019851774256429895e-10
7.362783086359179420e-11
5.205085051853635535e-11
3.603785862432536282e-11
2.445843257561147983e-11
1.629723218525453590e-11
1.068291333562568555e-11
6.904438883420218977e-12
