# bin_15_11
8.940790422421913516e-08
8.593389501087169107e-08
8.065322343710498902e-08
7.376408737020675696e-08
6.564530560243459239e-08
5.683101292902625105e-08
4.793892904321939674e-08
3.955516418373680386e-08
3.208645474329617308e-08
2.567622696898029093e-08
2.024189822132308914e-08
1.563190354173549504e-08
1.180290862876667705e-08
8.805715089784322492e-09
6.575013547451120200e-09
4.892883099318055262e-09
3.633090764279772506e-09
2.717579587310493450e-09
2.042866184664531383e-09
1.547479127689953143e-09
1.179468088596674270e-09
9.025569073591807314e-10
6.912697765468403217e-10
5.280446537558171923e-10
4.008669720216916397e-10
3.014335380006498797e-10
2.238956088563715787e-10
1.639105239056545691e-10
1.180791908414943836e-10
8.361946101124964036e-11
5.818653940139971302e-11
