# bin_13_6
6.815585121863736903e-08
6.387825096485195286e-08
5.833254358793195472e-08
5.182267896096552604e-08
4.477808668415272016e-08
3.769672884938128917e-08
3.105123856730784808e-08
2.516118586264938155e-08
2.012824773730223368e-08
1.586625388316015895e-08
1.224429481949770086e-08
9.241237740333850604e-09
6.913583468680186157e-09
5.190349998516439547e-09
3.881937959535375492e-09
2.908112545514844519e-09
2.197159898635111312e-09
1.671578276546918528e-09
1.282048917907518717e-09
9.894969475322239005e-10
7.661940151611922888e-10
5.930094737291230576e-10
4.569463956625687522e-10
3.492051428773277930e-10
2.637594034171737303e-10
1.963463720737263482e-10
1.437388253121501231e-10
1.033234200026151008e-10
7.286605130009633548e-11
5.040490275809789443e-11
3.421642004313485222e-11
