# bin_14_8
7.871990279766915881e-08
7.477851927766152905e-08
6.928898760344677090e-08
6.250744555610895123e-08
5.484680183288119141e-08
4.683470699522264624e-08
3.903054665770806184e-08
3.190049069694755500e-08
2.569439632892519966e-08
2.042488840682190418e-08
1.595412891415168536e-08
1.217839020897195023e-08
9.126541938131708527e-09
6.821732283161165836e-09
5.105416598628546628e-09
3.800287063227894133e-09
2.846622074530938630e-09
2.144660270308341167e-09
1.628798674459004018e-09
1.245547806966148706e-09
9.574773181501978544e-10
7.376001759667900579e-10
5.673416825609752321e-10
4.340815794491553266e-10
3.291767820805129120e-10
2.466391800153003138e-10
1.821286348766705397e-10
1.322957250278454122e-10
9.440802124289349764e-11
6.614329756498932947e-11
4.549438394858660857e-11
