# bin_9_7
6.742297826339796496e-08
6.322342067138896397e-08
5.778336288487375201e-08
5.139778769150318906e-08
4.448145651836427119e-08
3.751352261475137422e-08
3.094891210114434300e-08
2.510415790925371257e-08
2.009180211694983764e-08
1.584836288058822392e-08
1.225472267325243379e-08
9.273921174602286728e-09
6.942004057310755289e-09
5.206677026026239081e-09
3.898751602270792035e-09
2.918184524140271633e-09
2.203109542605726746e-09
1.673732843005329357e-09
1.281988867671618891e-09
9.879616474154961761e-10
7.639310448145519691e-10
5.905644375048237490e-10
4.546641207470257356e-10
3.472852952610548167e-10
2.622804137620794794e-10
1.953026770844406401e-10
1.430753095485339778e-10
1.029594928941634528e-10
7.271579352273503358e-11
5.039050186825692026e-11
3.427575630482060791e-11
