# bin_12_12
8.724480297103926668e-08
8.369423850588988311e-08
7.839196729852898430e-08
7.154615533189522656e-08
6.353988127397273100e-08
5.490275257003333345e-08
4.623739486187790663e-08
3.810405743408044016e-08
3.088000191550131324e-08
2.468707917908266371e-08
1.943727488065609076e-08
1.498956151044300774e-08
1.130986454695384026e-08
8.440448645668875416e-09
6.303837161980067503e-09
4.692268186810230642e-09
3.488088694530506114e-09
2.611742622706270687e-09
1.965912317054558610e-09
1.491007560815810489e-09
1.137634311564024519e-09
8.712304982836526034e-10
6.675702597422877666e-10
5.099751663400690919e-10
3.870318919568895051e-10
2.908452087624402965e-10
2.158317746653942395e-10
1.578244881210511200e-10
1.135433946563553284e-10
8.029071649098879599e-11
5.578578337067451924e-11
