# bin_12_8
7.629061043310825432e-08
7.229659843539199436e-08
6.682084210644628226e-08
6.012747613432657357e-08
5.262934729525893243e-08
4.484319494576745085e-08
3.730555651500967123e-08
3.045065699149905063e-08
2.449944081484927316e-08
1.944908991118251394e-08
1.516615298773276337e-08
1.156055510589722094e-08
8.661906416180321158e-09
6.477966856976063621e-09
4.848802990377595881e-09
3.612593358944696528e-09
2.709654232984925980e-09
2.044348005919171764e-09
1.554886504141073888e-09
1.190604325279688312e-09
9.161602695754173231e-10
7.061909069426519880e-10
5.432605466796006683e-10
4.155278075373841851e-10
3.148776882199299144e-10
2.356693990959566161e-10
1.737880055798854626e-10
1.260347948161299625e-10
8.978229615998234600e-11
6.278711432097522137e-11
4.310638497167329120e-11
