# bin_13_12
8.910854463816062543e-08
8.563834638890787213e-08
8.037167778564220243e-08
7.350692298500219275e-08
6.542153642593847113e-08
5.664639011028767514e-08
4.779431002089638610e-08
3.944534866987122053e-08
3.200283582694019659e-08
2.561056604818794339e-08
2.019054676719670664e-08
1.559585214900050229e-08
1.178166471477077713e-08
8.792455766088142559e-09
6.563816938632317863e-09
4.885535489725430667e-09
3.627915168408237953e-09
2.713240954775774337e-09
2.039345031127888043e-09
1.544518198349146851e-09
1.176893098403221311e-09
9.003327088605636771e-10
6.893749475261597254e-10
5.264607502545359763e-10
3.995741268827963725e-10
3.004070002814557254e-10
2.231042390674397849e-10
1.633199030163625762e-10
1.176534705102613296e-10
8.332381352418841280e-11
5.798919145465314464e-11
