# bin_15_6
6.962784773813106676e-08
6.535530048765417392e-08
5.977169850645078354e-08
5.317924206770668560e-08
4.601155799809874197e-08
3.877776966109351945e-08
3.196820054015453473e-08
2.592098390440932675e-08
2.075021376341219596e-08
1.637106804973822795e-08
1.264513689966645666e-08
9.547124175308940893e-09
7.140517844000225965e-09
5.359801558601687530e-09
4.007493188970478733e-09
2.999859263193298527e-09
2.264894883373837123e-09
1.721696161885503629e-09
1.319543371026725832e-09
1.017876915542279151e-09
7.879173539488463907e-10
6.097855430929985084e-10
4.699663446219470630e-10
3.593122292842584319e-10
2.715668044068184523e-10
2.023199516382148300e-10
1.482477004675091137e-10
1.066699953996422789e-10
7.530280332793444553e-11
5.214297859415537527e-11
3.543017494160146066e-11
