# bin_5_5
4.834837014003657172e-08
4.406457420448586442e-08
3.909419173263531499e-08
3.375733813066132152e-08
2.841751026874898526e-08
2.341283269337928994e-08
1.897219426582776614e-08
1.517110709562164043e-08
1.195724654531007533e-08
9.243402652215377209e-09
7.003867387279929347e-09
5.259219661723877997e-09
3.960719947834539521e-09
2.982236419869910141e-09
2.249519696231495628e-09
1.712950547011366807e-09
1.314072026685433662e-09
1.016450734543999324e-09
7.907252552676030356e-10
6.165851673249367027e-10
4.800084872626362980e-10
3.715336360247965619e-10
2.848108566018660743e-10
2.154968388728436474e-10
1.604932681127845571e-10
1.174097648864504600e-10
8.425313690307963666e-11
5.926765240493700928e-11
4.087110984891202750e-11
2.765007031716010870e-11
1.837486502270836073e-11
