# bin_6_2
-1.629543521139934609e-09
-1.685619049561854965e-09
-1.680652883446110108e-09
-1.597885956605306957e-09
-1.438369731268876349e-09
-1.228562054434598578e-09
-1.014638218870901415e-09
-8.443799613908197879e-10
-7.190679025324640399e-10
-5.871005717473632351e-10
-4.338307296816463427e-10
-3.226815583393020412e-10
-2.472083264519987271e-10
-1.777595008021492589e-10
-1.308748908878626872e-10
-9.511599507792272577e-11
-6.989045186435276421e-11
-5.194915728109407019e-11
-3.924557287278358692e-11
-3.017743074114146212e-11
-2.357219094769882765e-11
-1.862723512094697385e-11
-1.479159874686487742e-11
-1.171917432837559656e-11
-9.200646014834577227e-12
-7.113094508234355714e-12
-5.387226614890702948e-12
-3.981930068001244851e-12
-2.866064485359861787e-12
-2.008367199391209865e-12
-1.372079616714468787e-12
