# bin_2_7
-2.219302898524455955e-19
-2.444146356076206843e-19
-2.631900175324960122e-19
-2.754691364026909698e-19
-2.784899477877079195e-19
-2.690814000525774316e-19
-2.455752212243034731e-19
-2.119545433023988956e-19
-1.747055439612237880e-19
-1.439036227380523823e-19
-1.234771729210377991e-19
-1.042792421737567750e-19
-7.674997926475538836e-20
-5.506147886853185578e-20
-4.419181911513648772e-20
-3.000984711232190581e-20
-2.260040298326568796e-20
-1.584685922170716293e-20
-1.124290387076271313e-20
-8.062691350014045996e-21
-5.829263463057708607e-21
-4.275642215232788983e-21
-3.188638348842923405e-21
-2.423159305517184656e-21
-1.869169111278213784e-21
-1.455908460734483582e-21
-1.137861827549247630e-21
-8.858548779382678027e-22
-6.825095277436191925e-22
-5.174573118937322843e-22
-3.843646982045089149e-22
