# bin_10_10
-2.795514206689257094e-11
-3.166553647576792893e-11
-3.529008360603632293e-11
-3.854680279673031144e-11
-4.105876559684936904e-11
-4.236104043151786501e-11
-4.209258637803895616e-11
-3.967600287220418064e-11
-3.532786994543634335e-11
-2.974349968551984115e-11
-2.434364131625592647e-11
-2.041307178432212254e-11
-1.767425341821336849e-11
-1.416483149622726153e-11
-9.852534481577189702e-12
-7.643767007330042154e-12
-5.647249918006806843e-12
-3.960201506121235978e-12
-2.759294017619965206e-12
-1.960025990213338793e-12
-1.350396254115024868e-12
-9.279242299282222975e-13
-6.422104205188438361e-13
-4.483461383575563213e-13
-3.175660108034474637e-13
-2.292413602805414533e-13
-1.687655805749622527e-13
-1.266875979497397448e-13
-9.658456773590479420e-14
-7.432811815972631739e-14
-5.731196040138652526e-14
