# bin_14_13
-3.763054771957202359e-11
-4.298707128992108622e-11
-4.842838714917132878e-11
-5.359884343890462963e-11
-5.803219405475901285e-11
-6.112414506992036201e-11
-6.221015884718422922e-11
-6.067121181408140956e-11
-5.588900947073425994e-11
-4.868037416845154763e-11
-4.028538414586463666e-11
-3.304839863146974190e-11
-2.823275640430067729e-11
-2.416675805693557339e-11
-1.814760531949219829e-11
-1.268196633295996088e-11
-1.028063018816989482e-11
-6.892957985906510255e-12
-5.166256452626063994e-12
-3.476456679071094200e-12
-2.381470482688541023e-12
-1.629243774213491582e-12
-1.105564386522438210e-12
-7.482543657943322757e-13
-5.076909885905692732e-13
-3.487915135696973926e-13
-2.434014560539305132e-13
-1.732411102548478809e-13
-1.261016977320393466e-13
-9.378331951256306203e-14
-7.097778078814839323e-14
