# bin_9_10
-8.470808296372529235e-12
-9.585482944760008883e-12
-1.066942986936700669e-11
-1.163633272825770858e-11
-1.237114633573326960e-11
-1.273342958293060942e-11
-1.261502245873828258e-11
-1.184499231178689814e-11
-1.050876351583854069e-11
-8.818475571204276250e-12
-7.216143741033435397e-12
-6.069954392392031475e-12
-5.252816036363275682e-12
-4.167352035827239231e-12
-2.889660803524655854e-12
-2.267769441784889901e-12
-1.647520370807207314e-12
-1.172087465106510185e-12
-8.076259571407576529e-13
-5.743089477491068569e-13
-3.968222710678841903e-13
-2.734665818409408694e-13
-1.899102093175440824e-13
-1.330731137849408559e-13
-9.470395727420993491e-14
-6.870567971367253393e-14
-5.082923203018169423e-14
-3.831904004549921597e-14
-2.930402909646365251e-14
-2.258762820264421374e-14
-1.741776579559210853e-14
