# bin_4_9
-8.553716129138876036e-18
-9.571880374522391747e-18
-1.051131601870226692e-17
-1.127447401820211024e-17
-1.173827277370265015e-17
-1.179327637307334518e-17
-1.128813870307992462e-17
-1.020045615161814969e-17
-8.714671805615823044e-18
-7.152657876396792286e-18
-5.925790544348393937e-18
-5.116322012451922415e-18
-4.250599429194264683e-18
-3.040335275632947775e-18
-2.241528784632427208e-18
-1.762977029980355406e-18
-1.189601997164560421e-18
-8.796205360613150125e-19
-6.197183257042489610e-19
-4.317477159017830261e-19
-3.033640137051624724e-19
-2.146295968876798255e-19
-1.538603744657224962e-19
-1.120706926488672746e-19
-8.326520284968544965e-20
-6.297338230206442249e-20
-4.832564702340120107e-20
-3.742163273432619396e-20
-2.903236995529692857e-20
-2.240501275365179309e-20
-1.708923747077907899e-20
