# bin_5_6
-1.269173216963714830e-11
-1.401990168067106730e-11
-1.515340206140291578e-11
-1.593519827381212018e-11
-1.619701214509530556e-11
-1.577258581636459625e-11
-1.451834990007961388e-11
-1.263790927590100022e-11
-1.046554880266688814e-11
-8.592978814210320039e-12
-7.331491262391858874e-12
-6.254914080623051001e-12
-4.711253681970053906e-12
-3.324356871007172523e-12
-2.674812250077999008e-12
-1.840158572502937310e-12
-1.378049109328975720e-12
-9.577299512858734374e-13
-6.822225310297411921e-13
-4.875864093468411166e-13
-3.507077347624087391e-13
-2.556242225912191488e-13
-1.892968901667818846e-13
-1.428856691546989819e-13
-1.096151097173796385e-13
-8.505734373196334491e-14
-6.636512908517651655e-14
-5.169075897915458488e-14
-3.991991209389373882e-14
-3.038656263210658599e-14
-2.269105140570954719e-14
