# bin_4_10
-8.439815451214942315e-20
-9.482064573368230488e-20
-1.046320609602151831e-19
-1.129034213187660891e-19
-1.184442154766252747e-19
-1.200314256939672751e-19
-1.163419132502785495e-19
-1.064853676626520048e-19
-9.216739625623887625e-20
-7.603960935285080845e-20
-6.254532166395734108e-20
-5.364712321691000907e-20
-4.554602078600938083e-20
-3.365042262590647374e-20
-2.388601178994530747e-20
-1.930047690172825868e-20
-1.291985010085049750e-20
-9.741686790121906370e-21
-6.704721129056206014e-21
-4.662294052490814711e-21
-3.271294727512403426e-21
-2.298740776395117887e-21
-1.629963412550736712e-21
-1.171279237952257080e-21
-8.584425303050097376e-22
-6.412270364472179740e-22
-4.871679718111217453e-22
-3.748854815119495810e-22
-2.902296796075411936e-22
-2.244155320490755044e-22
-1.721016665400508343e-22
