# bin_10_4
-9.028102677395597878e-10
-9.819999922403916788e-10
-1.041283129020078038e-09
-1.069418350394270992e-09
-1.056267708776276082e-09
-9.899560152446021598e-10
-8.771337293684313891e-10
-7.370165656788941212e-10
-6.045849971121500815e-10
-5.082398204887865238e-10
-4.364501146871325537e-10
-3.456519074615952539e-10
-2.451436082128188453e-10
-1.897089354966682129e-10
-1.401566578011556879e-10
-1.004310260341866576e-10
-7.223524488113586732e-11
-5.208207818563046430e-11
-3.742964392029181789e-11
-2.718248628382257421e-11
-2.003360618268985479e-11
-1.501546407517029242e-11
-1.145454222451245685e-11
-8.871587764297278574e-12
-6.936823516588611929e-12
-5.441281089446494352e-12
-4.252032738258497129e-12
-3.288151443010048274e-12
-2.502052867409965859e-12
-1.864803518483184273e-12
-1.356783352734537245e-12
