# bin_7_5
-3.316687544606727497e-10
-3.648901590430036863e-10
-3.924197209040246772e-10
-4.100827995635233719e-10
-4.138252283161580644e-10
-3.988975462861307232e-10
-3.633474456659479467e-10
-3.130393474699566713e-10
-2.580829966318735503e-10
-2.130085776404688318e-10
-1.826998904688452742e-10
-1.533957136918159774e-10
-1.127706212503537654e-10
-8.158576962651389179e-11
-6.470171064586231065e-11
-4.447265904386309969e-11
-3.312109698556402879e-11
-2.332239747922146962e-11
-1.659674890173409702e-11
-1.190191445260949540e-11
-8.612938687175181665e-12
-6.325637555522003611e-12
-4.724186725932325462e-12
-3.593865088971159606e-12
-2.774095905690720007e-12
-2.161207553659020148e-12
-1.688574616632399036e-12
-1.313634783473751344e-12
-1.010993948426398517e-12
-7.654731778321961231e-13
-5.677246633077446892e-13
