# bin_5_8
-5.311540053776423876e-14
-5.930548605319571214e-14
-6.494868926273198587e-14
-6.942850090784611374e-14
-7.197420590401800154e-14
-7.194704917472718115e-14
-6.838419238660748687e-14
-6.137886431261361335e-14
-5.208501666533448556e-14
-4.267705456089987681e-14
-3.553227258162623888e-14
-3.073048857881429393e-14
-2.515350744800120952e-14
-1.775413603718125180e-14
-1.339463736251198866e-14
-1.028780617617142149e-14
-7.061772082331108418e-15
-5.118585560706168783e-15
-3.647149454224822094e-15
-2.551185634735166322e-15
-1.795793832792078944e-15
-1.276951923471778838e-15
-9.209514840823887465e-16
-6.755907564088677716e-16
-5.053582118356936428e-16
-3.844540044480297687e-16
-2.963249313475677472e-16
-2.299979066964600422e-16
-1.784723577273548045e-16
-1.374874663799831054e-16
-1.045119925750374427e-16
