# bin_7_3
4.097011357499156274e-08
3.672547398336043333e-08
3.202656559356759211e-08
2.719514892712987219e-08
2.256073633715900747e-08
1.837949514487346892e-08
1.477115313442307277e-08
1.171600450077789415e-08
9.125916737755001432e-09
6.955596429762830226e-09
5.231927454315957286e-09
3.943063104331447303e-09
2.976243688778142721e-09
2.246484698566538319e-09
1.711886576765119586e-09
1.315161800689536715e-09
1.019605433686614194e-09
7.958381739054416828e-10
6.233893199960853940e-10
4.880172470643882097e-10
3.801520461648462705e-10
2.934447320309438329e-10
2.236324356468614406e-10
1.677506981137719899e-10
1.235679595168639196e-10
8.924161678019009358e-11
6.313841607422842672e-11
4.375878569602147403e-11
2.972948693697848385e-11
1.982721557277281325e-11
1.300481295458974076e-11
