# bin_9_9
7.251638758089082764e-08
6.844021665022701126e-08
6.298812896764028354e-08
5.643628908605286245e-08
4.919646089977504884e-08
4.176688370190189043e-08
3.464669816280467785e-08
2.821936877599517350e-08
2.266144828156622300e-08
1.794770277607457588e-08
1.395452029646444395e-08
1.061290968329757715e-08
7.950547274104289513e-09
5.950696689460463252e-09
4.454900234139986835e-09
3.324519683349301278e-09
2.498760120413196030e-09
1.889583374875878492e-09
1.440459568202557989e-09
1.105210552204021627e-09
8.516892308325896140e-10
6.569908453038114069e-10
5.054093856938809381e-10
3.862824049208676068e-10
2.922927783086387875e-10
2.183216806406861930e-10
1.605921900614900950e-10
1.161319480693937105e-10
8.247220169453291946e-11
5.749046780526762047e-11
3.934410042256184736e-11
