# bin_3_1
1.894637653654116575e-08
1.605227350089308034e-08
1.330055755681140208e-08
1.082823376832344385e-08
8.694667713498916974e-09
6.886403890299987265e-09
5.360342496242185159e-09
4.095655503182178822e-09
3.097343306215130508e-09
2.345945176938759012e-09
1.782911684442234758e-09
1.360091257277827220e-09
1.047531795303876827e-09
8.147367314853881122e-10
6.392588929367397845e-10
5.045927102790042851e-10
3.990919831199527461e-10
3.148391203333690682e-10
2.466122697097062572e-10
1.910076404361491268e-10
1.457659082053615402e-10
1.092961580681029870e-10
8.035439110510070979e-11
5.785387782444326000e-11
4.077550607109274609e-11
2.814467572294793892e-11
1.904717279054123282e-11
1.266085904777957389e-11
8.283562483882637115e-12
5.346588289087092985e-12
3.412005073448989200e-12
