# bin_13_7
7.335760054106773819e-08
6.920504758857651523e-08
6.364762889849656721e-08
5.696866717272264586e-08
4.959266047095493460e-08
4.203471950604945682e-08
3.481292374984782868e-08
2.831948704699574048e-08
2.272603549754842283e-08
1.798957432388670225e-08
1.396824256246162495e-08
1.059743804354487312e-08
7.926814209113962785e-09
5.937192769383186702e-09
4.442282650047640749e-09
3.313796645074905049e-09
2.493427911867805398e-09
1.886748649789027076e-09
1.439900597118727211e-09
1.106207384314281833e-09
8.534973424829582184e-10
6.591005147712056140e-10
5.074754290241508366e-10
3.880948007983731489e-10
2.937473179142345631e-10
2.193978200171026521e-10
1.613205698533238922e-10
1.165726039594183335e-10
8.269645965204451846e-11
5.756744794691821894e-11
3.933240013716010751e-11
