# bin_1_13
-5.080682134318975034e-35
-5.755948761504289249e-35
-6.416060830452414547e-35
-7.009879689651612612e-35
-7.468993490749483725e-35
-7.708733452596409138e-35
-7.663790893637142128e-35
-7.228291203709812906e-35
-6.439072283127286195e-35
-5.422829441242493525e-35
-4.436539637685825762e-35
-3.716864226957318167e-35
-3.219060343690418542e-35
-2.585461111555008986e-35
-1.797626453937925228e-35
-1.391745479706616095e-35
-1.031804826003555681e-35
-7.211953338416653009e-36
-5.031344531954764310e-36
-3.575908985965270943e-36
-2.461811839421820676e-36
-1.690010107883310301e-36
-1.168722180859475032e-36
-8.151873481612127979e-37
-5.767585651707816131e-37
-4.158673709111082679e-37
-3.058191156867613064e-37
-2.293559137593024601e-37
-1.747453976940186769e-37
-1.344396026530084740e-37
-1.036695913158178535e-37
