# bin_11_15
-2.505352215177275849e-10
-2.867013513487608664e-10
-3.237036905608704105e-10
-3.592142867127298337e-10
-3.901950860330479602e-10
-4.126569369297664036e-10
-4.219388182729144606e-10
-4.142755341729767625e-10
-3.845661370339808212e-10
-3.374768862906914617e-10
-2.805867552407512580e-10
-2.297087197750949539e-10
-1.950936474202625393e-10
-1.681659615670984204e-10
-1.290347428256914062e-10
-8.925158126354218938e-11
-7.199100020057551477e-11
-4.941260967905196567e-11
-3.655344141983843600e-11
-2.441936539647838532e-11
-1.691962224423849785e-11
-1.154269350281531281e-11
-7.803506041744787043e-12
-5.254198253380199829e-12
-3.537300889158914748e-12
-2.404837784730850952e-12
-1.657431552215621267e-12
-1.163250967382954458e-12
-8.348157119710120610e-13
-6.130057092983945906e-13
-4.594419917130954580e-13
