# bin_4_6
-1.863189102085400676e-09
-2.056517838953875166e-09
-2.220592939474092574e-09
-2.332279959828772334e-09
-2.367154588168792538e-09
-2.300463167858307377e-09
-2.112422879386867300e-09
-1.834353686743370362e-09
-1.516337899986188059e-09
-1.245274613943221517e-09
-1.064090786308023055e-09
-9.062123732180729957e-10
-6.781878391972706458e-10
-4.795810533993041412e-10
-3.867050297386899111e-10
-2.642307444496956977e-10
-1.987754859130638630e-10
-1.382249897394104873e-10
-9.828207294014549198e-11
-7.032375885219076137e-11
-5.065437761067130958e-11
-3.697757900186325288e-11
-2.742935465188159346e-11
-2.073988514922002767e-11
-1.593348859968926867e-11
-1.237655595538484321e-11
-9.661670785894061978e-12
-7.525136913232939192e-12
-5.808534288452802752e-12
-4.417255374350843213e-12
-3.294349701045801279e-12
