# bin_1_3
-1.161899885565697958e-09
-1.210609690427383217e-09
-1.218035823402490047e-09
-1.170370442978765954e-09
-1.063365105496997234e-09
-9.142758770120880943e-10
-7.536836433416127117e-10
-6.226321133259438750e-10
-5.329311120859912252e-10
-4.450352792997849532e-10
-3.284078230414690426e-10
-2.398100603289589562e-10
-1.888668930443152442e-10
-1.328443317462196148e-10
-9.918489431067948162e-11
-7.149495329900054923e-11
-5.230759878107361796e-11
-3.872692793551526986e-11
-2.911375447018233873e-11
-2.228459281285115359e-11
-1.734129899703185166e-11
-1.367543178502263107e-11
-1.085641542619177307e-11
-8.614044077767063590e-12
-6.783652847175068457e-12
-5.267376867384137934e-12
-4.010266586589215263e-12
-2.980702620615271389e-12
-2.156818861421042494e-12
-1.518338356996527707e-12
-1.041137782868057443e-12
