# bin_9_1
-6.963317033843077392e-25
-7.757058949189614304e-25
-8.471436358752012634e-25
-9.024319934598393693e-25
-9.314446554961625683e-25
-9.261588203654456900e-25
-8.740906214846904192e-25
-7.792257950842584026e-25
-6.569145348356100979e-25
-5.375495968814556870e-25
-4.497975330689616011e-25
-3.891247618164208177e-25
-3.133576495102205527e-25
-2.190711772259849902e-25
-1.688728772759149897e-25
-1.263329971506863517e-25
-8.857363064628790374e-26
-6.293237342986038319e-26
-4.516502379463268917e-26
-3.174002558918183501e-26
-2.241429093411478072e-26
-1.602354664630408874e-26
-1.162245476410430294e-26
-8.582004523396962306e-27
-6.458766549084314281e-27
-4.938664474811012113e-27
-3.820205433127384885e-27
-2.969941582564960180e-27
-2.303852009841818328e-27
-1.771090457448957326e-27
-1.341587011245636801e-27
