# bin_1_8
-4.322196932276793322e-22
-4.784920239174771070e-22
-5.185681188503460254e-22
-5.471607713464482258e-22
-5.582890987804931837e-22
-5.466877139743098668e-22
-5.063035702731783167e-22
-4.433434570327856422e-22
-3.683625352848373364e-22
-3.017656445603903758e-22
-2.562881280759519967e-22
-2.200771521407768913e-22
-1.685625806635129249e-22
-1.177398297753721569e-22
-9.459306860814728419e-23
-6.592181381878649002e-23
-4.897676184268691785e-23
-3.388744977530505966e-23
-2.422724199023349329e-23
-1.726115431039428024e-23
-1.236359177477411741e-23
-8.969092205402245280e-24
-6.606822561980824864e-24
-4.961023892140433541e-24
-3.789370191619033936e-24
-2.931305701055897374e-24
-2.283650754236201541e-24
-1.778917457096631450e-24
-1.376029785791054056e-24
-1.050396178889005945e-24
-7.874067598792692351e-25
