# bin_12_12
-1.291121258873147457e-08
-1.473747146685206007e-08
-1.658644751539332411e-08
-1.833530222194237406e-08
-1.982253197254830533e-08
-2.084001799013425235e-08
-2.116568461551632452e-08
-2.057794669810325691e-08
-1.888890556903382304e-08
-1.639505718298974599e-08
-1.353921653836788683e-08
-1.111882184733956096e-08
-9.524049565252576739e-09
-8.123475399498555188e-09
-6.038176643323492021e-09
-4.243357346466243994e-09
-3.444851034610862299e-09
-2.286745287573166746e-09
-1.722316886739943382e-09
-1.164183977521970529e-09
-7.937170223424612264e-10
-5.435331359165804219e-10
-3.692986292664523598e-10
-2.505668826008822372e-10
-1.706527736467755370e-10
-1.178203848784719129e-10
-8.269378342976847956e-11
-5.923079571227565993e-11
-4.338317856166211341e-11
-3.244068156743672896e-11
-2.465119368018075678e-11
