# bin_15
0.000000000000000000e+00
0.000000000000000000e+00
0.000000000000000000e+00
0.000000000000000000e+00
0.000000000000000000e+00
0.000000000000000000e+00
0.000000000000000000e+00
0.000000000000000000e+00
0.000000000000000000e+00
0.000000000000000000e+00
2.001067827836244523e-297
4.121991510437246401e-268
4.850648200125409832e-242
8.640911635577363094e-219
5.316950943050754988e-198
2.279824753074092148e-179
1.240977397446791760e-162
1.434948355862175861e-147
5.493032402208759094e-134
1.021875156416161483e-121
1.289258309481018052e-110
1.474854756997526423e-100
1.971775085268086879e-91
3.848695482725408093e-83
1.333849751524096459e-75
9.753981550303784247e-69
1.753078860663289955e-62
8.865457658761011295e-57
1.422560925946342478e-51
8.061049949566892661e-47
1.774810196487149820e-42
1.653723359281856421e-38
7.040243132036329060e-35
1.466895033191222675e-31
1.591385535097361907e-28
9.504841194029509440e-26
3.286886943432699033e-23
6.887842154209538269e-21
9.115231865481765981e-19
7.908718962397540521e-17
4.654604324193707194e-15
1.916698335268583162e-13
5.680468658203282568e-12
1.243279876241290267e-10
2.057499828866106447e-09
2.630633029719786795e-08
2.650384855053677618e-07
2.142662281875816516e-06
1.413243806790534832e-05
7.722069919462461163e-05
3.544879036491055315e-04
1.384924217044469687e-03
4.659736436141228427e-03
1.365038982759969079e-02
3.516663405328728648e-02
8.041147439426521437e-02
1.645809173968311445e-01
3.038695894084635918e-01
5.097267406709390380e-01
7.819405851307756894e-01
1.103595987568756875e+00
1.440959550195010541e+00
1.749506366775058108e+00
1.984486129080753836e+00
2.112239437673181897e+00
2.118150724733686374e+00
2.008729195529630474e+00
1.807828196821436473e+00
1.549114274048518425e+00
1.267732951490834870e+00
9.936510247196183032e-01
8.663185950894389808e-01
