# bin_10
0.000000000000000000e+00
0.000000000000000000e+00
0.000000000000000000e+00
8.345278999742858100e-304
2.075052178338083871e-265
1.844601978901332030e-232
4.786168973948583221e-204
1.947253213663244797e-179
4.852700402871196723e-158
2.257785811531942452e-139
4.913872395358134968e-123
1.072006854461588811e-108
4.429281679349083661e-96
5.913316103235019653e-85
4.003997192902447124e-75
2.015493876030636702e-66
1.044655529194540197e-58
7.367525366840963918e-52
8.982992819978943267e-46
2.327824548242263667e-40
1.532927943121089035e-35
2.995947166418418086e-31
1.989324867435866490e-27
5.050679419159712808e-24
5.438017060277107760e-21
2.719612200884037023e-18
6.845199643563415015e-16
9.308083061810895347e-14
7.281113309897084508e-12
3.464290161356831210e-10
1.053577227978888337e-08
2.140867548056778979e-07
3.024050100539542010e-06
3.076703161104098617e-05
2.327719100588668049e-04
1.347669819405308486e-03
6.127208578064332820e-03
2.239075201936172044e-02
6.715613288726930696e-02
1.684475667650175146e-01
3.593316472442225074e-01
6.617164156159363042e-01
1.066002633372836517e+00
1.520050201264737222e+00
1.938591812049938357e+00
2.231754918562184553e+00
2.338312921598065142e+00
2.246205727271821218e+00
1.991468287149982253e+00
1.639468512469941075e+00
1.260234464330370008e+00
9.091739193835195465e-01
6.185275451315027651e-01
3.985798699322527505e-01
2.442958986464443538e-01
1.429699794000269253e-01
8.018189808335535185e-02
4.323984736434000054e-02
2.249295814110476022e-02
1.132014794773866795e-02
5.527192677252504294e-03
2.624993096816801916e-03
1.215546918655677211e-03
5.500643893195856409e-04
2.437616562192242771e-04
1.059929056297856658e-04
4.530423639854353423e-05
1.906723947616800708e-05
7.914236920783262018e-06
3.244441347082163436e-06
1.315446728891907091e-06
8.344775172832307557e-07
