# bin_7_2
1.092519741324273385e-17
1.203857467792419153e-17
1.297121261092182282e-17
1.358586264557308354e-17
1.374485483010365119e-17
1.329367943523368035e-17
1.214342121484432792e-17
1.049010259352034207e-17
8.648886360806510077e-18
7.120392649195248552e-18
6.107918213185865689e-18
5.167207313150098547e-18
3.811291384043197183e-18
2.727034245247126574e-18
2.193160041547064684e-18
1.488521206688702723e-18
1.122485088724861186e-18
7.859147698627746810e-19
5.576329292346189854e-19
3.998712421199424730e-19
2.889995323989679647e-19
2.118603748542962676e-19
1.578969410942927550e-19
1.199224227440075326e-19
9.246512400924329951e-20
7.200406395016020957e-20
5.627419886066891337e-20
4.382104387525745957e-20
3.377720435751878680e-20
2.562501781707439947e-20
1.904905095827113206e-20
