# bin_8_2
4.451676223432531506e-20
4.936855536088052770e-20
5.361456075421852385e-20
5.671326610107221616e-20
5.803368248698176527e-20
5.705123653469241511e-20
5.307632600287519918e-20
4.667908620357489560e-20
3.890455614957867958e-20
3.185318899929123322e-20
2.697300879378115209e-20
2.323972051836433860e-20
1.801099608273339691e-20
1.253710830413453539e-20
1.002357326780921902e-20
7.079831133222757745e-21
5.209980454247089976e-21
3.606289487412723458e-21
2.587108093250070913e-21
1.838762855322278514e-21
1.313204774550970263e-21
9.498934460083198945e-22
6.974583453697138308e-22
5.219578368275220226e-22
3.975453775821114951e-22
3.068801145360831153e-22
2.388195421761979220e-22
1.860424068353257650e-22
1.440609296372415044e-22
1.101831926616034751e-22
8.281612764001497116e-23
