# bin_3_1
5.909997750988795037e-12
6.164731996348317552e-12
6.210573028554689119e-12
5.977374497884226865e-12
5.439941749392482432e-12
4.684700745890713382e-12
3.864783954269543497e-12
3.191273783528779547e-12
2.730930080385008795e-12
2.286297149061009886e-12
1.691971579040971778e-12
1.232105776194069214e-12
9.725305774098338268e-13
6.839841101973758857e-13
5.110591005030484262e-13
3.680665621033992086e-13
2.692879681420641999e-13
1.992882784131860778e-13
1.497270377630191409e-13
1.145332017449972255e-13
8.907623773889759810e-14
7.022007095416004634e-14
5.573909163627832186e-14
4.423364637329427317e-14
3.484964355920719377e-14
2.707842995941455014e-14
2.063401370319672266e-14
1.535222528189276036e-14
1.112085616492639033e-14
7.837110020546261778e-15
5.379244622687443385e-15
