# bin_10_10
4.095949303032151836e-11
4.648328608188892341e-11
5.192188862424985767e-11
5.686811437495794405e-11
6.077562387900976822e-11
6.296036493133671214e-11
6.287462197640961437e-11
5.964915761717966293e-11
5.342864555104489552e-11
4.523240865700763620e-11
3.703780500918487299e-11
3.090204415691473579e-11
2.677193096156592685e-11
2.180681622431658404e-11
1.526717170147604083e-11
1.161496078997864879e-11
8.815823859757785703e-12
6.043741036367504971e-12
4.296474809041830206e-12
3.039963882852085594e-12
2.085502304765022855e-12
1.427643632328345483e-12
9.828254285034785994e-13
6.821419305331495125e-13
4.794857031903105674e-13
3.433017700878078506e-13
2.506628153562252940e-13
1.867883272690864974e-13
1.416269548802282434e-13
1.086632877359921881e-13
8.375615335672524215e-14
