# bin_8_1
3.356433524837826938e-24
3.714338489410213278e-24
4.023261920478943064e-24
4.241922342269052684e-24
4.324200858317340358e-24
4.228329775388197676e-24
3.909267283636874955e-24
3.417483693801391601e-24
2.836489166174977903e-24
2.325259270503166994e-24
1.978406408548370655e-24
1.696801377132924137e-24
1.292742901859616458e-24
9.048358737152165292e-25
7.288926156281887989e-25
5.048750213488775043e-25
3.769526512213760519e-25
2.608492373312846780e-25
1.862547782971317746e-25
1.328996445676237330e-25
9.535517044015704411e-26
6.929242796545129344e-26
5.113530149438255887e-26
3.846822389990297822e-26
2.942949851588025965e-26
2.279269668928544132e-26
1.776932872294078139e-26
1.384462765152408555e-26
1.070625672686686604e-26
8.167325865236056400e-27
6.116542166719583232e-27
