# bin_10_8
1.045323470494969992e-11
1.182350485326306094e-11
1.315245947534774542e-11
1.433268536622085160e-11
1.522123737380083164e-11
1.564460462856815186e-11
1.547016037776991021e-11
1.448946120243804440e-11
1.282350442928918206e-11
1.073650637436097570e-11
8.784184496192960614e-12
7.405183404948593576e-12
6.407654103924108485e-12
5.048854223985983051e-12
3.493415609756724326e-12
2.763800500049144023e-12
1.984686630725664398e-12
1.426724441012291417e-12
9.756269814228704770e-13
6.940881303780575826e-13
4.806556982907708462e-13
3.320386870721506898e-13
2.311702237916792010e-13
1.624173999797977566e-13
1.159767358403697509e-13
8.443304144579675936e-14
6.267635675972178817e-14
4.738789716036705429e-14
3.631527610029173202e-14
2.802288980308999391e-14
2.161116714215225888e-14
