# bin_5_3
7.110073831021865975e-12
7.753131227954246077e-12
8.246011532039904367e-12
8.497066781528274607e-12
8.431368438672378830e-12
7.939768927090423126e-12
7.064660043321113855e-12
5.948656234911688520e-12
4.870276957505725383e-12
4.081123004244323497e-12
3.524364505017420629e-12
2.824499839199928697e-12
1.984307445556467534e-12
1.535513428851330864e-12
1.146328076466064467e-12
8.143735761888134712e-13
5.847003898224437081e-13
4.237202440597186309e-13
3.036878068865719131e-13
2.198264367881182842e-13
1.615704697545248544e-13
1.207868003307471671e-13
9.193119685604356119e-14
7.108961609810917572e-14
5.554733886658128044e-14
4.358399127014998909e-14
3.409989077774937852e-14
2.642284745165167542e-14
2.015913222189412549e-14
1.507154576217477445e-14
1.100170107518088056e-14
