# bin_10_1
9.572641016222401771e-30
1.071379811771600774e-29
1.176689912355720614e-29
1.262253241468288219e-29
1.314263241159159134e-29
1.320436793591037174e-29
1.263819628244097413e-29
1.141868078334690309e-29
9.753751930834440226e-30
8.004388807998169549e-30
6.632081981302193056e-30
5.727664092817940909e-30
4.758234396431898670e-30
3.402138628126090968e-30
2.509295207861359956e-30
1.973467709291099327e-30
1.331757775965026881e-30
9.846766241991339703e-31
6.939669754896716319e-31
4.835622442551918525e-31
3.398300350004691522e-31
2.404833148541494910e-31
1.724424270103171822e-31
1.256412580747046191e-31
9.337323698357480211e-32
7.063517170507309364e-32
5.421609579144647355e-32
4.198943480527163959e-32
3.257984532969075429e-32
2.514486138531400632e-32
1.918043193077674747e-32
