# bin_4_1
-2.268849677140851349e-09
-2.223664404389483456e-09
-2.075645245634232646e-09
-1.838188633659725516e-09
-1.555033106335606176e-09
-1.287401768680351357e-09
-1.077345815123051674e-09
-9.048476562596695454e-10
-7.193571684539343909e-10
-5.338311421411123660e-10
-4.009474318834104046e-10
-3.024669200169081107e-10
-2.204593956738359579e-10
-1.626647291486029647e-10
-1.198960283158735239e-10
-8.949593793395528475e-11
-6.782087976518143678e-11
-5.231512543532448676e-11
-4.102931612359055339e-11
-3.258150325169023929e-11
-2.603945470826764757e-11
-2.079259288574403088e-11
-1.647090558271120629e-11
-1.286129265504380925e-11
-9.846192784366122919e-12
-7.360615701065162388e-12
-5.360394419900160582e-12
-3.800546934525987871e-12
-2.626216372539785144e-12
-1.772790020876083964e-12
-1.172542780383361862e-12
