# bin_14_5
-7.991104818941330833e-10
-8.805625222118074051e-10
-9.488836899823010569e-10
-9.940904728893890826e-10
-1.006100119517151709e-09
-9.738883248755892628e-10
-8.910818291257644658e-10
-7.710846921027119300e-10
-6.370453838879699255e-10
-5.246180276196683699e-10
-4.486691124201969118e-10
-3.790258141998814314e-10
-2.819542582271842847e-10
-2.020544987180602530e-10
-1.606596405566271434e-10
-1.109773979607830421e-10
-8.247804859609415688e-11
-5.787158222248576609e-11
-4.122161170388894185e-11
-2.949417360117213935e-11
-2.127486026664106510e-11
-1.556747482998317478e-11
-1.157965248153310242e-11
-8.775656623121534484e-12
-6.753201762609883098e-12
-5.250223279910825986e-12
-4.098325094853572999e-12
-3.189175792973971040e-12
-2.457708964231148307e-12
-1.864999968600338886e-12
-1.387321728721861579e-12
