# bin_4_8
-7.440467631431955916e-16
-8.281913975814328278e-16
-9.035670697856936513e-16
-9.613493477705422644e-16
-9.907213306799361856e-16
-9.832077986318947607e-16
-9.255807502038381154e-16
-8.231492662089345721e-16
-6.923803156025129913e-16
-5.664288058028296935e-16
-4.749090509218037222e-16
-4.108117194324155644e-16
-3.287472140159908082e-16
-2.291813905876066665e-16
-1.780613642224108610e-16
-1.318542181686295721e-16
-9.323764096244091551e-17
-6.577559818094315300e-17
-4.730233173320626925e-17
-3.330453579575688392e-17
-2.355421637502542855e-17
-1.687323549847719733e-17
-1.226499408077546985e-17
-9.078427942353757831e-18
-6.847536621269190196e-18
-5.245498917717403409e-18
-4.062611092617856508e-18
-3.160066965450564167e-18
-2.450911448446766917e-18
-1.882628690155764234e-18
-1.424204297512958608e-18
