# bin_3_6
-2.098581275461469629e-14
-2.300555077434545206e-14
-2.463169924184392610e-14
-2.559567096773110772e-14
-2.566123850867481536e-14
-2.450328922309036967e-14
-2.209550402207993302e-14
-1.884158225256254441e-14
-1.545733952146353313e-14
-1.281644865292750983e-14
-1.105322474648596319e-14
-9.142462935683633295e-15
-6.547914345891846245e-15
-4.857513229084938439e-15
-3.801495491709981409e-15
-2.605882008139051572e-15
-1.930459263443883857e-15
-1.378131820516973328e-15
-9.795153821006524121e-16
-7.045513219380463934e-16
-5.128480914446250899e-16
-3.794443142932209307e-16
-2.856956917191501986e-16
-2.189569642899385993e-16
-1.699972836534444826e-16
-1.329392410384517728e-16
-1.040074373571156514e-16
-8.083164887334287483e-17
-6.201617911436610584e-17
-4.672705990296830547e-17
-3.443556103731586114e-17
