# bin_13_10
-1.342441690639803679e-10
-1.522794385254073812e-10
-1.700165444698700401e-10
-1.861187173606321633e-10
-1.987980513402604029e-10
-2.058264357702258075e-10
-2.053994889056407856e-10
-1.947308889301485251e-10
-1.743226663357665432e-10
-1.475284244683866806e-10
-1.208007807542287854e-10
-1.007978502576341291e-10
-8.724747015723101673e-11
-7.094398292482968527e-11
-4.974393699118448304e-11
-3.783461758359976467e-11
-2.865129464712257655e-11
-1.968748394356190657e-11
-1.399616990262055106e-11
-9.875401773071908152e-12
-6.775895523513374360e-12
-4.643025544717042708e-12
-3.196554130433526598e-12
-2.218415211869580346e-12
-1.559343032556387617e-12
-1.116445296210121639e-12
-8.151400422641329243e-13
-6.073358724457908270e-13
-4.603694187911330039e-13
-3.530716246500243036e-13
-2.719961746677218564e-13
