# bin_12_8
-2.469512778949099977e-10
-2.779327239724840298e-10
-3.073391539015549717e-10
-3.325032990695053116e-10
-3.499728267091758509e-10
-3.560052436133252345e-10
-3.469997430106430784e-10
-3.196363083572380152e-10
-2.783990901800680373e-10
-2.305553122676186852e-10
-1.892323215316614895e-10
-1.614715002355461151e-10
-1.379506440954287345e-10
-1.038970964701159149e-10
-7.300180112812334195e-11
-5.876151199162040800e-11
-4.007098900304687386e-11
-2.986689507946182624e-11
-2.044155208191982572e-11
-1.430834146600147051e-11
-1.000423557833862622e-11
-6.998189290187789795e-12
-4.934777565978675662e-12
-3.521784163285792041e-12
-2.561482921151972531e-12
-1.899305287011536134e-12
-1.433672704986058771e-12
-1.097998156878573167e-12
-8.478247694731879370e-13
-6.553299380775690277e-13
-5.034308852073567641e-13
