# bin_6_9
-8.230353181960638854e-14
-9.236138331902739822e-14
-1.017770911440538737e-13
-1.096353230527645361e-13
-1.147692715230091366e-13
-1.160227184872711238e-13
-1.120608297270259486e-13
-1.021780371815056166e-13
-8.809753988978737138e-14
-7.253374053140472920e-14
-5.974278767935598289e-14
-5.134879722208401490e-14
-4.337274590730595967e-14
-3.173463701305536935e-14
-2.272120177968993800e-14
-1.827969933872919491e-14
-1.221151970920740476e-14
-9.190144810162829371e-15
-6.361883698025510414e-15
-4.420574208768307288e-15
-3.103001155899313978e-15
-2.183813281999254054e-15
-1.552873030520979494e-15
-1.119922614939625108e-15
-8.239033515142813455e-16
-6.175971718647539133e-16
-4.705946724848584733e-16
-3.628380434317803171e-16
-2.811283164943298966e-16
-2.173032246931614694e-16
-1.664232159341125950e-16
