# bin_10_9
-7.725145762684563577e-11
-8.716539029114740908e-11
-9.668438837353926370e-11
-1.049963668116272213e-10
-1.110349969057365775e-10
-1.135618262133052721e-10
-1.115486135087889326e-10
-1.036539054621123955e-10
-9.105094168842790715e-11
-7.580231785530970268e-11
-6.206614411155494320e-11
-5.262506303967821582e-11
-4.532788121650576066e-11
-3.496280232778172050e-11
-2.427601619712991917e-11
-1.945336113656732808e-11
-1.356552020752211417e-11
-9.972695085891792159e-12
-6.789314321651308681e-12
-4.788819598407357391e-12
-3.333729097818626233e-12
-2.318085467792302444e-12
-1.623241512419688076e-12
-1.148428792063119323e-12
-8.270764918529562225e-13
-6.073642093714200159e-13
-4.545229158287496531e-13
-3.458739805613446705e-13
-2.661228760022747903e-13
-2.056069210522285364e-13
-1.583280858586825705e-13
