# bin_3_2
-6.903710132188385406e-10
-7.105206479566781264e-10
-7.039656276144128429e-10
-6.637887722377645156e-10
-5.922831271526812022e-10
-5.018212155799491122e-10
-4.131514611684610699e-10
-3.451500659849627525e-10
-2.943331393930197097e-10
-2.370225632987932364e-10
-1.727034908912608410e-10
-1.301427758092585895e-10
-9.889863843197578278e-11
-7.097932304590696034e-11
-5.232168377613159623e-11
-3.811875749330453194e-11
-2.806994181611908288e-11
-2.095635146389389758e-11
-1.591216559669223350e-11
-1.229694631922764724e-11
-9.647748844148782543e-12
-7.647908424194810126e-12
-6.082506749354331653e-12
-4.818729823117894613e-12
-3.776947597088528822e-12
-2.911060907931990023e-12
-2.195371698222584690e-12
-1.614352840000959281e-12
-1.155410238622554932e-12
-8.050717812658434976e-13
-5.471209395034495495e-13
