# bin_10_4
-9.041545779562969140e-10
-9.830284504493857077e-10
-1.041805604276041094e-09
-1.069233934685251667e-09
-1.055202044133177942e-09
-9.878861717370402919e-10
-8.742935764974782424e-10
-7.338309790984857946e-10
-6.017188979496325989e-10
-5.060416764476514353e-10
-4.345091816056945698e-10
-3.433783798510795494e-10
-2.432428249949848562e-10
-1.886205313506013751e-10
-1.389760247064618740e-10
-9.974741886136158989e-11
-7.164349169975951690e-11
-5.168164529191973074e-11
-3.715474877658140887e-11
-2.699247888866737507e-11
-1.990377040980735298e-11
-1.492639260582431325e-11
-1.139299458901676261e-11
-8.827898454054888124e-12
-6.904696623047280547e-12
-5.416706916951787591e-12
-4.232522270587280545e-12
-3.272270344349733961e-12
-2.489000216046593541e-12
-1.854130888082185714e-12
-1.348206996924047358e-12
