# bin_11_3
-1.416682072497554845e-09
-1.513181864700608879e-09
-1.568739689032570260e-09
-1.568143742014273959e-09
-1.493892695122209120e-09
-1.345843117996039801e-09
-1.148458885330963109e-09
-9.454504536304218993e-10
-7.856494268473106092e-10
-6.729070438880913867e-10
-5.521226711002673178e-10
-4.026745006083107458e-10
-2.992738870726212547e-10
-2.307984337243838411e-10
-1.631498145138049268e-10
-1.201972964007120595e-10
-8.641999631045663408e-11
-6.267316311025945214e-11
-4.592608908160510355e-11
-3.413755128033760949e-11
-2.581657023567855704e-11
-1.985577952049270149e-11
-1.549448318833001905e-11
-1.219457722502958336e-11
-9.614570217275994664e-12
-7.541881013564517177e-12
-5.846961024186368251e-12
-4.454827826824648823e-12
-3.320578179001621246e-12
-2.413713724743200356e-12
-1.708579225552663210e-12
