# bin_8_3
-1.168301018197589557e-09
-1.246771119109220833e-09
-1.291118119466193968e-09
-1.288876889997576361e-09
-1.225618555501345512e-09
-1.102076017574206658e-09
-9.387882407751307265e-10
-7.723696530391102538e-10
-6.424793299268351011e-10
-5.505361077582558409e-10
-4.502428004752545546e-10
-3.272787594197152110e-10
-2.441795546404160691e-10
-1.877850456036502589e-10
-1.328013862308832810e-10
-9.778406026911439933e-11
-7.038416160149717608e-11
-5.106097377219106916e-11
-3.745130370457506840e-11
-2.787121799858063089e-11
-2.110392589586760092e-11
-1.625076120713524260e-11
-1.269346479363779067e-11
-9.996175080186201819e-12
-7.883070561895519364e-12
-6.182645473222824595e-12
-4.790688846391487383e-12
-3.647001231188643044e-12
-2.715464250646317100e-12
-1.971339415617346080e-12
-1.393543281738724209e-12
