# bin_7_4
4.889928255154816856e-13
5.418358871678177060e-13
5.878740798709428312e-13
6.211533329279100618e-13
6.348097681761726982e-13
6.230377633129733005e-13
5.785321977170883576e-13
5.078753011484312949e-13
4.226940193063588697e-13
3.460721543871328577e-13
2.933370279789661612e-13
2.524161753813747537e-13
1.947182269073553167e-13
1.356379112822451870e-13
1.086869811159255550e-13
7.632959696109232447e-14
5.639675776793478718e-14
3.900049163714410669e-14
2.794151687640620872e-14
1.987632688555635268e-14
1.420981630347167282e-14
1.028877303842231881e-14
7.562901312002990067e-15
5.666626296110612240e-15
4.320363380499060271e-15
3.337536671551892929e-15
2.598271482087846647e-15
2.023939254967837396e-15
1.566486907976975186e-15
1.197119503280623330e-15
8.987805623589464243e-16
