# bin_7_7
6.129808665271221200e-11
6.858360647988028726e-11
7.530045068113403244e-11
8.074896021858321325e-11
8.404709903547460571e-11
8.441211974946975769e-11
8.076195088670546204e-11
7.294083045095132411e-11
6.228149131660973031e-11
5.109446887908316085e-11
4.232499629365643688e-11
3.654534422130584599e-11
3.034726775181422530e-11
2.168677462764460621e-11
1.599588618542399177e-11
1.257505424764924464e-11
8.483930418166298283e-12
6.270688476859826487e-12
4.419085770491386528e-12
3.078477280340718754e-12
2.162920453323315336e-12
1.530295404239946695e-12
1.097150693450193902e-12
7.992858087122693195e-13
5.939514841097741667e-13
4.492783527552410155e-13
3.448191936809680095e-13
2.670344848011136691e-13
2.071713856147619657e-13
1.598703251993744486e-13
1.219262367816853634e-13
