# bin_1_1
3.871931094614130176e-10
3.797438275991238588e-10
3.539664554594491952e-10
3.124240940511506682e-10
2.626978455982431768e-10
2.164115556687953048e-10
1.817698722182577438e-10
1.540505809313850514e-10
1.215854336872855370e-10
8.853955556118134514e-11
6.751653292775938179e-11
5.064675075148141028e-11
3.677641177722051649e-11
2.716174426270405974e-11
2.003455567496916948e-11
1.495840054163839800e-11
1.135691669392538486e-11
8.781833700508725435e-12
6.905597046756082680e-12
5.498200493533729247e-12
4.404284851789650353e-12
3.522787367261387587e-12
2.793404769394308991e-12
2.181701267757348943e-12
1.669093863189040559e-12
1.245684382222640913e-12
9.048894704963497179e-13
6.395517062849105273e-13
4.404463843572837131e-13
2.963434873688525144e-13
1.954289457529323306e-13
