# bin_12_10
1.155203936238379946e-11
1.315522404334824374e-11
1.476097025291070843e-11
1.625763999106826387e-11
1.749691714966990334e-11
1.829033469106386279e-11
1.845754722332144562e-11
1.777441935793863383e-11
1.615258585424915448e-11
1.387801378712981640e-11
1.140741144096142591e-11
9.414212033374604811e-12
8.114875587472974993e-12
6.818879139199936966e-12
4.930384433891294904e-12
3.561251253820331550e-12
2.847209720127227024e-12
1.884326937266986047e-12
1.405839645148136973e-12
9.671965739628829275e-13
6.583501590025695103e-13
4.503481953598734706e-13
3.066908585365357433e-13
2.097691631616703447e-13
1.445911546342087507e-13
1.012789343670345515e-13
7.225037883823462654e-14
5.264268901298680772e-14
3.917256649507292671e-14
2.966742565904475350e-14
2.272970369077077969e-14
