# bin_8_1
2.209792348376875207e-24
2.442586115990235064e-24
2.642127623230950929e-24
2.781172393018339642e-24
2.829909443288772039e-24
2.760243498624930490e-24
2.544820548957813535e-24
2.218599090708708697e-24
1.838065953470678422e-24
1.507391652327881128e-24
1.284548716575423030e-24
1.098876377538003548e-24
8.312549968450829537e-25
5.836419373891246277e-25
4.707518890884037276e-25
3.239318894954676341e-25
2.428145935827096993e-25
1.682070197979667936e-25
1.198630882159240957e-25
8.562145554109506445e-26
6.152388087222603085e-26
4.478136955872546627e-26
3.310887522954735661e-26
2.495440170010506000e-26
1.912101133455052307e-26
1.482526090431619654e-26
1.156349189518367518e-26
9.007960246749435096e-27
6.960641057955544055e-27
5.303170855669997814e-27
3.964825822382566091e-27
