# bin_10_1
5.495058598560562314e-30
6.144920296069828080e-30
6.742375789963964565e-30
7.224435003052720806e-30
7.511836948267994454e-30
7.535543277843001594e-30
7.197681215937247299e-30
6.490141597966548619e-30
5.532624570823205098e-30
4.536778759831342720e-30
3.762418858311979131e-30
3.250331176717789073e-30
2.689926956273705073e-30
1.915628717819926927e-30
1.420781785258487782e-30
1.110952394024125477e-30
7.522603148418496603e-31
5.534494002385519725e-31
3.911793049825075348e-31
2.727537182107406799e-31
1.916909302620687080e-31
1.357795994602546711e-31
9.748826033117699899e-32
7.114287450824527487e-32
5.295377788075392787e-32
4.011340147786161829e-32
3.082069358586757064e-32
2.388259919141688531e-32
1.853032903664853852e-32
1.429388116352342136e-32
1.089269302418227541e-32
