# bin_2_2
2.242193295960401084e-10
2.322019759839152535e-10
2.318948413040230056e-10
2.206608695868830884e-10
1.985527200148424848e-10
1.692178987177432473e-10
1.391624058912260276e-10
1.156290599093940665e-10
9.911269608265046474e-11
8.129034127019322950e-11
5.914449938981563105e-11
4.409201066161790238e-11
3.410775400051583903e-11
2.416845922745140846e-11
1.793278803934333690e-11
1.301350889311036110e-11
9.544868908756412464e-12
7.097463803617897061e-12
5.364862999904416956e-12
4.128751655221178057e-12
3.228428980763318739e-12
2.554449361318816298e-12
2.030995698622687806e-12
1.611016749592752365e-12
1.266079587553804057e-12
9.795345428006444122e-13
7.421168158532865533e-13
5.484228477603070418e-13
3.944123590665145233e-13
2.760158324021569096e-13
1.882638964707076757e-13
