# bin_9_9
7.378219336229400804e-08
6.971896636762988784e-08
6.424794285490399631e-08
5.764213904810897223e-08
5.031374781042686847e-08
4.276623484231540626e-08
3.550916623432008152e-08
2.894103282450894936e-08
2.325285574511908449e-08
1.842825813506162772e-08
1.434188345196704084e-08
1.091742105644800238e-08
8.179928038703404994e-09
6.119368927971128331e-09
4.580325800276086364e-09
3.416270337470806455e-09
2.565150663426576271e-09
1.937996185683100217e-09
1.475828306310660295e-09
1.131269173863310848e-09
8.711105679160725705e-10
6.716286720742828296e-10
5.165485207233673401e-10
3.948153410948420527e-10
2.988447190796320725e-10
2.233396876595125578e-10
1.644083344050615947e-10
1.190019692962869143e-10
8.459962178266041259e-11
5.904079657851148737e-11
4.045295018377646476e-11
