# bin_6_5
5.160247130425472007e-08
4.726415491629405218e-08
4.214579998784190888e-08
3.657071190545269802e-08
3.091928154214614512e-08
2.556102536045098072e-08
2.076540722806481718e-08
1.664190080766371509e-08
1.315372469799437962e-08
1.020464018629941133e-08
7.752191941802839984e-09
5.819334394626865276e-09
4.376104783473661032e-09
3.292935065822816659e-09
2.477315582592195897e-09
1.880814632289231433e-09
1.438235945513512089e-09
1.109239077082850607e-09
8.608137040261736138e-10
6.701715525346219665e-10
5.213964956714363358e-10
4.037078718953341039e-10
3.098695115925265534e-10
2.349482641100772990e-10
1.754665891938713395e-10
1.287906048716831250e-10
9.276353423367584373e-11
6.551164527566701368e-11
4.535780195149319507e-11
3.080483452618399707e-11
2.054563083139160525e-11
