# bin_4_4
4.021828050326825839e-08
3.607792946180394547e-08
3.149920287667585246e-08
2.678789632607015848e-08
2.225537936455601379e-08
1.814836342178512639e-08
1.458971967066287021e-08
1.157501945561191075e-08
9.029089204223788982e-09
6.900325552889120321e-09
5.197405061338149993e-09
3.913130799695789809e-09
2.955176852492694252e-09
2.230703858993727330e-09
1.697747212789306415e-09
1.303019085191157585e-09
1.008757202082429752e-09
7.862018179874185692e-10
6.150005835369156748e-10
4.809034074350966116e-10
3.743055609380529489e-10
2.888084587421560978e-10
2.200994491594178211e-10
1.651724659124707964e-10
1.217742318552982938e-10
8.805809432106311317e-11
6.240219013468869135e-11
4.333017740609774240e-11
2.949817735134270590e-11
1.971316723633434633e-11
1.295494366642350487e-11
