# bin_11_9
1.099125648093493016e-11
1.248160523879728723e-11
1.395451560964534931e-11
1.530167613069942191e-11
1.637799990152118013e-11
1.700120849309512191e-11
1.701959334229658257e-11
1.620250450735366579e-11
1.455990536551002872e-11
1.236641623530322436e-11
1.012976003764702072e-11
8.424955833043100877e-12
7.293359246005212320e-12
5.990526849024877368e-12
4.219335971437198777e-12
3.168597998050681542e-12
2.440332760113261161e-12
1.652903187376169060e-12
1.191206530255866781e-12
8.376150064289109920e-13
5.731368077650948813e-13
3.918470510885377832e-13
2.688016851043308498e-13
1.858347082874732452e-13
1.299725923944633080e-13
9.255267590614472961e-14
6.720193807486686149e-14
4.981981943125205355e-14
3.762073342219283652e-14
2.879023305224798564e-14
2.217113036638265480e-14
