# bin_13_2
1.790074392421324370e-32
2.028203383852877328e-32
2.261095302387711363e-32
2.470752398612573584e-32
2.633088735142763890e-32
2.718260412814915032e-32
2.703239048267123022e-32
2.550614944662083106e-32
2.272942983886017867e-32
1.914827546465704285e-32
1.566575505865035164e-32
1.312041112208440289e-32
1.136397662334459840e-32
9.136574671775025031e-33
6.353938548004734936e-33
4.913915450146548852e-33
3.649156398660335882e-33
2.546892494913125329e-33
1.778650057715800222e-33
1.264154535329567048e-33
8.700464169979137708e-34
5.970805268766534822e-34
4.127717835235851756e-34
2.878059648083497435e-34
2.035325160572761449e-34
1.466832173569497311e-34
1.078149358264135693e-34
8.082415157467658631e-35
6.156106080605156788e-35
4.735464986616645617e-35
3.651661180856602829e-35
