# bin_10_6
6.774990154546152112e-14
7.642091838743536708e-14
8.473441555174927464e-14
9.197573556256774297e-14
9.720792097879136599e-14
9.934629540917133985e-14
9.748872049187929834e-14
9.047022256865698738e-14
7.937283474479177893e-14
6.600253862011884356e-14
5.403868010552430802e-14
4.587277447535647136e-14
3.950812388931487314e-14
3.035307651458694968e-14
2.105512085816037508e-14
1.695015516425899395e-14
1.173018628335507955e-14
8.682634061590161851e-15
5.890395914942549205e-15
4.148663196131408830e-15
2.892398240312988201e-15
2.014724087296240957e-15
1.412559086497841546e-15
1.000639604535318030e-15
7.218494503207855398e-16
5.309939483306655588e-16
3.980075134449279998e-16
3.032738808576981277e-16
2.335615970871312067e-16
1.805286923472796947e-16
1.390079353661385151e-16
