# bin_9_2
9.095177962732024680e-23
1.014736949639797417e-22
1.110256318133153724e-22
1.185462778213492410e-22
1.227137413668370096e-22
1.224536445365854096e-22
1.161156497328157403e-22
1.039779303831618961e-22
8.802690542705922343e-23
7.207179395565622938e-23
6.008704506649468002e-23
5.198041178418648189e-23
4.233889861090120600e-23
2.976855939441161242e-23
2.261297999964314914e-23
1.723184842294127575e-23
1.189850388655491955e-23
8.568585337935857613e-24
6.122895850160121738e-24
4.288696037306083505e-24
3.021144193663349744e-24
2.151787755164161639e-24
1.554722715031443333e-24
1.142901244585402925e-24
8.566272934968630627e-25
6.527757147583686390e-25
5.037378559967784458e-25
3.912036648940409347e-25
3.035373654220309056e-25
2.336736694837413126e-25
1.774225528659699649e-25
