# bin_7_6
3.750922532566487816e-11
4.190310146113451411e-11
4.592075743757495642e-11
4.912880259681842701e-11
5.098409975993662775e-11
5.102887705284319432e-11
4.858657177647559293e-11
4.367837964851882136e-11
3.712100852321960029e-11
3.041697742545003718e-11
2.528218193980069496e-11
2.185704057474997927e-11
1.796745238351334034e-11
1.271991855354663114e-11
9.532826187154359778e-12
7.374032601981759271e-12
5.032766952602378493e-12
3.669225774236452611e-12
2.606596706853050348e-12
1.820912986031040597e-12
1.280858722619823258e-12
9.093988818380566549e-13
6.547515833478682833e-13
4.793511020971112646e-13
3.579023241675096582e-13
2.718383059212312116e-13
2.092740008470585318e-13
1.623290266042486087e-13
1.259546630492494404e-13
9.707411322815343695e-14
7.385623889936114163e-14
