# bin_5_5
8.125485293274483364e-11
8.962272333341856356e-11
9.668873600036872702e-11
1.014404290571345633e-10
1.028300730723108936e-10
9.975174314096836165e-11
9.142294824239819736e-11
7.923698789538763970e-11
6.543787415366672172e-11
5.378394349472215384e-11
4.601276552817072292e-11
3.908747235129829935e-11
2.910779353508661648e-11
2.067005126724286449e-11
1.664231159152381575e-11
1.135204789289171497e-11
8.541237300639443451e-12
5.953822092330662240e-12
4.230869351942754589e-12
3.029170811130177365e-12
2.184252823455943514e-12
1.596730458649808743e-12
1.186241144436408504e-12
8.982578771685698301e-13
6.908934201220963949e-13
5.370688232948335889e-13
4.193751260217212740e-13
3.265684065347451419e-13
2.519109734075463991e-13
1.913804212836625494e-13
1.425444464348973623e-13
