# bin_7_1
1.111933437820944175e-21
1.221887188714296791e-21
1.312166653500491889e-21
1.368671063890890371e-21
1.378225182359879449e-21
1.324182315056862034e-21
1.201459782882481079e-21
1.030842347009196665e-21
8.474131262582368244e-22
6.999065416211389837e-22
6.022050323919902179e-22
5.039803403177343600e-22
3.658215627068134002e-22
2.663676557035217171e-22
2.117307915860809847e-22
1.439719155924844289e-22
1.078244807514666698e-22
7.624339998646714584e-23
5.409499646612719589e-23
3.884322878597152039e-23
2.816795535141519052e-23
2.074419948561941291e-23
1.553945460819609603e-23
1.185676836890000188e-23
9.174533418013519076e-24
7.159901808086734739e-24
5.598828521934396136e-24
4.355320924792333170e-24
3.348883677043429168e-24
2.531477276366859859e-24
1.873263587596486369e-24
