# bin_15_1
4.813541375738528498e-42
5.480932356913309911e-42
6.149027994955001181e-42
6.771274852845849290e-42
7.285802558181059702e-42
7.614020565633831441e-42
7.681150105802536433e-42
7.393515710624769999e-42
6.716055144372248838e-42
5.767821576117606504e-42
4.740527515771866202e-42
3.913468609083836837e-42
3.373783467727174384e-42
2.832375338912624927e-42
2.046134950121733685e-42
1.480247068999358656e-42
1.181424957202439335e-42
7.829026705441328326e-43
5.831223236004160947e-43
4.015112862356935034e-43
2.733930503264029727e-43
1.870062448744499331e-43
1.273958455546970838e-43
8.717198550176346155e-44
6.011992280788257486e-44
4.213749941305050428e-44
3.008052393251749588e-44
2.193182868372512416e-44
1.632919348878260653e-44
1.237175844342694451e-44
9.480210908337763870e-45
