# bin_9_5
3.313310848892037165e-14
3.718415777772305549e-14
4.097754219748919463e-14
4.414494800049823898e-14
4.621673106521742121e-14
4.672735469290549605e-14
4.513856258538281517e-14
4.116536381800289579e-14
3.549862521634940891e-14
2.922983145689458993e-14
2.407343567143753506e-14
2.068860646194891852e-14
1.747980365448850880e-14
1.279540816940760463e-14
9.157326909993421500e-15
7.368693875434077345e-15
4.923184149033025053e-15
3.705332302395306109e-15
2.564320888349862398e-15
1.781972268331607728e-15
1.250802630601346747e-15
8.802092548805286871e-16
6.258285900045034219e-16
4.512484416963011836e-16
3.319154579639152509e-16
2.487571704728501685e-16
1.895141440130671065e-16
1.461000123326823015e-16
1.131890813562109395e-16
8.748793265322657491e-17
6.700312413591701270e-17
