# bin_10_6
6.841990788350633950e-14
7.715610648796348457e-14
8.552281512674912400e-14
9.279729700751687921e-14
9.803339091869533913e-14
1.001391706996333414e-13
9.820605850641808874e-14
9.106895453953325862e-14
7.983867495152439245e-14
6.634735307795577055e-14
5.430895615405452215e-14
4.610947621906356676e-14
3.969504007242699271e-14
3.045144196997044266e-14
2.112339986122359512e-14
1.701456196386948320e-14
1.175263810238520649e-14
8.708563929914024942e-15
5.907282477202010125e-15
4.157565681593282307e-15
2.899283158950645659e-15
2.020153769408556281e-15
1.416794149649441194e-15
1.004095425573933702e-15
7.247152113198230104e-16
5.333914947992240554e-16
4.000128973425438432e-16
3.049275855915648678e-16
2.348958592088137663e-16
1.815759122329855034e-16
1.398035275153231840e-16
