# bin_8_3
5.371576800275386011e-17
5.972843699532083373e-17
6.508239471684075910e-17
6.913730817255193567e-17
7.111586122056776296e-17
7.040975287855323599e-17
6.608546362787815246e-17
5.860515714823200942e-17
4.916855753388468240e-17
4.020948803432147193e-17
3.377793403469937651e-17
2.919943953828216595e-17
2.319915522860796547e-17
1.614278517895776145e-17
1.263291313079121198e-17
9.251832672971717880e-18
6.602210008699186682e-18
4.629340949246504842e-18
3.330579695310102772e-18
2.349710286601053968e-18
1.665143527903595499e-18
1.195468093816687673e-18
8.709683344252203908e-19
6.463341528112155058e-19
4.886393743752554647e-19
3.750168757817526087e-19
2.907977256668120846e-19
2.262884455367658964e-19
1.754463942681013879e-19
1.346302846293802717e-19
1.016903427437423629e-19
