# bin_5_5
8.209227557820925108e-11
9.051636413670500815e-11
9.761464658223080328e-11
1.023642173120703850e-10
1.037112610653949547e-10
1.005396442496449416e-10
9.207527350742409676e-11
7.974127375630667147e-11
6.581638252548167453e-11
5.408920696554841720e-11
4.627992812074078605e-11
3.928668312318613969e-11
2.921385549001395365e-11
2.075806669626903409e-11
1.670852637544807948e-11
1.138788709466630447e-11
8.569110274876427156e-12
5.975523493108605612e-12
4.244959659823821439e-12
3.039690757012387266e-12
2.192387577267873901e-12
1.603200495047216461e-12
1.191547375611681490e-12
9.026187290874131497e-13
6.944730893409572310e-13
5.399763497597838023e-13
4.216890401583856141e-13
3.283630189576735803e-13
2.532619672515813528e-13
1.923642837036630872e-13
1.432356594656685645e-13
