# bin_10_1
4.660230137981036221e-30
5.217652158314988470e-30
5.733460168162968129e-30
6.154844433923599405e-30
6.415085513838771717e-30
6.453241045873568467e-30
6.188849304950048349e-30
5.602558535568657583e-30
4.795154084665895254e-30
3.936172472607962115e-30
3.254269961411029534e-30
2.806245913888755455e-30
2.341646785708762116e-30
1.683581443907258421e-30
1.230817550872247925e-30
9.745504838344373069e-31
6.548274059086153158e-31
4.868381288268794149e-31
3.413212765650225061e-31
2.375195715254825135e-31
1.668205811248626545e-31
1.178363606527955113e-31
8.428719582549819952e-32
6.123222130185522282e-32
4.537779592357059735e-32
3.424157054495263653e-32
2.623008687770238311e-32
2.028987755694826109e-32
1.573625718313208744e-32
1.214897804067881568e-32
9.275872968975276328e-33
