# bin_11_11
3.829652712446768721e-11
4.360525320667139748e-11
4.891897027747401166e-11
5.386724813992840401e-11
5.795768727959766658e-11
6.056500622610097021e-11
6.109493870975487981e-11
5.880019868940015368e-11
5.340418559254153572e-11
4.585680665508305763e-11
3.768481779361302356e-11
3.111089830381246380e-11
2.682514366872841498e-11
2.251811007712308718e-11
1.625725109381342275e-11
1.176470376165435231e-11
9.391799476916222179e-12
6.219436695680618055e-12
4.634270983898410343e-12
3.191798335889582786e-12
2.172937891674945160e-12
1.486273627694824542e-12
1.012408402794248835e-12
6.928165460596258925e-13
4.778964921096609694e-13
3.350252017164746364e-13
2.392220432084389186e-13
1.744648336863902494e-13
1.299313281192331284e-13
9.846580723072574710e-14
7.546681526550151747e-14
