# bin_5_3
6.554174328733077619e-12
7.146131798610566584e-12
7.600039038365378188e-12
7.831703631207884589e-12
7.772338349626500727e-12
7.321653691429736894e-12
6.516496242095152487e-12
5.488190969976152094e-12
4.491100609444173147e-12
3.758911696986833420e-12
3.244890406297063620e-12
2.605058536332885893e-12
1.831070857690084370e-12
1.412540791107656968e-12
1.057653176156351500e-12
7.491010615209988439e-13
5.388102866734528669e-13
3.900380265941728727e-13
2.793005476156919668e-13
2.020321494238944292e-13
1.483668220775201187e-13
1.108234920646727140e-13
8.427688962113637301e-14
6.512443826172810744e-14
5.085818717238279569e-14
3.988944616777807984e-14
3.120293657629797711e-14
2.417692802402437563e-14
1.844731001287771684e-14
1.379472033760773610e-14
1.007296984855362205e-14
