# bin_9_2
9.187763080448480207e-23
1.024759451543466126e-22
1.120826797199013632e-22
1.196249681988452778e-22
1.237685961094121559e-22
1.234353281380857055e-22
1.169628052510276417e-22
1.046578691826679575e-22
8.853735474307907147e-23
7.246083113574036191e-23
6.041708349405357068e-23
5.226177019723495063e-23
4.251592822549365484e-23
2.986398119386673433e-23
2.271386133794022239e-23
1.727755423739723189e-23
1.194320954117995482e-23
8.588329738220658508e-24
6.139865471128893224e-24
4.301298310999948915e-24
3.030319782024636140e-24
2.158955454336535856e-24
1.560441839578818242e-24
1.147590426404662962e-24
8.604784591541675054e-25
6.559420999612113395e-25
5.063087912037555189e-25
3.932471191862966657e-25
3.051184904886858615e-25
2.348594644654777620e-25
1.782818393790527635e-25
