# bin_9_6
1.036172375448242201e-12
1.165011700907456181e-12
1.286746161932310905e-12
1.390078559799379951e-12
1.460476450333399451e-12
1.482511401917778983e-12
1.440723922411965715e-12
1.322286009074510115e-12
1.147576446859660921e-12
9.477118905216177600e-13
7.780121383715565056e-13
6.656554286983431964e-13
5.674784809890104339e-13
4.229043357759829629e-13
2.977466697014239222e-13
2.411475171671288275e-13
1.619838365336570045e-13
1.220693093098147791e-13
8.354927269124175344e-14
5.817745521255536046e-14
4.078247787847923354e-14
2.860982438499422231e-14
2.023028146282100681e-14
1.448636332893659339e-14
1.057816362607574993e-14
7.874263345694843350e-15
5.964833357445827464e-15
4.580739370971707500e-15
3.542925031773225477e-15
2.739875375999013752e-15
2.103487549279962314e-15
