# bin_9_7
9.651744449505624655e-12
1.087488391350220206e-11
1.204185774355858550e-11
1.304975537544867892e-11
1.376455482328306336e-11
1.403482596644236782e-11
1.372846071950048794e-11
1.269259658064048876e-11
1.109523345443177901e-11
9.202350724625983780e-12
7.537562924434436376e-12
6.414486290636478993e-12
5.509286031725518362e-12
4.190828619099160728e-12
2.916048841974917478e-12
2.356620852340555400e-12
1.611490972639764714e-12
1.202491882258957928e-12
8.166608478892079059e-13
5.726259053979184582e-13
4.000938263553431091e-13
2.794325581499066024e-13
1.964415725387017412e-13
1.396308539431361463e-13
1.011258578993427321e-13
7.468109702626267043e-14
5.617806641157481843e-14
4.292397039736487635e-14
3.311035929502161756e-14
2.560169162704237370e-14
1.969771342939947542e-14
