# bin_8_2
2.894801061270093923e-20
3.210861947897504740e-20
3.488050020150979271e-20
3.691359161499205109e-20
3.779680463642033367e-20
3.719495494697846284e-20
3.464936640032075936e-20
3.051017048666890506e-20
2.544893940815043962e-20
2.082021371762649625e-20
1.759521060104986422e-20
1.516804350516572282e-20
1.181147040277275186e-20
8.213366279356373650e-21
6.539325905530336275e-21
4.650646631460354279e-21
3.400833193613778835e-21
2.357934513499172708e-21
1.692784183987103036e-21
1.201086047204010510e-21
8.562637034839337534e-22
6.183526603121518531e-22
4.532616931203153583e-22
3.386089855255541075e-22
2.575045576629083281e-22
1.985387380196073507e-22
1.543871539940813378e-22
1.202327399681228888e-22
9.311327395484383271e-23
7.125126345348547070e-23
5.359581306405766048e-23
