# bin_10_6
1.004851654334829345e-12
1.132055181015739633e-12
1.253414425034322682e-12
1.358233495403138990e-12
1.432581739896765250e-12
1.460708711858139759e-12
1.428888308168954629e-12
1.321217191018884578e-12
1.155087988479772543e-12
9.581515315960648095e-13
7.848179818746972878e-13
6.677678009043671391e-13
5.734801379048164308e-13
4.363564705201086545e-13
3.036358677315599674e-13
2.452909845143574368e-13
1.678077619977038775e-13
1.251566652299999647e-13
8.498984746919585726e-14
5.959626127691676315e-14
4.162616408614477008e-14
2.906201455275085565e-14
2.042297636969842347e-14
1.451078963263380869e-14
1.050471035388981967e-14
7.754394517441280097e-15
5.830972428174619767e-15
4.453932546533330746e-15
3.434911869619332109e-15
2.655614551831847972e-15
2.043087848490309777e-15
