# bin_7_6
3.020121012466783965e-09
3.363088600308210995e-09
3.671324680084658893e-09
3.909259536560408292e-09
4.033191837835824755e-09
4.008251902920406931e-09
3.781033312657543312e-09
3.369122766098818719e-09
2.839353993210589374e-09
2.323090876924566346e-09
1.943637412414327584e-09
1.680449864491306920e-09
1.352057624468763569e-09
9.457966760696088000e-10
7.287169651357452670e-10
5.446963116526497814e-10
3.820114387083570197e-10
2.715543531015127753e-10
1.946441885124229833e-10
1.367747580758977794e-10
9.659911868262719706e-11
6.904880126268523585e-11
5.007842943950041512e-11
3.697470293881611588e-11
2.782446832741100927e-11
2.127351834842568291e-11
1.645323341371692375e-11
1.278871306028975734e-11
9.918077996883884757e-12
7.622356544356266511e-12
5.772016838140874001e-12
