# bin_4_10
2.189534005006328781e-07
2.381120607932749566e-07
2.524447965467340747e-07
2.592284799994124414e-07
2.560225877736407185e-07
2.399453123422268432e-07
2.125765019071280039e-07
1.785789003955760679e-07
1.464009948993300517e-07
1.229689987806179014e-07
1.055853117454222847e-07
8.368741962590459187e-08
5.932931208697452253e-08
4.585032975893569005e-08
3.391260387279733685e-08
2.426543556904986191e-08
1.745810076140971387e-08
1.258037550258658525e-08
9.036018346887861033e-09
6.558617442801839419e-09
4.830842595467356961e-09
3.618621547508262891e-09
2.758869204753072610e-09
2.135712551240663640e-09
1.669296948917443167e-09
1.309037185633574681e-09
1.022754727023231321e-09
7.908436751387831883e-10
6.017762900676509461e-10
4.485434182276013095e-10
3.263951215265398024e-10
