# bin_3_3
3.723033899096122082e-08
3.934258804302745194e-08
4.025629029868972425e-08
3.958399076020556099e-08
3.691909954267980467e-08
3.256152259958485529e-08
2.727074759055821515e-08
2.236918003222383766e-08
1.883367966717958152e-08
1.611428598771630809e-08
1.265567984544699177e-08
9.009929215226995365e-09
6.999133480705345383e-09
5.154070790315885977e-09
3.730854509838015108e-09
2.701795621982871711e-09
1.969280749508747235e-09
1.438132313494651174e-09
1.064730647144486399e-09
8.018480863007857949e-10
6.145341011855153683e-10
4.785709538976275099e-10
3.769306486081445015e-10
2.982171060023703913e-10
2.353582249611720952e-10
1.840206834522335106e-10
1.416583011379486524e-10
1.068156210644256064e-10
7.859097108773999923e-11
5.629628709313117718e-11
3.925232979991935727e-11
