# bin_2_10
4.744558208264715458e-07
4.913031205733622672e-07
4.905416469256623664e-07
4.672673356618586761e-07
4.214343201992813718e-07
3.605419734346355096e-07
2.978089361384851185e-07
2.474262924622863184e-07
2.105699922784453092e-07
1.725385219662218023e-07
1.278985986641553015e-07
9.476714828404601214e-08
7.273393360383952096e-08
5.231186539097460483e-08
3.848652724670188347e-08
2.794775581966947296e-08
2.051685508324120447e-08
1.522762455541233311e-08
1.148499013193258965e-08
8.816848633182181711e-09
6.876916654444947703e-09
5.428222524385124469e-09
4.307608499722136502e-09
3.412162302017917280e-09
2.679514609532952366e-09
2.072893757660604666e-09
1.571491571158749429e-09
1.162997439240766677e-09
8.382438940097854732e-10
5.882055268425710763e-10
4.023658713137722279e-10
