# bin_1_8
6.972152214754437434e-07
6.821154916661003286e-07
6.356223833834566710e-07
5.621581965513365710e-07
4.753266289612878508e-07
3.936788387361890335e-07
3.293821526185278365e-07
2.760267254185127810e-07
2.190500000651585052e-07
1.627894219167432638e-07
1.222060139915284533e-07
9.207520269893446469e-08
6.717995814261090388e-08
4.954435093005632009e-08
3.653693832325861489e-08
2.728337568477560104e-08
2.068471080541313947e-08
1.596179717186236865e-08
1.252133252514190014e-08
9.943470774802587589e-09
7.945149628272795819e-09
6.341390547207925387e-09
5.020129604001166497e-09
3.916891414770873764e-09
2.996068639072001493e-09
2.237813174894059182e-09
1.628399733853583754e-09
1.153752360379173636e-09
7.968045231462017799e-10
5.376280679656868213e-10
3.554648522422057364e-10
