# bin_1_4
5.191759381014968906e-07
5.062528433634031409e-07
4.699355607603722906e-07
4.140695942348468835e-07
3.491878440890136135e-07
2.891539144322319418e-07
2.422241157302604087e-07
2.026177504846151981e-07
1.598622582340427888e-07
1.185469676037456250e-07
8.922359881866035082e-08
6.705030361581862388e-08
4.892538339469817873e-08
3.610473116858044280e-08
2.665479895565936864e-08
1.993588092242239551e-08
1.514512549322039421e-08
1.171159103162831902e-08
9.204178717753100805e-09
7.319137444404176128e-09
5.852235457076877395e-09
4.670808049464427977e-09
3.695035596872641795e-09
2.879266991122505760e-09
2.198449847334028263e-09
1.638564650782719044e-09
1.189599682192687192e-09
8.409184191398937945e-10
5.795131261772650176e-10
3.902775911582456295e-10
2.576305581500828155e-10
