# bin_5_4
3.604938378475562775e-09
3.936482872340401046e-09
4.194650122659627519e-09
4.333278901796158400e-09
4.313703739201333768e-09
4.080770366845617413e-09
3.646990462220807083e-09
3.083758743120916759e-09
2.525433619349803397e-09
2.106977168788148251e-09
1.817901785379726244e-09
1.473627045837067258e-09
1.042311337072294585e-09
7.934935686685677054e-10
6.029561561635707611e-10
4.222603326189732120e-10
3.067602803182294509e-10
2.209924844437026437e-10
1.578254409118232553e-10
1.139290987537248906e-10
8.340844602491992162e-11
6.209955973684908544e-11
4.706572064456291788e-11
3.626866770727563941e-11
2.826737996983698120e-11
2.214745131820345158e-11
1.732348543653703971e-11
1.343403745165564251e-11
1.026705971658558470e-11
7.695205287427406813e-12
5.635012167707005297e-12
