# bin_3_1
1.896173701646957647e-08
1.605886573902239125e-08
1.330063792376063720e-08
1.082410613764516893e-08
8.688371562799703393e-09
6.879491479861487539e-09
5.353609283106932754e-09
4.089421765986009663e-09
3.091830028821988921e-09
2.341267181882828482e-09
1.779041886620732726e-09
1.356917129386826666e-09
1.044937751756348891e-09
8.126132426908586591e-10
6.375140967891687586e-10
5.031559600968210172e-10
3.979097177327381293e-10
3.138709213899687481e-10
2.458268144185117225e-10
1.903792360351339967e-10
1.452719690455123550e-10
1.089158438209476853e-10
8.006814897268701205e-11
5.764352610649492263e-11
4.062460634567912111e-11
2.803893773303184052e-11
1.897470945358628327e-11
1.261220430939488796e-11
8.251487352887129835e-12
5.325779062837905114e-12
3.398687350623558085e-12
