# bin_5_3
3.774884696339057123e-08
3.364321467510054621e-08
2.917861111807773073e-08
2.465812916332020404e-08
2.037719351180731989e-08
1.655048845320541123e-08
1.326449938470407148e-08
1.048691455907316540e-08
8.139047632990869120e-09
6.188451223367529329e-09
4.655177970989468797e-09
3.511601054390910516e-09
2.652295303126596494e-09
2.006397121841821870e-09
1.532748459257327955e-09
1.180571029117733321e-09
9.173087036178865897e-10
7.171301870879081746e-10
5.621296991020296937e-10
4.399434327481839839e-10
3.422921618242396898e-10
2.636810725313552986e-10
2.004002417424645265e-10
1.498327405028067949e-10
1.099681587713612942e-10
7.911531898677937867e-11
5.575778280708335714e-11
3.849919974800349744e-11
2.606550021361105712e-11
1.732991959029718949e-11
1.133670115695183449e-11
