# bin_9_2
3.370402289321413875e-08
2.964084851415005617e-08
2.536512165013873048e-08
2.117763224295946100e-08
1.733665949453569184e-08
1.398856546690415547e-08
1.114670501962464241e-08
8.736761750862458282e-09
6.701091840875060716e-09
5.055432230312821088e-09
3.810012379712618443e-09
2.881120317286650569e-09
2.177966482406616761e-09
1.659899500707209513e-09
1.276986792047955394e-09
9.916924296723564313e-10
7.761467772928673772e-10
6.102226812960682884e-10
4.799277333757992874e-10
3.758696296670736811e-10
2.918626407945113595e-10
2.238186681075546915e-10
1.689548536696699132e-10
1.252286255785539968e-10
9.097640094575777566e-11
6.471897836920610996e-11
4.507772550906521112e-11
3.076216099343047910e-11
2.059704965321802336e-11
1.355714497769321624e-11
8.791749856159752184e-12
