# bin_7_7
6.138838965796908067e-08
5.708536613928969328e-08
5.171656265783623881e-08
4.559291940600540485e-08
3.912221878611651602e-08
3.274769305048813458e-08
2.685771679384653104e-08
2.168663980038171927e-08
1.728207455599052003e-08
1.355638491535933879e-08
1.041414422363220214e-08
7.848265072643268044e-09
5.879117330452895197e-09
4.416280860452627110e-09
3.308954548523701020e-09
2.488140340642720905e-09
1.886558682224828465e-09
1.440925755457160099e-09
1.108895342172659455e-09
8.579522150063861058e-10
6.651503341397719367e-10
5.147442814493361996e-10
3.960662151483061957e-10
3.018781934157738363e-10
2.271800379644355960e-10
1.683648975107097407e-10
1.226375445091878088e-10
8.768482862568910537e-11
6.150096591738656046e-11
4.231651016210587135e-11
2.858151320398629736e-11
