# bin_7_4
4.800981745861399418e-08
4.365450686636166092e-08
3.862807575527093750e-08
3.325965024821217473e-08
2.792014777015663905e-08
2.294895253788121159e-08
1.856498317954758787e-08
1.482730002150356822e-08
1.166673364904357554e-08
8.993361459867093523e-09
6.795529622990323640e-09
5.101555230617258675e-09
3.844923532203052256e-09
2.892757237961640396e-09
2.185079410352222732e-09
1.665807253663866461e-09
1.280164936651407584e-09
9.917856834114466323e-10
7.726619099903804337e-10
6.031520728628542627e-10
4.698267019113356383e-10
3.636699383811582598e-10
2.786385649441118511e-10
2.106041208743060504e-10
1.566058173684827758e-10
1.143367546872201825e-10
8.185299666467682391e-11
5.742599380943142602e-11
3.948879540659552471e-11
2.663806647411092361e-11
1.765315415375005737e-11
