# bin_14_12
9.103825574827720013e-08
8.761166635125975568e-08
8.234492443034652654e-08
7.542936966479150097e-08
6.723949777284593752e-08
5.830936761253402390e-08
4.926270658642422402e-08
4.069822781703941243e-08
3.304284575714735313e-08
2.645931421334760784e-08
2.087765022889440586e-08
1.614492251315442176e-08
1.220624163877980157e-08
9.107497919391553726e-09
6.795157857743117433e-09
5.056483843090642527e-09
3.750918049652409926e-09
2.801942559000477727e-09
2.103105763104840546e-09
1.590640826218615356e-09
1.210468706418962352e-09
9.250221002283321694e-10
7.077239516238406698e-10
5.402255841754422568e-10
4.099710956869488378e-10
3.082827730292947682e-10
2.290616956384616156e-10
1.678013556278958120e-10
1.209930959928211749e-10
8.578143837882791473e-11
5.977076832539808796e-11
