# bin_4_4
4.000082315492387633e-08
3.586657238910073292e-08
3.130045309055041395e-08
2.660760170099788044e-08
2.209772567379878674e-08
1.801489402003659958e-08
1.447928574450196977e-08
1.148469392109125767e-08
8.955814387496729602e-09
6.842192428276298494e-09
5.153080728015266456e-09
3.880202407827835792e-09
2.930495340605945870e-09
2.212348262363741206e-09
1.684239320564023893e-09
1.292958295239528555e-09
1.001228548772846354e-09
7.804985615233514698e-10
6.106258180682147855e-10
4.775110467097721316e-10
3.716551824453772642e-10
2.867317914399082026e-10
2.184761557960134179e-10
1.639132101451621689e-10
1.208092132660460217e-10
8.733032416765091486e-11
6.186369018825010400e-11
4.294004648507999484e-11
2.922175343346275269e-11
1.952163991728727423e-11
1.282506070482320077e-11
