# bin_1_1
1.367496940654437528e-08
1.139245463013333080e-08
9.313381337609834036e-09
7.501974977824925841e-09
5.963116021831639714e-09
4.666505286654962828e-09
3.586870531400839596e-09
2.721203341772015737e-09
2.061679400661257770e-09
1.569019617822981178e-09
1.198402336706768781e-09
9.229026219069825724e-10
7.181441023125311861e-10
5.638284791583841111e-10
4.456271162751623603e-10
3.531624413171354686e-10
2.793762393845306525e-10
2.195943818925907501e-10
1.707778166467375047e-10
1.309286703344733259e-10
9.866267753404766801e-11
7.291946159485169702e-11
5.278516941488871081e-11
3.740450899515441470e-11
2.595406040952107464e-11
1.765270942578509243e-11
1.178855012365192295e-11
7.745455537557823323e-12
5.018152132566222268e-12
3.213064923981256453e-12
2.037422188483890209e-12
