# bin_8_4
4.954984574790989322e-08
4.515281272068948672e-08
4.003870996682204265e-08
3.454117171380971568e-08
2.904275988997481777e-08
2.390101281708841411e-08
1.935379510763530553e-08
1.547280153530564704e-08
1.219029607236146421e-08
9.409024834429058406e-09
7.113265385303445626e-09
5.338006818681110718e-09
4.021847816397358286e-09
3.024453237325257922e-09
2.282030940491314965e-09
1.737948352762637116e-09
1.334114283948396207e-09
1.032630927341357125e-09
8.039665909698629347e-10
6.274110839553694057e-10
4.887724344818548391e-10
3.785125301554958609e-10
2.902425226394133206e-10
2.196094969752580895e-10
1.635109497354070799e-10
1.195478149366745441e-10
8.571175122453041272e-11
6.022394599113609067e-11
4.147318089731071719e-11
2.801451491426883724e-11
1.858770659048747932e-11
