# bin_3_2
3.768390518781129453e-06
3.985888850814630790e-06
4.082345737876626655e-06
4.019185937105016532e-06
3.752180088536558977e-06
3.312024264835681584e-06
2.773593828259944312e-06
2.273383970775823093e-06
1.914476654468794474e-06
1.642625253952233564e-06
1.291630995351825023e-06
9.149774308329520827e-07
7.144285678568871850e-07
5.248355693981337552e-07
3.807628874092465294e-07
2.748656029812050373e-07
2.007164700802595942e-07
1.465823005695556061e-07
1.084951360292535105e-07
8.170283892444873621e-08
6.261572746064825265e-08
4.876884849321059864e-08
3.842074426842468955e-08
3.040795411074963257e-08
2.400917507804998624e-08
1.878178506549894353e-08
1.446594709085695760e-08
1.091342879316818220e-08
8.033040328067849011e-09
5.755658849657232072e-09
4.013415038949488287e-09
