# bin_15_15
6.307560543295945781e-06
7.242511674575888705e-06
8.209938402860385702e-06
9.154863582745396231e-06
1.000376553706716767e-05
1.065824469887588968e-05
1.099614707196982120e-05
1.092599181548275599e-05
1.029331763941500074e-05
9.158778216470861433e-06
7.702135720503568180e-06
6.299565718853922872e-06
5.285170634416356306e-06
4.579565174220597279e-06
3.663569292005762314e-06
2.534661535961451398e-06
1.973931358106129731e-06
1.449217312858762600e-06
1.014292666333646749e-06
6.951915568655487696e-07
4.907979951033695255e-07
3.318010564269244700e-07
2.214745534725270004e-07
1.477475670343774127e-07
9.827879748385529668e-08
6.558195371236165642e-08
4.416452899856358183e-08
3.014467778472605321e-08
2.098098566703393246e-08
1.494486007814174824e-08
1.090616599921557320e-08
