# bin_5_3
3.810116062022288490e-07
4.157997716622628419e-07
4.426992368168642227e-07
4.568077511361634249e-07
4.540911656175810946e-07
4.286609760766269630e-07
3.823126851587282957e-07
3.226039551449081635e-07
2.641249314719462761e-07
2.208102958623661905e-07
1.906582878780359623e-07
1.537619523984752236e-07
1.083128553596013281e-07
8.313898745912430277e-08
6.266332930065558773e-08
4.416577176202195095e-08
3.189503198464505854e-08
2.305824303092639559e-08
1.649369171586223180e-08
1.191983201490426725e-08
8.742557713359996465e-09
6.521660531668803055e-09
4.952700902486237273e-09
3.822943633816954909e-09
2.983171983667743112e-09
2.338918446095697114e-09
1.829696737308037636e-09
1.418332951146348574e-09
1.083047340271077879e-09
8.107423635153490673e-10
5.927533401492001543e-10
