# bin_9_7
8.342590213413818092e-07
9.405636460252479251e-07
1.042260354062387077e-06
1.130500186685298205e-06
1.193717287538814840e-06
1.218684735189713862e-06
1.194097463023663282e-06
1.106186210881166731e-06
9.688573675077187344e-07
8.047266823529420206e-07
6.591004479984965195e-07
5.602665182682029726e-07
4.818946306998948501e-07
3.684072084240217137e-07
2.559897513805073183e-07
2.065047975098031244e-07
1.420543117664828131e-07
1.055934479177323570e-07
7.167625879561963116e-08
5.037173339674247049e-08
3.515873621004256422e-08
2.452444100250169863e-08
1.721844135957275274e-08
1.221830623176065572e-08
8.831880318454325847e-09
6.509701148992100197e-09
4.888191657526841848e-09
3.729864481879928707e-09
2.874824499057073237e-09
2.222463526902016704e-09
1.710603130385158405e-09
