# bin_11_9
1.265309881044998557e-06
1.437369684734799948e-06
1.607684635875303028e-06
1.763821542136106716e-06
1.889130417758155004e-06
1.962662890934697603e-06
1.966719252192416356e-06
1.874841380364204475e-06
1.687003951381986598e-06
1.434739846941061140e-06
1.175612554517223758e-06
9.767832208023824753e-07
8.453065166681825804e-07
6.963855275931734980e-07
4.917958531400521215e-07
3.675932458301181131e-07
2.845550387844858654e-07
1.920152949545292073e-07
1.390581162229864236e-07
9.754067602764461662e-08
6.669260210574172625e-08
4.559217527599957309e-08
3.124316509304911059e-08
2.157294397759880356e-08
1.506277674740299509e-08
1.070659919467486844e-08
7.758991597905735023e-09
5.741510314972125890e-09
4.329123679188416180e-09
3.309660468641737329e-09
2.547675381542230411e-09
