# bin_12_10
1.477878591592818898e-06
1.683520474610432507e-06
1.889792669432890882e-06
2.082448917283354601e-06
2.242577643517912612e-06
2.346106610314159352e-06
2.369680213482422168e-06
2.284928369719480611e-06
2.079239660742653725e-06
1.788873950665401434e-06
1.471229582742441893e-06
1.213248846579517957e-06
1.044998916641011915e-06
8.801118607298099218e-07
6.386361739593378107e-07
4.593593661742517056e-07
3.683999058987983760e-07
2.435808338123281203e-07
1.821864752488788637e-07
1.250302249092156415e-07
8.508667931975569174e-08
5.821873582958263748e-08
3.963094514543665387e-08
2.707754949879225642e-08
1.863377873303836847e-08
1.302798526648108768e-08
9.274729872300295733e-09
6.743347840068405953e-09
5.008322134857915628e-09
3.787480913713154580e-09
2.899209793350291642e-09
