# bin_9
0.000000000000000000e+00
0.000000000000000000e+00
1.857872592029026661e-281
8.000055911726779201e-244
8.122038359411075407e-212
1.956135022276446033e-184
6.755728849082640657e-161
1.408320028409345036e-140
5.670563571542922873e-123
1.140414018062824478e-107
2.504211137301011139e-94
1.148068266190661029e-82
1.886773142956959222e-72
1.749109826096320995e-63
1.340449725197293963e-55
1.173934593100868037e-48
1.547658161316207560e-42
3.887159779828066825e-37
2.276641109289553545e-32
3.700630468894424693e-28
1.940646015522643746e-24
3.741232797255325632e-21
2.970542508047860887e-18
1.072750669535710989e-15
1.921925327540880533e-13
1.843688373490775594e-11
1.012835364624732889e-09
3.381190580400438634e-08
7.229572004875022597e-07
1.037400445073206427e-05
1.041428644919548894e-04
7.590695112785118435e-04
4.152586554738623738e-03
1.756491125310393961e-02
5.899438658177783013e-02
1.611101116877707295e-01
3.653843906575489631e-01
7.011303946286224775e-01
1.157159160808302945e+00
1.666324745870495949e+00
2.119946796061257022e+00
2.408918067841375521e+00
2.468312564583712732e+00
2.300009867364770422e+00
1.963787444764105938e+00
1.546919438881123599e+00
1.131281303777627034e+00
7.725304451836656483e-01
4.952638986386387887e-01
2.995784514164262502e-01
1.717795992430222740e-01
9.378258172054937392e-02
4.894870770866544679e-02
2.451832536868849693e-02
1.182829949433056305e-02
5.514196709123161087e-03
2.491826614030872092e-03
1.094667919419309689e-03
4.687496538620513839e-04
1.961441868811467993e-04
8.038774382049147522e-05
3.233815592814374322e-05
1.279424499098858420e-05
4.987553172184754266e-06
1.918996438764125535e-06
7.298939759078365188e-07
2.748390276384842330e-07
1.025927122533919031e-07
3.801162254748336697e-08
1.399520948669571259e-08
5.125883947022042367e-09
3.097033427536392455e-09
