# bin_4_3
3.513257174612542908e-08
3.116624086700424346e-08
2.691224224612751923e-08
2.265719156788638745e-08
1.866877212643929809e-08
1.512927982151185343e-08
1.210026566635745555e-08
9.541175881614887524e-09
7.382431926916113748e-09
5.602502849100084691e-09
4.216205308105307503e-09
3.183855723113340079e-09
2.406473521244918226e-09
1.824451767854329336e-09
1.397034368094589160e-09
1.078641401729456963e-09
8.398468474142787749e-10
6.575503201284496178e-10
5.157844971573318265e-10
4.036056509186624704e-10
3.137080084648206344e-10
2.412403714088579281e-10
1.829106230838429713e-10
1.363653906134647539e-10
9.976307433809226880e-11
7.152902387223863555e-11
5.023715317988811526e-11
3.457093912549538588e-11
2.333270107610904679e-11
1.546957197365953950e-11
1.009534590126140464e-11
