# bin_13_3
4.580811753717202604e-08
4.132833095198779112e-08
3.625797651411674401e-08
3.094729880529441424e-08
2.577603179568541157e-08
2.106116259327906290e-08
1.697125167764208499e-08
1.350550031255554274e-08
1.056028503795691100e-08
8.069342184825580992e-09
6.067445852068911569e-09
4.566090455434497252e-09
3.443126845979758406e-09
2.591699519229128039e-09
1.968651552297315375e-09
1.507507224989035765e-09
1.165327244497826899e-09
9.076098031634976279e-10
7.101432133249583719e-10
5.559465278266950012e-10
4.335652371054752915e-10
3.353999198348910845e-10
2.563751043499505086e-10
1.930138786856765736e-10
1.427594497860920104e-10
1.035486506822513603e-10
7.358098213910661879e-11
5.121166790041091492e-11
3.492927573830611491e-11
2.337637063594966971e-11
1.537860516660708914e-11
