# bin_6_4
4.628482143868200932e-08
4.198837210169775149e-08
3.706992091703482189e-08
3.185254241340060431e-08
2.669353561354198378e-08
2.191236824067413122e-08
1.770805821204011757e-08
1.412717621734459899e-08
1.109999660346793226e-08
8.544646876817363053e-09
6.453080823039778472e-09
4.846189010359779443e-09
3.653190351544938862e-09
2.749686352454155044e-09
2.079144751258851621e-09
1.586533901140239216e-09
1.220489393064151988e-09
9.463343992179184480e-10
7.376544593151155939e-10
5.759355887680198179e-10
4.485453157809874687e-10
3.470109924835530645e-10
2.656487455056713292e-10
2.005643112639368842e-10
1.489471595144353148e-10
1.085909685222409319e-10
7.762490278715652068e-11
5.437967748368658483e-11
3.734157571084539003e-11
2.515724435640715446e-11
1.665293921613472559e-11
