# bin_7_3
4.105264048245048645e-08
3.680104544288858456e-08
3.209307820534196882e-08
2.725116908975423945e-08
2.260580301532947403e-08
1.841435879769263316e-08
1.479756562533393991e-08
1.173624865569020259e-08
9.141282016210846911e-09
6.966693856769233005e-09
5.239295693994334330e-09
3.947593244668843508e-09
2.978911500372613502e-09
2.247841227004270559e-09
1.712333750603297951e-09
1.315086461364627984e-09
1.019237706370628039e-09
7.953506942907767314e-10
6.228911073318082578e-10
4.875712560296849829e-10
3.797886686363961295e-10
2.931719941995570463e-10
2.234440708015696176e-10
1.676325449930856839e-10
1.235029741292089053e-10
8.921322996948078186e-11
6.313256723746597117e-11
4.376485669690010339e-11
2.974033060186077742e-11
1.983862784390970566e-11
1.301474930403221837e-11
