# bin_3_3
3.139821531802057148e-08
2.761804906287414588e-08
2.365662013702462507e-08
1.977706596164146137e-08
1.620621273124195956e-08
1.307828784063713734e-08
1.041789596892225295e-08
8.172437409187606688e-09
6.286728644292779524e-09
4.755087906158675766e-09
3.582531680711351000e-09
2.710414930693553918e-09
2.051504653612207605e-09
1.562309406584148368e-09
1.201449033779612430e-09
9.319054249567762253e-10
7.283357146107084638e-10
5.717491533295009723e-10
4.489889087479963525e-10
3.511706343050833691e-10
2.724017859512291673e-10
2.087619013251838954e-10
1.575604053616777349e-10
1.168195418409933432e-10
8.493613150038313887e-11
6.049860371705501953e-11
4.220689941011498009e-11
2.885656751093830065e-11
1.935832972118937220e-11
1.276533434059990637e-11
8.292017736473728918e-12
