# bin_15_9
8.374090915968447367e-08
7.995501578883300087e-08
7.449768732474532411e-08
6.760289713121211048e-08
5.967378444035204042e-08
5.124752122052649645e-08
4.291611765549997739e-08
3.520502862188961680e-08
2.843299998137260785e-08
2.266466261221320572e-08
1.777564011411664704e-08
1.363369171444910741e-08
1.024043969370847807e-08
7.641974144878232382e-09
5.714980050833640544e-09
4.250281145386227546e-09
3.170197940266060573e-09
2.380503816048910445e-09
1.799739235428990378e-09
1.370471705184015808e-09
1.049724587228969500e-09
8.064751747315940598e-10
6.193165706640867658e-10
4.736362027580993963e-10
3.594300582972124962e-10
2.697848977569669897e-10
1.997616598166692390e-10
1.456150490237433295e-10
1.043461446775640000e-10
7.344613477759550991e-11
5.076785404679253924e-11
