# bin_10_12
-1.832999867387223667e-12
-2.084943561945591319e-12
-2.335892633878009109e-12
-2.567995607345074900e-12
-2.757436961158491039e-12
-2.874103940660698613e-12
-2.890826236755324556e-12
-2.770517591117840424e-12
-2.505831642678061548e-12
-2.142486389306839558e-12
-1.758171490262507809e-12
-1.455419217477985873e-12
-1.257263040798736277e-12
-1.047038638324687530e-12
-7.482155127691458619e-13
-5.491370533088077069e-13
-4.328792166699005889e-13
-2.886329442661382718e-13
-2.126363018199066021e-13
-1.476342114114352427e-13
-1.006709106726261908e-13
-6.882284578691075530e-14
-4.698550153840810007e-14
-3.227473704381615887e-14
-2.238076835450089688e-14
-1.578431336484317966e-14
-1.134469770763270292e-14
-8.327994965136212371e-15
-6.237436314578657276e-15
-4.746535896788267172e-15
-3.645893038048861424e-15
