# bin_11_14
-2.848569209976669182e-13
-3.252717687474950297e-13
-3.662567817596127844e-13
-4.051097082212811683e-13
-4.382835317065972310e-13
-4.611949485309314798e-13
-4.688787549124317903e-13
-4.565437227796058278e-13
-4.197726441604572779e-13
-3.649582414284961416e-13
-3.016660389607370962e-13
-2.475919330437772185e-13
-2.118237763486112674e-13
-1.810211876429771884e-13
-1.351929270781399537e-13
-9.470378052870176439e-14
-7.689673121244295002e-14
-5.122540259581985842e-14
-3.853621254157039114e-14
-2.598228225666213330e-14
-1.774227371126901647e-14
-1.214693401660881517e-14
-8.249523146996538533e-15
-5.589944060263786735e-15
-3.799951228746778809e-15
-2.617025569092066710e-15
-1.831559243257923224e-15
-1.307835065897946039e-15
-9.550414834133198484e-16
-7.123183521696373857e-16
-5.402876110442368598e-16
