# bin_11_1
-3.421827648694297509e-09
-3.352884451987272344e-09
-3.129688425865448975e-09
-2.772473203397777778e-09
-2.346983392682082369e-09
-1.944342144151191788e-09
-1.626525195328939709e-09
-1.364469739115580582e-09
-1.085319569882540641e-09
-8.071668327636940317e-10
-6.055557614111226225e-10
-4.567808283240687731e-10
-3.332765955595565009e-10
-2.457863304778742595e-10
-1.812079029489478584e-10
-1.352572596698965175e-10
-1.024864306079549579e-10
-7.904062316625691532e-11
-6.197557335350645189e-11
-4.920361111485913247e-11
-3.931539485007788637e-11
-3.138839115353487674e-11
-2.486214498798420901e-11
-1.941354874551379150e-11
-1.486400292907920620e-11
-1.111432920459140402e-11
-8.096936423652231558e-12
-5.743388822238909036e-12
-3.970761529826524969e-12
-2.681792865441437358e-12
-1.774632552727933759e-12
