# bin_2_7
-2.369127657213141390e-19
-2.609035897356366160e-19
-2.809324693633178058e-19
-2.940250983356605887e-19
-2.972278195504913772e-19
-2.871743578568054341e-19
-2.620584111164427420e-19
-2.261466025110006911e-19
-1.863497851461807466e-19
-1.534392895589678173e-19
-1.316315851127798549e-19
-1.111900726189568006e-19
-8.185151519583114295e-20
-5.867566334257579377e-20
-4.710464207124701338e-20
-3.198089395912715538e-20
-2.408536155720002377e-20
-1.688058632587994496e-20
-1.197606005423893917e-20
-8.587123766319768380e-21
-6.207293036393725794e-21
-4.552023242722473433e-21
-3.394199206227841423e-21
-2.578929652589625289e-21
-1.989091377311009467e-21
-1.549217494941179446e-21
-1.210773193672978315e-21
-9.426593575162955453e-22
-7.263442006775935250e-22
-5.507695358232221471e-22
-4.091844681608791113e-22
