# bin_8_14
-3.618443505711112568e-17
-4.123026407253593351e-17
-4.629814602129701737e-17
-5.103977485310274420e-17
-5.499348762112457697e-17
-5.757078275279789613e-17
-5.819267589511293947e-17
-5.617443695636132504e-17
-5.117587482079403408e-17
-4.408091408605082750e-17
-3.627111314897195937e-17
-2.989209401069897654e-17
-2.572999212304545653e-17
-2.171070257326393653e-17
-1.580264515142229196e-17
-1.132669543752784297e-17
-9.106329659841644459e-18
-6.017424689478372468e-18
-4.509286245389439775e-18
-3.088010717507219721e-18
-2.101037069624515164e-18
-1.437743934876961116e-18
-9.782524902772919500e-19
-6.676117511180041221e-19
-4.587352005094863050e-19
-3.201186981986909782e-19
-2.274249728045663084e-19
-1.650063187113875745e-19
-1.223189954611710438e-19
-9.236726770112729189e-20
-7.064353284286437689e-20
