# bin_12_12
-2.139645153491903720e-11
-2.437187609190743632e-11
-2.735557243531786213e-11
-3.014111578952436814e-11
-3.245456488931536962e-11
-3.394723038241375927e-11
-3.428161196443108191e-11
-3.304776848539733413e-11
-3.006709142289245657e-11
-2.586350208361306800e-11
-2.127165092461180700e-11
-1.754559216866688814e-11
-1.511174394707172272e-11
-1.271926419444200794e-11
-9.228473454426470577e-12
-6.644070106063079237e-12
-5.320215516126363398e-12
-3.523450139084843293e-12
-2.630889453531639948e-12
-1.806151535582217305e-12
-1.229606305026522060e-12
-8.412609084145698116e-13
-5.728016491260646857e-13
-3.913828896435516643e-13
-2.693847867479789205e-13
-1.883527388900876118e-13
-1.341021124030635470e-13
-9.750944519098756525e-14
-7.242258216246197605e-14
-5.476660480932014118e-14
-4.191811744414841530e-14
