# bin_4_6
-9.771723855424929640e-13
-1.075877179872022561e-12
-1.158141471957727646e-12
-1.211686043883467690e-12
-1.224387649652076498e-12
-1.182316836116299851e-12
-1.078361503366130844e-12
-9.301194167202188822e-13
-7.663622326970477246e-13
-6.312610112626242951e-13
-5.416037709123596672e-13
-4.569802427650632380e-13
-3.361127878460483256e-13
-2.413681524250717185e-13
-1.934048912845595446e-13
-1.315069546381534269e-13
-9.887938311130275296e-14
-6.936343075207552122e-14
-4.922962408740531528e-14
-3.530108219595708087e-14
-2.552492442687852455e-14
-1.872517219395520908e-14
-1.396796148571426583e-14
-1.061651925960664884e-14
-8.190402992538997123e-15
-6.380005940245187485e-15
-4.986235326463861963e-15
-3.881628363023368807e-15
-2.990240613229991904e-15
-2.266746110844537439e-15
-1.683425913371048348e-15
