# bin_15_5
-8.261204026022022189e-10
-9.103305435518385097e-10
-9.809699961908088513e-10
-1.027718499983912972e-09
-1.040155058522989370e-09
-1.006872310280256661e-09
-9.212975048545575193e-10
-7.972597450755086618e-10
-6.586952149353953277e-10
-5.424498626182284917e-10
-4.638985656657991105e-10
-3.918925011891458519e-10
-2.915647275275495002e-10
-2.089420671789582916e-10
-1.661128225935728354e-10
-1.147693542408390994e-10
-8.528083194338457029e-11
-5.984018160864000338e-11
-4.262495481411878518e-11
-3.049731756995180534e-11
-2.199788006529823125e-11
-1.609602778015792021e-11
-1.197297830794684407e-11
-9.073627257061166723e-12
-6.982566905328741966e-12
-5.428721484924445497e-12
-4.237860506181762010e-12
-3.297973130340080649e-12
-2.541766523412074945e-12
-1.928980481161671208e-12
-1.435080987963776647e-12
