# bin_4_9
-9.107842804171117373e-18
-1.019142783029840988e-17
-1.119101296801804414e-17
-1.200273680498485642e-17
-1.249560681195233546e-17
-1.255295888516871598e-17
-1.201428517499684691e-17
-1.085476847791107438e-17
-9.271818136599985496e-18
-7.607454534005507574e-18
-6.300424368621639194e-18
-5.439135251373637118e-18
-4.519647511474817844e-18
-3.232717083809861318e-18
-2.381660660640173297e-18
-1.874032900165347100e-18
-1.263785162481816401e-18
-9.347727131613802129e-19
-6.582822667571908610e-19
-4.585167551180593672e-19
-3.221271259571184293e-19
-2.278518538632035652e-19
-1.632982199273216083e-19
-1.189165979935016059e-19
-8.832896914342027387e-20
-6.678976805904621570e-20
-5.124688373009179928e-20
-3.968048416514588841e-20
-3.078444282820272243e-20
-2.375841575725186736e-20
-1.812353569783217601e-20
