# bin_4_4
-1.102512273806869724e-10
-1.191209401886375802e-10
-1.252574911415570676e-10
-1.273509010373866523e-10
-1.241040650826340288e-10
-1.144277993315532104e-10
-9.977807850045983732e-11
-8.280534065865621874e-11
-6.799827144277069352e-11
-5.781677609510521417e-11
-4.924642193200990938e-11
-3.745720748182931002e-11
-2.658671293349755250e-11
-2.113563915437603637e-11
-1.491873632803539601e-11
-1.105032097851793964e-11
-7.825946762418782354e-12
-5.663818084809218323e-12
-4.107858412795882787e-12
-3.011449765395664400e-12
-2.244007970258172891e-12
-1.700979129625835503e-12
-1.311706312065926032e-12
-1.024432370194511463e-12
-8.052510405152110818e-13
-6.328002058025741571e-13
-4.936747077314397303e-13
-3.799531712226618874e-13
-2.869727332568364444e-13
-2.118237660679414885e-13
-1.523897145707779814e-13
