# bin_12_9
-1.595865698668565811e-10
-1.803801920032312350e-10
-2.005027148059410526e-10
-2.183075492327990173e-10
-2.316143324221752344e-10
-2.378145179181264526e-10
-2.348299615314615032e-10
-2.196277154938648254e-10
-1.941151653777274949e-10
-1.624065338989610907e-10
-1.329088186310399972e-10
-1.121038918279091226e-10
-9.682897365883996008e-11
-7.604026601133842475e-11
-5.277483092077235596e-11
-4.169836552299147744e-11
-2.985953715559834565e-11
-2.148416424155861018e-11
-1.475692811642113451e-11
-1.045136034900567742e-11
-7.240115855609980595e-12
-5.005901315749694001e-12
-3.486038654107576555e-12
-2.450838120781300736e-12
-1.751387983839951085e-12
-1.275993777612914978e-12
-9.478196850586950825e-13
-7.168908402455973031e-13
-5.493924320489875412e-13
-4.237869797701202455e-13
-3.265929350092405856e-13
