# bin_12_4
-1.017769204889746716e-09
-1.107293355679173148e-09
-1.174482557162251951e-09
-1.206642155140443343e-09
-1.192378389359022743e-09
-1.118190834504680672e-09
-9.912557684320027622e-10
-8.331811135977943571e-10
-6.832480111304787087e-10
-5.739130418713623741e-10
-4.929503882668934749e-10
-3.911158279334338143e-10
-2.773958727000078374e-10
-2.142738645539298028e-10
-1.586679595428071085e-10
-1.134820242040602846e-10
-8.169604147863859602e-11
-5.887169826100023134e-11
-4.228666966037478216e-11
-3.069351681812726936e-11
-2.260681345190324954e-11
-1.693329164860100350e-11
-1.290951994895144000e-11
-9.993518228316545322e-12
-7.811649321630510223e-12
-6.126793010261267692e-12
-4.788140647723038148e-12
-3.703748439714242292e-12
-2.819535920870441338e-12
-2.102649752405326907e-12
-1.530890873692650991e-12
