# bin_4_14
-5.172512333970826675e-28
-5.878943228502446776e-28
-6.579991892454704510e-28
-7.225015999805469788e-28
-7.746296637135974677e-28
-8.058463654570163871e-28
-8.087440335507703916e-28
-7.726315595115111639e-28
-6.966579203287107655e-28
-5.937452977841644323e-28
-4.867749099654822202e-28
-4.038238315910675215e-28
-3.492578220700887323e-28
-2.890292625691900157e-28
-2.050370184668688403e-28
-1.521256982590334013e-28
-1.186693627022491166e-28
-7.964598391485311063e-29
-5.810240137183003526e-29
-4.059029103894687045e-29
-2.771962912706592901e-29
-1.894654411661730539e-29
-1.296149585973896388e-29
-8.930017268198843282e-30
-6.217516893259700233e-30
-4.405046153662215305e-30
-3.181548198519722400e-30
-2.346714509163309759e-30
-1.764740976171558013e-30
-1.346762997057099361e-30
-1.035920899978274167e-30
