# bin_13_11
-8.195372834750235466e-11
-9.321249902720482846e-11
-1.044242599252543475e-10
-1.147901736387244428e-10
-1.232450518322352358e-10
-1.284422875781751370e-10
-1.291673615656485660e-10
-1.237730480898387208e-10
-1.119406321123193331e-10
-9.570763466019153849e-11
-7.855382486135656193e-11
-6.504165028168792912e-11
-5.616797158246301849e-11
-4.674511590979396860e-11
-3.343030368257118045e-11
-2.454484798456842588e-11
-1.931750455964152658e-11
-1.290944796068340124e-11
-9.493627570440275544e-12
-6.590567266544812920e-12
-4.496109462317882947e-12
-3.074814216684120170e-12
-2.100329722911730482e-12
-1.443072049978835810e-12
-1.000859084591065811e-12
-7.060172753088628963e-13
-5.075198106647368742e-13
-3.725941065279481129e-13
-2.790566244188169592e-13
-2.123231250985575396e-13
-1.630446107688397119e-13
