# bin_5_13
-8.371601793866254907e-23
-9.499333098425392906e-23
-1.060979665424521637e-22
-1.161996751877332888e-22
-1.241855957179438805e-22
-1.286626356292623346e-22
-1.285094872858287057e-22
-1.219584441259703298e-22
-1.092721956833247833e-22
-9.253670324806143700e-23
-7.575705137087894091e-23
-6.315754024341710358e-23
-5.469938990098664094e-23
-4.460972032128419699e-23
-3.125293306071531737e-23
-2.371979356018223632e-23
-1.804622068671483332e-23
-1.234125480686926416e-23
-8.793308560832974299e-24
-6.213786307924770440e-24
-4.259856310208565804e-24
-2.914650360209975590e-24
-2.004688304446528191e-24
-1.390078415829466262e-24
-9.760221547727910516e-25
-6.980008445551468305e-25
-5.090606367369977215e-25
-3.789474524756059403e-25
-2.870938011536315576e-25
-2.201593284892989982e-25
-1.696609850372148399e-25
