# bin_1_4
-4.821506838395002834e-15
-5.103112140970144905e-15
-5.230432451480669462e-15
-5.154801024959017767e-15
-4.817384161872311105e-15
-4.256410695011544139e-15
-3.566009570072952097e-15
-2.921533864628703347e-15
-2.458767489260171902e-15
-2.112489282327193184e-15
-1.665042427469729327e-15
-1.176884811679423363e-15
-9.194927534879421579e-16
-6.762964429654738992e-16
-4.902470052903564037e-16
-3.535859645676591893e-16
-2.583717159300726106e-16
-1.885973079074915876e-16
-1.395088867223462209e-16
-1.050011862107038443e-16
-8.043389140634385905e-17
-6.262524429056843905e-17
-4.932874085789863799e-17
-3.904267166377400768e-17
-3.083421551530448986e-17
-2.413089094920089656e-17
-1.859639601262202055e-17
-1.403896046265349647e-17
-1.034115530871349583e-17
-7.414644465003922024e-18
-5.173509580148078687e-18
