# bin_3_10
-5.885692171658792613e-23
-6.597273277633774548e-23
-7.259566117992928067e-23
-7.806423026202268657e-23
-8.153905216007322164e-23
-8.222460161304389700e-23
-7.912396992551656560e-23
-7.187421883319100745e-23
-6.173010377955734878e-23
-5.074276245609462558e-23
-4.188012853299845922e-23
-3.607163800588193606e-23
-3.028282254475053796e-23
-2.193754954557921708e-23
-1.588111335318432243e-23
-1.268507219156640667e-23
-8.484661498022383202e-24
-6.354189427122578407e-24
-4.429674739205271959e-24
-3.078954617272865870e-24
-2.161948430400534727e-24
-1.524296039499219958e-24
-1.087375651828051606e-24
-7.873683601886711445e-25
-5.816034445550270556e-25
-4.375930205382922885e-25
-3.344470933294224785e-25
-2.583624997483955048e-25
-2.003187073734687571e-25
-1.547593707153554814e-25
-1.183386378431875322e-25
