# bin_10_5
-6.047520214631918322e-10
-6.656647146670966838e-10
-7.163427758301711653e-10
-7.491946666503787362e-10
-7.567494813095141331e-10
-7.304587082670481595e-10
-6.663309906064663660e-10
-5.748718277760581131e-10
-4.742046558611107666e-10
-3.910010914203102539e-10
-3.349864411515730976e-10
-2.818822075876460137e-10
-2.080948062461807352e-10
-1.499980115846671231e-10
-1.190666185174720758e-10
-8.198177606705246425e-11
-6.100255662701116142e-11
-4.289665327719016389e-11
-3.053638019473805502e-11
-2.187867094444710409e-11
-1.581310501082730368e-11
-1.159759883905696506e-11
-8.648548996661445498e-12
-6.569985258495314571e-12
-5.065597944741459538e-12
-3.943369667197239817e-12
-3.079915248640022330e-12
-2.396220824149095029e-12
-1.845023991525310497e-12
-1.398064281496098803e-12
-1.038003081090778618e-12
