# bin_3_5
-8.934773897365770774e-13
-9.709818833880809822e-13
-1.028424364152701076e-12
-1.054497387353997075e-12
-1.039651812971327709e-12
-9.713406861564417644e-13
-8.578333684363382179e-13
-7.178135099714835083e-13
-5.876335154547139870e-13
-4.951478993092252923e-13
-4.264405627272494153e-13
-3.352283244420854770e-13
-2.349627122941034578e-13
-1.848941845463373574e-13
-1.344621345486865320e-13
-9.751062256949399225e-14
-6.920705338256316656e-14
-5.021639743981578967e-14
-3.616425773256222267e-14
-2.629550940948306389e-14
-1.942457740580402543e-14
-1.459492730251807594e-14
-1.116401339859311856e-14
-8.666790639847807873e-15
-6.788839907543656849e-15
-5.331291746060139502e-15
-4.167718184919723284e-15
-3.221918100301975213e-15
-2.449238573954520075e-15
-1.822534842102806533e-15
-1.323122890277810545e-15
