# bin_3_3
-1.600228387790593841e-10
-1.691662796590949270e-10
-1.731636268845750166e-10
-1.703443536565680218e-10
-1.589405628160459575e-10
-1.402362393349886112e-10
-1.174819711786986177e-10
-9.638187672333319653e-11
-8.116642656954547285e-11
-6.948463175774143023e-11
-5.459762891476663649e-11
-3.885692882120709481e-11
-3.020350734943349124e-11
-2.224469278913982962e-11
-1.610584756201941441e-11
-1.166289421163597573e-11
-8.503748997781177488e-12
-6.210849202444701078e-12
-4.598659376337473259e-12
-3.463586113979339788e-12
-2.654764301861198734e-12
-2.067661312327603168e-12
-1.628759218991132006e-12
-1.288857032680935143e-12
-1.017402732340001549e-12
-7.956735429389123592e-13
-6.126684385947829922e-13
-4.621023012308576104e-13
-3.400901860887008552e-13
-2.436746933934348649e-13
-1.699394212603849638e-13
