# bin_4_6
-1.014658530375004875e-12
-1.116411415935613181e-12
-1.200790933614058672e-12
-1.255006338877096208e-12
-1.266667913635463214e-12
-1.221030794072899274e-12
-1.111656492903767502e-12
-9.570817097715897600e-13
-7.879047188487893191e-13
-6.495652155958141081e-13
-5.578954449091358774e-13
-4.694947241057569240e-13
-3.436919435637586330e-13
-2.479096779478039348e-13
-1.982339164262211747e-13
-1.346699400880693719e-13
-1.012030367823345104e-13
-7.117420173543525206e-14
-5.049620253213215212e-14
-3.622941508405281256e-14
-2.622319996538051634e-14
-1.926325920030618996e-14
-1.439035678901846414e-14
-1.095246167453706110e-14
-8.458496107260807115e-15
-6.593226846760402892e-15
-5.153949261275170970e-15
-4.011208481300102953e-15
-3.088061921205784130e-15
-2.338594637127775939e-15
-1.734585810258064816e-15
