# bin_4_2
-1.084258721251838825e-09
-1.120058309768656893e-09
-1.114898620316175728e-09
-1.057597789301043577e-09
-9.495815257457142956e-10
-8.090018775476709739e-10
-6.671507879440912055e-10
-5.555689326028486662e-10
-4.735429449634803776e-10
-3.854258996833228130e-10
-2.833341890208204464e-10
-2.113739328303568934e-10
-1.618048909186016915e-10
-1.160892740630394903e-10
-8.557885845714078713e-11
-6.220057076731647422e-11
-4.572962006771842724e-11
-3.403136071741505157e-11
-2.574462884522336929e-11
-1.982378041038721109e-11
-1.550425812571838672e-11
-1.226344204682691545e-11
-9.743269718177124901e-12
-7.720038050553817994e-12
-6.058772911704184504e-12
-4.680514936642173960e-12
-3.540922762043062078e-12
-2.613597536677709248e-12
-1.878209390924847199e-12
-1.313990043542891386e-12
-8.962941262070047125e-13
