# bin_8_10
-1.377497813345868398e-12
-1.555375254276847558e-12
-1.726692014353255892e-12
-1.877081739417107905e-12
-1.987596058371426736e-12
-2.035838299308141940e-12
-2.003929468715827728e-12
-1.866551622663339662e-12
-1.643378837100744542e-12
-1.370165576859830059e-12
-1.121228368286872285e-12
-9.489689121783229931e-13
-8.190218022743930798e-13
-6.358464200735510937e-13
-4.402458259722014494e-13
-3.520967181774565269e-13
-2.472948707762702748e-13
-1.809493384211885963e-13
-1.229782618100728583e-13
-8.700328819060566658e-14
-6.048415478666139199e-14
-4.198435263784185352e-14
-2.934629489472535782e-14
-2.071475120168203189e-14
-1.487848384533623740e-14
-1.089693794923406369e-14
-8.135081916878812760e-15
-6.179146792143759507e-15
-4.749434868251713305e-15
-3.668812829496458286e-15
-2.827009817815801327e-15
