# bin_9_2
-1.974089239036085274e-09
-2.046417025785201956e-09
-2.045877674596759434e-09
-1.951680674364378529e-09
-1.762770524910794222e-09
-1.509825219597078827e-09
-1.247536223192641434e-09
-1.036094091964770787e-09
-8.822614921434145268e-10
-7.246554146341484626e-10
-5.376495068483601700e-10
-3.978175972665196660e-10
-3.059409159585648860e-10
-2.198990318180488238e-10
-1.618828059281175575e-10
-1.175095463180895382e-10
-8.624976790522253197e-11
-6.398997565472386757e-11
-4.823918026442623323e-11
-3.701529759467075141e-11
-2.886034560616871900e-11
-2.277642531749508223e-11
-1.807512381991280936e-11
-1.432157346996543782e-11
-1.125189921983920249e-11
-8.710318479124652432e-12
-6.608681410007346634e-12
-4.895083628081533995e-12
-3.531297797922339245e-12
-2.480009550818928794e-12
-1.697721310799358575e-12
