# bin_2_1
-1.199893767949600540e-09
-1.164443613528867798e-09
-1.074335305555922144e-09
-9.405835192733098769e-10
-7.891089243881507820e-10
-6.529384909584188301e-10
-5.487435907534665944e-10
-4.584699470597964951e-10
-3.576625990114816709e-10
-2.635754037371610781e-10
-1.998834362978709230e-10
-1.493316244469230452e-10
-1.089747683642310035e-10
-8.051822317230164274e-11
-5.957047505663234264e-11
-4.467857363039407790e-11
-3.407220318992564816e-11
-2.645316000142270697e-11
-2.086459627584219996e-11
-1.663801827236332387e-11
-1.332561874397257884e-11
-1.064002754123933947e-11
-8.410804267804846698e-12
-6.541682864905343566e-12
-4.980746741845876370e-12
-3.699008082963880173e-12
-2.674648900241177159e-12
-1.882820557988461791e-12
-1.292396663970489151e-12
-8.672932578274239312e-13
-5.707969459024513874e-13
