# bin_2_7
-3.150185179944050674e-19
-3.467012116746615556e-19
-3.730266781201960942e-19
-3.900278500061116556e-19
-3.938372870640736558e-19
-3.798915501372158840e-19
-3.460692637156858119e-19
-2.981230616204291762e-19
-2.454568432854189379e-19
-2.022705697018916211e-19
-1.737015227472652723e-19
-1.463678800098465333e-19
-1.072575697112166277e-19
-7.721240484122190479e-20
-6.187026542788302815e-20
-4.196327721614691213e-20
-3.159022244849349940e-20
-2.219521519814267776e-20
-1.574037503633666833e-20
-1.129194783122195294e-20
-8.170322218505043150e-21
-5.999211921894039207e-21
-4.479506965544791193e-21
-3.407972013487039650e-21
-2.631170657897341672e-21
-2.050612614982848077e-21
-1.602957025444142551e-21
-1.247711309988701628e-21
-9.608034942226392370e-22
-7.278719161375595348e-22
-5.401072032128578951e-22
