# bin_4_9
-9.924409585935240754e-18
-1.109606596094562769e-17
-1.217219119585572814e-17
-1.303884871339235579e-17
-1.355273540144721029e-17
-1.359007938218313366e-17
-1.297287872502707087e-17
-1.169097884672392387e-17
-9.959923458334539962e-18
-8.165543927212972442e-18
-6.774492980647500179e-18
-5.853853488760726288e-18
-4.839126707459540507e-18
-3.441066527891602023e-18
-2.557330400135748757e-18
-1.996229873552588220e-18
-1.353001050348683792e-18
-9.939929313521840853e-19
-7.033964552098025752e-19
-4.905877357183482757e-19
-3.448128489142614738e-19
-2.443390685466887678e-19
-1.755323400515487158e-19
-1.281842534496527278e-19
-9.547406012385440826e-20
-7.236567569468169115e-20
-5.562678310341270158e-20
-4.311615254628048327e-20
-3.345588573572415035e-20
-2.580410807389114460e-20
-1.965867122893122403e-20
