# bin_4_5
-1.496711423519224329e-11
-1.633850686080229482e-11
-1.740201863198452630e-11
-1.796552479314152436e-11
-1.786894392176374858e-11
-1.688258458265436180e-11
-1.506999213348830500e-11
-1.272800346070998748e-11
-1.042381923322833700e-11
-8.708889413143864511e-12
-7.516779599750778698e-12
-6.073553199398738179e-12
-4.287568656772653654e-12
-3.279890810536867496e-12
-2.480039774367886462e-12
-1.743831205391592049e-12
-1.262871876628813463e-12
-9.114620324214862596e-13
-6.516418406400434289e-13
-4.708101546763050198e-13
-3.451063305222328083e-13
-2.572720682132128000e-13
-1.952468093752713702e-13
-1.506222184698814115e-13
-1.174892753280024299e-13
-9.209763888441331941e-14
-7.204761318805301742e-14
-5.586179251549156568e-14
-4.267369830704955401e-14
-3.196247546791392467e-14
-2.338499386380436443e-14
