# bin_10_9
-7.652305645092064844e-11
-8.634027933916945661e-11
-9.576503540064885152e-11
-1.039925460735335943e-10
-1.099663874702889726e-10
-1.124614935624272866e-10
-1.104550077123893652e-10
-1.026243431210593785e-10
-9.013647078808064078e-11
-7.503416055441714220e-11
-6.143822542829261405e-11
-5.209785126429739533e-11
-4.487082046032448985e-11
-3.459813872407101751e-11
-2.402421862378740452e-11
-1.925547839882112924e-11
-1.342136656612230208e-11
-9.870236092114847019e-12
-6.719179752708186406e-12
-4.738748929176367425e-12
-3.299176789293475240e-12
-2.294321965197861467e-12
-1.606764010231054087e-12
-1.136931250888783554e-12
-8.189217681410913883e-13
-6.014682443574331528e-13
-4.501768001518194259e-13
-3.426064466960050220e-13
-2.636281229159141922e-13
-2.036848589194893976e-13
-1.568449225212877438e-13
