# bin_5_7
-1.131265913046975147e-12
-1.256009027407514080e-12
-1.366062467984177517e-12
-1.447802829852274154e-12
-1.485040391589856732e-12
-1.464719532369750695e-12
-1.368284299341934364e-12
-1.208086755720525548e-12
-1.009955275259749221e-12
-8.263729801253315806e-13
-6.971102113644803084e-13
-6.016311305117770269e-13
-4.718059503357838022e-13
-3.281675465379483884e-13
-2.598510152494282749e-13
-1.866782323777459647e-13
-1.354138822349738159e-13
-9.421672127171533078e-14
-6.771940384285495151e-14
-4.796226205678482197e-14
-3.412508695326164152e-14
-2.459734245873358420e-14
-1.799490697896696231e-14
-1.341431222803913440e-14
-1.018208512638719282e-14
-7.839183930499440258e-15
-6.090758709839303342e-15
-4.742553405261821258e-15
-3.674579118675184634e-15
-2.814714740647125351e-15
-2.120364339542549434e-15
