# bin_6_2
-1.583656985064926026e-09
-1.639945197429499052e-09
-1.637363232045579331e-09
-1.559336802533562945e-09
-1.405902245280414896e-09
-1.202248736651443459e-09
-9.928044830164233178e-10
-8.251914687966782919e-10
-7.028815123042613801e-10
-5.757683354389321163e-10
-4.260147299444847952e-10
-3.159737361201423297e-10
-2.426751460599373635e-10
-1.743278178293554325e-10
-1.283886424556629741e-10
-9.323032797460048174e-11
-6.846321826213505964e-11
-5.083984812595208270e-11
-3.836572880579046023e-11
-2.946982152300762140e-11
-2.299851509868388499e-11
-1.816256889290946433e-11
-1.441859604412428985e-11
-1.142445091307286415e-11
-8.972863697238848005e-12
-6.941790838592717028e-12
-5.262325369068051558e-12
-3.893766307710090877e-12
-2.805745427199006768e-12
-1.968210322548159861e-12
-1.345934344244209300e-12
