# bin_9_6
-3.285135255472166013e-10
-3.647354933526960369e-10
-3.966950617778600165e-10
-4.204405911985780795e-10
-4.313276072038080682e-10
-4.254356989282334597e-10
-3.976033859287822618e-10
-3.512116607141928816e-10
-2.939266014137064563e-10
-2.406844092573983360e-10
-2.029197690102882637e-10
-1.748334107249403613e-10
-1.372877577479961790e-10
-9.600476695324309582e-11
-7.549699647835471811e-11
-5.455713040677562504e-11
-3.934715668071331653e-11
-2.760213328933002353e-11
-1.976978585144693028e-11
-1.398842462156460999e-11
-9.950048261069522198e-12
-7.166727258043119490e-12
-5.239822552606991008e-12
-3.902815566830386218e-12
-2.959983232477713463e-12
-2.277110074417518861e-12
-1.767988391879692839e-12
-1.375897362959844885e-12
-1.065690983033970125e-12
-8.162049886686218741e-13
-6.148909483029387679e-13
