# bin_3_4
1.050362244406067467e-07
1.111493718491607675e-07
1.139449123601622115e-07
1.122932943792044805e-07
1.051707529241343822e-07
9.320260967822767373e-08
7.853815052380494933e-08
6.464426008661786367e-08
5.423734572681913824e-08
4.616891604947128458e-08
3.665090333837967070e-08
2.653742922584698787e-08
2.018491467300685928e-08
1.511993068443429570e-08
1.085436988533170834e-08
7.929381936235977209e-09
5.746447541988166182e-09
4.192635276130084075e-09
3.097944015823213820e-09
2.325958812162592132e-09
1.776807224802804623e-09
1.379084492789042200e-09
1.083216519603174489e-09
8.553851085384667897e-10
6.744300608547182565e-10
5.273388424187821590e-10
4.063599067651354656e-10
3.070255776395264167e-10
2.265649535644671715e-10
1.629073650370570520e-10
1.140758768066854350e-10
