# bin_5_10
1.520952523828162500e-07
1.673288311590184167e-07
1.799589477008839998e-07
1.880879148380703218e-07
1.898324332737728651e-07
1.831001357640579754e-07
1.670297009111505135e-07
1.441644483880995680e-07
1.191466962324300466e-07
9.839756970760271184e-08
8.409663628744197235e-08
7.045139375201989461e-08
5.232743535876016193e-08
3.791881243963974898e-08
2.970374410132201526e-08
2.078962375484972474e-08
1.527610478993658115e-08
1.078957652357980079e-08
7.697443111865910850e-09
5.510284761211175046e-09
3.980836162301790458e-09
2.918315751666272005e-09
2.175239762895771754e-09
1.651080703823674916e-09
1.271832810292908633e-09
9.890648761244081110e-10
7.716956399202999574e-10
5.998276446795494445e-10
4.614838085646600787e-10
3.494765943406280677e-10
2.593736231752052638e-10
