# bin_9_11
3.781666738544648200e-08
4.267874551708962869e-08
4.735268198779171921e-08
5.144170044430458318e-08
5.442496258844803625e-08
5.570133240894429440e-08
5.475530245748023820e-08
5.094711501633809406e-08
4.480798661242756051e-08
3.736568248184152432e-08
3.061254890842046805e-08
2.591950884286763477e-08
2.229941199930077001e-08
1.727393219245590230e-08
1.204705705074969969e-08
9.567480274388717886e-09
6.748111243157119598e-09
4.907286085114400062e-09
3.371284255809612534e-09
2.377140169134871293e-09
1.651606643357100492e-09
1.146382683294535136e-09
8.016071616708940326e-10
5.663818287102723414e-10
4.071411834612076499e-10
2.983979294852464925e-10
2.228649752026901168e-10
1.692800925887349029e-10
1.300535085591400134e-10
1.003765498619012068e-10
7.725730476745019241e-11
