# bin_9_12
5.101576252095930460e-08
5.760656724551662761e-08
6.395851314164643865e-08
6.953930910775540963e-08
7.364874149657164928e-08
7.547116292263127968e-08
7.431407227815983231e-08
6.929014438985013003e-08
6.106287302533028021e-08
5.100405166190459683e-08
4.178083174592246993e-08
3.531724373362844328e-08
3.041035253106961240e-08
2.369044978042536322e-08
1.652567918572323538e-08
1.306438977313521740e-08
9.288988613791414603e-09
6.712444766338587573e-09
4.626995771014267177e-09
3.263574365579464046e-09
2.264222865352781889e-09
1.569223696969733247e-09
1.095312397527920235e-09
7.723027538886579076e-10
5.537684644536902481e-10
4.048211658148989690e-10
3.016159845292477299e-10
2.286378420387009954e-10
1.754191202036317910e-10
1.353095727676349379e-10
1.041606775901258245e-10
