# bin_9_15
8.075760881995392104e-08
9.125537361919284563e-08
1.014060103403441362e-07
1.103727689877968369e-07
1.170523583874313975e-07
1.201456371052624017e-07
1.185581024536988728e-07
1.108435804128815861e-07
9.793763726129601244e-08
8.198498090707711062e-08
6.715642759223402469e-08
5.664641823949726622e-08
4.881754303751492118e-08
3.830327175514666685e-08
2.674732631000232522e-08
2.100880839068430007e-08
1.509411266928611274e-08
1.081957148951736443e-08
7.495725751421421390e-09
5.285506975864201648e-09
3.660361214940737573e-09
2.532333804530567118e-09
1.763517511058192511e-09
1.240117612423092591e-09
8.862654203193346772e-10
6.456784015151306955e-10
4.794986590162246629e-10
3.624811473090467692e-10
2.775751143621552817e-10
2.139085218867196840e-10
1.646771008856741984e-10
