# bin_1_10
7.215504421876128358e-07
7.048973793137872072e-07
6.573638562894955489e-07
5.835476659408536064e-07
4.965670632944101161e-07
4.132932744323766848e-07
3.446041799377904305e-07
2.866485212749838706e-07
2.287608307590186651e-07
1.725466280775015728e-07
1.289360177142174328e-07
9.697128463378091469e-08
7.131864853854107148e-08
5.245844922735135881e-08
3.876212899337078733e-08
2.891878590207972594e-08
2.189355128325720757e-08
1.685717183701865696e-08
1.318793042300287178e-08
1.044310899203292021e-08
8.322076782950392769e-09
6.627937990794066201e-09
5.239286982809277205e-09
4.085358786042116370e-09
3.126131497885281229e-09
2.338387717778963812e-09
1.705830516705467556e-09
1.212612656048195984e-09
8.405943706523037918e-10
5.693357803170621954e-10
3.777691519936819489e-10
