# bin_10_14
5.454187428952505879e-08
6.183551931841698369e-08
6.899338600305552420e-08
7.546860971261756359e-08
8.053268631509241468e-08
8.328667556951453556e-08
8.298824472382635384e-08
7.854495749101301773e-08
7.021136930194328493e-08
5.936133921207023296e-08
4.862883764980752194e-08
4.063399813469022723e-08
3.512680392683553522e-08
2.842593114699613294e-08
1.997417399771989974e-08
1.523118952338802399e-08
1.145221067791674090e-08
7.924374852203145828e-09
5.621772426981834237e-09
3.954907431682902546e-09
2.717622357912800945e-09
1.866241892952499086e-09
1.286840558673061146e-09
8.943558457827800389e-10
6.297752217244759252e-10
4.517327246050980720e-10
3.303950214324701925e-10
2.465006416157092299e-10
1.869910035722529143e-10
1.434130654980229103e-10
1.104070769502647406e-10
