# bin_8_9
2.854053492963017491e-08
3.203467112203423999e-08
3.530887961761028818e-08
3.804692291914943639e-08
3.984485951785409497e-08
4.029957498206371709e-08
3.895899935709421587e-08
3.557914929317524389e-08
3.072646664126124447e-08
2.534492803635469365e-08
2.088452421253552044e-08
1.790830669222562467e-08
1.511344105665716963e-08
1.114168675423169886e-08
7.983507366727768973e-09
6.365030973239105969e-09
4.319602453577407886e-09
3.211603188957900388e-09
2.222593832028905892e-09
1.552131362545963237e-09
1.087983736641123639e-09
7.649543933181439791e-10
5.432353716899527702e-10
3.911222958541007168e-10
2.871376671598063641e-10
2.147811309900605661e-10
1.633232092381491973e-10
1.257033417588284547e-10
9.726689448017000354e-11
7.512564516532463713e-11
5.752389296019524546e-11
