# bin_10_1
5.354457638498981214e-20
5.995450557615155022e-20
6.588803751434274112e-20
7.073866213237464447e-20
7.374011323460998175e-20
7.418623230995527198e-20
7.117027572774944520e-20
6.447441478548551367e-20
5.523172373581086919e-20
4.539349096053529358e-20
3.755606643682629881e-20
3.234681275973667198e-20
2.696179696337157690e-20
1.946985375219074493e-20
1.424058853354656589e-20
1.122135945235102489e-20
7.602651449627223809e-21
5.622479467129911465e-21
3.936355581134155261e-21
2.745466027973804551e-21
1.928810321867174986e-21
1.362877196766794929e-21
9.745257629161083160e-22
7.075838295602792512e-22
5.239946378292121296e-22
3.950929501522296385e-22
3.024112142787209637e-22
2.337514765875305167e-22
1.811802506633892934e-22
1.398182426320579964e-22
1.067303767197480779e-22
