# bin_7_12
1.007266646920608428e-07
1.126624224494483629e-07
1.236493712488046456e-07
1.325383149470520200e-07
1.378914806264597655e-07
1.383930340801356478e-07
1.323715881531572716e-07
1.196114441034046381e-07
1.022402731831055527e-07
8.404994208846847820e-08
6.970580855934746515e-08
5.998510428127932377e-08
4.963119005299757819e-08
3.581991439852311697e-08
2.641624317824606429e-08
2.054747640193971036e-08
1.409711205980887538e-08
1.032352095931912000e-08
7.242339416220128641e-09
5.067237310340571123e-09
3.564150898789760130e-09
2.523278644610799589e-09
1.808115259826727516e-09
1.316063749153806081e-09
9.767363684536243509e-10
7.377676912485135102e-10
5.653218180855511760e-10
4.370807084023578393e-10
3.385885150941216956e-10
2.609606968839689760e-10
1.988501122935368312e-10
