# bin_7_10
7.049336769122212584e-08
7.878822322598634431e-08
8.639356649268282815e-08
9.250017998533298156e-08
9.610001975502731170e-08
9.628747362134638102e-08
9.188152650820294971e-08
8.282332316143854418e-08
7.062629636584317979e-08
5.800905512576002839e-08
4.817621788981307459e-08
4.149671179297957427e-08
3.418549232966169867e-08
2.454036509290839760e-08
1.821364201484912139e-08
1.409869036308735960e-08
9.685096147829329591e-09
7.075197380221529766e-09
4.977687910737393050e-09
3.483198028857361487e-09
2.452266992647750012e-09
1.739041777852169180e-09
1.248799897964759159e-09
9.112549026926024948e-10
6.780096866201781533e-10
5.132814583977257176e-10
3.940052757575835077e-10
3.049566425231168903e-10
2.363167702020737623e-10
1.820668729604635025e-10
1.385947015017752067e-10
