# bin_7_6
-1.464922975118487171e-10
-1.623960444439566432e-10
-1.762933717152602907e-10
-1.864060338714286329e-10
-1.906854373360015779e-10
-1.873701664317918215e-10
-1.742877948004834935e-10
-1.532539011417526593e-10
-1.277798462448420996e-10
-1.046554153810405552e-10
-8.856177381062316916e-11
-7.616966161254681014e-11
-5.906773018400907132e-11
-4.127161731194798725e-11
-3.280308361187953061e-11
-2.329338330099380837e-11
-1.703712689088512149e-11
-1.186370885790498089e-11
-8.498887093852851192e-12
-6.033471391568337726e-12
-4.305488944366813053e-12
-3.112457309652103495e-12
-2.284382671102817642e-12
-1.708598246915025068e-12
-1.300601236214750997e-12
-1.003415316604396993e-12
-7.804435026783279797e-13
-6.076693921834491952e-13
-4.703440251433457900e-13
-3.596122887550118420e-13
-2.702192595320687042e-13
