# bin_9_4
-8.107247584987151398e-10
-8.812791539173940175e-10
-9.337486670473954262e-10
-9.580531387981164376e-10
-9.451224705067924486e-10
-8.844099819277273188e-10
-7.823541932811243382e-10
-6.564112097867412821e-10
-5.382343680648530798e-10
-4.528046169804922369e-10
-3.887431542623056332e-10
-3.068651280316730828e-10
-2.173284241416062726e-10
-1.686913315220932033e-10
-1.241226911992733052e-10
-8.917281503033390580e-11
-6.401095894218194759e-11
-4.618673418109847007e-11
-3.321269366608661112e-11
-2.413479169127975391e-11
-1.780230419308223824e-11
-1.335495681478649448e-11
-1.019696499416096625e-11
-7.903252938969120381e-12
-6.182578991711682498e-12
-4.850567549954158724e-12
-3.790028360567508605e-12
-2.929793273624898718e-12
-2.228031282629101408e-12
-1.659263590623746600e-12
-1.206112609327901181e-12
