# bin_9_5
-5.226214536927971403e-10
-5.751552419157550546e-10
-6.188000823289314794e-10
-6.469903457897689318e-10
-6.532856727578486692e-10
-6.302943951379461572e-10
-5.746547407715292421e-10
-4.955260309173977279e-10
-4.086440498015371880e-10
-3.370154671499990617e-10
-2.888246343670706158e-10
-2.428660480965753564e-10
-1.790579314735452371e-10
-1.292010372951311420e-10
-1.025249367754337489e-10
-7.055544842547789565e-11
-5.250930951291747889e-11
-3.693869457032680820e-11
-2.629230319560030588e-11
-1.884212982354238872e-11
-1.362292266864671673e-11
-9.995161841568925913e-12
-7.456643073632031664e-12
-5.666783494296415409e-12
-4.370580437482766121e-12
-3.403028531573866707e-12
-2.658105526130188131e-12
-2.067954516108819041e-12
-1.592018134174015861e-12
-1.206046660506903455e-12
-8.951436999607814970e-13
