# bin_12_13
-6.907888491723897528e-12
-7.882687852510877850e-12
-8.868311323954774256e-12
-9.798909454230023920e-12
-1.058778523798618888e-11
-1.112342327220178263e-11
-1.128839607506252443e-11
-1.096211382354671295e-11
-1.005002364968438628e-11
-8.712403282103119662e-12
-7.190688949926761526e-12
-5.908621483508093381e-12
-5.065097443000274506e-12
-4.312620042604901405e-12
-3.194966480497374548e-12
-2.252497932844844774e-12
-1.825566896955602239e-12
-1.211193892546713164e-12
-9.113606100371145751e-13
-6.173241781064931743e-13
-4.207917663904245689e-13
-2.881118631815716175e-13
-1.957928329897542548e-13
-1.329696317066610536e-13
-9.069114971767672668e-14
-6.272362256042069728e-14
-4.411152269507637323e-14
-3.166316201964897858e-14
-2.323816668935459276e-14
-1.740549874158540014e-14
-1.324053957068930633e-14
