# bin_15_11
-1.405048009035311001e-10
-1.598769888019378659e-10
-1.792083580023857856e-10
-1.971334339032716192e-10
-2.118341740663040314e-10
-2.210073864279508576e-10
-2.225308136153523791e-10
-2.136238488152197162e-10
-1.935557804996118638e-10
-1.657984909785745229e-10
-1.361760415348755319e-10
-1.126257425338583225e-10
-9.717342090459968589e-11
-8.114148059236009408e-11
-5.830193438952021644e-11
-4.255378820014892517e-11
-3.365220218046420364e-11
-2.244392312856095856e-11
-1.657264524338856282e-11
-1.146508758239185133e-11
-7.818487507612881956e-12
-5.347654246681593082e-12
-3.649650509876984223e-12
-2.503414052479259466e-12
-1.732242677280632700e-12
-1.218678032312805401e-12
-8.735052678803579973e-13
-6.394218749905082111e-13
-4.776870456036535584e-13
-3.627683892414282008e-13
-2.782786222579051204e-13
