# bin_9_12
-1.896647902279787620e-13
-2.155465576156782020e-13
-2.412188812541039614e-13
-2.648232487511491608e-13
-2.838741653555629423e-13
-2.952398871361262049e-13
-2.962141240310744520e-13
-2.828738209586985224e-13
-2.549560781781463180e-13
-2.172085489163265137e-13
-1.780573609145628954e-13
-1.477566745321899762e-13
-1.278057328314698183e-13
-1.056745597102877958e-13
-7.490476258901622487e-14
-5.565119195997957305e-14
-4.334969289751684379e-14
-2.912447671966753781e-14
-2.121819992589735289e-14
-1.483388862309404064e-14
-1.013272746121720581e-14
-6.926323578092277411e-15
-4.740041433366744891e-15
-3.267253843851392971e-15
-2.276126854793050175e-15
-1.613726753197796269e-15
-1.166333188338888669e-15
-8.608616738434683267e-16
-6.477278659744860546e-16
-4.944937697257701435e-16
-3.804166473167080099e-16
