# bin_3_2
-6.835067889574274709e-10
-7.034418699956064914e-10
-6.969343268051402498e-10
-6.571381236440369319e-10
-5.863307025264428522e-10
-4.967655037931324911e-10
-4.089879747138845610e-10
-3.416778764959725757e-10
-2.913700713137774656e-10
-2.346224106814277650e-10
-1.709506174412309107e-10
-1.288279316415728738e-10
-9.789458905694274201e-11
-7.026021054026217646e-11
-5.179101951212218334e-11
-3.773271572480082875e-11
-2.778595550504979860e-11
-2.074465796543255986e-11
-1.575170918588526960e-11
-1.217315264380260856e-11
-9.550761423473384465e-12
-7.571094561485426640e-12
-6.021435397975674580e-12
-4.770335467760700123e-12
-3.738985982212817945e-12
-2.881765549041000810e-12
-2.173242905698832754e-12
-1.598050482479889451e-12
-1.143720070408363577e-12
-7.969113475107545945e-13
-5.415661360061518757e-13
