# bin_9_2
-1.963035262951074632e-09
-2.035010682025063164e-09
-2.034540537427655045e-09
-1.940968530705617359e-09
-1.753170644201004672e-09
-1.501674048279291750e-09
-1.240825761700600288e-09
-1.030497590742845129e-09
-8.774843838564510775e-10
-7.207728161183114941e-10
-5.348180119739137581e-10
-3.956975248372037990e-10
-3.043149656659875620e-10
-2.187353911312144658e-10
-1.610205267158522706e-10
-1.168813561100640533e-10
-8.578579456670834957e-11
-6.364266390454547620e-11
-4.797484285190474412e-11
-3.681057116988247690e-11
-2.869933273241482784e-11
-2.264860686305145216e-11
-1.797335432396276441e-11
-1.424087959767406624e-11
-1.118862657596519557e-11
-8.661550751689355663e-12
-6.571914414572462389e-12
-4.868063352890492253e-12
-3.511975352075131895e-12
-2.466559855833720611e-12
-1.688591496472718332e-12
