# bin_3_9
-1.226374193574230153e-20
-1.368735203422752477e-20
-1.498229873013555354e-20
-1.600584179717130673e-20
-1.657979239360302954e-20
-1.655834736649593836e-20
-1.571865914837572386e-20
-1.408965996279789928e-20
-1.193981543231372233e-20
-9.776815538578304091e-21
-8.144112111736260214e-21
-7.045482749114167399e-21
-5.753589256092360187e-21
-4.050464260003723672e-21
-3.066485964571334124e-21
-2.346720374808828736e-21
-1.614522196384886666e-21
-1.166386469042203890e-21
-8.326185314110908969e-22
-5.827060526034177606e-22
-4.102138589956482171e-22
-2.918924273384585450e-22
-2.106927704325911139e-22
-1.547134117536112944e-22
-1.158401475239426322e-22
-8.819896836615686866e-23
-6.802271994805387244e-23
-5.281398440963398717e-23
-4.098286294880561389e-23
-3.156288458597779812e-23
-2.398054815849158879e-23
