# bin_3_8
-2.089098926904185526e-18
-2.319922503685171490e-18
-2.523807082164452440e-18
-2.675617826423375053e-18
-2.745337730145151792e-18
-2.709088112097274626e-18
-2.532093472124449640e-18
-2.236734786256872072e-18
-1.870490319521423653e-18
-1.530274213491104878e-18
-1.290400943138778049e-18
-1.114184865278002013e-18
-8.749676522645728369e-19
-6.081566700973509728e-19
-4.813958137887861146e-19
-3.463125710489090970e-19
-2.509660083186651546e-19
-1.745247263093783908e-19
-1.255176567781790413e-19
-8.886438580731646195e-20
-6.319547788393920060e-20
-4.552955527960056346e-20
-3.328979840980386576e-20
-2.480169607592893578e-20
-1.881622082933494762e-20
-1.448096183857316607e-20
-1.124859581002853811e-20
-8.758180702083211052e-21
-6.786595996425879579e-21
-5.199703244497863129e-21
-3.918321607165473652e-21
