# bin_7_7
-4.764292848240050823e-11
-5.312689387010883523e-11
-5.809103295539139521e-11
-6.197757919384926640e-11
-6.409564266092354727e-11
-6.388229028651842679e-11
-6.048595482935442367e-11
-5.408827907597290021e-11
-4.573816488712699431e-11
-3.744897737171905185e-11
-3.125813717916290792e-11
-2.703052011439800821e-11
-2.193332706167927500e-11
-1.541478765800853111e-11
-1.175271981574231124e-11
-8.904113348126259034e-12
-6.179455677019064604e-12
-4.436227095280745897e-12
-3.169631975735572404e-12
-2.222450334453011429e-12
-1.567306702222314648e-12
-1.117517979549221860e-12
-8.083073471137037051e-13
-5.949374490187728812e-13
-4.464097193080749924e-13
-3.404866098456027685e-13
-2.629029263233859286e-13
-2.042104571283415174e-13
-1.584200933727318529e-13
-1.218966074116173733e-13
-9.248408761286073942e-14
