# bin_2_6
-7.380481535556680793e-17
-8.057891834244953800e-17
-8.583858639473091860e-17
-8.863231829055679532e-17
-8.818028792455140047e-17
-8.333025265597825620e-17
-7.439173782142631323e-17
-6.282492538399536750e-17
-5.143517421211727948e-17
-4.296535155643532100e-17
-3.711002685119824409e-17
-3.000553252826282457e-17
-2.114260510692345446e-17
-1.618951524581198126e-17
-1.224724067677241371e-17
-8.605417968353323437e-18
-6.225488870053547418e-18
-4.500040709836162819e-18
-3.216592505028369751e-18
-2.323091290862093578e-18
-1.702678545852733767e-18
-1.269305808130931828e-18
-9.633191134646795888e-19
-7.432007830122442679e-19
-5.797742795809716581e-19
-4.545352922546242959e-19
-3.556361013738813250e-19
-2.757849970015362446e-19
-2.107097168683288999e-19
-1.578442947575385693e-19
-1.154980533677235293e-19
