# bin_13_9
-2.012167679800944409e-10
-2.274731606226212826e-10
-2.529014419151945153e-10
-2.754289475855287327e-10
-2.923095914872995690e-10
-3.002499955775646463e-10
-2.966317187622629197e-10
-2.776073149079431400e-10
-2.455071619421895010e-10
-2.055128445961355838e-10
-1.681857472815038025e-10
-1.417845773022978331e-10
-1.224848796066531033e-10
-9.635384074646708348e-11
-6.689508413183967992e-11
-5.276480842962088285e-11
-3.788695340013875650e-11
-2.719918151628194498e-11
-1.870943623215283042e-11
-1.325119504236396890e-11
-9.175523674316268343e-12
-6.341189460964058541e-12
-4.413695659902762317e-12
-3.101145329443956852e-12
-2.214475549600533487e-12
-1.612163304180217159e-12
-1.196625751879565076e-12
-9.044916977624558322e-13
-6.928385822787154071e-13
-5.343044417002857168e-13
-4.117522559020129593e-13
