# bin_8_4
-3.547287973265412319e-12
-3.953612602043795716e-12
-4.320356437145986432e-12
-4.605821358374665540e-12
-4.758389442379682586e-12
-4.736969986727528572e-12
-4.477513080686930658e-12
-3.997299263933856523e-12
-3.374305831515824874e-12
-2.761479198177674264e-12
-2.307907686849343573e-12
-1.996860783021924958e-12
-1.614177970336467118e-12
-1.130070668961385877e-12
-8.672013452761437355e-13
-6.527173357983193864e-13
-4.552659582611499374e-13
-3.247801307458128487e-13
-2.328767614976355820e-13
-1.634703544261274478e-13
-1.153276325155300392e-13
-8.234416823468696482e-14
-5.965179222151042185e-14
-4.398377166755692627e-14
-3.305859074066066598e-14
-2.525092577373131076e-14
-1.951819079971622385e-14
-1.516958118567573396e-14
-1.176891660571382777e-14
-9.051950435347753371e-15
-6.862312191518365231e-15
