# bin_14_8
-2.942473199004928190e-13
-3.354479466231386250e-13
-3.769253667349882729e-13
-4.158562390928509823e-13
-4.485068065871916126e-13
-4.701042735503714596e-13
-4.758362482505945675e-13
-4.602820715762268643e-13
-4.202181938605934199e-13
-3.627493400953360360e-13
-2.987622754882525774e-13
-2.459436752174076533e-13
-2.114271270935059750e-13
-1.789971661861722212e-13
-1.310493775866219469e-13
-9.334596035407409213e-14
-7.534697977813664735e-14
-4.977608783806308873e-14
-3.740709243444407290e-14
-2.551878669151863344e-14
-1.736265739415635436e-14
-1.188559772234411213e-14
-8.083182552327915976e-15
-5.507271314946654673e-15
-3.774586769734361598e-15
-2.626246956830903743e-15
-1.859578320307601758e-15
-1.344509927482412586e-15
-9.935166948959559751e-16
-7.483482526388095830e-16
-5.714393422643518576e-16
