# bin_7_1
-2.086341049670866279e-19
-2.290480881224043073e-19
-2.456834132109492482e-19
-2.558840544893170355e-19
-2.572274371550530980e-19
-2.465452051607831169e-19
-2.231497053709883670e-19
-1.909959598395140688e-19
-1.568748977448778354e-19
-1.297595540957813444e-19
-1.117606530137539884e-19
-9.311419688284204462e-20
-6.721916941932456889e-20
-4.929991040650324385e-20
-3.896416121198452143e-20
-2.656442162501628911e-20
-1.981633987256108031e-20
-1.406633981155190958e-20
-9.985724529964962342e-21
-7.174855410491821685e-21
-5.210593960896287091e-21
-3.844400709562517047e-21
-2.885781013010867016e-21
-2.205837360230473285e-21
-1.709217964126479814e-21
-1.335066559481610088e-21
-1.044267588015451062e-21
-8.120920647095320530e-22
-6.239329790971961707e-22
-4.710698821860445937e-22
-3.480447793057344374e-22
