# bin_4_2
-1.328420049567584371e-09
-1.421063389205418428e-09
-1.475667823606104159e-09
-1.478454255969919756e-09
-1.411384591481695043e-09
-1.273029987870507528e-09
-1.086321449170740140e-09
-8.921054399545915974e-10
-7.396786232214025022e-10
-6.363564500254168493e-10
-5.258405693977218050e-10
-3.796328597744431321e-10
-2.815848377392877020e-10
-2.200500052806097800e-10
-1.529916860489355758e-10
-1.137472067871066951e-10
-8.182632604096468729e-11
-5.912712561245103458e-11
-4.330026864578861031e-11
-3.217039520392638643e-11
-2.432332069820378114e-11
-1.870700286059033137e-11
-1.460406684365747652e-11
-1.150159728138449281e-11
-9.076629616240121421e-12
-7.127841903266516383e-12
-5.532523911205133745e-12
-4.220216400807263560e-12
-3.148921719203076325e-12
-2.290435672142473080e-12
-1.621598724286887663e-12
