# bin_10_15
-2.280426119293593805e-11
-2.607589492419649409e-11
-2.941306386999654330e-11
-3.260198188226955106e-11
-3.536345816675978002e-11
-3.733302675553621589e-11
-3.809461308030055634e-11
-3.729359156582796704e-11
-3.450022810070149078e-11
-3.017595527405995274e-11
-2.503249187231912497e-11
-2.050806259670355121e-11
-1.746544715053925313e-11
-1.501649553528881731e-11
-1.141016044834795369e-11
-7.918034672811340492e-12
-6.413606671596990139e-12
-4.345125931277934672e-12
-3.241837116639657078e-12
-2.169579219387115151e-12
-1.493664834706220185e-12
-1.020903763531302951e-12
-6.917908033829167556e-13
-4.668376570215611155e-13
-3.153327817217554017e-13
-2.153721643350076526e-13
-1.492617592222887143e-13
-1.054242120013235376e-13
-7.615434647715547729e-14
-5.625763108042797481e-14
-4.236615873781100009e-14
