# bin_11_4
-7.027321192295798907e-18
-7.925834088163557183e-18
-8.786882898554536432e-18
-9.536252900430946138e-18
-1.007670337251599196e-17
-1.029588429500791317e-17
-1.010013117365698716e-17
-9.369422341239195394e-18
-8.217063481116968029e-18
-6.831213906827001005e-18
-5.593436689823003090e-18
-4.749626940031721947e-18
-4.089401647406131226e-18
-3.138396584842908610e-18
-2.177878061195381799e-18
-1.754037045078178873e-18
-1.212254831950710015e-18
-8.981216886555192232e-19
-6.093933468817903442e-19
-4.289734679344555664e-19
-2.991434201086695329e-19
-2.084279889187376039e-19
-1.461687663999762261e-19
-1.035827994211814901e-19
-7.475283110545727885e-20
-5.501019881266448784e-20
-4.124878434962322805e-20
-3.144018427248548306e-20
-2.421774398009616126e-20
-1.872012442543587957e-20
-1.441395981923560235e-20
