# bin_8_2
-6.029539095767312907e-18
-6.685376131000053876e-18
-7.259096691852663431e-18
-7.677538205445722697e-18
-7.855475623970039696e-18
-7.722108137148932485e-18
-7.184338435502562961e-18
-6.318551314384909574e-18
-5.266231199481253168e-18
-4.310631287195987840e-18
-3.648186477142581950e-18
-3.142493963604238016e-18
-2.437096712585642257e-18
-1.696480123044869550e-18
-1.354519787329600405e-18
-9.580690896854532620e-19
-7.038352640869802816e-19
-4.875264564109447499e-19
-3.496672020842335320e-19
-2.483874590540256961e-19
-1.772985272402168717e-19
-1.281838688737547140e-19
-9.407436905885474861e-20
-7.036833691500990047e-20
-5.357232717773244766e-20
-4.133940134200005298e-20
-3.216194177518296806e-20
-2.504943818045301278e-20
-1.939443359244752382e-20
-1.483255565669094987e-20
-1.114820730439155484e-20
