# bin_8_8
-1.487434531753585074e-08
-1.675260114123413770e-08
-1.854124223885502406e-08
-2.008074223050359550e-08
-2.116386354091409476e-08
-2.155967013472987108e-08
-2.105944850550211348e-08
-1.943941473456994681e-08
-1.696704547306616407e-08
-1.406092495389473628e-08
-1.152646974756491110e-08
-9.824843401726625386e-09
-8.424823791825028022e-09
-6.376307055360772022e-09
-4.449693123982188511e-09
-3.600650690466553381e-09
-2.449599422676154895e-09
-1.834202597875978171e-09
-1.247779414428072008e-09
-8.732495677863528108e-10
-6.107693602996571307e-10
-4.271267335049919000e-10
-3.007200672463570205e-10
-2.141524888371042144e-10
-1.554232528190134784e-10
-1.150129247247236115e-10
-8.667386415206438995e-11
-6.631387234857975288e-11
-5.119089753429866694e-11
-3.958634802492680433e-11
-3.044292248684000632e-11
