# bin_8_13
-4.897586725260118478e-12
-5.574312930490547001e-12
-6.250412916642396800e-12
-6.878391915977613536e-12
-7.395023229713233500e-12
-7.720161786444041259e-12
-7.779107926366322207e-12
-7.474830196650105202e-12
-6.777881055996735106e-12
-5.810302445171227951e-12
-4.771969575304352855e-12
-3.943455000672679372e-12
-3.402990879640284441e-12
-2.848226298357190785e-12
-2.047757086700729549e-12
-1.489850380472969813e-12
-1.184046885846493430e-12
-7.857188475680537095e-13
-5.831918509755229342e-13
-4.029206622960156075e-13
-2.744493643976825742e-13
-1.876748626729647100e-13
-1.279350252734447755e-13
-8.767721304397581648e-14
-6.060337609589749080e-14
-4.258660714886773070e-14
-3.048782581556424914e-14
-2.229318969020819985e-14
-1.664096758462233831e-14
-1.263273924003934640e-14
-9.691374629725946068e-15
