# bin_3_4
-1.382935897820715872e-08
-1.492690316423671139e-08
-1.567578798953090385e-08
-1.591319824143662209e-08
-1.547393886873667120e-08
-1.422830007642727967e-08
-1.237301990339196072e-08
-1.024560227318121322e-08
-8.415296779373012204e-09
-7.172319757116202369e-09
-6.101931815686844624e-09
-4.603038991576905798e-09
-3.269582129108520127e-09
-2.614985803075191360e-09
-1.825701421271262999e-09
-1.363934183004073973e-09
-9.635524048222044637e-10
-6.967123880785764448e-10
-5.062919762654757276e-10
-3.718877911808802235e-10
-2.776671055305484865e-10
-2.108786863841101875e-10
-1.629189648503005573e-10
-1.274149953039820482e-10
-1.002377219763928836e-10
-7.878985276261006545e-11
-6.144479852310223444e-11
-4.724758303213628893e-11
-3.563556365426754975e-11
-2.625571245294878580e-11
-1.884811911756828037e-11
