# bin_4_1
-1.333017229958712060e-11
-1.411611737485519890e-11
-1.447730270834612158e-11
-1.427986203512611409e-11
-1.335873545567810527e-11
-1.181451457595816931e-11
-9.905898571980585194e-12
-8.115237853158371906e-12
-6.824790963425243312e-12
-5.865985065137815265e-12
-4.634747216956787166e-12
-3.276476159843953341e-12
-2.555038378848901134e-12
-1.884655006192665957e-12
-1.363273903323521365e-12
-9.843036605128068733e-13
-7.190054900925053128e-13
-5.245309236014856943e-13
-3.877863268248264740e-13
-2.916823026487733723e-13
-2.233001934028133072e-13
-1.737653755648816924e-13
-1.368211931959086683e-13
-1.082717499281176338e-13
-8.551014482582298216e-14
-6.693473792228236142e-14
-5.160289135987705050e-14
-3.897711347019159753e-14
-2.872895387146570518e-14
-2.061290418448259261e-14
-1.439225375583610542e-14
