# bin_4_9
-6.593634057490213506e-14
-7.380756195137787046e-14
-8.108222522457598037e-14
-8.701065375031871603e-14
-9.064619401869722887e-14
-9.113427413625923670e-14
-8.732278525316912798e-14
-7.898203065372790453e-14
-6.754066945176837958e-14
-5.543571970546184483e-14
-4.587679326759967370e-14
-3.958896615530528203e-14
-3.296927995627606611e-14
-2.364105594072870549e-14
-1.735274905549477156e-14
-1.370041705238206176e-14
-9.220128471934928755e-15
-6.839303672119609154e-15
-4.806550451791887187e-15
-3.346295476339795829e-15
-2.350627899291188441e-15
-1.661543513893709488e-15
-1.189711522459963220e-15
-8.653715289443712044e-16
-6.420855300466428437e-16
-4.850354619759220497e-16
-3.718746625131496355e-16
-2.878129972266480010e-16
-2.232615879934094351e-16
-1.723401022909958758e-16
-1.315258574570958234e-16
