# bin_14_1
-9.758472204551484726e-38
-1.108726664673705644e-37
-1.240371995060067026e-37
-1.361201850465730637e-37
-1.458397234990177239e-37
-1.515822402487977088e-37
-1.519699364988593267e-37
-1.449771617259811007e-37
-1.305430070460086355e-37
-1.111071530913268864e-37
-9.106158058167270356e-38
-7.562266590617795087e-38
-6.542456494885976513e-38
-5.397484405579946021e-38
-3.818789941256608641e-38
-2.846977278940487157e-38
-2.209161652641277859e-38
-1.488572699723337978e-38
-1.080500455977895305e-38
-7.567179088311421734e-39
-5.172062707205378573e-39
-3.535920430385363402e-39
-2.421836616775660996e-39
-1.670963185332161616e-39
-1.165558670487473806e-39
-8.275288270319558377e-40
-5.989927704316870044e-40
-4.427366057873038285e-40
-3.335045880733988338e-40
-2.547968364484749223e-40
-1.960717363129715328e-40
