# bin_4_13
-5.975995340374121748e-22
-6.778523286189039547e-22
-7.567419736995003541e-22
-8.283225489653276024e-22
-8.846249553230736996e-22
-9.156945241496481070e-22
-9.136224967586559147e-22
-8.657930362667762675e-22
-7.746799701561293441e-22
-6.551626571010968146e-22
-5.362522804121847232e-22
-4.475723702827224289e-22
-3.876696171178262305e-22
-3.150702543190895414e-22
-2.202682504945138880e-22
-1.679811107852360176e-22
-1.270493265908885457e-22
-8.730902214363455819e-23
-6.188481849679443672e-23
-4.381172729635881038e-23
-3.006327642106704526e-23
-2.058170556287431216e-23
-1.417399504213097186e-23
-9.842054961041986604e-24
-6.922912412348037101e-24
-4.960604460054658109e-24
-3.625060561916943548e-24
-2.703448216540302748e-24
-2.051055329837060249e-24
-1.574200972911840037e-24
-1.213400081360786907e-24
