# bin_12_7
-2.023992250924260262e-12
-2.297016948125459388e-12
-2.566065013422909137e-12
-2.811091645598706088e-12
-3.005229707758499295e-12
-3.114817949876470065e-12
-3.112590050425109237e-12
-2.955828363352875518e-12
-2.649965528944393896e-12
-2.245457847253629885e-12
-1.838475349148599110e-12
-1.531942508857093623e-12
-1.326700528747003059e-12
-1.083620870302047180e-12
-7.599323340749240857e-13
-5.755129943377376240e-13
-4.389917236346861112e-13
-2.995815983916179167e-13
-2.139596204630327220e-13
-1.510565931232221340e-13
-1.035145350234258396e-13
-7.081056979473377446e-14
-4.867609243805868633e-14
-3.373189536771067178e-14
-2.366533051247321603e-14
-1.690943109797982398e-14
-1.232119867638437137e-14
-9.164388764100337299e-15
-6.938535715252819781e-15
-5.318749648946495155e-15
-4.098305334014335832e-15
