# bin_4_5
-1.200398336185066754e-08
-1.315562335584216361e-08
-1.408069547718913079e-08
-1.462552945504957645e-08
-1.465542672416715849e-08
-1.398475703598858974e-08
-1.260288153032687221e-08
-1.074086428628111668e-08
-8.811207117227169620e-09
-7.309506910778990319e-09
-6.303696437637035247e-09
-5.205967639337727972e-09
-3.726276904437840037e-09
-2.769637459910082799e-09
-2.162155006169801187e-09
-1.485315997692097603e-09
-1.098339544396260406e-09
-7.845389284772318903e-10
-5.578982924651839684e-10
-4.014062724601259687e-10
-2.923181147038212180e-10
-2.163757632069253535e-10
-1.629915473766223821e-10
-1.249636416381397820e-10
-9.704651634573398792e-11
-7.590027188078130781e-11
-5.938007243709700434e-11
-4.614080971812851675e-11
-3.539042214110639942e-11
-2.665543179169920810e-11
-1.963498781367677678e-11
