# bin_10_12
-3.825112721684291470e-09
-4.356106517543938605e-09
-4.888033807593704651e-09
-5.383937127294439202e-09
-5.794723744451178544e-09
-6.057999576590338104e-09
-6.113960408575173759e-09
-5.888506999697896933e-09
-5.351986646919956190e-09
-4.599018127510923219e-09
-3.780524897258656449e-09
-3.119710164151871436e-09
-2.688902087310910372e-09
-2.260007824531562723e-09
-1.634751006023848795e-09
-1.180259247129327364e-09
-9.439087485525318612e-10
-6.246517982572360842e-10
-4.661462496825365926e-10
-3.206142489206078337e-10
-2.182313953818131190e-10
-1.492861037961613023e-10
-1.016606535401532148e-10
-6.952479895215179623e-11
-4.791386988214897106e-11
-3.355417957040724410e-11
-2.393127666004519116e-11
-1.743249277119472054e-11
-1.296909540331854957e-11
-9.820526121224531745e-12
-7.523232393807008831e-12
