# bin_8_3
3.761600902761287375e-12
4.183927098723821739e-12
4.560605541083407140e-12
4.846816294023745712e-12
4.988026559941329767e-12
4.941457358188271299e-12
4.641394081026384575e-12
4.119058869681846398e-12
3.458277300716500109e-12
2.829068105368119745e-12
2.376219777741551218e-12
2.054560108543560543e-12
1.634598357883242656e-12
1.138107123208085102e-12
8.896611616284831653e-13
6.528317677856327827e-13
4.652336221718836222e-13
3.265703759624756400e-13
2.349344010296342843e-13
1.656977690928057695e-13
1.173842838330651294e-13
8.424020137218486329e-14
6.134596182851415354e-14
4.550104235134477934e-14
3.438336364866514597e-14
2.637827411373698264e-14
2.044951874739584439e-14
1.591187458042633072e-14
1.233785950455607697e-14
9.469676062864241535e-15
7.155135700882987521e-15
