# bin_13_5
6.707260587278725424e-21
7.613929954204333113e-21
8.508427159567490503e-21
9.324463093116135364e-21
9.973201738688038730e-21
1.034321291501829978e-20
1.034327947411207493e-20
9.832087380521654264e-21
8.823017961431729517e-21
7.483250685958987612e-21
6.128078546602262073e-21
5.102480358436506730e-21
4.418181864987659190e-21
3.616849782778793487e-21
2.540864363943337824e-21
1.917739121128711349e-21
1.468518849031655021e-21
9.991229991423762475e-22
7.161683170708861314e-22
5.048067689020650512e-22
3.457218867283294511e-22
2.364427770296168689e-22
1.623990506470844388e-22
1.124341461736774870e-22
7.878283284457331819e-23
5.621620915178595744e-23
4.090514924193020543e-23
3.038522669071470491e-23
2.298145298932647599e-23
1.760494299335419823e-23
1.356223896559988796e-23
