# bin_7_7
5.688104561595474784e-11
6.374633916179376133e-11
7.012997663385475812e-11
7.539172558503164839e-11
7.871968739567328428e-11
7.934845063235115651e-11
7.631404087574642703e-11
6.928393843211919459e-11
5.947412142352661628e-11
4.888163399258586050e-11
4.035962915968798222e-11
3.476779578518862728e-11
2.915413408470974352e-11
2.109792078580405748e-11
1.530175382482048413e-11
1.219858140350428353e-11
8.171345037812521473e-12
6.108665468694137107e-12
4.262688685087634306e-12
2.964028618296222018e-12
2.081337366685425440e-12
1.468000741295994664e-12
1.047701188107228873e-12
7.590372652143990365e-13
5.609733700136938866e-13
4.222653089328098084e-13
3.228439423102083052e-13
2.494452771902116038e-13
1.934074433397768241e-13
1.493980446917658081e-13
1.142076297021616248e-13
