# bin_12_4
4.591757713350362055e-22
5.194907597348166609e-22
5.780867067022550695e-22
6.302770759607646495e-22
6.698179518550837531e-22
6.890892523852474292e-22
6.822816876906908273e-22
6.401268073012959175e-22
5.674324588228706252e-22
4.757358268223516073e-22
3.891208540557899570e-22
3.274012301719218625e-22
2.833478162265970888e-22
2.244324878283147282e-22
1.554030783623113276e-22
1.222230694503039227e-22
8.854117439968488668e-23
6.313668131175553694e-23
4.337984929362040537e-23
3.086730306340194938e-23
2.133522371499604494e-23
1.470695664630080462e-23
1.021801358165463759e-23
7.162989477316118041e-24
5.100777603528240753e-24
3.702977454904550160e-24
2.741346393380779213e-24
2.067900851329836299e-24
1.582140681352445117e-24
1.219854568701233611e-24
9.407182245393158391e-25
