# bin_14_14
3.307261656781427327e-11
3.790535008580260386e-11
4.287698360245159712e-11
4.768755443369185073e-11
5.194338873423102639e-11
5.512217574130835131e-11
5.659220385336350310e-11
5.587599785041257590e-11
5.222239139332034771e-11
4.612154032119144839e-11
3.853623123831094677e-11
3.152157169487574931e-11
2.662150179485644094e-11
2.302563627958866398e-11
1.801403799834684310e-11
1.242594186993763863e-11
9.893022070128426181e-12
6.997419652750595343e-12
5.058177779613497770e-12
3.394906243846033502e-12
2.381678671729611442e-12
1.617468769607070256e-12
1.086777408291049034e-12
7.286326499829270924e-13
4.876388572682766777e-13
3.286087189552214378e-13
2.240412743228354643e-13
1.552513342344996397e-13
1.099109238125286255e-13
7.965856825502914182e-14
5.905060878343720494e-14
