# bin_5_2
1.402202131191792507e-13
1.520069403693244771e-13
1.605023978001778296e-13
1.639644196914130145e-13
1.608525032335247658e-13
1.493807584984640081e-13
1.311628779415025362e-13
1.092663516467969186e-13
8.950447210927356789e-14
7.576589852371418617e-14
6.505554698006204190e-14
5.034146873957849641e-14
3.532857006216673080e-14
2.810770747832287126e-14
2.004132191605804083e-14
1.476144717152259759e-14
1.041399789765641060e-14
7.551750234628083293e-15
5.459707396496937128e-15
3.985489777433130275e-15
2.956213738832957684e-15
2.230240172150179332e-15
1.712674666618751678e-15
1.333579210348356846e-15
1.046564124920184076e-15
8.223558800544929018e-16
6.424264509703129321e-16
4.957301660865126604e-16
3.757861521347182941e-16
2.786181245932979006e-16
2.014223638714856844e-16
