# bin_6_3
2.688207978776314721e-13
2.954649699220466955e-13
3.173778775912442348e-13
3.311540670836079859e-13
3.335894458515375959e-13
3.206860057660519711e-13
2.911231918376115376e-13
2.499219210076952794e-13
2.054933783338074145e-13
1.696689229589425503e-13
1.459472924626501915e-13
1.222570249417100709e-13
8.886012781036070524e-14
6.459683565840946934e-14
5.140698376443785288e-14
3.494035659779163070e-14
2.618855695183051017e-14
1.850083941993836511e-14
1.312509310939923497e-14
9.423466051372687382e-15
6.831556160574565283e-15
5.029042825271261313e-15
3.765696813342097002e-15
2.872185847097777766e-15
2.221856387362411256e-15
1.733731523072782036e-15
1.355743874163194012e-15
1.054794556195154343e-15
8.112782895851179864e-16
6.134956932043087189e-16
4.541949167740948223e-16
