# bin_5_4
4.778954247358309673e-11
5.243553766504707733e-11
5.620395475806565130e-11
5.848532071958017919e-11
5.873083121305139985e-11
5.621050142004221551e-11
5.080550351375836180e-11
4.342522062656772232e-11
3.565415268589072601e-11
2.951971381143844880e-11
2.543454906267344132e-11
2.113010241252868433e-11
1.521389162467612814e-11
1.120602069197632983e-11
8.820508092544420058e-12
6.029325400836928952e-12
4.484543853730644738e-12
3.189425158719801268e-12
2.265487515659358644e-12
1.628487257915274004e-12
1.183689449879252495e-12
8.742176507116434551e-13
6.569415423549695989e-13
5.026257980145700834e-13
3.897350689582381695e-13
3.045399547914603633e-13
2.382177420400419574e-13
1.852040152088313219e-13
1.422149908814797940e-13
1.072893720010277807e-13
7.919378254092765499e-14
