# bin_12_2
5.250018970630191239e-30
5.930904063302363128e-30
6.588099159298010833e-30
7.167150183124543115e-30
7.596034634006344775e-30
7.788817271287699855e-30
7.678134674630518834e-30
7.164693221854698242e-30
6.318747428461223125e-30
5.275316510415125046e-30
4.316106897904600492e-30
3.647663393367290858e-30
3.150819025982661862e-30
2.458499491689405718e-30
1.701510704845851455e-30
1.355775166003161331e-30
9.593693021692164429e-31
6.977356499254534255e-31
4.750930671365059947e-31
3.367183735397588224e-31
2.337522818407235105e-31
1.619756796853076333e-31
1.130502051059601990e-31
7.965929701064866762e-32
5.709387684761486007e-32
4.172498823233251269e-32
3.108630383598092908e-32
2.357336809094075049e-32
1.809979243589339740e-32
1.397608591914784998e-32
1.077208705098916216e-32
