# bin_2_2
2.124148098246471622e-10
2.206747074045097844e-10
2.212383813649934897e-10
2.116034155457894961e-10
1.913995693124480727e-10
1.639084798951430772e-10
1.350003106945847078e-10
1.118417393385811812e-10
9.576330108763502948e-11
7.927284961576540815e-11
5.817000891074804865e-11
4.289919978691638600e-11
3.346198887658087648e-11
2.365914953943110439e-11
1.759169937168647956e-11
1.272280278015549915e-11
9.321630792710665724e-12
6.914693858928550065e-12
5.210957863983952144e-12
3.998333362746130975e-12
3.118119708619563149e-12
2.462547905929196948e-12
1.956156989433182378e-12
1.551787433477168175e-12
1.220806791161873529e-12
9.463060492182141299e-13
7.188199985666533775e-13
5.328679863342844932e-13
3.845192972208646002e-13
2.699830455996842624e-13
1.847030169738899575e-13
