# bin_15_1
7.585070059114017421e-42
8.637949734200355285e-42
9.692619965730178867e-42
1.067579727749932900e-41
1.149012912146150585e-41
1.201186463696665305e-41
1.212250621624460704e-41
1.167517182467753833e-41
1.061158815533684368e-41
9.118751200032104995e-42
7.496393690056689317e-42
6.186461676080323441e-42
5.331621242269470502e-42
4.480522475703693872e-42
3.241749203604142309e-42
2.340895537619758002e-42
1.870940472980813861e-42
1.239242688481108502e-42
9.240731754530965362e-43
6.355775176996532142e-43
4.327215956516619820e-43
2.960139984746366120e-43
2.016095057986278571e-43
1.378825623550594469e-43
9.502216110322326298e-44
6.654270678656306306e-44
4.745716291964700059e-44
3.456743751439928062e-44
2.571455242076332159e-44
1.946953643409132667e-44
1.491318223036255580e-44
