# bin_13_4
4.183405280266313945e-24
4.745374302431460058e-24
5.297878994933459052e-24
5.799310415971240709e-24
6.193897910846450313e-24
6.411958497532802048e-24
6.398078400589341760e-24
6.063902164562938322e-24
5.426448845428916638e-24
4.589784280982462420e-24
3.756811127113260794e-24
3.135231909263836839e-24
2.715599996460191275e-24
2.207748010832595390e-24
1.543717662687737623e-24
1.176771138048223189e-24
8.905093572654061093e-25
6.116867518020457536e-25
4.337664809514868852e-25
3.070437646556194240e-25
2.106740953938536329e-25
1.442223012866935471e-25
9.931107874017018126e-26
6.895132644627898423e-26
4.849319311387587208e-26
3.474238781841348964e-26
2.538462114867242189e-26
1.892825384121350430e-26
1.435894172164514649e-26
1.101990982577710742e-26
8.494093906459229220e-27
