# bin_4_6
1.106461842041045027e-07
1.201222404515773440e-07
1.270712170197147247e-07
1.301254449604049768e-07
1.280443553347575014e-07
1.194366416928426503e-07
1.053245171552953316e-07
8.813762172972832694e-08
7.226540035418152040e-08
6.093585405693944428e-08
5.226872654770380062e-08
4.094313919114738350e-08
2.894671564125445819e-08
2.262513410799505846e-08
1.648970284303745485e-08
1.192717358545138090e-08
8.525590941216262564e-09
6.162172635430094920e-09
4.438778057592431571e-09
3.231034336438056943e-09
2.388444315964986385e-09
1.795827752796381562e-09
1.374259666797573098e-09
1.067033743887364342e-09
8.357070312011208498e-10
6.559834593612785829e-10
5.124486798557337419e-10
3.957996295548670988e-10
3.005715440235808918e-10
2.234228455572327497e-10
1.620435166456702292e-10
