# bin_3_6
2.047192140978184654e-07
2.183302663069802868e-07
2.259174854218121471e-07
2.253055272139114185e-07
2.139684097312762884e-07
1.921418727435111081e-07
1.634686933539859387e-07
1.344349096270736182e-07
1.119099353943263054e-07
9.592230417758476655e-08
7.826143602387367174e-08
5.675679164510444126e-08
4.246235378079399472e-08
3.258796869391195267e-08
2.305512598164780113e-08
1.696829055260995926e-08
1.222317665672994864e-08
8.869589185174388040e-09
6.509679480881805100e-09
4.848501141477410819e-09
3.674427724793442864e-09
2.831780158051921628e-09
2.213358278973219553e-09
1.743747798636970983e-09
1.375332617055340141e-09
1.078528196366019216e-09
8.353943771407079556e-10
6.355820082841584218e-10
4.728728909355766272e-10
3.429819711258852262e-10
2.422233122847676959e-10
