# bin_8_4
1.961131518396302804e-13
2.183179221543450216e-13
2.382223991290610997e-13
2.535024931822714285e-13
2.613066942404778490e-13
2.593982228631745963e-13
2.442836575135923850e-13
2.173254903854806406e-13
1.828576020353512229e-13
1.495971815125367233e-13
1.253897236805716989e-13
1.084702452539724975e-13
8.688296441614669613e-14
6.058867313148386740e-14
4.702301594636032769e-14
3.487285769867952302e-14
2.462847466871699975e-14
1.739154342306892645e-14
1.250492852212723731e-14
8.802343112385372199e-15
6.224154921113552778e-15
4.457680043497298350e-15
3.239491685466557387e-15
2.397204678363711113e-15
1.807709076174481075e-15
1.384525776430795687e-15
1.072187068703892174e-15
8.339704101509018395e-16
6.468554467215777506e-16
4.969375881257998905e-16
3.760042961643131511e-16
