# bin_4_5
6.749640436598907372e-08
7.315013806785937046e-08
7.721403948496367306e-08
7.886256802956586114e-08
7.733176113261176985e-08
7.182443516110530740e-08
6.307434260410936005e-08
5.260639687441379867e-08
4.314265329206702187e-08
3.649352291500778025e-08
3.124618483478600865e-08
2.421436261755070870e-08
1.710954084975629843e-08
1.348416477239060020e-08
9.700827110628153967e-09
7.085261650509697220e-09
5.038518411649686660e-09
3.647005276774085637e-09
2.633804477759116275e-09
1.921955173682275602e-09
1.424975736856109646e-09
1.074667558801458574e-09
8.248167348598622501e-10
6.418877493860884175e-10
5.034658735548807777e-10
3.954063975730090410e-10
3.087638637618739171e-10
2.381839017485836635e-10
1.805211088681659713e-10
1.338399162473781623e-10
9.677706842705057834e-11
