# bin_1_7
6.407366106928354599e-07
6.299577011290619694e-07
5.902193940643136491e-07
5.246351069895584165e-07
4.450507510697843473e-07
3.686066767111225164e-07
3.080598695828785443e-07
2.590698376391257399e-07
2.071359132561961642e-07
1.541483160701099425e-07
1.154458468356318151e-07
8.730417339439212354e-08
6.365093851661851569e-08
4.693053183390940048e-08
3.455965531758308454e-08
2.575862451396595565e-08
1.948212742876458336e-08
1.499735983940633921e-08
1.174051742105222212e-08
9.310301619230659346e-09
7.435312000924589668e-09
5.936793387397510434e-09
4.705686623091067190e-09
3.678833507339754812e-09
2.821162750358031742e-09
2.113311286992467838e-09
1.542477637577921555e-09
1.096097553625517336e-09
7.590209249631168604e-10
5.133298188182726637e-10
3.400622118948075679e-10
