# bin_8_6
3.396480904497626889e-10
3.797680724149519451e-10
4.166275546216543643e-10
4.463293797403980266e-10
4.639730425134825885e-10
4.653038397444542646e-10
4.442690889641740760e-10
4.004548602862436134e-10
3.412554514414141907e-10
2.798149796552368529e-10
2.321208984938344095e-10
2.005336425936535671e-10
1.658163096580537500e-10
1.180242397737224832e-10
8.763882290804652504e-11
6.843343752791703572e-11
4.638963655323687997e-11
3.409291423066462330e-11
2.410726862758184773e-11
1.681315118201579252e-11
1.181830133904613769e-11
8.373702002475981489e-12
6.014172475721349381e-12
4.390516242212634555e-12
3.269163411847221339e-12
2.477197793985633510e-12
1.903741634091197037e-12
1.475342116751411141e-12
1.144695265063962077e-12
8.828914497974612285e-13
6.726771104412832319e-13
