# bin_3_2
5.148974909289819544e-09
5.400628073654083671e-09
5.476666994466427791e-09
5.319941372819562409e-09
4.891142081751941125e-09
4.254190755183777117e-09
3.528522890437973918e-09
2.901979868584767572e-09
2.467798962407208511e-09
2.090811578954248643e-09
1.585969949133668142e-09
1.136659319434248737e-09
8.980085991966251825e-10
6.399713888122724538e-10
4.742585914977290954e-10
3.406167088260533158e-10
2.491395762758964186e-10
1.833932185293270742e-10
1.369161618312799172e-10
1.040556572953680060e-10
8.044098137312954188e-11
6.310963135353865072e-11
4.994967030644254762e-11
3.960288501835466830e-11
3.123428631179665624e-11
2.433972846669716093e-11
1.863059093910421685e-11
1.394168221145691928e-11
1.016586574575804510e-11
7.212722998448256934e-12
4.982390916541244459e-12
