# bin_7_6
3.008330812076803379e-09
3.348634689239004022e-09
3.653528405837055624e-09
3.887352198391974228e-09
4.006491470206909738e-09
3.976351776582992467e-09
3.743940102278178894e-09
3.330238560839083396e-09
2.802047761257910314e-09
2.292756170038631351e-09
1.922023734980698711e-09
1.662007172744636702e-09
1.330454515985590294e-09
9.288021761481401408e-10
7.204820807130260061e-10
5.340951631988401851e-10
3.773320114566232742e-10
2.667556775860809066e-10
1.915655825291696292e-10
1.348608124541196395e-10
9.539420833842367272e-11
6.832543993839624341e-11
4.965779627509774441e-11
3.674925841169016307e-11
2.771358440497489205e-11
2.122603797393397940e-11
1.643688902723417292e-11
1.278385077243375045e-11
9.914397000322349747e-12
7.615545908451877301e-12
5.761403576597337978e-12
