# bin_9_5
4.787263994289712957e-13
5.363184421614727299e-13
5.897739191911607658e-13
6.336875535566384341e-13
6.612142119586480282e-13
6.659857891783929467e-13
6.397942236526904584e-13
5.801766618602889374e-13
4.974329562136578945e-13
4.086333750024460757e-13
3.376076286079425711e-13
2.910234493069481862e-13
2.435657966996013476e-13
1.757084146441163501e-13
1.278833215683100959e-13
1.017149461345689756e-13
6.816481655803869040e-14
5.087684450096984156e-14
3.558166998545531770e-14
2.474432681751090174e-14
1.737707634929325499e-14
1.226333252299830013e-14
8.761039230006646358e-15
6.355119577082425443e-15
4.702709035524803547e-15
3.543950060867778470e-15
2.712045881268272102e-15
2.096691956794061589e-15
1.626013047608969313e-15
1.255819595629350308e-15
9.595582017034657310e-16
