# bin_4_9
1.964161087259741494e-07
2.135653810648004550e-07
2.263543355112413077e-07
2.323377552312792595e-07
2.293193201628210271e-07
2.147243868781304730e-07
1.900640261918955678e-07
1.595472777137507429e-07
1.308222150786396944e-07
1.100081623178420528e-07
9.446516742401897871e-08
7.468164524821081848e-08
5.290237129826734819e-08
4.101159207574051407e-08
3.023068457711621699e-08
2.169007586302841512e-08
1.558117379238310404e-08
1.123915052934731985e-08
8.079052980978041577e-09
5.868619367991834014e-09
4.326803200730264592e-09
3.244306507521542204e-09
2.475954836060041516e-09
1.918288106374231275e-09
1.500265892378637388e-09
1.176914304341366401e-09
9.196312755911360952e-10
7.110259552624276477e-10
5.408758229025919574e-10
4.029594414549208549e-10
2.930449938165082607e-10
