# bin_8_14
9.435406121039126655e-08
1.062321678940946850e-07
1.175265879294035677e-07
1.272222719561499579e-07
1.340027362516516696e-07
1.364261071324759244e-07
1.331332646527641242e-07
1.228015108275801865e-07
1.071008855139238408e-07
8.877042982100166725e-08
7.283331667536378316e-08
6.208637859401439781e-08
5.310868651069028731e-08
4.015073398220171482e-08
2.816148775890780774e-08
2.264911842877418356e-08
1.550129047866432128e-08
1.152711932525645741e-08
7.885184874160300590e-09
5.525219611142016506e-09
3.860429695502279021e-09
2.697849888911937242e-09
1.900258106331953051e-09
1.354290961428744218e-09
9.834833345164898408e-10
7.281400716180061530e-10
5.488936130264870881e-10
4.199586834892068270e-10
3.240924908145920013e-10
2.504867084465419947e-10
1.924930314050360672e-10
