# bin_3_9
2.915027757948424737e-07
3.112427382629434376e-07
3.225193751933836187e-07
3.222128079165941941e-07
3.067159840040089804e-07
2.760924140010294639e-07
2.354141335184803009e-07
1.937399152209703512e-07
1.610619214749704375e-07
1.379877123576627246e-07
1.130668947349035084e-07
8.232612599198479119e-08
6.128898513117485635e-08
4.721627155052201097e-08
3.337480028516987612e-08
2.458538078593396283e-08
1.768450168216844521e-08
1.282626274960877042e-08
9.402524290117155861e-09
6.992524430242116849e-09
5.290892670334898360e-09
4.071352095143178691e-09
3.178408355441799027e-09
2.502165183358756836e-09
1.972994801484972945e-09
1.547572593656825509e-09
1.199526926949807335e-09
9.136092549888005970e-10
6.806813041418887190e-10
4.945150396529365168e-10
3.498436940877867950e-10
