# bin_11_3
1.637096110813325683e-18
1.844667483249953823e-18
2.042745711277691580e-18
2.213860014868629165e-18
2.335251898172459762e-18
2.381242084591548972e-18
2.329261504739210462e-18
2.153535108844941917e-18
1.882583948594055924e-18
1.561685755262993345e-18
1.279657336594897345e-18
1.089425322978607175e-18
9.355310322290473240e-19
7.112523463189225831e-19
4.952987606642177928e-19
4.003415789244113867e-19
2.736311317547510707e-19
2.042851041131935618e-19
1.388069378613237823e-19
9.731298750835854572e-20
6.800385476237490091e-20
4.750437811588992570e-20
3.340294511717414903e-20
2.374919574783560535e-20
1.720481944470637494e-20
1.270886144584490408e-20
9.562197955995265541e-21
7.307347719443803007e-21
5.637184908376336963e-21
4.358870973451546952e-21
3.353516403527231417e-21
