# bin_5_2
8.004839002228300007e-09
8.679253577170166747e-09
9.166364676065022352e-09
9.366537176604088216e-09
9.192116757502948875e-09
8.540239287714462962e-09
7.501808131136039423e-09
6.251365212328966364e-09
5.120430372705568054e-09
4.333051611701255314e-09
3.721483484667826568e-09
2.883046527073145828e-09
2.022871782545010304e-09
1.608343243940337930e-09
1.148313968148460467e-09
8.449328542099502816e-10
5.962789315790532780e-10
4.324409626397102931e-10
3.125673130130375873e-10
2.281113246192456463e-10
1.691565117136299589e-10
1.275838453528819994e-10
9.795205011643204555e-11
7.625679390385328283e-11
5.983839469898408421e-11
4.701798647165153861e-11
3.673278361993972158e-11
2.834873126679461353e-11
2.149385111047499358e-11
1.594008604894989576e-11
1.152689156524689684e-11
