# bin_5_4
2.944210848385462754e-06
3.231004346478883579e-06
3.463962601302077746e-06
3.605563212480166254e-06
3.621856881008036830e-06
3.468021001610396856e-06
3.135963471416615136e-06
2.681643656825581253e-06
2.202090154195954425e-06
1.822687711909982245e-06
1.570177766700752943e-06
1.305565833379179046e-06
9.409658478340449254e-07
6.921327197549527443e-07
5.454111066273248298e-07
3.726129878130600789e-07
2.773639105124316255e-07
1.971264878847152800e-07
1.400073231729451206e-07
1.006305014244157705e-07
7.312674257010332787e-08
5.399123072964225807e-08
4.055879569075641760e-08
3.102230023938430353e-08
2.404931118969771603e-08
1.878975718647782395e-08
1.469738465807198100e-08
1.142742831245699052e-08
8.776341042605441077e-09
6.622561211497047751e-09
4.889758681132823632e-09
