# bin_15_4
5.013268779907867906e-23
5.711913892032445774e-23
6.413354602447844349e-23
7.069304298660367730e-23
7.615747552169598912e-23
7.971117551434266359e-23
8.055409833899718580e-23
7.773615729387676453e-23
7.079629754586096454e-23
6.096195529837422888e-23
5.015549090313801119e-23
4.134252824115726163e-23
3.559183931906679580e-23
3.001445829326005949e-23
2.182973718907338083e-23
1.566320179710599521e-23
1.258115609989471342e-23
8.317789624434179771e-24
6.228076196527289566e-24
4.267638714409582011e-24
2.904163023262275271e-24
1.987285543154733459e-24
1.352438798913629176e-24
9.233304782049408289e-25
6.347339927368330468e-25
4.432002475699179744e-25
3.150669992140732745e-25
2.287394677256312257e-25
1.696603906222104562e-25
1.281705481375756411e-25
9.804888563352275903e-26
