# bin_13_12
3.674799827986842788e-06
4.199558984283998996e-06
4.733557521676677943e-06
5.242153740356809963e-06
5.680033118626272340e-06
5.988299652010074526e-06
6.101055940601696381e-06
5.959405380362209600e-06
5.498828771946377261e-06
4.797533412736352729e-06
3.973483938949154754e-06
3.257477333055136323e-06
2.779700713186921307e-06
2.384471109251322209e-06
1.798629651397549525e-06
1.252295792971529260e-06
1.016365992900703503e-06
6.828495163607008225e-07
5.118847857898443482e-07
3.434625802072735364e-07
2.354882895605999552e-07
1.611180114502942431e-07
1.093143885281628149e-07
7.389633071656953936e-08
5.004532989677657649e-08
3.430167109232034708e-08
2.387202992732845087e-08
1.694031088104211852e-08
1.229512281335605987e-08
9.121502357244512233e-09
6.891549362195946866e-09
