# bin_4_1
3.348428242256136572e-09
3.555795881599247747e-09
3.659137153443074121e-09
3.625185003199317090e-09
3.409970095788396256e-09
3.031718465421597040e-09
2.553035376260791874e-09
2.091502166455745329e-09
1.751923354781208701e-09
1.508246861724887378e-09
1.207303897700238712e-09
8.553371166676680134e-10
6.593490302423958940e-10
4.943140554680400825e-10
3.532666328089457063e-10
2.568327121308616742e-10
1.871725633611063665e-10
1.361282419187866375e-10
1.003477933363590829e-10
7.522539228919450183e-11
5.740205127756051101e-11
4.453662341606970042e-11
3.499559093131124798e-11
2.766469429743167224e-11
2.184951913697027633e-11
1.712150946278490547e-11
1.322597881179355774e-11
1.001764184262933159e-11
7.408551529428620030e-12
5.335057398123847138e-12
3.738578604676665127e-12
