# bin_15_13
2.296717966788412465e-06
2.632720996279235150e-06
2.978556695389589720e-06
3.313453819754583957e-06
3.610122875516217913e-06
3.832324188087855739e-06
3.936104772538845350e-06
3.888384811313419948e-06
3.636555453182866072e-06
3.213696548981277938e-06
2.686547315771276259e-06
2.197427711503327477e-06
1.854802497041803052e-06
1.604632838583455525e-06
1.257759622923360052e-06
8.675959075502791254e-07
6.896428522330350121e-07
4.893048987395585485e-07
3.527851992465473352e-07
2.370515317363621272e-07
1.664620373678277636e-07
1.129998746896826531e-07
7.587593104207671747e-08
5.084946147260927799e-08
3.401244400421255592e-08
2.290042748304966192e-08
1.559641905003500784e-08
1.079376574447223769e-08
7.630697089157927022e-09
5.522647745362634673e-09
4.088911347366817048e-09
