# bin_9_3
3.220848263242642199e-14
3.600671099433278689e-14
3.949301317646127824e-14
4.229729539739183777e-14
4.395439649878383396e-14
4.406322256132257034e-14
4.204781441446928395e-14
3.787994084524816205e-14
3.226179357507181092e-14
2.644862522443310964e-14
2.194883423124303077e-14
1.896617192942096658e-14
1.566503305720474939e-14
1.113532443620970603e-14
8.284724136987152744e-15
6.457533279216962501e-15
4.382548127946883521e-15
3.215547831870763082e-15
2.276354979610627617e-15
1.588068486888026424e-15
1.116328212785406586e-15
7.912573616538641885e-16
5.685746037923452121e-16
4.153182365243611725e-16
3.094165552219630116e-16
2.345747366144682026e-16
1.803402978228025071e-16
1.397881469288361950e-16
1.084639431253814599e-16
8.364686503106765810e-17
6.371423999043355008e-17
