# bin_10_6
6.250985144746084838e-09
7.052340871415817243e-09
7.821299271118678361e-09
8.492064264032752493e-09
8.978267159723856527e-09
9.179440380874396839e-09
9.013041918771877502e-09
8.369905006566989528e-09
7.347975477933536380e-09
6.113135230090239920e-09
5.004513206032165302e-09
4.245961705729542419e-09
3.658379768417411525e-09
2.816065881982016178e-09
1.952578289148201588e-09
1.570183548045105596e-09
1.089479273244809617e-09
8.048127874686457132e-10
5.460679718119014035e-10
3.849261171043484045e-10
2.682232964656291902e-10
1.867118084440103426e-10
1.308280390956345263e-10
9.261532088625213799e-11
6.675566905043172678e-11
4.906486160987524235e-11
3.674942760074397937e-11
2.798632179217616516e-11
2.154598665358983223e-11
1.665253979849309455e-11
1.282486729784078003e-11
