# bin_10_4
3.029288146602970013e-13
3.406070861565954093e-13
3.762102962216343378e-13
4.064318391177439593e-13
4.270172555527899528e-13
4.334605372724250239e-13
4.212074880362073044e-13
3.865547181523878078e-13
3.354639505887320428e-13
2.770806539934236644e-13
2.275659513574745652e-13
1.947841639213664324e-13
1.659978533110600991e-13
1.236133169400774872e-13
8.713077093007330908e-14
7.055418332101940785e-14
4.738365791426827559e-14
3.571262869600892243e-14
2.446154229548501207e-14
1.703316304067866602e-14
1.194141741786959865e-14
8.378715528957566675e-15
5.926455497920292554e-15
4.245388643488465584e-15
3.101226245541539987e-15
2.309314252721925971e-15
1.749850469023957528e-15
1.344093324169307880e-15
1.039690306942587219e-15
8.040391111239122278e-16
6.172381707074636550e-16
