# bin_15_7
6.467577280777195789e-14
7.380368052336059650e-14
8.303378693473507014e-14
9.174958983370257863e-14
9.913946352910629757e-14
1.041594655258110299e-13
1.057090669668061175e-13
1.026600467047187727e-13
9.412102011106564531e-14
8.159649900531913752e-14
6.734187424984585212e-14
5.533028463503586418e-14
4.743312070062608044e-14
4.039552999353161854e-14
2.992553265047710907e-14
2.108755271153698698e-14
1.710503670305740376e-14
1.133648011648341738e-14
8.538297921318463759e-15
5.782739805882622353e-15
3.939876647796096425e-15
2.697954209743154403e-15
1.833449999592716482e-15
1.245091782484793679e-15
8.491469203247495458e-16
5.872536987796233558e-16
4.129749992012040527e-16
2.964212577931461487e-16
2.175470253231434574e-16
1.629487546037345756e-16
1.239657450818125158e-16
