# bin_15_2
1.169495850557317830e-31
1.331907378905215555e-31
1.494641863974326842e-31
1.646403390931465425e-31
1.772190924283304249e-31
1.852931434222311871e-31
1.870300653442986500e-31
1.801721211629755289e-31
1.637966821568681472e-31
1.407880419722464574e-31
1.157490744611485574e-31
9.550834711733103945e-32
8.230240449888867157e-32
6.919445603865811378e-32
5.009235926292060673e-32
3.614366581962960299e-32
2.890772607412806414e-32
1.914026314924374393e-32
1.428132988971711036e-32
9.818325047371918606e-33
6.683992381423565532e-33
4.572523887585156021e-33
3.113900817376381859e-33
2.129183158876218268e-33
1.466927643802152896e-33
1.026929803023035157e-33
7.321282681649701564e-34
5.330862797636003909e-34
3.964370186745831429e-34
3.000908435594074375e-34
2.298355583528935387e-34
