# bin_7_7
4.570913840988605987e-06
5.121268457131793906e-06
5.632346349685399312e-06
6.052583922014359105e-06
6.316652364824335441e-06
6.363561014698588491e-06
6.115224239194826750e-06
5.547352972103513892e-06
4.757910821742511603e-06
3.909290204496593004e-06
3.229324218847378658e-06
2.783022271269101813e-06
2.330301590061071498e-06
1.682889051835573652e-06
1.223667778909971133e-06
9.736195952810486213e-07
6.526810229972606925e-07
4.871926164367851095e-07
3.404858001923986220e-07
2.367940869253949202e-07
1.662830799236255602e-07
1.173296618188031856e-07
8.379089890405025501e-08
6.075690293916640959e-08
4.493900134521721774e-08
3.385264768525770984e-08
2.589803927517726172e-08
2.001784313052881998e-08
1.552304515299613397e-08
1.198969029259559767e-08
9.162854845848665002e-09
