# bin_5_3
3.903422119848483974e-07
4.256580790384947169e-07
4.527671718097882256e-07
4.666505055196156357e-07
4.631964623860308675e-07
4.364232357841588780e-07
3.885232229621133603e-07
3.272990972095573070e-07
2.679195133450274492e-07
2.243056614439018151e-07
1.936544610238634323e-07
1.554666181519069838e-07
1.093022233021918648e-07
8.435106181386326442e-08
6.314686078631686918e-08
4.474464435201812508e-08
3.218076723887516012e-08
2.329795020721498884e-08
1.668570060834921221e-08
1.207085336165624349e-08
8.865342415266240507e-09
6.622718690523451280e-09
5.036947190527616902e-09
3.892686207066215772e-09
3.040340474488898763e-09
2.384951230987869152e-09
1.865857360473177743e-09
1.445935642673590727e-09
1.103436147715501559e-09
8.252648573624039638e-10
6.027021345825879077e-10
