# bin_2_2
1.095986621730145949e-05
1.137786487324360741e-05
1.139698755150786205e-05
1.088790798215213805e-05
9.836580079056905608e-06
8.414292581950943707e-06
6.927565319597479723e-06
5.742893523661997763e-06
4.918868780257959087e-06
4.063564911041102088e-06
2.975486164882167800e-06
2.199768667734230650e-06
1.712862690234459266e-06
1.211408297579788635e-06
9.004048869069903118e-07
6.516987144156539294e-07
4.775865872658231167e-07
3.544732787001161444e-07
2.673282545807335359e-07
2.052710382179113665e-07
1.601935526120664058e-07
1.265781946015317493e-07
1.005794877181530164e-07
7.979486414919330340e-08
6.276716930370409976e-08
4.863813253546276088e-08
3.692801082198929460e-08
2.735875775254784703e-08
1.972928625077711660e-08
1.384371857107344870e-08
9.465486697893156439e-09
