# bin_9_7
8.524151796738253909e-07
9.605478169943124690e-07
1.063761975325066160e-06
1.152966726391130820e-06
1.216315073658528990e-06
1.240421670511569634e-06
1.213549346193219194e-06
1.122210118768553114e-06
9.812026610489117482e-07
8.140368117327144969e-07
6.669858701296078127e-07
5.677548753790680895e-07
4.876583426299832772e-07
3.709415032095981549e-07
2.582247207219846407e-07
2.087167764288318008e-07
1.427145001423064359e-07
1.065257818476151469e-07
7.235768614144758462e-08
5.073641722452868364e-08
3.545159915058625187e-08
2.476143974054296604e-08
1.740729213139611042e-08
1.237383796113248714e-08
8.961551215903801598e-09
6.617969925495597846e-09
4.978329981221208538e-09
3.803835871907031789e-09
2.934253248941681216e-09
2.268939444967331467e-09
1.745819547123723373e-09
