# bin_9_6
8.761959610810202736e-08
9.852560397647558997e-08
1.088350412856284281e-07
1.175922972633967836e-07
1.235672629721110548e-07
1.254542191786942858e-07
1.219383728843926746e-07
1.119374928250253006e-07
9.716926167164637989e-08
8.026947605898436534e-08
6.591782616825334004e-08
5.641168841147541287e-08
4.809262741520469429e-08
3.583961034250938922e-08
2.524613620346122837e-08
2.044734835417446168e-08
1.373613656357351544e-08
1.035270788165957575e-08
7.087698229040925039e-09
4.935717324721801755e-09
3.459947931111664477e-09
2.427275519188667978e-09
1.716337570709276584e-09
1.229103327919597717e-09
8.975032035307682693e-10
6.680865393871036364e-10
5.060900239799566074e-10
3.886637683333233193e-10
3.006194452335749196e-10
2.324935832010723787e-10
1.785063469033511353e-10
