# bin_13_12
2.675394820756381312e-11
3.057131219623186816e-11
3.445425899941960121e-11
3.815035903995343675e-11
4.132929667507114046e-11
4.356207933067853687e-11
4.437047368256745594e-11
4.332334525662815549e-11
3.995720287673312298e-11
3.484597334425122875e-11
2.885290224622769377e-11
2.365667918420599884e-11
2.019377900806328294e-11
1.731519540595800438e-11
1.304447093456951133e-11
9.088019078165522213e-12
7.377745618311929345e-12
4.950132349397968595e-12
3.713385619776779020e-12
2.492888531967878523e-12
1.708081070376163917e-12
1.168819193578884080e-12
7.931597078663293518e-13
5.363385751636895719e-13
3.633969022136498989e-13
2.492300005712708424e-13
1.735758992114561382e-13
1.232743677887526270e-13
8.954371134422000854e-14
6.647830115311008342e-14
5.025333059889881994e-14
