# bin_13_11
1.205954822526778683e-11
1.376622027482088111e-11
1.549461114176682964e-11
1.713003652882019229e-11
1.852175956826784497e-11
1.947545071362132308e-11
1.978317302702784674e-11
1.923874344346125645e-11
1.766453201759409851e-11
1.533659873885639241e-11
1.266696703877949412e-11
1.040136099163390800e-11
8.907779371620307916e-12
7.600476038599023017e-12
5.653833113096896571e-12
3.970846713647267914e-12
3.224124571498267408e-12
2.141120077100243596e-12
1.612565789192400281e-12
1.089511429259143567e-12
7.429415038397690919e-13
5.087606307120281707e-13
3.456564477573046294e-13
2.344778521803809947e-13
1.596449779108868282e-13
1.101772322313067246e-13
7.729434996286064691e-14
5.533626617084779441e-14
4.051161305931880188e-14
3.028139880951465843e-14
2.300403700483093875e-14
