# bin_9_7
1.017682016494395030e-11
1.145869178714599228e-11
1.267783747591683579e-11
1.372477147425999762e-11
1.445751248056404864e-11
1.471899980142352580e-11
1.436491711086113275e-11
1.324625196501173105e-11
1.155001519938860422e-11
9.565180112040061635e-12
7.842788746960025252e-12
6.690404292516338575e-12
5.732546484993767382e-12
4.325743891004595756e-12
3.021876927173787318e-12
2.448317419811327390e-12
1.659489752253940838e-12
1.245815394554000778e-12
8.478873466320780145e-13
5.925518290729282617e-13
4.147319978468252217e-13
2.902742754327426657e-13
2.045370338161032915e-13
1.458034892533042377e-13
1.059423952231104301e-13
7.848722887202242852e-14
5.920897342441794248e-14
4.533598533046327687e-14
3.501295143815073258e-14
2.707851281142015886e-14
2.081923827967482342e-14
