# bin_4_2
6.431506703947712648e-12
6.892382701875984746e-12
7.173268667181544821e-12
7.206015942805221109e-12
6.904214160882294934e-12
6.249980354452929112e-12
5.351937920864096460e-12
4.399683319504064578e-12
3.639601068686260213e-12
3.128052013799606296e-12
2.602903872228316042e-12
1.891759309120365408e-12
1.389405243782856109e-12
1.095108891976512582e-12
7.580247117069157777e-13
5.663031202524254568e-13
4.056945517902516539e-13
2.928583670120488959e-13
2.141689136972805385e-13
1.587754898490697018e-13
1.197645947245328754e-13
9.189705252815915577e-14
7.161251799292039453e-14
5.633598738986847584e-14
4.444141010118929267e-14
3.491304008528241596e-14
2.712809492423688920e-14
2.072802924810067560e-14
1.549969462390111122e-14
1.130219976182947392e-14
8.022710327860009393e-15
