# bin_10_1
9.598254436765540371e-30
1.073974200194872763e-29
1.179247630936883297e-29
1.264696122516080885e-29
1.316512114829935815e-29
1.322417878226640167e-29
1.265485669850087582e-29
1.143174989099504055e-29
9.763178140210167473e-30
8.010143924308518516e-30
6.634520072550582200e-30
5.727977430870530169e-30
4.758325217976738052e-30
3.402157001438759831e-30
2.507737017386140761e-30
1.972455021920657194e-30
1.330442087879633623e-30
9.837598820696744141e-31
6.930051295070415719e-31
4.827441185357469609e-31
3.391640977416400624e-31
2.399346052093961240e-31
1.719913752955214240e-31
1.252693578270027404e-31
9.306816790327093397e-32
7.038523926603030889e-32
5.401207010990285492e-32
4.182409377621151807e-32
3.244718010621211327e-32
2.503976912853674985e-32
1.909845604251224055e-32
