# bin_12_7
7.491236684224801010e-15
8.501406627540913130e-15
9.496665065421743039e-15
1.040279762853438931e-14
1.112032514838709882e-14
1.152463358661971664e-14
1.151498086286902306e-14
1.093317866347039884e-14
9.800247823574646914e-15
8.302907570970684173e-15
6.797793114107093663e-15
5.665115082165446989e-15
4.906289178406363360e-15
4.005815439368815934e-15
2.808340756059274196e-15
2.128078180894406543e-15
1.622184699607627099e-15
1.107592624399544360e-15
7.905355620376857328e-16
5.582900811535654335e-16
3.826185682803431842e-16
2.617433019227979562e-16
1.799514190171148957e-16
1.247246108444793624e-16
8.752207872467989275e-17
6.255134697841592235e-17
4.558969036333422638e-17
3.391690447681115355e-17
2.568381942512154874e-17
1.969028973127595877e-17
1.517279372456062656e-17
