# bin_9_4
3.162240249724224128e-16
3.538444306801308636e-16
3.885463858557145821e-16
4.167232787113544896e-16
4.338264755813109942e-16
4.358087107159886082e-16
4.170869923921264151e-16
3.768019315597925076e-16
3.218239339229302449e-16
2.640307278679726890e-16
2.186662640371155344e-16
1.887992913860166157e-16
1.568831479278138604e-16
1.121613960542017181e-16
8.264948999846198263e-17
6.504664758549228691e-17
4.384418699094668856e-17
3.243820674876224937e-17
2.285014840184535638e-17
1.591486981188858057e-17
1.118062373043437216e-17
7.908546741005852309e-18
5.668670425173684559e-18
4.128478493222517448e-18
3.067057414032781590e-18
2.319447517185051014e-18
1.779861485319734949e-18
1.378244163561156106e-18
1.069279969030433377e-18
8.252165488981114396e-19
6.294542077357589516e-19
