# bin_9_1
5.468630511994274663e-27
6.087505756522609840e-27
6.642107224435636826e-27
7.067608414023494975e-27
7.284520374628044702e-27
7.230444061236584290e-27
6.808143503921987347e-27
6.056013217088527682e-27
5.094972656627971827e-27
4.168281354638593161e-27
3.494195433540591904e-27
3.022538254519048079e-27
2.420045437901150261e-27
1.687664549829822872e-27
1.310248915628484623e-27
9.711058984636468800e-28
6.862073497511366212e-28
4.844445478470207178e-28
3.482936533994353980e-28
2.451966632231167012e-28
1.734040145223946976e-28
1.242045929805840907e-28
9.027222053676932338e-29
6.680923743308790629e-29
5.038578078142521893e-29
3.859385118827923906e-29
2.988891893447804878e-29
2.324852841140004425e-29
1.803187720572053454e-29
1.385193572228740315e-29
1.048010169427482854e-29
