# bin_6_6
7.013965545986510728e-11
7.799714650085741745e-11
8.499600371544977640e-11
9.029936096061247725e-11
9.289169057384536523e-11
9.197464536834823744e-11
8.633067162890605980e-11
7.656635468694043965e-11
6.424810159070163745e-11
5.255869072035477673e-11
4.416941194153461990e-11
3.818354603406969789e-11
3.032509263783712607e-11
2.110821042530071128e-11
1.652892029414938746e-11
1.209662883369107729e-11
8.639874797545209825e-12
6.057115259057135789e-12
4.357674017731737483e-12
3.075137545356862314e-12
2.179709811515054983e-12
1.565197670541443897e-12
1.140538038336328858e-12
8.465425299571900025e-13
6.401062129774518610e-13
4.913294795556950905e-13
3.810283542303534166e-13
2.965206624642289939e-13
2.299047099303469218e-13
1.764180891226347805e-13
1.332495708253434647e-13
