# bin_10_3
3.180002111830073491e-21
3.566204455329239072e-21
3.926532719645235235e-21
4.225401010701944836e-21
4.417573655306100680e-21
4.459342024386050989e-21
4.297814779937217588e-21
3.910062036666045574e-21
3.363583893609580208e-21
2.766618322842317855e-21
2.281369760616085778e-21
1.963381745680775406e-21
1.652634057597763013e-21
1.202005218861464037e-21
8.660517244574157910e-22
6.941105886394675328e-22
4.637659872847828978e-22
3.481895572173955208e-22
2.420215088067414094e-22
1.681701588932663771e-22
1.180689621610246809e-22
8.317763835971992018e-23
5.925627875599126900e-23
4.283492854515408748e-23
3.158792729244740462e-23
2.373016982393316809e-23
1.811430941730792397e-23
1.398266664199403582e-23
1.083854482436396567e-23
8.375532426801470036e-24
6.408748637002470700e-24
