# bin_6_6
6.711464381599572166e-11
7.470390642597522015e-11
8.149666133684701702e-11
8.669410349953526054e-11
8.932006339387393847e-11
8.860451108242277982e-11
8.336195340265629038e-11
7.409723424963721601e-11
6.230226987398238042e-11
5.098582450950843459e-11
4.278948114186403992e-11
3.701194909493399122e-11
2.955744698986017985e-11
2.061080306477249934e-11
1.604895569524242572e-11
1.184652602212149885e-11
8.403536168618823176e-12
5.922151000190307214e-12
4.258179233134036825e-12
3.000835127811822755e-12
2.124421291139407171e-12
1.523231501514818744e-12
1.108243376700085230e-12
8.211134799335414616e-13
6.198766505737058611e-13
4.751862437203337513e-13
3.682060017200139570e-13
2.864722249484429413e-13
2.221861790680941178e-13
1.706386485476573903e-13
1.290469868263723296e-13
