# bin_4_4
1.039767814850416592e-10
1.132793356722294496e-10
1.203470771444550636e-10
1.238468077629147174e-10
1.226744142929263975e-10
1.152762159265995094e-10
1.023658114565679579e-10
8.605763947920691108e-11
7.046561523122891686e-11
5.914319161236184858e-11
5.103253677357803000e-11
4.068174737216944621e-11
2.857783337686478210e-11
2.221034157778245883e-11
1.646362572988267808e-11
1.176334122674886877e-11
8.423218044184710079e-12
6.103750500355905367e-12
4.380720033930363014e-12
3.175345491988388244e-12
2.337177962346910577e-12
1.749699848905653601e-12
1.333564027079572173e-12
1.032360370713533173e-12
8.072205795106264788e-13
6.335257774155625840e-13
4.955616270780132968e-13
3.837560224351849450e-13
2.925003195120521026e-13
2.184072906094133721e-13
1.591980255400095846e-13
