# bin_9_2
9.118933633759817195e-23
1.017508706968681224e-22
1.113381366593142458e-22
1.188839127793945339e-22
1.230590178700696150e-22
1.227854486714597417e-22
1.164035235339576718e-22
1.042113644791658059e-22
8.820746056668839783e-23
7.223369895885643475e-23
6.026255265485928046e-23
5.214921597484346036e-23
4.243432352997838063e-23
2.982035571713236361e-23
2.269685101386697747e-23
1.726472903909289254e-23
1.194340024807559475e-23
8.588990541299628345e-24
6.142837979472480892e-24
4.305062394994996458e-24
3.033944943776346848e-24
2.162187035029929509e-24
1.563188836476002991e-24
1.149898482184584856e-24
8.623862569320212016e-25
6.575140008599578852e-25
5.076071274130119507e-25
3.943189482569413432e-25
3.060022645026820104e-25
2.355839162769284730e-25
1.788693541881918540e-25
