# bin_3_2
7.357041345374900438e-11
7.775537014532135275e-11
7.955691825872770951e-11
7.821488845274023295e-11
7.288876117088939661e-11
6.422727360178613869e-11
5.371788944188608633e-11
4.404876814487833723e-11
3.715932552202513055e-11
3.185977595160765972e-11
2.493236977553501156e-11
1.766594136623435022e-11
1.384579140457811482e-11
1.011596919671784195e-11
7.371093746868474330e-12
5.311536110226764678e-12
3.881759153139915936e-12
2.838598791819127353e-12
2.103805214424233506e-12
1.586583988384207375e-12
1.217657788798309468e-12
9.495975364684790230e-13
7.488058887875701019e-13
5.929797442816041170e-13
4.682897646709638723e-13
3.662694586410617410e-13
2.819679350926987633e-13
2.125619606560214549e-13
1.563101609441738485e-13
1.118777564012869908e-13
7.793131508638599832e-14
