# bin_3_1
5.149250746207949743e-12
5.365950510296145748e-12
5.399562227106900650e-12
5.188611756787525272e-12
4.714482362491856302e-12
4.053730377375129322e-12
3.342301274779597498e-12
2.762192508944617989e-12
2.365091938555850291e-12
1.974814245486920524e-12
1.456931883708898383e-12
1.064623672878650146e-12
8.384301461060296753e-13
5.898237710977443230e-13
4.404567991417590118e-13
3.176009951463223722e-13
2.324112343246349010e-13
1.721175577820303614e-13
1.294312063168029118e-13
9.909957849196472475e-14
7.713808582978305602e-14
6.084637593743576664e-14
4.831379448387170692e-14
3.834145758545829591e-14
3.019874568816152838e-14
2.345155118065832849e-14
1.785627944434414974e-14
1.327293199068838580e-14
9.604730535919340943e-15
6.761784714484036786e-15
4.636864363270208858e-15
