# bin_2_1
1.045853514503050884e-10
1.063847493629933937e-10
1.038061203081303592e-10
9.601325516843926465e-11
8.403115068219396943e-11
7.007033758820289017e-11
5.762989686395890794e-11
4.876297749643537305e-11
4.139860311226167172e-11
3.196592768917792372e-11
2.298146615178964647e-11
1.793566061742825998e-11
1.309090022570440126e-11
9.606988880379589106e-12
6.997607083919226048e-12
5.154173532956323210e-12
3.825660965297870798e-12
2.885786483833374469e-12
2.217143630751843661e-12
1.732422295703608064e-12
1.371789803984110210e-12
1.093819478735018519e-12
8.718044927971670478e-13
6.896238445095687366e-13
5.378429959457217241e-13
4.112221761442140735e-13
3.068812213534347039e-13
2.229402920103974444e-13
1.575480743285191434e-13
1.084486745418929853e-13
7.290466794057210660e-14
