# bin_7_3
4.963605425650406590e-15
5.490774145256884589e-15
5.944629423888432494e-15
6.264004308514055092e-15
6.381157309935188203e-15
6.233607971602903342e-15
5.756881034825058645e-15
5.027264269167683496e-15
4.169792938542206073e-15
3.419284100636408673e-15
2.911573475780642417e-15
2.494599075590780019e-15
1.894874330618342677e-15
1.328261913192142676e-15
1.070658359853032479e-15
7.395773764160672097e-16
5.531782141520223256e-16
3.830185896713276289e-16
2.732752610785442284e-16
1.951034514081562083e-16
1.400885440005284090e-16
1.018804654880244045e-16
7.525126533513867751e-17
5.666089704987786944e-17
4.337997020011471644e-17
3.361524781547998093e-17
2.621373473279817208e-17
2.042367884836280836e-17
1.578971716456295246e-17
1.203946936684048721e-17
9.010480235529114700e-18
