# bin_9_13
-1.725621706827037348e-14
-1.964587925722395172e-14
-2.203639228772729913e-14
-2.426070579212114571e-14
-2.609666590686453314e-14
-2.726231943851363235e-14
-2.749132519341281210e-14
-2.644543836796397164e-14
-2.400660410507774233e-14
-2.060331503301693837e-14
-1.692867088318737638e-14
-1.397997137956830810e-14
-1.205696461165663171e-14
-1.011171532981359001e-14
-7.291242644287312336e-15
-5.285151972336519171e-15
-4.213035387385854158e-15
-2.792039825029275750e-15
-2.077746490677354361e-15
-1.432390304140142535e-15
-9.753364457797535431e-16
-6.670774577758666789e-16
-4.545107575522367179e-16
-3.111742960918602110e-16
-2.147805078329587561e-16
-1.506802150313405078e-16
-1.076781102576597225e-16
-7.859297799304928724e-17
-5.857272039208106365e-17
-4.441124966485709756e-17
-3.404757299264855886e-17
