# bin_14_14
-1.695874490675820585e-11
-1.940319535131558240e-11
-2.190220471390726122e-11
-2.429798749656574413e-11
-2.638440533852812814e-11
-2.789120096644086766e-11
-2.850487316138570057e-11
-2.796736574689785720e-11
-2.594133436198596923e-11
-2.274746343246168697e-11
-1.890474482216053336e-11
-1.548060558682736694e-11
-1.315527985337324453e-11
-1.133017773645578545e-11
-8.675530232872727043e-12
-6.008437996543901520e-12
-4.847085008730806992e-12
-3.320538307749283780e-12
-2.458149098407329836e-12
-1.644513514913800709e-12
-1.138180175401577005e-12
-7.766229167133055816e-13
-5.251417453461322527e-13
-3.537664026142809585e-13
-2.383614253960256640e-13
-1.622234650125823091e-13
-1.119483721229779073e-13
-7.868337322312784676e-14
-5.655023340556892102e-14
-4.157915797025068395e-14
-3.119363254552150562e-14
