# bin_11_7
-3.095548051829528430e-10
-3.464710991898581531e-10
-3.805713768009986693e-10
-4.083368091096709355e-10
-4.253299447543728339e-10
-4.275152985397953209e-10
-4.096021328475857906e-10
-3.705682555389539488e-10
-3.170171445532241971e-10
-2.604073841824431863e-10
-2.156090439461482510e-10
-1.858220672027512177e-10
-1.545311291302399824e-10
-1.112238038261675066e-10
-8.165762802044943606e-11
-6.417520748385000386e-11
-4.350514783000631015e-11
-3.212210800448890561e-11
-2.253535851742994573e-11
-1.571798377355321769e-11
-1.104662834718833758e-11
-7.812110410974268345e-12
-5.592560187680164076e-12
-4.066383979524311373e-12
-3.015603457532167886e-12
-2.276686444610367834e-12
-1.744404395505675533e-12
-1.349215586695166651e-12
-1.046000183420751229e-12
-8.070494859496301669e-13
-6.157244090032744501e-13
