# bin_10_5
-6.036438487145419751e-10
-6.645494732528161686e-10
-7.152768555504852706e-10
-7.482496727903147680e-10
-7.559988262300952358e-10
-7.299864206034346213e-10
-6.661775895746225624e-10
-5.750085271502334698e-10
-4.745219910546095842e-10
-3.913476042317237767e-10
-3.352957648495475559e-10
-2.822041524313973186e-10
-2.084596145878562652e-10
-1.502682982423182968e-10
-1.192906034448942602e-10
-8.216612609566227331e-11
-6.114151556209586132e-11
-4.299691371710800683e-11
-3.061004739159098501e-11
-2.193210709812859785e-11
-1.585149682590511920e-11
-1.162521390684167479e-11
-8.668566527274567053e-12
-6.584796905943131749e-12
-5.076786909952341525e-12
-3.952000135239397580e-12
-3.086696728122385368e-12
-2.401606974867567266e-12
-1.849308008646238618e-12
-1.401444631559225176e-12
-1.040627586611749992e-12
