# bin_8_5
-4.368815971897106219e-10
-4.806858411003541138e-10
-5.170109235660418158e-10
-5.403601090547504777e-10
-5.453852336380674768e-10
-5.258397304096729367e-10
-4.791090538545472141e-10
-4.128862635221439870e-10
-3.404576037418172008e-10
-2.809714999901620050e-10
-2.409484982079724682e-10
-2.023618083044076576e-10
-1.488809189595619844e-10
-1.076663520836424896e-10
-8.537844862421206401e-11
-5.871894991665498100e-11
-4.371414570567802847e-11
-3.077990166748922417e-11
-2.190587102736189673e-11
-1.570667124232084866e-11
-1.136396572635079488e-11
-8.344260162694525095e-12
-6.230301818753596962e-12
-4.738547002144845526e-12
-3.656996203952029552e-12
-2.848676863169830646e-12
-2.225562885640072388e-12
-1.731398538071435025e-12
-1.332603289909897895e-12
-1.009103079012298096e-12
-7.485419682219925858e-13
