# bin_3_1
-1.835283476201659716e-09
-1.794096938256871392e-09
-1.669562473649152988e-09
-1.474156246740198716e-09
-1.244424972523493070e-09
-1.030216226801097711e-09
-8.633027555339468185e-10
-7.242636145184202178e-10
-5.729112391432040281e-10
-4.242085199510531382e-10
-3.195034152943365002e-10
-2.404925881764927704e-10
-1.752818000850519188e-10
-1.294258479034488099e-10
-9.548732253470860203e-11
-7.137809196869485897e-11
-5.419145634730848163e-11
-4.188225764815236726e-11
-3.290378547056907710e-11
-2.616333130730013113e-11
-2.092538022551701411e-11
-1.671074711976288085e-11
-1.323090473435023679e-11
-1.032060213696698740e-11
-7.889298783249200444e-12
-5.886914521057533802e-12
-4.278514297400679205e-12
-3.027285007755225431e-12
-2.087857966462623251e-12
-1.406965801183074274e-12
-9.292297911519046091e-13
