# bin_6_6
-6.065752746016772315e-11
-6.713321516279525119e-11
-7.273172790353991571e-11
-7.670983643589119407e-11
-7.823717395857985153e-11
-7.655779907033723001e-11
-7.086142557867374293e-11
-6.201823175798031359e-11
-5.153673311710567020e-11
-4.225551111724742802e-11
-3.590715159111602756e-11
-3.078551258714764775e-11
-2.354139561795824107e-11
-1.649902653500592953e-11
-1.322311128048373017e-11
-9.228441000559555349e-12
-6.843366548734128288e-12
-4.749081987270417123e-12
-3.394591735080448818e-12
-2.418637948032911905e-12
-1.732924035482524015e-12
-1.257893019556995195e-12
-9.272842278488486809e-13
-6.967453011509521984e-13
-5.324660273438333096e-13
-4.120292115785119241e-13
-3.210254837102284194e-13
-2.500430778478668002e-13
-1.933553542842961169e-13
-1.475328750530317204e-13
-1.105331601753150048e-13
