# bin_6_4
-4.616419110120414681e-10
-5.011260004444036859e-10
-5.300433427088720096e-10
-5.426976556363202611e-10
-5.338883450591298415e-10
-4.978594387560574253e-10
-4.389505969999630571e-10
-3.673078355053860221e-10
-3.012732444133018487e-10
-2.541821293523794863e-10
-2.179782654259820468e-10
-1.705532985723016046e-10
-1.206294985342144964e-10
-9.437647490272555248e-11
-6.869020113502240113e-11
-4.974794488458299701e-11
-3.554601204866305589e-11
-2.569850787212523850e-11
-1.851918290132655003e-11
-1.348597526233789799e-11
-9.973755681597844225e-12
-7.502686812820241268e-12
-5.744075981222745650e-12
-4.461564213386567407e-12
-3.495206956456077093e-12
-2.743888367883583644e-12
-2.143492291889353036e-12
-1.655366407944040842e-12
-1.256806002974593067e-12
-9.339214398486292459e-13
-6.770913651202889400e-13
