# bin_10_4
-8.968583138151933123e-10
-9.752199647474727380e-10
-1.033687183174588523e-09
-1.061101404830717632e-09
-1.047401719147885199e-09
-9.808502873993741690e-10
-8.683692725634263343e-10
-7.291296957090076566e-10
-5.980648968685044198e-10
-5.030554607511575012e-10
-4.319629499563991908e-10
-3.414399768427280908e-10
-2.419622891674084640e-10
-1.876348400603192299e-10
-1.382737079813468697e-10
-9.925677000212109602e-11
-7.130089040525092855e-11
-5.143900103708888904e-11
-3.698311423657111449e-11
-2.686956411789925506e-11
-1.981418446850422502e-11
-1.485993598519618395e-11
-1.134278779331614954e-11
-8.789363215094030180e-12
-6.874858731293011297e-12
-5.393548187252996456e-12
-4.214623962230606433e-12
-3.258583909468491978e-12
-2.478695551282730328e-12
-1.846520862108664189e-12
-1.342710196243701909e-12
