# bin_8_1
-3.057705960886962998e-09
-3.007105543406431459e-09
-2.818347248123162598e-09
-2.506129113076837539e-09
-2.126772065132790286e-09
-1.762006876538503449e-09
-1.472848075086936416e-09
-1.238811510712966296e-09
-9.907222589850334693e-10
-7.374750725927335040e-10
-5.523888422367820873e-10
-4.177868037694423285e-10
-3.046296940064898557e-10
-2.246215862917583054e-10
-1.654180575822886404e-10
-1.232935721955922475e-10
-9.325122949077931754e-11
-7.178483161134140280e-11
-5.619641453341087692e-11
-4.456517722035446135e-11
-3.559161867316745386e-11
-2.841995612798210585e-11
-2.252796570632489168e-11
-1.761321856683164510e-11
-1.350785550527795998e-11
-1.011928331001179787e-11
-7.386357731517745344e-12
-5.249070587710712855e-12
-3.635005249105232069e-12
-2.458453722689664778e-12
-1.628674311628603425e-12
