# bin_1_6
-2.998388581362957834e-20
-3.260598605314118440e-20
-3.456247738598637241e-20
-3.547158544175076417e-20
-3.501589739172379253e-20
-3.276247932840063449e-20
-2.897582804558542618e-20
-2.427323621451712775e-20
-1.987286616087389576e-20
-1.673393084821033435e-20
-1.442508685095488104e-20
-1.137533834115777886e-20
-7.967905412119917447e-21
-6.263126601205157071e-21
-4.569071812799634129e-21
-3.306683509472080165e-21
-2.347455723768604303e-21
-1.704331138999925619e-21
-1.226718968234734862e-21
-8.913613161061559304e-22
-6.579984690822149418e-22
-4.940479973187410260e-22
-3.776612743807543593e-22
-2.930440654063806312e-22
-2.294870980590404633e-22
-1.802153411796515856e-22
-1.409161202914539882e-22
-1.089860926561047224e-22
-8.290054842168182267e-23
-6.173481898145817719e-23
-4.485542266161089281e-23
