# bin_13_15
-1.756159125478138829e-12
-2.010897300194817494e-12
-2.272103463828277137e-12
-2.523605462750584626e-12
-2.744264049748751742e-12
-2.906204116133170542e-12
-2.976378864802739191e-12
-2.928873841106270397e-12
-2.726213132913108764e-12
-2.398527017021806822e-12
-1.998068795210697663e-12
-1.635133312251469803e-12
-1.385622559495914247e-12
-1.196147969370209104e-12
-9.249949334234846100e-13
-6.389164401420884172e-13
-5.128439910436720804e-13
-3.562120726181912239e-13
-2.611735457194599000e-13
-1.746689125438398961e-13
-1.216604297988475570e-13
-8.284622447003536761e-14
-5.587295244002333569e-14
-3.755517235954502091e-14
-2.522206386582047724e-14
-1.708622255345194145e-14
-1.172492184321298164e-14
-8.187473212416493858e-15
-5.844452686970979276e-15
-4.269845244080714177e-15
-3.186782975208212286e-15
