# bin_7_5
-2.338038564331181504e-09
-2.601119618258192313e-09
-2.836081124668027128e-09
-3.015103236939834177e-09
-3.104252039825215802e-09
-3.076947411916123409e-09
-2.892061965653789499e-09
-2.568249284484130173e-09
-2.157402781801059217e-09
-1.764851193287880071e-09
-1.481549196895131528e-09
-1.281248110745807705e-09
-1.021187015970910592e-09
-7.111406851271188812e-10
-5.549531757705758268e-10
-4.083448471397515137e-10
-2.903170850370816566e-10
-2.040500031917654018e-10
-1.468126888185580905e-10
-1.034928849614140544e-10
-7.327770550034510376e-11
-5.256077393270573413e-11
-3.825757003182408591e-11
-2.836063103494562011e-11
-2.142054760031218462e-11
-1.642760936108368680e-11
-1.273286435199030643e-11
-9.907399987975131215e-12
-7.683362518721760071e-12
-5.899126152204620435e-12
-4.459290923092647729e-12
