# bin_6_1
-2.719286024920200490e-16
-2.959225538827059958e-16
-3.139640944739677579e-16
-3.225742147936709788e-16
-3.188998048635367769e-16
-2.989178905927032644e-16
-2.648022566024969948e-16
-2.221025466272209442e-16
-1.817621998626156505e-16
-1.527811612909267966e-16
-1.317959049326935884e-16
-1.044623630141032222e-16
-7.316590282495899731e-17
-5.724936094943431681e-17
-4.205948616456778110e-17
-3.025827078972078310e-17
-2.154032083398432711e-17
-1.563483760610170430e-17
-1.123686332253442028e-17
-8.153568803643750011e-18
-6.010041071229241336e-18
-4.506062948982077835e-18
-3.439685780618159142e-18
-2.666077577960045452e-18
-2.086412770568266458e-18
-1.638064941467386843e-18
-1.281145744582433476e-18
-9.914866420377325719e-19
-7.549336021937221933e-19
-5.629239306825044650e-19
-4.096385545354570872e-19
