# bin_1_1
-8.038733823348186482e-08
-7.942841266967373808e-08
-7.468553067196710597e-08
-6.647926791313908933e-08
-5.624207943542505906e-08
-4.632051566808539448e-08
-3.873392739015610202e-08
-3.296493351484695367e-08
-2.644054667355629752e-08
-1.930569822528983694e-08
-1.458353742559485565e-08
-1.107054430902013061e-08
-7.992811714878382238e-09
-5.915979230871027139e-09
-4.347003053576696008e-09
-3.234942972678380832e-09
-2.445651299155686128e-09
-1.882680179453337356e-09
-1.474729268573812399e-09
-1.170873486217039546e-09
-9.366845206442134198e-10
-7.493949675889418568e-10
-5.952545221075022010e-10
-4.663126817154604680e-10
-3.582084008065225557e-10
-2.686269253484229846e-10
-1.961352627647993028e-10
-1.393182383277318223e-10
-9.638453788610772778e-11
-6.510691778101499624e-11
-4.307767422409297603e-11
