# bin_1_7
-5.234605892637683264e-19
-5.747878895151066796e-19
-6.166788067918837656e-19
-6.424730617325477379e-19
-6.460735267890878222e-19
-6.195302554943831955e-19
-5.609899599624650487e-19
-4.803572031479640019e-19
-3.945736229610824622e-19
-3.262637267681151224e-19
-2.809881678885512240e-19
-2.343441020723055796e-19
-1.692865004136918278e-19
-1.239760906695485469e-19
-9.814454244540024663e-20
-6.682232639937725006e-20
-4.991380048609629962e-20
-3.540782851270350003e-20
-2.512776457787304332e-20
-1.805233025337694264e-20
-1.310646093066202294e-20
-9.666957780504550234e-21
-7.254329356135151021e-21
-5.543621894277142562e-21
-4.294854980621149311e-21
-3.354541883070982740e-21
-2.624045206854979958e-21
-2.040992567800195208e-21
-1.568528373197845139e-21
-1.184654762230966384e-21
-8.756296942381478764e-22
