# bin_5_8
-2.160749600887050431e-10
-2.413665339960543922e-10
-2.644828807749964332e-10
-2.829256491896061215e-10
-2.935638091861851602e-10
-2.937702520267916827e-10
-2.796343966513393586e-10
-2.513104095700589180e-10
-2.135130227954443494e-10
-1.749268431722769356e-10
-1.454209319114029032e-10
-1.257479384860491218e-10
-1.033203041449546582e-10
-7.307128997800506813e-11
-5.482258321254481707e-11
-4.237685135228690225e-11
-2.892754737872126016e-11
-2.107391697817052331e-11
-1.498307218813989321e-11
-1.046710574481808200e-11
-7.361600461609920056e-12
-5.227052892644987960e-12
-3.764052554515962018e-12
-2.756494681618358488e-12
-2.058578797051863686e-12
-1.563963587144880602e-12
-1.204305253965983716e-12
-9.343286948307504175e-13
-7.250663996995681441e-13
-5.588616950772042973e-13
-4.252122844622404618e-13
