# bin_10_4
-1.164675547960533484e-15
-1.307936839667709784e-15
-1.442523476068354309e-15
-1.555568178632256677e-15
-1.630617460664791941e-15
-1.650954997317292737e-15
-1.598148766357874333e-15
-1.460608364080167262e-15
-1.262297366127059087e-15
-1.040371441231970504e-15
-8.559003734777922994e-16
-7.346430990025321017e-16
-6.227646728241187212e-16
-4.584534773795821082e-16
-3.261512706810204174e-16
-2.633855528549450439e-16
-1.759515052733215235e-16
-1.327154089478947347e-16
-9.148962077936394735e-17
-6.357381723382395215e-17
-4.461216476102392328e-17
-3.136143850882353927e-17
-2.225542458122641339e-17
-1.601069038019661249e-17
-1.174815302362831181e-17
-8.785405115274638755e-18
-6.681197038577601919e-18
-5.144819811507136332e-18
-3.984334816196213652e-18
-3.080723999799224825e-18
-2.361734236428155179e-18
