# bin_6_4
-2.026424096451035537e-09
-2.235034863464127377e-09
-2.411150936539223909e-09
-2.529519271232564070e-09
-2.563989400393365501e-09
-2.486997923630528416e-09
-2.278926716015427952e-09
-1.974816801986680441e-09
-1.630544102446433088e-09
-1.340067503213319714e-09
-1.146730382173089771e-09
-9.742615952612706585e-10
-7.249530449488811507e-10
-5.146419179007252741e-10
-4.148656902029142974e-10
-2.824378469427060203e-10
-2.128539910047504502e-10
-1.483232532841470048e-10
-1.053400981258184362e-10
-7.543936932096840277e-11
-5.440820759956274002e-11
-3.977843949384173526e-11
-2.955928389006780597e-11
-2.238789088960164212e-11
-1.722354931186680421e-11
-1.339196869145595855e-11
-1.045943033175177630e-11
-8.146248279279952611e-12
-6.284888077068464471e-12
-4.775338468109201043e-12
-3.557162712128974065e-12
