# bin_2_6
-4.554342728577329277e-13
-4.978622321813159436e-13
-5.311910302985011399e-13
-5.495502690811662512e-13
-5.480663127664297035e-13
-5.195675634805110225e-13
-4.652458892977682219e-13
-3.940160320235079326e-13
-3.227131215327809614e-13
-2.689353530287150019e-13
-2.322779391591900299e-13
-1.891970183191080805e-13
-1.338142087884798660e-13
-1.015195866326535005e-13
-7.765717065130909607e-14
-5.409121115364223174e-14
-3.941543596204814058e-14
-2.841033590495490006e-14
-2.026704450467570209e-14
-1.461505437924538109e-14
-1.068880283483107642e-14
-7.950521928230109416e-15
-6.020170229153671486e-15
-4.635873297016841559e-15
-3.611868767597145738e-15
-2.830007976335856642e-15
-2.214593150163077453e-15
-1.718771910688813988e-15
-1.315062771814305938e-15
-9.869974867777360373e-16
-7.238583180757090119e-16
