# bin_9_10
-9.837864915549109640e-09
-1.114199691133115723e-08
-1.241503363699659898e-08
-1.355769080452226961e-08
-1.443716136808049049e-08
-1.488936619963204801e-08
-1.478908345371892156e-08
-1.393143699479181061e-08
-1.239605741061501596e-08
-1.042766940399050255e-08
-8.529745890199159791e-09
-7.153276998212156028e-09
-6.195541133850623523e-09
-4.960687732646911558e-09
-3.442911776297112467e-09
-2.676990055533547432e-09
-1.973985216663294785e-09
-1.386091661370744019e-09
-9.623346323689822767e-10
-6.850191832744817693e-10
-4.719927325032319633e-10
-3.242067784415290541e-10
-2.244533113992561608e-10
-1.567416680833985980e-10
-1.110654753482038657e-10
-8.021113931291055286e-11
-5.908179378511027015e-11
-4.437502142480562921e-11
-3.384729640554399844e-11
-2.605794989533615295e-11
-2.009778845149961226e-11
