# bin_9_7
-3.017172462962627634e-09
-3.396800723597891141e-09
-3.757662218206571508e-09
-4.067257086845730717e-09
-4.283467601099289487e-09
-4.359870518206476804e-09
-4.253443182850578797e-09
-3.920605272101734819e-09
-3.417184709083827237e-09
-2.829264560635615359e-09
-2.320079696246437211e-09
-1.979778622330483786e-09
-1.695669012845856925e-09
-1.278065670403429900e-09
-8.933805149491704639e-10
-7.239457239326148738e-10
-4.901615035680669953e-10
-3.682020615920081493e-10
-2.506953062101127570e-10
-1.751202712324404856e-10
-1.225882531385131834e-10
-8.581875358968764117e-11
-6.048574698625586089e-11
-4.313474199358479548e-11
-3.135451072861401578e-11
-2.323813683856881708e-11
-1.753683796085021559e-11
-1.343159165873760925e-11
-1.037491048820756592e-11
-8.024167341517933502e-12
-6.168958354901285303e-12
