# bin_4_9
-8.857159702883056058e-14
-9.909591636649479779e-14
-1.087974773314363318e-13
-1.166650539697797773e-13
-1.214238031838263052e-13
-1.219448598237125006e-13
-1.166596886491987343e-13
-1.053514798120693627e-13
-8.994402946627816844e-14
-7.378313049043741887e-14
-6.112250289336573954e-14
-5.278151287519174361e-14
-4.382468379916908858e-14
-3.130393454842288700e-14
-2.309768942013646045e-14
-1.815619176114013374e-14
-1.224716763432651257e-14
-9.051565988136012015e-15
-6.380664564771449440e-15
-4.444775993807864277e-15
-3.122616646506673899e-15
-2.209239701518940665e-15
-1.583981598373302019e-15
-1.154065758738562907e-15
-8.576483145104719222e-16
-6.488032608414553625e-16
-4.979999562482739866e-16
-3.856907180253167066e-16
-2.992470288852675313e-16
-2.309349979750534423e-16
-1.761306040457098639e-16
