# bin_5_9
-1.064620786456399305e-11
-1.193588366209469556e-11
-1.313753295907746565e-11
-1.413173023440127292e-11
-1.476682398283617654e-11
-1.489777796087400646e-11
-1.434581473639534608e-11
-1.304008222693051755e-11
-1.120747298414310863e-11
-9.214988083351836855e-12
-7.602415954386471254e-12
-6.545913318660142681e-12
-5.501937408992931514e-12
-3.992480741003067071e-12
-2.884081520778625145e-12
-2.307478604596638401e-12
-1.542270833657013113e-12
-1.156504922281023384e-12
-8.051722396998885258e-13
-5.595129253323249387e-13
-3.928385500092997651e-13
-2.768560379524155190e-13
-1.973676929577933680e-13
-1.428042241718367044e-13
-1.054009418527964521e-13
-7.924692888010419342e-14
-6.053425359607457728e-14
-4.674786113472594706e-14
-3.624266772630199965e-14
-2.800442714545966085e-14
-2.142182164516346260e-14
