# bin_6_10
-2.137213609699014019e-11
-2.408195468062069293e-11
-2.666785098729592133e-11
-2.890174601470328869e-11
-3.048651667925101297e-11
-3.108664255730175749e-11
-3.040781519008916178e-11
-2.811246948942305899e-11
-2.457460540479167453e-11
-2.038362358367522831e-11
-1.670134716449650027e-11
-1.421973239602185681e-11
-1.221331688981535904e-11
-9.283214057440486276e-12
-6.461578889184496149e-12
-5.227056464866391796e-12
-3.568758154358636361e-12
-2.667290629309242228e-12
-1.810977230484097437e-12
-1.269224046748771483e-12
-8.871258786016755719e-13
-6.198332135746708223e-13
-4.358325418103628680e-13
-3.098790306828223221e-13
-2.244902622011702861e-13
-1.658315123962994260e-13
-1.247803904954790335e-13
-9.536387794556966345e-14
-7.357461134998297992e-14
-5.689646902485806809e-14
-4.377813853354243641e-14
