# bin_4_3
-1.435521545652607637e-08
-1.551070017585281066e-08
-1.631023638755492645e-08
-1.658236396269646328e-08
-1.615899619228919248e-08
-1.489266638280035671e-08
-1.298009968435757103e-08
-1.076161939511397990e-08
-8.831761067325704940e-09
-7.516338423253629856e-09
-6.411738816094771703e-09
-4.864625079931341513e-09
-3.441832776179382898e-09
-2.753907513944270883e-09
-1.928842372262470229e-09
-1.438546192380660695e-09
-1.014812615775649018e-09
-7.342163304477449685e-10
-5.329976137325255658e-10
-3.909640871389948292e-10
-2.914717418660856757e-10
-2.210340077810624543e-10
-1.705414254050103772e-10
-1.332560408245374108e-10
-1.047882566834956006e-10
-8.237278266489850292e-11
-6.427454619390266635e-11
-4.947161156010804324e-11
-3.736251478946275140e-11
-2.757234173839729368e-11
-1.982815743568222288e-11
