# bin_9_8
-1.030413127460821672e-08
-1.162444743620609154e-08
-1.289108057057793865e-08
-1.399551310798667071e-08
-1.479532799708261154e-08
-1.512499136960719261e-08
-1.484830901656451270e-08
-1.378575245652251418e-08
-1.210012718605850440e-08
-1.006473115365135121e-08
-8.239417723864990499e-09
-6.991916364678217047e-09
-6.024229610061826901e-09
-4.634117088753719833e-09
-3.212674654599203269e-09
-2.585416990647653037e-09
-1.791669440259940334e-09
-1.325002656677061556e-09
-8.984644080204679932e-10
-6.331674190091942538e-10
-4.412949168401016419e-10
-3.072654817743379737e-10
-2.153277663209060991e-10
-1.524643171644799666e-10
-1.099171442139976338e-10
-8.080621904362300943e-11
-6.053799644347283765e-11
-4.611195624058230921e-11
-3.550616067051837727e-11
-2.744500475569865383e-11
-2.113760212291319329e-11
