# bin_10_8
-3.263701877036716766e-09
-3.690154588182272771e-09
-4.103331241557506934e-09
-4.469708590782739084e-09
-4.744728988385265960e-09
-4.874423501955599400e-09
-4.817533429349794873e-09
-4.509497282445174915e-09
-3.988800357932525824e-09
-3.337894847587515578e-09
-2.730184367386441381e-09
-2.301503338563535884e-09
-1.990774408866746577e-09
-1.566935243848950863e-09
-1.083821865785797202e-09
-8.578892829033393471e-10
-6.150960442535620756e-10
-4.425466644567927859e-10
-3.023641463752400214e-10
-2.150077658181457177e-10
-1.488815407449387401e-10
-1.028425967217038171e-10
-7.159164261109392016e-11
-5.029592968728246923e-11
-3.591387766364852161e-11
-2.614602233554171113e-11
-1.940971495896906377e-11
-1.467588658863900229e-11
-1.124693992244702830e-11
-8.678499634758731144e-12
-6.692197071732661650e-12
