# bin_9_2
1.069989732498344441e-17
1.192989404413206512e-17
1.304237304421529331e-17
1.391187306950894407e-17
1.438267060342167948e-17
1.433021514122156014e-17
1.356046233234883699e-17
1.211888033190851276e-17
1.024007341375446254e-17
8.381146561074573148e-18
6.998432656104324161e-18
6.055551088745151245e-18
4.908513477120000864e-18
3.440353187999517123e-18
2.631192491596599995e-18
1.989221720391454410e-18
1.382299952340120380e-18
9.891704807897057063e-19
7.087011626462161416e-19
4.970895778347298532e-19
3.504734362698235142e-19
2.500261880167802969e-19
1.809664202121602835e-19
1.333013325050876289e-19
1.000997308951965884e-19
7.640149582886953055e-20
5.902638048175199999e-20
4.586644034669454501e-20
3.558791962957122416e-20
2.738224634844938562e-20
2.077069553330615444e-20
