# bin_12_12
4.665603054607921604e-06
5.325815107590672244e-06
5.994391460130747675e-06
6.626959515479586698e-06
7.165193864970997279e-06
7.533907535250447208e-06
7.652694683856870280e-06
7.441725264004156813e-06
6.832452369935103757e-06
5.931724015035030608e-06
4.899075762483927060e-06
4.022928763525977283e-06
3.445370759611517971e-06
2.939508278074137977e-06
2.186332011329809542e-06
1.535735033621789411e-06
1.246847382366626357e-06
8.280085235194943624e-07
6.235792395467598948e-07
4.213526950133788654e-07
2.873209244435072168e-07
1.967532646150182812e-07
1.336763593891587963e-07
9.068362367304625431e-08
6.174597143625370825e-08
4.261644759073321437e-08
2.989990977418203617e-08
2.140776556190395891e-08
1.567394116337963205e-08
1.171669558373894161e-08
8.901298501893471636e-09
