# bin_5_3
4.184603241807501741e-07
4.562884508389141435e-07
4.853046069006403030e-07
5.001258865985225575e-07
4.963540694606090632e-07
4.675697535710923254e-07
4.161653726851425517e-07
3.505120834033582200e-07
2.869043349089950551e-07
2.402364728996776856e-07
2.074226472074518491e-07
1.664429760049657001e-07
1.169663568595179326e-07
9.033479268504354189e-08
6.757505589517547657e-08
4.790902627170147875e-08
3.443460449950031504e-08
2.493834687143130032e-08
1.786224214101162882e-08
1.292236276737095879e-08
9.491644531299797109e-09
7.091175891699530667e-09
5.393667159021071255e-09
4.168652656846085986e-09
3.255920273309807530e-09
2.553980061182344425e-09
1.997942527686004143e-09
1.548102813263242991e-09
1.181207237395871037e-09
8.832522455225718662e-10
6.449009031289253283e-10
