# bin_12_1
4.006184052502054270e-30
4.524187648933001761e-30
5.023415332027313105e-30
5.462154492650662534e-30
5.785343052592143836e-30
5.927704528576986773e-30
5.837475446073364909e-30
5.440370274969140989e-30
4.792380978286889599e-30
3.997411811781831652e-30
3.271046014639028573e-30
2.767215663318202626e-30
2.388766684812984834e-30
1.857453469650295199e-30
1.286115057303303992e-30
1.027211156290573377e-30
7.232351953061861862e-31
5.280996340308436247e-31
3.592520038086774223e-31
2.542640965327839701e-31
1.766808162186714501e-31
1.225716318334904262e-31
8.563360032650490131e-32
6.041217163520246684e-32
4.336149779738777661e-32
3.173553065089503167e-32
2.367628527977034904e-32
1.797391192583534280e-32
1.381010958522468931e-32
1.066627556065340643e-32
8.219343404633498390e-33
