# bin_3_2
3.967070786571439137e-06
4.195133294762292955e-06
4.295477162478680079e-06
4.227579839590925130e-06
3.944901193261109454e-06
3.480510992624087127e-06
2.913424167328109673e-06
2.387828587899803812e-06
2.011580053624081909e-06
1.725955486148138613e-06
1.355568146342223816e-06
9.597032713029269386e-07
7.504050772806274581e-07
5.503236529475283044e-07
3.997426891057719869e-07
2.882977939228529264e-07
2.105985442080356649e-07
1.538364480011085138e-07
1.138889185165865500e-07
8.578911949003791132e-08
6.576737553643953753e-08
5.123876976927543742e-08
4.037595882572736562e-08
3.196079335823009332e-08
2.523761280967073371e-08
1.974311308268334924e-08
1.520563701345774953e-08
1.147022722809354583e-08
8.441552866048744161e-09
6.047214263180615128e-09
4.215889503073477095e-09
