# bin_14_11
4.678856645650906560e-07
5.348115157321043397e-07
6.029747994595928211e-07
6.679731115692104560e-07
7.240517327019156740e-07
7.637193836577961493e-07
7.785309142132334016e-07
7.610717270043651210e-07
7.029024652657666681e-07
6.138132703581394188e-07
5.086651827182049609e-07
4.168994485691835257e-07
3.555024071397627358e-07
3.052199189646988432e-07
2.308340042312762339e-07
1.605105362294987180e-07
1.301970118629512090e-07
8.771956666104750894e-08
6.565855928442179949e-08
4.400929957817599437e-08
3.021565708620641150e-08
2.066662124143905280e-08
1.401625748131234281e-08
9.468999635318337567e-09
6.406636246856700188e-09
4.385604137357598075e-09
3.047552188238076263e-09
2.159004445261413000e-09
1.564350288965623186e-09
1.158821075977226696e-09
8.745294515262386087e-10
