# bin_10_7
1.316791156719550133e-07
1.486685640924975589e-07
1.650233846570978507e-07
1.793688647497271317e-07
1.898923551750361636e-07
1.944518000479005227e-07
1.913447228113041392e-07
1.781528085183371920e-07
1.567884838980146089e-07
1.306728814056018194e-07
1.069292781135374147e-07
9.053474526687255096e-08
7.813499776987248777e-08
6.058423724249790405e-08
4.193253939358614519e-08
3.358618272501707587e-08
2.353428249319284939e-08
1.725691602709482371e-08
1.171226024606644550e-08
8.284106359210293734e-09
5.761519573456964095e-09
4.001314549235627121e-09
2.797940895491189271e-09
1.975738105386737727e-09
1.419819175299932702e-09
1.040425028905485452e-09
7.771195884435754438e-10
5.905302741162256664e-10
4.540348442791631811e-10
3.507847431493592022e-10
2.702983989690332527e-10
