# bin_10_5
8.994654413766682161e-11
1.012041195407343025e-10
1.118759672618628516e-10
1.209870918409110043e-10
1.272783822515372057e-10
1.293862939841352170e-10
1.259968314178734642e-10
1.158988844034221859e-10
1.008124804727314799e-10
8.336833479081457329e-11
6.840876372306995735e-11
5.846225614332021558e-11
4.996516084289844725e-11
3.744362371876632093e-11
2.626375061781408593e-11
2.129210697390216059e-11
1.434673968504347365e-11
1.080458274631914317e-11
7.374613159961560036e-12
5.141700699903244701e-12
3.602532882221418864e-12
2.525026913270536947e-12
1.782696885483294173e-12
1.273960011681714369e-12
9.282326601890612315e-13
6.895154285364225524e-13
5.213728694659355930e-13
3.998896192494778037e-13
3.091090215383946152e-13
2.390699863668232493e-13
1.836735799162393050e-13
