# bin_6_5
2.941192580827301821e-06
3.258447262711919048e-06
3.534526082460484970e-06
3.733585032582672318e-06
3.814489861081036097e-06
3.742061684865223462e-06
3.473026705560603915e-06
3.047403670228706317e-06
2.535578153094074200e-06
2.076263840667293447e-06
1.760495511831516617e-06
1.514156551446613457e-06
1.166526932909908672e-06
8.132146649372614827e-07
6.517141182028624979e-07
4.571999968228087345e-07
3.380210050468350967e-07
2.338788533138188998e-07
1.674881941827990402e-07
1.191735918461248263e-07
8.522722888439548386e-08
6.173323233799239948e-08
4.539747619126246709e-08
3.402978233531474520e-08
2.595484165550231589e-08
2.005598832087924201e-08
1.561588355339472684e-08
1.216423284458493777e-08
9.413820246790518278e-09
7.192574188462407272e-09
5.398494559553652600e-09
