# bin_14_2
-3.028332016102063455e-32
-3.440459951943399268e-32
-3.848622409796568167e-32
-4.223072608550079749e-32
-4.524002313112266485e-32
-4.701315152138950561e-32
-4.712397419113265312e-32
-4.494247519844836671e-32
-4.045622947547157869e-32
-3.442248925099642968e-32
-2.820936507915340965e-32
-2.343129361724432236e-32
-2.027399390390050740e-32
-1.671625227930019988e-32
-1.181823594774054792e-32
-8.819893188651790477e-33
-6.837324806946856173e-33
-4.609757092667221505e-33
-3.342958083543572120e-33
-2.342680181707871937e-33
-1.601406711932244894e-33
-1.094771055910016961e-33
-7.499754927378382203e-34
-5.175971132160462847e-34
-3.611805534938538190e-34
-2.565422395307487598e-34
-1.857780661705262912e-34
-1.373758322261101314e-34
-1.035211584825428828e-34
-7.911104385340059174e-35
-6.088597444752284573e-35
