# bin_7_8
-1.046288836631770668e-08
-1.174233493717142984e-08
-1.294051676587049619e-08
-1.394114481708142066e-08
-1.459594214902703978e-08
-1.475759929781851646e-08
-1.425679615953779637e-08
-1.300232259600121353e-08
-1.121304391556152386e-08
-9.232842752016308355e-09
-7.603697572282368168e-09
-6.534668286039934618e-09
-5.521753679584872935e-09
-4.042248296145936036e-09
-2.892224516539719492e-09
-2.328056443699425274e-09
-1.554891363408946190e-09
-1.170650166723716283e-09
-8.100570105032797535e-10
-5.628375222645523118e-10
-3.950745792432755751e-10
-2.780110992170523471e-10
-1.976522902777104854e-10
-1.425127649578279227e-10
-1.048193287759695307e-10
-7.855586594757699196e-11
-5.984757139620447451e-11
-4.613887531589872349e-11
-3.574745064029255678e-11
-2.763272193378232128e-11
-2.116480348388820354e-11
