# bin_5_2
-3.744723771319620191e-11
-4.050902099883223540e-11
-4.265972458366611088e-11
-4.344445576237790728e-11
-4.243635293487330361e-11
-3.921234503383240050e-11
-3.426310018876185250e-11
-2.844749409974708663e-11
-2.332553561791589506e-11
-1.981823761411494172e-11
-1.695385704844070854e-11
-1.294674020927580946e-11
-9.122352473008162024e-12
-7.299587450473573160e-12
-5.133374340637639897e-12
-3.819903746784150035e-12
-2.690793539695131066e-12
-1.948361530437387405e-12
-1.412788948627968363e-12
-1.034730537529648328e-12
-7.701301763909230531e-13
-5.830004574187892425e-13
-4.491329239369095850e-13
-3.505486968814499900e-13
-2.754874166357133234e-13
-2.165383694210514550e-13
-1.690346621849921676e-13
-1.302180613660305401e-13
-9.846723534791783304e-14
-7.277760263565611164e-14
-5.242573455978078027e-14
