# bin_9_4
-7.591508467204458520e-14
-8.489850903648936710e-14
-9.316031013300998727e-14
-9.983066722608503839e-14
-1.038147361189982988e-13
-1.041576118509157986e-13
-9.950598278007069859e-14
-8.973855162817313862e-14
-7.651016321181200186e-14
-6.273824903932465221e-14
-5.202168228074401147e-14
-4.494305115252023731e-14
-3.721158815311544483e-14
-2.650240238391350469e-14
-1.964522266008150400e-14
-1.537431141186209363e-14
-1.040151864782626350e-14
-7.658342770711201504e-15
-5.412149494136123440e-15
-3.772981410151967514e-15
-2.651358762901997582e-15
-1.877686078864369906e-15
-1.347964671000777604e-15
-9.835327665637803945e-16
-7.319675329093606220e-16
-5.544129176602689626e-16
-4.259450918124994333e-16
-3.300526458516964136e-16
-2.560928825539051926e-16
-1.975588815762073987e-16
-1.505662999507933957e-16
