# bin_3_6
-7.241454144703222597e-11
-7.944636119878558319e-11
-8.514499381012784114e-11
-8.858598748421006725e-11
-8.894138168799511302e-11
-8.509809729849588103e-11
-7.688603633525263643e-11
-6.568979833905739864e-11
-5.391958138661691274e-11
-4.464759890316107301e-11
-3.848397608621988542e-11
-3.195982596426901100e-11
-2.297684696643264892e-11
-1.694113720344606901e-11
-1.333517809882943063e-11
-9.107055654877996844e-12
-6.775161722944209162e-12
-4.822875584123394235e-12
-3.424951615899219143e-12
-2.462032233500550477e-12
-1.789894295450140113e-12
-1.322365035653495494e-12
-9.940850871448903629e-13
-7.608409383721665891e-13
-5.901256278311989480e-13
-4.612220138855628450e-13
-3.608167660976212068e-13
-2.805210025655699603e-13
-2.153883774272383443e-13
-1.624651514287664596e-13
-1.198916020282244677e-13
