# bin_7_5
-2.282418182635199965e-09
-2.537773916783265518e-09
-2.765047553351770713e-09
-2.936982722164847100e-09
-3.020533384701576597e-09
-2.989771623625123879e-09
-2.805145066075037234e-09
-2.486883770891914982e-09
-2.086022064629102756e-09
-1.706434632499567155e-09
-1.434540829524765782e-09
-1.240092321124815294e-09
-9.838104733692898164e-10
-6.845118620574352330e-10
-5.367119610625834399e-10
-3.920933687514861086e-10
-2.804727778558436186e-10
-1.963860170927837390e-10
-1.413223633747016346e-10
-9.975743116148286797e-11
-7.072595016734392327e-11
-5.080105732252344437e-11
-3.702837432542918854e-11
-2.749226255488560586e-11
-2.079378644323574343e-11
-1.596430211377667144e-11
-1.238209026471141037e-11
-9.636233383016463747e-12
-7.470916781224231584e-12
-5.731986564418947676e-12
-4.328461380642446852e-12
