# bin_5_9
-9.721771108049106641e-12
-1.089513640427235990e-11
-1.198619222567504594e-11
-1.288550093732585880e-11
-1.345430606119249725e-11
-1.356177600619606152e-11
-1.304291320335804232e-11
-1.184054093763608947e-11
-1.016330270913562711e-11
-8.352256699741534644e-12
-6.895770647236030692e-12
-5.941336336891269096e-12
-4.982614224224625134e-12
-3.604007844574880295e-12
-2.613783560135489106e-12
-2.085026711234320941e-12
-1.395219206007380144e-12
-1.043853222530522442e-12
-7.285236169407485777e-13
-5.064320112877100087e-13
-3.556187559715476932e-13
-2.508087879540085355e-13
-1.790104469105987224e-13
-1.297024428684335897e-13
-9.586854593492525712e-14
-7.217242596425644923e-14
-5.518624112419546933e-14
-4.264421929129432302e-14
-3.306705641894489026e-14
-2.554421687663586691e-14
-1.952784283248442758e-14
