# bin_10_3
-6.667196697595287800e-19
-7.473152102423456387e-19
-8.223214626252948271e-19
-8.842443774256012842e-19
-9.235760681886721203e-19
-9.312951249399588233e-19
-8.961454255574569591e-19
-8.139799365904908823e-19
-6.990694390849822727e-19
-5.746271667313807725e-19
-4.742748990546282014e-19
-4.085130282701219153e-19
-3.429129118714700231e-19
-2.483860800869638494e-19
-1.798412758655622145e-19
-1.436291694588222881e-19
-9.607696501804830641e-20
-7.194359331784208747e-20
-5.015891126929237627e-20
-3.486470212466878859e-20
-2.448101009579254806e-20
-1.726097105014129487e-20
-1.231395211526262620e-20
-8.916928284118910279e-21
-6.587046725487790730e-21
-4.956288997118821663e-21
-3.788188281269106801e-21
-2.926481976390244734e-21
-2.269044370080102818e-21
-1.752978611398412703e-21
-1.340413195708686836e-21
