# bin_6_2
-3.921807409309765768e-13
-4.282484604387098260e-13
-4.562966639682272871e-13
-4.712677709329474026e-13
-4.690153454287631469e-13
-4.434019001672780384e-13
-3.959941104025355419e-13
-3.345389451071533250e-13
-2.738962388896025145e-13
-2.287223588073733132e-13
-1.975620502519595885e-13
-1.598974019426331827e-13
-1.127043999122034465e-13
-8.620633234141047728e-14
-6.530931801251988950e-14
-4.583532444123344345e-14
-3.318661526521888497e-14
-2.398319030677824539e-14
-1.713836410517289971e-14
-1.237488655073181289e-14
-9.067454598686985407e-15
-6.757648767546210972e-15
-5.127120977507962563e-15
-3.954649291947703696e-15
-3.084549749599384528e-15
-2.418074064812789820e-15
-1.891984004468640746e-15
-1.467330682891485238e-15
-1.121292763124281071e-15
-8.401681364043355512e-16
-6.149422961957702207e-16
