# bin_3_8
2.682517541547066965e-07
2.863831411944982062e-07
2.967145326649168833e-07
2.963761924588407268e-07
2.820433730182722042e-07
2.538281804530169431e-07
2.163998211685561333e-07
1.781266959219548341e-07
1.481602207204640187e-07
1.269564586044894394e-07
1.039418142693573165e-07
7.564043629339017787e-08
5.638403784484258529e-08
4.340345508939925636e-08
3.069253562205299229e-08
2.260717650796063754e-08
1.626912653987506258e-08
1.180214686396333158e-08
8.654977345895768661e-09
6.439418666875087577e-09
4.874575758751415602e-09
3.752644606838909892e-09
2.930641832875038075e-09
2.307687731131958142e-09
1.819885516414947845e-09
1.427489143788182487e-09
1.106332228787910175e-09
8.424515819729097493e-10
6.274785493800738754e-10
4.556976016600820560e-10
3.222550128996253718e-10
