# bin_1_10
7.107532490567886507e-07
6.996039914534886446e-07
6.563686424958196736e-07
5.842559002268061695e-07
4.961998571853755100e-07
4.111476347329833152e-07
3.435505135662995311e-07
2.890577763051943897e-07
2.315311059909493714e-07
1.724856162699140997e-07
1.290938974363461919e-07
9.770194996455453081e-08
7.124584820837904457e-08
5.252286868463360080e-08
3.866974585435705879e-08
2.881043104859864403e-08
2.177851875897576391e-08
1.675556178905180193e-08
1.311027019054883917e-08
1.039271035783452732e-08
8.298263060573839414e-09
6.626027151879324202e-09
5.253178618317577814e-09
4.108480933408628569e-09
3.152325598131958847e-09
2.362869261473503293e-09
1.725792526315144043e-09
1.227187987763110807e-09
8.503293116182218348e-10
5.753983571067874659e-10
3.813559713346445983e-10
