# bin_13_12
2.481431112355458382e-09
2.831771269887442334e-09
3.186099506221535409e-09
3.520771977286572722e-09
3.804668147659235290e-09
3.997742108224216086e-09
4.057710805173514585e-09
3.941408615859685991e-09
3.614445352996892968e-09
3.134226077997631228e-09
2.587161735250603013e-09
2.125648968051925301e-09
1.821850506100307323e-09
1.551730438112142513e-09
1.150457535278004088e-09
8.105975990916185128e-10
6.570787349497514863e-10
4.361105125179336009e-10
3.281460576987171798e-10
2.221782725799836445e-10
1.514708917076065873e-10
1.037100829498391335e-10
7.047449596812153272e-11
4.785196236468275813e-11
3.262710435707902327e-11
2.255684419367856766e-11
1.585653640149690100e-11
1.137640682929998671e-11
8.345583532153346142e-12
6.248519589859632742e-12
4.752072737929265874e-12
