# bin_5_12
1.806180542218190762e-07
1.990407747782996277e-07
2.145007488188371612e-07
2.247420621171097975e-07
2.274830859113752278e-07
2.202351701431184399e-07
2.015435192591540152e-07
1.744317973406113650e-07
1.441215078516853122e-07
1.186776843528612774e-07
1.014873220603380918e-07
8.575444561907524606e-08
6.381803651714175929e-08
4.571729640194670691e-08
3.635656041993417073e-08
2.511658612181565245e-08
1.866635881638863012e-08
1.309548046005647734e-08
9.328105659391705089e-09
6.673821217900996598e-09
4.813471987079021666e-09
3.521723835533389568e-09
2.619223437294539956e-09
1.984724258944156578e-09
1.527162050314137512e-09
1.187197793961046050e-09
9.267015300111586734e-10
7.211377913320309974e-10
5.557669825729797514e-10
4.217713367372735538e-10
3.137778930254045452e-10
