# bin_4_3
4.203093848594426369e-09
4.517768574663847616e-09
4.719637839700149451e-09
4.762124808382671459e-09
4.591127040801257282e-09
4.183681393721692330e-09
3.606387051123010884e-09
2.974261802717529208e-09
2.453503696739745160e-09
2.101901663044578350e-09
1.765839880114117690e-09
1.303580314691138015e-09
9.435955281057568838e-10
7.493380468424422406e-10
5.198053695071305734e-10
3.889949934861049904e-10
2.768664671694467130e-10
1.999671792990337938e-10
1.458952809934056819e-10
1.077672523867196769e-10
8.095794558012562936e-11
6.186649940512252661e-11
4.804793098121260803e-11
3.771337247741205937e-11
2.972145780774044921e-11
2.335697698691419051e-11
1.817738039962711165e-11
1.392586611642671693e-11
1.045042107358222215e-11
7.652905226480503070e-12
5.457461758352278372e-12
