# bin_5_2
2.542471041392664266e-12
2.749109079387086126e-12
2.893409103748617113e-12
2.944747589422447482e-12
2.873633854493894902e-12
2.652621340566353305e-12
2.315674878978575122e-12
1.921918520429486944e-12
1.576995279826841156e-12
1.341212630942540239e-12
1.145876051813635198e-12
8.723807928968698455e-13
6.160768449093334444e-13
4.930935233431357129e-13
3.460308864875953499e-13
2.578843644578652744e-13
1.817901914336973969e-13
1.315814411237503824e-13
9.547878959880222278e-14
6.998933343802207353e-14
5.213888721932759467e-14
3.950651932855954688e-14
3.046028235876521495e-14
2.378876486690960146e-14
1.870163062435337469e-14
1.470097730946041500e-14
1.147370349943598143e-14
8.835128065235318004e-15
6.676645790314432958e-15
4.930787759155187763e-15
3.548714648354698826e-15
