# bin_10_12
3.139130232735485796e-08
3.560136998237875119e-08
3.973780538342949682e-08
4.348750766174465917e-08
4.643164036833579050e-08
4.804881618514624491e-08
4.792027771954228670e-08
4.539329242674053447e-08
4.060333383691269682e-08
3.433470198644581885e-08
2.810944161325728878e-08
2.346967431279691566e-08
2.031774868195662127e-08
1.648962747124971931e-08
1.154431163814967977e-08
8.805701777080809277e-09
6.646800932491692634e-09
4.578412856340105914e-09
3.245562149112277595e-09
2.292965101707418950e-09
1.574077293812321103e-09
1.078811744013416449e-09
7.432179745087658887e-10
5.162139677661152343e-10
3.632378681043326149e-10
2.603702723918558806e-10
1.903288203060551150e-10
1.419655546192748735e-10
1.077070184249851002e-10
8.265074913445997241e-11
6.368525557301019832e-11
