# bin_14_13
2.453833102963573222e-09
2.806176013888913686e-09
3.165714766842123210e-09
3.509484101563065949e-09
3.807480847018627691e-09
4.020507294925690490e-09
4.103719790768242408e-09
4.019043199394080271e-09
3.719896525011536766e-09
3.255201908200936056e-09
2.701411009782866984e-09
2.213046276074778492e-09
1.883871998770743276e-09
1.620060323439699537e-09
1.232879720360002424e-09
8.554551890158346086e-10
6.920847863291819140e-10
4.701641946134828303e-10
3.500407383801723258e-10
2.343194989045424526e-10
1.615359451259730388e-10
1.103554555806407371e-10
7.473644534695119000e-11
5.041761538569194551e-11
3.404006525907690818e-11
2.323372631178008840e-11
1.608887330572101555e-11
1.135299891406050083e-11
8.192908043938719111e-12
6.046732677593061328e-12
4.550106414057412502e-12
