# bin_12_8
3.582449936967806122e-12
4.067585477319229303e-12
4.546703041429339888e-12
4.984455064072128976e-12
5.333487227362572566e-12
5.534349794752946620e-12
5.537877873582415804e-12
5.268814895729182532e-12
4.731971761448750264e-12
4.016808605255160550e-12
3.289959876537858589e-12
2.737533214212441366e-12
2.370032546866768286e-12
1.943984630857855008e-12
1.367847338972275216e-12
1.029296799896290854e-12
7.908580723263599287e-13
5.366709273680162495e-13
3.859214448681153021e-13
2.716170589655791471e-13
1.859217729237652465e-13
1.271327613208019481e-13
8.725582658188057097e-14
6.035856301503775353e-14
4.224650209529779429e-14
3.010837876706275273e-14
2.188026197928149989e-14
1.623380388697812209e-14
1.226651508530845061e-14
9.391011959822966171e-15
7.232892050241804308e-15
