# bin_10_11
1.915534228245204496e-08
2.171342597945074652e-08
2.422082608006689421e-08
2.648564936288173294e-08
2.825122498990587023e-08
2.919905382245806568e-08
2.907762034679052065e-08
2.748860761638467396e-08
2.454085452888959669e-08
2.071302409891956414e-08
1.695218019186382806e-08
1.417625028796377703e-08
1.227458533159804220e-08
9.914072707411606430e-09
6.919274874111315340e-09
5.313508231216803734e-09
3.978081344712921667e-09
2.758118261432950709e-09
1.941659330408464482e-09
1.375263116974442470e-09
9.453281086284749245e-10
6.483826057653404986e-10
4.474505167424469228e-10
3.113918697126739582e-10
2.196705737648893019e-10
1.578937387523942405e-10
1.157419009520231476e-10
8.655187781678806280e-11
6.579564634929090968e-11
5.055034082680314522e-11
3.896465756827295196e-11
