# bin_1_2
-2.316419652991188619e-08
-2.356381322018731815e-08
-2.299463357628349183e-08
-2.127150065574256307e-08
-1.861664206442732997e-08
-1.552770031363422008e-08
-1.277189382604002722e-08
-1.080509465673520005e-08
-9.173314859032748525e-09
-7.085304975548397854e-09
-5.093648191194833118e-09
-3.974378947390172951e-09
-2.901389965146614244e-09
-2.128674613582893029e-09
-1.550376768798114904e-09
-1.141736173483272788e-09
-8.472530043585798461e-10
-6.389437727833462429e-10
-4.907762275700121864e-10
-3.833930567229412895e-10
-3.035253988557477381e-10
-2.419847585974081860e-10
-1.928472271198610754e-10
-1.525365194643674710e-10
-1.189588552702793396e-10
-9.095096834650167709e-11
-6.787316886321968330e-11
-4.930788356039151799e-11
-3.484495815001401717e-11
-2.398531736583302120e-11
-1.612371139843166734e-11
