# bin_4_3
-1.365035975194674757e-08
-1.475675373401752836e-08
-1.552713059645427304e-08
-1.579771779954432237e-08
-1.540871350258121267e-08
-1.421679894171651288e-08
-1.240112970127320433e-08
-1.029371593240104162e-08
-8.448875321281414980e-09
-7.187451668700705045e-09
-6.135675440870201869e-09
-4.666448220778508976e-09
-3.300434258094667110e-09
-2.638468467772723037e-09
-1.852596492449823050e-09
-1.379489542374454806e-09
-9.734971543178829217e-10
-7.045461283059052977e-10
-5.112219424162896710e-10
-3.747865980157177432e-10
-2.792492195324596113e-10
-2.116330771815656108e-10
-1.631973472460013842e-10
-1.274637589361142276e-10
-1.002071836700107301e-10
-7.876607296808219355e-11
-6.146706814008409271e-11
-4.732333129190886014e-11
-3.575429728789045881e-11
-2.639882552626595828e-11
-1.899509183803819392e-11
