# bin_5_7
-2.162667804253534412e-09
-2.408391107032113987e-09
-2.629085689017054762e-09
-2.799149455296121921e-09
-2.887114463557244715e-09
-2.868099519100793032e-09
-2.703468518023854759e-09
-2.407353888690185271e-09
-2.027159597079127789e-09
-1.659347960003505255e-09
-1.390461193841050502e-09
-1.202939840380547848e-09
-9.652761296318073583e-10
-6.739583893280916117e-10
-5.220132204406465697e-10
-3.882127878634607891e-10
-2.736244328198595539e-10
-1.936398060155834825e-10
-1.391381951138194276e-10
-9.790544823071170757e-11
-6.921023972356706589e-11
-4.954281477159384931e-11
-3.598422687542084051e-11
-2.661162549697035771e-11
-2.005590210325472569e-11
-1.535347957526171894e-11
-1.188608193497139539e-11
-9.244160991489048037e-12
-7.170671672032724153e-12
-5.510208630019813218e-12
-4.170958731433797377e-12
