# bin_6_1
-1.602464560163667268e-16
-1.744976197746578248e-16
-1.852799177136098664e-16
-1.905390440699927344e-16
-1.885846920291416143e-16
-1.770223706400809322e-16
-1.570307036853541368e-16
-1.318775500052105570e-16
-1.079766576926327990e-16
-9.069906019430746899e-17
-7.826574010336474329e-17
-6.222786035365768931e-17
-4.363421824318006406e-17
-3.404031381265588719e-17
-2.511940473889240027e-17
-1.801208411013069387e-17
-1.285315869547651808e-17
-9.324613210507532817e-18
-6.696684820930548563e-18
-4.855843167403935231e-18
-3.576232895723504074e-18
-2.678914237271884937e-18
-2.043120991323227314e-18
-1.582483721391092501e-18
-1.237800151381542654e-18
-9.715884138937496152e-19
-7.599264966494886248e-19
-5.882857813283800906e-19
-4.481569928282452333e-19
-3.344000561434643152e-19
-2.435394814121106646e-19
