# bin_6_4
-1.857809118558380144e-09
-2.050858722444091002e-09
-2.214818042387560849e-09
-2.326598554360889327e-09
-2.361851033310156269e-09
-2.295685292460022597e-09
-2.108494308861193975e-09
-1.830657622535434216e-09
-1.514364854419441371e-09
-1.244012951432178484e-09
-1.063245708587454006e-09
-9.055423214026265414e-10
-6.776884040684264975e-10
-4.794513066200521060e-10
-3.866200984853975420e-10
-2.641916156606501327e-10
-1.987803265470468298e-10
-1.382562310266710929e-10
-9.831124816203326062e-11
-7.034889303344376081e-11
-5.067628321875772883e-11
-3.699598255550789591e-11
-2.744483196348868583e-11
-2.075298981625040246e-11
-1.594449015719907014e-11
-1.238583967137589422e-11
-9.669510215941985956e-12
-7.531707314744671003e-12
-5.813964501327243373e-12
-4.421650828845945479e-12
-3.297808121117716439e-12
