# bin_15_6
-2.975568108688046042e-19
-3.392934024477252865e-19
-3.813517569502953666e-19
-4.208808354676390213e-19
-4.541139001321790064e-19
-4.762297097273229892e-19
-4.823183382512279938e-19
-4.669607530853186799e-19
-4.267092061812955143e-19
-3.686977075545130127e-19
-3.037933579398983237e-19
-2.499741564792155350e-19
-2.147652508953394783e-19
-1.820700284630350662e-19
-1.336416076563553786e-19
-9.495392922302565991e-20
-7.674746466752577294e-20
-5.072012951555942912e-20
-3.814654195285935256e-20
-2.598102307896152803e-20
-1.768002602363112804e-20
-1.210415502511810895e-20
-8.230331109463560819e-21
-5.603414715397043565e-21
-3.836255896626312670e-21
-2.665615714131550032e-21
-1.884630634858459703e-21
-1.360479494478402142e-21
-1.003850924549453403e-21
-7.552422037662189445e-22
-5.762632505489245114e-22
