# bin_1_9
-6.942784753539961506e-25
-7.735181977678233244e-25
-8.448765180729671726e-25
-9.001602458232830344e-25
-9.292627444374749674e-25
-9.241531338137332995e-25
-8.723566536979270511e-25
-7.778694859085256224e-25
-6.558217567509612011e-25
-5.369124778651660578e-25
-4.494055719646603854e-25
-3.888284298517260832e-25
-3.131176812241272297e-25
-2.189479685026137802e-25
-1.688518141088146872e-25
-1.262902007409509854e-25
-8.859100212140920207e-26
-6.293707653497426964e-26
-4.517523689614459232e-26
-3.175426065751439946e-26
-2.242814423615244732e-26
-1.603610779641689165e-26
-1.163333782318603978e-26
-8.591483612394828815e-27
-6.466868082814134942e-27
-4.945497710483734682e-27
-3.825921758867326501e-27
-2.974648670976819551e-27
-2.307660146602837219e-27
-1.774102913599605890e-27
-1.343911178000787166e-27
