# bin_2_4
-1.343427740392488562e-09
-1.439904660952818633e-09
-1.498825149690248766e-09
-1.505928203791761429e-09
-1.443107551237271777e-09
-1.306701240560631574e-09
-1.118850590133240041e-09
-9.204529791575157186e-10
-7.616981584457030605e-10
-6.546851576299732638e-10
-5.447334607438512094e-10
-3.960512685062112448e-10
-2.910241469507302178e-10
-2.292796855912579238e-10
-1.588292315044343939e-10
-1.186152499659382124e-10
-8.498764418800345041e-11
-6.136220772998538768e-11
-4.487555455363735748e-11
-3.326951382121791522e-11
-2.509549540764707476e-11
-1.925649838116119871e-11
-1.500615554014909377e-11
-1.180521681805134504e-11
-9.312976085662391541e-12
-7.316531371263199175e-12
-5.685357425770390754e-12
-4.344302203466550808e-12
-3.248706700929762228e-12
-2.369069491044024869e-12
-1.681766315031131986e-12
