# bin_10_4
-9.759260207507865246e-16
-1.097136098013031379e-15
-1.211575416785301382e-15
-1.308557760035471245e-15
-1.374344336350430248e-15
-1.394535120909548013e-15
-1.354152235128486032e-15
-1.241829961443393307e-15
-1.076432189749419142e-15
-8.893416685830952419e-16
-7.308904548081086452e-16
-6.261483814857844343e-16
-5.330263477252965767e-16
-3.958753817218882404e-16
-2.797315577187182702e-16
-2.264305737475618859e-16
-1.518541898130075751e-16
-1.145207215681064871e-16
-7.857170681172010608e-17
-5.468510443596632111e-17
-3.834990884144268648e-17
-2.692271388685578670e-17
-1.905894968432597795e-17
-1.366714750172603169e-17
-9.994926723679165465e-18
-7.450462202829767205e-18
-5.650564963137459684e-18
-4.343064161600093416e-18
-3.360552323262085292e-18
-2.598864467768881846e-18
-1.994503629288201294e-18
