# bin_9_3
5.412947498000625897e-19
6.043952420802852960e-19
6.619408074546469369e-19
7.076613255736311700e-19
7.337139807463205124e-19
7.335889111188436950e-19
6.974923325352751489e-19
6.261222864725246228e-19
5.313371626923223590e-19
4.350893951519315598e-19
3.618400947096610361e-19
3.129009612471305413e-19
2.565592652532499937e-19
1.811091007763623757e-19
1.362459532133241331e-19
1.049770410019803640e-19
7.181498850846320582e-20
5.217389006813897381e-20
3.714308619531949150e-20
2.596064955972750340e-20
1.826266826812719198e-20
1.297628884906782219e-20
9.351892053053736267e-21
6.854789286680940754e-21
5.123852557024149794e-21
3.895666792426951028e-21
3.001369105887550351e-21
2.329081399257452098e-21
1.807307523203665025e-21
1.392534900895864372e-21
1.058898899398586580e-21
