# bin_15_2
5.761805641431899900e-37
6.560463682644374881e-37
7.359843857209459810e-37
8.104210392344204040e-37
8.719478489384729802e-37
9.111560953910722590e-37
9.191073971533883832e-37
8.845693982858922184e-37
8.033997201787192656e-37
6.898646924607554923e-37
5.669534866274600739e-37
4.680725274527733696e-37
4.035633426780198929e-37
3.387287978596328626e-37
2.445942439437384551e-37
1.770233608976702276e-37
1.412558867615288078e-37
9.360107892224420087e-38
6.970695962190700817e-38
4.801006283795020343e-38
3.268994633147340037e-38
2.235998574021144458e-38
1.523281584042676071e-38
1.042446161823004250e-38
7.190724888322231225e-39
5.040979336684946670e-39
3.599429677893757489e-39
2.624997782334028305e-39
1.954859757967351224e-39
1.481357259483740327e-39
1.135263959107358862e-39
