# bin_10_8
1.053558376260248757e-11
1.191180764220675397e-11
1.324507210807594024e-11
1.442725508310802279e-11
1.531469823911356922e-11
1.573327017926387227e-11
1.555049793395220705e-11
1.455750247064167859e-11
1.287700936834262255e-11
1.077528437235661329e-11
8.810614487885451143e-12
7.423295398877418423e-12
6.421013993698145716e-12
5.058164390681921110e-12
3.497767352046723962e-12
2.765608309622874586e-12
1.985911886266951028e-12
1.426485228922683713e-12
9.752646831607604596e-13
6.936450700866760674e-13
4.801160642587002112e-13
3.315181460345605926e-13
2.307128225666371401e-13
1.620347960534402015e-13
1.156600174980671862e-13
8.417489843993809438e-14
6.246684603933070920e-14
4.721827794821319430e-14
3.617847663662325244e-14
2.791315662810895445e-14
2.152385086750872867e-14
