# bin_9_4
3.177831247654738105e-16
3.555311993905783381e-16
3.903259989750783405e-16
4.185437247118051624e-16
4.356179435980150918e-16
4.374939205944816532e-16
4.185747455413463291e-16
3.780168456243348456e-16
3.227465896494703383e-16
2.646972023684391550e-16
2.191656481570434701e-16
1.892054101266848343e-16
1.571872568921924564e-16
1.123381696375177005e-16
8.276742056292211495e-17
6.512818334203982298e-17
4.389053845469875009e-17
3.246739974574938481e-17
2.286895831783436933e-17
1.592669130300782765e-17
1.118837410184526172e-17
7.914088054974702499e-18
5.672770884005740606e-18
4.131638834166262032e-18
3.069567994417581551e-18
2.321471557696864811e-18
1.781469696779892932e-18
1.379493513447074901e-18
1.070215510225021340e-18
8.258866905440007644e-19
6.299080715466056583e-19
