# bin_12_9
2.348458362605301683e-12
2.671299425825240099e-12
2.992885616126422485e-12
3.290348361694141375e-12
3.533178076460808833e-12
3.682801675215854332e-12
3.704376278348505763e-12
3.550381540161694891e-12
3.211201530722270244e-12
2.745610267852001745e-12
2.252982880992518432e-12
1.864895649389961340e-12
1.611150244861893913e-12
1.341981049171607397e-12
9.587765223715595828e-13
7.036114393531422478e-13
5.548791592322643649e-13
3.697689572130095881e-13
2.725414539286869955e-13
1.892356952361880936e-13
1.290303678021391607e-13
8.820643774213540033e-14
6.021394218319836713e-14
4.136367886313728430e-14
2.868438606427365690e-14
2.023209252270628013e-14
1.454279932892163315e-14
1.067674544148477725e-14
7.997472437705091334e-15
6.086540093711834789e-15
4.675621202347764259e-15
