# bin_8_1
3.381152682792170293e-24
3.740101527384035516e-24
4.049378521535983197e-24
4.267511378334019014e-24
4.348237482299578240e-24
4.249829216980386550e-24
3.927181722801014315e-24
3.431361534037875125e-24
2.846388783002206285e-24
2.331980701454025760e-24
1.983087629655279655e-24
1.700291586531617257e-24
1.295079510498287812e-24
9.058494025539513428e-25
7.294328041428275530e-25
5.051460873619182994e-25
3.769623198009326919e-25
2.607620051285864191e-25
1.861451598739381698e-25
1.327824527819222633e-25
9.524481148962829932e-26
6.919605557278931660e-26
5.105335200057866290e-26
3.839947064962229789e-26
2.937222750546905703e-26
2.274483413440371512e-26
1.772918281674771527e-26
1.381093329367403677e-26
1.067807266026701354e-26
8.143994226415871549e-27
6.097587829828960803e-27
