# bin_8_1
-4.341398426175058640e-22
-4.804780541555672123e-22
-5.205687696737026365e-22
-5.491115669044325538e-22
-5.601163725552976098e-22
-5.483178629257745252e-22
-5.076667759494161605e-22
-4.444099924942622750e-22
-3.691435775080519833e-22
-3.023206530877590121e-22
-2.566898103202817407e-22
-2.203653122276113596e-22
-1.687402794095084973e-22
-1.178328653131625577e-22
-9.464673445939686982e-23
-6.594294868211912622e-23
-4.898196263881003046e-23
-3.388293545176880393e-23
-2.421882711499754169e-23
-1.725155204010499966e-23
-1.235425544598663092e-23
-8.960683563618140434e-24
-6.599541565547421229e-24
-4.954846086662763354e-24
-3.784170607156536391e-24
-2.926935343484518199e-24
-2.279971466567940537e-24
-1.775815819045360209e-24
-1.373420550881120301e-24
-1.048218777843588387e-24
-7.856193863781416224e-25
