# bin_8_8
-1.496270881452432164e-08
-1.685205041486804920e-08
-1.865228475492516023e-08
-2.020365341625937197e-08
-2.129844084785253220e-08
-2.170355507694549938e-08
-2.121239993678559043e-08
-1.959445221573931990e-08
-1.711409193553527356e-08
-1.418732659669670697e-08
-1.162363645228701822e-08
-9.897567089419952663e-09
-8.492798908808122673e-09
-6.444015370234356084e-09
-4.489489349937290789e-09
-3.629854727935194661e-09
-2.475657476607608286e-09
-1.850134534148659859e-09
-1.257187582305307547e-09
-8.805412945120763699e-10
-6.153828552454794942e-10
-4.299464591923120513e-10
-3.023783961716619735e-10
-2.150565544457736223e-10
-1.558611692772894897e-10
-1.151820101392241327e-10
-8.669825115837939325e-11
-6.627310947068510303e-11
-5.113191950286391436e-11
-3.953407877512583930e-11
-3.040757804709466790e-11
