# bin_1_5
-6.634770452332590629e-14
-7.140575432315651918e-14
-7.472033611419699277e-14
-7.554152966036117673e-14
-7.303768133414419218e-14
-6.673807962385625821e-14
-5.767741952460717256e-14
-4.758702454120427338e-14
-3.915676434817951501e-14
-3.349500680025906716e-14
-2.829829711799476968e-14
-2.101168240462873311e-14
-1.507118292558676101e-14
-1.204868928661323464e-14
-8.329235177725825744e-15
-6.255293930277503131e-15
-4.433098582748663207e-15
-3.199091559316657719e-15
-2.330807462353178556e-15
-1.718073467587386359e-15
-1.287687533892078065e-15
-9.817453123384831790e-16
-7.610322932393968063e-16
-5.965832741091208661e-16
-4.698757701096144192e-16
-3.692888323472034059e-16
-2.875999728238625398e-16
-2.206085639058376590e-16
-1.658312383821431637e-16
-1.216819210146021421e-16
-8.695712876057495036e-17
