# bin_1_10
-1.300101356485698552e-27
-1.455491913410479132e-27
-1.599304555564170883e-27
-1.716834216451245964e-27
-1.789499895554305052e-27
-1.800282545441124250e-27
-1.726818011469291817e-27
-1.563556022088911407e-27
-1.338540835460533441e-27
-1.098890208462658362e-27
-9.083959218367454351e-28
-7.831754988814110102e-28
-6.536710734559442950e-28
-4.701998775981010186e-28
-3.435401671984485959e-28
-2.721076229817093128e-28
-1.827880706534817976e-28
-1.359298101095356274e-28
-9.525545216293002653e-29
-6.627178103814424199e-29
-4.653455374913411734e-29
-3.285842916317979322e-29
-2.349337775587293213e-29
-1.705953195444024081e-29
-1.263677230293243433e-29
-9.531726287556451444e-30
-7.299248480372065237e-30
-5.644947701104736060e-30
-4.377499574374845737e-30
-3.379428739063870835e-30
-2.580256441321219856e-30
