# bin_5_3
-1.593149520750204174e-09
-1.736973186750693926e-09
-1.847306976019176854e-09
-1.903709036590494380e-09
-1.889463079414183946e-09
-1.780223862430664347e-09
-1.584773720556260480e-09
-1.334979197266604857e-09
-1.092500291632013236e-09
-9.142166527580609131e-10
-7.891089371614689414e-10
-6.337527987133285929e-10
-4.455636984492778889e-10
-3.435176150508717560e-10
-2.573549586984768679e-10
-1.821761651554923396e-10
-1.310681641105346131e-10
-9.485386399594938234e-11
-6.790684847448942793e-11
-4.910811727184940982e-11
-3.605315512947640970e-11
-2.692228378514646884e-11
-2.046774109941794880e-11
-1.581257858217574137e-11
-1.234636118121623502e-11
-9.682312667043716929e-12
-7.573199066934273679e-12
-5.867641076790649774e-12
-4.476982073832504601e-12
-3.347842958245988323e-12
-2.444663890853796552e-12
