# bin_3_6
-6.662229727306192290e-11
-7.318766297842556219e-11
-7.857062620002623657e-11
-8.192817854071775918e-11
-8.247290482269597207e-11
-7.921389272444533763e-11
-7.184774117298848581e-11
-6.162503789271876176e-11
-5.064374419206070316e-11
-4.181725086324813625e-11
-3.597163160728161074e-11
-3.009443744239726394e-11
-2.183669550218940276e-11
-1.589711305773821369e-11
-1.263362138280600976e-11
-8.587648049996834006e-12
-6.430638694992137306e-12
-4.546235152039870457e-12
-3.224771203386362405e-12
-2.315215398327703813e-12
-1.678704678156263914e-12
-1.236135548890139175e-12
-9.259405504184603978e-13
-7.064589923670026102e-13
-5.466214473479056534e-13
-4.265714153396404381e-13
-3.335457894084204497e-13
-2.594429048067303949e-13
-1.994683936973465148e-13
-1.507616520681334607e-13
-1.115458295736792915e-13
