# bin_5_4
-1.199976634519897495e-08
-1.315919469406249072e-08
-1.409638448640210639e-08
-1.465849185216926635e-08
-1.470892340609940480e-08
-1.406455081594056082e-08
-1.270023053811250745e-08
-1.084524946247614162e-08
-8.900075816510652045e-09
-7.369779871605211601e-09
-6.349748572934507138e-09
-5.267243411122089311e-09
-3.786211499031366912e-09
-2.793608178559047229e-09
-2.194788791889223665e-09
-1.501232880859806067e-09
-1.115077374247341154e-09
-7.936766671180760141e-10
-5.637560794524801949e-10
-4.052434627349072544e-10
-2.946261854652119691e-10
-2.176713240283295124e-10
-1.636380527514139217e-10
-1.252421311071598212e-10
-9.713500778944850396e-11
-7.590785101788875625e-11
-5.937106226988383395e-11
-4.614588640028950082e-11
-3.541935201438192402e-11
-2.670589725284406905e-11
-1.969936263663932634e-11
