# bin_6_2
-3.405741196641479573e-13
-3.724068432870086450e-13
-3.975043055774607469e-13
-4.114919310568377271e-13
-4.107036034071871495e-13
-3.898115966472394180e-13
-3.494525159701385645e-13
-2.962821559684795076e-13
-2.426734668818371213e-13
-2.019641010382145097e-13
-1.743459411863850135e-13
-1.424322806287288799e-13
-1.009636858730196841e-13
-7.622505040517359150e-14
-5.857927447490906346e-14
-4.065044832146061423e-14
-2.971850982953412738e-14
-2.137554102152529811e-14
-1.523315225925312762e-14
-1.097653637787112448e-14
-8.018200996206463189e-15
-5.956412384017762124e-15
-4.504123840323378155e-15
-3.464485605591438622e-15
-2.696826214109143298e-15
-2.111815653570434217e-15
-1.652172351147547434e-15
-1.282334661806935229e-15
-9.814377077281796414e-16
-7.369855813806953958e-16
-5.408828688333638635e-16
