# bin_9_6
-3.002746704778821004e-10
-3.375794065519194279e-10
-3.728302654991584551e-10
-4.027596733684216168e-10
-4.231634211132442761e-10
-4.295695271222919208e-10
-4.175153243947122208e-10
-3.832645923569530861e-10
-3.326944847877005168e-10
-2.747928681720836721e-10
-2.255748817247674289e-10
-1.929560493372599007e-10
-1.645090899173593453e-10
-1.226561445571906345e-10
-8.633110949085074729e-11
-6.991171009980208012e-11
-4.697448100160592810e-11
-3.539063969039599786e-11
-2.421380297208300430e-11
-1.686093072442770789e-11
-1.181578344440560135e-11
-8.286121908165830197e-12
-5.856670007046799222e-12
-4.191811420038020682e-12
-3.059411169333748643e-12
-2.276317779474623089e-12
-1.723641861964977499e-12
-1.323281843849282319e-12
-1.023279596270818402e-12
-7.912655838700671189e-13
-6.074707202870512688e-13
