# bin_3_3
-3.324723461319364843e-08
-3.554892916467928873e-08
-3.689646052235935820e-08
-3.694481068550003522e-08
-3.524860712665485532e-08
-3.177822573461922509e-08
-2.710781531544376243e-08
-2.226017462743485607e-08
-1.845720263857059436e-08
-1.586812201973425241e-08
-1.309689865127691511e-08
-9.462161569455071291e-09
-7.019799912770296432e-09
-5.475007539750947808e-09
-3.813749483493122668e-09
-2.831736335555979000e-09
-2.035996648007983408e-09
-1.471696790814292275e-09
-1.077755642321371779e-09
-8.006997710736961980e-10
-6.053401794087611550e-10
-4.655166580842166881e-10
-3.633612275043066258e-10
-2.861129025190750044e-10
-2.257337549052790391e-10
-1.772154340739062069e-10
-1.375062570593287568e-10
-1.048526224959388827e-10
-7.820814066691287567e-11
-5.686815176979328254e-11
-4.025120757459167642e-11
