# bin_7_7
-1.618932239500057045e-08
-1.813479134906564533e-08
-1.994070162693744157e-08
-2.142483711004163610e-08
-2.235648117729796821e-08
-2.251974650582034992e-08
-2.164024401526953796e-08
-1.962985628706022171e-08
-1.683596420196109751e-08
-1.383044532550872156e-08
-1.141983061584255645e-08
-9.837782683850175714e-09
-8.239006663004208809e-09
-5.952226708264524054e-09
-4.323419597399405183e-09
-3.441336529306332624e-09
-2.305744782399644479e-09
-1.721586433306826208e-09
-1.202313859712817147e-09
-8.359076774935630927e-10
-5.868499669638944274e-10
-4.139323178336163351e-10
-2.954872323023611747e-10
-2.141516464764306862e-10
-1.583299642563387897e-10
-1.192221806768477171e-10
-9.117594193037770598e-11
-7.045560638657896070e-11
-5.462501604746794841e-11
-4.218558049920324731e-11
-3.223625430219358862e-11
