# bin_6_4
-1.871385352520763282e-09
-2.064964462358484956e-09
-2.229064170209049964e-09
-2.340495152479820514e-09
-2.374801526567571966e-09
-2.307226136690617329e-09
-2.118023041340481327e-09
-1.838691560286597514e-09
-1.519492530922799375e-09
-1.247516989017631704e-09
-1.065720616546384859e-09
-9.073687400560124443e-10
-6.788796573145216129e-10
-4.799454076185350296e-10
-3.869150528538094759e-10
-2.643073391071534789e-10
-1.987921270221264991e-10
-1.382039600309270002e-10
-9.824564653528161907e-11
-7.028308873705259065e-11
-5.061508974099215138e-11
-3.694218624876244489e-11
-2.739858835511669182e-11
-2.071362339235876388e-11
-1.591122771736928485e-11
-1.235771155322828433e-11
-9.645709276060654853e-12
-7.511626180494803477e-12
-5.797154774198016207e-12
-4.407782083442464645e-12
-3.286621982300142661e-12
