# bin_5_8
-1.963587292300158618e-10
-2.194733861618691087e-10
-2.406837470819034056e-10
-2.577390686778449257e-10
-2.678118087154689795e-10
-2.684591183314481607e-10
-2.561885003483075672e-10
-2.307990551911772572e-10
-1.965726430948814744e-10
-1.611188987451468935e-10
-1.336390544169708125e-10
-1.154393081614381830e-10
-9.538775949119566604e-11
-6.782797402308951260e-11
-5.039718744730599411e-11
-3.931766205181553773e-11
-2.665396540675714587e-11
-1.957131580982437592e-11
-1.384408897038785421e-11
-9.653697042691403961e-12
-6.783776062718877067e-12
-4.805976039830881693e-12
-3.451627541925666792e-12
-2.519860257675480668e-12
-1.876355758917122785e-12
-1.421864331440138892e-12
-1.092735809419265220e-12
-8.468109874006535769e-13
-6.569618038513494875e-13
-5.066169760663680724e-13
-3.858938137808262354e-13
