# bin_7_3
-1.285447121781311087e-12
-1.421274470240060069e-12
-1.538031366718751017e-12
-1.619946472617634779e-12
-1.649552938581020909e-12
-1.610852487061764891e-12
-1.487200147228881385e-12
-1.298311633958535951e-12
-1.076436239629044004e-12
-8.821386290420347536e-13
-7.505988459774462227e-13
-6.429218148615484322e-13
-4.884692749052103961e-13
-3.421149479039909942e-13
-2.755841066931609233e-13
-1.904102536776124760e-13
-1.422873930509535494e-13
-9.846285832848404819e-14
-7.023440334431371875e-14
-5.011467983788364129e-14
-3.596215508979331282e-14
-2.613883323255511711e-14
-1.929597219809444007e-14
-1.452148364425400065e-14
-1.111272118841855815e-14
-8.607952617562290529e-15
-6.710454582489470653e-15
-5.226802172250410380e-15
-4.039854717372824480e-15
-3.079579044915142246e-15
-2.304239930560182514e-15
