# bin_10_13
-1.011006575394639134e-09
-1.152979787522955108e-09
-1.296141715913965013e-09
-1.430814554288972574e-09
-1.544220473255173769e-09
-1.619990326558197557e-09
-1.641342310291300744e-09
-1.590006598942579169e-09
-1.453836169841560911e-09
-1.256962726143045951e-09
-1.035981648951368747e-09
-8.521934880604020500e-10
-7.318811513888909605e-10
-6.210289877250318622e-10
-4.566072841640217953e-10
-3.238750497859103508e-10
-2.620286422207350109e-10
-1.731888258012785749e-10
-1.303356414814882604e-10
-8.867418529441137223e-11
-6.034573485832494153e-11
-4.131765293902887396e-11
-2.809103576726094121e-11
-1.911578660506843463e-11
-1.307766148426988342e-11
-9.079021210709122585e-12
-6.412643538535932292e-12
-4.624338310281571773e-12
-3.408841043165955800e-12
-2.562628868068262932e-12
-1.954353514243554212e-12
