# bin_6_7
-8.545351957735024086e-09
-9.550861001496991094e-09
-1.047259094317018973e-08
-1.121211956310296009e-08
-1.164571014304350529e-08
-1.166858649957063768e-08
-1.112458877971597129e-08
-1.001115486099475567e-08
-8.515803153847489244e-09
-6.976214528881928877e-09
-5.791739834353406862e-09
-5.010461858292026405e-09
-4.133628821717488796e-09
-2.924739241659891651e-09
-2.184509577527405494e-09
-1.700380568861460882e-09
-1.152670104788684371e-09
-8.446648180890667080e-10
-6.000605242697001826e-10
-4.186630337866125908e-10
-2.940949515422505838e-10
-2.085054246748292795e-10
-1.499744354045371065e-10
-1.096867022959471874e-10
-8.182075707914192591e-11
-6.210258855894953262e-11
-4.779218579701635846e-11
-3.707180013774985065e-11
-2.877539840793631919e-11
-2.219204521989246689e-11
-1.689890119528428867e-11
