# bin_10_6
-3.615974743851623822e-15
-4.079592210260828269e-15
-4.524430564318364950e-15
-4.912444026461583215e-15
-5.193646291796806009e-15
-5.309451760721690979e-15
-5.213078273694097779e-15
-4.839931950425048691e-15
-4.248230316237512874e-15
-3.532248907551778815e-15
-2.890613242496828834e-15
-2.453483532928072942e-15
-2.116049908880399848e-15
-1.626892360439422803e-15
-1.125187171891617418e-15
-9.086536500871563278e-16
-6.272853857267943405e-16
-4.661414310821039292e-16
-3.144491101046312803e-16
-2.215840484470490668e-16
-1.545690728159351781e-16
-1.077579415239683485e-16
-7.553482297449826775e-17
-5.348256228324879033e-17
-3.856657226253278672e-17
-2.836026713910042652e-17
-2.125334602315478692e-17
-1.619461972351856735e-17
-1.247449745682390606e-17
-9.645673098948868214e-18
-7.430966173546183246e-18
