# bin_5_9
-5.742834560599657788e-16
-6.445722350295531273e-16
-7.104325019819041937e-16
-7.654810090939815967e-16
-8.015870261341908983e-16
-8.106363485869614437e-16
-7.832933611369573564e-16
-7.143458166319012958e-16
-6.160264088895683569e-16
-5.070180583537445744e-16
-4.173517253672273263e-16
-3.588646471230702087e-16
-3.036051427223411897e-16
-2.219760143973195499e-16
-1.584779402956597323e-16
-1.282215896240465932e-16
-8.504250616095632915e-17
-6.441349932367651867e-17
-4.456093270418628095e-17
-3.088906302942840170e-17
-2.169300972749358836e-17
-1.525912114182032549e-17
-1.084791220239534710e-17
-7.821907779066859280e-18
-5.754092837628328102e-18
-4.313363305993877389e-18
-3.287128512543088663e-18
-2.535100568038402818e-18
-1.964896374398195307e-18
-1.519414032484256777e-18
-1.164120729603094676e-18
