# bin_7_2
-2.491379490645447669e-25
-2.745057857162441026e-25
-2.957608399557167719e-25
-3.097841899014319600e-25
-3.134222020452386907e-25
-3.031592502774456001e-25
-2.768347052411818467e-25
-2.390677363168604181e-25
-1.968994050236438386e-25
-1.619207727821693670e-25
-1.389836458947768598e-25
-1.178012840278029963e-25
-8.668612787297257915e-26
-6.176880090791376705e-26
-5.008343889676023446e-26
-3.360165669671169306e-26
-2.558751252003439610e-26
-1.788340865872607678e-26
-1.263867367745404735e-26
-9.071185985626434706e-27
-6.556099374149397873e-27
-4.805479326816013490e-27
-3.581181298773180410e-27
-2.720286907539904031e-27
-2.097879417616610205e-27
-1.634063332877384871e-27
-1.277429884896493500e-27
-9.949624396361091460e-28
-7.670346519060007451e-28
-5.819505559463196180e-28
-4.326041677055320354e-28
