# bin_9_10
-9.236797463600822308e-09
-1.047629241025133490e-08
-1.169395175651904915e-08
-1.279791475681273064e-08
-1.366481823865299385e-08
-1.414026069226198671e-08
-1.410397870930628474e-08
-1.335791857465067137e-08
-1.194513292565093674e-08
-1.009441820309473271e-08
-8.259423309105503907e-09
-6.896309469098996059e-09
-5.976634354201428598e-09
-4.853370915934070757e-09
-3.383372228431474768e-09
-2.587601768119196287e-09
-1.953465418605278925e-09
-1.343185299550378474e-09
-9.488538700599629008e-10
-6.741312176020562235e-10
-4.626878223933197576e-10
-3.164694152324359155e-10
-2.180509751793332090e-10
-1.515116695185767185e-10
-1.066620138191305962e-10
-7.650058062832278040e-11
-5.596110678347143756e-11
-4.177693759095230465e-11
-3.172476250406168384e-11
-2.436709061771257645e-11
-1.879160540670349744e-11
