# bin_4_10
-3.451684230581822070e-26
-3.879745452822517168e-26
-4.283645614334983359e-26
-4.625542203885310266e-26
-4.856894073717835320e-26
-4.926651168933032714e-26
-4.782267427008851538e-26
-4.382483065159935803e-26
-3.797887731632588221e-26
-3.133156793709104326e-26
-2.573297985809499878e-26
-2.205696451801887702e-26
-1.878968214766947197e-26
-1.392444791461586017e-26
-9.814143225626670939e-27
-7.987127811629791312e-27
-5.311143635454670616e-27
-4.033080425522731099e-27
-2.765249249422441419e-27
-1.917487224786157879e-27
-1.346452675394761714e-27
-9.459043506158100028e-28
-6.698328395411539375e-28
-4.805261612363484616e-28
-3.516340933732738671e-28
-2.622946194272856695e-28
-1.990653193528534183e-28
-1.530994871238640421e-28
-1.185245972469746796e-28
-9.169155287664738871e-29
-7.037890667170035362e-29
