# bin_1_2
-1.505506937073998180e-08
-1.533620020360539915e-08
-1.499670771394203627e-08
-1.388506939614862941e-08
-1.216002985811938796e-08
-1.011685591272552613e-08
-8.291884275349457162e-09
-7.022348556674129318e-09
-6.008587821907373480e-09
-4.634911756780783927e-09
-3.279740863164121967e-09
-2.608061687581485674e-09
-1.874762139977024093e-09
-1.392742848716868096e-09
-1.002048710979708696e-09
-7.403362260252616099e-10
-5.497171284781807940e-10
-4.144561110955253182e-10
-3.183858982706337692e-10
-2.487767938042095448e-10
-1.970699877961081124e-10
-1.572291869323523540e-10
-1.254070699617315083e-10
-9.928101507597252263e-11
-7.749132838884147555e-11
-5.928757821761576825e-11
-4.426033642726827824e-11
-3.215281147530142518e-11
-2.271138573465776277e-11
-1.562184829145585834e-11
-1.049277976734810306e-11
