# bin_5_4
-8.901753119117394602e-09
-9.771915694837935727e-09
-1.048040897358184463e-08
-1.091370147174410597e-08
-1.096942769001862943e-08
-1.050894245941452705e-08
-9.503962205433423333e-09
-8.126676447203754825e-09
-6.668092063066602500e-09
-5.514558644747914323e-09
-4.756817003416782425e-09
-3.964852895066006310e-09
-2.848024029086568248e-09
-2.091436416144915391e-09
-1.658908816611149111e-09
-1.123126412810204230e-09
-8.414586304188780639e-10
-5.986565601520585007e-10
-4.242507319316024946e-10
-3.047687549272899549e-10
-2.213088038852686440e-10
-1.633870974920759835e-10
-1.227470402054605877e-10
-9.390522588984908729e-11
-7.281837610125606399e-11
-5.691361844528281545e-11
-4.453611837675802511e-11
-3.464156438924447522e-11
-2.661530744397715393e-11
-2.009081553355177127e-11
-1.483826870545310054e-11
