# bin_11_14
-1.103962474427080795e-09
-1.261681827541783637e-09
-1.422217876281099511e-09
-1.575168758746928810e-09
-1.706931165106274653e-09
-1.799816907866495834e-09
-1.833990693930288260e-09
-1.791819301259666729e-09
-1.653762218337766341e-09
-1.443213457722026825e-09
-1.195496775326971740e-09
-9.799960948622583012e-10
-8.361005093841839223e-10
-7.174078545275024045e-10
-5.415368009527450650e-10
-3.768913112867156549e-10
-3.058609193761047410e-10
-2.056325387329503134e-10
-1.541003642837864813e-10
-1.033628349765978655e-10
-7.089162258714287313e-11
-4.850012443339721170e-11
-3.290336013986830427e-11
-2.223868309792324805e-11
-1.505678470728301780e-11
-1.031644080468389737e-11
-7.176663180105226315e-12
-5.090409319268670644e-12
-3.692864713701727401e-12
-2.738544966606447475e-12
-2.068420619523062017e-12
