# bin_15_8
-2.154846622183971076e-14
-2.460260121169800184e-14
-2.769813609543583617e-14
-3.063042679812648377e-14
-3.313072745719527597e-14
-3.485211902541566717e-14
-3.542045724520698862e-14
-3.447133257426196493e-14
-3.167660572592656938e-14
-2.752452992738390926e-14
-2.274337278895350315e-14
-1.866983957484245713e-14
-1.597970104051948888e-14
-1.364780323286048856e-14
-1.017573755847554484e-14
-7.134856477040545696e-15
-5.794628112457778582e-15
-3.853968995807985231e-15
-2.901490873660540195e-15
-1.957888966911743009e-15
-1.335996676585477322e-15
-9.148234515732855656e-16
-6.214319652901372859e-16
-4.213011493440194627e-16
-2.865832031428492891e-16
-1.975547409682918639e-16
-1.384093167880225529e-16
-9.894620805394313497e-17
-7.233718887705999818e-17
-5.400585410087494214e-17
-4.099235628625810811e-17
