# bin_7_3
-1.317501973054174860e-12
-1.457514037491794054e-12
-1.578206575693624506e-12
-1.663404209870241744e-12
-1.695075295601193247e-12
-1.656867561916838873e-12
-1.531272943476496729e-12
-1.338145362862190257e-12
-1.110309779807568483e-12
-9.099882184953966192e-13
-7.740706981438741084e-13
-6.636164151587263105e-13
-5.053655141250071488e-13
-3.537347777487092385e-13
-2.848218410019550953e-13
-1.972578219248225255e-13
-1.472178417988882552e-13
-1.018776506029317895e-13
-7.272621808177815147e-14
-5.188107730050667651e-14
-3.721738490028918262e-14
-2.704117456004642992e-14
-1.995318202792015182e-14
-1.500894513414954676e-14
-1.148124791122145303e-14
-8.891117777031585447e-15
-6.930693445746772007e-15
-5.399065042835426116e-15
-4.174371615363040624e-15
-3.183715859497554716e-15
-2.383686806106318718e-15
