# bin_15_14
-8.336754124164129290e-09
-9.562925108358925067e-09
-1.082777550580640488e-08
-1.205694731145258667e-08
-1.315216501208783239e-08
-1.398244410782328565e-08
-1.438717427310346405e-08
-1.424672093317502194e-08
-1.336376996562860330e-08
-1.184259981572243569e-08
-9.923397609263716385e-09
-8.115747797944360579e-09
-6.833348897546078803e-09
-5.916739504416851471e-09
-4.676941449185515606e-09
-3.227769290340476073e-09
-2.546100773328494180e-09
-1.831870122374755426e-09
-1.305103191279374729e-09
-8.826312339572530199e-10
-6.219646946055999926e-10
-4.214346880910234497e-10
-2.822083372650646152e-10
-1.887747672446126650e-10
-1.259706641807767050e-10
-8.449871311843505372e-11
-5.727891518503731944e-11
-3.941623086632503467e-11
-2.769013184178910830e-11
-1.991390826975889370e-11
-1.466129553456118843e-11
