# bin_14_4
-1.298844755294375750e-23
-1.476722352335045143e-23
-1.653523133937820174e-23
-1.816559263043016174e-23
-1.948880775023891287e-23
-2.029094961941322001e-23
-2.038317644608486648e-23
-1.949942090575221072e-23
-1.760470247565321193e-23
-1.502423320839126808e-23
-1.232187420712941411e-23
-1.021238681407039964e-23
-8.828699204108783646e-24
-7.326382183407887346e-24
-5.212520704866239502e-24
-3.849596930938558736e-24
-3.017035028577343387e-24
-2.018577344217566970e-24
-1.479129944215129133e-24
-1.030692699363382745e-24
-7.034110983353225727e-25
-4.808145192425383510e-25
-3.286343356921180327e-25
-2.261487405552440935e-25
-1.571974623219805993e-25
-1.111730143242826514e-25
-8.013946015349802661e-26
-5.899968276540652142e-26
-4.429830901180618404e-26
-3.376939207498998461e-26
-2.596192393382058974e-26
