# bin_13_13
-1.063911138210434047e-08
-1.216899302597781797e-08
-1.373132019112170521e-08
-1.522665660190597403e-08
-1.652521453296944188e-08
-1.745719171715274009e-08
-1.782694298988807083e-08
-1.747129937520393192e-08
-1.618341300072014280e-08
-1.417251992591328201e-08
-1.176645112734912634e-08
-9.636930571700172545e-09
-8.198918971181552041e-09
-7.056551102717334569e-09
-5.381383355937798686e-09
-3.729187512952044543e-09
-3.016644205135206862e-09
-2.053106670875421382e-09
-1.527466026308669702e-09
-1.021251362396055434e-09
-7.046912681191916147e-10
-4.813473803761372325e-10
-3.259252706350755173e-10
-2.197564613057926634e-10
-1.482506555825376573e-10
-1.010795956344139712e-10
-6.990723443756094088e-11
-4.925965173124185141e-11
-3.549777216347429572e-11
-2.616589568870652668e-11
-1.967112824985457637e-11
