# bin_5_2
-3.352678075232010982e-11
-3.634746617007468656e-11
-3.838216977229445750e-11
-3.921399536477039598e-11
-3.847523607080719889e-11
-3.573724632652608695e-11
-3.138387466653965558e-11
-2.614771839314958690e-11
-2.141812141874677229e-11
-1.812823370625723471e-11
-1.556716178112586202e-11
-1.205155209744129518e-11
-8.456892789743526189e-12
-6.726678514426531636e-12
-4.798743037022383112e-12
-3.533160743594414201e-12
-2.492922253389994087e-12
-1.807854960044885788e-12
-1.306930107151842172e-12
-9.539629621814712446e-13
-7.075410739040765114e-13
-5.337483710095746957e-13
-4.098532673547825198e-13
-3.191165898794165929e-13
-2.504291005192422425e-13
-1.967788937705253915e-13
-1.537281939320299287e-13
-1.186306963023855526e-13
-8.993378608161454097e-14
-6.668513726298747228e-14
-4.821361861916316900e-14
