# bin_5_14
-3.122849897730460564e-20
-3.552471768224316793e-20
-3.980612874053346259e-20
-4.376882194672014933e-20
-4.700747432101613483e-20
-4.900944242299597874e-20
-4.930948266975115309e-20
-4.727766640096617677e-20
-4.277727162190487006e-20
-3.658932826948784167e-20
-3.002831164994059996e-20
-2.484965778144283906e-20
-2.146477491542242267e-20
-1.789167950466739362e-20
-1.279488653039352852e-20
-9.377491319193880065e-21
-7.403841872858190136e-21
-4.930775472126539937e-21
-3.638107536218125354e-21
-2.524166554833116576e-21
-1.720838572590901901e-21
-1.176441057741630314e-21
-8.029244998336100462e-22
-5.513696136966493385e-22
-3.821703123496777490e-22
-2.694078450572501812e-22
-1.935334970811398865e-22
-1.419998033189997019e-22
-1.063109933707103621e-22
-8.087852643624226516e-23
-6.211776936352166109e-23
