# bin_14_10
-1.892777599888654678e-10
-2.161467403819587419e-10
-2.434030581731490150e-10
-2.692517201862287403e-10
-2.913376103316630319e-10
-3.066163441944216487e-10
-3.117778720711361830e-10
-3.036580700855586500e-10
-2.792774305115581855e-10
-2.428767512442133766e-10
-2.007811936421703344e-10
-1.647691519771736845e-10
-1.409416998566816070e-10
-1.204933378528261288e-10
-9.005542227213485163e-11
-6.303870953316261850e-11
-5.120553741152961097e-11
-3.411445375265009892e-11
-2.567021446608997444e-11
-1.729943673299180688e-11
-1.181362257094046955e-11
-8.088712033398923885e-12
-5.493612521199843306e-12
-3.722126758783482115e-12
-2.529535594031986825e-12
-1.741638335442489895e-12
-1.218521171632177973e-12
-8.697788853383762415e-13
-6.349389055990744844e-13
-4.734378949732375030e-13
-3.590322593050666630e-13
