# bin_8_4
-3.920102755887985297e-12
-4.372277696089073818e-12
-4.782075165782019007e-12
-5.103650222961079859e-12
-5.279994229185054895e-12
-5.265100447455130892e-12
-4.987909272719998097e-12
-4.462409274150443255e-12
-3.774561462686334206e-12
-3.089922026010621426e-12
-2.577935164350665012e-12
-2.230371196485601800e-12
-1.812656454843368712e-12
-1.272668309045320060e-12
-9.697332698730733944e-13
-7.363107696411558025e-13
-5.098700344885285671e-13
-3.661248307260843998e-13
-2.619289827986545133e-13
-1.835713572369457412e-13
-1.293592469972119829e-13
-9.219683715610678450e-14
-6.666306718417856156e-14
-4.904734924155913691e-14
-3.679076884026035001e-14
-2.805482139059862781e-14
-2.166030595950870164e-14
-1.682565503565807078e-14
-1.305522873306794866e-14
-1.004821817011110095e-14
-7.626361818759025560e-15
