# bin_11_10
-1.002237897663606726e-08
-1.139818864241303521e-08
-1.276752374468507353e-08
-1.403267471821852679e-08
-1.506321384923940755e-08
-1.569435364603960069e-08
-1.577853402017458662e-08
-1.511191822732554459e-08
-1.365877813223081512e-08
-1.167008377450825379e-08
-9.574090744868598515e-09
-7.928659486552629052e-09
-6.851753468071303902e-09
-5.699161407087714890e-09
-4.065046794449806224e-09
-2.990363051432272889e-09
-2.352896212913873041e-09
-1.570116400221580016e-09
-1.154830241732203952e-09
-8.029392449487239709e-10
-5.476586328192034225e-10
-3.743640287486309331e-10
-2.556706641139794684e-10
-1.757475242834512789e-10
-1.219847433844791124e-10
-8.612775819749780037e-11
-6.197629515761972043e-11
-4.554954257098577536e-11
-3.415040942840753111e-11
-2.600741209965003611e-11
-1.998516321635412636e-11
