# bin_1_1
-8.100655035278426030e-08
-7.975089132619060019e-08
-7.467370156907384276e-08
-6.620089737624547919e-08
-5.584594637536521674e-08
-4.600474884220862454e-08
-3.855308521742569306e-08
-3.273995210129050793e-08
-2.605628358627527660e-08
-1.901037405105987358e-08
-1.442284163974523961e-08
-1.088465556776857053e-08
-7.882814860319652093e-09
-5.827693004997684525e-09
-4.289744497433612905e-09
-3.197426015814881597e-09
-2.422085911233816850e-09
-1.868416420386114491e-09
-1.466163882774091578e-09
-1.165552569245837561e-09
-9.329465861555667211e-10
-7.462621199872922303e-10
-5.922378790946278451e-10
-4.632484912125910181e-10
-3.551403638202991521e-10
-2.657037322934662911e-10
-1.935227289037744537e-10
-1.371329431779007472e-10
-9.466588192346588492e-11
-6.382532277626444219e-11
-4.216314052227413849e-11
