# bin_10_9
-9.626373547699731915e-09
-1.091517120910172680e-08
-1.217995464361949948e-08
-1.332463597481281189e-08
-1.422045376024510586e-08
-1.470691859119792590e-08
-1.465807110639121345e-08
-1.387084944459594609e-08
-1.239447612915765791e-08
-1.046852398528270471e-08
-8.566836162710617532e-09
-7.158183088993550427e-09
-6.200624860886528935e-09
-5.022061430313265175e-09
-3.503790530787243132e-09
-2.684788651981053079e-09
-2.018652644215622209e-09
-1.394010556794549643e-09
-9.830300074316376047e-10
-6.971517528367944622e-10
-4.788304801333276158e-10
-3.280151319165056067e-10
-2.261769928372274286e-10
-1.572662509723784013e-10
-1.108179329850250977e-10
-7.955898916825842306e-11
-5.825273474994813585e-11
-4.352000043041939474e-11
-3.306286009536718757e-11
-2.539659671544765041e-11
-1.957982088155481118e-11
