# bin_10_3
-7.472725654823486184e-19
-8.388800745565678054e-19
-9.247832461102589696e-19
-9.966981844263508929e-19
-1.044048594832903902e-18
-1.056226891517249547e-18
-1.021264856556786326e-18
-9.322664148544118477e-19
-8.047294353139983670e-19
-6.629229379553926108e-19
-5.457251276854338755e-19
-4.687180418736687418e-19
-3.965695466509116821e-19
-2.910617914234409635e-19
-2.077815763589371458e-19
-1.674037899215581749e-19
-1.118991617150989871e-19
-8.426218534612883265e-20
-5.821691266193309236e-20
-4.046285920547802753e-20
-2.839704398605066502e-20
-1.997409120922056623e-20
-1.418972084796443583e-20
-1.022124598786130274e-20
-7.510192885110377468e-21
-5.623124197531083870e-21
-4.280566903499294786e-21
-3.298296339300117471e-21
-2.554852197519086977e-21
-1.975028456695264167e-21
-1.513241490721760065e-21
