# bin_2_3
-1.671897711328248578e-08
-1.767689391312481952e-08
-1.809592140283620724e-08
-1.780478794142910590e-08
-1.660924597705961051e-08
-1.464983740224062377e-08
-1.226110450333257665e-08
-1.005025831550638594e-08
-8.468233522218446903e-09
-7.263345138168291674e-09
-5.700651517139818206e-09
-4.037957277613798445e-09
-3.157259034619428527e-09
-2.314388241518816851e-09
-1.681683910564682469e-09
-1.212997878439389477e-09
-8.859927326221208929e-10
-6.473041978098364860e-10
-4.793116547525556431e-10
-3.611211764352057211e-10
-2.768921334901330216e-10
-2.157557557492713644e-10
-1.700297349661344910e-10
-1.345959301697927233e-10
-1.062791250011157496e-10
-8.313342779317653165e-11
-6.401832754163739920e-11
-4.828315529753691073e-11
-3.552717949968984221e-11
-2.544537886290006877e-11
-1.773639866411595536e-11
