# bin_15_12
-1.339411494799401433e-09
-1.533868169169865850e-09
-1.733347475637632421e-09
-1.925529383667037029e-09
-2.094313679000613446e-09
-2.218450910062272686e-09
-2.272663692791720904e-09
-2.237297407903439558e-09
-2.083468425483615650e-09
-1.833857718910621838e-09
-1.528124540817919345e-09
-1.250419101422503980e-09
-1.059224013876427325e-09
-9.147184327520643883e-10
-7.082732801663411685e-10
-4.889777777265377579e-10
-3.923077136507553229e-10
-2.729449232537851333e-10
-1.999192527243738763e-10
-1.336406818373136419e-10
-9.317198472023197029e-11
-6.343029598621236993e-11
-4.276551639494553999e-11
-2.873656755091423491e-11
-1.929088099405131453e-11
-1.306012701214375001e-11
-8.955359430770573100e-12
-6.248022216526852075e-12
-4.455940549090813809e-12
-3.252651802959033167e-12
-2.425957366475980118e-12
