# bin_9_14
-1.349509219317873673e-11
-1.539748180884963396e-11
-1.731993615515570529e-11
-1.913368685924522972e-11
-2.066909461599375905e-11
-2.170817910475127453e-11
-2.202258992187785860e-11
-2.137492520392440911e-11
-1.958451442539631590e-11
-1.696757157420359821e-11
-1.399865327679385809e-11
-1.150461192915001006e-11
-9.867000246160480441e-12
-8.396409070353759251e-12
-6.208876294307571206e-12
-4.381248299865446194e-12
-3.552733687019383484e-12
-2.352130065932919127e-12
-1.771848517382682081e-12
-1.201262020306079836e-12
-8.180691865806641792e-13
-5.602075441260265814e-13
-3.807417175776556929e-13
-2.586828263974051504e-13
-1.765479797600165978e-13
-1.222074220137325295e-13
-8.602909004864785318e-14
-6.181804209019392035e-14
-4.541739786553083828e-14
-3.404945062005413973e-14
-2.591986431724441173e-14
