# bin_13_5
-2.184712128078723883e-18
-2.480095725932577695e-18
-2.771552969161953278e-18
-3.037495401647378140e-18
-3.248994074953850068e-18
-3.369759354523938430e-18
-3.370042630803210153e-18
-3.203843202224042433e-18
-2.875307199274431059e-18
-2.438950633044588880e-18
-1.997306870868308336e-18
-1.662895036229826594e-18
-1.439865664586663365e-18
-1.179004937199405517e-18
-8.284109613727414755e-19
-6.250209823330320861e-19
-4.788173939614236572e-19
-3.256574904768199940e-19
-2.335239140114336195e-19
-1.645757938047743203e-19
-1.127033419508967218e-19
-7.707653164563294868e-20
-5.293416839105253047e-20
-3.664393661476067280e-20
-2.567288778199059438e-20
-1.831616286911724052e-20
-1.332540503080028500e-20
-9.896905534769661358e-21
-7.484491849635435602e-21
-5.733066216726104483e-21
-4.416447630403806800e-21
