# bin_3_14
-1.478998864482001557e-27
-1.680851329547546960e-27
-1.881085711100704913e-27
-2.065211210592707797e-27
-2.213849006164273044e-27
-2.302579329771125531e-27
-2.310285709742327012e-27
-2.206385523497247609e-27
-1.988759428600643403e-27
-1.694424448974479834e-27
-1.389035984364494211e-27
-1.152606579850533490e-27
-9.969528029407253789e-28
-8.244301470609333082e-28
-5.844602445145458349e-28
-4.341338445110720437e-28
-3.382440032759363535e-28
-2.272176498996195139e-28
-1.655668522229459221e-28
-1.157374363874310088e-28
-7.905556757395810798e-29
-5.403892870877273650e-29
-3.698017072704232691e-29
-2.548846472823225590e-29
-1.775503910563428587e-29
-1.258679862552812812e-29
-9.096319489449706096e-30
-6.713294457001573798e-30
-5.050809547409038019e-30
-3.855723346045127817e-30
-2.966154552035181981e-30
