# bin_1_14
-3.390900231226442480e-37
-3.852554067088692550e-37
-4.309874164295390341e-37
-4.729562353765872580e-37
-5.067065692678606107e-37
-5.266308607336322749e-37
-5.279461270294746481e-37
-5.036088603885243717e-37
-4.534288341926352937e-37
-3.858848873623446470e-37
-3.162550566364361844e-37
-2.626513638426498144e-37
-2.272405623110157703e-37
-1.874397453627689310e-37
-1.325858272342541222e-37
-9.887589979922147376e-38
-7.670327109127102593e-38
-5.169183647379676598e-38
-3.751176077545161684e-38
-2.627573758680878091e-38
-1.795975750334872105e-38
-1.227820836432340950e-38
-8.410057429246022454e-39
-5.803065832549367127e-39
-4.048319008919488063e-39
-2.874616772224768670e-39
-2.081029602985518087e-39
-1.538369309063076722e-39
-1.158955421708736042e-39
-8.855127057220500388e-40
-6.814510260592493463e-40
