# bin_13_2
-2.274046855367398236e-09
-2.357167313284854411e-09
-2.356292960471924210e-09
-2.247686286395419794e-09
-2.030175698243775192e-09
-1.739114582883617311e-09
-1.437400048941505810e-09
-1.193896741625900564e-09
-1.016199627778127188e-09
-8.343951774228109241e-10
-6.196681909928858722e-10
-4.585257829497020623e-10
-3.523463358732399815e-10
-2.535118647887665279e-10
-1.865119665392026921e-10
-1.354228093185940369e-10
-9.939665316323516360e-11
-7.373835076135899437e-11
-5.558379907255985614e-11
-4.264670284384470759e-11
-3.324726285606177004e-11
-2.623536082307393688e-11
-2.081780009166782470e-11
-1.649313646903283349e-11
-1.295707795966530777e-11
-1.002990540372088154e-11
-7.609828147267088395e-12
-5.636847837133074435e-12
-4.066750004991644644e-12
-2.856408279754976420e-12
-1.955677422913840126e-12
