# bin_9_9
-3.275994061695587434e-11
-3.696573797722614539e-11
-4.100469745973251954e-11
-4.453261483502797516e-11
-4.709735896111656402e-11
-4.817289709464166171e-11
-4.732470559437468724e-11
-4.398054899974149946e-11
-3.863753836329247339e-11
-3.216774483399703347e-11
-2.633667618181090927e-11
-2.232898928327009455e-11
-1.923688352418145584e-11
-1.484224296405966446e-11
-1.030097381925861860e-11
-8.257114757766123372e-12
-5.757803735184843139e-12
-4.233754576971427899e-12
-2.880495328589712051e-12
-2.032228211964811209e-12
-1.414732725652557382e-12
-9.837007374839993871e-13
-6.887911343062693740e-13
-4.872581748557603226e-13
-3.508739685202824092e-13
-2.576368182934314733e-13
-1.927864134708804778e-13
-1.466955343261741224e-13
-1.128700001728277772e-13
-8.720678184836041128e-14
-6.715868805832375326e-14
