# bin_9_5
-5.279115657063749501e-10
-5.814764313196084291e-10
-6.262665358580679721e-10
-6.556743011416247372e-10
-6.630884625546351331e-10
-6.411675047783410528e-10
-5.859614937331543340e-10
-5.064658730889863834e-10
-4.181648215604619541e-10
-3.445218182932668751e-10
-2.948533452456174085e-10
-2.487232687864512678e-10
-1.844733031694524568e-10
-1.324761948661273045e-10
-1.052908717548042584e-10
-7.262266137169497345e-11
-5.401070388037764604e-11
-3.792305753586208016e-11
-2.700576978778638728e-11
-1.933334171552444765e-11
-1.395644306537506252e-11
-1.022148309081884082e-11
-7.610514697011902063e-12
-5.773010830723994042e-12
-4.445899812769899342e-12
-3.458214019947798483e-12
-2.700094937626440374e-12
-2.100984208823614557e-12
-1.618573794811309084e-12
-1.227559416849090828e-12
-9.124796637020842435e-13
