# bin_9_1
-3.261979828572867985e-09
-3.195937533206343119e-09
-2.982874301859464158e-09
-2.642170335989166699e-09
-2.236574783258358375e-09
-1.852916730249806435e-09
-1.550084826582263930e-09
-1.300227016016725748e-09
-1.034070070068233538e-09
-7.690821124071025990e-10
-5.770093233367919209e-10
-4.352109696780909482e-10
-3.175566883908769486e-10
-2.341906552055585872e-10
-1.726640507647607105e-10
-1.288817142961631447e-10
-9.765633707220444114e-11
-7.531514175767245552e-11
-5.905280068219524444e-11
-4.688070749029406489e-11
-3.745663495813091091e-11
-2.990152472929737969e-11
-2.368159650363071864e-11
-1.848915625659116395e-11
-1.415403937784269077e-11
-1.058168472411086778e-11
-7.707546399922012935e-12
-5.466215165711812003e-12
-3.778475829837614234e-12
-2.551497543965997314e-12
-1.688142949628959211e-12
