# bin_1_14
-1.162268398439048012e-41
-1.320362216718482631e-41
-1.476891496109636985e-41
-1.620433562274941448e-41
-1.735701790581602658e-41
-1.803464293992353949e-41
-1.807401533469325521e-41
-1.723328290534587441e-41
-1.550967550999725367e-41
-1.319371771317435803e-41
-1.081195084301787672e-41
-8.982257445708511498e-42
-7.772059745418669720e-42
-6.404746496057029691e-42
-4.526562046992527441e-42
-3.380725152225772332e-42
-2.618368189607720830e-42
-1.766669333905322303e-42
-1.280065279780402250e-42
-8.973421617352644433e-43
-6.134936743910504419e-43
-4.194332280221819981e-43
-2.873922740599157958e-43
-1.983869946314948989e-43
-1.384737373253757882e-43
-9.838657621898752029e-44
-7.127056755799922805e-44
-5.271754192961015321e-44
-3.973517687854914187e-44
-3.036997311985885642e-44
-2.337440729890025294e-44
