# bin_11_3
-1.417782151003828653e-09
-1.514250992667377561e-09
-1.569719678204105954e-09
-1.568959458542425044e-09
-1.494490340639209961e-09
-1.346239008373556359e-09
-1.148712085801280077e-09
-9.456818092338588891e-10
-7.859072609411090498e-10
-6.730788873205560630e-10
-5.521149502859363770e-10
-4.026913516117861855e-10
-2.993426320126931813e-10
-2.307733726462946203e-10
-1.631791744045713755e-10
-1.201981168806663506e-10
-8.642664139321620029e-11
-6.268188904846807469e-11
-4.593461100390376507e-11
-3.414587900687702344e-11
-2.582435458077509568e-11
-1.986279051874172024e-11
-1.550045706656491082e-11
-1.219942512795039397e-11
-9.618301705875152177e-12
-7.544582600612108438e-12
-5.848782200765869184e-12
-4.455949414196868812e-12
-3.321190474704652274e-12
-2.413995089189969578e-12
-1.708672963654637832e-12
