# bin_2_12
-6.880362065219469962e-32
-7.771204788267328131e-32
-8.630336340429197973e-32
-9.386243607443886975e-32
-9.944437089611990593e-32
-1.019253752120386766e-31
-1.004202228526181741e-31
-9.364036965669663798e-32
-8.252996544930368052e-32
-6.886608172460450045e-32
-5.634791156062368723e-32
-4.764798662371970110e-32
-4.114488432564722588e-32
-3.204215218850848152e-32
-2.217929927474712308e-32
-1.769837515789812284e-32
-1.248732672413859167e-32
-9.103350776717616952e-33
-6.193868971202998853e-33
-4.386790729380289532e-33
-3.047011324143175121e-33
-2.112791921858908248e-33
-1.475442011221590190e-33
-1.040338014714067074e-33
-7.462395123033949894e-34
-5.458090584221178089e-34
-4.069576055980341613e-34
-3.087967486684603554e-34
-2.371917148849192116e-34
-1.831790140888319133e-34
-1.411710264203672821e-34
