# bin_8_9
-9.225916023024680236e-12
-1.039736798065042492e-11
-1.151606757319985307e-11
-1.248374210284381492e-11
-1.317224185196953469e-11
-1.343660658072639617e-11
-1.314997146140258699e-11
-1.216585662214353864e-11
-1.064180089375369814e-11
-8.832522845320155448e-12
-7.237220794229969922e-12
-6.157755139144185275e-12
-5.288998733149891348e-12
-4.029137686162783995e-12
-2.805851638649152932e-12
-2.263761227843673209e-12
-1.552846766217458464e-12
-1.155864080289672811e-12
-7.858833612548741671e-13
-5.516272815000750047e-13
-3.852165768054226513e-13
-2.688844027335973885e-13
-1.889634419905684127e-13
-1.342659711893584918e-13
-9.719078272235389612e-14
-7.173618969633971724e-14
-5.393488698091423696e-14
-4.119204297985178935e-14
-3.176474687809537962e-14
-2.455765912240634143e-14
-1.889479653563603717e-14
