# bin_12_11
-5.070849849757881105e-11
-5.765036410814798377e-11
-6.454923021120306372e-11
-7.090936988156762941e-11
-7.606889596999568859e-11
-7.919264185878553533e-11
-7.954301580575687340e-11
-7.608724434791114894e-11
-6.869333974088640962e-11
-5.862645715875442780e-11
-4.809006243502944068e-11
-3.986376347497402838e-11
-3.445120161027704397e-11
-2.857449830732352120e-11
-2.034770757416215505e-11
-1.502822606687717345e-11
-1.176515935956598588e-11
-7.884968965993130293e-12
-5.771265354264359250e-12
-4.019971522915263283e-12
-2.744204510615424615e-12
-1.876500213007048440e-12
-1.283047907052736652e-12
-8.829839483697401018e-13
-6.137848211716332321e-13
-4.340817935979642940e-13
-3.129001119685635417e-13
-2.303399260008470540e-13
-1.729169428650406521e-13
-1.317876743488346852e-13
-1.012903549327454260e-13
