# bin_2_3
-2.214224195318302400e-11
-2.321901092419600484e-11
-2.353950390827686760e-11
-2.285754812714154295e-11
-2.100751449679523108e-11
-1.826558618565640399e-11
-1.514808201833588823e-11
-1.246073130868473111e-11
-1.059783549431444538e-11
-8.973563454650121382e-12
-6.802253093839399714e-12
-4.879154148991617394e-12
-3.852648632637920579e-12
-2.745833656437732552e-12
-2.034548652285947628e-12
-1.461757529412773711e-12
-1.069177804489224534e-12
-7.871518762573140315e-13
-5.877910813926081598e-13
-4.468148221987945579e-13
-3.454837380026896790e-13
-2.710877824835342402e-13
-2.145760095240151930e-13
-1.701291512202343498e-13
-1.341701616210742174e-13
-1.045405963556819034e-13
-8.000518053629191634e-14
-5.985673088946647454e-14
-4.363559868092088579e-14
-3.095263179188564686e-14
-2.137707198223919719e-14
