# bin_5_11
-6.923518305903542413e-19
-7.815379786981876945e-19
-8.673263608650635051e-19
-9.424740802797294189e-19
-9.974421348423111267e-19
-1.021004864917699085e-18
-1.004156883990362586e-18
-9.343492354224526533e-19
-8.218145777716793554e-19
-6.846552647667327284e-19
-5.603234532660870324e-19
-4.746424989660404501e-19
-4.094470345344572099e-19
-3.169346923796409639e-19
-2.194942083629659514e-19
-1.759328899854217666e-19
-1.230129284718169300e-19
-9.033821137942970270e-20
-6.133229650391375857e-20
-4.333991576261620053e-20
-3.015535262792628218e-20
-2.095350175258634685e-20
-1.465866898149631737e-20
-1.035727392743901493e-20
-7.448220658454521476e-21
-5.461768531305224418e-21
-4.082148113234553227e-21
-3.103534290193126104e-21
-2.386865652875045912e-21
-1.844188442926281220e-21
-1.420824946670775202e-21
