# bin_11_1
-3.414511818694731607e-09
-3.346763720325268259e-09
-3.125141582180284553e-09
-2.769474984960434430e-09
-2.345111656325363796e-09
-1.942889710888239207e-09
-1.625105390676656203e-09
-1.363447238363727964e-09
-1.085121332336715129e-09
-8.072764447496496640e-10
-6.054705529711878324e-10
-4.568211724596776147e-10
-3.333243884438900537e-10
-2.457992568401462589e-10
-1.811993768917080224e-10
-1.352264907339622536e-10
-1.024383555649057554e-10
-7.898278723580933508e-11
-6.191438135268145474e-11
-4.914415380266594308e-11
-3.926166012572631932e-11
-3.134250894155465488e-11
-2.482493117790725106e-11
-1.938487218269742049e-11
-1.484298434185029946e-11
-1.109964228784711844e-11
-8.087098659902772206e-12
-5.737007778743760418e-12
-3.966696003401373307e-12
-2.679214052851654439e-12
-1.772987385431523612e-12
