# bin_12_2
-2.222208601864044365e-09
-2.303226157232141973e-09
-2.302113816976165255e-09
-2.195689386437156774e-09
-1.982913027429676645e-09
-1.698401733123226889e-09
-1.403682982658744909e-09
-1.165969536999006186e-09
-9.924502210716974436e-10
-8.147093517644356709e-10
-6.049140885008297006e-10
-4.476965172618910057e-10
-3.439857983524717761e-10
-2.474858988451741047e-10
-1.820846316592980492e-10
-1.322122163358914101e-10
-9.704429708733590110e-11
-7.199868523313494299e-11
-5.427716493987469433e-11
-4.164782164733601383e-11
-3.247105170798214592e-11
-2.562429765593453504e-11
-2.033350046285413348e-11
-1.610944473186037263e-11
-1.265529952305618184e-11
-9.795790127428522991e-12
-7.431660530167462073e-12
-5.504390522880403030e-12
-3.970808002990346547e-12
-2.788754761543869815e-12
-1.909189021388087693e-12
