# bin_7_9
-1.336288696285496599e-12
-1.503666367021798282e-12
-1.662399715892386741e-12
-1.798020393347023770e-12
-1.891829822689991034e-12
-1.923546753908517211e-12
-1.873708479255244493e-12
-1.724232981657634969e-12
-1.500369964134743732e-12
-1.241192041585258092e-12
-1.018486086301763854e-12
-8.700544635020422367e-13
-7.436319844986774031e-13
-5.580274356198772661e-13
-3.914682259882121722e-13
-3.168878278612386731e-13
-2.141268264774643317e-13
-1.608877955697343879e-13
-1.098370874278202111e-13
-7.666504416265411846e-14
-5.368857599431777213e-14
-3.761286854872979473e-14
-2.654652989772930599e-14
-1.896383546689541044e-14
-1.381084856632489607e-14
-1.025418574605961873e-14
-7.750211725158741546e-15
-5.942204232271211235e-15
-4.592104024059969559e-15
-3.551204314863989150e-15
-2.728387859532851301e-15
