# bin_3_11
-3.137019757167876119e-25
-3.533189266028970977e-25
-3.910478067580679708e-25
-4.235245535121693749e-25
-4.463787713916065670e-25
-4.547382845767128230e-25
-4.442036822138442988e-25
-4.100476129882754308e-25
-3.579095384820582326e-25
-2.966113729992120163e-25
-2.431432978344364270e-25
-2.072442521406271057e-25
-1.777222829974529512e-25
-1.345207953226190149e-25
-9.386587840377321048e-26
-7.596021768997210703e-26
-5.167633205854685244e-26
-3.869588451844697446e-26
-2.632294302175150287e-26
-1.842144580664254028e-26
-1.288441563692477999e-26
-9.010336847370615599e-27
-6.343571191762400151e-27
-4.517290808676659405e-27
-3.278338330251135575e-27
-2.425873542659930954e-27
-1.828082990180387642e-27
-1.398630353743352714e-27
-1.079661424853464785e-27
-8.349145899262460600e-28
-6.420803828190925232e-28
