# bin_9_6
1.012030381120185855e-12
1.138002427264769408e-12
1.257083817803749721e-12
1.358236989364565221e-12
1.427254260417319604e-12
1.449044666073682697e-12
1.408449723999334980e-12
1.292935649705630790e-12
1.122361166923033630e-12
9.271560027523285520e-13
7.613820504623717532e-13
6.515833439300065455e-13
5.554940601796992224e-13
4.139696687114662907e-13
2.916032121813262719e-13
2.361825616630884278e-13
1.586608767403404022e-13
1.195851372647027278e-13
8.187145837945370598e-14
5.701494958061475314e-14
3.996955507394454305e-14
2.804167797603147478e-14
1.983011163024506082e-14
1.420111980679058640e-14
1.037066357749210994e-14
7.720247912498698332e-15
5.848479754112819389e-15
4.491578272151023144e-15
3.474090134102201338e-15
2.686721086729272841e-15
2.062730332044802244e-15
