# bin_9_1
2.553111870928559441e-27
2.843876501073706107e-27
3.105428787354153761e-27
3.307636775706389800e-27
3.413373445640121297e-27
3.393261251107413377e-27
3.201571263122960157e-27
2.853329268194993233e-27
2.404842551956888149e-27
1.967813295979716916e-27
1.646949515636205265e-27
1.424780041589605123e-27
1.146545268025494103e-27
8.013048064594104568e-28
6.182400243742017009e-28
4.619720844838624088e-28
3.242049179195085913e-28
2.301663328916936858e-28
1.652226577896103378e-28
1.161358466488198262e-28
8.202701658834689300e-29
5.865316592732213293e-29
4.255354134254927561e-29
3.143010003608516350e-29
2.366006172476676854e-29
1.809530535764830116e-29
1.399924980651117092e-29
1.088409166052236149e-29
8.442874655016451912e-30
6.489882174022718652e-30
4.915300315180549035e-30
