# bin_9_7
9.421276348088752274e-12
1.061644390125046300e-11
1.175724585133518405e-11
1.274320436221572508e-11
1.344338183606851090e-11
1.370976610755035703e-11
1.341285221200047521e-11
1.240334119183777937e-11
1.084484315217474090e-11
8.997207587180101237e-12
7.371896546948355175e-12
6.275142472478752354e-12
5.389860729506848161e-12
4.099864007361017816e-12
2.854029533647282142e-12
2.306891337263970437e-12
1.577367089761924686e-12
1.177426681019488699e-12
7.997674261712148056e-13
5.608024716267196052e-13
3.918711960141656569e-13
2.737190454868892249e-13
1.924390637162803849e-13
1.367961053754315730e-13
9.907930152622642731e-14
7.317288792665748400e-14
5.504564653039686885e-14
4.205997924140020611e-14
3.244469384829920716e-14
2.508748474509082422e-14
1.930242736755474620e-14
