# bin_14_4
5.526929217970487283e-08
5.073212841806755868e-08
4.530693384103826857e-08
3.934196443908409641e-08
3.326070793879980036e-08
2.748665675251299339e-08
2.232901266188608829e-08
1.790917430526547053e-08
1.416846694910091820e-08
1.098354408472730564e-08
8.320624843241253680e-09
6.237042417133795011e-09
4.693857986279580765e-09
3.525296537502313364e-09
2.650366022167842971e-09
2.011740847318089153e-09
1.538503085048772019e-09
1.187088988035599623e-09
9.221099678303140463e-10
7.188004898253739530e-10
5.600483104734188981e-10
4.343068069842519764e-10
3.338546833860229984e-10
2.534696861494117126e-10
1.894996848594301003e-10
1.391892244988737947e-10
1.002829049710966857e-10
7.081180414641495562e-11
4.899955094416742642e-11
3.324723838529379206e-11
2.214847578959209824e-11
