# bin_11_2
3.456567192163503424e-08
3.043962200494156230e-08
2.607997565040861295e-08
2.179631142250601159e-08
1.785768333492289392e-08
1.441936617357668070e-08
1.149861918326238608e-08
9.019662353753512126e-09
6.922239020402645519e-09
5.223317278938884845e-09
3.936178860838007824e-09
2.976111914676933366e-09
2.249085346209381462e-09
1.713278422727297503e-09
1.317447498522012153e-09
1.022685943624811757e-09
8.001833805296940839e-10
6.290625112822447321e-10
4.947979488150649673e-10
3.876312538172596179e-10
3.011351256443792841e-10
2.310669508011314222e-10
1.745468259330203398e-10
1.294702167023323445e-10
9.413038844759171399e-11
6.701360814091768631e-11
4.670961813819369028e-11
3.189676096385508829e-11
2.136906203691213771e-11
1.407217131209493086e-11
9.129394754801985054e-12
