# bin_15_4
5.568066577780011029e-08
5.113297571269311880e-08
4.568493176095813708e-08
3.968592736370939830e-08
3.356247854747278378e-08
2.774289034684724043e-08
2.254147176063005220e-08
1.808310508669268486e-08
1.430961986986096469e-08
1.109574700610140925e-08
8.406514002362878840e-09
6.300977127281153409e-09
4.741673508216704010e-09
3.560905140072854059e-09
2.676567267608645282e-09
2.031225454884366296e-09
1.553061853785657195e-09
1.198101534598490813e-09
9.305423002265167760e-10
7.253297570256290018e-10
5.651446301524086710e-10
4.382982624980817067e-10
3.369752714555142750e-10
2.558921951833584785e-10
1.913582500914255169e-10
1.405928974464531204e-10
1.013232862283988641e-10
7.156696783120835390e-11
4.953572959777882091e-11
3.361956950577143584e-11
2.240154483793549631e-11
