# bin_2_2
2.244148182254557552e-08
1.925542595394059777e-08
1.612520736206851506e-08
1.323331924384345531e-08
1.069186187725709559e-08
8.526346959810668420e-09
6.699181905095032431e-09
5.165960513879455786e-09
3.918234233507705345e-09
2.958380853983133697e-09
2.243250188677470861e-09
1.704263249433892755e-09
1.302696599110739701e-09
1.006043606877307704e-09
7.838807409152171082e-10
6.154941066867368643e-10
4.853368999618376557e-10
3.827222438680502431e-10
3.004571696007301775e-10
2.338087343081746136e-10
1.796576298076611384e-10
1.358757950896097256e-10
1.008965572959446001e-10
7.343548499631724175e-11
5.233992008655450817e-11
3.652712521485760181e-11
2.497776600333191604e-11
1.675889138508023567e-11
1.105393425630283472e-11
7.183235377541690703e-12
4.609357947827930430e-12
