# bin_6_4
4.664456437028261525e-08
4.233205673410969388e-08
3.738899400577474264e-08
3.213966268407187493e-08
2.694373687089319187e-08
2.212400566074806337e-08
1.788304515021283925e-08
1.426985766136057945e-08
1.121544717722854504e-08
8.636681573935764815e-09
6.524257138900467324e-09
4.899776611565634322e-09
3.693716370039321789e-09
2.780450717602243443e-09
2.102222144222205944e-09
1.604061004426068973e-09
1.233844415802454605e-09
9.566073281516516502e-10
7.456115722595190513e-10
5.821285221431345548e-10
4.533717630849592786e-10
3.507624296922710336e-10
2.685452441495950325e-10
2.027771986049480409e-10
1.506144383866453892e-10
1.098264866424023426e-10
7.852357569056704885e-11
5.502047366750460367e-11
3.778925714137773955e-11
2.546375283362881134e-11
1.685879006014497755e-11
