# bin_6_5
5.182821781510510469e-08
4.748875206364492701e-08
4.236253022054372470e-08
3.677282221244085666e-08
3.110095699537846703e-08
2.571847869435688896e-08
2.089776262333381549e-08
1.675096012388017598e-08
1.324278498467531033e-08
1.027663971817246415e-08
7.808756357561112296e-09
5.861932711752446355e-09
4.407673035925435521e-09
3.316608662349314549e-09
2.494721218379053046e-09
1.893614646223649056e-09
1.447699870416859236e-09
1.116295958915756423e-09
8.661304887824295301e-10
6.742272925637365849e-10
5.245238803142967661e-10
4.061374772381167769e-10
3.117628052571606313e-10
2.364205078666656249e-10
1.766031549892403788e-10
1.296577911670741913e-10
9.341498579581641084e-11
6.599207613171061767e-11
4.570492372252099708e-11
3.105028525803642825e-11
2.071545928796995355e-11
