# bin_9_9
7.403004752131927210e-08
6.997367577946591064e-08
6.450293224380857068e-08
5.788986278278779437e-08
5.054643982236459407e-08
4.297697785644290518e-08
3.569310599425228730e-08
2.909650008102156528e-08
2.338136671505233347e-08
1.853334145782217563e-08
1.442705865664350647e-08
1.098477573943877060e-08
8.230968964290870471e-09
6.157060504024941322e-09
4.608434088336396064e-09
3.436917333359538693e-09
2.580129788785607827e-09
1.948952694777252759e-09
1.483852539267700873e-09
1.137196390731734939e-09
8.755387516746053048e-10
6.749737029036265004e-10
5.190992143714134732e-10
3.967726585554503207e-10
3.003498240023977936e-10
2.244938553828903775e-10
1.652870212531436964e-10
1.196634517365683907e-10
8.509039070589792347e-11
5.939874317873992792e-11
4.070917212554300562e-11
