# bin_7_7
6.248010123790651124e-08
5.818978945492869958e-08
5.280263594756726711e-08
4.662716518299854422e-08
4.007282539967941606e-08
3.358955144880810732e-08
2.757776754843422489e-08
2.228631355682884087e-08
1.777396918661050781e-08
1.395687240937348285e-08
1.073499673174341048e-08
8.095983738170859759e-09
6.063288186349455562e-09
4.553174527710532004e-09
3.410955558794417393e-09
2.562360036962472439e-09
1.941183791927412552e-09
1.481054234613869106e-09
1.138712852295123006e-09
8.803391460100991955e-10
6.821520648186154873e-10
5.277873256318950258e-10
4.061403702669949279e-10
3.096789368024591471e-10
2.332049850590064203e-10
1.729843385142320951e-10
1.261386561996255294e-10
9.029846360323419157e-11
6.341751593649260089e-11
4.369442775846714188e-11
2.955187788088009404e-11
