# bin_9_3
4.344768692239954224e-08
3.908004731881842518e-08
3.418929237135810683e-08
2.911163052421691935e-08
2.420193267730139370e-08
1.974720872937111569e-08
1.589217264335475578e-08
1.262714024493226678e-08
9.856108589315075346e-09
7.522782035172517633e-09
5.657416125009424582e-09
4.260033612557743757e-09
3.213683767814325420e-09
2.421991286780146925e-09
1.842287521998277870e-09
1.412762120907233625e-09
1.093461578410646768e-09
8.524190740361944350e-10
6.672548373250859778e-10
5.223292894515900441e-10
4.071100580180292526e-10
3.146084228508932893e-10
2.401448587459924319e-10
1.804913533277375545e-10
1.332489791758960191e-10
9.646188255702096524e-11
6.841147407406300938e-11
4.752469836702568477e-11
3.235877817014514949e-11
2.162310672550006427e-11
1.420673895951795201e-11
