# bin_4_1
1.985174917869363479e-08
1.684494491722991765e-08
1.397386716602429810e-08
1.138689671636013514e-08
9.151157683154224623e-09
7.255024735900893299e-09
5.652725131580024777e-09
4.321458349196807601e-09
3.267711639451529566e-09
2.473618424249768587e-09
1.878757070855978709e-09
1.431953915892096682e-09
1.101705954667967827e-09
8.560571134090687519e-10
6.711608109425931697e-10
5.295335700084737531e-10
4.187805781773151967e-10
3.304632806514369361e-10
2.590092559755160769e-10
2.007884704829546426e-10
1.533999215746989634e-10
1.151649322143400323e-10
8.478296872165803265e-11
6.112603735481039293e-11
4.313943505331886932e-11
2.981383610371815049e-11
2.019981135666362616e-11
1.344042673156138488e-11
8.801034540502343622e-12
5.684531028132531363e-12
3.629679843901125302e-12
