# bin_12_6
6.736310542091384857e-08
6.305740579883593231e-08
5.751059900579444569e-08
5.102932695007576051e-08
4.404184520853760426e-08
3.704006018072542992e-08
3.048576621705990603e-08
2.468628685978674419e-08
1.973473156199846388e-08
1.554320075121348314e-08
1.198505525543102772e-08
9.041524869015053298e-09
6.764131914789733830e-09
5.077829588267422710e-09
3.797880843473728169e-09
2.846182445409245356e-09
2.151057294314004498e-09
1.637171952848516840e-09
1.256081489142169335e-09
9.696664613526499620e-10
7.508805422161574018e-10
5.810823536598691483e-10
4.476151780238079604e-10
3.419078307947402558e-10
2.580845982517017873e-10
1.919783473629658976e-10
1.404241556909753654e-10
1.008514654344844283e-10
7.105846578533058296e-11
4.911066302279672973e-11
3.330947400870661810e-11
