# bin_2_2
1.082357922774501306e-05
1.123951990733745626e-05
1.126220986350113119e-05
1.076410718541996921e-05
9.729266478795323191e-06
8.326208538109496220e-06
6.856157955303053722e-06
5.682279309591731300e-06
4.866297209377796851e-06
4.023284027801843589e-06
2.948562378382004796e-06
2.177785571215217515e-06
1.696842324626583735e-06
1.200016877197393691e-06
8.920356871409884859e-07
6.454513361612032623e-07
4.729668132519995140e-07
3.509581151736506004e-07
2.645945516371699007e-07
2.031062404985530473e-07
1.584531938462736962e-07
1.251724591919773456e-07
9.944564182247060375e-08
7.888830306424570075e-08
6.205364718473749963e-08
4.808832547996544377e-08
3.651505277433236394e-08
2.705723144918692829e-08
1.951539886218174194e-08
1.369601266790922019e-08
9.365854801181774076e-09
