# bin_7_3
3.286703394153640233e-10
3.635385287139737555e-10
3.935622602380855556e-10
4.147029800203837090e-10
4.224745842162578918e-10
4.127790993766762068e-10
3.813057913681060286e-10
3.330586825365563781e-10
2.762663490767630833e-10
2.264486208310912725e-10
1.926952302177212690e-10
1.651323046546244697e-10
1.255868600612406263e-10
8.795408089824391262e-11
7.084923891680084250e-11
4.900112422770505260e-11
3.660551188055825130e-11
2.533500609863076979e-11
1.807919398819491503e-11
1.290084642088830677e-11
9.257706380365916259e-12
6.728800545462014942e-12
4.967011291894053483e-12
3.737716085297207643e-12
2.860164928557137771e-12
2.215463901842329298e-12
1.727190505909473333e-12
1.345498881313848642e-12
1.040178878992590057e-12
7.931618826505825771e-13
5.936813124306414318e-13
