# bin_9_4
2.037165698725495293e-11
2.281444531724296166e-11
2.507772107058712645e-11
2.693079374953804097e-11
2.808187331432302375e-11
2.826287493724754223e-11
2.712180611380021090e-11
2.456793969344442749e-11
2.104104976686241864e-11
1.727864021719996804e-11
1.428535475113129573e-11
1.231980119597141631e-11
1.028942853268216818e-11
7.404087113193780126e-12
5.408006776227954720e-12
4.288049816638225048e-12
2.878802116104286260e-12
2.143062781739567884e-12
1.501871203628967794e-12
1.044942466252341267e-12
7.339017692771934904e-13
5.182760351157510648e-13
3.706136690598074833e-13
2.691498542401654666e-13
1.993930574784254793e-13
1.504146263320391533e-13
1.151979685396687231e-13
8.910152643601753034e-14
6.910734269489460309e-14
5.336186258990141135e-14
4.075271066691901478e-14
