# bin_7_5
5.793952922726260061e-07
6.452000026435684213e-07
7.042974974778130852e-07
7.498366770048958099e-07
7.733941775474764932e-07
7.683265730283177487e-07
7.242902184849415883e-07
6.449747995784442281e-07
5.431799493523723212e-07
4.444325672270673623e-07
3.722191307986765785e-07
3.219931370927859320e-07
2.585561539353570713e-07
1.805338524151621741e-07
1.396577008284859855e-07
1.039978972874325833e-07
7.319349615837823202e-08
5.184174204632949846e-08
3.723859269105103835e-08
2.619183790674822231e-08
1.850877462109047001e-08
1.324391427343141548e-08
9.615663168868118022e-09
7.108040095458362596e-09
5.354882897894996272e-09
4.097995525313984044e-09
3.171723091837911978e-09
2.466382813592549029e-09
1.913072764130484391e-09
1.470133658591253656e-09
1.112943287783346064e-09
