# bin_8_6
7.020498828669344218e-07
7.870261094891411926e-07
8.661651122077165497e-07
9.315860640926034207e-07
9.732841301287944205e-07
9.817155731962551124e-07
9.450951997511825011e-07
8.588649290144005019e-07
7.379920940640292109e-07
6.067713445595873184e-07
5.006912656430150051e-07
4.311240689527807738e-07
3.621469967150267855e-07
2.626968534760587835e-07
1.899476957405892351e-07
1.517928494204837743e-07
1.015692505613741908e-07
7.607576757107510644e-08
5.299031597896348165e-08
3.683607508665106736e-08
2.586414837523421595e-08
1.823258241674528660e-08
1.300167775419276038e-08
9.409956076832714632e-09
6.947484549671225365e-09
5.224874642628241866e-09
3.991810630766675458e-09
3.082928636686469938e-09
2.390057861688979453e-09
1.846538593704183687e-09
1.412202979311619035e-09
