# bin_10_4
2.821881311738705695e-13
3.172222044433126337e-13
3.502951781435926565e-13
3.783205133572744979e-13
3.973312102791340829e-13
4.031532864373094784e-13
3.915087418399440873e-13
3.590499397980163739e-13
3.113787877519198537e-13
2.570909195503650401e-13
2.112036438042443042e-13
1.808656144199143305e-13
1.540076224383553422e-13
1.144631661393818739e-13
8.079606403040913219e-14
6.540794449153389110e-14
4.387773377661170285e-14
3.308253391779640942e-14
2.268266109289687697e-14
1.578752930726686489e-14
1.107043603888045098e-14
7.770285177883994584e-15
5.499177440850836992e-15
3.942129602293180093e-15
2.881914705838659589e-15
2.147575448230115728e-15
1.628318134740213255e-15
1.251292648098673623e-15
9.681128578185908892e-16
7.486695990591325681e-16
5.746005619129208456e-16
