# bin_15_3
2.535568188773687492e-27
2.887783728068802767e-27
3.240753359058257120e-27
3.569991826865133430e-27
3.842985921188050459e-27
4.018392355665597253e-27
4.056427691493073378e-27
3.908186433698179678e-27
3.553403774033790820e-27
3.054627052935956163e-27
2.511441383888087733e-27
2.072088300521676137e-27
1.785510372342160997e-27
1.501523443344336484e-27
1.087282591508671732e-27
7.841729912046572168e-28
6.274813984456953773e-28
4.153167202819288199e-28
3.100283879830481871e-28
2.130930826039130318e-28
1.450527260131956316e-28
9.923240156947942683e-29
6.757142285303017072e-29
4.619774777784342949e-29
3.182354586684891507e-29
2.227428260743807467e-29
1.587693210385555621e-29
1.155830608129318566e-29
8.594106626238227967e-30
6.504751515774879525e-30
4.981656524512180015e-30
