# bin_3_3
7.687133940719995302e-06
8.222802007494067164e-06
8.538413530940868121e-06
8.553803548247385194e-06
8.165693823387776504e-06
7.365897859123978549e-06
6.286809361668788485e-06
5.164431621191499207e-06
4.282560764944035855e-06
3.682470889118857001e-06
3.041704925933506122e-06
2.199268877983193839e-06
1.630775682516340275e-06
1.272943740802956506e-06
8.866626276921454292e-07
6.586873135956045290e-07
4.735431042900995471e-07
3.423408633176091789e-07
2.507213431668955726e-07
1.862696422282574441e-07
1.408194331962707631e-07
1.082896906175300048e-07
8.452676356246694825e-08
6.656119844626664023e-08
5.252151841261002176e-08
4.124115990911341428e-08
3.200885563087076353e-08
2.441576828305724893e-08
1.821817698228173661e-08
1.325238751559622369e-08
9.383771685663550340e-09
