# bin_10_7
1.314260558560215445e-07
1.485043010679975791e-07
1.650045241085331188e-07
1.795670878455955129e-07
1.903911362156402593e-07
1.953180387939163131e-07
1.926721287578217506e-07
1.799328835912187531e-07
1.588075548965091460e-07
1.326588269150267711e-07
1.085259959146342334e-07
9.165930390794766679e-08
7.920898873451122531e-08
6.194270678462564397e-08
4.285388693234384701e-08
3.409730729274384383e-08
2.420517027095779826e-08
1.755969363566851904e-08
1.196120242822654450e-08
8.486336951710081496e-09
5.887581063008861845e-09
4.076529667924763657e-09
2.843367252889025718e-09
2.002015592787602469e-09
1.433547285941692271e-09
1.046653187253938875e-09
7.790900485667245696e-10
5.903767722433179225e-10
4.530897801871295916e-10
3.498084315880211236e-10
2.696531615807842423e-10
