# bin_9
0.000000000000000000e+00
1.545565499469734319e-167
1.846781679607211392e-144
3.844727050483428089e-125
9.700850864472009722e-109
1.018310069157189634e-94
1.137543732322132784e-82
2.844591365773504610e-72
2.898815850179187230e-63
1.961372093964485325e-55
1.316034585144616673e-48
1.220656062671926852e-42
2.064173481137104139e-37
8.025811624339010927e-33
8.724520239890594918e-29
3.129176256862828924e-25
4.263426934052827616e-22
2.489065411570381084e-19
6.904801135061267174e-17
9.948872156468707436e-15
8.041547409768815135e-13
3.898138481141210886e-11
1.201094141740760935e-09
2.474827020503037425e-08
3.565028522623804911e-07
3.733143636921448805e-06
2.940933043845304773e-05
1.796514542934263281e-04
8.739882497980855586e-04
3.466995509440470771e-03
1.145066864903047585e-02
3.207382723889192627e-02
7.744716076020577433e-02
1.635602567490154202e-01
3.060127967315484643e-01
5.130274369685835500e-01
7.785515187739443510e-01
1.079228899379071960e+00
1.377659014653585423e+00
1.631311256031005241e+00
1.803650368223091105e+00
1.873137489987755533e+00
1.837093430015521722e+00
1.709892977693655336e+00
1.517146844913145110e+00
1.288503184562078463e+00
1.051407884235095347e+00
8.271394770646298689e-01
6.293323485989528177e-01
4.644472619780709022e-01
3.333559223255865289e-01
2.332725306294090584e-01
1.595095240138511006e-01
1.068031095845784068e-01
7.016026086992814548e-02
4.529801099771094824e-02
2.879111222335573386e-02
1.804200320385740061e-02
1.116253881650628235e-02
6.827336601350308780e-03
4.132995211667273537e-03
2.479015335965509097e-03
1.474800007403962712e-03
8.710273411833458108e-04
5.111509508848263196e-04
2.982843943595629688e-04
1.732186180741059685e-04
1.001694924313637749e-04
5.771979551799186095e-05
3.315989219989633207e-05
1.900341746807394881e-05
1.437497831714587307e-05
