# bin_12_5
6.123986339117319928e-08
5.680535939056645860e-08
5.130368842664497045e-08
4.506325441213827292e-08
3.851178004399640373e-08
3.211174375920425721e-08
2.625575534689077789e-08
2.115987881254381345e-08
1.683861937203162775e-08
1.317301388755649146e-08
1.007132522322905545e-08
7.561733652624472475e-09
5.670303079706801512e-09
4.261815319800133218e-09
3.189816386629886996e-09
2.406053078282123762e-09
1.827429104645633354e-09
1.400274494030438888e-09
1.080844669852673634e-09
8.385496512591665435e-10
6.515697826890884917e-10
5.050115065965974249e-10
3.888644363499851742e-10
2.963501367847383798e-10
2.228023656226594927e-10
1.648261338059552855e-10
1.197552975122666989e-10
8.534987470555825628e-11
5.963871130109671505e-11
4.086508592870869293e-11
2.748117714012425614e-11
