# bin_2_1
1.703795838303637529e-08
1.435199578430090149e-08
1.183533398675284347e-08
9.598691994946804805e-09
7.680650932223726340e-09
6.059686360883835150e-09
4.697118087091786387e-09
3.578528284419531960e-09
2.705741870035016687e-09
2.051914845208146946e-09
1.561396124483157919e-09
1.194040058904005543e-09
9.224834511644620254e-10
7.194866585187645487e-10
5.658130614907848287e-10
4.471976967251697837e-10
3.537410957293186095e-10
2.787595349164988300e-10
2.178686318500126176e-10
1.682076194785720468e-10
1.278566734378135122e-10
9.543149933907818009e-11
6.981585685725024003e-11
5.001106047023941667e-11
3.507083929853022731e-11
2.409158027046473630e-11
1.623304237911434893e-11
1.074875612207602813e-11
7.009458477556916481e-12
4.511933100051161922e-12
2.873057601390594922e-12
