# bin_12_8
7.635474515392031180e-08
7.232848278939426003e-08
6.682194336839790175e-08
6.010165335292978005e-08
5.258267402154693369e-08
4.478316508715123422e-08
3.723994359348162139e-08
3.038573465075406499e-08
2.443914732297587818e-08
1.939483634285488922e-08
1.511811079348787739e-08
1.151932140250609454e-08
8.628552058219914790e-09
6.452193452839172643e-09
4.828654911746568312e-09
3.597071769955726495e-09
2.697957060833941357e-09
2.035428239851265366e-09
1.548092212308022401e-09
1.185384714468658164e-09
9.121052609451771467e-10
7.030087952836041914e-10
5.407444161362254815e-10
4.135309441484402440e-10
3.132946049771837225e-10
2.344220260216580407e-10
1.728154613102926515e-10
1.252872940547298265e-10
8.921760589333219483e-11
6.236873888964373027e-11
4.280277063677579747e-11
