# bin_7_6
5.812167545939362767e-08
5.376234080781273217e-08
4.843491344295969009e-08
4.245858303645787893e-08
3.623616454557343199e-08
3.018966558694335798e-08
2.466867098383971491e-08
1.986205743464214658e-08
1.578279239062550565e-08
1.233316369071897850e-08
9.433872924875188285e-09
7.093226168132778753e-09
5.318276937884910732e-09
3.997761792928079542e-09
2.997111410120496721e-09
2.260940057247417245e-09
1.718777176561927992e-09
1.317239006938634773e-09
1.016654218006497599e-09
7.883791374375872118e-10
6.120658119431971699e-10
4.738411267589895806e-10
3.643522722829422018e-10
2.772463582029380908e-10
2.081152415915545576e-10
1.537307241834292910e-10
1.115439003459355006e-10
7.940855596103761571e-11
5.544029545952327118e-11
3.796752028852058692e-11
2.552597944155111455e-11
