# bin_11_3
4.480456337827085831e-08
4.037250046670051585e-08
3.537852450566830907e-08
3.016690431815590208e-08
2.510681066630868083e-08
2.050250887423619488e-08
1.651244311399526716e-08
1.313204782750874169e-08
1.026091048925995604e-08
7.836965256886002955e-09
5.893083379573864512e-09
4.435941908049726818e-09
3.345565913955587033e-09
2.519526695225007339e-09
1.914915749683203609e-09
1.467215218908076957e-09
1.134765999881146314e-09
8.841402680613229146e-10
6.919058701303291803e-10
5.416522043275419554e-10
4.223168427421010230e-10
3.265600895063903559e-10
2.494748640764623356e-10
1.876901509944555797e-10
1.387163376868194740e-10
1.005359344004175338e-10
7.138331076504434408e-11
4.964421547737301365e-11
3.383642536243253348e-11
2.263092623236905907e-11
1.488032489079646998e-11
