# bin_8_7
6.436165872241689861e-08
6.006525601082145907e-08
5.462217467002178226e-08
4.833879565643138764e-08
4.162894803928437401e-08
3.495461957838917411e-08
2.873590391698483453e-08
2.324425853129283242e-08
1.855501860629453909e-08
1.458895263175508214e-08
1.123825000282009336e-08
8.482306874312309419e-09
6.349367628030073874e-09
4.765056756568059614e-09
3.568127337095017688e-09
2.676392540619163550e-09
2.024805398423944595e-09
1.542306136246721109e-09
1.184081301045662081e-09
9.142919025331522616e-10
7.078517914158919850e-10
5.474342646625556143e-10
4.212595506799128012e-10
3.213414851145669412e-10
2.421775667165546032e-10
1.798370144929622325e-10
1.313125433730010039e-10
9.414671592649716723e-11
6.622968718697428419e-11
4.570985108262285241e-11
3.096710795908920611e-11
