# bin_3_3
3.161637583550096469e-08
2.780715523322030326e-08
2.381592362060982877e-08
1.990759611737394338e-08
1.631073787544185177e-08
1.316065351171183845e-08
1.048215858586693773e-08
8.222130110692036561e-09
6.324572664223214115e-09
4.783271529366136209e-09
3.603365151412144793e-09
2.726028042620078771e-09
2.063246619406136145e-09
1.571169032682768085e-09
1.208226765153525173e-09
9.371232913670521788e-10
7.323767858678011331e-10
5.748824665303790563e-10
4.514087171173637952e-10
3.530224479270495497e-10
2.737993977632169151e-10
2.097978857823137439e-10
1.583120181435610297e-10
1.173518967278326244e-10
8.530364631169623714e-11
6.074575743605358179e-11
4.236889751462033161e-11
2.896022558448273185e-11
1.942324793161835536e-11
1.280526389427603631e-11
8.316229540174213662e-12
