# bin_7_1
2.227439057478624146e-08
1.899396521754144357e-08
1.581795805395952545e-08
1.292744508050270295e-08
1.041611296415375928e-08
8.283012607749770292e-09
6.475910907504025459e-09
4.962282520826798050e-09
3.751564047450530367e-09
2.835626439755431149e-09
2.150645542972326084e-09
1.635002547999584277e-09
1.253970845359757913e-09
9.715066917860155271e-10
7.597690979845169237e-10
5.984717343591057110e-10
4.730395588989779954e-10
3.734918463905999200e-10
2.932063672813567397e-10
2.278697705234906537e-10
1.746514903420965494e-10
1.316100781873274621e-10
9.728251328287235858e-11
7.043023969652795020e-11
4.990928681291485557e-11
3.462531137642846943e-11
2.354132849140319405e-11
1.571114530209982895e-11
1.031406369753076519e-11
6.675546361101175874e-12
4.269412450105404420e-12
