# bin_15_13
9.466732798461623585e-08
9.141570824785076303e-08
8.624037654356359192e-08
7.931222831186114205e-08
7.099239452375896287e-08
6.181401699589322258e-08
5.241694972782857692e-08
4.343484221859726099e-08
3.534520450318192942e-08
2.835751226043613983e-08
2.242806060052782413e-08
1.739807772899888893e-08
1.318990445512534455e-08
9.846234625202761873e-09
7.339269615471494677e-09
5.461261258042550335e-09
4.044768685564339131e-09
3.014092021354742948e-09
2.256359484499210726e-09
1.701708077825423893e-09
1.291403526753498608e-09
9.845935485942511166e-10
7.520374109570163930e-10
5.735088989125517417e-10
4.351563879431202519e-10
3.274112028701469255e-10
2.435810615732809476e-10
1.787702897545240134e-10
1.292086701168506678e-10
9.186205286203403758e-11
6.420668057543587040e-11
