# bin_6_1
2.178901525399351202e-08
1.856362673200844710e-08
1.544868391822910364e-08
1.261875210217195039e-08
1.016241178607485860e-08
8.076799110432048460e-09
6.310920553875598142e-09
4.833916386516574149e-09
3.654524751822399012e-09
2.762900316650621024e-09
2.095969636528469587e-09
1.594083807423057514e-09
1.223211409613220099e-09
9.481234530217806230e-10
7.417749367057989088e-10
5.844389565784360723e-10
4.619741888073017267e-10
3.647058733462055521e-10
2.862195782014904149e-10
2.223368811977031528e-10
1.703118453424585670e-10
1.282548169745969781e-10
9.473502093700731630e-11
6.853619484238056370e-11
4.853272337341239357e-11
3.364795229421748926e-11
2.286313037444255858e-11
1.525056869112415914e-11
1.000730462036059943e-11
6.474675061090544024e-12
4.139758368564475859e-12
