# bin_14_9
8.261359580432106049e-08
7.879622138984704030e-08
7.333723622161758051e-08
6.647503855091747852e-08
5.861380311458844156e-08
5.028690308850057429e-08
4.207703393357245798e-08
3.449530573731740500e-08
2.784600872059355252e-08
2.218458928959076867e-08
1.738651679295301702e-08
1.332584045011234861e-08
1.000684557710594546e-08
7.469332235706977230e-09
5.586347083432019167e-09
4.155717859773690185e-09
3.101594764177514741e-09
2.330333729583147320e-09
1.763019871431303306e-09
1.343357473646058596e-09
1.029481415794002442e-09
7.911949717581779205e-10
6.076732021834700110e-10
4.647072476919182916e-10
3.525676112477068869e-10
2.645244816483450720e-10
1.957576676578277464e-10
1.426009437188943587e-10
1.021096378979485124e-10
7.181445672344503803e-11
4.959937335137460983e-11
