# bin_9_3
4.319169785968617682e-08
3.881669485851859276e-08
3.393005484596887941e-08
2.886765875722277276e-08
2.398214905799464236e-08
1.955641247360951131e-08
1.573064197251380277e-08
1.249214361080190486e-08
9.744534677234074933e-09
7.433059098297835279e-09
5.588338868961269900e-09
4.207984564143170905e-09
3.174076750997770961e-09
2.392270385964271334e-09
1.820068621382688391e-09
1.396003448767210135e-09
1.080722028428760823e-09
8.426176253125091452e-10
6.596185376927533405e-10
5.163175539916097556e-10
4.023464349363501602e-10
3.108281311867936557e-10
2.371568055315435949e-10
1.781514256049535410e-10
1.314420334335730685e-10
9.509118549517115937e-11
6.739302181853659304e-11
4.678482679501703819e-11
3.183366581177621940e-11
2.125889306228588609e-11
1.395955986475150835e-11
