# bin_5_1
2.115160985086929597e-08
1.799849662448756326e-08
1.496374470590116989e-08
1.221336934032910325e-08
9.829245454112015270e-09
7.805994647958845481e-09
6.094251248528945832e-09
4.665342860522289141e-09
3.527090391553673438e-09
2.667394613849311336e-09
2.024167921294340675e-09
1.540348342415851712e-09
1.182817394677370333e-09
9.174160401140928784e-10
7.181445900303175536e-10
5.660107920103435677e-10
4.474428922486560211e-10
3.531679322561315156e-10
2.770443653463434822e-10
2.150709615403091473e-10
1.646129205766691124e-10
1.238486071217551389e-10
9.138959167090009697e-11
6.604888812606096679e-11
4.672498563722691803e-11
3.236445947153479997e-11
2.197250317167176221e-11
1.464572754587673713e-11
9.604460594289617605e-12
6.210885599507259948e-12
3.969493212798027882e-12
