# bin_10_8
7.226455618589699379e-08
6.811681819099986999e-08
6.260379281248313094e-08
5.600798920251372001e-08
4.874653462474618689e-08
4.132041942897857880e-08
3.422770318792480272e-08
2.784517816693389119e-08
2.233938876654496194e-08
1.767585091271653479e-08
1.372611878579388248e-08
1.042447295574299153e-08
7.803206257203314621e-09
5.840910497540966160e-09
4.371569988072034506e-09
3.262181861957396788e-09
2.453386198300110725e-09
1.856097671309210388e-09
1.415840037528769295e-09
1.086994907229432923e-09
8.380518325760253027e-10
6.466586528408688911e-10
4.974940108443972208e-10
3.801668050907912161e-10
2.875465771229545430e-10
2.146406830963240271e-10
1.577529478499724108e-10
1.139637684013073112e-10
8.083929011333570508e-11
5.628129361315406728e-11
3.846559705981322520e-11
