# bin_12_4
5.402501701738350281e-08
4.951807028987263058e-08
4.416028275880825559e-08
3.829676136733086777e-08
3.234212382503803166e-08
2.670556002046376982e-08
2.168076103504588294e-08
1.737827783142959530e-08
1.373739664678266023e-08
1.064037632513743366e-08
8.057381885632044741e-09
6.040977795407360560e-09
4.547330046142332648e-09
3.416079989006822656e-09
2.570040474124105165e-09
1.952042717696262632e-09
1.493942500788451068e-09
1.153419249743526347e-09
8.963609395236692273e-10
6.988855699079728141e-10
5.445182773291752367e-10
4.221509302834671878e-10
3.243531560171757941e-10
2.460925526150932611e-10
1.838370910992062681e-10
1.349091467036506625e-10
9.710723071880579169e-11
6.850386006310672175e-11
4.735862795739160492e-11
3.210613883214075547e-11
2.137180636286514360e-11
