# bin_10_2
3.388698991769904399e-08
2.980351037629750632e-08
2.550485153305649613e-08
2.129488849863762919e-08
1.743407777900041951e-08
1.406916700088355338e-08
1.121214801095283144e-08
8.787468125565695870e-09
6.738581577242694464e-09
5.083583812092032983e-09
3.831996584740285956e-09
2.897794532712642758e-09
2.190755632903801994e-09
1.670000199201365684e-09
1.285019769127397435e-09
9.981871730468952302e-10
7.814391276095662069e-10
6.145433676206918426e-10
4.834391713779255930e-10
3.786936902630772560e-10
2.940985719783361145e-10
2.255544269884350736e-10
1.702721002326015802e-10
1.262037089981781119e-10
9.167972554583189366e-11
6.521339329986561319e-11
4.541693614221177822e-11
3.098987862136334369e-11
2.074712819505451900e-11
1.365458163141859065e-11
8.854263571776493633e-12
