# bin_4_1
1.962410744655940799e-08
1.663927700208646045e-08
1.379475955976171133e-08
1.123572099308068304e-08
9.026135491881253131e-09
7.152571195157617086e-09
5.569601337755024427e-09
4.255844544374541793e-09
3.217846693481950560e-09
2.436297604191883765e-09
1.850658670218120049e-09
1.410980762151591171e-09
1.086057592030800253e-09
8.442680864338740314e-10
6.621895092290586263e-10
5.226155386347182215e-10
4.133799124200042382e-10
3.262080348539506519e-10
2.556415998515620787e-10
1.981263293213048533e-10
1.513099130206613306e-10
1.135438273391071983e-10
8.354610372031296578e-11
6.020097425410117575e-11
4.246289154908198291e-11
2.933062326404607604e-11
1.986277750187062743e-11
1.321062163959225425e-11
8.647554055830184394e-12
5.583874941594863654e-12
3.564682663164056431e-12
