# bin_4_3
3.515225095139720976e-08
3.117711897765187948e-08
2.691603891744874812e-08
2.265614938579529965e-08
1.866519326686692566e-08
1.512482884387996591e-08
1.209576288144207237e-08
9.536699299330107516e-09
7.378101441023365719e-09
5.598891270394118433e-09
4.213893257454982244e-09
3.182654984740158315e-09
2.405951444326306137e-09
1.824552644919727464e-09
1.397522338135218327e-09
1.079347199067424725e-09
8.406315521189366689e-10
6.583186980986103390e-10
5.164746109173596748e-10
4.041852141960630716e-10
3.141669870315041154e-10
2.415841393447584870e-10
1.831542716247518864e-10
1.365282578634511524e-10
9.986509367177134507e-11
7.158830227881825754e-11
5.026856084952462248e-11
3.458563080240788235e-11
2.333830852416576462e-11
1.547083065120522053e-11
1.009488612638512343e-11
