# bin_13_9
8.132920979134960051e-08
7.747596814600002652e-08
7.201509562696814999e-08
6.519003189505173146e-08
5.740613145616380685e-08
4.919243937730011835e-08
4.112103852900775711e-08
3.368669548801880800e-08
2.717723067670586092e-08
2.163762634497413077e-08
1.694317612428938094e-08
1.297509566861069220e-08
9.740704391641140802e-09
7.272635879056163008e-09
5.439791491507995037e-09
4.047978923523910655e-09
3.023433014113039935e-09
2.273173364357648260e-09
1.721184340234434715e-09
1.312465368250459000e-09
1.006417723423082964e-09
7.737857451753020514e-10
5.944075359466213549e-10
4.545341990173702568e-10
3.447490014436859387e-10
2.585311175114288444e-10
1.911957882396179331e-10
1.391668747941018806e-10
9.956151251333963857e-11
6.995543260684843833e-11
4.826808523008947493e-11
