# bin_11_5
2.413774439321525481e-12
2.726775262502693498e-12
3.028840346684886738e-12
3.294895539119839636e-12
3.491775551815163184e-12
3.579978286324033189e-12
3.528308040885054515e-12
3.291336239733770384e-12
2.901656077474602622e-12
2.422568887177929888e-12
1.982653160717959374e-12
1.676766886487846933e-12
1.448305428563913223e-12
1.128445374919559976e-12
7.811165033684816115e-13
6.234513197247082425e-13
4.400489518844576156e-13
3.208538230726000335e-13
2.182259782257118102e-13
1.546227162837963505e-13
1.074088616484722555e-13
7.447946011495679755e-14
5.201266950913929404e-14
3.667247771553267309e-14
2.630391976211067635e-14
1.923764962890310212e-14
1.434278255650883242e-14
1.088290899305170699e-14
8.359484370097424231e-15
6.456316223257262539e-15
4.976261802598521822e-15
