# bin_10_6
6.232045325451650499e-09
7.031787395236598315e-09
7.799545557393115575e-09
8.469708629665190379e-09
8.956102904109784641e-09
9.158539734467957692e-09
8.994011875652820269e-09
8.353820019631843512e-09
7.334068029549080066e-09
6.104958361876975084e-09
4.999131037786869548e-09
4.242502733455746507e-09
3.655676930371437294e-09
2.813949866678537549e-09
1.951868289324848396e-09
1.569960573948568864e-09
1.089210906451916219e-09
8.049370957237354711e-10
5.462061567987862915e-10
3.850326046646044586e-10
2.683399435513393498e-10
1.868229412704325025e-10
1.309217116002311627e-10
9.269225731974111722e-11
6.681976173009934129e-11
4.911735938101101719e-11
3.679241984976050129e-11
2.802150176273461022e-11
2.157462473598329722e-11
1.667560430780643606e-11
1.284316354549029208e-11
