# bin_12_5
4.456319343114510026e-14
5.047745725683814147e-14
5.625365297783020530e-14
6.144212152980345639e-14
6.544103451916299322e-14
6.750667264053286647e-14
6.706804204474093169e-14
6.319697366239983204e-14
5.625086913473561390e-14
4.733123704230848792e-14
3.873388128441544181e-14
3.249046067996064657e-14
2.814203118866157052e-14
2.253797456865808887e-14
1.565097286589203668e-14
1.216830124054922223e-14
8.974801402947809473e-15
6.303064825332169044e-15
4.378673916054781872e-15
3.115822061471436448e-15
2.147291122407929308e-15
1.475278474142981179e-15
1.021437678887067454e-15
7.133266042090551379e-16
5.054814623383130126e-16
3.650719408590158632e-16
2.689021137360031968e-16
2.019620333466833850e-16
1.540429973110093508e-16
1.185884724682091019e-16
9.146080643130712034e-17
