# bin_15_7
6.447414036592460535e-14
7.358160789930434275e-14
8.279388311320833801e-14
9.149705085032903771e-14
9.888168427259944687e-14
1.039059392269626549e-13
1.054730773122405107e-13
1.024473956536037771e-13
9.394592839770448497e-14
8.142385191113717535e-14
6.725569666990228427e-14
5.527549021883764813e-14
4.739630936296632580e-14
4.036658730906729499e-14
2.990409220045109507e-14
2.108353972431708575e-14
1.710173814371582875e-14
1.133575798853518370e-14
8.538714938560396848e-15
5.784887587992842482e-15
3.941977023434162334e-15
2.699449121070123615e-15
1.834598259162425938e-15
1.245994191383021072e-15
8.498591069823937800e-16
5.878135846617364693e-16
4.134073221052172573e-16
2.967579723910617449e-16
2.178101276133839738e-16
1.631557658896664534e-16
1.241284284978154119e-16
