# bin_15_3
4.474137374193589994e-27
5.096741879265805098e-27
5.721184987448659107e-27
6.304333151389046911e-27
6.788850872008255059e-27
7.101725320011446023e-27
7.172460368380842416e-27
6.914455999875738217e-27
6.291165387557898686e-27
5.408683826584135621e-27
4.451500746983178131e-27
3.673081339609965891e-27
3.164868931340321720e-27
2.663571946132476281e-27
1.931086874110518529e-27
1.391610785336103508e-27
1.114531479185347885e-27
7.376973913084257595e-28
5.510888391561135449e-28
3.786061107999173524e-28
2.577398004794326738e-28
1.763442929104191874e-28
1.200705261231479544e-28
8.206884383445712433e-29
5.650955871274900661e-29
3.953199432918025975e-29
2.816081496455704089e-29
2.048787602565603552e-29
1.522484383834782271e-29
1.151836127724089046e-29
8.819036680999252871e-30
