# bin_8_7
2.844632954114284383e-06
3.198129877734154149e-06
3.531974818815500606e-06
3.815040302670010451e-06
4.007291402357664416e-06
4.066690475896886584e-06
3.949692721362903454e-06
3.622903303368511305e-06
3.141103276109675846e-06
2.595528119951710134e-06
2.132967654916003804e-06
1.826963877375176493e-06
1.555565115068933619e-06
1.156108059606184999e-06
8.166620295635341533e-07
6.609151394975867128e-07
4.435802320605324156e-07
3.343656442890485343e-07
2.293443855494493741e-07
1.596693833849266170e-07
1.119606527983920810e-07
7.858933849636565975e-08
5.562435384619847986e-08
3.987890217246826728e-08
2.915630776655663322e-08
2.172839955368550509e-08
1.647558192006725822e-08
1.266118746936308653e-08
9.796014765600336251e-09
7.575584513777478304e-09
5.814225607428899087e-09
