# bin_15_12
6.652267590700022745e-07
7.619930228309093176e-07
8.613404992808361749e-07
9.571703300744345754e-07
1.041498291684837517e-06
1.103770205796893407e-06
1.131394900749013880e-06
1.114565752300410985e-06
1.038798493178295192e-06
9.149918032780446449e-07
7.631810539286990368e-07
6.245992011523668091e-07
5.289563286429396312e-07
4.569731831836704131e-07
3.544890968162522956e-07
2.447635463144110876e-07
1.961779752461944540e-07
1.368641914833032141e-07
1.000678499532542286e-07
6.692992539893382754e-08
4.671567801960635384e-08
3.179592594588280547e-08
2.142827289351495463e-08
1.439481766404744235e-08
9.658932265054637263e-09
6.534656603257243698e-09
4.476792298166929831e-09
3.120012598906781005e-09
2.222507046274790768e-09
1.620497196076708074e-09
1.207471345143159180e-09
