# bin_12_10
1.490023564953768266e-06
1.697342766063850567e-06
1.905258619479175136e-06
2.099404911088422503e-06
2.260683016479939905e-06
2.364776609490476927e-06
2.388225871494659825e-06
2.302142614176662432e-06
2.094416259604524468e-06
1.800433744529730976e-06
1.481703631156268555e-06
1.222625130160403529e-06
1.053569130308736942e-06
8.866320697706020742e-07
6.425657577277688852e-07
4.631344890691317291e-07
3.709822052126994050e-07
2.454359064856133901e-07
1.834017809524182317e-07
1.260207791343260380e-07
8.577785224047712184e-08
5.868806791974339432e-08
3.995762601719302125e-08
2.731275492530715483e-08
1.880843569963717905e-08
1.315937393415869370e-08
9.375530086759533159e-09
6.822099142882347386e-09
5.070420347309138516e-09
3.836588698297749446e-09
2.937829369429563287e-09
