# bin_8_3
3.943694108824991718e-12
4.388070084009946425e-12
4.785210759961819312e-12
5.088170268729002286e-12
5.239685384555692640e-12
5.194627871183572462e-12
4.883660910842439847e-12
4.337940779609559319e-12
3.644989137279967239e-12
2.983105004437929545e-12
2.504894023827428410e-12
2.166306103100617112e-12
1.726747107188372018e-12
1.203155747181987368e-12
9.389495424398570741e-13
6.909130499952263188e-13
4.913896826252379598e-13
3.454944637197129283e-13
2.485237065892549250e-13
1.752246113492068050e-13
1.240918895780850073e-13
8.901748650091119456e-14
6.479650650381969614e-14
4.803664402656178089e-14
3.628324109511519468e-14
2.782612250931196713e-14
2.156768001080050710e-14
1.678156790763931702e-14
1.301418052731016367e-14
9.991792550568804343e-15
7.552828083582585428e-15
