# bin_12_8
2.724354469281775064e-08
3.096297784567897832e-08
3.465253002446011625e-08
3.804533483296338073e-08
4.078396037817568366e-08
4.241767372901422681e-08
4.255856693833927880e-08
4.063884298852095364e-08
3.663014947540544294e-08
3.119107124992536669e-08
2.558488064599866563e-08
2.124189273915728075e-08
1.837861788537890533e-08
1.518916262791923506e-08
1.076023674499774297e-08
8.005944241811032988e-09
6.230008108666505581e-09
4.189470635462060655e-09
3.049250043125465718e-09
2.133594278702002980e-09
1.457820460345259624e-09
9.965474032665158026e-10
6.821638190549895848e-10
4.703751216680382001e-10
3.278357815528934569e-10
2.325411692498901017e-10
1.681535609727532551e-10
1.241723660353837930e-10
9.346745329344602973e-11
7.137703420191985111e-11
5.491996441837916631e-11
