# bin_5_5
5.198231952182654523e-06
5.736129835336088205e-06
6.191705252536072265e-06
6.500228846236151796e-06
6.594165986922349817e-06
6.403058148642647241e-06
5.874869216131114346e-06
5.095437336187800197e-06
4.213068016403047468e-06
3.462601306080771337e-06
2.961235870597880759e-06
2.518302137241081790e-06
1.879778516189685596e-06
1.333191731842063585e-06
1.073774653227987868e-06
7.334384895999412669e-07
5.516275146679347179e-07
3.842370269867855120e-07
2.731722866565601035e-07
1.955262862282191891e-07
1.409242133687054781e-07
1.029573990717300106e-07
7.644161069794575700e-08
5.784824425612101298e-08
4.447258664909174776e-08
3.456111066494785903e-08
2.698575345170078846e-08
2.101744507279293460e-08
1.621872370310131927e-08
1.232837075647916132e-08
9.188770607785921979e-09
