# bin_9_4
2.131991578184347632e-11
2.388444686754633840e-11
2.626436340905688466e-11
2.821857982941731310e-11
2.944164827744274803e-11
2.965102895285555362e-11
2.847794794763406096e-11
2.582090106092870638e-11
2.212319942264170944e-11
1.818609402563385341e-11
1.503435200371805770e-11
1.296382954117761818e-11
1.084110453375502512e-11
7.814536449577958468e-12
5.698501658840737302e-12
4.525664584478289580e-12
3.036844984571906106e-12
2.263693843730271276e-12
1.584838278732977605e-12
1.102579015908295496e-12
7.743687445144115618e-13
5.466702175323776752e-13
3.907139865773681144e-13
2.835628139394884022e-13
2.099327083704643406e-13
1.582701914025597723e-13
1.211575198278747186e-13
9.368547566803287590e-14
7.265869641533499941e-14
5.611272341192791982e-14
4.286781485339059223e-14
