# bin_13_2
2.395666490275224386e-27
2.715336593844108346e-27
3.028453408514787898e-27
3.310992311274064845e-27
3.530760461277899974e-27
3.647769948448759674e-27
3.630906055837736639e-27
3.429844958570491842e-27
3.060045260251254729e-27
2.580306224954570678e-27
2.112199701111736184e-27
1.768209377361261898e-27
1.531713034172217693e-27
1.234487406801240311e-27
8.596373441297204373e-28
6.630611411204309306e-28
4.943138007324763865e-28
3.439907578692147946e-28
2.409685959958091750e-28
1.711547084544490589e-28
1.177425373956260735e-28
8.076819543232998856e-29
5.579706456455572460e-29
3.887347979722435090e-29
2.746207402143845225e-29
1.976895346182827526e-29
1.451374342932650503e-29
1.086913797550174959e-29
8.272349835514677360e-30
6.360726473721726148e-30
4.904777020502372757e-30
