# bin_12_8
2.436236895753353039e-13
2.768206423265053119e-13
3.097211336859812846e-13
3.399351022929622903e-13
3.642644690554425598e-13
3.786820559369729585e-13
3.797398460413289862e-13
3.623746045102853207e-13
3.263796615508568727e-13
2.778533589777133338e-13
2.277224646620335526e-13
1.890655133210891984e-13
1.635798027964711219e-13
1.350550252042820951e-13
9.556934153769471365e-14
7.118485936019060311e-14
5.531130878890635408e-14
3.722097938721138944e-14
2.705182521564717133e-14
1.894023047262523170e-14
1.294241209861715447e-14
8.846466234271350722e-15
6.057145548820956892e-15
4.178028859207000710e-15
2.913329516750209441e-15
2.067648762664794037e-15
1.496065406657394110e-15
1.105421180062396244e-15
8.324875297308371047e-16
6.359436421036316815e-16
4.893818580994759490e-16
