# bin_6_6
6.552674138859031486e-11
7.293355270690991737e-11
7.956665266538576089e-11
8.464879760291201541e-11
8.722884395321985747e-11
8.655700867690287306e-11
8.147542322361506988e-11
7.245267670836011081e-11
6.094252672061500789e-11
4.986100652953514839e-11
4.180817457946076469e-11
3.615753149113691582e-11
2.892498003088784920e-11
2.017682758687312431e-11
1.567215472395787998e-11
1.160198148226881555e-11
8.206237870503627503e-12
5.792756114576417435e-12
4.162737789523342774e-12
2.931122800854392488e-12
2.073463870754607938e-12
1.485404002059822097e-12
1.079775631874137632e-12
7.992729160984540225e-13
6.028793320122469037e-13
4.618331269657154092e-13
3.576788773931397405e-13
2.782041011305242726e-13
2.157577482183901292e-13
1.657183983437951728e-13
1.253555614655258975e-13
