# bin_5_5
7.968188685791238167e-11
8.789663128059883295e-11
9.483849726282766720e-11
9.951516748969829398e-11
1.008957884826188194e-10
9.790256812345550623e-11
8.975358158706350253e-11
7.781273762755765552e-11
6.427133827681615831e-11
5.281912568837536677e-11
4.517919417502050206e-11
3.839228516989888805e-11
2.861221653416706217e-11
2.030631638662695992e-11
1.635144863035759286e-11
1.115795054550371563e-11
8.393913660591009135e-12
5.849216988434074591e-12
4.157024432512414460e-12
2.975967509187107789e-12
2.145520646590412711e-12
1.568073255505776620e-12
1.164723651293942512e-12
8.817761648498060662e-13
6.781122647953381694e-13
5.270913243230496909e-13
4.115827290742500939e-13
3.205251665834431641e-13
2.472867041435943307e-13
1.879074863701697762e-13
1.399950160293721797e-13
