# bin_7_5
7.974970873482497176e-12
8.881284442236684619e-12
9.695518199752232386e-12
1.032341152109772740e-11
1.064901444797145569e-11
1.058081915884922833e-11
9.976332197551091225e-12
8.885481726435786429e-12
7.484381420166476393e-12
6.123853917372628001e-12
5.128033194103965384e-12
4.436138156201371296e-12
3.563897038016875294e-12
2.488926423465555259e-12
1.924258761321011773e-12
1.434047834002348263e-12
1.008612902295635558e-12
7.147580603660747241e-13
5.133541193297938159e-13
3.610161731648433400e-13
2.550852874218219228e-13
1.824968882806521832e-13
1.324791331681676818e-13
9.791246817361640186e-14
7.375050288055264350e-14
5.643214515083510652e-14
4.367268180917529323e-14
3.395928544438773634e-14
2.634125010411911946e-14
2.024367834366358475e-14
1.532675184525718727e-14
