# bin_14_12
1.240846326144203124e-11
1.419488055704184804e-11
1.602023783227576511e-11
1.776875798021366927e-11
1.928934523606957134e-11
2.038409956800616905e-11
2.082398919070485953e-11
2.041994666802394135e-11
1.892713820570546398e-11
1.658578032069979235e-11
1.377595504865853213e-11
1.128121312084020113e-11
9.592817678468510262e-12
8.260248613610860017e-12
6.311118474056749751e-12
4.370757511079389217e-12
3.532778419574022053e-12
2.410403397818191028e-12
1.790358602228200465e-12
1.196602668501491696e-12
8.267066201653199477e-13
5.644872086533093064e-13
3.820500410736633358e-13
2.574883946409272159e-13
1.735952570176032121e-13
1.182554654993089372e-13
8.169952797338824249e-14
5.749932587392528767e-14
4.138384385224370665e-14
3.046959274129581691e-14
2.288574561766445736e-14
