# bin_15_15
3.596075152913937768e-11
4.128352142282453901e-11
4.678809271846379729e-11
5.215966674440320608e-11
5.697822025090953524e-11
6.068196284794754971e-11
6.257476601619564877e-11
6.213719789916419157e-11
5.849291467676060838e-11
5.200605803519958115e-11
4.370546707580883228e-11
3.574531909273832528e-11
3.000898532045450347e-11
2.600042084097456416e-11
2.075480975938180370e-11
1.435025476851064541e-11
1.120361801856383321e-11
8.195179983334827159e-12
5.754289098441412795e-12
3.932804954426850912e-12
2.776599935972642975e-12
1.877775750600603880e-12
1.253957792930894475e-12
8.369091635485074030e-13
5.569837197897117478e-13
3.719953269195739466e-13
2.507792187445806857e-13
1.714052454896740501e-13
1.194887915453136697e-13
8.525389828859252685e-14
6.231216101675925274e-14
