# bin_12_1
4.913521751778209393e-35
5.548602759269067427e-35
6.160546122138600578e-35
6.698167188951686960e-35
7.093916985179035190e-35
7.267781182110924056e-35
7.156215883777352831e-35
6.668339876596489360e-35
5.873206052661738468e-35
4.898375851598725843e-35
4.008367469033326236e-35
3.391405776591673577e-35
2.927360058384050485e-35
2.275237939366662724e-35
1.575469724516629052e-35
1.258712507363226549e-35
8.856517003754406026e-36
6.470328880351197593e-36
4.400981091640414005e-36
3.114308506002543477e-36
2.164312297882704118e-36
1.501709742993177672e-36
1.049293017773472120e-36
7.403606201808027316e-37
5.315012688271632224e-37
3.890702854095536583e-37
2.903172451368337921e-37
2.204264816914971494e-37
1.693783693157178997e-37
1.308241229434386123e-37
1.008095229435827717e-37
