# bin_14_10
5.648741521889039443e-13
6.450915458910941221e-13
7.264819236580071459e-13
8.036903255074533614e-13
8.696922598698565551e-13
9.154042461548950955e-13
9.309313195272873504e-13
9.068565570016375417e-13
8.342206572980107032e-13
7.256407018708711319e-13
5.999440625662469372e-13
4.923046041719071918e-13
4.210467804191688856e-13
3.600410225904171046e-13
2.692519128329647658e-13
1.884070903048231828e-13
1.530356155347078296e-13
1.020089784061746540e-13
7.674257133704281044e-14
5.170207439938493659e-14
3.531531746696842666e-14
2.417925824046923842e-14
1.642093938631649986e-14
1.112414784538390184e-14
7.558187655371427549e-15
5.202444820396863404e-15
3.638599484186385915e-15
2.596253577691484625e-15
1.894569319120372821e-15
1.412222093092200167e-15
1.070711225649188126e-15
