# bin_14_6
7.165076287328205463e-17
8.176932806599775813e-17
9.200431572399424432e-17
1.016732845381795107e-16
1.098780035081282203e-16
1.154623150066567623e-16
1.172045146557583691e-16
1.138595048533050833e-16
1.044314709333836590e-16
9.057114956348648101e-17
7.477217433707681421e-17
6.143324722219716084e-17
5.264512292765676183e-17
4.484245082887686819e-17
3.326410504558536040e-17
2.343701195339238411e-17
1.898898939158098881e-17
1.261654722811806111e-17
9.485883174258260331e-18
6.422106918090565728e-18
4.380596150349654016e-18
2.998866489780944136e-18
2.037549747570967966e-18
1.383341373932008302e-18
9.430622786154672588e-19
6.518415892098877966e-19
4.580961809182748399e-19
3.285668037070041972e-19
2.409587021147921775e-19
1.803598664631945116e-19
1.371337298183499955e-19
