# bin_12_6
6.873393753815102882e-15
7.811629595373146554e-15
8.742482448829493287e-15
9.598601012051103858e-15
1.028995666994222331e-14
1.070310002289869297e-14
1.073965339272413340e-14
1.025813197332110653e-14
9.248030732310360190e-15
7.881043763471420357e-15
6.461653217545522207e-15
5.361587212177303556e-15
4.636337099137221691e-15
3.834432728090905896e-15
2.720906033532188005e-15
2.019763461961037682e-15
1.573724758575401408e-15
1.057721898747956664e-15
7.707354989540049509e-16
5.384362518827225668e-16
3.678026262058234949e-16
2.514717447029541336e-16
1.721002285162316309e-16
1.186015469168542351e-16
8.259726960790233195e-17
5.853792234785394041e-17
4.229118348435405013e-17
3.120115086307567249e-17
2.346662664530509240e-17
1.790876971598998340e-17
1.377369769752314226e-17
