# bin_11_1
1.097388987850509191e-23
1.241340794981081728e-23
1.381112247658970694e-23
1.505478098421326109e-23
1.599510004572305443e-23
1.645079371635826204e-23
1.628136171327483588e-23
1.526893859604740185e-23
1.352972238379721169e-23
1.134170555184500103e-23
9.278788992056849114e-24
7.809524651813674549e-24
6.754826109268378374e-24
5.343747753830937288e-24
3.705337060421370266e-24
2.913132864971085573e-24
2.107699759268899633e-24
1.504195716921175788e-24
1.035484440492120007e-24
7.352282401231254311e-25
5.083524033586907204e-25
3.506582509016463252e-25
2.436771520807648275e-25
1.708794248476168540e-25
1.217315651352903077e-25
8.840628480846884296e-26
6.546928925760629392e-26
4.939560381589762001e-26
3.779364681705981332e-26
2.913559021261375795e-26
2.246230637539148894e-26
