# bin_10_7
5.248758701364278112e-12
5.927655375861297333e-12
6.582177824614029051e-12
7.157670767094998168e-12
7.582070072906719158e-12
7.770438995639778304e-12
7.653574907785517299e-12
7.136129903430977311e-12
6.288797071857928947e-12
5.249504101895515213e-12
4.297281358506533178e-12
3.633500082573619503e-12
3.133908463831170535e-12
2.440444123801760632e-12
1.694661756777144448e-12
1.347356920435473056e-12
9.532195591016974855e-13
6.925313070556486987e-13
4.739645884648466649e-13
3.349815722425702068e-13
2.325803871005175823e-13
1.612359112947257174e-13
1.125755536579032020e-13
7.938173280949037742e-14
5.693604370952895760e-14
4.163781040419691313e-14
3.103820666060343179e-14
2.354339933606262803e-14
1.807628404792928628e-14
1.395334035541639272e-14
1.074839518698075810e-14
