# bin_10_3
1.167732095899165366e-16
1.310407989334831395e-16
1.443958420041517392e-16
1.555408587664057946e-16
1.628201578031722594e-16
1.645961395085166136e-16
1.589910119678633856e-16
1.450378521887315383e-16
1.251123212634679282e-16
1.030989728308164642e-16
8.495959841495566420e-17
7.294281949413052547e-17
6.153869678997883767e-17
4.516913578112734213e-17
3.239728989201996861e-17
2.590380710967410259e-17
1.746961251703003314e-17
1.304438319553617931e-17
9.034513008419935152e-18
6.297151376053612662e-18
4.416697735941776545e-18
3.107546481447509388e-18
2.208915022484118380e-18
1.592256548291886436e-18
1.170530815929456778e-18
8.767403467667545366e-19
6.675099856203275112e-19
5.142621996219575293e-19
3.981859309064007416e-19
3.076309777681920539e-19
2.355326733833308244e-19
