# bin_12_7
1.039937852095011864e-13
1.182582829945011274e-13
1.324498821922456950e-13
1.455538503453322768e-13
1.562157886942919477e-13
1.627248382353560954e-13
1.635546819721953895e-13
1.565940937888228694e-13
1.415007132334449642e-13
1.208697743032141725e-13
9.916654132289950529e-14
8.214830651244593516e-14
7.098076275559717086e-14
5.898930714665390111e-14
4.207568625918679115e-14
3.098271635809309063e-14
2.433517790415299998e-14
1.627011770736825808e-14
1.194445874417069603e-14
8.307841068705435398e-15
5.668553207432314152e-15
3.875600653209090093e-15
2.648085315912589852e-15
1.820836806372823872e-15
1.264266518389648306e-15
8.929722196117863509e-16
6.428110087302533350e-16
4.725872475286761355e-16
3.543943128910812830e-16
2.699085593516514377e-16
2.073899898623727433e-16
