# bin_12_4
4.514833816921627584e-18
5.126332117767806555e-18
5.730353029522633831e-18
6.282335110787821140e-18
6.722625498590254553e-18
6.976367622940837226e-18
6.981321375091290754e-18
6.643251498544988152e-18
5.967604829036882479e-18
5.067064467278491250e-18
4.150929253797707333e-18
3.453705692309734802e-18
2.989138124931140897e-18
2.452097887662104142e-18
1.727459083338995052e-18
1.298728092222593282e-18
9.981082192504909256e-19
6.775912040631830152e-19
4.875034167654709244e-19
3.427403978313258001e-19
2.346081285070666872e-19
1.604854152140357729e-19
1.101467511885204935e-19
7.617792634985777624e-20
5.330395317631358875e-20
3.797636305849623777e-20
2.758789680414132257e-20
2.046040645867926232e-20
1.545428564981741141e-20
1.182749347981984432e-20
9.107018577203737395e-21
