# bin_14_2
6.568187758622505127e-25
7.490564965903554704e-25
8.420647982951282686e-25
9.295575970758593243e-25
1.003235689382528430e-24
1.052463348473754062e-24
1.066343662040586152e-24
1.033025403281341311e-24
9.446768885831005500e-25
8.168518135289970726e-25
6.733844490354564764e-25
5.539918301795423191e-25
4.756648510897230285e-25
4.035064856350009579e-25
2.968797027300406936e-25
2.107147156765262735e-25
1.701674633042981070e-25
1.127821119006216126e-25
8.468492548273369187e-26
5.761571387359027754e-26
3.925415090265731949e-26
2.686956813648346575e-26
1.826887337602618319e-26
1.243167781166657568e-26
8.504345360384493352e-27
5.903138125227993841e-27
4.168649365086258234e-27
3.005364891325492998e-27
2.214730086477802954e-27
1.664369394993966474e-27
1.268854274669323835e-27
