# bin_7_4
3.292690678607704786e-12
3.652350620499301239e-12
3.967853930642394994e-12
4.199383212178866172e-12
4.300805181959303309e-12
4.232407809992389539e-12
3.944713324193894683e-12
3.475303984823083417e-12
2.902695051254618228e-12
2.377632463266133679e-12
2.008755664726814169e-12
1.728205907052334320e-12
1.347352372839557587e-12
9.429121335970972065e-13
7.450451992830118174e-13
5.335275417040897677e-13
3.875288444730682948e-13
2.711118424166232702e-13
1.940612782437641465e-13
1.375507356321803610e-13
9.802165570152280146e-14
7.074356473458574670e-14
5.183282169384072403e-14
3.869480741735935380e-14
2.940512346013126194e-14
2.265540980191222832e-14
1.760539873384855920e-14
1.370318623365009570e-14
1.060833021092657168e-14
8.116088234222949163e-15
6.104888495324904948e-15
