# bin_6_4
2.466674315410994317e-10
2.718746700457973021e-10
2.930502886264897391e-10
3.071103723996520235e-10
3.109194078661376376e-10
3.010641862164976375e-10
2.753887297171085688e-10
2.382209518111304317e-10
1.965467189235169760e-10
1.616795779885644927e-10
1.384831777292824056e-10
1.173299914453119315e-10
8.693800948726118952e-11
6.200326192849234442e-11
4.984058467449215789e-11
3.394148314601812003e-11
2.553948748300300354e-11
1.784596499353323978e-11
1.267391424770513208e-11
9.080059511368345136e-12
6.554716517210766295e-12
4.798400515204863765e-12
3.570674998111788424e-12
2.707916372977822863e-12
2.085359443311930917e-12
1.622447028509909817e-12
1.267377283306816545e-12
9.868124929666754477e-13
7.608221781272969899e-13
5.775092035339002310e-13
4.296485667911305124e-13
