# bin_10_9
2.626351790916790376e-09
2.973038629822598504e-09
3.310734142564246704e-09
3.612786449144574888e-09
3.843630721903545863e-09
3.959627004772475392e-09
3.927277542004794130e-09
3.692918630788525222e-09
3.280429353765173753e-09
2.755677795168001976e-09
2.254239456681624700e-09
1.893187138812250772e-09
1.638861627084787930e-09
1.305911337105411381e-09
9.060070421707224200e-10
7.076034037718304401e-10
5.178217276969112435e-10
3.659907973920920459e-10
2.532315945642161122e-10
1.800661876707287645e-10
1.242440942793248569e-10
8.549066249413820861e-11
5.927590356126291376e-11
4.146353070332775157e-11
2.944415353269004927e-11
2.131292922525725852e-11
1.573296491384080853e-11
1.183845128393409329e-11
9.041216382794523365e-12
6.964316126971399743e-12
5.370389623052367186e-12
