# bin_3_8
2.648209896487238459e-07
2.832809329122887614e-07
2.942174037911731885e-07
2.947673082184691339e-07
2.816293389953332180e-07
2.544637240373108743e-07
2.177127850103739034e-07
1.793543961215667903e-07
1.487891646137908670e-07
1.273995527465703982e-07
1.050960423210626079e-07
7.696224481707354700e-08
5.687174585577395281e-08
4.407784826791568466e-08
3.110578154502931926e-08
2.294781855450367978e-08
1.647105396453064726e-08
1.193683792596136385e-08
8.734943595434151967e-09
6.481164976781567868e-09
4.892226434430463516e-09
3.755919255196566737e-09
2.926841766809941182e-09
2.301540624664551883e-09
1.814131284823319243e-09
1.423528310831015695e-09
1.104588424147326635e-09
8.427268122584316854e-10
6.292374404628129927e-10
4.582845009138570751e-10
3.250618419628108161e-10
