# bin_5_6
4.901369313920974852e-08
5.391510689548610786e-08
5.797224781065470252e-08
6.056771996792967184e-08
6.110319802129426754e-08
5.887653393808510308e-08
5.359703666050332042e-08
4.614531250573430979e-08
3.801516302810332461e-08
3.136422203662590988e-08
2.691201931562933042e-08
2.259890532464776606e-08
1.658318556067557884e-08
1.199180508332274665e-08
9.527260414720678403e-09
6.527868034375865090e-09
4.872137022987269364e-09
3.429416431861976892e-09
2.438660812097890530e-09
1.749147500299593374e-09
1.266037087819649064e-09
9.300207482972443572e-10
6.947314344713009159e-10
5.286564411625466971e-10
4.081708739995786272e-10
3.180566994726573341e-10
2.485342346169340176e-10
1.933581475086214565e-10
1.488071987105534961e-10
1.126579313802420576e-10
8.354069881840790223e-11
