# bin_5_10
1.488364817759102058e-07
1.641295229512507572e-07
1.770268328703521219e-07
1.856747416324805739e-07
1.881696688828371195e-07
1.824875702427627276e-07
1.673041804341369614e-07
1.450567282415928473e-07
1.199550535158538362e-07
9.869975019333980656e-08
8.431918582324983532e-08
7.142517159299203430e-08
5.338568889228157852e-08
3.810430842519125018e-08
3.034649827396872298e-08
2.099267559191099808e-08
1.559780174263615755e-08
1.092657375930150846e-08
7.785384854555833861e-09
5.565839624079525582e-09
4.009707361502222059e-09
2.929701820377066319e-09
2.175685569675290535e-09
1.646325556110804705e-09
1.265356712433570829e-09
9.829343353590598851e-10
7.670274171697823765e-10
5.969725088516142689e-10
4.603288051014131736e-10
3.496525584943708705e-10
2.604258541251719657e-10
