# bin_10_6
1.075714028109054024e-12
1.212799259552771654e-12
1.343949524869953386e-12
1.457757025065229270e-12
1.539308841672775170e-12
1.571530685482630949e-12
1.539899770194804629e-12
1.426596693766131748e-12
1.249539296368272956e-12
1.037888995954655202e-12
8.500617626073860800e-13
7.225704805770921007e-13
6.215118581240687620e-13
4.752012021864043815e-13
3.301801338086735901e-13
2.663442202911152474e-13
1.832401385050541694e-13
1.361957634563828696e-13
9.244380765579787767e-14
6.496921370585876206e-14
4.534538818784480928e-14
3.162802703116197028e-14
2.220393222673668425e-14
1.575540111338291658e-14
1.138759540140887238e-14
8.392755492444492542e-15
6.301866791399400366e-15
4.808399228119518834e-15
3.706107934931867822e-15
2.865201916839954702e-15
2.205449609726340646e-15
