# bin_14_15
1.269226017035284661e-08
1.452905965839705675e-08
1.641036191050490982e-08
1.821890779952205797e-08
1.980135579181903222e-08
2.095596367740638133e-08
2.144568842352137590e-08
2.108057097807301116e-08
1.959728188626586923e-08
1.722108878189175676e-08
1.433445604643702883e-08
1.173394790064354253e-08
9.953186087627740085e-09
8.583824380458138851e-09
6.615006637391701641e-09
4.575037851159635347e-09
3.677096655839174461e-09
2.542744545339671101e-09
1.869508549943920093e-09
1.251461300500282080e-09
8.696534488512538075e-10
5.925825409250054506e-10
3.999648945176921000e-10
2.690510748694601955e-10
1.809107341586571666e-10
1.227592125640372007e-10
8.441049516943059444e-11
5.908155517592540970e-11
4.227699631614726630e-11
3.095687185180885437e-11
2.314633784011201511e-11
