# bin_7_15
1.302944380737559391e-07
1.459143561368972133e-07
1.603846958560945539e-07
1.722314446501063613e-07
1.795910584267366367e-07
1.807378738987908717e-07
1.734718153790916044e-07
1.572239795500443582e-07
1.347474832608199077e-07
1.107612036632722763e-07
9.160996158216838027e-08
7.888996246794996400e-08
6.581654279011079060e-08
4.757516975474376950e-08
3.474656383982572560e-08
2.741580975931509944e-08
1.856054690987541426e-08
1.374035006247775405e-08
9.612172798741629130e-09
6.702973809903999361e-09
4.708705939265192379e-09
3.326178304615079756e-09
2.377436936441637366e-09
1.725374633904518266e-09
1.277104020652329711e-09
9.625325649212513047e-10
7.364985806916101278e-10
5.691760430124626807e-10
4.411496730818149174e-10
3.404734130853610978e-10
2.599577802908720502e-10
