# bin_5_4
3.545642812563910908e-09
3.877904922473250195e-09
4.140128981685575979e-09
4.286825441683092233e-09
4.279264260074726173e-09
4.062688037026523630e-09
3.643377295241234748e-09
3.090729307377393432e-09
2.533143794501877472e-09
2.108979253172783236e-09
1.819778899695997225e-09
1.486408984121881363e-09
1.056194668811333983e-09
7.966931522087255094e-10
6.120407457029420112e-10
4.253538676794964835e-10
3.111974890924362573e-10
2.235067357131028366e-10
1.593645872699851324e-10
1.148975381054493327e-10
8.394940471733611631e-11
6.236592778657057588e-11
4.715909602468250420e-11
3.627216750139687732e-11
2.823355371675122682e-11
2.210805660455342355e-11
1.729608658824051659e-11
1.342504541624515374e-11
1.027600946651794142e-11
7.717770484634376171e-12
5.665446691523023972e-12
