# bin_13_15
2.220596459644462793e-08
2.537766818654077959e-08
2.860522938367836403e-08
3.167963883654632884e-08
3.432717288092628458e-08
3.619197148517853802e-08
3.687681671831801334e-08
3.602400733550561228e-08
3.324747008266783233e-08
2.901287987773944431e-08
2.403745665376570294e-08
1.970905933760864539e-08
1.681282402782752698e-08
1.441669955175227493e-08
1.088474499615992747e-08
7.586544459403729916e-09
6.142790606372840383e-09
4.142536068571418669e-09
3.094786967293970616e-09
2.078906676719496306e-09
1.428048057990076727e-09
9.763049678414298416e-10
6.618752115244295109e-10
4.473771415555300868e-10
3.029532717701445506e-10
2.075915596379402538e-10
1.444221292238833201e-10
1.024414199540084376e-10
7.431236739167985839e-11
5.509931568108991921e-11
4.160482793702953069e-11
