# bin_10_7
3.466113888592589149e-11
3.913581971125570567e-11
4.344482032835069262e-11
4.722654290477453101e-11
5.000409613811929165e-11
5.121381055330906594e-11
5.040678180132284319e-11
4.694613405808056537e-11
4.132812068652720389e-11
3.445466601998253806e-11
2.819535400891415398e-11
2.386566554780403044e-11
2.059606926484379111e-11
1.598469551393698415e-11
1.106827215007761895e-11
8.853745788428686240e-12
6.215683560073581655e-12
4.549534222015066978e-12
3.091907851698920603e-12
2.187157841688792242e-12
1.520613082034546966e-12
1.055599674755614456e-12
7.379081665832213741e-13
5.209137227592736207e-13
3.741927961117438718e-13
2.740895677099493741e-13
2.046421318930029653e-13
1.554522578899322134e-13
1.194899465364344536e-13
9.230372785361319549e-14
7.112294459356447031e-14
