# bin_6_9
8.504628601566411199e-08
9.458284111770028333e-08
1.030836332834335334e-07
1.095361591223287398e-07
1.127242238449705005e-07
1.116406650284630361e-07
1.048735335702047427e-07
9.308992842432773133e-08
7.822690404194334982e-08
6.405230961916961573e-08
5.378970495694625746e-08
4.641728191809686573e-08
3.692798292061029125e-08
2.587146552077229686e-08
2.010390345174279913e-08
1.479699636163803723e-08
1.051691086537834771e-08
7.440275194055771753e-09
5.323162190147119537e-09
3.753100642158826992e-09
2.660596528341261484e-09
1.908593470785416132e-09
1.389334268600263574e-09
1.029881388765008337e-09
7.777457396542895556e-10
5.962750373780888833e-10
4.619419284108535127e-10
3.592206160316581358e-10
2.783991171593835034e-10
2.136092328769033137e-10
1.613715962457947008e-10
