# bin_7_1
8.628543489961020009e-21
9.485671452937651912e-21
1.019171987425979642e-20
1.063747747320452056e-20
1.071960651309847465e-20
1.031037789653283125e-20
9.364837677127092301e-21
8.043762664731567745e-21
6.615169601461948879e-21
5.460265422632157247e-21
4.695723613038303486e-21
3.937080846938019651e-21
2.865138389523550397e-21
2.079737505193944189e-21
1.656818231587487233e-21
1.125765085946847000e-21
8.443213455981776655e-22
5.960052675328957619e-22
4.228126686896425734e-22
3.035279598378313940e-22
2.199789884560725794e-22
1.618769025567817231e-22
1.211626595634108600e-22
9.237954585774730091e-23
7.144253700374456591e-23
5.573747650262268963e-23
4.358349761520401170e-23
3.391124579302757465e-23
2.608695311716991376e-23
1.973243406595946406e-23
1.461364375654963376e-23
