# bin_8_3
3.750554902693414387e-12
4.172183153855241146e-12
4.548466908926609379e-12
4.834691751709814710e-12
4.976442273788742474e-12
4.930835090106140372e-12
4.632273620273825299e-12
4.111779542712489344e-12
3.452905902965178481e-12
2.825800159848968156e-12
2.374185665945001591e-12
2.053001245210991548e-12
1.633343016846916421e-12
1.137521222297435224e-12
8.895454816430898160e-13
6.526168551903724494e-13
4.653265556508450000e-13
3.266118116479559507e-13
2.349895632822052832e-13
1.657754180543975568e-13
1.174619287801925912e-13
8.431130233351960069e-14
6.140806886369114738e-14
4.555551377091810974e-14
3.443022189832469851e-14
2.641803769705711579e-14
2.048290194334532524e-14
1.593941472131995435e-14
1.236013847476320446e-14
9.487271972182555348e-15
7.168666983519313149e-15
