# bin_13_7
3.600874682776504810e-11
4.094763604491858621e-11
4.586088198219689128e-11
5.039718809191007401e-11
5.408747629640344894e-11
5.633931643142676508e-11
5.662496945619912262e-11
5.421000000369783281e-11
4.897737089214982280e-11
4.182884181838336810e-11
3.431200478010711038e-11
2.842313952214325352e-11
2.456634642497382969e-11
2.041686078264737236e-11
1.454895614668232319e-11
1.071792987816348044e-11
8.421330198250815662e-12
5.624707532690138975e-12
4.131520385124390162e-12
2.874940813470302175e-12
1.961307292110764814e-12
1.340653339394710766e-12
9.158518921829548606e-13
6.298027004563387882e-13
4.373721893995165600e-13
3.089933581218102644e-13
2.224899426757550050e-13
1.636220051892331907e-13
1.227395010610413225e-13
9.350782900560571198e-14
7.186825731953021017e-14
