# bin_8_2
1.962089444046492386e-15
2.177282847332757180e-15
2.366467782886733122e-15
2.505909103530413952e-15
2.567650767207186745e-15
2.528774884482105496e-15
2.357924862148257745e-15
2.077997360676861515e-15
1.735202367593737622e-15
1.420426670350037401e-15
1.200540528017668555e-15
1.035360618083207641e-15
8.074163390597943370e-16
5.617867596728931017e-16
4.470334005807628179e-16
3.184879715003347972e-16
2.327063938298268537e-16
1.614444372491579907e-16
1.159429020049404896e-16
8.225733227780309360e-17
5.863069919283213568e-17
4.233052236357861092e-17
3.102001462329269448e-17
2.316631266083531928e-17
1.761254311694325805e-17
1.357681055804934075e-17
1.055683008192351001e-17
8.221927595561139228e-18
6.368656098001526623e-18
4.874853385046577729e-18
3.668338867822788691e-18
