# bin_14_12
1.807463417885876416e-06
2.067887114777219840e-06
2.334089927841122151e-06
2.589227729576879649e-06
2.811318423871075661e-06
2.971549182982501203e-06
3.036479072249542218e-06
2.978681068423214822e-06
2.762152436633071409e-06
2.421494368270850143e-06
2.011864357394272601e-06
1.647386224150375768e-06
1.400329512262778283e-06
1.206179604202201916e-06
9.227345144066213635e-07
6.387961649189415818e-07
5.160124724246035810e-07
3.526936628187672590e-07
2.616563361879858056e-07
1.748530830895948512e-07
1.209055917541637879e-07
8.253449948394731133e-08
5.584187488830995885e-08
3.762461130390167654e-08
2.535530400563931245e-08
1.726209698953442864e-08
1.191737438397768227e-08
8.380437878710616224e-09
6.026500663381244959e-09
4.433622639599495704e-09
3.328000769863030060e-09
