# bin_8_7
2.855315014233471125e-06
3.209456057426990246e-06
3.543572519074957114e-06
3.826353330236039512e-06
4.017571513686469995e-06
4.075284474220829937e-06
3.955406049094873290e-06
3.625527501671147801e-06
3.141066741908136460e-06
2.594525762619168761e-06
2.132758459368604508e-06
1.827677549220823257e-06
1.554767837752272229e-06
1.153202400920489180e-06
8.158789306538029280e-07
6.600228118392645793e-07
4.425281456119565555e-07
3.336508455711128328e-07
2.291030299113421332e-07
1.594372432677724544e-07
1.118194590883959623e-07
7.851776034544673560e-08
5.560619282630531989e-08
3.989566806981411856e-08
2.919183379123626715e-08
2.177131305814740964e-08
1.651878193257949990e-08
1.270007254671593617e-08
9.828178210114097115e-09
7.600224352801736612e-09
5.831700340694630191e-09
