# bin_13_6
2.429105586523466045e-13
2.759765457282676395e-13
3.087281746830503748e-13
3.387802050557826428e-13
3.629402022679984081e-13
3.771899483149426726e-13
3.781096441777313261e-13
3.606397156442762805e-13
3.246634355183737999e-13
2.762588044965726316e-13
2.263894457366827423e-13
1.880267600454177493e-13
1.627010620538943475e-13
1.341871155361829032e-13
9.486161427790682271e-14
7.077769288388969130e-14
5.489509137584343048e-14
3.698966321496166160e-14
2.683687767290681791e-14
1.880685227638939260e-14
1.285481227640889523e-14
8.786909361214824444e-15
6.018695394005705320e-15
4.153475097219971232e-15
2.898020951893393111e-15
2.058217362153532119e-15
1.490332641752636746e-15
1.101955702731135306e-15
8.303531054643484827e-16
6.345554850334983129e-16
4.883908669228871857e-16
