# bin_6_5
2.831354479917575810e-06
3.139048125024821786e-06
3.408018509525959535e-06
3.603847334046797814e-06
3.686643384148557538e-06
3.622685024290770262e-06
3.368952317682836870e-06
2.961328077409061454e-06
2.468364882205068619e-06
2.021354439241064558e-06
1.711957371575998846e-06
1.474030910376702753e-06
1.141261832917555870e-06
7.952429417303224418e-07
6.354560150788618354e-07
4.486545704047684498e-07
3.301261145877755289e-07
2.287192617099648237e-07
1.639825046552354860e-07
1.165470724059757591e-07
8.324028885764578906e-08
6.021737171758837795e-08
4.422216915090014524e-08
3.310064071397167878e-08
2.521445877253161223e-08
1.946557131011818681e-08
1.514839578247718937e-08
1.179953206592235197e-08
9.135126752044577339e-09
6.984942864524527399e-09
5.248205003740041795e-09
