# bin_10_1
3.596304341652107732e-25
4.028156786569264703e-25
4.428541481583077942e-25
4.756730277650611315e-25
4.961153441103771369e-25
4.994411528918327443e-25
4.794106758513850305e-25
4.344468726053407832e-25
3.720334332690716178e-25
3.057785426242440742e-25
2.528835837462159744e-25
2.180917439308437252e-25
1.821724890930935015e-25
1.311704065216926828e-25
9.582922293073754874e-26
7.596392574652633449e-26
5.104285267586447194e-26
3.798486179369894621e-26
2.661959717005552747e-26
1.852586273216155530e-26
1.301219092354197259e-26
9.189569963232666030e-27
6.571073343845366706e-27
4.771708371450604164e-27
3.534629366512553966e-27
2.666083269167262494e-27
2.041668804563138136e-27
1.579045801966889490e-27
1.224674804773314607e-27
9.456563491820060594e-28
7.222433441766550320e-28
