# bin_4_3
3.235866276693921863e-06
3.498563300569409549e-06
3.681763452908162928e-06
3.746586567016075760e-06
3.655236338713915430e-06
3.373441294979406243e-06
2.943428409542308701e-06
2.443649754004106471e-06
2.005554912720912957e-06
1.705788432619807260e-06
1.456538392275818368e-06
1.108577652219213500e-06
7.838094517589529516e-07
6.264845387667439444e-07
4.401685112831381287e-07
3.276147725312384239e-07
2.311932118555665879e-07
1.673345313510021967e-07
1.214004616721594681e-07
8.898508439615074431e-08
6.628929440124875825e-08
5.022878373440616550e-08
3.872643329086466989e-08
3.024311911163772792e-08
2.377431339347583359e-08
1.868717080450595590e-08
1.458369064768557834e-08
1.122904954258537061e-08
8.485114590147459678e-09
6.266015067749232453e-09
4.509572513487053888e-09
