# bin_10_3
1.922779987666130467e-16
2.158210189390932756e-16
2.378839190123265891e-16
2.563325821581397750e-16
2.684439191330872876e-16
2.714994065757130083e-16
2.624044648424070568e-16
2.394331981511490071e-16
2.065872059599935113e-16
1.701484659132560058e-16
1.400970499040807383e-16
1.203600540754424095e-16
1.017686308425975309e-16
7.460548446482950719e-17
5.331938627699336814e-17
4.293311152308196662e-17
2.869310876712041272e-17
2.160064110678321242e-17
1.493515693706792013e-17
1.037969924300804953e-17
7.284988014825972636e-18
5.125190085924329626e-18
3.642279385062877765e-18
2.624830118983321106e-18
1.929536995316398434e-18
1.445339138768299926e-18
1.100655486274410167e-18
8.482899242625821206e-19
6.571483920250801430e-19
5.079870706325733119e-19
3.891487712568204407e-19
