# bin_14_8
1.149138143734433523e-10
1.310093289356682401e-10
1.472159727060989076e-10
1.624314227744774025e-10
1.751981574735230724e-10
1.836526189827662607e-10
1.859122538971108324e-10
1.798644854802237216e-10
1.642365747663015601e-10
1.418000922891694358e-10
1.167961723614715561e-10
9.613925602297063815e-11
8.263816465484417364e-11
6.998098322459443108e-11
5.125897558443635367e-11
3.649373081735304392e-11
2.946591717597136420e-11
1.946579502477381787e-11
1.463175530105355422e-11
9.978632473538155851e-12
6.789341899610052715e-12
4.647759940941086235e-12
3.160736417453983950e-12
2.153190758686129167e-12
1.475456396206459841e-12
1.026328019559505279e-12
7.265165359130343439e-13
5.251338274218902124e-13
3.879414869741037306e-13
2.921483012918796647e-13
2.230550986103932774e-13
