# bin_9_8
2.957516533599403500e-06
3.340114833217960978e-06
3.708927886742056250e-06
4.033183568196382352e-06
4.272240823125197299e-06
4.377829671939953723e-06
4.311884278498553530e-06
4.019239256250761230e-06
3.541085010714485748e-06
2.953901367251040432e-06
2.416980569632481653e-06
2.044455724052350426e-06
1.765225623977513227e-06
1.373213504165397269e-06
9.504284729571504966e-07
7.591808640879159948e-07
5.347141427336275095e-07
3.903957626982424854e-07
2.654131369791662086e-07
1.879358787923162107e-07
1.305800711091568859e-07
9.057837837426565050e-08
6.327540824108458226e-08
4.463210789625797905e-08
3.202963179572777893e-08
2.343795753861661176e-08
1.748329644380340258e-08
1.327115744274834241e-08
1.019637189645444106e-08
7.875371742784048163e-09
6.069169148260638294e-09
