# bin_8_8
4.392562898224068985e-06
4.949028762141453134e-06
5.479813264653013566e-06
5.937990992647627926e-06
6.262468641513272989e-06
6.384484988470524043e-06
6.243273993181359924e-06
5.770298406370494735e-06
5.042629949754283598e-06
4.182175918389165530e-06
3.427189094689711845e-06
2.918464577989401638e-06
2.505477129632812731e-06
1.903005144213881172e-06
1.325737700505577905e-06
1.071890226020211871e-06
7.318676012178599788e-07
5.467724722778424626e-07
3.715784821240849222e-07
2.604078079669536216e-07
1.820125899765338770e-07
1.271772780180329647e-07
8.944983884590052202e-08
6.361963466167472138e-08
4.610643136392661835e-08
3.407093341821686274e-08
2.564389548230671189e-08
1.960189770054581140e-08
1.512392161387115229e-08
1.169466595205450494e-08
8.996578931305132558e-09
