# bin_5_3
3.852094108524695986e-07
4.201517294073629056e-07
4.470297939261911840e-07
4.608887213746394555e-07
4.576675538078553562e-07
4.314488323133492116e-07
3.842895929971119499e-07
3.238856369028487879e-07
2.651373838034439834e-07
2.218847369750522097e-07
1.915732667956174151e-07
1.539953927906605648e-07
1.083245577885910951e-07
8.347092288358328093e-08
6.260865941651452423e-08
4.429584695730655095e-08
3.189448077059334739e-08
2.308221769012066702e-08
1.652536348236255965e-08
1.195131817790395721e-08
8.774150800338056917e-09
6.551866114509503198e-09
4.980883336100014906e-09
3.847992367206499894e-09
3.004596303032441856e-09
2.356510831976536430e-09
1.843509174385369776e-09
1.428685702493756017e-09
1.090420517803826049e-09
8.157008734367807975e-10
5.958757341801379083e-10
