# bin_5_4
2.959915371984677695e-06
3.247194961731719839e-06
3.479932358523456816e-06
3.620359073773623751e-06
3.634581789998400074e-06
3.477321110434683189e-06
3.141772168550382505e-06
2.684391033253192607e-06
2.203743764936112975e-06
1.825010939918180829e-06
1.572668788296226543e-06
1.305577834088633633e-06
9.392806546446449800e-07
6.926262359712187007e-07
5.446609039253723790e-07
3.725015505065596812e-07
2.768787874500351385e-07
1.970330412476687327e-07
1.399734763748339283e-07
1.006295774545217268e-07
7.316296593334819548e-08
5.405153756616162077e-08
4.063155215379954974e-08
3.109624454342327921e-08
2.411733470744847288e-08
1.884788092689850849e-08
1.474370737865952162e-08
1.146188827914035234e-08
8.800109781006387612e-09
6.637526031101172845e-09
4.898042487831306867e-09
