# bin_10_9
3.089015945474200930e-06
3.502204739153034758e-06
3.907494036887409560e-06
4.274020148809455072e-06
4.560428029415416639e-06
4.715207751384731717e-06
4.698067919349042957e-06
4.443881183207500158e-06
3.969319262019164167e-06
3.351250888417181237e-06
2.742328091980322822e-06
2.292170988918772033e-06
1.985567897200702345e-06
1.606506296392600579e-06
1.120190944381852469e-06
8.595446237067492239e-07
6.451396265364148863e-07
4.461709177239418766e-07
3.141572535357218064e-07
2.229010802122425719e-07
1.531404560984269688e-07
1.049277439413281679e-07
7.237818976301924193e-08
5.034660032059237424e-08
3.549539543884392992e-08
2.549740285034579473e-08
1.867972249163499550e-08
1.396260830550305219e-08
1.061178829946900432e-08
8.153110031253036470e-09
6.286067593297780716e-09
