# bin_8_2
1.967835936235532868e-15
2.183371537029459396e-15
2.372735190879048665e-15
2.512137766989329158e-15
2.573552071993097113e-15
2.534160982883835621e-15
2.362499998280416969e-15
2.081838867539298022e-15
1.737677694218091215e-15
1.422003142071465571e-15
1.201543761739037268e-15
1.036141575863285418e-15
8.080352662909202621e-16
5.620300735308504668e-16
4.471005692255225964e-16
3.185795298941164541e-16
2.326680828432780907e-16
1.614126679164361780e-16
1.159120524986912988e-16
8.221868751128671125e-17
5.859218677089248037e-17
4.229560968055702554e-17
3.098948053537194148e-17
2.313952711734228305e-17
1.758947625963851663e-17
1.355718465379181043e-17
1.054032051197791230e-17
8.208282566447816860e-18
6.357604333097467431e-18
4.866118902321997624e-18
3.661625637620477794e-18
