# bin_6_2
8.312877726791701475e-11
9.093420095332991870e-11
9.710290251767561982e-11
1.005649221172654121e-10
1.004204442635668706e-10
9.536434179143608257e-11
8.553671045028260053e-11
7.256029953263225035e-11
5.945124777410495773e-11
4.948250070979451562e-11
4.272513806917150076e-11
3.493279077468621610e-11
2.477917996218141128e-11
1.869713200862654328e-11
1.438409400088675805e-11
9.978012019152278333e-12
7.300617980719631311e-12
5.250494982845421400e-12
3.742011139567813779e-12
2.696656911919204278e-12
1.969902584696511023e-12
1.463342448980273010e-12
1.106506488987591122e-12
8.510857323151881226e-13
6.625161678023216267e-13
5.188407656646097297e-13
4.059753050360208871e-13
3.151692588568545344e-13
2.412863743895229894e-13
1.812508355783042538e-13
1.330733023403338111e-13
