# bin_7_7
4.513358994725786077e-06
5.057618752230564824e-06
5.563454467280606209e-06
5.980023876662501870e-06
6.242876924749125806e-06
6.291439548700967531e-06
6.049075724546677453e-06
5.490160093873935079e-06
4.711385215528006197e-06
3.871816630540200670e-06
3.197360410021038859e-06
2.754789309791684792e-06
2.308776406605749674e-06
1.669523094699480851e-06
1.211980082702659950e-06
9.655264736667977908e-07
6.469371440834341855e-07
4.833779288235934074e-07
3.374978647223529055e-07
2.346935253085170813e-07
1.648074685879061977e-07
1.162614831768401271e-07
8.299722847139685579e-08
6.015020681611277592e-08
4.446926683736737301e-08
3.348380801399677172e-08
2.560639404830964501e-08
1.978779021529333623e-08
1.534326201566585578e-08
1.185139345562397805e-08
9.058644528053740566e-09
