# bin_3_14
-1.991204237446863911e-32
-2.262503743023191502e-32
-2.531369288949141365e-32
-2.778262524269160037e-32
-2.977042767220579624e-32
-3.094794873473359883e-32
-3.103337083487012408e-32
-2.961333184982418605e-32
-2.667144574716500353e-32
-2.270583554533391245e-32
-1.860981445603815091e-32
-1.545136428595671184e-32
-1.336767181570005069e-32
-1.103521365291964678e-32
-7.810109833412483454e-33
-5.817614297277567437e-33
-4.519228181408519494e-33
-3.042235626737104950e-33
-2.210525583010558498e-33
-1.547581175953656748e-33
-1.057560519372900564e-33
-7.229319937278269491e-34
-4.950273425861232085e-34
-3.414615743292393118e-34
-2.381046100831226282e-34
-1.689901405921210152e-34
-1.222753489767094075e-34
-9.034706716048058296e-35
-6.803853664888611603e-35
-5.197317069917575545e-35
-3.999314702228615645e-35
