# bin_15_14
-2.877847054536165638e-11
-3.293551892098314833e-11
-3.718968694898384567e-11
-4.127414125696730472e-11
-4.484022318660212006e-11
-4.742992409606972509e-11
-4.850800519494145560e-11
-4.764108761959595146e-11
-4.424257722081964678e-11
-3.883954740319226664e-11
-3.230454389779258798e-11
-2.644756295381651778e-11
-2.245323727018022799e-11
-1.935350177730088940e-11
-1.486953383077408028e-11
-1.028855428202480456e-11
-8.285727001621269114e-12
-5.703474178145246154e-12
-4.208100709692242261e-12
-2.814729672988883084e-12
-1.952552889280809036e-12
-1.331346154719018114e-12
-8.993995051726451163e-13
-6.054245885784555874e-13
-4.074703794256067588e-13
-2.768755315390470396e-13
-1.907022097693486366e-13
-1.337397539776167723e-13
-9.589837650268376706e-14
-7.035883728098903963e-14
-5.269320898031400486e-14
