# bin_12_7
-3.661999534167811601e-10
-4.097664696243400237e-10
-4.499558193598454994e-10
-4.825968098881917800e-10
-5.024363905870472073e-10
-5.047298287516100662e-10
-4.832026978163564845e-10
-4.368250987414198510e-10
-3.734236987422694793e-10
-3.066845573892631650e-10
-2.540601232360913566e-10
-2.190008062181623013e-10
-1.818297117160966686e-10
-1.306909449677218480e-10
-9.617849799131911090e-11
-7.540412786673383400e-11
-5.120177173228325666e-11
-3.773503300066763081e-11
-2.650205745966933666e-11
-1.849175446227538814e-11
-1.299894481429121104e-11
-9.197545115544209364e-12
-6.588674764897954952e-12
-4.794401142198025703e-12
-3.558176977104314320e-12
-2.688084674148460236e-12
-2.060642080326259967e-12
-1.594236755093231157e-12
-1.235990126907302130e-12
-9.534498610321785679e-13
-7.271411545124236485e-13
