# bin_8_1
-3.309903362224297344e-09
-3.215294221774958109e-09
-2.972819097536956196e-09
-2.610733474682014827e-09
-2.198401043204014887e-09
-1.822175220461248126e-09
-1.527339537523975498e-09
-1.273016612984959625e-09
-9.996794090862202603e-10
-7.418072127838206465e-10
-5.588417111539660402e-10
-4.191185578499745663e-10
-3.061778842177375275e-10
-2.260692184585995835e-10
-1.671656333887225257e-10
-1.252603205409153935e-10
-9.536555774351145202e-11
-7.389977474405609234e-11
-5.817796865095288780e-11
-4.631558220937692316e-11
-3.704877323275130526e-11
-2.956133389696529753e-11
-2.336458874697751596e-11
-1.818047540799576556e-11
-1.385683874763369500e-11
-1.030745853868832386e-11
-7.468289853335715066e-12
-5.269431491878824506e-12
-3.625461631948739129e-12
-2.438271130524755177e-12
-1.607798372112072715e-12
