# bin_14_9
-2.372406956554075048e-10
-2.681780645124046999e-10
-2.981305167971204518e-10
-3.246522123642334945e-10
-3.445042717339097845e-10
-3.538090133518082991e-10
-3.494709857392889269e-10
-3.269786905714413874e-10
-2.891042954494309241e-10
-2.419718075121434561e-10
-1.980335265452679407e-10
-1.669778671728015111e-10
-1.442221053178509108e-10
-1.133790961165774543e-10
-7.873617603307368624e-11
-6.212030241532564811e-11
-4.456896579646477715e-11
-3.201536219519789450e-11
-2.202417957602321769e-11
-1.559314762186794028e-11
-1.079885727791246531e-11
-7.464744840214747320e-12
-5.196680637786084929e-12
-3.652104167943124028e-12
-2.608608500157041604e-12
-1.899613596467584041e-12
-1.410339795000758386e-12
-1.066238122903939511e-12
-8.168275460887211681e-13
-6.299349238330859886e-13
-4.854153512218722927e-13
