# bin_2_4
-6.896550446998078949e-13
-7.346057639836409356e-13
-7.588119906105709014e-13
-7.553346756942453031e-13
-7.149055645880305463e-13
-6.394443740141781728e-13
-5.414382551786539533e-13
-4.439156401274863524e-13
-3.702022050146756688e-13
-3.187487951420723607e-13
-2.587188206898512811e-13
-1.845773581051675438e-13
-1.400015642461660325e-13
-1.069196394520470062e-13
-7.542770074205464266e-14
-5.538246227297122234e-14
-4.015823737759893579e-14
-2.911715622483507747e-14
-2.140147715016606759e-14
-1.598230263820857943e-14
-1.214866917025634233e-14
-9.391667030879286023e-15
-7.360174342142662824e-15
-5.809723602732615958e-15
-4.587339944575202465e-15
-3.598186946559914023e-15
-2.785269308474027585e-15
-2.116001298688279949e-15
-1.570801077376439541e-15
-1.135962235444435572e-15
-7.994779001668700250e-16
