# bin_2_13
-9.535100991731448455e-35
-1.080318465709873529e-34
-1.204320542165960429e-34
-1.315926321921802064e-34
-1.402303187959375919e-34
-1.447556297920489446e-34
-1.439422426943780285e-34
-1.357991900723537698e-34
-1.210021603902433746e-34
-1.019276048245993271e-34
-8.338970124660998422e-35
-6.984739982797596095e-35
-6.049563775290736387e-35
-4.862294751558569185e-35
-3.381195177696711882e-35
-2.615780470867184690e-35
-1.941526534999854026e-35
-1.355679789382042513e-35
-9.464496225924499064e-36
-6.726759730313286503e-36
-4.630056986574955990e-36
-3.177753814168014637e-36
-2.197055392013676354e-36
-1.532066304826800068e-36
-1.083608215237059005e-36
-7.810574903602060606e-37
-5.741754747813866301e-37
-4.304883898080194319e-37
-3.279179236188587325e-37
-2.522554383989519907e-37
-1.945210055051621309e-37
