# bin_14_13
-3.652674182250890455e-11
-4.172462587826722260e-11
-4.700400658499523956e-11
-5.201953402716277042e-11
-5.631844067117022937e-11
-5.931405371788095388e-11
-6.036200364562752042e-11
-5.886042935197638800e-11
-5.421202468313371153e-11
-4.721208705260928201e-11
-3.906622264418443181e-11
-3.204959678850820113e-11
-2.738300671983225030e-11
-2.343602925212345566e-11
-1.759045871029957216e-11
-1.229518645277483129e-11
-9.968446156513097558e-12
-6.679971062266592560e-12
-5.008280617880645591e-12
-3.370549077024104782e-12
-2.308329468142113951e-12
-1.579314419191746545e-12
-1.071783214482050097e-12
-7.254737866928353032e-13
-4.923172724037594615e-13
-3.383062512464727353e-13
-2.361473439093610503e-13
-1.681278980772469752e-13
-1.224161308699022646e-13
-9.106640958785275362e-14
-6.893548147930892654e-14
