# bin_9_15
-6.978723037540952653e-17
-7.970203570221838600e-17
-8.976416687819197018e-17
-9.931234547703087237e-17
-1.074793124076063168e-16
-1.131431459371007388e-16
-1.150791164261295903e-16
-1.121273284616968760e-16
-1.031717297268424209e-16
-8.976500174067093084e-17
-7.422654716505719631e-17
-6.090463564810315207e-17
-5.207945537991318685e-17
-4.454464804980558134e-17
-3.333565644051206171e-17
-2.331734813922266807e-17
-1.893782799157005024e-17
-1.263215845640639152e-17
-9.500131425996956979e-18
-6.398237163780788974e-18
-4.371797943309451217e-18
-2.993030858150126671e-18
-2.032495887274707328e-18
-1.376650646390877676e-18
-9.351062410646429851e-19
-6.434314242721334785e-19
-4.498375572808684827e-19
-3.208318490345850451e-19
-2.340197806247674400e-19
-1.743734380354293280e-19
-1.321684300489191227e-19
