# bin_2_11
-6.799045441404679945e-30
-7.650798341982529065e-30
-8.458630331588017266e-30
-9.148932992513161025e-30
-9.626577901626063523e-30
-9.788286459799133769e-30
-9.535124574027242210e-30
-8.774674661395681360e-30
-7.635642642052460666e-30
-6.316457372234714046e-30
-5.182793247787924883e-30
-4.427573577020951794e-30
-3.784834023601241895e-30
-2.840114379241277968e-30
-1.991755767563446048e-30
-1.613130123831078053e-30
-1.089320009122760085e-30
-8.189870582447594484e-31
-5.590023899043159142e-31
-3.900770509070307812e-31
-2.731986470474924952e-31
-1.914054341280322543e-31
-1.350881955718319335e-31
-9.649908674248113661e-32
-7.027678862579135487e-32
-5.217835803149411666e-32
-3.943713841691716956e-32
-3.023765762932265457e-32
-2.336824726064003087e-32
-1.807204815070435568e-32
-1.388532776342544221e-32
