# bin_12_15
-3.599173771498405889e-13
-4.118585042750999969e-13
-4.649925003519046147e-13
-5.159742149702562344e-13
-5.604371813558754546e-13
-5.926496214542365756e-13
-6.059238371439542831e-13
-5.948376896504160422e-13
-5.520958626674142825e-13
-4.844211126136995757e-13
-4.027268512830647087e-13
-3.297168600976807887e-13
-2.800616365163723476e-13
-2.413676950211396069e-13
-1.851288482877583285e-13
-1.280818835132283015e-13
-1.033147631685506948e-13
-7.088760797375044800e-14
-5.244601808154499093e-14
-3.504533671346748053e-14
-2.427797452422429367e-14
-1.656302772922972789e-14
-1.119775375456728799e-14
-7.540346138490219082e-15
-5.077212488934330826e-15
-3.452460108464653506e-15
-2.380046910441514656e-15
-1.670877540133637470e-15
-1.199456687800691467e-15
-8.809848246504542425e-16
-6.604150106467376558e-16
