# bin_3_15
-1.528966061508361387e-34
-1.741126139189253670e-34
-1.953608678719151984e-34
-2.151636181203928278e-34
-2.315575890240371609e-34
-2.420479203473039023e-34
-2.442492589720747230e-34
-2.351962450693085513e-34
-2.137284350768893115e-34
-1.836253530446003213e-34
-1.509397788862654720e-34
-1.245742392211328537e-34
-1.073765110294269117e-34
-9.021241712412641556e-35
-6.523113236814434060e-35
-4.712839708614710309e-35
-3.766005691079740330e-35
-2.493904466064057929e-35
-1.859559506240218959e-35
-1.279454805875810939e-35
-8.710379201296963577e-36
-5.958373113070179232e-36
-4.058176604319934382e-36
-2.775848868955613206e-36
-1.913462039866655525e-36
-1.340355556386916113e-36
-9.562315865313701932e-37
-6.967513147335560243e-37
-5.184757909381145822e-37
-3.926630851239500048e-37
-3.008253789889636769e-37
