# bin_9_1
-3.415654309048854230e-09
-3.319095831405501538e-09
-3.069909637803918449e-09
-2.696915008613464276e-09
-2.271462042574696355e-09
-1.882706377502327323e-09
-1.577935401560105663e-09
-1.315499846868069012e-09
-1.033585160416147218e-09
-7.670472757217018631e-10
-5.777474641075191380e-10
-4.334049612518445322e-10
-3.165977038321182568e-10
-2.337526248902375308e-10
-1.728265673825580842e-10
-1.294822384838480947e-10
-9.856110232954214798e-11
-7.636146829305644519e-11
-6.010618830828641084e-11
-4.784521808255556593e-11
-3.827045986751745546e-11
-3.053661876853203174e-11
-2.413729919896657201e-11
-1.878419278641015496e-11
-1.431945832331712396e-11
-1.065372097593007425e-11
-7.720818361358353911e-12
-5.448747090411005001e-12
-3.749553214584950889e-12
-2.522149874409385813e-12
-1.663340959353836927e-12
