# bin_6_15
-1.126172637244931322e-23
-1.283842324205690026e-23
-1.442561054270761827e-23
-1.591522141408887890e-23
-1.716433455791298955e-23
-1.799026627760319151e-23
-1.820893925561213613e-23
-1.761277528842708760e-23
-1.607891425002418261e-23
-1.387925464316365002e-23
-1.143087236614494583e-23
-9.410341105160375610e-24
-8.089829374462051807e-24
-6.848237266318808876e-24
-5.013231495264493928e-24
-3.571624466886897546e-24
-2.882331559148152061e-24
-1.904453752498540175e-24
-1.430919665278883544e-24
-9.762553641978422339e-25
-6.642718799773804266e-25
-4.547179862618070111e-25
-3.092531019976150253e-25
-2.107114914566069843e-25
-1.444273483550823891e-25
-1.004956887120478047e-25
-7.116419053414313808e-26
-5.145724928932128471e-26
-3.802668547670952106e-26
-2.864434867493172879e-26
-2.187336419320582664e-26
