# bin_5_13
-5.867931083517770545e-23
-6.658575339665532530e-23
-7.437214583390774440e-23
-8.145666149435147434e-23
-8.705945371962949282e-23
-9.020419553922171436e-23
-9.010401698628371781e-23
-8.552030595534857906e-23
-7.663252457974748113e-23
-6.490294995966023402e-23
-5.313534950441423953e-23
-4.429441271302615668e-23
-3.836161079834802576e-23
-3.129341083556028380e-23
-2.192835721791531330e-23
-1.663630130503889596e-23
-1.266255219026681695e-23
-8.656648712191340048e-24
-6.170551972094208073e-24
-4.359545028039838393e-24
-2.988482228706565618e-24
-2.044721565690169023e-24
-1.406221941280660944e-24
-9.749877437966658705e-25
-6.844758397976601198e-25
-4.894261357051682788e-25
-3.568874835428878752e-25
-2.656293000580196222e-25
-2.012190123546157860e-25
-1.542939659482462919e-25
-1.188998750084750175e-25
