# bin_8_15
-9.406351252514170766e-19
-1.073576950330972272e-18
-1.208111695379261862e-18
-1.335283867124846947e-18
-1.443313310988659224e-18
-1.517030113652965830e-18
-1.540319201399993555e-18
-1.496939034283802624e-18
-1.373468631397923633e-18
-1.191610203346969909e-18
-9.838251348489062326e-19
-8.080934396908612389e-19
-6.923951545357366664e-19
-5.902388475326030669e-19
-4.381890997127464053e-19
-3.082485365132368393e-19
-2.501619260149725130e-19
-1.659690921631523786e-19
-1.250002702837794924e-19
-8.455397577220822399e-20
-5.763373039179840190e-20
-3.946675818025409783e-20
-2.681706233601223401e-20
-1.820112724236711725e-20
-1.240236421086363854e-20
-8.568022336154819903e-21
-6.017865019089682373e-21
-4.313707988158821564e-21
-3.161865101251212659e-21
-2.365806148918849848e-21
-1.798502403094268201e-21
