# bin_6_5
-2.076871466408810072e-10
-2.279736524117106454e-10
-2.444883277162798592e-10
-2.545967870129003130e-10
-2.558623621827592901e-10
-2.452171289862219606e-10
-2.220102071360198877e-10
-1.901200358165850874e-10
-1.563070899034545434e-10
-1.293581048068523879e-10
-1.112456928319877451e-10
-9.253926456590062295e-11
-6.710209944846392711e-11
-4.921918634024577266e-11
-3.870528618861804080e-11
-2.659380784335319152e-11
-1.974638043070199503e-11
-1.399354958757548109e-11
-9.954582962806099511e-12
-7.153898092312369740e-12
-5.195585531407551778e-12
-3.832158441531756265e-12
-2.875373727204638104e-12
-2.196719122781302328e-12
-1.701249749432461913e-12
-1.328158113169411853e-12
-1.038392682547233179e-12
-8.072416562196458929e-13
-6.200591915275618107e-13
-4.680882522728449135e-13
-3.458476347605553591e-13
