# bin_2_15
-3.446100744488971733e-39
-3.923914905173993395e-39
-4.402243015960660362e-39
-4.847757722409689754e-39
-5.216166398302545554e-39
-5.451206946756093424e-39
-5.499334720397717658e-39
-5.293479568999385159e-39
-4.808488268604837560e-39
-4.129620899289127637e-39
-3.394083636138764747e-39
-2.801888539903408418e-39
-2.415518076539686576e-39
-2.027974954736516611e-39
-1.465014110134274749e-39
-1.059781759072502118e-39
-8.459399784903902544e-40
-5.605064705942949707e-40
-4.175327285973486013e-40
-2.874877002525373440e-40
-1.957460682081780140e-40
-1.338937724655508209e-40
-9.121081501705433366e-41
-6.241089599817219771e-41
-4.304211971630286541e-41
-3.016723073927262136e-41
-2.153492337717963773e-41
-1.570092282983783680e-41
-1.168988115489285818e-41
-8.856772516362234240e-42
-6.786794763520707701e-42
