# bin_4_14
-2.176582739544655679e-28
-2.474040797418490674e-28
-2.769341076421783237e-28
-3.041183310241352579e-28
-3.261092842573472583e-28
-3.393165432510282605e-28
-3.406107025283940056e-28
-3.255062541439207761e-28
-2.935851311245353450e-28
-2.502960007701343160e-28
-2.052191498563523460e-28
-1.702091057927105647e-28
-1.471954109658210449e-28
-1.218900184375813761e-28
-8.652906036307288058e-29
-6.412982678480914097e-29
-5.008069627118964689e-29
-3.358814323093766572e-29
-2.452834181769673846e-29
-1.712547603440862946e-29
-1.169370133380981498e-29
-7.993102933289401321e-30
-5.467251053069850819e-30
-3.765934559287225168e-30
-2.621133891229305368e-30
-1.856427055951296978e-30
-1.340292451966535953e-30
-9.882264164703997269e-31
-7.429152369149331388e-31
-5.668273024621147294e-31
-4.359486258830848121e-31
