# bin_11_9
-1.188410890596069987e-10
-1.342731996450961979e-10
-1.491804647121253778e-10
-1.623316495845670254e-10
-1.720989876795091718e-10
-1.765454937198530780e-10
-1.741233137553140575e-10
-1.626076156931685590e-10
-1.435138324672690993e-10
-1.199257776707061178e-10
-9.814709955120383803e-11
-8.288430012459195016e-11
-7.155844550230113298e-11
-5.596620589127900142e-11
-3.882357315817195409e-11
-3.079303341993000330e-11
-2.191016566712072143e-11
-1.584827966232097094e-11
-1.085265628206742408e-11
-7.683697712989545073e-12
-5.329057086101992718e-12
-3.689224769867484689e-12
-2.572602025600670168e-12
-1.811323171864440031e-12
-1.296800819213820279e-12
-9.466193870679016378e-13
-7.044360032867974066e-13
-5.336133050774946809e-13
-4.093585526822350753e-13
-3.159115039376803376e-13
-2.434272343652322840e-13
