# bin_10_10
-2.992997484421256331e-11
-3.387634278772932393e-11
-3.771822524822066484e-11
-4.115142990954072342e-11
-4.377035796604059852e-11
-4.507842003679767247e-11
-4.469302221413109091e-11
-4.200671801560382301e-11
-3.729893131318418947e-11
-3.132211050042567651e-11
-2.562373898463705989e-11
-2.152758023553456876e-11
-1.863173502176627340e-11
-1.482781109514062271e-11
-1.028867509091057283e-11
-8.043243718448522446e-12
-5.874939826898576513e-12
-4.159354847576176644e-12
-2.876514989974027620e-12
-2.044462688076135629e-12
-1.411381708814796845e-12
-9.718388062201939769e-13
-6.742571803641123692e-13
-4.719880109500191888e-13
-3.354665796214201416e-13
-2.430501176229833561e-13
-1.795767202168141289e-13
-1.352251018031345545e-13
-1.033261721516200833e-13
-7.960863353418293118e-14
-6.138499198121851875e-14
