# bin_15_10
-1.957231388900587073e-10
-2.220841847837531995e-10
-2.480460767790863887e-10
-2.716646222866265750e-10
-2.903399799606556879e-10
-3.008265870680652392e-10
-3.004659601695995727e-10
-2.852049537521506435e-10
-2.556122510863665970e-10
-2.165744733094483951e-10
-1.773817231488875780e-10
-1.478759333088977095e-10
-1.279692076685728527e-10
-1.043425220240303661e-10
-7.332118743591220687e-11
-5.554011022675365949e-11
-4.225344107886343708e-11
-2.893460332437287534e-11
-2.065208891737776420e-11
-1.454591904446163699e-11
-9.973529480995359756e-12
-6.832029951454111918e-12
-4.699172116943714080e-12
-3.257434630457367338e-12
-2.286164101225558519e-12
-1.634080229567483910e-12
-1.191012707821430854e-12
-8.859578077798451370e-13
-6.707062825240164211e-13
-5.139606894892807746e-13
-3.958186577081771023e-13
