# bin_8_9
-9.208255822805969863e-12
-1.036671754844083793e-11
-1.146782221769078086e-11
-1.241238222597116349e-11
-1.307184754061113501e-11
-1.330474292991621447e-11
-1.297959840089820751e-11
-1.196436127002087642e-11
-1.042833050115046176e-11
-8.635373385681994869e-12
-7.082140689333955490e-12
-6.042566551675675058e-12
-5.173639909084121820e-12
-3.900748631675433905e-12
-2.728820936600365772e-12
-2.208180954927080448e-12
-1.498071153269477370e-12
-1.123295913693687593e-12
-7.654943670914280502e-13
-5.351987369193885386e-13
-3.745905705670635696e-13
-2.622224207386883025e-13
-1.848715474216986143e-13
-1.318795038166719093e-13
-9.589322842567422432e-14
-7.109024414357269434e-14
-5.365915368903387374e-14
-4.110182954244431237e-14
-3.174764852989304559e-14
-2.455136745346184201e-14
-1.887124764378638281e-14
