# bin_5_5
-7.981218064179043647e-11
-8.743054063855281789e-11
-9.352781200151033107e-11
-9.708413942703559134e-11
-9.720214553909781489e-11
-9.266410369391508518e-11
-8.343906241089333522e-11
-7.106602019578280368e-11
-5.830852113408057093e-11
-4.840927231710550769e-11
-4.172695612083238693e-11
-3.437462181623272060e-11
-2.461671798289421856e-11
-1.833641103884516815e-11
-1.425700237259530043e-11
-9.834488918718670549e-12
-7.254933603004937668e-12
-5.181914088128850749e-12
-3.689173604540239467e-12
-2.656518244960023539e-12
-1.936290423188703736e-12
-1.434413940196403208e-12
-1.081374997308778302e-12
-8.295966116868164128e-13
-6.445273425661959584e-13
-5.041614604252342054e-13
-3.943804280767982273e-13
-3.063424860166608983e-13
-2.348388406901663975e-13
-1.767520741283623578e-13
-1.300943332439606246e-13
