# bin_1_6
-3.010073713757935533e-20
-3.272867129068930752e-20
-3.468696677617883695e-20
-3.559224681559069971e-20
-3.512704876615757845e-20
-3.285697436751643444e-20
-2.904865480223906491e-20
-2.432473166518890539e-20
-1.990823686157173427e-20
-1.676097201666254631e-20
-1.444789081130345376e-20
-1.139041070512403844e-20
-7.975329206895824906e-21
-6.269305266188801406e-21
-4.572668190893205763e-21
-3.309328070889777166e-21
-2.349156876211631008e-21
-1.705668989725087257e-21
-1.227835674116119590e-21
-8.923285057857737505e-22
-6.588544367826457376e-22
-4.948014938702132350e-22
-3.783167599226332181e-22
-2.936018509798022813e-22
-2.299473893694134610e-22
-1.805816270660599845e-22
-1.411959773224135676e-22
-1.091902141680710306e-22
-8.304183215191199974e-23
-6.182680243813490929e-23
-4.491115285122626631e-23
