# bin_5_2
-1.376200832216793831e-09
-1.423991647234882936e-09
-1.420357539132672637e-09
-1.350974552953479129e-09
-1.216412223226420983e-09
-1.038964703931036427e-09
-8.575801621774642880e-10
-7.132148904972603786e-10
-6.076317560387581732e-10
-4.967323281570894046e-10
-3.667862840494492524e-10
-2.725436131828960520e-10
-2.091150279225340411e-10
-1.501672144686494554e-10
-1.106395119498929477e-10
-8.037470050444387143e-11
-5.905491975674302491e-11
-4.389238522071580483e-11
-3.315645563496958480e-11
-2.549427309153446109e-11
-1.991384287465763602e-11
-1.573701129395074311e-11
-1.249753234392815756e-11
-9.902731471060075932e-12
-7.775628050185515592e-12
-6.012279689839591633e-12
-4.554135998763200531e-12
-3.366530593288835433e-12
-2.423276956630111918e-12
-1.698111749604229541e-12
-1.160086677775985679e-12
