# bin_10_6
-4.034207796442795587e-10
-4.480570320566670879e-10
-4.875244250399876189e-10
-5.169804925632598567e-10
-5.307065464926380428e-10
-5.239019608834523288e-10
-4.901536050838228017e-10
-4.334010003972014087e-10
-3.630283088740718446e-10
-2.972674013704540687e-10
-2.504153676641049733e-10
-2.158189715286598583e-10
-1.699377487862198975e-10
-1.188969931445289649e-10
-9.325832167690693339e-11
-6.765884357995660614e-11
-4.864745242231819651e-11
-3.419309819971329018e-11
-2.448593800204705737e-11
-1.731497406626857793e-11
-1.230993790460905073e-11
-8.860902094108373309e-12
-6.474061083630426682e-12
-4.818433842730757677e-12
-3.651927799889356225e-12
-2.807885257311031551e-12
-2.179317323316042550e-12
-1.695791829627853818e-12
-1.313584960406421803e-12
-1.006354697821403303e-12
-7.584792985705469974e-13
