# bin_1_7
-4.393219489751782769e-23
-4.821543334456247698e-23
-5.169676794035866662e-23
-5.381609998912058689e-23
-5.406726800102983087e-23
-5.177840042187413695e-23
-4.682430335443929532e-23
-4.004197977466777303e-23
-3.287677182188920208e-23
-2.720721626094085658e-23
-2.344342169092467239e-23
-1.950342440990858542e-23
-1.404913203480687545e-23
-1.033005747483049780e-23
-8.150829161014051538e-24
-5.559741683571935481e-24
-4.143381699921563593e-24
-2.945684014077169121e-24
-2.091623509106191707e-24
-1.503471106699414058e-24
-1.092663650827089924e-24
-8.069067540120631649e-25
-6.062941007770581511e-25
-4.638435389453211306e-25
-3.596569124019485265e-25
-2.810467963653679811e-25
-2.198610890155922953e-25
-1.709558400928760423e-25
-1.312966127009698777e-25
-9.907155760333011643e-26
-7.314269955861024905e-26
