# bin_15_8
-3.525589564078359857e-10
-3.969119631785193845e-10
-4.390707134401280247e-10
-4.752394432080913711e-10
-5.004971804303464306e-10
-5.094657889032117178e-10
-4.970533779172000772e-10
-4.583602843016909578e-10
-3.996552056082027278e-10
-3.312030345537616810e-10
-2.717632635908606209e-10
-2.317060763486636110e-10
-1.981489550289707923e-10
-1.496959738222201712e-10
-1.050378478736908695e-10
-8.448319519249912437e-11
-5.778710866177628418e-11
-4.298618021335230767e-11
-2.941045487700608438e-11
-2.060414137025306803e-11
-1.439766840478656449e-11
-1.006350261691084447e-11
-7.089828419785552163e-12
-5.054161863165671385e-12
-3.671399408537711112e-12
-2.718961991417844737e-12
-2.050148459779672389e-12
-1.568857050809130016e-12
-1.210844457806300201e-12
-9.358524852268944671e-13
-7.191262245280042278e-13
