# bin_2_6
-7.458175282686496081e-17
-8.142721408196921783e-17
-8.674231565178752979e-17
-8.956553826094806915e-17
-8.910884029340523393e-17
-8.420787228306426685e-17
-7.517528084009927747e-17
-6.348665885540543198e-17
-5.197676209076272649e-17
-4.341739192870151478e-17
-3.750022859227225518e-17
-3.032137562307414176e-17
-2.136576860610552184e-17
-1.636046684640349782e-17
-1.237726355090346213e-17
-8.697345861968727047e-18
-6.292697921292919900e-18
-4.549169944553024288e-18
-3.252280275095748898e-18
-2.349371888048180431e-18
-1.722361535597598234e-18
-1.284312311175881788e-18
-9.749513415163399901e-19
-7.523347408795464319e-19
-5.869919516872270839e-19
-4.602350656316894798e-19
-3.601031071061291598e-19
-2.792367790283332844e-19
-2.133254517784514122e-19
-1.597794813322042717e-19
-1.168912265715279318e-19
