# bin_3_2
-6.889831158523937531e-10
-7.090826398174631278e-10
-7.025288144276421435e-10
-6.624200094877605648e-10
-5.910490735415088944e-10
-5.007664304625501320e-10
-4.122802846899853467e-10
-3.444228373576001963e-10
-2.937087698069072621e-10
-2.365125652682098952e-10
-1.723347319672709502e-10
-1.298710095449256695e-10
-9.869387340291505288e-11
-7.083956488171712612e-11
-5.222397831736943013e-11
-3.805395836324095088e-11
-2.802804940037046460e-11
-2.093023706090201934e-11
-1.589658270836736775e-11
-1.228809705018537936e-11
-9.642969970927374277e-12
-7.645380676644222476e-12
-6.081072526272762271e-12
-4.817695654023790477e-12
-3.775947312713650841e-12
-2.909955527006749954e-12
-2.194165246590135549e-12
-1.613129299444275804e-12
-1.154273273707648595e-12
-8.041002643600819389e-13
-5.463500046130146094e-13
