# bin_15_14
-3.294005926746384914e-11
-3.770442035673468847e-11
-4.258294384905765519e-11
-4.727100793978467220e-11
-5.137030722147290658e-11
-5.435707182243324460e-11
-5.561698928305752643e-11
-5.465589969350269341e-11
-5.079435190008335282e-11
-4.462230505502513625e-11
-3.713456212101764361e-11
-3.039924139525560344e-11
-2.579232095283055010e-11
-2.223964541498404825e-11
-1.712350533478557384e-11
-1.184515701240182428e-11
-9.525136762235848365e-12
-6.578288443280863328e-12
-4.841084849797071532e-12
-3.240383125278450641e-12
-2.250547890608976033e-12
-1.533809464091210950e-12
-1.035504138662451441e-12
-6.967088524082031781e-13
-4.686018502534702734e-13
-3.181061429804094546e-13
-2.188422617423831848e-13
-1.532634747977977156e-13
-1.097377928889712680e-13
-8.040070123170972512e-14
-6.014381208157027951e-14
