# bin_7_5
-3.293455467606398320e-10
-3.620876423612665404e-10
-3.890796064922390081e-10
-4.061664267147051389e-10
-4.093666073350824038e-10
-3.939319182269760716e-10
-3.581512213280949337e-10
-3.079764452561341393e-10
-2.536258456953303297e-10
-2.094246548722675367e-10
-1.797627283485069661e-10
-1.505766009710781802e-10
-1.102351404854829882e-10
-8.001105897833660584e-11
-6.335410348965268142e-11
-4.349826025737045131e-11
-3.239256597198973756e-11
-2.284520367696802599e-11
-1.625439461735693678e-11
-1.166502820515246865e-11
-8.451342726205547254e-12
-6.215571852544948985e-12
-4.648972512545956958e-12
-3.541583965078935697e-12
-2.736752560437658081e-12
-2.133635495894327411e-12
-1.667458530355148911e-12
-1.296955449041251381e-12
-9.975642136904466424e-13
-7.546035004560295958e-13
-5.589889241509811019e-13
