# bin_8_7
-1.137600440236028777e-10
-1.270277395160023165e-10
-1.391297592996779831e-10
-1.487479142801908383e-10
-1.542377211577797111e-10
-1.542103796914195385e-10
-1.466459365913644597e-10
-1.316842475944658651e-10
-1.118139124856133835e-10
-9.163087733506722052e-11
-7.624065549361921299e-11
-6.588082022635900010e-11
-5.397753903156647078e-11
-3.821884509428555892e-11
-2.873125050525108012e-11
-2.210649374437333207e-11
-1.516712530762859154e-11
-1.102177665363883456e-11
-7.828391591388750175e-12
-5.475421500526791433e-12
-3.856338024305124842e-12
-2.741525647650090391e-12
-1.976168403517557216e-12
-1.448689475881217619e-12
-1.082925041519898125e-12
-8.233204542775586786e-13
-6.342326146960506357e-13
-4.920654743687463401e-13
-3.817350239509550502e-13
-2.940526345613404571e-13
-2.235483825929021439e-13
