# bin_3_11
-2.500014017640616846e-25
-2.815431795582298131e-25
-3.115669646239090181e-25
-3.373886593187899454e-25
-3.555235133531729481e-25
-3.620981328991501300e-25
-3.535919067565368736e-25
-3.262785431365184391e-25
-2.846856785079027370e-25
-2.358722497572274954e-25
-1.933724101058092950e-25
-1.648695551667061955e-25
-1.413356161099743104e-25
-1.068635964635226019e-25
-7.460468964436546437e-26
-6.039008575750408567e-26
-4.103734092821975793e-26
-3.075144737348900687e-26
-2.092479930253710588e-26
-1.463737682388586076e-26
-1.023990102041595998e-26
-7.162875211583151001e-27
-5.044434985769898310e-27
-3.593543307423727050e-27
-2.609078605379532148e-27
-1.931459403354979265e-27
-1.456053073358513719e-27
-1.114310351549933759e-27
-8.603172002386640508e-28
-6.653083040311956313e-28
-5.115953454382758636e-28
