# bin_3_1
-1.841320837864456258e-09
-1.799524483161851267e-09
-1.674077772967564696e-09
-1.477589223302896309e-09
-1.246848106314520715e-09
-1.031902361717137917e-09
-8.645655926564262694e-10
-7.252281332680577657e-10
-5.735379940507253870e-10
-4.245665535627391209e-10
-3.197483271520621933e-10
-2.406618089883982004e-10
-1.754015506173756201e-10
-1.295229794257907321e-10
-9.557176725860686924e-11
-7.145572709881413001e-11
-5.426329906020303201e-11
-4.194796713872969546e-11
-3.296237550691720071e-11
-2.621384864950081533e-11
-2.096732033359303952e-11
-1.674411276080390554e-11
-1.325621233233285581e-11
-1.033879203771964491e-11
-7.901604084322631764e-12
-5.894693483737988018e-12
-4.283080554711254714e-12
-3.029758900264072541e-12
-2.089082597308538975e-12
-1.407508212674201395e-12
-9.294322745579003459e-13
