# bin_3_6
2.100447070707930236e-07
2.239656708758044091e-07
2.316953645867545007e-07
2.309992766596372157e-07
2.193024384335334733e-07
1.968726290442333009e-07
1.674597411611899783e-07
1.377269176515142012e-07
1.146759895714580707e-07
9.827019273356620117e-08
8.011641881249704009e-08
5.811603132441861731e-08
4.350066342611709175e-08
3.335552654179079308e-08
2.361929413475749809e-08
1.737754731338408154e-08
1.252191608654217439e-08
9.089977460181004419e-09
6.674000067879893503e-09
4.973095228569079460e-09
3.770540798837591557e-09
2.907046148773163992e-09
2.272875371263030314e-09
1.790959622822228322e-09
1.412633981767905059e-09
1.107683241345181175e-09
8.578018925782531250e-10
6.524318924761600276e-10
4.852259297493644333e-10
3.517952467133986865e-10
2.483445085896902700e-10
