# bin_10_13
4.327907368617592463e-08
4.909873834525861423e-08
5.482503829919247341e-08
6.002741425823414556e-08
6.412998429592847059e-08
6.641456729863518393e-08
6.629757191794667270e-08
6.288068666851292341e-08
5.631325980967080297e-08
4.767630640333417442e-08
3.904141261303518308e-08
3.256613657039903981e-08
2.818715540953870217e-08
2.294277335907316092e-08
1.609711857527137593e-08
1.222636806772734952e-08
9.274249301871457347e-09
6.364313459023235793e-09
4.530795897052072686e-09
3.195215785324601177e-09
2.191778789834374289e-09
1.501630104653390092e-09
1.033458878910154430e-09
7.169326415337144497e-10
5.036714834139521855e-10
3.604070197676277612e-10
2.629858977336886187e-10
1.958368194391178995e-10
1.483845098478532721e-10
1.137712354479453989e-10
8.763925812950225162e-11
