# bin_9_4
2.377244108155568656e-15
2.660164137380901986e-15
2.921195198749230954e-15
3.133235647259253459e-15
3.262102433868700345e-15
3.277298040661089286e-15
3.137004745639553032e-15
2.834502419538924377e-15
2.421405913006133139e-15
1.986790684682518551e-15
1.645309883736683957e-15
1.420342769711015417e-15
1.180471977561194178e-15
8.445444221614855915e-16
6.219995612848904599e-16
4.895997256696749267e-16
3.301247771789894784e-16
2.442686002125772362e-16
1.720084091742803813e-16
1.198259318038757677e-16
8.420111098484202258e-17
5.957131743345353956e-17
4.270461474331878429e-17
3.110505154595738236e-17
2.311008420469036450e-17
1.747817065296971266e-17
1.341265807159396045e-17
1.038623076110904536e-17
8.057749216783787576e-18
6.218296180351531704e-18
4.742882702550367796e-18
