# bin_15_6
4.411280426142214206e-21
5.028921338432130914e-21
5.650694806798146734e-21
6.234272612795529085e-21
6.723676376194426817e-21
7.047351008295053500e-21
7.133168104888667448e-21
6.899848223453347903e-21
6.299155250289504366e-21
5.437582344095880487e-21
4.478414309258694573e-21
3.686734799918185846e-21
3.169338143879558965e-21
2.683073662485303279e-21
1.964295349924587543e-21
1.399292979949258802e-21
1.129341299205811632e-21
7.461616699044547557e-22
5.606743911184455199e-22
3.825016835479574610e-22
2.602609925161494894e-22
1.781593969558032247e-22
1.211646615700580463e-22
8.255401525547727042e-23
5.658249731208412330e-23
3.936950570861793028e-23
2.787735724066064433e-23
2.015642051078531371e-23
1.489479173062840227e-23
1.121938269972545664e-23
8.567151916042185619e-24
