# bin_8_2
1.711466879943851619e-19
1.897663707107338944e-19
2.060568334897894839e-19
2.179415936389337630e-19
2.230007074412965528e-19
2.192259737791465740e-19
2.039709503783653996e-19
1.794002138923341503e-19
1.495271936226775395e-19
1.223919780938536986e-19
1.035778286158107272e-19
8.922437155649007115e-20
6.920777276177365541e-20
4.817361965041174240e-20
3.846163480668823887e-20
2.721092885613062793e-20
1.998902911366056037e-20
1.384728369513771129e-20
9.933852093288715163e-21
7.057790199015318245e-21
5.038953350114204849e-21
3.644059848056486791e-21
2.675173555499057792e-21
2.001635722341359768e-21
1.524276246445126127e-21
1.176469493346692695e-21
9.154239091697098159e-22
7.130334288545986942e-22
5.520655689598228760e-22
4.221870520811156960e-22
3.172832789097167399e-22
