# bin_9_11
3.627470327052783134e-08
4.098984751502105842e-08
4.554695619050912826e-08
4.957067319488407588e-08
5.256448185816184632e-08
5.393640339242643381e-08
5.321464749536967671e-08
4.971624656072816690e-08
4.389594648358404085e-08
3.669296415214121068e-08
3.002854002489384440e-08
2.535021909496735445e-08
2.189004587873394998e-08
1.714010880008125054e-08
1.188988219854263657e-08
9.421792395680775444e-09
6.715373866187480526e-09
4.850680602042816644e-09
3.323663035238636699e-09
2.353751896933804269e-09
1.631941406465261331e-09
1.129358610059711405e-09
7.872551793029044604e-10
5.540671978231262223e-10
3.964805675975241856e-10
2.892684693909901695e-10
2.151572452116794893e-10
1.629174352996814004e-10
1.249480695063574833e-10
9.641486877425155989e-11
7.429646116356817787e-11
