# bin_8_8
1.124211185171753543e-08
1.262269349324065873e-08
1.391849868905586558e-08
1.500518099824457301e-08
1.572375954893724595e-08
1.591378856426199734e-08
1.539715535124801492e-08
1.406696667052871660e-08
1.215269726032593710e-08
1.001729589231202423e-08
8.245173987025446693e-09
7.076102282300855628e-09
5.990153124922693150e-09
4.409139853568312292e-09
3.144233499040001361e-09
2.529827942779719422e-09
1.697379916911376911e-09
1.275121351491364720e-09
8.801235057587645632e-10
6.125912332951560164e-10
4.298266267970809652e-10
3.022950803319065140e-10
2.146662568793504324e-10
1.545417887179584066e-10
1.134755364381343192e-10
8.490684782525639954e-11
6.459539619787362906e-11
4.974851421815534584e-11
3.852303302687738517e-11
2.977665571377347930e-11
2.281607447265993018e-11
