# bin_6_4
2.430319613653672026e-10
2.675880276586370651e-10
2.880576482521465946e-10
3.013873266661143302e-10
3.045585586771965220e-10
2.941142676976470178e-10
2.682704122154984374e-10
2.314072384299498456e-10
1.906700568113111582e-10
1.570505316115637521e-10
1.347399415855087618e-10
1.136982534764655311e-10
8.364143717588710100e-11
6.005522730277102114e-11
4.812748663738486984e-11
3.272740285131773557e-11
2.461049171956276237e-11
1.726468143139261405e-11
1.225542730331070162e-11
8.789556656999064803e-12
6.356626905386180070e-12
4.664238557042478306e-12
3.479841008201828600e-12
2.645363830765328241e-12
2.041087496260004552e-12
1.590019340908147849e-12
1.242661670141623976e-12
9.673097465266258979e-13
7.450816864704944191e-13
5.647088507193125716e-13
4.192955069003812797e-13
