# bin_9_6
9.921352695792794081e-13
1.115633172758540649e-12
1.232376882434563494e-12
1.331546041938331938e-12
1.399212406658772250e-12
1.420580852572836523e-12
1.380792158397870637e-12
1.267555318512390579e-12
1.100336907475128770e-12
9.089657490911761799e-13
7.464422498287911670e-13
6.387948909773256703e-13
5.445960478207032773e-13
4.058560967194439682e-13
2.858839279149652769e-13
2.315507457312216977e-13
1.555512226253736081e-13
1.172408391229309791e-13
8.026568667750048031e-14
5.589695912034721750e-14
3.918571764469807936e-14
2.749165925614497485e-14
1.944104755379503576e-14
1.392239527220935490e-14
1.016703997648869377e-14
7.568607936818734705e-15
5.733568128316181271e-15
4.403307423661281572e-15
3.405808025714535198e-15
2.633914934864567706e-15
2.022193114512139288e-15
