# bin_9_9
4.349668831894752467e-11
4.921505655340775486e-11
5.477294816330662765e-11
5.972690153925264907e-11
6.348582228372068559e-11
6.532736342487517448e-11
6.470144558553208220e-11
6.072689345405292158e-11
5.384933158803884115e-11
4.516117288956554710e-11
3.693874431869463024e-11
3.107013662045923039e-11
2.689204871289493186e-11
2.132248074576784295e-11
1.476636590176153632e-11
1.160180257070084345e-11
8.418670512507738264e-12
5.994419178192642662e-12
4.122167627041070823e-12
2.933629943866727038e-12
2.027079133198169059e-12
1.396805690848335351e-12
9.701388550760581360e-13
6.798353156701758361e-13
4.838847423562452642e-13
3.511095294317033686e-13
2.598061290340166815e-13
1.959024088589626183e-13
1.498414911282000814e-13
1.155143965988760581e-13
8.908278488036854424e-14
