# bin_4_3
5.547205496066638629e-11
5.995197253643739170e-11
6.306189678752205426e-11
6.413729254332015496e-11
6.253209058979379436e-11
5.766666857320097252e-11
5.029079553747574598e-11
4.171319490731821218e-11
3.422914012054449641e-11
2.911752612662985399e-11
2.484874316449080846e-11
1.888463765162390140e-11
1.335563256933956549e-11
1.067744104633098545e-11
7.492478997821679055e-12
5.580189834631912161e-12
3.937655115550754798e-12
2.849458028573662512e-12
2.067773054142312023e-12
1.516130154356928114e-12
1.129834755305294473e-12
8.564041819434349955e-13
6.604945375955677747e-13
5.159203951546085309e-13
4.056083938555125892e-13
3.188075027579171504e-13
2.487624799750813356e-13
1.914901458890456018e-13
1.446468878388972351e-13
1.067730288014225304e-13
7.680815694563524074e-14
