# bin_12_3
1.082889401996505128e-25
1.223918256606327378e-25
1.360339941708143466e-25
1.480997591918769189e-25
1.571097301016414060e-25
1.612815477251645886e-25
1.592448366810866883e-25
1.488908683545846350e-25
1.315502997491126568e-25
1.099784981340760313e-25
8.993669152896538207e-26
7.585167140160232218e-26
6.557418688542424819e-26
5.147876006523315081e-26
3.560783474498485622e-26
2.822742920679302121e-26
2.016396941398927127e-26
1.454614512761746495e-26
9.932370446997231074e-27
7.053957391231182793e-27
4.887440974317831346e-27
3.379042443477638710e-27
2.353917441378850417e-27
1.655132451987870850e-27
1.183147627017062270e-27
8.623529106165068157e-28
6.408614469779781610e-28
4.849793073899442325e-28
3.718666141911002686e-28
2.869893645916578398e-28
2.212564504153784560e-28
