# bin_8_5
7.206661689716596731e-13
8.057451412970810132e-13
8.838962837219268465e-13
9.468586564601861677e-13
9.842473176738521985e-13
9.870439303887049022e-13
9.424363493006550260e-13
8.494526929192527975e-13
7.238248379926746143e-13
5.933345669757438011e-13
4.919729389948713238e-13
4.249554996689740380e-13
3.515539603098820780e-13
2.502482699719831341e-13
1.856176166913749849e-13
1.450757272035790664e-13
9.823875290709244031e-14
7.224911900722979882e-14
5.106591142375918538e-14
3.560518869050562757e-14
2.502299155929599025e-14
1.772559243843939856e-14
1.272788190700888331e-14
9.289260312517826031e-15
6.915104351141975457e-15
5.238865350666633926e-15
4.025486655921081558e-15
3.119354023473122403e-15
2.420188502353616467e-15
1.866713986338717454e-15
1.422349084995234980e-15
