# bin_9_8
3.209058577060322694e-11
3.623954927707041509e-11
4.023813754200734859e-11
4.375267833042736299e-11
4.634266676277851372e-11
4.748472010913553909e-11
4.676791206312607553e-11
4.359266914132840653e-11
3.840422536174638714e-11
3.203148802781615592e-11
2.620044494506142540e-11
2.215286211762926760e-11
1.912729945157282535e-11
1.488746319320869115e-11
1.029975253789457713e-11
8.221721269580778883e-12
5.796245603824278468e-12
4.227216908464898336e-12
2.874440199447241132e-12
2.035751616516755739e-12
1.414023313841061480e-12
9.805520718658658557e-13
6.848301137155011018e-13
4.829460563656109330e-13
3.464894766456026938e-13
2.534866188706590954e-13
1.890446595988930218e-13
1.434744601204671112e-13
1.102204672487118586e-13
8.512692611690152208e-14
6.560420596669248083e-14
