# bin_9_6
1.046166453260495907e-12
1.176487432807506473e-12
1.299738969352620346e-12
1.404538464816443890e-12
1.476227285925645589e-12
1.499142433965300536e-12
1.457806328275466320e-12
1.338896366897462783e-12
1.162796850207630868e-12
9.606506784409592033e-13
7.884369842903677677e-13
6.742438471675115038e-13
5.752618451709953874e-13
4.295395225735738001e-13
3.020109242977446337e-13
2.446323223441025023e-13
1.645380822001226047e-13
1.239283457427218287e-13
8.474176113602861749e-14
5.903772408161130801e-14
4.137578975321360970e-14
2.901548211781469585e-14
2.050567322249478088e-14
1.467309851733053533e-14
1.070623641288614550e-14
7.963720197606369536e-15
6.028754780753153830e-15
4.627743871687620221e-15
3.578483283115311034e-15
2.767409517741037067e-15
2.125103575719859938e-15
