# bin_2_1
1.042595644269265556e-10
1.060876122090163238e-10
1.035760943774996793e-10
9.586837521542055296e-11
8.395821833874666087e-11
7.002432757479733002e-11
5.754546040820041744e-11
4.863265034930917916e-11
4.131380963109271050e-11
3.197658475316476411e-11
2.296277255170788256e-11
1.789648992816969125e-11
1.308765272473417920e-11
9.587033274442254152e-12
6.984795545854779584e-12
5.141642260273768977e-12
3.813292522063158288e-12
2.874080959428980458e-12
2.206278979196405165e-12
1.722587899037095763e-12
1.363111564083832696e-12
1.086407600829939874e-12
8.656778026983171240e-13
6.847364692643275658e-13
5.340963076114099448e-13
4.084707938017413783e-13
3.049484360870339327e-13
2.216385835639506901e-13
1.567006313513915117e-13
1.079102316558901391e-13
7.256737698856185686e-14
