# bin_7_6
3.759817009565622740e-11
4.199989324348946025e-11
4.602401804368161734e-11
4.923657825531255134e-11
5.109396925413364468e-11
5.113731331208728719e-11
4.869154226143052982e-11
4.377111741962496334e-11
3.719871127078622388e-11
3.047275192290500080e-11
2.531668988756562876e-11
2.188250008238152002e-11
1.799668898300559447e-11
1.274419735120228344e-11
9.539309900150696328e-12
7.385933114401083183e-12
5.035792115333071687e-12
3.674249478705010747e-12
2.608575609308274805e-12
1.821734180997103607e-12
1.281217373856496077e-12
9.094037831038214149e-13
6.545561849885673873e-13
4.790555525975322458e-13
3.575708307510569484e-13
2.715209217379431450e-13
2.089925466284821355e-13
1.620955780056822844e-13
1.257725830615150947e-13
9.694098097856198698e-14
7.376535430101543859e-14
