# bin_13_12
2.688266614917961252e-11
3.071521538390960743e-11
3.461231277110655653e-11
3.832015355682503783e-11
4.150695047371202691e-11
4.374207196802121324e-11
4.454570306332599928e-11
4.348650622186607610e-11
4.009910127717669487e-11
3.496151067049357346e-11
2.894016323960742679e-11
2.372060442142346394e-11
2.024326620281739116e-11
1.735683140319166192e-11
1.307590321696898693e-11
9.105597884835378503e-12
7.391156026126089182e-12
4.959120562483386815e-12
3.719152228627135724e-12
2.496168331548314833e-12
1.710133270397791817e-12
1.170157410944029500e-12
7.939871771009973740e-13
5.368492081934973269e-13
3.637000719606842755e-13
2.494100421588630300e-13
1.736851207092799963e-13
1.233404594339056399e-13
8.958467479724053875e-14
6.650422288216482761e-14
5.027050190895500814e-14
