# bin_4_4
1.035997580858510842e-10
1.128609451549885676e-10
1.199035141003024414e-10
1.234022708538087070e-10
1.222648418778765696e-10
1.149409078480058210e-10
1.021049418076701142e-10
8.585714298566662721e-11
7.026236720577029041e-11
5.889846226663902309e-11
5.081147067029104835e-11
4.058773620778843286e-11
2.851437853078103633e-11
2.209578912889506567e-11
1.643089718226873026e-11
1.170206152512188069e-11
8.392346358530675078e-12
6.076721501779597539e-12
4.357209982877272634e-12
3.155750412746708227e-12
2.320677228473531903e-12
1.735821617352618805e-12
1.321828107380005609e-12
1.022533463863216536e-12
7.990947601394353501e-13
6.269192289465952019e-13
4.903100932518776427e-13
3.796880544453380376e-13
2.894419861984468186e-13
2.161838162623660124e-13
1.576388359752342158e-13
