# bin_9_9
4.496876640683683475e-11
5.088413289919618810e-11
5.663578960688203639e-11
6.176614138015061131e-11
6.566529114659688389e-11
6.758675965845766779e-11
6.696351858683817614e-11
6.288083250979372090e-11
5.578250144132177827e-11
4.679681040218547886e-11
3.826485341552836681e-11
3.215800189167301388e-11
2.783450172900027369e-11
2.211154569189746113e-11
1.531436077371134735e-11
1.200407093165847343e-11
8.739456753251388640e-12
6.202838724703270689e-12
4.273679779381669300e-12
3.041567947172598481e-12
2.100108296658069008e-12
1.446060380571405560e-12
1.003642538689797129e-12
7.028167246384381182e-13
4.997942244746019252e-13
3.623264734658518032e-13
2.678732535344755153e-13
2.018356932427255969e-13
1.542992681888201705e-13
1.189202993100907863e-13
9.171044159329599876e-14
