# bin_5_5
8.124281555121773952e-11
8.960653483755035930e-11
9.666916321308497206e-11
1.014198452840730202e-10
1.028090211081356948e-10
9.974168070722584952e-11
9.142079271969329772e-11
7.924021001130304267e-11
6.543167177518402854e-11
5.375547372254539392e-11
4.596929960523570451e-11
3.906312760444461067e-11
2.911233312299060259e-11
2.065110122476239179e-11
1.662847337007071447e-11
1.134603370280309173e-11
8.534087593758222192e-12
5.945588047878892015e-12
4.225223842524697966e-12
3.024604954541809926e-12
2.180430555408236641e-12
1.593483967160541010e-12
1.183514254602178981e-12
8.959484846251048716e-13
6.889766777841388417e-13
5.355091728174660163e-13
4.181355906863365255e-13
3.256131281859309613e-13
2.512007742532055739e-13
1.908736166712729491e-13
1.421996848859836638e-13
