# bin_10_5
-2.994185677739468521e-13
-3.370962678312009702e-13
-3.729343200720864245e-13
-4.037224286573916565e-13
-4.252963862474447362e-13
-4.330317278421706328e-13
-4.227326458174724275e-13
-3.899596297491591098e-13
-3.401466555881830185e-13
-2.817374803999828403e-13
-2.309067831864048556e-13
-1.968210728328119660e-13
-1.686844401448759360e-13
-1.275012575459607437e-13
-8.898405234671534174e-14
-7.202124717795240570e-14
-4.891927175816534295e-14
-3.665535095656183115e-14
-2.493326718562407603e-14
-1.743569866790556083e-14
-1.219458507308717808e-14
-8.528065517785702709e-15
-6.004199297653903361e-15
-4.276075005878484940e-15
-3.103847126791574767e-15
-2.297216023121199376e-15
-1.731456797150086863e-15
-1.324872771981075724e-15
-1.022755631364117679e-15
-7.908383181315656451e-16
-6.080548534151409740e-16
