# bin_8_11
-6.797307501195394066e-10
-7.707318774584017320e-10
-8.600986770495841399e-10
-9.410715164489581809e-10
-1.004598157412149425e-09
-1.039384025464962176e-09
-1.036502519685880174e-09
-9.816555493636414013e-10
-8.778408893693997643e-10
-7.419760322272094957e-10
-6.070994647089494678e-10
-5.066796568814758275e-10
-4.387704637103660531e-10
-3.562583062290172155e-10
-2.488551516327944672e-10
-1.899360870460290745e-10
-1.434450153690714499e-10
-9.864280544856897472e-11
-6.981966087122911289e-11
-4.944255947775757238e-11
-3.392390748854800225e-11
-2.321928296205089675e-11
-1.598963644266177997e-11
-1.110256047306599172e-11
-7.810082472693243681e-12
-5.596958616787548150e-12
-4.090723812278780422e-12
-3.051227332090254741e-12
-2.315205551917100165e-12
-1.777039103120780547e-12
-1.369694112463622576e-12
