# bin_8_13
-6.961211874151986647e-12
-7.921543343198442088e-12
-8.880853867451818870e-12
-9.771743256732528402e-12
-1.050459978850651136e-11
-1.096588156566193082e-11
-1.104939089018829594e-11
-1.061832684137467741e-11
-9.629313168318102975e-12
-8.255663256745471943e-12
-6.779380316178909520e-12
-5.599356285692309823e-12
-4.829677834440003287e-12
-4.044212050277044681e-12
-2.909782625695431953e-12
-2.113641667354193122e-12
-1.681298512655673397e-12
-1.114761343212541170e-12
-8.280420822671146538e-13
-5.714868909416667344e-13
-3.890991463694724766e-13
-2.660070883084151938e-13
-1.812356255645571214e-13
-1.241150899059581554e-13
-8.571276172937975471e-14
-6.017223847178203681e-14
-4.303331294012169974e-14
-3.143538457069687262e-14
-2.344506524894826287e-14
-1.778640324719878792e-14
-1.363965223032847879e-14
