# bin_3_4
-1.364783603833234684e-08
-1.475348423182169969e-08
-1.552448782495658227e-08
-1.579674339935053752e-08
-1.541348215224009885e-08
-1.422746951921677847e-08
-1.241892386594669054e-08
-1.030565604424760750e-08
-8.451621672717517456e-09
-7.181461723661116636e-09
-6.133799798023170264e-09
-4.675277733031510270e-09
-3.300967680305750802e-09
-2.636396597255820736e-09
-1.854663154046333935e-09
-1.378399803091112381e-09
-9.723951390921398447e-10
-7.037771082742539902e-10
-5.102831078181499568e-10
-3.737929015948213878e-10
-2.782813014797757048e-10
-2.107292343934596926e-10
-1.623788679702733308e-10
-1.267493135773909241e-10
-9.960317619963323781e-11
-7.827175638834342012e-11
-6.107645541733144990e-11
-4.702578420314647952e-11
-3.553661977417121548e-11
-2.624652562782625961e-11
-1.889317599179552851e-11
