# bin_6_11
-1.124808661653733412e-12
-1.271815353109558996e-12
-1.414351781001163579e-12
-1.540916387864335090e-12
-1.636216848242656069e-12
-1.681672464569117430e-12
-1.663134465270426946e-12
-1.558216541663757420e-12
-1.379439033083461048e-12
-1.155153976156159443e-12
-9.445740544364739597e-13
-7.952459835338693715e-13
-6.878818529754726171e-13
-5.430827312527748776e-13
-3.757557060765172959e-13
-2.963498910429009269e-13
-2.135828925252960084e-13
-1.529054281773574813e-13
-1.047543500557052246e-13
-7.449705952250641675e-14
-5.152237360195499888e-14
-3.554101325055008045e-14
-2.470908931139510472e-14
-1.733440394715859667e-14
-1.235667888780719117e-14
-8.980453740595217971e-15
-6.655634800705675091e-15
-5.025309056265806778e-15
-3.847279754550509931e-15
-2.967055484675066775e-15
-2.287757777943524353e-15
