# bin_3_15
-1.305228191710954724e-29
-1.486172499390019990e-29
-1.667435275742064532e-29
-1.836427669046496900e-29
-1.976451579034194212e-29
-2.066287203516413416e-29
-2.085496404919761892e-29
-2.009069430594395513e-29
-1.826504841334427087e-29
-1.569977458283586070e-29
-1.290530937519418131e-29
-1.064348856456186589e-29
-9.167934334569237592e-30
-7.710158629304106334e-30
-5.584428023181482823e-30
-4.024150880981502349e-30
-3.220649923017033937e-30
-2.130846555698966455e-30
-1.590796355581970767e-30
-1.092718423823267518e-30
-7.435770654145299703e-31
-5.085471101096632690e-31
-3.461509591392225895e-31
-2.365340819461151230e-31
-1.628356825098968462e-31
-1.138966842359734906e-31
-8.112785893662829933e-32
-5.902058219469141595e-32
-4.385835433861257766e-32
-3.318038193841981088e-32
-2.540334218600330719e-32
