# bin_1_5
-6.834717546214620105e-14
-7.358467490823063523e-14
-7.703600862741989461e-14
-7.792428578140762359e-14
-7.539882501428189384e-14
-6.895193035316403290e-14
-5.963895046512162739e-14
-4.922574268083092787e-14
-4.049147599136209194e-14
-3.461983881280952252e-14
-2.927958289150505220e-14
-2.178493777303101714e-14
-1.560034198843350943e-14
-1.247767405689073939e-14
-8.632791185781232805e-15
-6.481463417181422455e-15
-4.590205691596209636e-15
-3.313029617877143144e-15
-2.413006734709897520e-15
-1.777803888044076091e-15
-1.331740532743214025e-15
-1.014779784155746400e-15
-7.862754029673880250e-16
-6.161740654932633541e-16
-4.852291777826586720e-16
-3.813613625537976509e-16
-2.970551659888690166e-16
-2.279346651138792565e-16
-1.714140753742830088e-16
-1.258461253181458246e-16
-8.998601944863255864e-17
