# bin_4_4
-2.512123290477359335e-08
-2.736616874520171886e-08
-2.907428299757309215e-08
-2.992455818334690187e-08
-2.965225636657734261e-08
-2.788175481481752360e-08
-2.477363483029594661e-08
-2.083618975763618618e-08
-1.705238334912361376e-08
-1.429141305825002037e-08
-1.232793723596800782e-08
-9.851865855521991974e-09
-6.922784858370628823e-09
-5.361099971623035167e-09
-3.989166629512819435e-09
-2.839334736162536648e-09
-2.036812591374164007e-09
-1.474456601829849293e-09
-1.056956736089625863e-09
-7.653051492029891685e-10
-5.626183673709029389e-10
-4.206993646141866970e-10
-3.202708152733782114e-10
-2.476926922329044140e-10
-1.935312717735543575e-10
-1.518123400475522326e-10
-1.187218259672895681e-10
-9.193233333172949699e-11
-7.008054030037256445e-11
-5.234377601484154501e-11
-3.816995059592302031e-11
