# bin_8_4
-3.937970417874737566e-12
-4.390929164107683755e-12
-4.801074317830887358e-12
-5.122430867829311942e-12
-5.297877148329707076e-12
-5.281395091602000456e-12
-5.001896602894438228e-12
-4.473634794326339640e-12
-3.782974447380857929e-12
-3.095933990050354133e-12
-2.582235976166986863e-12
-2.233503340476493953e-12
-1.814736694318700111e-12
-1.273788022038490286e-12
-9.703473952483014758e-13
-7.366060593290749927e-13
-5.099438409447622984e-13
-3.660904362600535438e-13
-2.618429797762557896e-13
-1.834657998065516147e-13
-1.292531453043218754e-13
-9.209938101140462947e-14
-6.657768085099775581e-14
-4.897448312313271104e-14
-3.672947343442372390e-14
-2.800364791577433419e-14
-2.161775932940366985e-14
-1.679038677044467306e-14
-1.302610617989723003e-14
-1.002432079422677295e-14
-7.606959862474894978e-15
