# bin_5_14
-3.166896173212816606e-20
-3.601629175690914403e-20
-4.034659362690112334e-20
-4.435202505507971606e-20
-4.762243685263504656e-20
-4.963945288997348683e-20
-4.993263143804766240e-20
-4.786674577022105486e-20
-4.330289066937233877e-20
-3.703277273519215405e-20
-3.038506515440284875e-20
-2.513601661941591410e-20
-2.170472033081636721e-20
-1.809062016039468465e-20
-1.293794147831133843e-20
-9.476062809494814987e-21
-7.482089785702970366e-21
-4.980994827447735253e-21
-3.675152452210007437e-21
-2.548574609484973897e-21
-1.736915750395275310e-21
-1.187084660072530603e-21
-8.098789147412982448e-22
-5.558841524515986667e-22
-3.850933069150726007e-22
-2.713158190289575056e-22
-1.947939163915151511e-22
-1.428486666668264332e-22
-1.068978635917839767e-22
-8.129654815929017566e-23
-6.242413920562056147e-23
