# bin_13_13
-1.287462036965730211e-08
-1.472317316724901069e-08
-1.661061657366388867e-08
-1.841685188139702187e-08
-1.998526891163060408e-08
-2.111099946272805000e-08
-2.155751425348240561e-08
-2.112922428625548473e-08
-1.957469335852391980e-08
-1.714476806408842969e-08
-1.423415239802782197e-08
-1.165362162571886816e-08
-9.908370859820567862e-09
-8.528255852018525831e-09
-6.510210633964164356e-09
-4.508338252508173771e-09
-3.643955849429490862e-09
-2.483633465302411093e-09
-1.845220183214218450e-09
-1.233084720554436191e-09
-8.513424159612638842e-10
-5.812002516524537425e-10
-3.932873217215325790e-10
-2.650031770572623869e-10
-1.786271846345745385e-10
-1.216658671333881765e-10
-8.404665340671431256e-11
-5.914772321007586256e-11
-4.256939402466500127e-11
-3.134264872581914954e-11
-2.354165635343246834e-11
