# bin_6_10
-2.098264410873906249e-11
-2.366393896568611316e-11
-2.623420136144085441e-11
-2.847268683314247727e-11
-3.009001201908351241e-11
-3.075039275769449805e-11
-3.017753277725253008e-11
-2.800869985993168893e-11
-2.457572810486997744e-11
-2.043613064677475176e-11
-1.672598705412566530e-11
-1.418982722380674142e-11
-1.222090777495376089e-11
-9.397688113794777408e-12
-6.515424121567246177e-12
-5.240373591202837526e-12
-3.631428061677284970e-12
-2.683997523395550379e-12
-1.820494346531641524e-12
-1.282514477421219765e-12
-8.936080498001844370e-13
-6.220169790354298804e-13
-4.358108730146668564e-13
-3.085079650466056213e-13
-2.223753853511562688e-13
-1.634540651844173722e-13
-1.224352887722635711e-13
-9.324443634288075129e-14
-7.178637152708790844e-14
-5.547829799017590908e-14
-4.271956231839922756e-14
