# bin_1_15
-2.630841669303189300e-39
-2.995254686217349343e-39
-3.360135606793584545e-39
-3.700093296737304331e-39
-3.981436380876627933e-39
-4.161368003306117818e-39
-4.198871072727312681e-39
-4.043356289787271315e-39
-3.674483082803573470e-39
-3.157135146461844093e-39
-2.594846559493084251e-39
-2.140624506124631260e-39
-1.844180462646671836e-39
-1.549761838610698985e-39
-1.121426061814100723e-39
-8.091940849311816644e-40
-6.468099283559967095e-40
-4.282597620207389110e-40
-3.193538050199786623e-40
-2.195298423804650961e-40
-1.494158103775630006e-40
-1.021824631361998327e-40
-6.956764234584212915e-41
-4.755473656787188493e-41
-3.275439743159736578e-41
-2.292367900537418553e-41
-1.633882416705930336e-41
-1.189415564138869494e-41
-8.843536274871607866e-42
-6.693189746437108571e-42
-5.125493640430923843e-42
