# bin_13_14
-1.030004408976899881e-08
-1.179100384443969844e-08
-1.331917558342858595e-08
-1.478976769977365938e-08
-1.607903912374821524e-08
-1.702391339159633430e-08
-1.743095643075117220e-08
-1.714943787105508345e-08
-1.595974767667442915e-08
-1.403873352429581190e-08
-1.169178221355375945e-08
-9.564782330100372958e-09
-8.102459065524961107e-09
-6.993768808309551580e-09
-5.408166590948345882e-09
-3.733330070738620249e-09
-2.996486205718902473e-09
-2.080875681067664911e-09
-1.525597376723118314e-09
-1.019372330702297645e-09
-7.099901340717780632e-10
-4.833305819032915355e-10
-3.258714955965781401e-10
-2.189450067375336761e-10
-1.469686467876157798e-10
-9.950522484004773965e-11
-6.824067527768030236e-11
-4.762181400075529315e-11
-3.397299526999665391e-11
-2.480683244259091562e-11
-1.850709068838562170e-11
