# bin_12_12
8.759621385517039683e-08
8.402409600391484336e-08
7.869495931663481339e-08
7.181792633015833969e-08
6.377735890003246472e-08
5.510444820320024489e-08
4.640361501603143807e-08
3.823688049375281785e-08
3.098340473633831748e-08
2.476613760844535431e-08
1.949739179161434236e-08
1.503499014505578395e-08
1.134319396577131260e-08
8.463650753683454354e-09
6.319675405930060727e-09
4.703209182750537667e-09
3.495252358430434785e-09
2.616355983098381722e-09
1.968758872980267087e-09
1.492687217445913766e-09
1.138542823152023660e-09
8.716480016061272558e-10
6.676871409281479070e-10
5.099193534276018830e-10
3.868881210879934982e-10
2.906671314445688093e-10
2.156523906670014003e-10
1.576622410005053002e-10
1.134066868282724641e-10
8.018153010106121052e-11
5.570226512233552878e-11
