# bin_13_8
7.793886376014387074e-08
7.395197290821171876e-08
6.844230382811911082e-08
6.167059939829908322e-08
5.405102970923972318e-08
4.610787439616557252e-08
3.839191888936357523e-08
3.135662080350761541e-08
2.524040987327768182e-08
2.004962194867445494e-08
1.564813827170896884e-08
1.193684730130651912e-08
8.943615252909602337e-09
6.684956824125297720e-09
5.002396535333032825e-09
3.724316219919543794e-09
2.790503492101186683e-09
2.103089739810625377e-09
1.597746547718314020e-09
1.222123685263234814e-09
9.395931712471068290e-10
7.237965467439827677e-10
5.566033804414229519e-10
4.256970409733138920e-10
3.226381520020538406e-10
2.415716868544560950e-10
1.782428924486935626e-10
1.293586790695881455e-10
9.222604250111779335e-11
6.455323999381567028e-11
4.435909941744094119e-11
