# bin_3_2
2.625931547021106893e-08
2.277052340261496888e-08
1.924704085711623565e-08
1.591265829653357744e-08
1.292980710310516689e-08
1.036474763482744653e-08
8.195901213647596024e-09
6.366829351553583562e-09
4.851959947872425133e-09
3.660227685217198822e-09
2.767896104547852164e-09
2.098639548275535595e-09
1.595687587516812398e-09
1.225254266030454828e-09
9.493198706919223398e-10
7.419090216757057451e-10
5.832008710395929016e-10
4.593837447545714842e-10
3.609947641854272127e-10
2.817533978894950225e-10
2.175268727130141279e-10
1.655410213881370468e-10
1.238305794957948227e-10
9.086259282251048694e-11
6.531567987286110012e-11
4.597436719583521480e-11
3.169716884790462557e-11
2.142847589982599445e-11
1.422837833494800266e-11
9.298558820727270077e-12
5.994482914482239974e-12
