# bin_9_6
6.341854766171488839e-08
5.910360341521516715e-08
5.366271046697910631e-08
4.740672264780103037e-08
4.075197058596390351e-08
3.415997421082382164e-08
2.804498650457088558e-08
2.266511129586562776e-08
1.808099874204394229e-08
1.420182768815047399e-08
1.092105934349195359e-08
8.230362622027733377e-09
6.162451827869452856e-09
4.628544597866193355e-09
3.465134880450075000e-09
2.602945937591528920e-09
1.971435916615199671e-09
1.504178037892083264e-09
1.156510518829346918e-09
8.942333171708626270e-10
6.930870373604530993e-10
5.364110309573898518e-10
4.129181931132432922e-10
3.149555891173798470e-10
2.372539160872294980e-10
1.760344315133654430e-10
1.283868481296678231e-10
9.191618208164556724e-11
6.455234758682970533e-11
4.447029760279064231e-11
3.006927204103172470e-11
