# bin_13_10
8.469698904129765428e-08
8.098947027814274577e-08
7.559295176638882128e-08
6.873275322847452612e-08
6.080352496976709505e-08
5.233641591449313556e-08
4.392194838549439328e-08
3.609257860786344261e-08
2.918555123866132660e-08
2.328686574276913258e-08
1.828940243537683901e-08
1.405925166616097704e-08
1.058081675704842178e-08
7.895027611119333448e-09
5.900525054437607437e-09
4.390700704718243965e-09
3.269818430643990735e-09
2.452739389923934459e-09
1.850811909470367597e-09
1.406942797318573241e-09
1.075836982545963975e-09
8.253252653338668279e-10
6.330884210365191657e-10
4.838282586940606665e-10
3.670718645004381140e-10
2.755712912944215622e-10
2.041685287221228662e-10
1.489748860912878011e-10
1.068971978934284525e-10
7.536595192233515595e-11
5.219397176996324455e-11
