# bin_1_1
1.330249484721739951e-08
1.106755527180021758e-08
9.038601972173099505e-09
7.274573533434655574e-09
5.777065850739756418e-09
4.515821959636373748e-09
3.467613378507805408e-09
2.630049386642164531e-09
1.993354822749930838e-09
1.517510010388453433e-09
1.159696462484395182e-09
8.938671829877638473e-10
6.960971966338153206e-10
5.468988834088129775e-10
4.324396373939129449e-10
3.427593633532570334e-10
2.710945625333221937e-10
2.129757459731363379e-10
1.654985280445278049e-10
1.267498522288079999e-10
9.539711051044761173e-11
7.041085480075845491e-11
5.089694808946297193e-11
3.601501705920444547e-11
2.495550375031668192e-11
1.695183623289406856e-11
1.130754520953882617e-11
7.422044645263623191e-12
4.804591280237886723e-12
3.074200138965173595e-12
1.948280552139928936e-12
