# bin_11_6
6.630569428387933358e-08
6.199987336159896259e-08
5.648405246604404058e-08
5.006568850545571415e-08
4.316937817240101869e-08
3.627846802955262149e-08
2.984177831137253296e-08
2.415370755195947276e-08
1.929925787449187820e-08
1.519038203773103139e-08
1.170598809551959300e-08
8.829417498939577540e-09
6.606823451858398563e-09
4.960252446309930397e-09
3.710916370237955877e-09
2.782501239355169698e-09
2.103970806014169642e-09
1.602212442489550501e-09
1.229830293765012576e-09
9.497101217214008411e-10
7.355355326011083833e-10
5.691798257647992407e-10
4.383407015236731236e-10
3.346837013687996251e-10
2.524884210463988983e-10
1.876872956972335071e-10
1.371802593655081705e-10
9.844140602866376833e-11
6.930269921547175731e-11
4.785808367520663004e-11
3.243477062764132491e-11
