# bin_14_8
7.905861466920165836e-08
7.509549276577466434e-08
6.957905894613052385e-08
6.276641375064873432e-08
5.507178162877767466e-08
4.702446915607379987e-08
3.918574601258570793e-08
3.202372303494058930e-08
2.579011112997184592e-08
2.049837254798751072e-08
1.601043807175782194e-08
1.222091998124385830e-08
9.157260397570137924e-09
6.842985097013117657e-09
5.120335431226565986e-09
3.810581409957739924e-09
2.853435576734189384e-09
2.149173763655232268e-09
1.631692395243941142e-09
1.247350052629434757e-09
9.585567701429987769e-10
7.382073475200639893e-10
5.676476815631660142e-10
4.342030317890874547e-10
3.291911415511948859e-10
2.465971520588043901e-10
1.820626687969198947e-10
1.322251942752499030e-10
9.434336730665166562e-11
6.608913605212639559e-11
4.545173234360920459e-11
