# bin_8_1
2.221592568593245334e-08
1.893915014459938983e-08
1.576971235111796608e-08
1.288760512128343906e-08
1.038433953372015290e-08
8.257101113206783747e-09
6.453923544856183850e-09
4.944296472805082956e-09
3.738434569058823324e-09
2.826450322045873330e-09
2.143981447612247954e-09
1.630448723232338912e-09
1.250956549546152598e-09
9.695425876947877391e-10
7.585160803203554647e-10
5.976733824498930047e-10
4.725180052110512485e-10
3.731299071123075134e-10
2.929318137378850402e-10
2.276418871465982850e-10
1.744505066682852112e-10
1.314290480403604412e-10
9.712114861131292960e-11
7.029064291824353619e-11
4.979327185546353137e-11
3.453304469310091215e-11
2.347107755256048345e-11
1.565977508685146347e-11
1.027780980492513807e-11
6.650718949829861669e-12
4.252826624207191645e-12
