# bin_12_4
-1.476597650781092205e-15
-1.676724585715430499e-15
-1.874478784910524500e-15
-2.055295384359366977e-15
-2.199678893600719396e-15
-2.283155897130174668e-15
-2.285306431636780183e-15
-2.175340909387982182e-15
-1.954699948507978461e-15
-1.660240317631577342e-15
-1.360159939586177974e-15
-1.131427260459892326e-15
-9.791702023502594648e-16
-8.038191031098045449e-16
-5.666175944906443112e-16
-4.255256750194017617e-16
-3.274223197734910451e-16
-2.220798804837173522e-16
-1.599560143048230745e-16
-1.123978230386784613e-16
-7.692299712234963278e-17
-5.261681980061691439e-17
-3.610365960596834530e-17
-2.496176614715362059e-17
-1.745940726491572155e-17
-1.243337508446249771e-17
-9.028005379763157851e-18
-6.692626636471913827e-18
-5.053324460629125004e-18
-3.866521239575234936e-18
-2.976904711667071851e-18
