# bin_11_10
-8.634635413875141302e-09
-9.822362086590662596e-09
-1.100593337785337038e-08
-1.210129521632022726e-08
-1.299637137965531943e-08
-1.354938886218950404e-08
-1.363171901353257788e-08
-1.306976291687388009e-08
-1.182613342778100876e-08
-1.011600072867131049e-08
-8.303152608544941801e-09
-6.871824038238313498e-09
-5.934463739674502269e-09
-4.945400364083264447e-09
-3.538774206086638828e-09
-2.593624831854912191e-09
-2.046186946142177071e-09
-1.364404427854839894e-09
-1.005738989122798464e-09
-6.976928058852539459e-10
-4.757596867391542296e-10
-3.253008696215653886e-10
-2.220785291719005595e-10
-1.525050875976594600e-10
-1.057025878883627371e-10
-7.451005647023941165e-11
-5.352117474360720668e-11
-3.926495977009642144e-11
-2.939188510290392809e-11
-2.235631463628836775e-11
-1.716694463983229855e-11
