# bin_7_8
-9.124494062906673469e-09
-1.025057554552816380e-08
-1.131027925595947124e-08
-1.220325509601944682e-08
-1.280080408838424217e-08
-1.297095518874249349e-08
-1.257196745693846581e-08
-1.150961377832535776e-08
-9.963877940860293533e-09
-8.224157799350453511e-09
-6.765591504461835865e-09
-5.796812318734531079e-09
-4.916347950189464120e-09
-3.641660884823081089e-09
-2.589105871161310267e-09
-2.079835175224589295e-09
-1.404493257347595344e-09
-1.050737517976226064e-09
-7.239416849281999408e-10
-5.049595194856468048e-10
-3.538565391975951523e-10
-2.484630986595988924e-10
-1.760889718533589306e-10
-1.264616321735785077e-10
-9.260896609905608182e-11
-6.911666866975272790e-11
-5.246549625681357436e-11
-4.034070563799696145e-11
-3.120999306089603876e-11
-2.412082732055845208e-11
-1.849302487064024874e-11
