# bin_14_7
-6.596310082305661022e-13
-7.531083874586543859e-13
-8.478405616653909903e-13
-9.375648259578305733e-13
-1.014053527373326097e-12
-1.066685442460772743e-12
-1.084031183931365987e-12
-1.054902828348362590e-12
-9.693678708885041406e-13
-8.422869302535609718e-13
-6.960511771219423526e-13
-5.714648080012529516e-13
-4.890777109431767829e-13
-4.175500131944564239e-13
-3.113696004387433686e-13
-2.185139472935728541e-13
-1.772050941184496954e-13
-1.180957168944482693e-13
-8.874467212251083114e-14
-5.991116530111541982e-14
-4.092325306747648480e-14
-2.801178117705847648e-14
-1.902356068113428111e-14
-1.289770227579900734e-14
-8.774259286759547193e-15
-6.048724566146869818e-15
-4.237934336149231328e-15
-3.029616144858076445e-15
-2.214766004658561500e-15
-1.653326084392642679e-15
-1.254716233034880325e-15
