# bin_14_2
-2.330710674189212887e-22
-2.658212338763960555e-22
-2.988561345353946512e-22
-3.299463200416727295e-22
-3.561493117055352322e-22
-3.736924649899012736e-22
-3.786975465789429692e-22
-3.669756742508910921e-22
-3.356984644095927909e-22
-2.903691079424305164e-22
-2.394080679807804491e-22
-1.969319477742261925e-22
-1.690528317295601292e-22
-1.434716040819343821e-22
-1.056536363451094568e-22
-7.492907769738407872e-23
-6.053236191074238514e-23
-4.012993335896074272e-23
-3.013680082692215956e-23
-2.049272002930648750e-23
-1.396371468672606165e-23
-9.558296180814454552e-24
-6.498258337328486342e-24
-4.420850691712926014e-24
-3.023106996995132602e-24
-2.097469500715310460e-24
-1.480407038879507618e-24
-1.066700111228799029e-24
-7.856703553273246355e-25
-5.901799647285157369e-25
-4.498040212586127687e-25
