# bin_7_15
-8.861498609501059579e-14
-1.013485591323260077e-13
-1.143465905430917400e-13
-1.267809410383463312e-13
-1.375693005427848595e-13
-1.452968163591535164e-13
-1.483414508935874597e-13
-1.453312821839436643e-13
-1.345716995707628565e-13
-1.178088423301705489e-13
-9.779785510369546156e-14
-8.011339513429854550e-14
-6.817235404234381338e-14
-5.863847610577113890e-14
-4.468138492542598904e-14
-3.099726676033782839e-14
-2.505610132249743659e-14
-1.705604463157943454e-14
-1.267856351402812024e-14
-8.489696784464311841e-15
-5.857647022883033168e-15
-4.000479335138998077e-15
-2.708114813917159095e-15
-1.826393255597796317e-15
-1.232632211363245194e-15
-8.408404157146198212e-16
-5.818633184334718755e-16
-4.102619205214114046e-16
-2.958206558656656584e-16
-2.181587538504675071e-16
-1.640568293973912512e-16
