# bin_6_9
-1.333638669472569404e-09
-1.499276323410751417e-09
-1.655672707527477747e-09
-1.788260211305412489e-09
-1.878292230373641558e-09
-1.906114047302714772e-09
-1.851499171997025023e-09
-1.699014366092295943e-09
-1.474266134015168860e-09
-1.218315325921518231e-09
-1.001282583941711656e-09
-8.566274295504698291e-10
-7.287135635505009293e-10
-5.431549180780796865e-10
-3.842500750775455611e-10
-3.091597071087080380e-10
-2.093415593068863590e-10
-1.565431987023832347e-10
-1.075424119547568983e-10
-7.508927374086065441e-11
-5.258098857211264255e-11
-3.686937493123229343e-11
-2.607942309499620851e-11
-1.868435003196019824e-11
-1.364750702622856897e-11
-1.016075844742750255e-11
-7.696933234568163990e-12
-5.909718550047072107e-12
-4.569076382832679932e-12
-3.531645217034709398e-12
-2.709839719113192603e-12
