# bin_13_14
-1.024818512467636233e-08
-1.173503897164666038e-08
-1.325983671579020309e-08
-1.472819652424705533e-08
-1.601680610139762073e-08
-1.696301027906580180e-08
-1.737370229601194719e-08
-1.709812252007267872e-08
-1.591664443789299033e-08
-1.400488749673048678e-08
-1.166697843685023710e-08
-9.547233356445856370e-09
-8.089875412127554662e-09
-6.984821971201349317e-09
-5.402718374999730785e-09
-3.730606377319969772e-09
-2.995064690583385465e-09
-2.080447631437033350e-09
-1.525670779536081467e-09
-1.019707516295103844e-09
-7.104180141248113357e-10
-4.837633478378871134e-10
-3.262673855630274479e-10
-2.192881987974830771e-10
-1.472563586282063698e-10
-9.974209930330028552e-11
-6.843371348967795364e-11
-4.777819906249535275e-11
-3.409934221290106955e-11
-2.490861169879855994e-11
-1.858872163592579100e-11
