# bin_11_2
-1.325154580746869292e-18
-1.499341726892985289e-18
-1.668649398333172729e-18
-1.819557019603225975e-18
-1.934065257640155224e-18
-1.990243425838759473e-18
-1.971138058202382331e-18
-1.850204804661796814e-18
-1.640816794990489322e-18
-1.376436012637072723e-18
-1.126056364413621696e-18
-9.470700309964374501e-19
-8.193749286672991781e-19
-6.497551860965367352e-19
-4.506605288469133014e-19
-3.535132112006859119e-19
-2.567361518477424298e-19
-1.826459566909059702e-19
-1.259564496707500773e-19
-8.946261006680127387e-20
-6.181442572070581471e-20
-4.260653460623891742e-20
-2.958569008587520325e-20
-2.072964776076121571e-20
-1.475176831056130359e-20
-1.070149945008896477e-20
-7.916550117102539775e-21
-5.967547915646883377e-21
-4.563064846244220107e-21
-3.516722956358758703e-21
-2.711399069773404699e-21
