# bin_12_8
-2.984337859027261692e-10
-3.396117260488728342e-10
-3.807188082543538911e-10
-4.188573292708325207e-10
-4.501683379847275753e-10
-4.697624663726515903e-10
-4.731202780572250099e-10
-4.543149741302509562e-10
-4.117121245909571430e-10
-3.527272207272676934e-10
-2.896673274156886644e-10
-2.394952173334644466e-10
-2.066878985345167713e-10
-1.727446135006994137e-10
-1.240728552220027051e-10
-9.047014411501371708e-11
-7.170204194766276847e-11
-4.769328093657975172e-11
-3.530078875171233007e-11
-2.441668968513064015e-11
-1.664042304777449685e-11
-1.137943205115501281e-11
-7.761995296470177138e-12
-5.322765604850653585e-12
-3.682048736740910049e-12
-2.589687003357779279e-12
-1.855694226356036758e-12
-1.358127826076438188e-12
-1.014520273228196253e-12
-7.705072037948287028e-13
-5.911843901902158374e-13
