# bin_5_14
-5.853262869532993412e-16
-6.678358983053539853e-16
-7.512107765395444842e-16
-8.298670635198906045e-16
-8.964478793911664121e-16
-9.414977178281912140e-16
-9.551232893455961235e-16
-9.270246727795908145e-16
-8.494368043418213359e-16
-7.359793254634334998e-16
-6.072997519845326197e-16
-4.991672375466996664e-16
-4.280394288986257864e-16
-3.641291021629057095e-16
-2.693826565834784404e-16
-1.902335204569436799e-16
-1.539987187025506789e-16
-1.022075201559624637e-16
-7.683228238864893434e-17
-5.209848399589606118e-17
-3.551922931486160702e-17
-2.431555635600619364e-17
-1.652456007305036578e-17
-1.122719694090640009e-17
-7.662440879827795646e-18
-5.303576842162979537e-18
-3.733108735393397322e-18
-2.682096397527414783e-18
-1.970120557522000044e-18
-1.476630499247526886e-18
-1.123756405391644506e-18
