# bin_4_1
-3.386980885356138823e-10
-3.594562909923362523e-10
-3.697276987708083846e-10
-3.659618005546510195e-10
-3.441996781702603879e-10
-3.061205756536732244e-10
-2.582482582934508810e-10
-2.120601903457244883e-10
-1.776146291274360376e-10
-1.521829739073456991e-10
-1.217252821757484084e-10
-8.732266339654992798e-11
-6.666818602297557543e-11
-5.010955819040315289e-11
-3.583529457557560571e-11
-2.616912062614779775e-11
-1.897541945687051938e-11
-1.381290470915351940e-11
-1.018563120026642726e-11
-7.632369879252964518e-12
-5.820035421653208756e-12
-4.511446184318081700e-12
-3.541537624252346377e-12
-2.797097866948915643e-12
-2.207319675648726234e-12
-1.728513135023164233e-12
-1.334607323036324900e-12
-1.010647932286217956e-12
-7.475215180967199726e-13
-5.386162519366429071e-13
-3.778079853905922828e-13
