# bin_7_9
-4.510632606605620525e-09
-5.081473469082736296e-09
-5.625732519817168091e-09
-6.095179470444820463e-09
-6.427064448252369306e-09
-6.551488380374082410e-09
-6.404848711015520236e-09
-5.919566551233532465e-09
-5.172788649193876785e-09
-4.292328666148304484e-09
-3.519472532014418415e-09
-2.996004088443643770e-09
-2.568157939401835379e-09
-1.951962560060762804e-09
-1.364719322597606950e-09
-1.097378967074591548e-09
-7.541065987027790153e-10
-5.595851353061552283e-10
-3.821681702394367863e-10
-2.681484157574774326e-10
-1.871980489379491645e-10
-1.306597131022613149e-10
-9.188444599003413246e-11
-6.535406767668828442e-11
-4.735435773581559742e-11
-3.498396986832406756e-11
-2.632180620341960174e-11
-2.011094739804211495e-11
-1.550881879215818548e-11
-1.198615015620944560e-11
-9.216579429440354363e-12
