# bin_10_1
-1.064439116741195684e-18
-1.192280289387104138e-18
-1.310832616919424698e-18
-1.408074487209634203e-18
-1.468792980635962308e-18
-1.478816647566540965e-18
-1.420239944866838243e-18
-1.288024966581937612e-18
-1.104581297824070675e-18
-9.081710026749046590e-19
-7.508712329501142554e-19
-6.464366116002921611e-19
-5.399074598550073066e-19
-3.908364563398421094e-19
-2.849520949528744658e-19
-2.251272709485993271e-19
-1.523512695342821984e-19
-1.128760233990661035e-19
-7.889313220294003232e-20
-5.501314028542345963e-20
-3.863825762795580173e-20
-2.728234441158879656e-20
-1.948991072610629429e-20
-1.413512746378799981e-20
-1.045577937278624410e-20
-7.875672998199228609e-21
-6.023361337120998628e-21
-4.653583634419655252e-21
-3.606511778365366627e-21
-2.783740664908070016e-21
-2.126003418644404695e-21
