# bin_3_7
-7.426452193698570106e-11
-8.212156900339302141e-11
-8.887623562411592654e-11
-9.361545793517866085e-11
-9.534188824819035498e-11
-9.310469675524441458e-11
-8.600186128556486990e-11
-7.511489171319704892e-11
-6.236584373971802230e-11
-5.117494112374533290e-11
-4.351757655952869462e-11
-3.719025392504487458e-11
-2.832111910558186514e-11
-1.995957657393232642e-11
-1.592569501425447051e-11
-1.112908890297524463e-11
-8.228054150350532159e-12
-5.738966469906977596e-12
-4.096776910490044889e-12
-2.918997694364640496e-12
-2.092858074677623451e-12
-1.520680144677306041e-12
-1.122402283876912618e-12
-8.442829205288014019e-13
-6.457606651262404308e-13
-4.999378007541231874e-13
-3.895303370457003817e-13
-3.032818740848928430e-13
-2.343478982766306926e-13
-1.786272769887464223e-13
-1.336641428012286104e-13
