# bin_11_13
-4.370755158008073252e-09
-4.989560932918110902e-09
-5.616382329430706421e-09
-6.209669530910661228e-09
-6.714823995518401009e-09
-7.061432240756968836e-09
-7.173986715785417819e-09
-6.977984623101496577e-09
-6.408449427990887352e-09
-5.565155096219839537e-09
-4.596988868261856128e-09
-3.774459429054363770e-09
-3.231952511361667093e-09
-2.758370099551669235e-09
-2.053195626535158041e-09
-1.441358404973105569e-09
-1.170390671214187417e-09
-7.775714793162241855e-10
-5.855606116409205953e-10
-3.954888610493613093e-10
-2.697352139875743840e-10
-1.847096800309428337e-10
-1.254877603610779831e-10
-8.511137651027551584e-11
-5.793384075181341525e-11
-3.996976429899366530e-11
-2.803036943698380650e-11
-2.005943252713603008e-11
-1.467986217929938761e-11
-1.096924625100777881e-11
-8.331145355666423718e-12
