# bin_5_5
-1.580191185082478577e-08
-1.742005003410660139e-08
-1.878151578133022607e-08
-1.968914575178436866e-08
-1.994193782946056114e-08
-1.932327003155328796e-08
-1.769732812654290231e-08
-1.532826418407730411e-08
-1.266644112441079377e-08
-1.042412805699889744e-08
-8.912812333429908747e-09
-7.544233712190868396e-09
-5.621279633527007614e-09
-4.016355686389264401e-09
-3.202884595520674114e-09
-2.208111956695373110e-09
-1.644630630901132059e-09
-1.152047711028112608e-09
-8.203397595636401497e-10
-5.868396481399729344e-10
-4.230856741940052413e-10
-3.093795322167842735e-10
-2.299561644686625008e-10
-1.741608013296660733e-10
-1.339591580794093006e-10
-1.041175368595029898e-10
-8.127228820275362307e-11
-6.325625397763952996e-11
-4.876737289899319406e-11
-3.702698993633227129e-11
-2.756186342584414934e-11
