# bin_1_14
-5.801350527078533206e-25
-6.616933921462600795e-25
-7.439832349278540165e-25
-8.214577341015993217e-25
-8.867979353031334338e-25
-9.306162001014385039e-25
-9.432364745676486596e-25
-9.142663850819011295e-25
-8.365696851779004971e-25
-7.238043843162975273e-25
-5.968584697378747558e-25
-4.909094213396348918e-25
-4.213338537119124420e-25
-3.577000239536519270e-25
-2.636163940093277969e-25
-1.868420897572246712e-25
-1.509684406087431014e-25
-1.001246538185907402e-25
-7.518906335454088690e-26
-5.110602080847709880e-26
-3.482996323434184818e-26
-2.384117412300311281e-26
-1.620747014498034198e-26
-1.102389513860934479e-26
-7.536130693370208994e-27
-5.226654299265791570e-27
-3.687390293816934062e-27
-2.655688495831603296e-27
-1.955160942113227151e-27
-1.468134719986014063e-27
-1.118649175534202920e-27
