# bin_1_9
-2.764428199313764318e-17
-3.080429106117421726e-17
-3.365342960808917602e-17
-3.586680667695503338e-17
-3.704637615782409768e-17
-3.686123873905597389e-17
-3.483520563516630612e-17
-3.109913186076112081e-17
-2.626763165472368623e-17
-2.151680227746520645e-17
-1.798782560943664402e-17
-1.553445369621114852e-17
-1.253962649725124274e-17
-8.830136623850658689e-18
-6.753419178102771881e-18
-5.077765920541978090e-18
-3.549941725478954325e-18
-2.541722309278016763e-18
-1.812177339245355507e-18
-1.272773498142137537e-18
-8.992574450948764057e-19
-6.421601065960121637e-19
-4.651022313947965293e-19
-3.428222861807280684e-19
-2.575556773890207546e-19
-1.966250381607762019e-19
-1.518920396524362573e-19
-1.179765211613837097e-19
-9.147526547497842923e-20
-7.032284264534318703e-20
-5.329218403301408563e-20
