# bin_12_10
-4.494393525856499733e-09
-5.121785318803289052e-09
-5.752290908667887575e-09
-6.342681103097697302e-09
-6.835700684928781333e-09
-7.158296957555474997e-09
-7.238117177820308437e-09
-6.990969713140951666e-09
-6.372861084839595647e-09
-5.492879621289342263e-09
-4.521381874025788997e-09
-3.725382828117909546e-09
-3.205080724472833746e-09
-2.706292307222568544e-09
-1.973797857513277456e-09
-1.412808062011002676e-09
-1.135860216649663533e-09
-7.517142656189380560e-10
-5.630118711315843799e-10
-3.851507471771486970e-10
-2.621987067853560337e-10
-1.794344318023680891e-10
-1.220983448629260054e-10
-8.329708961381971883e-11
-5.719778753903298516e-11
-3.988409221448657482e-11
-2.831010294140033631e-11
-2.052032774760205266e-11
-1.519762984157166615e-11
-1.146708937392961476e-11
-8.764962712800063599e-12
