# bin_15_8
-1.678413472046570708e-12
-1.920255638096307198e-12
-2.167452383478204426e-12
-2.404380258897396646e-12
-2.610626089517192932e-12
-2.759437188173148713e-12
-2.819821928969503541e-12
-2.766185874279621805e-12
-2.565287616033515752e-12
-2.249027087094419063e-12
-1.868860684136170447e-12
-1.530425222358813761e-12
-1.300749934656763191e-12
-1.120125663150311701e-12
-8.572007166713074734e-13
-5.937896200567094106e-13
-4.791334329983511982e-13
-3.279730974596059453e-13
-2.429154312786364101e-13
-1.625470945147328309e-13
-1.124466843010686451e-13
-7.673673187707785537e-14
-5.189594389427841693e-14
-3.496451732233365025e-14
-2.356292731001594856e-14
-1.604064200533378667e-14
-1.107296761823423050e-14
-7.785519481973226336e-15
-5.597608527424056878e-15
-4.117131485910883918e-15
-3.089616604513999087e-15
