# bin_14_10
7.721346092975016710e-08
8.818776359780551568e-08
9.932740008307047503e-08
1.099010898894739346e-07
1.189498461439671728e-07
1.252326518279026536e-07
1.273920073953744184e-07
1.241483478717546584e-07
1.142568018850456764e-07
9.943053856051975522e-08
8.222834430822833192e-08
6.746515295788757467e-08
5.768078198676165140e-08
4.934778757637497859e-08
3.695178634462572104e-08
2.583582967153768872e-08
2.098435306651467288e-08
1.400250146740774016e-08
1.052939837413197688e-08
7.088831966870993810e-09
4.844161598420798518e-09
3.316014505393240130e-09
2.251386890712303443e-09
1.524359868050040961e-09
1.034916496194592505e-09
7.116623837990381578e-10
4.971776169002481670e-10
3.543172527422998498e-10
2.582472156470082301e-10
1.922997060882749791e-10
1.456869315693809169e-10
