# bin_11_7
1.465916398829582623e-08
1.660433160691799020e-08
1.850412193390666165e-08
2.021073966221704275e-08
2.152647784520425292e-08
2.220689742559640457e-08
2.206480677957796683e-08
2.079475718233720638e-08
1.851065213601851708e-08
1.557785419864068957e-08
1.274319488398183069e-08
1.068277245682688359e-08
9.252485322654706725e-09
7.416932905153286870e-09
5.150726496439467825e-09
3.998610245703701432e-09
2.954426153432637534e-09
2.070831848916165657e-09
1.440228487529420367e-09
1.024603831653207783e-09
7.056756732370689970e-10
4.845313362505761445e-10
3.352483887685743806e-10
2.339572979186015148e-10
1.656446068994790599e-10
1.195265688678451824e-10
8.796438436611136366e-11
6.601727922353581029e-11
5.032585490213100191e-11
3.873106520452536875e-11
2.986967120981537703e-11
