# bin_10_9
3.070428772480520141e-06
3.481731204428744529e-06
3.885492066386060806e-06
4.251081120173393534e-06
4.537450931495756689e-06
4.693418747613532390e-06
4.678727786676141916e-06
4.428595484665798781e-06
3.958187804464378909e-06
3.343923544815263004e-06
2.736571673481650284e-06
2.286134480636295540e-06
1.980293201053250550e-06
1.604894699040376597e-06
1.120102480786999462e-06
8.575428080841238279e-07
6.454499955305953954e-07
4.453158568714759052e-07
3.143003669270577675e-07
2.228128317132520280e-07
1.529923874659098890e-07
1.047761276627477828e-07
7.221544025326597112e-08
5.018818753627703580e-08
3.534360913017031584e-08
2.535738403165994421e-08
1.855431923584156497e-08
1.385355369387455172e-08
1.052003510512306753e-08
8.078630717808295787e-09
6.227937368254694373e-09
