# bin_9_3
3.211204222849953120e-14
3.589892726870774748e-14
3.937483171384702514e-14
4.217077237135445198e-14
4.382298033137608378e-14
4.393155869466949856e-14
4.192226172536986714e-14
3.776692665302418579e-14
3.216562928950833114e-14
2.636986084719561245e-14
2.188352723018055265e-14
1.890979114537812050e-14
1.561849000633141133e-14
1.110215980534098174e-14
8.259928163223469889e-15
6.438088119313422801e-15
4.369104575639683267e-15
3.205489689703178073e-15
2.269015588677669091e-15
1.582731373940081294e-15
1.112385069679520146e-15
7.882968879833442260e-16
5.663110041765800280e-16
4.135578321007878224e-16
3.080279387561459407e-16
2.334708624193254315e-16
1.794622664855585724e-16
1.390943936590085241e-16
1.079233164458795304e-16
8.323370638499410278e-17
6.340597082739970854e-17
