# bin_6_5
2.817895671421992470e-06
3.124558952092537799e-06
3.392914946635685899e-06
3.588782757780173964e-06
3.672348431777868477e-06
3.610476165242053885e-06
3.359680326884429654e-06
2.955332850033439004e-06
2.463615454752930082e-06
2.016649290237213868e-06
1.706438894563003885e-06
1.469834260997104813e-06
1.140542765876106657e-06
7.941734571122551759e-07
6.335361464293979424e-07
4.486269520579118765e-07
3.291974945890624176e-07
2.281792596025245069e-07
1.636466870827146589e-07
1.162076307135291052e-07
8.291911312475640156e-08
5.992952236737118039e-08
4.396803480332471504e-08
3.287710339510855717e-08
2.502226852692973029e-08
1.930417564399399303e-08
1.501658488193771038e-08
1.169538314799697260e-08
9.055749724903509584e-09
6.926792585639416466e-09
5.207405044648305203e-09
