# bin_14_11
4.750265344320436730e-07
5.429747862410115200e-07
6.121787187002600590e-07
6.781694849231694283e-07
7.351045232482495351e-07
7.753781937784426628e-07
7.904163923425944873e-07
7.726912549190973079e-07
7.136344815553137091e-07
6.231855880867400321e-07
5.164324506600709841e-07
4.232657954589596646e-07
3.609312454371749393e-07
3.098805837244564967e-07
2.343584266205009173e-07
1.629608326146991935e-07
1.321835329749149747e-07
8.905684862918949920e-08
6.665802891842993280e-08
4.467740427137744494e-08
3.067234595467265582e-08
2.097688284877509081e-08
1.422461323806694686e-08
9.607834088817389103e-09
6.498855477272675257e-09
4.447281403489187207e-09
3.089229015984342807e-09
2.187618716123067774e-09
1.584425761122045489e-09
1.173260719754737476e-09
8.851780379165105978e-10
