# bin_6_14
-1.199663191743861307e-21
-1.365201075311906334e-21
-1.530455257125589938e-21
-1.683779110295553962e-21
-1.809659131451832553e-21
-1.888444348167281532e-21
-1.901970520146972716e-21
-1.826333407521696396e-21
-1.654934783287550621e-21
-1.417703633493695651e-21
-1.164081975888489378e-21
-9.623926093542259580e-22
-8.307471239251343755e-22
-6.944281596703168969e-22
-4.984359522210896818e-22
-3.634659956078317631e-22
-2.882727696239101102e-22
-1.915067930820914894e-22
-1.418821878347910275e-22
-9.815339945773671716e-23
-6.687537995537471472e-23
-4.572697807885654313e-23
-3.118289549011189178e-23
-2.138372954063567894e-23
-1.479337359172235876e-23
-1.040570772200739611e-23
-7.457447439250912620e-24
-5.458838961301337268e-24
-4.078579288560716828e-24
-3.098288127622895370e-24
-2.377745594784565256e-24
