# bin_13_2
-2.285934420719169051e-09
-2.369517188155726788e-09
-2.368672729727669200e-09
-2.259537116388593374e-09
-2.040918567719024706e-09
-1.748346277216539967e-09
-1.445037922482510719e-09
-1.200230143278334010e-09
-1.021588719311434665e-09
-8.388451548384947222e-10
-6.229890827716520415e-10
-4.609713997073537802e-10
-3.542315195906571365e-10
-2.548689345128325795e-10
-1.875098953923014219e-10
-1.361467525445574269e-10
-9.992746812929811027e-11
-7.413143558999134249e-11
-5.587949398115135579e-11
-4.287310737683011546e-11
-3.342344578571392330e-11
-2.637420476419024217e-11
-2.092790262693385055e-11
-1.658037047362701007e-11
-1.302565769279848475e-11
-1.008306066750453604e-11
-7.650229142052032380e-12
-5.666837166746038539e-12
-4.088435104122544877e-12
-2.871673511546165059e-12
-1.966150377662150214e-12
