# bin_3_5
-8.433520428469925167e-13
-9.171497066477684745e-13
-9.722553950168819429e-13
-9.979556031530622507e-13
-9.852807461573111053e-13
-9.221558718422115789e-13
-8.157469994166831953e-13
-6.835619682150121470e-13
-5.595820991006019612e-13
-4.708746463964884845e-13
-4.057457705523321881e-13
-3.203776990771695398e-13
-2.247003789196170483e-13
-1.760930910226584228e-13
-1.288507445659087888e-13
-9.298238740654373798e-14
-6.617809852842707618e-14
-4.799593649332714562e-14
-3.452439319484822585e-14
-2.507607301915244064e-14
-1.850117307297372347e-14
-1.388411626600046137e-14
-1.060750003982215968e-14
-8.227012206844870288e-15
-6.440393225680659094e-15
-5.056443594414149218e-15
-3.953440705711932447e-15
-3.057768054038015228e-15
-2.326294316341424238e-15
-1.732854447818879995e-15
-1.259565940555222408e-15
