# bin_4_15
-5.008613574383645076e-30
-5.705197253519355928e-30
-6.403755647014204052e-30
-7.055968612663410940e-30
-7.597710404831341122e-30
-7.947381218037077548e-30
-8.025895801135683711e-30
-7.737243983717263673e-30
-7.039134742495599898e-30
-6.054843750601741541e-30
-4.979330156574277140e-30
-4.106772173311084678e-30
-3.537650938143870801e-30
-2.978140022325955265e-30
-2.159935521263165004e-30
-1.554768960642673080e-30
-1.246009076039868510e-30
-8.242132493734566940e-31
-6.160549411399780719e-31
-4.229531658785304824e-31
-2.878596883728368353e-31
-1.969469567602437528e-31
-1.340761527689720746e-31
-9.161715012338576099e-32
-6.306266624896219101e-32
-4.410016730395330371e-32
-3.140332185741237672e-32
-2.283848441145895402e-32
-1.696624601584466900e-32
-1.283277279122659377e-32
-9.824102342506063075e-33
