# bin_9_2
-2.021781971364085670e-09
-2.094645856678920881e-09
-2.092584836304077073e-09
-1.994564828446336430e-09
-1.800067012055264119e-09
-1.540869215257680609e-09
-1.273210923625610126e-09
-1.057910220607561335e-09
-9.005598136068664896e-10
-7.385219248815564661e-10
-5.477966964073466600e-10
-4.057827391890609480e-10
-3.116236608013743596e-10
-2.241584960040297289e-10
-1.649467752468047573e-10
-1.197845882982922998e-10
-8.793920199628840211e-11
-6.526569417544224875e-11
-4.922065288060815080e-11
-3.778268602519547934e-11
-2.946781748206106301e-11
-2.326020558440401824e-11
-1.845990459890334264e-11
-1.462507246001529869e-11
-1.148778611598887661e-11
-8.889995018460152397e-12
-6.742268089276577376e-12
-4.991813364141627000e-12
-3.599493411087027682e-12
-2.526892101090814494e-12
-1.729229753570217497e-12
