# bin_8_13
-7.856349465696331318e-16
-8.937516993308115301e-16
-1.001515627628605972e-15
-1.101282984665260359e-15
-1.182860779935970047e-15
-1.233355023221539217e-15
-1.241040915255064546e-15
-1.190093291355349590e-15
-1.076979604518222797e-15
-9.213415431791938733e-16
-7.561755152577239262e-16
-6.257027099829030136e-16
-5.404307643604330405e-16
-4.506031434952665500e-16
-3.223737310405827413e-16
-2.361417361973180547e-16
-1.865288480981067763e-16
-1.241946858457436654e-16
-9.167350614827332049e-17
-6.358402083554100306e-17
-4.334548238739597705e-17
-2.963359596012569552e-17
-2.022338668144737692e-17
-1.388536862748673782e-17
-9.622359709778932708e-18
-6.781597763260753484e-18
-4.870421030143058949e-18
-3.572621559057659581e-18
-2.674120737917526507e-18
-2.034065509691549606e-18
-1.562099187682505420e-18
