# bin_6_5
-2.025454909174537363e-10
-2.225847389138426486e-10
-2.390480522326373654e-10
-2.493752910510061521e-10
-2.511395092165531628e-10
-2.413932126008174671e-10
-2.191943025494336642e-10
-1.882520312462423486e-10
-1.549327528767055061e-10
-1.280015031391034407e-10
-1.099539164126501034e-10
-9.194527024619248582e-11
-6.709067436787185208e-11
-4.882676399578045530e-11
-3.862503321941949516e-11
-2.648538148653004877e-11
-1.972799691126019620e-11
-1.392916027631391637e-11
-9.905489411101156499e-12
-7.111128329625410268e-12
-5.155048404351048597e-12
-3.793933104736595669e-12
-2.839901263013436790e-12
-2.165019674588157569e-12
-1.673984485384611465e-12
-1.305580129804823232e-12
-1.020476974829627633e-12
-7.936622174890626574e-13
-6.102705102215856062e-13
-4.614178419900949253e-13
-3.415927485457078184e-13
