# bin_8_12
-1.361179653872994327e-14
-1.545558721727765409e-14
-1.727677662441503014e-14
-1.894109083833884682e-14
-2.026865566200816917e-14
-2.103362462744094030e-14
-2.104894447118461191e-14
-2.002880677216302143e-14
-1.799023760798574531e-14
-1.527318134533643179e-14
-1.250982427549474460e-14
-1.040828206070446384e-14
-9.010765152850517692e-15
-7.393008310304905893e-15
-5.203234254379613720e-15
-3.913683224053737221e-15
-3.008512353155796263e-15
-2.040829086866247923e-15
-1.468236309019520881e-15
-1.033129701061070319e-15
-7.071251634416715435e-16
-4.835226741168866125e-16
-3.318253052390178210e-16
-2.295095918447677248e-16
-1.606138480711682384e-16
-1.144465356960486081e-16
-8.315486286591080611e-17
-6.168502849316481637e-17
-4.660359777894876678e-17
-3.567553087828826532e-17
-2.747603714624592449e-17
