# bin_10_12
-1.844016786752924858e-12
-2.097728170149397081e-12
-2.350582551561477208e-12
-2.584634178624283827e-12
-2.775953020184710468e-12
-2.894269287418951989e-12
-2.912087360839403473e-12
-2.792286167673017728e-12
-2.526718704695430989e-12
-2.161436706590724544e-12
-1.773998693629886718e-12
-1.468035221666398258e-12
-1.267908349976214774e-12
-1.056901220246760667e-12
-7.561565105117052823e-13
-5.540393097622721245e-13
-4.374164671388082722e-13
-2.914039689858394407e-13
-2.149811849033686197e-13
-1.491235195222688873e-13
-1.016684599547203025e-13
-6.951094907046977590e-14
-4.744435631199560112e-14
-3.257802607233905037e-14
-2.257826177510006687e-14
-1.591422033998205106e-14
-1.143047883020553507e-14
-8.385380375742408559e-15
-6.276837055216625335e-15
-4.774526838781729443e-15
-3.666570738190677112e-15
