# bin_2_5
-9.172148335413999784e-15
-9.920540569466830184e-15
-1.044522494086769380e-14
-1.063513810444784611e-14
-1.038518893597949509e-14
-9.593494736213272362e-15
-8.380343485913502681e-15
-6.957498239282123434e-15
-5.705924150864434053e-15
-4.848522407768304320e-15
-4.145427211878029031e-15
-3.163837893127697152e-15
-2.231543743314678830e-15
-1.784105373288028419e-15
-1.255223369375896538e-15
-9.334749758662523529e-16
-6.581048780971762783e-16
-4.764587113920914907e-16
-3.454915660708367543e-16
-2.530673811295940069e-16
-1.883809298015501782e-16
-1.426307062616979281e-16
-1.098937047054458415e-16
-8.577861174533313490e-17
-6.741258558658575039e-17
-5.298551968298125534e-17
-4.135792405465134512e-17
-3.185635307791040753e-17
-2.408487056215060379e-17
-1.779791534613187387e-17
-1.281843758637376612e-17
