# bin_6_12
-3.232380609388729127e-18
-3.662747864377273100e-18
-4.083834167346706943e-18
-4.463176735676610609e-18
-4.757312526509321132e-18
-4.912323547909604063e-18
-4.886614949157896418e-18
-4.612411563424070863e-18
-4.111671229400851146e-18
-3.464865647185781172e-18
-2.834696843725163568e-18
-2.373412221114914453e-18
-2.055859653042040197e-18
-1.654530748369703912e-18
-1.150781741782942590e-18
-8.890909815285625911e-19
-6.613103020847488839e-19
-4.608939729871928231e-19
-3.221641818848082115e-19
-2.290043521583702554e-19
-1.575663890297920186e-19
-1.080931930352706249e-19
-7.470303064479933820e-20
-5.206922843897989081e-20
-3.680646390049682805e-20
-2.651362610240560426e-20
-1.947912458013101201e-20
-1.459692687986080552e-20
-1.111493000930920132e-20
-8.548837600845022582e-21
-6.592409861382527426e-21
