# bin_15_13
-5.540690314014304755e-11
-6.331014189771565689e-11
-7.134709687149474118e-11
-7.899536222841028394e-11
-8.557058231949756308e-11
-9.018410729508011871e-11
-9.184959149521916572e-11
-8.966749460805187329e-11
-8.269464835522010814e-11
-7.210967581125871388e-11
-5.971565440635351009e-11
-4.897218020254180805e-11
-4.179979632732993995e-11
-3.581904922881622531e-11
-2.698592315280091028e-11
-1.882690546205845156e-11
-1.525276078750871627e-11
-1.026141987113456565e-11
-7.676960286337680175e-12
-5.159750116414656246e-12
-3.540410270307628562e-12
-2.421165469629742408e-12
-1.642067642672257719e-12
-1.110481483239347135e-12
-7.525632483994131224e-13
-5.162044118273749186e-13
-3.595594992683888878e-13
-2.553877663704426653e-13
-1.855135433483558601e-13
-1.377173626222302082e-13
-1.040854986168323329e-13
