# bin_10_8
-1.485075066257458298e-10
-1.670669179110065484e-10
-1.846474206594748749e-10
-1.996378533192019057e-10
-2.099576027153202705e-10
-2.133764908494445605e-10
-2.077004818414892899e-10
-1.910257601024864307e-10
-1.661286036289051100e-10
-1.374424906030444405e-10
-1.128528165308738158e-10
-9.640926828886488299e-11
-8.225361932373185605e-11
-6.167620271557819798e-11
-4.341871072521957939e-11
-3.499131434052449538e-11
-2.375381706888407473e-11
-1.775816340323114991e-11
-1.215994029388924296e-11
-8.500025632532950450e-12
-5.948318314126027944e-12
-4.165813580342470024e-12
-2.941319024762005107e-12
-2.102414318074035106e-12
-1.531860641037811557e-12
-1.137817751700235222e-12
-8.601896204422916518e-13
-6.595438051623049633e-13
-5.096007329614866571e-13
-3.939448214370937364e-13
-3.025189546086348715e-13
