# bin_1_4
-3.782784888388602718e-15
-4.004407102957228564e-15
-4.105166455936033412e-15
-4.046925413902911918e-15
-3.783429580972520449e-15
-3.344021015113022930e-15
-2.802577912835834117e-15
-2.296190531172378895e-15
-1.931932509971737638e-15
-1.659839325105954168e-15
-1.309419302780435923e-15
-9.259559368154778854e-16
-7.226569399463080080e-16
-5.321944399356584981e-16
-3.854237570731357514e-16
-2.781733875285252827e-16
-2.032031566742936965e-16
-1.482935472853730771e-16
-1.096733079341305421e-16
-8.252491597891884380e-17
-6.320059344716810729e-17
-4.919614356687865615e-17
-3.874452425899513274e-17
-3.066263056486789069e-17
-2.421564446045467385e-17
-1.895235915942522150e-17
-1.460748450271009557e-17
-1.102973622872481463e-17
-8.126521092901362766e-18
-5.828348190574482434e-18
-4.067838392569979603e-18
