# bin_7_11
-7.885798934107981197e-15
-8.923962505466662011e-15
-9.933726988980513585e-15
-1.083482920769036627e-14
-1.152022446088587823e-14
-1.185886270004490580e-14
-1.175090407726967210e-14
-1.103586601831663623e-14
-9.791664359636027706e-15
-8.216102729231131821e-15
-6.720296761908244032e-15
-5.649753828973407235e-15
-4.890566235752218312e-15
-3.884153901040759875e-15
-2.690905457792396626e-15
-2.110441911747892208e-15
-1.535635022147394509e-15
-1.090814775191100566e-15
-7.513637896866489212e-16
-5.347402837101083257e-16
-3.693160076291175314e-16
-2.543490949858936353e-16
-1.765600507514613000e-16
-1.236537046758557683e-16
-8.794650884377649758e-17
-6.376435018840609591e-17
-4.714678017589849123e-17
-3.552690117555424557e-17
-2.716111563575288571e-17
-2.093397667597785159e-17
-1.614412702577970414e-17
