# bin_10_11
-8.772668355819380274e-12
-9.960180028969134171e-12
-1.113275775300788097e-11
-1.220378305107943523e-11
-1.305726360129933282e-11
-1.354767444403449895e-11
-1.355453783719015834e-11
-1.289417932302309317e-11
-1.157912157042752141e-11
-9.828440180262508691e-12
-8.050404736985952906e-12
-6.699534448132446274e-12
-5.799390571774414774e-12
-4.754695550615718211e-12
-3.346472069793816064e-12
-2.518844250624205342e-12
-1.933947440665332619e-12
-1.313495070731687244e-12
-9.441474060809297030e-13
-6.642932187855057886e-13
-4.547692344372345896e-13
-3.110585240584407117e-13
-2.135263211080989348e-13
-1.477210218741552598e-13
-1.034079152797546401e-13
-7.370741814393974497e-14
-5.357137073765365797e-14
-3.975034893226006098e-14
-3.003712589503979467e-14
-2.299522293681355890e-14
-1.770917635874150596e-14
