# bin_2_7
-2.377354320069998149e-19
-2.618618206888095676e-19
-2.820333872735065030e-19
-2.952684326443278321e-19
-2.985880447565543669e-19
-2.886374617735980401e-19
-2.635341259133199715e-19
-2.275438219648758047e-19
-1.875485026352361254e-19
-1.543873081290716867e-19
-1.324033180989227585e-19
-1.119271638486496250e-19
-8.250959542143453342e-20
-5.907078177142739291e-20
-4.745027863839335036e-20
-3.222526083780917754e-20
-2.427317518632811485e-20
-1.699949796694421578e-20
-1.206197912853827091e-20
-8.647448343068891304e-21
-6.249059200710746573e-21
-4.580895788286096986e-21
-3.414071024437982486e-21
-2.592935359711632374e-21
-1.999175480059726648e-21
-1.556657125095711375e-21
-1.216417921702672998e-21
-9.470365013177502464e-22
-7.297802480475547760e-22
-5.534711629170717052e-22
-4.112926046470067998e-22
