# bin_12_4
-1.020506301895288005e-09
-1.110517856136851459e-09
-1.178227176663770304e-09
-1.210890122881739118e-09
-1.197093391850340427e-09
-1.123219906322502428e-09
-9.962299743201993712e-10
-8.377276276998704000e-10
-6.869819848278926572e-10
-5.768299312460006245e-10
-4.955314425478992466e-10
-3.936589426669737037e-10
-2.792776672692184622e-10
-2.154898984063539006e-10
-1.598107694773316680e-10
-1.141797204860973076e-10
-8.225238248907891772e-11
-5.925681308125025464e-11
-4.255179544963439131e-11
-3.087714663868236627e-11
-2.273373824579431632e-11
-1.702138019111446305e-11
-1.297125595932856115e-11
-1.003790875671343306e-11
-7.844308330266662562e-12
-6.151460572337699864e-12
-4.807220021123903747e-12
-3.718716763975921929e-12
-2.831329558219871417e-12
-2.111888814669087207e-12
-1.538019661171092493e-12
