# bin_3_14
-5.414012378645515198e-32
-6.151851124306480206e-32
-6.883174688067685147e-32
-7.554871001379565844e-32
-8.095884809311590043e-32
-8.416736001092225048e-32
-8.440701371754873296e-32
-8.055449391177632112e-32
-7.256037494028569479e-32
-6.177913735742760797e-32
-5.063593008834477752e-32
-4.203830830449558033e-32
-3.636812905149940107e-32
-3.003023190208756272e-32
-2.125885560519227981e-32
-1.582878969457998308e-32
-1.230153070219651187e-32
-8.278449056371705623e-33
-6.017752597561087853e-33
-4.212084024030373429e-33
-2.878192565660202665e-33
-1.967468633318042864e-33
-1.347097543098224557e-33
-9.290979348821081971e-34
-6.477702057136754672e-34
-4.596639465988231450e-34
-3.325370252850522229e-34
-2.456635048949678609e-34
-1.849781639294008866e-34
-1.412875554885235295e-34
-1.087159639662843790e-34
