# bin_12_11
3.454038309481807837e-06
3.938315317793465343e-06
4.426211987005437570e-06
4.884621994482717884e-06
5.269795656075780065e-06
5.525753743068882536e-06
5.595620606741668662e-06
5.416316005683752587e-06
4.948324575464433685e-06
4.274624333818294581e-06
3.521740838439735677e-06
2.898129227635193051e-06
2.490299192779177282e-06
2.110528949444718382e-06
1.548170893367600052e-06
1.100615005352363804e-06
8.893700168500460362e-07
5.876385218634480965e-07
4.419215269642826419e-07
3.011020299475148953e-07
2.048811675204259535e-07
1.402645217846360023e-07
9.537816699986414959e-08
6.494718708234624941e-08
4.447641046728996408e-08
3.091429626275442762e-08
2.186483672752659892e-08
1.578989839551209037e-08
1.165502290087207815e-08
8.771187032653963488e-09
6.693891366724943008e-09
