# bin_2_2
1.070588665541004763e-05
1.112527063348163279e-05
1.115742484892682306e-05
1.067638203386169626e-05
9.661496053301889034e-06
8.277451217024238181e-06
6.818684161563157553e-06
5.647576305145930073e-06
4.834989616753168040e-06
4.005493144237810991e-06
2.941749777121751854e-06
2.167409855798142266e-06
1.691676584062990678e-06
1.196027477596059735e-06
8.893958933158835084e-07
6.430489625954346987e-07
4.711087262718130039e-07
3.493873026840626311e-07
2.632287553355843344e-07
2.019187445788580752e-07
1.574293032012084286e-07
1.243085013062076197e-07
9.873732585303123127e-08
7.832679212428397677e-08
6.162583825618817881e-08
4.777701790660858647e-08
3.630005672152023920e-08
2.691700218946954690e-08
1.942922032118473131e-08
1.364588595865458009e-08
9.338043518733049756e-09
