# bin_15_14
4.705003459891275812e-06
5.397733085331147168e-06
6.112613897723105722e-06
6.807802885381500725e-06
7.427920363126489895e-06
7.899108675645344788e-06
8.130637139170248398e-06
8.054959371049199128e-06
7.560120594145027923e-06
6.703180185222873059e-06
5.619515716918813048e-06
4.595842249180249832e-06
3.867775886477251007e-06
3.349382804648511241e-06
2.651845308955721878e-06
1.830577719426985982e-06
1.441638084442910109e-06
1.040057935347711456e-06
7.392213806266485280e-07
5.007147845219503623e-07
3.529986612387539290e-07
2.391079031184839132e-07
1.600372630261311187e-07
1.070128936896570338e-07
7.137861029360652249e-08
4.784505790432414244e-08
3.240325033351728010e-08
2.227345573994220094e-08
1.562773431364585866e-08
1.122473071259576352e-08
8.254532695637259263e-09
