# bin_4_2
3.140448883206975477e-07
3.367268030591074099e-07
3.506836768655811768e-07
3.525596369208022956e-07
3.381705804128499494e-07
3.064803180393639678e-07
2.627469108173514384e-07
2.161025655732919858e-07
1.786603024473145492e-07
1.534634619486352976e-07
1.279364408345885472e-07
9.323824530572920309e-08
6.828093845338052719e-08
5.391023715835142357e-08
3.731528364153472845e-08
2.789480684495236336e-08
1.995733831290896900e-08
1.440692101544803720e-08
1.053150306092506819e-08
7.802451915921783633e-09
5.881035373334571062e-09
4.509264342429036648e-09
3.511799768604477465e-09
2.761555444770578563e-09
2.178122487541821516e-09
1.711244261842835289e-09
1.330055668016168395e-09
1.016761981448065940e-09
7.607926448015126473e-10
5.551917006412418331e-10
3.944251686353668935e-10
