# bin_9_9
4.344017825241058809e-06
4.916678870442564215e-06
5.474066180822316904e-06
5.972038047386449686e-06
6.351690004325187227e-06
6.540776232303759871e-06
6.484252726795031630e-06
6.093305029558859732e-06
5.409336565761616031e-06
4.541161725488315975e-06
3.714438143688584788e-06
3.121214716807020265e-06
2.702120985197917009e-06
2.149485923266945603e-06
1.489644581262796774e-06
1.166349204733502087e-06
8.508979103099779720e-07
6.030582231548249843e-07
4.160272771463740390e-07
2.960993334658278607e-07
2.044058191414468947e-07
1.407029546972483570e-07
9.762048052297165855e-08
6.832995461019116210e-08
4.856346919861679537e-08
3.518372690230195089e-08
2.599542713810492956e-08
1.957623354996750858e-08
1.495982212981139488e-08
1.152752788580036196e-08
8.890086264365667929e-09
