# bin_11_4
4.290955484127350074e-15
4.840545004448126566e-15
5.367677009067732298e-15
5.827134046654158239e-15
6.159598480248114524e-15
6.296231222368355221e-15
6.180184916983134071e-15
5.737094114970420433e-15
5.034861163902837777e-15
4.187709459554072373e-15
3.428492552199758117e-15
2.909663639538673913e-15
2.506384087914502198e-15
1.927327410974904456e-15
1.336742042413604872e-15
1.075505852664174531e-15
7.452410065430021420e-16
5.510641960100602235e-16
3.739109898697062255e-16
2.634435807603127129e-16
1.836199056804337302e-16
1.278593242903607167e-16
8.961630164356293011e-17
6.346334447099547442e-17
4.576260854146763513e-17
3.364924037346265624e-17
2.521284882746351477e-17
1.920641848181975206e-17
1.478919504694829178e-17
1.143086040847784748e-17
8.802726237234477244e-18
