# bin_15_1
9.029790537525154938e-37
1.028419827035514892e-36
1.154133866309852621e-36
1.271401764135666343e-36
1.368646220364358170e-36
1.431143650160263281e-36
1.444720884839363347e-36
1.391983017594549652e-36
1.265699097315147223e-36
1.088108420866949458e-36
8.946693031101523588e-37
7.381563240908076347e-37
6.360141442286036583e-37
5.348617828566754834e-37
3.874122917714760677e-37
2.793891905413755219e-37
2.235154015542809137e-37
1.480054885933506237e-37
1.104500511447701592e-37
7.590839712872958878e-38
5.167745421425764421e-38
3.535354479823679973e-38
2.407511585158614779e-38
1.645934181721322550e-38
1.133736492300767807e-38
7.934689831640815399e-39
5.655214668940079673e-39
4.116492046667627758e-39
3.060432865495403191e-39
2.316137394136200837e-39
1.773640779219935094e-39
