# bin_11_10
3.391733538463941512e-06
3.857631374071363176e-06
4.321511412347225423e-06
4.750324513726215928e-06
5.099966681241994802e-06
5.314696825195906797e-06
5.344401328009033367e-06
5.120277832452276602e-06
4.629417322909096783e-06
3.956704444642534823e-06
3.246428841624183520e-06
2.687916834809953657e-06
2.322493221020402136e-06
1.933011864161552272e-06
1.379882722044266067e-06
1.013948926852791678e-06
7.985969958062039169e-07
5.326237180726196830e-07
3.921018225853192109e-07
2.724484413824273723e-07
1.858036359494116889e-07
1.270149164400873125e-07
8.672877106743035903e-08
5.959909814872767763e-08
4.134987769334475501e-08
2.918133090825533826e-08
2.098769999951964569e-08
1.541710967624035715e-08
1.155382028082103934e-08
8.796087571736783260e-09
6.758149588561381446e-09
