# bin_15_3
4.488072481269011488e-27
5.112042996146837895e-27
5.737656780418167376e-27
6.321603414324824346e-27
6.806396803170728571e-27
7.118898906117633114e-27
7.188372948023392728e-27
6.928656475569557536e-27
6.302454828446777881e-27
5.420251392768797339e-27
4.457217744710731039e-27
3.676558263359567806e-27
3.167287931099675162e-27
2.665495859209804430e-27
1.932420641535502687e-27
1.391798498834628383e-27
1.114799155962611872e-27
7.376625016438921606e-28
5.510897084327037854e-28
3.784715028248010864e-28
2.576091972405836910e-28
1.762456124404416192e-28
1.199947309228531063e-28
8.200780075365471933e-29
5.646050485092836760e-29
3.949306771810152110e-29
2.813034116748695902e-29
2.046380462248825057e-29
1.520580224802006802e-29
1.150325155626826959e-29
8.807102968172584466e-30
