# bin_10_5
8.753971039370526199e-11
9.859145314054052985e-11
1.091147743458019001e-10
1.181705488788030131e-10
1.245389860755179322e-10
1.268613336144325789e-10
1.239086764805349380e-10
1.143656762795182747e-10
9.981103064374241848e-11
8.270884521571744964e-11
6.780101562800693251e-11
5.779681210646242122e-11
4.955938035915533903e-11
3.749748212442155467e-11
2.616751226462538236e-11
2.118051592846159049e-11
1.440136413431905545e-11
1.078837474924097891e-11
7.338783255110783292e-12
5.134859622473827546e-12
3.591828391326025708e-12
2.512154022566809712e-12
1.768833264893478921e-12
1.259762797606066077e-12
9.143921051224459020e-13
6.767276483655657717e-13
5.100380018164371003e-13
3.902623584542662335e-13
3.012797095237888991e-13
2.329875234537023033e-13
1.791715598648783554e-13
