# bin_6_6
4.740233835001599169e-06
5.277033889853195162e-06
5.758288144389517179e-06
6.127840004559681963e-06
6.316858230545286696e-06
6.271014280552554211e-06
5.906289526584331619e-06
5.255095404363360767e-06
4.422460049697326474e-06
3.618431995261338536e-06
3.032640237068240510e-06
2.622928979737610794e-06
2.101351327871066716e-06
1.466554697135298854e-06
1.137195184575298841e-06
8.438294425871721796e-07
5.956757502364088935e-07
4.211079644166348236e-07
3.025198382683761223e-07
2.129213195343834485e-07
1.505625144593840642e-07
1.078105271084534002e-07
7.833209535640139792e-08
5.795148133967469583e-08
4.369026443656104000e-08
3.345523019716939594e-08
2.590329574386750914e-08
2.014553791417174180e-08
1.562442790746978229e-08
1.200306120534938993e-08
9.082340363507866017e-09
