# bin_14_10
7.744561186357484809e-08
8.845275677327865814e-08
9.962582460422677567e-08
1.102312276074193230e-07
1.193070952911268102e-07
1.256086838794718324e-07
1.277744231194367698e-07
1.245209188997426966e-07
1.145995813476746350e-07
9.972874011074363097e-08
8.247487083347862736e-08
6.766735985011416028e-08
5.785365106632970190e-08
4.949572718975511106e-08
3.706261612333144060e-08
2.591339541701022696e-08
2.104752853777041129e-08
1.404485471802048967e-08
1.056150800954099488e-08
7.110767192154314498e-09
4.859500666904144526e-09
3.326872901192774802e-09
2.259107523609697683e-09
1.529908325973191667e-09
1.038966852687407870e-09
7.146851449983743040e-10
4.994810781576818008e-10
3.561046059548405136e-10
2.596532836040889074e-10
1.934128491452962561e-10
1.465668082191850101e-10
