# bin_8_5
5.452836826343409084e-08
6.098352929321841187e-08
6.692150915635166864e-08
7.171779698181237506e-08
7.458630205517264308e-08
7.483949902541618600e-08
7.150850147186688612e-08
6.450097979206112399e-08
5.500404279820667356e-08
4.510857801639882415e-08
3.740070648088709787e-08
3.230587006829910855e-08
2.675390643120698589e-08
1.906811376415356795e-08
1.412599343648679267e-08
1.105705970837123838e-08
7.482332965406524968e-09
5.509834472370412651e-09
3.891743217156516928e-09
2.713110186850492623e-09
1.906695949585544870e-09
1.350254266640705135e-09
9.691705987201988320e-10
7.070017704914345826e-10
5.260560347451022870e-10
3.983717545640783521e-10
3.060105412561184150e-10
2.370909437493298763e-10
1.839513635790043150e-10
1.419061459198929756e-10
1.081569942693275140e-10
