# bin_12_1
-3.467720226838190292e-09
-3.400035509121431032e-09
-3.175989320655806760e-09
-2.815437315350382625e-09
-2.384859439907285420e-09
-1.976639908608942485e-09
-1.653688490452939287e-09
-1.387716736755051103e-09
-1.104805821649120027e-09
-8.221459434324913217e-10
-6.166920240230199685e-10
-4.653756695566558983e-10
-3.396081672106536009e-10
-2.504498599339115213e-10
-1.846336342077820610e-10
-1.377902776334249228e-10
-1.043780456550197264e-10
-8.047587554680194693e-11
-6.308360466247756896e-11
-5.007250879502303720e-11
-4.000478041818352138e-11
-3.193788445075951999e-11
-2.529892584581498748e-11
-1.975737036094027185e-11
-1.513029789991873381e-11
-1.131619575604076810e-11
-8.246154227110035529e-12
-5.850727332783346404e-12
-4.045896026398840857e-12
-2.733051437505805586e-12
-1.808808945521717111e-12
