# bin_11_8
-1.959009842399391068e-10
-2.204935800495366719e-10
-2.438417461596128433e-10
-2.638279324713536502e-10
-2.777101459344401819e-10
-2.825215971542964634e-10
-2.753786156782397301e-10
-2.536689529471242092e-10
-2.208760666816132210e-10
-1.830169575307887964e-10
-1.502605159358039801e-10
-1.282665533911101293e-10
-1.095784350224920547e-10
-8.248231179505163027e-11
-5.798564410125210026e-11
-4.669666160859866160e-11
-3.181908765259516420e-11
-2.373695391458068961e-11
-1.624659078154868166e-11
-1.137085639854054666e-11
-7.952257386468937532e-12
-5.564320083735928671e-12
-3.924676816685222063e-12
-2.801682229756387381e-12
-2.038371843753443201e-12
-1.511863279473398260e-12
-1.141517224527463766e-12
-8.744332487855381088e-13
-6.752983763628758143e-13
-5.220152873438336490e-13
-4.010214886196357527e-13
