# bin_3_5
-8.349374763700887038e-13
-9.081294171687796926e-13
-9.628450652896062929e-13
-9.884731956984133847e-13
-9.760816772290778476e-13
-9.137129955340824340e-13
-8.083785032348777763e-13
-6.775749815757080788e-13
-5.549055718680325521e-13
-4.670756098852322597e-13
-4.025090670848632995e-13
-3.178149573110825100e-13
-2.229626723615211090e-13
-1.747900311176990125e-13
-1.278745023795076521e-13
-9.231699827411518185e-14
-6.570012825787788768e-14
-4.765259308270031285e-14
-3.428126920466051958e-14
-2.490111829499893794e-14
-1.837291880947660794e-14
-1.378831217461716798e-14
-1.053474662429491619e-14
-8.170897211391270607e-15
-6.396726021951832034e-15
-5.022409070468071868e-15
-3.927041718039192834e-15
-3.037526244771667132e-15
-2.311027686567189361e-15
-1.721574610899436372e-15
-1.251426157633200550e-15
