# bin_11_13
-1.651851878889632397e-12
-1.883831187239815690e-12
-2.117713744076467963e-12
-2.337693494537980113e-12
-2.522861265266127448e-12
-2.646424048195772330e-12
-2.681090678644945343e-12
-2.596587367495716554e-12
-2.373787019724409292e-12
-2.050864796313227688e-12
-1.691503525411954956e-12
-1.392197395749797559e-12
-1.196144114814862462e-12
-1.014294752377057000e-12
-7.449985729522392097e-13
-5.294324521532317094e-13
-4.278307150379464909e-13
-2.829877737190734275e-13
-2.127701223054861981e-13
-1.449163060998711271e-13
-9.865560315762459051e-14
-6.754303334133732270e-14
-4.593056509155091681e-14
-3.126958884192907450e-14
-2.140575248439398200e-14
-1.487118826092924470e-14
-1.051167362891857348e-14
-7.586134406461920252e-15
-5.595995432337838448e-15
-4.209081884562340570e-15
-3.210995447474948090e-15
