# bin_3_12
-1.570927762605935200e-27
-1.775532978734665381e-27
-1.973432592627567449e-27
-2.148399282553060164e-27
-2.278911941069869023e-27
-2.339121204283992562e-27
-2.308869965702567110e-27
-2.157842348449350814e-27
-1.905783995053081316e-27
-1.593327806446993664e-27
-1.303842199833513884e-27
-1.100999190865613887e-27
-9.516977153159290210e-28
-7.454157812835769586e-28
-5.159323909393575384e-28
-4.100389495673525629e-28
-2.917663583587346550e-28
-2.113124456170662233e-28
-1.440992709137465789e-28
-1.022718298785783114e-28
-7.093592534906273478e-29
-4.909780741326110739e-29
-3.423393395650085946e-29
-2.409410330195348160e-29
-1.724345931556554622e-29
-1.258254494459690327e-29
-9.360857496573336309e-30
-7.090266080414930950e-30
-5.439910562281129537e-30
-4.199467498443377707e-30
-3.237492509389065576e-30
