# bin_10_2
-2.090500776293980560e-09
-2.166567738303255858e-09
-2.165266249303594526e-09
-2.064750554601100856e-09
-1.864218743915680464e-09
-1.596342707411396347e-09
-1.319787016012157935e-09
-1.096823906703409175e-09
-9.338033567266390011e-10
-7.661348258793824382e-10
-5.685776638207749947e-10
-4.211579745650553512e-10
-3.235102879223887071e-10
-2.327566279142404970e-10
-1.712799050887369042e-10
-1.243850999089077545e-10
-9.131467012857916484e-11
-6.776424854226456127e-11
-5.109845599250204442e-11
-3.921905090847779298e-11
-3.058492408455514375e-11
-2.414062406023028880e-11
-1.915864411115814704e-11
-1.517957626337548999e-11
-1.192472939011759313e-11
-9.229636312176864531e-12
-7.001254348982526212e-12
-5.184721061878557495e-12
-3.739468629290605257e-12
-2.625758241919192737e-12
-1.797265750973292743e-12
