# bin_9_4
-8.191755757206459472e-10
-8.912128799256741766e-10
-9.452439421850403014e-10
-9.710496054178371241e-10
-9.594219382296870160e-10
-8.995206109276476328e-10
-7.971652855750930144e-10
-6.699567060580549258e-10
-5.496333810947499200e-10
-4.619486808539958489e-10
-3.967929842477358349e-10
-3.145137712404553752e-10
-2.230470797163392330e-10
-1.725165447603650834e-10
-1.275770419012283524e-10
-9.135349228175718070e-11
-6.572715096617236369e-11
-4.738253229034026898e-11
-3.404459534614462536e-11
-2.471765336140519589e-11
-1.821121632945984234e-11
-1.364500617160488206e-11
-1.040579207299235775e-11
-8.057319066043643871e-12
-6.299109230062646416e-12
-4.940764639748304666e-12
-3.861086962944743999e-12
-2.986247059530726991e-12
-2.272827576782377859e-12
-1.694447358472505466e-12
-1.233250174063087216e-12
