# bin_7_1
-3.022211942998766302e-09
-2.959432463670557496e-09
-2.760318163756797409e-09
-2.443427962259059741e-09
-2.067635148484267847e-09
-1.713566165222370846e-09
-1.434268286340480265e-09
-1.202782517795686001e-09
-9.554594516177412750e-10
-7.103957816646190572e-10
-5.333982520631282402e-10
-4.021266915047460956e-10
-2.934541852402235743e-10
-2.164663244993810599e-10
-1.596451864899526081e-10
-1.192135971742893816e-10
-9.037601498264970166e-11
-6.973616284291706852e-11
-5.470373741559516065e-11
-4.344379948395404679e-11
-3.471825088843503834e-11
-2.771727560628695060e-11
-2.194990765667931136e-11
-1.713350282895950201e-11
-1.311201470238135309e-11
-9.798739748837878049e-12
-7.134124406564227474e-12
-5.057307680917605529e-12
-3.494387322675491301e-12
-2.358810311905203322e-12
-1.560184371123914068e-12
