# bin_15_11
-1.343381842481859883e-10
-1.528727769845770154e-10
-1.713718075907018906e-10
-1.885305431078687760e-10
-2.026092759148176200e-10
-2.114023599416426214e-10
-2.128827552049732231e-10
-2.043708398806907590e-10
-1.851994619357253818e-10
-1.585746730368531494e-10
-1.303381963886954574e-10
-1.078421347128561127e-10
-9.306770551436137257e-11
-7.769805089230734614e-11
-5.581265337365526606e-11
-4.077535691668405067e-11
-3.223131895172028549e-11
-2.150633053657024618e-11
-1.587479909452379339e-11
-1.098840357700702527e-11
-7.494711107100334513e-12
-5.126532776165347591e-12
-3.499247333552289146e-12
-2.400785911864034601e-12
-1.661701021893251653e-12
-1.169399266717614435e-12
-8.384325254739500920e-13
-6.139272471615839694e-13
-4.587558592363477766e-13
-3.484581718864783088e-13
-2.673321177380903719e-13
