# bin_10_13
-2.786602721675099786e-13
-3.175741887856223166e-13
-3.566818911295326973e-13
-3.933045832566151291e-13
-4.238877210189447275e-13
-4.438947454856497965e-13
-4.488534615669400473e-13
-4.334734070175166941e-13
-3.951087629755987237e-13
-3.403170903418563839e-13
-2.803042622176999924e-13
-2.310527304310687485e-13
-1.988808226537467508e-13
-1.678853677062744758e-13
-1.223059165440082889e-13
-8.764561448591704202e-14
-7.048077649425638781e-14
-4.659794654207105534e-14
-3.492304952621444845e-14
-2.391253574651142222e-14
-1.627406544785787802e-14
-1.113776269842621704e-14
-7.579020801613822151e-15
-5.172269107420016302e-15
-3.553422862966330333e-15
-2.479281201111477512e-15
-1.760950430491726653e-15
-1.277283382769057087e-15
-9.465897608747762478e-16
-7.146356432520170659e-16
-5.464691941661394416e-16
