# bin_14_6
-5.798726247237858787e-10
-6.450005279088602481e-10
-7.031025960667115024e-10
-7.472740848108028504e-10
-7.692297228992388203e-10
-7.620305720114823509e-10
-7.160980371343391578e-10
-6.358606438469533359e-10
-5.345873878505173774e-10
-4.379845590362754089e-10
-3.678683646953610626e-10
-3.173938594103588350e-10
-2.525982726708197177e-10
-1.771986130272268438e-10
-1.375788896312918130e-10
-1.013356025372187593e-10
-7.201317092234019380e-11
-5.100178244639964287e-11
-3.646557025205130920e-11
-2.571223604897319183e-11
-1.823042895466878358e-11
-1.307756257810055015e-11
-9.519065625460406031e-12
-7.055596186592904942e-12
-5.327672757908472725e-12
-4.084149784395756354e-12
-3.163782607326830189e-12
-2.460143069903538918e-12
-1.906630529765723375e-12
-1.462980928300763080e-12
-1.105309916921215763e-12
