# bin_4_10
-9.118063864446996200e-20
-1.024642416306033927e-19
-1.130972753301298393e-19
-1.220773910344681343e-19
-1.281184432881336601e-19
-1.298906039255370838e-19
-1.259717344367373199e-19
-1.153688276776195523e-19
-9.986685315829064357e-20
-8.245464524889140644e-20
-6.780296755277732661e-20
-5.813689989618961077e-20
-4.940263677595899433e-20
-3.655742049192474041e-20
-2.591262456425412683e-20
-2.095117265767237774e-20
-1.403198681245449606e-20
-1.058132004858983574e-20
-7.275390468527251068e-21
-5.060939056308566239e-21
-3.550143843231453116e-21
-2.493816498337928360e-21
-1.767324173865385451e-21
-1.269106930755256983e-21
-9.294726620642355671e-22
-6.938095925860672894e-22
-5.268144073335359293e-22
-4.052370569688028307e-22
-3.136748750164685718e-22
-2.425575635594586001e-22
-1.860617026002256887e-22
