# bin_10_9
-7.232916395417856850e-11
-8.169913650868281348e-11
-9.073842651553981032e-11
-9.869450824717879741e-11
-1.045735440723035579e-10
-1.072000115221379500e-10
-1.056226192147668470e-10
-9.851031501515763093e-11
-8.682979681256042541e-11
-7.250445249056166558e-11
-5.935903783724907654e-11
-5.020262387706076724e-11
-4.332481920711287632e-11
-3.374582803565191926e-11
-2.340998208728148979e-11
-1.864140261266711271e-11
-1.317780841254021950e-11
-9.586972433047096210e-12
-6.546810865867517446e-12
-4.632437604735227958e-12
-3.217160795799499355e-12
-2.230449291243312608e-12
-1.557561401418087140e-12
-1.098356694901078254e-12
-7.878716021573063932e-13
-5.762393477476903924e-13
-4.296066036253763474e-13
-3.259297760287474500e-13
-2.502997728014421077e-13
-1.932575630481872008e-13
-1.489054741894398226e-13
