# bin_4_3
-4.317728528643445101e-10
-4.589340073207613885e-10
-4.729051186717443390e-10
-4.691610162666054589e-10
-4.424744350686780978e-10
-3.945365695799981515e-10
-3.335132745968073838e-10
-2.739698182982884343e-10
-2.291324125810602181e-10
-1.965462198986731390e-10
-1.581216100451795238e-10
-1.135078100239171455e-10
-8.629178372324014236e-11
-6.528945554885213728e-11
-4.647309788680955536e-11
-3.404004448357614415e-11
-2.464956868941032718e-11
-1.792125514109298413e-11
-1.319985011627828700e-11
-9.876755575995214077e-12
-7.520671417585730680e-12
-5.822207954946606823e-12
-4.566535999365898772e-12
-3.605230087440837227e-12
-2.845367358134772940e-12
-2.229480160989860623e-12
-1.723150930420053215e-12
-1.306644091322388596e-12
-9.679964119033378868e-13
-6.986613856715000570e-13
-4.908812243347092203e-13
