# bin_1_10
-7.927640383356993984e-32
-8.878481176207575790e-32
-9.759457375070482165e-32
-1.048069121455905635e-31
-1.092843188769623390e-31
-1.099860834246137023e-31
-1.055326146629910055e-31
-9.559667984084575587e-32
-8.183010781363207089e-32
-6.724750483546016884e-32
-5.562890201749665367e-32
-4.798357036867918920e-32
-4.005042771767823110e-32
-2.881049833638593319e-32
-2.107529422082957793e-32
-1.668806587012711386e-32
-1.121994072609690746e-32
-8.342093901720909796e-33
-5.850451651024178412e-33
-4.072227051953787298e-33
-2.860393212932346882e-33
-2.020586357821945825e-33
-1.445344175743060009e-33
-1.050011461771789923e-33
-7.781193948454099621e-34
-5.871364101907412701e-34
-4.497575414742596809e-34
-3.479073291971150728e-34
-2.698417292926851572e-34
-2.083470786326008790e-34
-1.590956724535522383e-34
