# bin_15_5
-8.199064267564554882e-10
-9.037840278456504028e-10
-9.742980308094396033e-10
-1.021205139550692753e-09
-1.034118358456042444e-09
-1.001695333157583571e-09
-9.172509728147351418e-10
-7.940930175182186997e-10
-6.566722807090717227e-10
-5.408355006339844931e-10
-4.624732391908221622e-10
-3.909722948430608657e-10
-2.912731164485984333e-10
-2.086191507514117858e-10
-1.659092490007094866e-10
-1.147079651933417636e-10
-8.522917037691932018e-11
-5.979275043188298431e-11
-4.259939157810464996e-11
-3.047419332463892488e-11
-2.197525438855074617e-11
-1.607415301696310817e-11
-1.195173299879392394e-11
-9.054169283405362641e-12
-6.965392406279433216e-12
-5.414152698865151266e-12
-4.226075521682739923e-12
-3.288887736271205066e-12
-2.535104263034816704e-12
-1.924352498054141017e-12
-1.432054033425845334e-12
