# bin_8_5
-4.378763721340464185e-10
-4.822037156379184364e-10
-5.192018110896218847e-10
-5.433763175172203741e-10
-5.492752562756171912e-10
-5.307272964482581456e-10
-4.846627089031839796e-10
-4.184513470155971840e-10
-3.455399048919371958e-10
-2.848825439039586677e-10
-2.440065653168166050e-10
-2.055893842419717495e-10
-1.521017814393753200e-10
-1.094741913514699795e-10
-8.697945558078423462e-11
-5.992438818431996901e-11
-4.459896332096558966e-11
-3.133857262023245823e-11
-2.231370299032905043e-11
-1.598279343132281225e-11
-1.154610250378129025e-11
-8.463051414738273976e-12
-6.306797052281694981e-12
-4.788095683195540408e-12
-3.689926735713940095e-12
-2.871589510989309714e-12
-2.242631754503989860e-12
-1.745037938033448318e-12
-1.344072025368527850e-12
-1.018965105824913026e-12
-7.570030244590546108e-13
