# bin_15_8
-3.408923851695616070e-10
-3.838954082547891795e-10
-4.248257769166202524e-10
-4.600195462666455103e-10
-4.847187234339554676e-10
-4.937014954867950688e-10
-4.820324613028642009e-10
-4.448951004131879589e-10
-3.881323973194155761e-10
-3.219941864116254071e-10
-2.642357276092870532e-10
-2.252323167530566992e-10
-1.927430624615556359e-10
-1.458796479245363337e-10
-1.023159068914233918e-10
-8.227194326632274814e-11
-5.637325342100139104e-11
-4.189936719598933909e-11
-2.866369120201893068e-11
-2.009286913199696216e-11
-1.403705022121956809e-11
-9.807972665957445508e-12
-6.906711188380729693e-12
-4.920790074681743593e-12
-3.572161429925148490e-12
-2.643723410680526092e-12
-1.992250654864734091e-12
-1.523900020674588176e-12
-1.175887925915753526e-12
-9.088361877405412476e-13
-6.985115494751764241e-13
