# bin_3_8
-1.758737056837513898e-18
-1.955039260345603489e-18
-2.129476030212743161e-18
-2.260986607231661078e-18
-2.324154674374655693e-18
-2.298823867400688877e-18
-2.154883221729200083e-18
-1.908743386902912572e-18
-1.600143862076504535e-18
-1.309519110253685152e-18
-1.102160629316701723e-18
-9.524904243137420794e-19
-7.534232380751992313e-19
-5.242841688368165026e-19
-4.122961349402193379e-19
-2.998341005010810168e-19
-2.153804502698379971e-19
-1.505368807489836692e-19
-1.083013119768678278e-19
-7.653082640252418366e-20
-5.431860317384353177e-20
-3.905656294378779451e-20
-2.849807059746006932e-20
-2.118346983499688801e-20
-1.603873444838163430e-20
-1.232386555555841894e-20
-9.563775902489267456e-21
-7.444549994575775198e-21
-5.771207942456194116e-21
-4.426315555886043960e-21
-3.340571496352847585e-21
