# bin_10_11
-8.643148345065410676e-12
-9.814239882429629958e-12
-1.097101713184986023e-11
-1.202818447064397067e-11
-1.287139260631621306e-11
-1.335705330464577247e-11
-1.336626401579238031e-11
-1.271729297435652248e-11
-1.142368026776549634e-11
-9.695061272244356860e-12
-7.946147204113914540e-12
-6.615035394391909947e-12
-5.727011956989291428e-12
-4.695355620738362856e-12
-3.305119382707523948e-12
-2.489030528537729753e-12
-1.910605015874976086e-12
-1.298336292380231497e-12
-9.330590213951441714e-13
-6.566478708396077858e-13
-4.496195915390842790e-13
-3.075727480000630645e-13
-2.111601161537487736e-13
-1.461015310924410046e-13
-1.022885508879457804e-13
-7.291860733743541469e-14
-5.300378727009377612e-14
-3.933314953306695301e-14
-2.972428082269244631e-14
-2.275712654659421029e-14
-1.752652157464611816e-14
