# bin_1_2
-2.999226946390522384e-11
-3.014405496934026003e-11
-2.895344025074021801e-11
-2.633227819770203847e-11
-2.268427817155392165e-11
-1.877380437502465380e-11
-1.553469513330349955e-11
-1.323084143172085319e-11
-1.100444263991759873e-11
-8.232576130177906913e-12
-6.034776314920595178e-12
-4.694151858397416817e-12
-3.376489603161769913e-12
-2.501898475109400695e-12
-1.823969937903346995e-12
-1.348563660215293983e-12
-1.008947533147244804e-12
-7.678140662741350962e-13
-5.950730689611299372e-13
-4.684588274204210799e-13
-3.728714983468751161e-13
-2.979660433761455943e-13
-2.372910930765999747e-13
-1.870155888238128772e-13
-1.449523196429351896e-13
-1.099187300768287808e-13
-8.124952455435340120e-14
-5.843511042695882108e-14
-4.089807789326925271e-14
-2.790853926378939022e-14
-1.862319970785520732e-14
