# bin_3_6
-1.861499394035155355e-14
-2.042466542683735947e-14
-2.189208165296931134e-14
-2.277941731991044158e-14
-2.287344954013346761e-14
-2.188742245227734415e-14
-1.978009284367189922e-14
-1.689683969084087081e-14
-1.388045050373949974e-14
-1.149844219501408465e-14
-9.910924537959670925e-15
-8.228423420510036320e-15
-5.918835129042116022e-15
-4.366894538914006961e-15
-3.434257152583984929e-15
-2.348651418168854014e-15
-1.745949501636963088e-15
-1.242877572578774503e-15
-8.829511380667554137e-16
-6.347678806040169361e-16
-4.615143010457282096e-16
-3.409718279274764898e-16
-2.563280792351236381e-16
-1.961836181197864224e-16
-1.521617019972739143e-16
-1.189223975269208447e-16
-9.303251765653325810e-17
-7.232897347012107116e-17
-5.553565006221019268e-17
-4.189056015027034709e-17
-3.091394518687384958e-17
