# bin_6_4
7.296981984166954693e-12
8.057930212566453439e-12
8.705291263996113132e-12
9.148360004880312710e-12
9.290836241183095460e-12
9.035885819413053511e-12
8.303929953043003715e-12
7.216552329747602026e-12
5.968845920338357446e-12
4.902340460533909374e-12
4.188722887083922092e-12
3.570203981168833256e-12
2.676242070378296248e-12
1.891261928626044828e-12
1.525381768706093108e-12
1.043488730317595495e-12
7.847899580626943241e-13
5.455936845674950936e-13
3.881267410346857046e-13
2.777132124915747855e-13
2.000141121928836502e-13
1.459814704791608037e-13
1.082587339091513182e-13
8.183500027069931010e-14
6.285720914467714114e-14
4.881993969349854477e-14
3.811181664504416193e-14
2.968889100129477490e-14
2.292331599692570911e-14
1.743999467417036875e-14
1.301332099986510758e-14
