# bin_11_2
1.357246836611701527e-27
1.528145058738772594e-27
1.690556214507642201e-27
1.829808408908070665e-27
1.926893715085376655e-27
1.960981205599292189e-27
1.912454859957871763e-27
1.762122704062444977e-27
1.535268255849246672e-27
1.271083997340154239e-27
1.042923987042608261e-27
8.905850296890669390e-28
7.622769765152478469e-28
5.736819833124407444e-28
4.017674885947031425e-28
3.254339444481788038e-28
2.202827110826721754e-28
1.654775357746214401e-28
1.128507224938543417e-28
7.883308261991442363e-29
5.520558482567081699e-29
3.866671302941819847e-29
2.727617477288922524e-29
1.947054692390232922e-29
1.416782410457685055e-29
1.051048583561881190e-29
7.938194628370202377e-30
6.083381710448769513e-30
4.700357297551238444e-30
3.635456484597074109e-30
2.794383194535876028e-30
