# bin_10_6
6.949523706866275584e-14
7.841574910038806317e-14
8.697609616696311241e-14
9.444264076382387751e-14
9.985235531328239872e-14
1.020875043298285931e-13
1.002221223001175095e-13
9.304892640483648350e-14
8.167070438559428286e-14
6.794057233113806899e-14
5.563998614603607592e-14
4.723919369550871754e-14
4.069927673305115813e-14
3.129040799386567948e-14
2.170933427690246163e-14
1.747636688284108196e-14
1.210489030993043677e-14
8.957815083478314312e-15
6.078988214955520202e-15
4.283396006841516971e-15
2.986733869629599052e-15
2.080667106959976662e-15
1.458962180675423445e-15
1.033658768020171274e-15
7.457110225240309275e-16
5.485677408289867790e-16
4.111985826237318616e-16
3.133419927056163639e-16
2.413361223840468649e-16
1.865635422760567329e-16
1.436832858877053244e-16
