# bin_9_7
9.563492809032597897e-12
1.078201142925733951e-11
1.194698167265614154e-11
1.295649701995757431e-11
1.367747770458199846e-11
1.395857641563395271e-11
1.366865211952921114e-11
1.265259513012247673e-11
1.107361387668914958e-11
9.193894705955316307e-12
7.533974787643688293e-12
6.411324964365540906e-12
5.511428694358706306e-12
4.201921726444157303e-12
2.923610374750188339e-12
2.361929206717079933e-12
1.619255520684711785e-12
1.207017039057592349e-12
8.198174678112907500e-13
5.755176747611556635e-13
4.020825898039377374e-13
2.807753786222972066e-13
1.973436345312071042e-13
1.402228271634968974e-13
1.015050310134019828e-13
7.492185699404084171e-14
5.633204429263217108e-14
4.302658949713555709e-14
3.318451500393330938e-14
2.566107364639407146e-14
1.974950607797385340e-14
