# bin_9_8
3.184072105304205148e-11
3.597202986624716500e-11
3.995807904458359992e-11
4.346733587238597405e-11
4.606143412551836468e-11
4.721879883849070190e-11
4.652796359966563854e-11
4.339057000704477190e-11
3.824609451347054704e-11
3.191757660557554776e-11
2.612297750748913090e-11
2.209955073895729786e-11
1.908784544019072431e-11
1.486035693432920078e-11
1.028756874530383196e-11
8.216337177599765345e-12
5.792945164892200176e-12
4.227852682325280408e-12
2.875696159317155780e-12
2.037171614780292202e-12
1.415650089478079429e-12
9.821054014465705803e-13
6.861829790731320613e-13
4.840790731086152437e-13
3.474270400861989373e-13
2.542513494169984937e-13
1.896661763667986826e-13
1.439782468345859426e-13
1.106273357775459495e-13
8.545372522330513742e-14
6.586459198038167583e-14
