# bin_13_11
1.201871473830967986e-11
1.372358979905960710e-11
1.545114586208491779e-11
1.708699292797531146e-11
1.848064548151427899e-11
1.943792981585423157e-11
1.975085615591564144e-11
1.921294042590838100e-11
1.764598635147851096e-11
1.532493227815674408e-11
1.266099596727084089e-11
1.039942864873728524e-11
8.908611567428998863e-12
7.603261177399997832e-12
5.657440878375828158e-12
3.974465745322673801e-12
3.227873922985160796e-12
2.144191881940510070e-12
1.615279736545912402e-12
1.091643916091349041e-12
7.446028022566623864e-13
5.100491310695910561e-13
3.466414093295296343e-13
2.352255020015715754e-13
1.602116656125176034e-13
1.106092052564488159e-13
7.762592024543899611e-14
5.559280714715285655e-14
4.071168234691239140e-14
3.043826882794951552e-14
2.312725235838661303e-14
