# bin_11_5
2.617834547306074571e-17
2.957402447945860237e-17
3.284982695174292228e-17
3.573308568825449974e-17
3.786331567505458153e-17
3.881173303693322476e-17
3.824013509224560427e-17
3.565701368241858639e-17
3.142566145156097314e-17
2.622278503745514199e-17
2.146199049491501907e-17
1.815846294903496527e-17
1.568357786443826884e-17
1.220546635724297322e-17
8.448948878335739545e-18
6.750691037909746554e-18
4.756387969147552215e-18
3.473464002245987047e-18
2.361705536612287554e-18
1.672910420828166618e-18
1.162667346923666085e-18
8.067238730323394934e-19
5.637115301599123243e-19
3.977283679880909903e-19
2.854976819423305403e-19
2.089646602504372693e-19
1.559075543538070532e-19
1.183671776946819867e-19
9.095715518762605443e-20
7.026272015359965066e-20
5.415576161860603838e-20
