# bin_14_7
1.506163548322020482e-17
1.716231766707413291e-17
1.927075757986270561e-17
2.124157190613864637e-17
2.288168388113213293e-17
2.394513796354342548e-17
2.419260170462789364e-17
2.333459498516676180e-17
2.123997105038709261e-17
1.827932605609149002e-17
1.503771737618390949e-17
1.240425492022190650e-17
1.068724500477256613e-17
9.003261419829272605e-18
6.534812276009404901e-18
4.701551423087351606e-18
3.771644208924511471e-18
2.494334109822836174e-18
1.866148809100065145e-18
1.281020521841450890e-18
8.719804166176279865e-19
5.967881698910032155e-19
4.063512052632187250e-19
2.777039878062348424e-19
1.911636412642665592e-19
1.336850671119973853e-19
9.519377117434451417e-20
6.922698393261754427e-20
5.142429212760131256e-20
3.889460913093696008e-20
2.977639605225340902e-20
