# bin_5_5
8.065375291084276645e-11
8.899487370410682264e-11
9.605188263019873722e-11
1.008183363570818792e-10
1.022474492610387399e-10
9.924381379508629750e-11
9.101032336945912523e-11
7.892562417579746419e-11
6.520939835266908915e-11
5.360477438115120756e-11
4.586319013560790903e-11
3.898395801203839998e-11
2.906139517323272477e-11
2.063001372929060986e-11
1.661575946974574428e-11
1.134133117988513480e-11
8.533574243217479645e-12
5.947856012151151705e-12
4.228060711708691952e-12
3.027432745508260769e-12
2.183036405660156914e-12
1.595764925971898520e-12
1.185473940080888983e-12
8.976062639631962842e-13
6.903713061495101395e-13
5.366853737147548594e-13
4.191285162164146537e-13
3.264494942687392278e-13
2.519001871880170727e-13
1.914502485715458947e-13
1.426644509590159195e-13
