# bin_12_11
2.764749769928386128e-11
3.152968812833757042e-11
3.544127992122274170e-11
3.911686146555874935e-11
4.220520645493945008e-11
4.425680974760328878e-11
4.481666927604244538e-11
4.337462186346218865e-11
3.962046088720423234e-11
3.422043486866501689e-11
2.819533625860619505e-11
2.321432929532423042e-11
1.995889650227944249e-11
1.690848608859472845e-11
1.239089139786018183e-11
8.822106690512120004e-12
7.125934689602685029e-12
4.708788551875752545e-12
3.540652182588295140e-12
2.414997257567689770e-12
1.643588712586905190e-12
1.125495615961805483e-12
7.656310944036257259e-13
5.217140067592644633e-13
3.575932055740287779e-13
2.488031573249502507e-13
1.761619201267860895e-13
1.273556219776583915e-13
9.409788633038806097e-14
7.087077528058503611e-14
5.411470917641854965e-14
