# bin_9
0.000000000000000000e+00
0.000000000000000000e+00
1.777066005513727377e-281
1.151199702083581223e-243
1.532982246928260368e-211
4.512848657674921256e-184
1.822326866441388975e-160
4.305017866240258747e-140
1.918345662857219157e-122
4.189721134427409244e-107
9.836180662196769813e-94
4.757489720864418659e-82
8.153727496023023924e-72
7.802370052181210315e-63
6.115495646435672500e-55
5.431988546713352832e-48
7.207481909520668521e-42
1.809013711624456000e-36
1.051771107956162783e-31
1.686608042639620797e-27
8.674511689443443077e-24
1.631008611070595043e-20
1.256378293803722841e-17
4.379566872288407448e-15
7.537270512185743408e-13
6.913392052143844970e-11
3.615135870252656109e-09
1.143830536014925943e-07
2.308325976604524647e-06
3.113626643510776276e-05
2.926714643852309974e-04
1.989786419247501197e-03
1.011592143968354646e-02
3.962083572044983182e-02
1.227854171473053702e-01
3.083334988069937888e-01
6.408356565260794335e-01
1.123214450013867438e+00
1.687804906455521170e+00
2.205870415146593100e+00
2.539152577410069611e+00
2.602594683290366362e+00
2.398314454151238007e+00
2.003919730133516097e+00
1.529798517770319055e+00
1.074388484343641981e+00
6.985576186459470094e-01
4.229487451031738732e-01
2.397560076335977508e-01
1.278913421205469247e-01
6.449902356443487639e-02
7.937870173954289510e-02
4.069646478279817514e-02
2.002335687887028468e-02
9.488467307955937222e-03
4.344909860165731275e-03
1.928582605156878250e-03
8.321889053853244195e-04
3.500232084618872170e-04
1.438616262803475254e-04
5.791223738663599382e-05
2.288253398700372570e-05
8.892201857957787194e-06
3.404751648348585756e-06
1.286686733600495693e-06
4.806807510170461788e-07
1.777752233377002342e-07
6.517827095940412628e-08
2.371886362912182160e-08
8.577203330683991782e-09
3.085472089091481167e-09
1.847528625049315996e-09
