# bin_5
0.000000000000000000e+00
2.064275826340680552e-118
2.390562373923032821e-98
5.163299521624902050e-82
1.881282815372207946e-68
4.081875122500209995e-57
1.336907329489441267e-47
1.364379872650011379e-39
7.731481516545548833e-33
3.879650838559781812e-27
2.522937139250496652e-22
2.908095107374303827e-18
7.700519528884685604e-15
5.814098415531427848e-12
1.500189048235536149e-09
1.540984386521994695e-07
7.171614681501287942e-06
1.688433256936354280e-04
2.210331452760068861e-03
1.745709540823202691e-02
8.928954399994155910e-02
3.146150355914880126e-01
8.058803452866796224e-01
1.571647507019270362e+00
2.425708562667869383e+00
3.056769126521904578e+00
3.222154109199067751e+00
2.894255855288764501e+00
2.247716922162490416e+00
1.527626296989108790e+00
9.184679612605710641e-01
4.935138930291873560e-01
2.393118061040496458e-01
1.057152421504106016e-01
4.292545691785408513e-02
1.615762847339013639e-02
5.682916920019701577e-03
1.881454931513858956e-03
5.903274247404409264e-04
1.766329370317503951e-04
5.068720728903993453e-05
1.402232520920165382e-05
3.757313219401969011e-06
9.793102902343487566e-07
2.492431516578200497e-07
6.215843577231173348e-08
1.523766270023566099e-08
3.682242100044354812e-09
8.794177862059661635e-10
2.080513072127697299e-10
4.885868036522322093e-11
7.756903520893735905e-11
2.026006916638280886e-11
5.292873971052670808e-12
1.384896077737585178e-12
3.633577914574125557e-13
9.569858686361939859e-14
2.532462419189029231e-14
6.739300964764708331e-15
1.804880373059176348e-15
4.867818201693033171e-16
1.322908993474662269e-16
3.624619605772412578e-17
1.001685885662686876e-17
2.793266273780110209e-18
7.862439583893800951e-19
2.234594202086471359e-19
6.414311865319106827e-20
1.859980925349576502e-20
5.449488161827153093e-21
1.613465889623000502e-21
8.814313111758659003e-22
