# bin_15_5
1.683446553994191913e-19
1.918710496876688664e-19
2.155311741226060593e-19
2.377070514186134774e-19
2.562582747206790184e-19
2.684522696567371532e-19
2.715575368105538847e-19
2.624502475553616269e-19
2.393767644088088545e-19
2.064275054255065749e-19
1.699017339231676656e-19
1.398737780101451711e-19
1.202801099972296449e-19
1.017186665829930042e-19
7.431455016850444982e-20
5.302033001381988301e-20
4.274393763914611870e-20
2.823259404557079375e-20
2.119608482042997039e-20
1.447475672183267077e-20
9.848038153218813704e-21
6.739735212769361551e-21
4.583732536639097475e-21
3.124383999213802976e-21
2.142851022850180957e-21
1.492185619533349937e-21
1.057593905197713096e-21
7.654327070743009318e-22
5.661357802476342968e-22
4.267409874034384337e-22
3.260028567198888409e-22
