# bin_15_1
9.057254598256312939e-37
1.031468762258191594e-36
1.157449529495728310e-36
1.274916647857157498e-36
1.372254894097984124e-36
1.434697939564686424e-36
1.448048389130052381e-36
1.394869535976428884e-36
1.267957468065477126e-36
1.089669723830065290e-36
8.956172395786163860e-37
7.387290447178312355e-37
6.364577670809913030e-37
5.352142620249671968e-37
3.875425373080171201e-37
2.793869471523042444e-37
2.235401726407208566e-37
1.479592159934440967e-37
1.104192261614935169e-37
7.587490024353014773e-38
5.164712387888054726e-38
3.532814679955673822e-38
2.405408284093291500e-38
1.644293958294812774e-38
1.132434686317599086e-38
7.924440330359760400e-39
5.647109238381673873e-39
4.110034208176922441e-39
3.055271448102090068e-39
2.312009986008816908e-39
1.770361846887637534e-39
