# bin_9_1
2.167319194568662871e-22
2.414924244898429843e-22
2.638078940191369289e-22
2.811273725354142315e-22
2.902997727463861743e-22
2.888193496626987950e-22
2.727925784230153084e-22
2.433468428941831573e-22
2.052618939466809126e-22
1.679230410847708416e-22
1.403684790985685475e-22
1.214330860782061692e-22
9.802186608534498453e-23
6.858099398105838015e-23
5.269229036809450500e-23
3.957668361269185428e-23
2.764759777098071485e-23
1.969888462146275739e-23
1.412303568153142623e-23
9.916741321613944534e-24
6.998486864366010846e-24
4.998623928138780516e-24
3.622330294856815925e-24
2.671956282634652266e-24
2.009005606368045204e-24
1.534975283686880709e-24
1.186699270255650523e-24
9.223403796215279210e-25
7.155031659034723020e-25
5.502037441144204136e-25
4.169829104524280187e-25
