# bin_11_10
3.402097928010113684e-06
3.869116126627461032e-06
4.333971756281425810e-06
4.763495623335780916e-06
5.113439914592805094e-06
5.327902877543410186e-06
5.356693067155944953e-06
5.130839586602507550e-06
4.637597254297886096e-06
3.962280606853584227e-06
3.249794077708650003e-06
2.689993207313960069e-06
2.324157581133959413e-06
1.934267136740602896e-06
1.380284028341653514e-06
1.013971136233481943e-06
7.986786634300231388e-07
5.324702752315416916e-07
3.919948440533410003e-07
2.723305917208048984e-07
1.856911700376559080e-07
1.269239868637285831e-07
8.665303357131099331e-08
5.953968367699514354e-08
4.130253521888817966e-08
2.914390190240848155e-08
2.095796037052704068e-08
1.539332221343642514e-08
1.153475347404226958e-08
8.780820433168359343e-09
6.746024231080220394e-09
