# bin_12_9
3.049089039093435890e-07
3.468688632195451563e-07
3.886945204489398035e-07
4.274191317839462206e-07
4.590889081743897632e-07
4.787027571883717767e-07
4.817017158429982708e-07
4.619611501191033455e-07
4.180566493830218334e-07
3.576253380778001711e-07
2.934330075473070070e-07
2.426877454168374969e-07
2.095764478070925681e-07
1.748369191422111572e-07
1.251274629144169471e-07
9.153535944104588403e-08
7.238301070773633123e-08
4.814494903237452464e-08
3.557171846533712921e-08
2.465386161114240988e-08
1.680134754098485974e-08
1.148537693172600051e-08
7.835399812033959612e-09
5.377579994182777435e-09
3.724575819753290866e-09
2.623458585730540853e-09
1.882964604944984651e-09
1.380392430688924917e-09
1.032701426098549827e-09
7.852299987360270646e-10
6.029110833798038301e-10
