# bin_1_1
1.777381765824905509e-05
1.749705307287944357e-05
1.638159240833733551e-05
1.452070426232256555e-05
1.224666277880000681e-05
1.008535349166277955e-05
8.449420720643817604e-06
7.175337526262764556e-06
5.711512089581668102e-06
4.166239015219426204e-06
3.159751620368347161e-06
2.385031324401946940e-06
1.726860254614557516e-06
1.276635226304790905e-06
9.395981419037490054e-07
7.002802325052215521e-07
5.304088553810031209e-07
4.091122095139537129e-07
3.209969948555359177e-07
2.551554875870918803e-07
2.042186228542354164e-07
1.633455626090322914e-07
1.296290817210087433e-07
1.013967684080794538e-07
7.773679903591688562e-08
5.816359458405576650e-08
4.236615796514474747e-08
3.002373112446887274e-08
2.072767472119659179e-08
1.397594009764063569e-08
9.233111640648955494e-09
