# bin_15_4
5.028495502508825504e-23
5.728826696313551390e-23
6.431759095949462338e-23
7.088830370743809424e-23
7.635815181647497124e-23
7.990909631157751979e-23
8.073968312746717025e-23
7.789757292818907013e-23
7.092293683736235549e-23
6.104984756397904906e-23
5.020893611461441267e-23
4.137463059899802527e-23
3.561645864766680063e-23
3.003430438552690640e-23
2.183733085051228920e-23
1.566294336049265923e-23
1.258254277140739169e-23
8.315132590515293022e-24
6.226323882868659583e-24
4.265733879417660143e-24
2.902478190302637355e-24
1.985861018811915395e-24
1.351265235883393697e-24
9.224188152196152038e-25
6.340133880315596037e-25
4.426353247698174444e-25
3.146222384625188226e-25
2.283865145853483334e-25
1.693792084924507596e-25
1.279461973907902147e-25
9.787086837378113253e-26
