# bin_14_10
7.767868357430122089e-08
8.871245639869874608e-08
9.990959348246245456e-08
1.105337941304272015e-07
1.196200230127166239e-07
1.259199290383715843e-07
1.280688956594095608e-07
1.247812548902556148e-07
1.148076041849143310e-07
9.987690970677399472e-08
8.256610201953150680e-08
6.772064975694016585e-08
5.789203949892992362e-08
4.952879842630803098e-08
3.707768372718526070e-08
2.591280668548639957e-08
2.104896766406838597e-08
1.404118058141818772e-08
1.055880562209600390e-08
7.106889857917066417e-09
4.856970524526137377e-09
3.324544148094803966e-09
2.257235012249527866e-09
1.528452964468296682e-09
1.037843251211585100e-09
7.138228961835694093e-10
4.988181057445810199e-10
3.555898042483624006e-10
2.592505456881259755e-10
1.930955450465774201e-10
1.463166580305588839e-10
