# bin_11_11
4.537112966085767129e-06
5.166218323281586209e-06
5.796055799276920206e-06
6.382744683487299204e-06
6.868001589311399676e-06
7.177802246087606936e-06
7.241504754651407432e-06
6.971032091355078212e-06
6.332353831715235946e-06
5.438062768691481396e-06
4.468096633810350077e-06
3.686638605434556441e-06
3.177757492928163301e-06
2.669537607037812572e-06
1.928993834875008276e-06
1.393418602541888485e-06
1.113774394032082966e-06
7.369318782434927547e-07
5.496486803167427606e-07
3.781802097779790422e-07
2.573909681121025555e-07
1.760444849986061779e-07
1.198765916390754604e-07
8.199203055446733074e-08
5.651643005476265805e-08
3.958856353555016750e-08
2.824340749788081890e-08
2.057998370968538773e-08
1.531496874141268828e-08
1.159927796619497077e-08
8.886861498243231458e-09
