# bin_12_5
4.483850793324820433e-14
5.077922895016932187e-14
5.657698001941931768e-14
6.177901286256134369e-14
6.578011931136833031e-14
6.783307174379822534e-14
6.736694824615531261e-14
6.345034086516995667e-14
5.644444603859837550e-14
4.746943734290829249e-14
3.881698043421428569e-14
3.254350766958332424e-14
2.818441880383484453e-14
2.256895352914546109e-14
1.566189525043288349e-14
1.217068600930270030e-14
8.977759334801876290e-15
6.300156146322552234e-15
4.376739687691077747e-15
3.113733275934940604e-15
2.145170047727558464e-15
1.473439291169235105e-15
1.019934906737226028e-15
7.121321713320769349e-16
5.045266324721963518e-16
3.643176865503689403e-16
2.683052411662224140e-16
2.014868007502033491e-16
1.536642453384535149e-16
1.182874090494433347e-16
9.122362427636670641e-17
