# bin_12_1
4.626531479223632465e-30
5.224886622868927127e-30
5.801637443407472486e-30
6.308649223114776454e-30
6.682371066832993776e-30
6.847352906410955021e-30
6.744023442958924058e-30
6.286187053240983020e-30
5.537846578338898087e-30
4.618922466990483698e-30
3.778182761751964036e-30
3.194627803342645683e-30
2.758214728975284661e-30
2.146832496234744226e-30
1.485693844594054176e-30
1.185571035459501842e-30
8.360449235480990536e-31
6.095261876259633952e-31
4.147395211898507221e-31
2.936381396554813566e-31
2.039548946873982941e-31
1.414231639689077012e-31
9.876369615773138455e-32
6.964258150018713838e-32
4.995971427202913270e-32
3.654527882122711067e-32
2.725123273131261471e-32
2.067972194710123315e-32
1.588505366142981979e-32
1.226764965242195684e-32
9.453846083032968059e-33
