# bin_6_2
8.603714117182976824e-11
9.414004920116582067e-11
1.005587575575979138e-10
1.041865099593143131e-10
1.040882935083262964e-10
9.891220035870737764e-11
8.877819848395466698e-11
7.535645859882841800e-11
6.175119393366538595e-11
5.137289057044600071e-11
4.435185063901449969e-11
3.631605915593536841e-11
2.578829281025640524e-11
1.941854207997916054e-11
1.497148797318854039e-11
1.036926538353288547e-11
7.598580167913634388e-12
5.460113849155350091e-12
3.890007163005857577e-12
2.802568047688801962e-12
2.046334969486726379e-12
1.519353078112621617e-12
1.148253339699909849e-12
8.827969835652424957e-13
6.869771767532636849e-13
5.379003045471345428e-13
4.208805813211855986e-13
3.267827493773636937e-13
2.502421522320983963e-13
1.880471583229657743e-13
1.381258337887392059e-13
