# bin_15_14
4.720541077794052504e-06
5.415399869559368820e-06
6.132418994352879869e-06
6.829591121188770705e-06
7.451336497265737810e-06
7.923541325673494015e-06
8.155219533596744761e-06
8.078508622462629880e-06
7.581238228573238561e-06
6.721283982870557642e-06
5.634084558175966092e-06
4.607743435165978712e-06
3.878213699045317343e-06
3.358339730559337374e-06
2.658065597559867226e-06
1.834719684356306129e-06
1.445408842026196034e-06
1.042197506032008747e-06
7.411102027210284734e-07
5.018241943000542183e-07
3.537481983535064237e-07
2.396327937077081003e-07
1.604035850696178910e-07
1.072646795789499459e-07
7.155311636900466524e-08
4.796860582907541938e-08
3.249240834153244094e-08
2.233956079916978445e-08
1.567791269187936622e-08
1.126355577952247044e-08
8.284954340049840024e-09
