# bin_8_5
5.473088621659814230e-08
6.120770661271924890e-08
6.716448758562593858e-08
7.197421388522645517e-08
7.484763478989027035e-08
7.509627537590818403e-08
7.174445976376216505e-08
6.470800853278192590e-08
5.517347567336977537e-08
4.524631913456908328e-08
3.751823286248634210e-08
3.240805149868187409e-08
2.683287262825421850e-08
1.911937633692127929e-08
1.416949203075425657e-08
1.108712980375723828e-08
7.504476922949585497e-09
5.524528740412105848e-09
3.902953748484374754e-09
2.721160387902980949e-09
1.912446582635369735e-09
1.354480827408190681e-09
9.723391859298109412e-10
7.094355122276323777e-10
5.279486891169436244e-10
3.998616517254910663e-10
3.071886871997740175e-10
2.380188650777345371e-10
1.846744174622073598e-10
1.424600861263128088e-10
1.085722700437332569e-10
