# bin_11_8
2.180748849992551986e-07
2.473500519495477313e-07
2.761217153133373802e-07
3.022197710603867048e-07
3.227350151850190073e-07
3.340336123668239304e-07
3.332362111759593469e-07
3.157297277824714586e-07
2.824619239268824159e-07
2.388374888011043657e-07
1.954815773476838412e-07
1.631790763964532872e-07
1.413438043427330111e-07
1.148297710300995868e-07
8.024635709787222252e-08
6.123791101471244969e-08
4.628370029980783087e-08
3.182318926841080846e-08
2.254066524940924727e-08
1.596344766891610521e-08
1.095522428560431427e-08
7.500174508410294719e-09
5.165890946844033538e-09
3.587678620465835671e-09
2.524150804982222217e-09
1.809106331128800401e-09
1.322372078772521683e-09
9.864110435167995154e-10
7.485104552715613204e-10
5.745568935014804831e-10
4.428910494136694439e-10
