# bin_12_2
4.889183819505032596e-25
5.523709554165143796e-25
6.136392004484465450e-25
6.676564672927496892e-25
7.077190051601947670e-25
7.258203672723409284e-25
7.156817372621860621e-25
6.680268282932201090e-25
5.893303144348144336e-25
4.921269780897100049e-25
4.026332430404303383e-25
3.401917996519991279e-25
2.938929039477765430e-25
2.295167700141435822e-25
1.588412778095204346e-25
1.264775067830664192e-25
8.961757616160861963e-26
6.510582568951659111e-26
4.434995366087914280e-26
3.144126950098797747e-26
2.182145867169169981e-26
1.511645832980106719e-26
1.054771700966017132e-26
7.430297033637528602e-27
5.323579783766041008e-27
3.889110194996002578e-27
2.896512225206948691e-27
2.195869490570128204e-27
1.685693011819425223e-27
1.301545534166579370e-27
1.003206336177466221e-27
