# bin_12_8
2.742488533529481792e-08
3.116464385539317253e-08
3.487248729308134324e-08
3.827961707780734440e-08
4.102632384718039051e-08
4.265940409655701271e-08
4.278972193047493886e-08
4.084690960830566698e-08
3.680313473794835684e-08
3.134175420706791562e-08
2.568955586489366018e-08
2.132346672034146973e-08
1.844684745504001298e-08
1.524181838408041622e-08
1.079353092647148187e-08
8.029752336916973355e-09
6.247145428814936379e-09
4.200189661265405479e-09
3.056384950787747747e-09
2.138445573111753900e-09
1.460987807609174959e-09
9.986088507270210069e-10
6.835574563196788833e-10
4.713288000052906419e-10
3.285057685059590043e-10
2.330239824888485151e-10
1.685135949985280926e-10
1.244462808053848868e-10
9.367860233033178654e-11
7.154026387018460418e-11
5.504537361458748984e-11
