# bin_6_3
1.684560231938602128e-08
1.851743752045174797e-08
1.989371847758963963e-08
2.076114352764942601e-08
2.091856711120242057e-08
2.011548370053163109e-08
1.826720360304013635e-08
1.568687589299712393e-08
1.289995649015568456e-08
1.064922037651094990e-08
9.158779500436199150e-09
7.676408074505836690e-09
5.583735367328200259e-09
4.055460085442137384e-09
3.229340904151405890e-09
2.194595269250528118e-09
1.645507536765406828e-09
1.161879278792489209e-09
8.242647948367567989e-10
5.917544941588469777e-10
4.289175588585494238e-10
3.156710730883278963e-10
2.363127168382443343e-10
1.801978457908908020e-10
1.393712434690868935e-10
1.087398181674235943e-10
8.502894678361416162e-11
6.615640447592043277e-11
5.088823068475373769e-11
3.848805077554903246e-11
2.849988930267864917e-11
