# bin_14_7
1.826308705744511847e-12
2.080593962050968143e-12
2.335757628122094245e-12
2.574204076487595077e-12
2.772583753548676752e-12
2.901161207979915186e-12
2.930982304826145109e-12
2.827088964621924289e-12
2.573481041881371585e-12
2.214860503042174404e-12
1.821838267699267617e-12
1.502096811109230711e-12
1.293537536217827794e-12
1.090059859588893560e-12
7.916971794075153032e-13
5.688551964072539160e-13
4.565603621733707236e-13
3.018050704678597410e-13
2.258698016370050851e-13
1.549087337661269820e-13
1.054113170012783824e-13
7.212625626191814977e-14
4.908973237704462078e-14
3.352703120109297762e-14
2.306149251583503322e-14
1.611360815033775778e-14
1.146384676152571782e-14
8.329467584131253989e-15
6.182653845423498883e-15
4.673436404878632493e-15
3.576453444373187826e-15
