# bin_8_1
1.251804218355546837e-19
1.386258982720037431e-19
1.502953866962456665e-19
1.586601577362981283e-19
1.619817514320884162e-19
1.587416920737239620e-19
1.471539247914428982e-19
1.289732212348040950e-19
1.072287467673039903e-19
8.782676192171804244e-20
7.453647535578957573e-20
6.404891246008006021e-20
4.918462441681022193e-20
3.432816771447975731e-20
2.754586030419046735e-20
1.925536067029806860e-20
1.427348321501656039e-20
9.877797066547215095e-21
7.066959192625386705e-21
5.032213255462054830e-21
3.602116016045688959e-21
2.611503221392794371e-21
1.922416308451609481e-21
1.442527228426282303e-21
1.101199648371639334e-21
8.514874246335492316e-22
6.632174234700826228e-22
5.166417241399301556e-22
3.997225881033761412e-22
3.052509524040343863e-22
2.289483208344090954e-22
