# bin_9_4
2.511847986284687151e-15
2.811388288328240079e-15
3.088064566575282946e-15
3.313291675238278532e-15
3.450988219791560485e-15
3.468709511111020658e-15
3.322477593956150005e-15
3.004108004780986360e-15
2.568052783449779734e-15
2.107587403199281875e-15
1.744580743579874558e-15
1.505640910134141439e-15
1.253007272636289448e-15
8.978323421352816083e-16
6.597669082391148779e-16
5.203370660311557127e-16
3.504280597050415163e-16
2.597001398267902390e-16
1.826242748466268691e-16
1.271644913991155512e-16
8.933272084885093462e-17
6.315961942297841602e-17
4.523756031313556743e-17
3.291659843548745219e-17
2.443179863257853179e-17
1.846156088319246233e-17
1.415770092114461734e-17
1.095880055138545753e-17
8.501113835790856750e-18
6.561647505465164917e-18
5.006863411748541269e-18
