# bin_11_4
2.915208516470067155e-19
3.287064539331689164e-19
3.642991187498578430e-19
3.952109355665656015e-19
4.174026044295764734e-19
4.262368937312448889e-19
4.177932324776525973e-19
3.871979033588973995e-19
3.392648736282860606e-19
2.818671334322432089e-19
2.308379353910538669e-19
1.961608109804202625e-19
1.687765787535733810e-19
1.291797056405462650e-19
8.972065861559049614e-20
7.234737223110272454e-20
4.983311394574283990e-20
3.700898337011483535e-20
2.511626027618597413e-20
1.765905320626909670e-20
1.232240476611473482e-20
8.592364215664570728e-21
6.030329446912698900e-21
4.277400293509738045e-21
3.090268853077052764e-21
2.276589917726722598e-21
1.708768280359208169e-21
1.303431303831688657e-21
1.004460272085499289e-21
7.765246000815245888e-22
5.977738011552978389e-22
