# bin_11_10
2.826858216406429456e-09
3.209719050924151889e-09
3.587877439419951168e-09
3.933436237053365747e-09
4.209040090197512080e-09
4.367808788912440531e-09
4.370826089330646323e-09
4.158937710529891948e-09
3.735664509882810771e-09
3.171615710075820172e-09
2.597968550319495024e-09
2.161611861821296568e-09
1.871107241193719927e-09
1.534924769216010272e-09
1.080785663263929637e-09
8.128008052104495271e-10
6.246742559904461165e-10
4.239401799220685348e-10
3.050078038690890142e-10
2.145151589667016925e-10
1.468327035415387988e-10
1.004265986535961890e-10
6.892331912256847219e-11
4.767077890903828825e-11
3.336004510970992284e-11
2.377022398965440276e-11
1.727024735124205161e-11
1.281033930666551601e-11
9.677466406398751254e-12
7.407422776226191398e-12
5.704302191889952816e-12
