# bin_3_5
1.609456378244002509e-07
1.715039439050881124e-07
1.772828070241734217e-07
1.765783727316153718e-07
1.674164613549029930e-07
1.500856341802277601e-07
1.274958765500650149e-07
1.048089492459302815e-07
8.733288545365682912e-08
7.486796767256557933e-08
6.089184148595049712e-08
4.405429686880650522e-08
3.306997729967038378e-08
2.530663833994263114e-08
1.792090521040414045e-08
1.317976137496386298e-08
9.503663247668579491e-09
6.899125117967869642e-09
5.067830558553229548e-09
3.778685209890658997e-09
2.866877405207408352e-09
2.211778239935291733e-09
1.730179617376331243e-09
1.363769728692188133e-09
1.075802772144386619e-09
8.434743706736264342e-10
6.529942120296917129e-10
4.964182759330048230e-10
3.689634018997733920e-10
2.673059322021416771e-10
1.885507197674264220e-10
