# bin_15_6
7.311598396521779819e-21
8.335484961711070150e-21
9.366314772236613076e-21
1.033393858123507516e-20
1.114559217735221096e-20
1.168268720934336127e-20
1.182557784688440168e-20
1.143965595360237539e-20
1.044453450195915192e-20
9.016677868406175436e-21
7.426384816228554289e-21
6.113291734713140978e-21
5.255141703022094312e-21
4.449460443686769381e-21
3.258105339625001581e-21
2.320375837385115918e-21
1.873124433674434385e-21
1.237458563702733805e-21
9.300077567834564000e-22
6.343791782065829599e-22
4.316304417864422048e-22
2.954729850720753809e-22
2.009417331499118501e-22
1.368999231462932144e-22
9.382214344344967726e-23
6.527311431125024680e-23
4.621377147888613277e-23
3.341004934673351980e-23
2.468583490368046323e-23
1.859276433580962341e-23
1.419676950194112295e-23
