# bin_12_13
1.446008190912186961e-08
1.648118378655676938e-08
1.851378257654491958e-08
2.041893539381030176e-08
2.201275344488369763e-08
2.306037837228242924e-08
2.332748750958702918e-08
2.254555113382919859e-08
2.056645261595731227e-08
1.773912791362392307e-08
1.460672257692753616e-08
1.203133801648476716e-08
1.034613803910443385e-08
8.744609106294736288e-09
6.390590303266103672e-09
4.565744985868020350e-09
3.673937668894943357e-09
2.432595500198892133e-09
1.822727938812071546e-09
1.245363543967818494e-09
8.479557201012568295e-10
5.803455971551111273e-10
3.948626097115820905e-10
2.692328221713572342e-10
1.847216008310678469e-10
1.286781269573788466e-10
9.123439172012298102e-11
6.605242602119266336e-11
4.886571880320897492e-11
3.683788661279527594e-11
2.814073820440262890e-11
