# bin_8_6
3.394358100770416548e-10
3.798874525507499014e-10
4.172379857066656885e-10
4.476227984083326177e-10
4.661656496180227924e-10
4.684862336106855187e-10
4.486518629487719219e-10
4.056002464622407016e-10
3.466812322280556325e-10
2.845291430345471223e-10
2.355624854370119950e-10
2.032823072603172433e-10
1.690871677742187524e-10
1.211645064247013597e-10
8.908576882399164957e-11
7.019015535841083024e-11
4.732119402049778975e-11
3.503880455525881922e-11
2.464120038545905652e-11
1.716207824382060026e-11
1.205789555938060458e-11
8.526799431816409352e-12
6.108056732412267579e-12
4.445083866691647368e-12
3.299696124881534196e-12
2.493608850503218291e-12
1.912383889961525721e-12
1.480283765318640738e-12
1.148249177021280458e-12
8.862049373187356907e-13
6.761392441378993936e-13
