# bin_7_7
1.306628651022406620e-08
1.458626358646112334e-08
1.597062857655281638e-08
1.706765017090788452e-08
1.768822664078457229e-08
1.767418094421097706e-08
1.679245930258409726e-08
1.506615345515379595e-08
1.278149140385341252e-08
1.047174523822584839e-08
8.718313368463465871e-09
7.535808311103126797e-09
6.162866066166023141e-09
4.355180107319269889e-09
3.283876578609554164e-09
2.519294141699907578e-09
1.731697699254118232e-09
1.255227299156008787e-09
8.928576594681887042e-10
6.246718219108453408e-10
4.399382342519639546e-10
3.128660623509278490e-10
2.256285135091600029e-10
1.655010826346492211e-10
1.237848415592435587e-10
9.415638904735010983e-11
7.255898739318037053e-11
5.630577438826632105e-11
4.368194165804272163e-11
3.364346786284355239e-11
2.556943082937193277e-11
