# bin_15_3
1.403436266407281516e-31
1.598212791716885038e-31
1.793305596610956505e-31
1.975152380477225995e-31
2.125736109881860446e-31
2.222159825629739441e-31
2.242508037097487416e-31
2.159576739799702431e-31
1.962616441615531637e-31
1.686325897191858759e-31
1.386184187907826864e-31
1.143981695016868352e-31
9.860280457270357216e-32
8.285567290019651483e-32
5.992157263534319309e-32
4.327939065302715862e-32
3.459592898263243625e-32
2.290402041440096506e-32
1.708381840204940300e-32
1.175252451095640705e-32
8.000452412909013354e-33
5.472801154492449691e-33
3.727202045471289449e-33
2.549253447462616900e-33
1.757077687192025270e-33
1.230662836990810415e-33
8.778610218524679806e-34
6.395652742195346131e-34
4.758704128989808765e-34
3.603696448945059036e-34
2.760761778030677119e-34
