# bin_6_11
1.199536831068689606e-07
1.333958671749300180e-07
1.453736789625725412e-07
1.544587133667689833e-07
1.589386729810728863e-07
1.573867747758616979e-07
1.478268593912996902e-07
1.312025037904407015e-07
1.102535558551602048e-07
9.028668599691541595e-08
7.582823325872860324e-08
6.541612133625075579e-08
5.202231967976745858e-08
3.647235491993673319e-08
2.833224651693558603e-08
2.084813647638936156e-08
1.482161819494222502e-08
1.049036127168302285e-08
7.501246660202691027e-09
5.289252254654507674e-09
3.750230622699447738e-09
2.690480581879606329e-09
1.958639142579432941e-09
1.451978853049279557e-09
1.096545549446402273e-09
8.406968718197562133e-10
6.512803676106139852e-10
5.064257220303885754e-10
3.924513697031874613e-10
3.010893014180857433e-10
2.274346288245733323e-10
