# bin_4_14
2.659584484315521318e-07
2.895190110931888974e-07
3.073066371588071834e-07
3.159951457326182661e-07
3.126105985561885049e-07
2.935744305131247545e-07
2.606041140612480909e-07
2.192977754151095265e-07
1.798418812762283977e-07
1.509130815589737431e-07
1.296703569663173581e-07
1.032209266252143855e-07
7.326815635136454103e-08
5.642837505947063772e-08
4.195134126808543390e-08
2.992175549259398199e-08
2.157840980419864768e-08
1.553809039622067359e-08
1.115288448225388577e-08
8.089262065052760308e-09
5.952340136693340069e-09
4.453916447297985130e-09
3.392030075831640712e-09
2.623641432377591509e-09
2.049606377942893966e-09
1.607052716205959793e-09
1.255935749820574803e-09
9.717733434644177303e-10
7.401634940836377509e-10
5.523685810382244842e-10
4.025149555525915317e-10
