# bin_14_12
5.581473639750747571e-10
6.378110222914965618e-10
7.188547322400276730e-10
7.960152789507529006e-10
8.624049421184689225e-10
9.090755063133348853e-10
9.260442931498386547e-10
9.043242285374835276e-10
8.342228600469060641e-10
7.276460400533316469e-10
6.025940623614977436e-10
4.940662466312734285e-10
4.216682309350427176e-10
3.615824907069416222e-10
2.725654333058005709e-10
1.898967169879871627e-10
1.540713896741872879e-10
1.035032549327736258e-10
7.757119535129826344e-11
5.207544607048332079e-11
3.570436860345517064e-11
2.442676934032474399e-11
1.657227722628584515e-11
1.120487317243883103e-11
7.590561457475156020e-12
5.204511789226839116e-12
3.623546010752638677e-12
2.572537394155623212e-12
1.867934692228131644e-12
1.386286268547489596e-12
1.047632778339266777e-12
