# bin_7_12
9.849910391515517881e-08
1.103021071980747455e-07
1.212337632044508830e-07
1.301792803596365050e-07
1.357295702152654962e-07
1.365818671353056177e-07
1.310708605706511171e-07
1.187750594038439403e-07
1.017783870119432448e-07
8.365461495839081343e-08
6.919588665585308778e-08
5.959351427352732840e-08
4.970537959034814159e-08
3.591378164331884290e-08
2.624069353473322435e-08
2.069973520399773581e-08
1.401302018085954947e-08
1.037284110727053240e-08
7.258127309729388947e-09
5.061238585147510284e-09
3.555591240079453039e-09
2.511888095914409694e-09
1.795663973023304695e-09
1.303389337037417626e-09
9.649249897604750800e-10
7.273653199314980498e-10
5.566294556187093040e-10
4.302076398228031152e-10
3.334513298768551421e-10
2.573491392879498907e-10
1.964790037712970425e-10
