# bin_15_5
6.104133608793539638e-24
6.955650453786357706e-24
7.811064702024951758e-24
8.611629701372321406e-24
9.279500608591335197e-24
9.715429743914571699e-24
9.821497324415833365e-24
9.482628035864522604e-24
8.640380336283276311e-24
7.443934047419114031e-24
6.125562899941264559e-24
5.047736699221963563e-24
4.344453443052006320e-24
3.666851843423397813e-24
2.670353693888842883e-24
1.912954869998597448e-24
1.538519401264187333e-24
1.016621674762411129e-24
7.620335862969829993e-25
5.216824748222998006e-25
3.549561276936768552e-25
2.429130714211657364e-25
1.652801382289730046e-25
1.127899343624975391e-25
7.748769119839505687e-26
5.406584059284934420e-26
3.840370436089157175e-26
2.785799155746864424e-26
2.064742641202780267e-26
1.558931523691766655e-26
1.192171811364047264e-26
