# bin_12_7
1.098140978738471391e-13
1.245700173442311908e-13
1.390799434580449942e-13
1.522519778400013050e-13
1.626225816918056959e-13
1.683627354544144969e-13
1.680162187190123958e-13
1.592636396531492407e-13
1.425392416430608262e-13
1.205775650523634561e-13
9.869586721918826315e-14
8.235671203926794410e-14
7.133423000413328356e-14
5.801420692315481591e-14
4.057174790075722621e-14
3.091361205194138260e-14
2.340754246587910785e-14
1.607009078040327895e-14
1.140165099170789176e-14
8.069595759118608069e-15
5.536276520807448774e-15
3.789659502918298055e-15
2.609178007377059471e-15
1.811275550189973219e-15
1.273623697891861035e-15
9.122811128867200296e-16
6.664212604392739013e-16
4.968284420590131595e-16
3.768385169891942195e-16
2.891840803471571271e-16
2.228976426470732191e-16
