# bin_6_1
-2.941948180178050543e-09
-2.875215568414969164e-09
-2.675851835002973326e-09
-2.363686335392220967e-09
-1.997015853818745593e-09
-1.654306989018486386e-09
-1.385165788781563937e-09
-1.160229524917050005e-09
-9.188044455847734954e-10
-6.823787029909932513e-10
-5.128995603173099586e-10
-3.861061376556992582e-10
-2.817699335584054172e-10
-2.078847177318752012e-10
-1.533946609947536801e-10
-1.146322501795982196e-10
-8.698869602178452362e-11
-6.719070531705526817e-11
-5.275337033973914198e-11
-4.192081800026185068e-11
-3.351017158650631060e-11
-2.675010700109420979e-11
-2.117450909713787581e-11
-1.651582057991935309e-11
-1.262672468831198846e-11
-9.425111274156449797e-12
-6.853600880476661355e-12
-4.852502559270636440e-12
-3.349080124863412382e-12
-2.258477837570670072e-12
-1.492574048083270944e-12
