# bin_8_5
-4.505647590270326309e-10
-4.959609720326404221e-10
-5.337369207228406600e-10
-5.582374982850160074e-10
-5.638866973298532138e-10
-5.443408714842444517e-10
-4.965807495372075296e-10
-4.284525264493436133e-10
-3.534318149082490832e-10
-2.914051481057575703e-10
-2.496524178093219428e-10
-2.100980863965391642e-10
-1.551286371221973691e-10
-1.117926294365217770e-10
-8.875545530766332033e-11
-6.110723796676945807e-11
-4.547540720296222343e-11
-3.197189086459563895e-11
-2.275998162021581902e-11
-1.630684148340497540e-11
-1.178547876007772686e-11
-8.643214664784163284e-12
-6.444931788408867834e-12
-4.895698878818306084e-12
-3.774506580813060910e-12
-2.938204434342584432e-12
-2.294811630078863235e-12
-1.785405160341358290e-12
-1.374740244202462338e-12
-1.041742456686394688e-12
-7.734841458470973503e-13
