# bin_9_3
-1.307485577613107847e-09
-1.395391360076337331e-09
-1.445154914969567398e-09
-1.442790521409346170e-09
-1.372229173861546641e-09
-1.234198180910847757e-09
-1.051631249395353102e-09
-8.653994890134989550e-10
-7.198176385402703761e-10
-6.166208237039357185e-10
-5.043886612006679406e-10
-3.670108348076894046e-10
-2.736683941283381452e-10
-2.104447251960291451e-10
-1.489139085518108037e-10
-1.096186044407032710e-10
-7.889195593197761974e-11
-5.723692287266780553e-11
-4.197580551566082199e-11
-3.123307972264624290e-11
-2.364511533723291947e-11
-1.820412226780257697e-11
-1.421679030449962244e-11
-1.119434757057179892e-11
-8.827232196195082474e-12
-6.922936295657605382e-12
-5.364432693437023345e-12
-4.084072174903084591e-12
-3.041265985112819489e-12
-2.208233986910509466e-12
-1.561325183357404793e-12
