# bin_4_6
-9.830904803298807984e-13
-1.082308286618255437e-12
-1.164949410700928478e-12
-1.218655991485409592e-12
-1.231247058863009581e-12
-1.188699663228584945e-12
-1.083937998414201648e-12
-9.347256313195260844e-13
-7.700750495127412998e-13
-6.343830484969617468e-13
-5.443556013012408300e-13
-4.591533120803380256e-13
-3.375204791306517293e-13
-2.425085137093837900e-13
-1.942727939395419310e-13
-1.320828032298928087e-13
-9.930778362618639866e-14
-6.968580582799727484e-14
-4.945669071177290105e-14
-3.546671699564992152e-14
-2.564809284147251547e-14
-1.881886484780088909e-14
-1.403988374972944259e-14
-1.067289378597643060e-14
-8.234742243293631310e-15
-6.414796389952407122e-15
-5.013308767242832955e-15
-3.902357173078415581e-15
-3.005761294017758047e-15
-2.278056982971659082e-15
-1.691416553184663828e-15
