# bin_10_3
-1.390256888983002857e-09
-1.483970802768028648e-09
-1.537204528275274390e-09
-1.535072923942468877e-09
-1.460479740615556158e-09
-1.314015584134873569e-09
-1.119988097004643128e-09
-9.217389627580473091e-10
-7.665344468581002451e-10
-6.566024758075228205e-10
-5.374191402675483493e-10
-3.912547255963705709e-10
-2.915480626457633832e-10
-2.243148227402888342e-10
-1.587068109586182879e-10
-1.168424318564523323e-10
-8.407423681368857574e-11
-6.099230726169749049e-11
-4.472251222707486656e-11
-3.326979395248811809e-11
-2.518145997876665497e-11
-1.938283503120808359e-11
-1.513480240418642597e-11
-1.191595971606804951e-11
-9.395924178257155939e-12
-7.369197065258113455e-12
-5.710789116959604561e-12
-4.348426133420912767e-12
-3.238760409603243040e-12
-2.352169444776753632e-12
-1.663494238098634644e-12
