# bin_9_7
-1.913667863838921958e-10
-2.140297709000422153e-10
-2.348824098472874689e-10
-2.517356576757860570e-10
-2.618382131059423135e-10
-2.627479912029279619e-10
-2.511434423664009266e-10
-2.266645728682554534e-10
-1.934399745809269579e-10
-1.587578408433212295e-10
-1.316376288089693246e-10
-1.135690430953783952e-10
-9.402906473224334871e-11
-6.729343785087846586e-11
-4.976234118663540972e-11
-3.888650502891465368e-11
-2.642221413114191492e-11
-1.943152929264232387e-11
-1.368614487981014096e-11
-9.549688760658540422e-12
-6.715486004969466666e-12
-4.756387307361372034e-12
-3.412166734334133141e-12
-2.487301805189502096e-12
-1.849202932223311794e-12
-1.399223267972295166e-12
-1.073982371671146114e-12
-8.315588509124974320e-13
-6.448765842039246928e-13
-4.973506767371350061e-13
-3.790515762886159622e-13
