# bin_9_9
-3.349653279822915095e-11
-3.778978856266553291e-11
-4.190927635420499005e-11
-4.550232540293785091e-11
-4.810617800018314271e-11
-4.918456887218749552e-11
-4.829106524478811088e-11
-4.484810534257839880e-11
-3.937410859073499768e-11
-3.276527877532367279e-11
-2.682867383038599795e-11
-2.275841661167396882e-11
-1.959873689387256266e-11
-1.509254599071120364e-11
-1.047882682011595678e-11
-8.409029083524248922e-12
-5.848657223570245629e-12
-4.309066244641021333e-12
-2.930823672055247851e-12
-2.066250942791230972e-12
-1.439119887777177567e-12
-1.001256329000383995e-12
-7.014735654781124105e-13
-4.965588093645209746e-13
-3.578552078528620742e-13
-2.629720044913095965e-13
-1.969230737117339405e-13
-1.499298184006769115e-13
-1.153998229951757112e-13
-8.917135664802231991e-14
-6.866305104890812102e-14
