# bin_2_8
-6.689025126526493112e-22
-7.416083863106683824e-22
-8.051828673341457587e-22
-8.515063444267869218e-22
-8.711302812667009882e-22
-8.561929315809101115e-22
-7.963990292470747359e-22
-7.002833125136308068e-22
-5.835614357785046434e-22
-4.776784525834804024e-22
-4.043387779549091389e-22
-3.482575892131830743e-22
-2.699267813847058907e-22
-1.879038898099401144e-22
-1.500944978854602291e-22
-1.060769210406510554e-22
-7.798057818836521826e-23
-5.400151397842487287e-23
-3.872767791797800596e-23
-2.751477023902627906e-23
-1.964339781302159337e-23
-1.420420874409509608e-23
-1.042631375579234432e-23
-7.800422295094542387e-24
-5.939532107352339049e-24
-4.583850879309657393e-24
-3.566490722248412850e-24
-2.777823855851765006e-24
-2.150644793928719518e-24
-1.644646277500134761e-24
-1.235976757855226037e-24
