# bin_2_4
-7.106365530469535287e-13
-7.584016230354978537e-13
-7.852404020217890805e-13
-7.839237275242889459e-13
-7.448144858466836553e-13
-6.686884914327843665e-13
-5.681418898222376959e-13
-4.661021137240040635e-13
-3.876831511545467012e-13
-3.337434454515050355e-13
-2.731179993917110554e-13
-1.957998915345498546e-13
-1.470519031280036819e-13
-1.135019352194229177e-13
-7.951442026979418418e-14
-5.871652106728593789e-14
-4.243296572555311821e-14
-3.071568500575373182e-14
-2.253837574002428429e-14
-1.679252984014774336e-14
-1.273420222123331827e-14
-9.821996892413970796e-15
-7.684455885738864662e-15
-6.059806876224123511e-15
-4.783810504879248108e-15
-3.754386261428154312e-15
-2.909788352457860033e-15
-2.214654462605328107e-15
-1.647818618241286750e-15
-1.194747602156202758e-15
-8.430814946353576372e-16
