# bin_1_9
-4.147497793707504101e-29
-4.618642652876722103e-29
-5.041816218223598446e-29
-5.367983967900247182e-29
-5.536853979951311228e-29
-5.500837035907910048e-29
-5.185916322577917281e-29
-4.618335968108941310e-29
-3.889711701748030145e-29
-3.182643082224499592e-29
-2.665377855295734447e-29
-2.305674990696355989e-29
-1.851702219787278886e-29
-1.293137672215296658e-29
-1.000097195658310655e-29
-7.449146409809815609e-30
-5.241843501305158730e-30
-3.713535313318441892e-30
-2.667057556325382634e-30
-1.875804171692651096e-30
-1.325551951701236664e-30
-9.484439394532029338e-31
-6.885667673249995431e-31
-5.089606962980801180e-31
-3.834016331557976194e-31
-2.933928308925842579e-31
-2.270669724697328602e-31
-1.765666579757060167e-31
-1.369550979732927432e-31
-1.052471791872190816e-31
-7.967841882654690635e-32
