# bin_5_8
-5.423176307656674889e-14
-6.054582672503409236e-14
-6.629914472065060978e-14
-7.086206214728389823e-14
-7.344786196136069547e-14
-7.340493471490969174e-14
-6.975299511017590152e-14
-6.258586020799672290e-14
-5.309024493257917377e-14
-4.348449594317784373e-14
-3.619638738370636844e-14
-3.130385254704687590e-14
-2.561908431417599118e-14
-1.807533327783721280e-14
-1.363526502010444647e-14
-1.047196789495435654e-14
-7.186330474171554920e-15
-5.208405289218166881e-15
-3.710669389280413030e-15
-2.595332288941199858e-15
-1.826719726886623057e-15
-1.298836978770146296e-15
-9.366762069872107897e-16
-6.870854469942309219e-16
-5.139342683838567895e-16
-3.909637120946891032e-16
-3.013321174950618500e-16
-2.338770200809101204e-16
-1.814767671451316690e-16
-1.397976077583311753e-16
-1.062648043595051180e-16
