# bin_2_6
-5.778445202800460038e-17
-6.311224349283072299e-17
-6.726382957608211960e-17
-6.949459752111480549e-17
-6.919073505589512102e-17
-6.544970520892104690e-17
-5.848485512418222903e-17
-4.943654643499633301e-17
-4.048089422758397211e-17
-3.379026395066502441e-17
-2.918260997219546840e-17
-2.364895119363642508e-17
-1.668779829029989726e-17
-1.273937080301175040e-17
-9.670298989967954741e-18
-6.777147342060899238e-18
-4.914414567719272593e-18
-3.548394747213868266e-18
-2.534862201263101136e-18
-1.829942460193498477e-18
-1.340322437260122181e-18
-9.984578850078881867e-19
-7.571949996600869799e-19
-5.838144424092639016e-19
-4.552367026550056961e-19
-3.568191720990655362e-19
-2.791832306432857358e-19
-2.165452219337299845e-19
-1.655150394524574983e-19
-1.240577477753148169e-19
-9.083775920415823693e-20
