# bin_4_13
-4.362494888571454493e-26
-4.946761914668198616e-26
-5.520253947069900884e-26
-6.039442106435207540e-26
-6.445994423756456920e-26
-6.667184977432860141e-26
-6.645861267671779773e-26
-6.289985370426453397e-26
-5.621377480332157886e-26
-4.748605528464659050e-26
-3.886073495666399420e-26
-3.246660818249286713e-26
-2.812326120938816723e-26
-2.278697567460957918e-26
-1.590174657505595151e-26
-1.217809067854285392e-26
-9.162780879075450186e-27
-6.323955315295844445e-27
-4.462084467810531984e-27
-3.163862006369895909e-27
-2.172823383137395444e-27
-1.488347878072676061e-27
-1.026117912791200803e-27
-7.133710521954143898e-28
-5.025743474969478202e-28
-3.607304451218105917e-28
-2.640655774089529460e-28
-1.972401438427745725e-28
-1.498229645063616483e-28
-1.150728120367323118e-28
-8.871466838373507719e-29
