# bin_6_4
-4.788468274552545309e-10
-5.199015967701417010e-10
-5.500384896418271650e-10
-5.633395294568205966e-10
-5.544306800297418445e-10
-5.172955980620043391e-10
-4.562935223537546839e-10
-3.819403392434443693e-10
-3.131801289821968645e-10
-2.640236371785792299e-10
-2.264535748498017654e-10
-1.775051854402071128e-10
-1.255603626729454650e-10
-9.804186905493336617e-11
-7.153483589286563246e-11
-5.169961900181507298e-11
-3.698100828536589702e-11
-2.672188175744279165e-11
-1.924576040067265617e-11
-1.400775175201497781e-11
-1.035314064562490969e-11
-7.783034928165963742e-12
-5.954905789833942312e-12
-4.622949247019576748e-12
-3.620340015146084447e-12
-2.841605338650484418e-12
-2.219833425704075500e-12
-1.714614476953666977e-12
-1.302207176207765228e-12
-9.680967286725615710e-13
-7.022598775352262906e-13
