# bin_2_3
-2.260028601655812521e-11
-2.368649337038093330e-11
-2.399802942308199450e-11
-2.328231592990830978e-11
-2.137706123693410678e-11
-1.856937686873903440e-11
-1.539156839927744027e-11
-1.266486824851440355e-11
-1.077756090278461920e-11
-9.116363244591113634e-12
-6.894854184068493173e-12
-4.951408012535614272e-12
-3.910451472322177863e-12
-2.782928815764025070e-12
-2.064035679922796673e-12
-1.482955384140683962e-12
-1.084742760695772328e-12
-7.990072265821571614e-13
-5.969813926322190279e-13
-4.540673483755750369e-13
-3.512833315677122257e-13
-2.757597089856015078e-13
-2.183320446426812184e-13
-1.731211352130432620e-13
-1.365155342288291279e-13
-1.063385740641001699e-13
-8.134655469040017534e-14
-6.082721520115490584e-14
-4.431552766454760140e-14
-3.141482416115807738e-14
-2.168310228171077310e-14
