# bin_7_10
-1.134881258126884624e-13
-1.280745475312332710e-13
-1.420895869844628564e-13
-1.543426104139418468e-13
-1.632679929588987783e-13
-1.670338735696174253e-13
-1.641521684255202316e-13
-1.526032597254566845e-13
-1.341084248581188306e-13
-1.116582326745337717e-13
-9.139600472087561710e-14
-7.747493400548328237e-14
-6.679277328452960566e-14
-5.157238679160705720e-14
-3.574119330148527113e-14
-2.868400667908899370e-14
-1.999121073125687941e-14
-1.471613507245377969e-14
-9.991034000682543194e-15
-7.052327490201732652e-15
-4.909959732169361044e-15
-3.414280707171427803e-15
-2.390265886822558241e-15
-1.690344518222331873e-15
-1.216836107192516789e-15
-8.932303315989014055e-16
-6.682411918018809463e-16
-5.084215308431536721e-16
-3.911924720931908909e-16
-3.022875873906297779e-16
-2.328478992664274571e-16
