# bin_5_10
1.529608235247428488e-07
1.684766631311539220e-07
1.814514616711937045e-07
1.899734076339618860e-07
1.921264514590050936e-07
1.857944172214124866e-07
1.698152618717661334e-07
1.467888877390805226e-07
1.211837347914577355e-07
9.979975013760813883e-08
8.537563143871061133e-08
7.204298007897797293e-08
5.347613466925752496e-08
3.836573668378939215e-08
3.049181205500634503e-08
2.104009537313659073e-08
1.564083118316604738e-08
1.097876332356290900e-08
7.818229927914063180e-09
5.595724939635559391e-09
4.038301968930539313e-09
2.956679358600906518e-09
2.200699567505488805e-09
1.668835461235319425e-09
1.284870684135344157e-09
9.992341949081122747e-10
7.800890956872308994e-10
6.069773920163004737e-10
4.676256802135851225e-10
3.546925454340510913e-10
2.636943966391291401e-10
