# bin_9_1
1.090182189622557531e-26
1.213975571696062121e-26
1.325156588812371240e-26
1.410851714085952503e-26
1.455230577370228818e-26
1.445813069540514954e-26
1.363150753088170263e-26
1.213998832658385075e-26
1.022452014127385812e-26
8.363499283378962794e-27
7.000603600975631475e-27
6.055203084806925254e-27
4.866468335692468786e-27
3.398670421739083036e-27
2.625163213525927648e-27
1.957977394411151008e-27
1.375805888488277662e-27
9.755736783638606564e-28
7.004478345370392304e-28
4.924744099163479300e-28
3.479305569303873804e-28
2.488827099870690642e-28
1.806459140079432604e-28
1.334905791785961246e-28
1.005361240790536993e-28
7.691966595888851630e-29
5.952279837535541962e-29
4.628166822607182258e-29
3.589848607068632979e-29
2.758866760156191551e-29
2.088829131483329969e-29
