# bin_11_4
2.296398571117790873e-19
2.589045942915445821e-19
2.869024237408717815e-19
3.111980391474375887e-19
3.286078778716874412e-19
3.354862018301185141e-19
3.287340889340590601e-19
3.045445919419267992e-19
2.667459004462294888e-19
2.215602045294480024e-19
1.814621669174981173e-19
1.542487429121565569e-19
1.326797410335378418e-19
1.014419467407776932e-19
7.047861962626965945e-20
5.686039499487494727e-20
3.911160829441986424e-20
2.907574136488127538e-20
1.973328004879859551e-20
1.386760172442786934e-20
9.679306401474679118e-21
6.751514825850000133e-21
4.739824784449420426e-21
3.363283759264607342e-21
2.430920632480752717e-21
1.791631626993398448e-21
1.345300921770217044e-21
1.026495897792688550e-21
7.911902855472034249e-22
6.116787898745002235e-22
4.708354960019448136e-22
