# bin_4_4
2.621112882826630037e-08
2.831556686838028935e-08
2.976932643983267881e-08
3.026129789318294264e-08
2.948443296041343568e-08
2.717966799240632571e-08
2.369426858804743524e-08
1.965812885059119123e-08
1.613785096723565466e-08
1.371831259326623154e-08
1.168418303063295419e-08
8.886847369495175233e-09
6.305395670622356741e-09
5.011995787664702168e-09
3.537706265404352339e-09
2.619809873975339358e-09
1.855242214041620000e-09
1.342605953994192063e-09
9.736909874796520596e-10
7.137574054898000528e-10
5.318309034958091880e-10
4.030925727064439983e-10
3.108160169614455645e-10
2.427204693488134781e-10
1.907654582226615429e-10
1.498906792170335261e-10
1.169185890990076531e-10
8.997096720777016297e-11
6.794226185121203809e-11
5.014188253348627314e-11
3.606690269731584745e-11
