# bin_14_14
6.466315489139534911e-09
7.398856819622708992e-09
8.352447776982615603e-09
9.266974041479626462e-09
1.006389790948678112e-08
1.064020441636994101e-08
1.087617667066063258e-08
1.067367133664929543e-08
9.903280065131641586e-09
8.686376856348627096e-09
7.220383563525276657e-09
5.912262917871308795e-09
5.023033129157956460e-09
4.327013846954583117e-09
3.315904098317197575e-09
2.295961191266269720e-09
1.851455292816991124e-09
1.269773726342701076e-09
9.392746415046498004e-10
6.283472409235488244e-10
4.351079382851016494e-10
2.968427264727376647e-10
2.006791599313676146e-10
1.351641535133875161e-10
9.104656427243915201e-11
6.194055351735840560e-11
4.272467328650734189e-11
3.001327564330670393e-11
2.155884049408858338e-11
1.584324284522466035e-11
1.188106598726808458e-11
