# bin_8_4
1.747987145839359095e-13
1.946901910153158404e-13
2.125776535069265879e-13
2.263999044739024376e-13
2.336173641601025778e-13
2.322260597213724992e-13
2.190945368176053252e-13
1.952428379355641657e-13
1.645286233247326186e-13
1.345853933283811361e-13
1.125942315571173428e-13
9.739851358098420775e-14
7.840984227786787986e-14
5.478612587650046415e-14
4.223765250317767202e-14
3.158754281191151096e-14
2.214429372176032189e-14
1.572819142815216455e-14
1.129001664205537256e-14
7.933832538847996560e-15
5.602565363699303152e-15
4.005495286896219832e-15
2.905719335617608997e-15
2.145902325381082529e-15
1.615250044223769901e-15
1.235261031866380503e-15
9.555978805401914121e-16
7.429377720394168606e-16
5.763013073106589643e-16
4.429997950199965270e-16
3.355291040319521648e-16
