# bin_7_14
1.213800722728856289e-07
1.359234693822009324e-07
1.493924984785971719e-07
1.604133061630670707e-07
1.672494311813144626e-07
1.682959076867506964e-07
1.615004866319673111e-07
1.463464948640942266e-07
1.254014182220525260e-07
1.030712858199395249e-07
8.525879624753501309e-08
7.342706367628303292e-08
6.123898834881262068e-08
4.424631316405111293e-08
3.233252134470932752e-08
2.550118884345828447e-08
1.726623376159149513e-08
1.277899209728456352e-08
8.942262658075605615e-09
6.235893768196953993e-09
4.380800985815045204e-09
3.094912936428859756e-09
2.212494441413040387e-09
1.605987009017540083e-09
1.188969532234913859e-09
8.962668763717319983e-10
6.858919406843761044e-10
5.301132914138348014e-10
4.108851973842982402e-10
3.171064908069282138e-10
2.420977206461631975e-10
