# bin_4_1
8.447220169164027246e-13
8.937791612530399441e-13
9.157523096202251555e-13
9.021352453566414380e-13
8.426961932577880121e-13
7.442022876221148677e-13
6.232362539958584509e-13
5.104809132084843179e-13
4.295803551378550372e-13
3.689544002409512133e-13
2.906223434011984410e-13
2.054319097231800105e-13
1.604754136082932193e-13
1.179803572764523771e-13
8.553003685656136074e-14
6.168933362807390010e-14
4.506926136699143869e-14
3.289965600789867744e-14
2.433875082598664763e-14
1.832033307533126979e-14
1.403506055068742643e-14
1.092817838157527665e-14
8.608047965842427215e-15
6.812816164804469027e-15
5.379970910538547025e-15
4.209797765928389396e-15
3.243710790825772754e-15
2.448294848499075086e-15
1.803056956199553244e-15
1.292542929441861346e-15
9.017017866841061258e-16
