# bin_5_3
2.002766871282888750e-10
2.177231211860232366e-10
2.307055737392767954e-10
2.366854352410093793e-10
2.335376465158452882e-10
2.184149579137681831e-10
1.930691621450435415e-10
1.616724059674576051e-10
1.323097863892285956e-10
1.113500941986318608e-10
9.592294358478608994e-11
7.564036581351284302e-11
5.302758023550778341e-11
4.159316422993421199e-11
3.038357251505411218e-11
2.194854747718859547e-11
1.560959094124870990e-11
1.132121345930211810e-11
8.145369579892405589e-12
5.917600057879561539e-12
4.367282361986077388e-12
3.278384223619759510e-12
2.505415690069855461e-12
1.943585116763959959e-12
1.521685666274291720e-12
1.194699565244322233e-12
9.339853744198500289e-13
7.222315112077874822e-13
5.492966298220149108e-13
4.090211542903760285e-13
2.971844741361338569e-13
