# bin_6_14
1.559241759346842475e-07
1.734127645946239681e-07
1.890045124064073021e-07
2.008437760202866274e-07
2.067041287406944825e-07
2.047298839716627083e-07
1.923481477745444501e-07
1.707632266211754544e-07
1.435325970415101593e-07
1.175415404691357162e-07
9.869757791421017962e-08
8.514793818989046922e-08
6.776050758941222277e-08
4.751872692101409085e-08
3.688512236105946190e-08
2.716897988468357819e-08
1.930051156001482876e-08
1.366821223694164811e-08
9.771782474927541772e-09
6.889011939857317479e-09
4.883750573510395360e-09
3.502932620370067896e-09
2.549483237909690736e-09
1.889476045597265383e-09
1.426597668790740917e-09
1.093521679947651670e-09
8.470265759608731251e-10
6.585973084528687734e-10
5.103856608661936911e-10
3.916032057704402931e-10
2.958491462330871175e-10
