# bin_4_12
2.454884565107329357e-07
2.671740858398655907e-07
2.835072523192809297e-07
2.914198635897618080e-07
2.881684305481105085e-07
2.704632811715211988e-07
2.399513212450170406e-07
2.018175269006005438e-07
1.654982993414479709e-07
1.389342092221323347e-07
1.193682343493369436e-07
9.489215917719130666e-08
6.732144297633449837e-08
5.192024407983262638e-08
3.853404015962152488e-08
2.751636951565399607e-08
1.982761301948948000e-08
1.428308451562029345e-08
1.025499895510045224e-08
7.440239303573670187e-09
5.476945095196013641e-09
4.099933253798041688e-09
3.123779771027150854e-09
2.416997123574954480e-09
1.888624093921700775e-09
1.480995791957721666e-09
1.157395369537692899e-09
8.954004925216211585e-10
6.818235029326320750e-10
5.086589973040680135e-10
3.705129121918841073e-10
