# bin_10_8
4.363709058459260893e-10
4.931257054764759140e-10
5.479904063480345636e-10
5.964613344572938079e-10
6.325722478049251932e-10
6.491574795748163470e-10
6.406720218392445955e-10
5.986966887206420879e-10
5.287042779738865234e-10
4.418431274567646865e-10
3.613516881932976238e-10
3.048886645181332931e-10
2.634976271795392173e-10
2.065578686365819586e-10
1.429155314981242305e-10
1.133939590923901289e-10
8.083904135741496940e-11
5.840690943787816538e-11
3.987335901536547510e-11
2.829990364721322800e-11
1.961568191501732282e-11
1.356818308807404216e-11
9.455843631382649499e-12
6.652121254763326067e-12
4.758092790480858800e-12
3.470165816971016175e-12
2.580377758467334043e-12
1.953642572484726739e-12
1.498428618624523727e-12
1.156524059389714792e-12
8.915394617420321990e-13
