# bin_13_14
1.384398644656850201e-08
1.581576665583115021e-08
1.781937799513249903e-08
1.972406136246811058e-08
2.135843944928775815e-08
2.250027631563434558e-08
2.290450337114755922e-08
2.234428125478587438e-08
2.058968913304072329e-08
1.793968401890907652e-08
1.484872956363263477e-08
1.218003102153852302e-08
1.040275104319919377e-08
8.907536692533678176e-09
6.695031385083073807e-09
4.676173803274504434e-09
3.790457733082178545e-09
2.543505507616123474e-09
1.905628428855866111e-09
1.281834209995443523e-09
8.784358946112413793e-10
6.009190393791458322e-10
4.077187305846802008e-10
2.758848944119326130e-10
1.871241818034491875e-10
1.284998800764306912e-10
8.962583090765773974e-11
6.375439725325917872e-11
4.638016605267728275e-11
3.447624497373078320e-11
2.608293753178764753e-11
