# bin_8_7
2.849202386125861697e-09
3.193736141942821796e-09
3.514468618360585327e-09
3.779441280271992541e-09
3.948099981138322075e-09
3.981737554224146265e-09
3.832882831851939617e-09
3.483010940422790209e-09
2.992684271125848075e-09
2.460331212032572329e-09
2.029641766128184542e-09
1.746769519707672809e-09
1.467171892284196762e-09
1.065224432469876579e-09
7.697238744501764589e-10
6.146319782323790410e-10
4.118256568741853973e-10
3.081174427993912486e-10
2.144711902144408731e-10
1.491381541957854265e-10
1.047102167027053639e-10
7.381344634917119955e-11
5.262524796961386291e-11
3.807654785081045780e-11
2.810394450574452144e-11
2.112956254624872314e-11
1.613853349775182195e-11
1.246107023395377743e-11
9.658761819248709102e-12
7.461411105953649866e-12
5.706081180550691425e-12
