# bin_14_1
1.120410571830527864e-34
1.273051357370413112e-34
1.424317067423867570e-34
1.563212145388229970e-34
1.675026898154580607e-34
1.741241158533600419e-34
1.745995687589462434e-34
1.666058712750424718e-34
1.500532069781375566e-34
1.277428765620791026e-34
1.047022869704582190e-34
8.693571469790312288e-35
7.520717887674245044e-35
6.207709652605005180e-35
4.394177504217550825e-35
3.273222415995254390e-35
2.542079322424327900e-35
1.711799780270521937e-35
1.243493886674405657e-35
8.704271369151946777e-36
5.947834043287907108e-36
4.065600473622405781e-36
2.783568459320616096e-36
1.919619809439842741e-36
1.338194710505637422e-36
9.494561341903671497e-37
6.867628986966442419e-37
5.072721056373481384e-37
3.819085847243726997e-37
2.916698883352089347e-37
2.244106414863052964e-37
