# bin_5_5
5.197661616551358212e-06
5.734724902787362266e-06
6.189257750354219463e-06
6.496598066427347768e-06
6.589207821499547683e-06
6.397210087749065314e-06
5.868222695869316527e-06
5.090518040721815235e-06
4.205996001694149689e-06
3.455793140501101421e-06
2.954789806258539590e-06
2.512697102490818287e-06
1.875566487333886379e-06
1.329549371245379289e-06
1.070786175086772295e-06
7.312808954079539754e-07
5.498902587389790110e-07
3.829044117950733860e-07
2.721661660489719477e-07
1.947615556251772647e-07
1.403337941043855727e-07
1.024954997658738129e-07
7.607503981416451580e-08
5.755398976204118507e-08
4.423557552255948032e-08
3.437048209455290900e-08
2.683365946891792376e-08
2.089785019708128806e-08
1.612652962648610982e-08
1.225901411991393350e-08
9.138067989278611654e-09
