# bin_6_6
4.726039365034839006e-06
5.261235830257838816e-06
5.741054441683060269e-06
6.109506888113197602e-06
6.297967820789610295e-06
6.252270671663440528e-06
5.888646705934983929e-06
5.239408385397699334e-06
4.409267815088602297e-06
3.607645105650663201e-06
3.023604515702422099e-06
2.615117235919570846e-06
2.095090162106704718e-06
1.462170297348515824e-06
1.133781121212223968e-06
8.412758028817253969e-07
5.938478343056782210e-07
4.197910029063955680e-07
3.015521898472760953e-07
2.122194559422945461e-07
1.500482112802329551e-07
1.074274757568126777e-07
7.804209629701726038e-08
5.772834704607345779e-08
4.351634857269687164e-08
3.331876500222908298e-08
2.579623650644601912e-08
2.006216958844193339e-08
1.556042597412832344e-08
1.195488697980318980e-08
9.046939484593232144e-09
