# bin_9_5
2.754543193855618523e-09
3.091960159639790586e-09
3.408236178229654975e-09
3.672811174547894323e-09
3.846683543525472565e-09
3.890851439493211114e-09
3.761056532998385674e-09
3.432317284308060725e-09
2.961911517542390472e-09
2.439632874069775294e-09
2.008595864104016941e-09
1.725487554206635121e-09
1.459309204030606231e-09
1.070203424438286194e-09
7.645191136400235142e-10
6.157639715615660934e-10
4.114781908958128341e-10
3.098143082210572135e-10
2.141303821346132684e-10
1.487918859169345751e-10
1.044098092209694527e-10
7.343343778475173896e-11
5.216539846274043346e-11
3.757563964167306623e-11
2.760899212564087544e-11
2.067160063985525952e-11
1.573610815850849229e-11
1.212506889166636487e-11
9.391979114007644128e-12
7.260367849497512074e-12
5.562689971893755031e-12
