# bin_14_4
4.354492617917398456e-21
4.951236476850190699e-21
5.544591543536463125e-21
6.092045368290049362e-21
6.536816357426922146e-21
6.807216496453094732e-21
6.839709213329133707e-21
6.545304398624878258e-21
5.911222528172823812e-21
5.046449836625201699e-21
4.139206620390326659e-21
3.429836819200932974e-21
2.964727018577533574e-21
2.461812713659461126e-21
1.752890287810462561e-21
1.293100024398420277e-21
1.014478612786943773e-21
6.783173714663132740e-22
4.974977092775237376e-22
3.464225750706360553e-22
2.363628631998670303e-22
1.615459121497742845e-22
1.103726368301822652e-22
7.591047050156898208e-23
5.272790411186041596e-23
3.725985009256816119e-23
2.683567776852876399e-23
1.974022168782816848e-23
1.481089913066927574e-23
1.128493802035047864e-23
8.673681924217407716e-24
