# bin_13_10
4.101311357936430527e-07
4.677944885799391696e-07
5.259792991052896898e-07
5.807639423926120263e-07
6.269735879758420918e-07
6.579726940955980840e-07
6.669123790472322859e-07
6.464421023469484128e-07
5.914590638672835125e-07
5.116973562933447153e-07
4.218709547230011962e-07
3.469290137654950842e-07
2.978237838086905327e-07
2.529402965975923344e-07
1.863064319027739646e-07
1.319329393089550141e-07
1.068158936758338680e-07
7.063532282398796036e-08
5.317288255282878286e-08
3.613461537743780718e-08
2.459399881138942141e-08
1.683792867507322697e-08
1.144459361062033441e-08
7.782367544150842442e-09
5.318620977452038666e-09
3.687756540609098564e-09
2.601011507816926229e-09
1.872854759150637203e-09
1.378644006035747031e-09
1.035221152442180265e-09
7.888943640124883735e-10
