# bin_8_4
1.056026196338735603e-09
1.177937102841723650e-09
1.288475810781403433e-09
1.375299990449483693e-09
1.423054681770041736e-09
1.419322945816507505e-09
1.344961198386180185e-09
1.203570419490152362e-09
1.018302054110059171e-09
8.336370740590782545e-10
6.953673815941674583e-10
6.016029573664657135e-10
4.892361236959201548e-10
3.436259064360703179e-10
2.616017516859018244e-10
1.988304984100516436e-10
1.375635889491368048e-10
9.885467623272012880e-11
7.069267360847113967e-11
4.952994162303795688e-11
3.489387453232432406e-11
2.486021516958288879e-11
1.796785701831068090e-11
1.321390794776026088e-11
9.907708975648457307e-12
7.552502082330602185e-12
5.829664046836774840e-12
4.527975350109060613e-12
3.513399370827648076e-12
2.704550319822893446e-12
2.053188368911981721e-12
