# bin_11_10
3.381570719748878484e-06
3.846076193869468991e-06
4.308569117546966675e-06
4.736100994295603769e-06
5.084700102151907255e-06
5.298792176974212808e-06
5.328413269354143892e-06
5.104966196273082598e-06
4.615579531662078943e-06
3.944883032863468336e-06
3.236734213829158629e-06
2.679893444655811762e-06
2.315562001617407844e-06
1.927242133335567560e-06
1.375761128837843746e-06
1.010914333086589358e-06
7.961975530200762824e-07
5.310095874954129733e-07
3.908981653478105221e-07
2.715940346199947465e-07
1.852018056334403815e-07
1.265851400447188099e-07
8.641843592501478707e-08
5.937108613362708761e-08
4.117922503687012983e-08
2.905093242496900083e-08
2.088632926902962330e-08
1.533730986246908992e-08
1.149062219371602681e-08
8.746136306092725992e-09
6.719051746160221408e-09
