# bin_8_6
7.020266470454049963e-07
7.871723806634062940e-07
8.665568674672082487e-07
9.323149275098979465e-07
9.744529627381498184e-07
9.833608642950750409e-07
9.473357893494451719e-07
8.615131384133153820e-07
7.408041449589618532e-07
6.092633739557971102e-07
5.025514602081536475e-07
4.325628681552344887e-07
3.637862007326452606e-07
2.643679044219014443e-07
1.907515153498696065e-07
1.526540551087529417e-07
1.021015976196533357e-07
7.654933456331603227e-08
5.324446240775535956e-08
3.700384166802812186e-08
2.597537754554559905e-08
1.830008577478225021e-08
1.303830701380171625e-08
9.426464669388251191e-09
6.952243987974025572e-09
5.223352271763804810e-09
3.987501297880179833e-09
3.078048393825209267e-09
2.385828329171786679e-09
1.843494532364469235e-09
1.410419087173224464e-09
