# bin_9_6
8.745927346855584935e-08
9.838108211613449600e-08
1.087228014511999915e-07
1.175340785049359975e-07
1.235891768571283746e-07
1.255713469963864198e-07
1.221898409418271700e-07
1.123069245913166684e-07
9.761007802789544550e-08
8.068870045829921896e-08
6.623297405907818552e-08
5.663249821002913196e-08
4.834903278292717304e-08
3.615511596318687517e-08
2.540773054663967231e-08
2.058247426747356351e-08
1.385852208608054388e-08
1.043462677770250348e-08
7.131342995092750633e-09
4.970131014294289364e-09
3.482176181091343643e-09
2.440896623998749854e-09
1.723956052436639054e-09
1.232659486391990539e-09
8.986557808292868167e-10
6.679076001139184686e-10
5.052692353975110088e-10
3.876578216190994888e-10
2.996909028692394299e-10
2.317705158055492302e-10
1.780244044901433699e-10
