# bin_2_2
1.067392261025384143e-05
1.109208788971549092e-05
1.112418943087892896e-05
1.064463121490774536e-05
9.632818167642339662e-06
8.252929948691054379e-06
6.798519782930470963e-06
5.630907407945388751e-06
4.820767314222805544e-06
3.993740200726360091e-06
2.933055708559443003e-06
2.160943426021302150e-06
1.686597269245187895e-06
1.192329749401357694e-06
8.865763054207777302e-07
6.409204449533891772e-07
4.694661294748412916e-07
3.480947491561753100e-07
2.621920942097380299e-07
2.010747561799850587e-07
1.567367466484727156e-07
1.237403583130901613e-07
9.827514554863988425e-08
7.795670514848278764e-08
6.133606465856668183e-08
4.755643430489548344e-08
3.613759529351576503e-08
2.680153444315626698e-08
1.934998226940741049e-08
1.359317944268366837e-08
9.303845359550244832e-09
