# bin_11_3
1.632193342152012393e-18
1.839144193738887506e-18
2.036630942310925071e-18
2.207235158737877320e-18
2.328266502893407322e-18
2.374122454655145166e-18
2.322301160291284558e-18
2.147104033965318291e-18
1.876966102272416850e-18
1.557029141454789447e-18
1.275844630590846900e-18
1.086181816084386898e-18
9.327471835588149332e-19
7.091343136505135232e-19
4.938189789518653262e-19
3.991410044359440038e-19
2.728001163504018515e-19
2.036557105528879026e-19
1.383668501875767723e-19
9.699304090611700864e-20
6.776977998771048151e-20
4.733140628164153880e-20
3.327315269598145825e-20
2.365014740086179415e-20
1.712785191566124152e-20
1.264823773110562078e-20
9.514105586038244334e-21
7.269184721294440935e-21
5.607126578326516774e-21
4.335534644685750122e-21
3.335763962013392532e-21
