# bin_11
0.000000000000000000e+00
0.000000000000000000e+00
0.000000000000000000e+00
0.000000000000000000e+00
7.592345769821008498e-314
6.428513430145832429e-276
3.782804834077169407e-243
1.041929797075091863e-214
6.294592461767808521e-190
2.949309889800454094e-168
3.035488796086133681e-149
1.628451014059216253e-132
9.371476404021395812e-118
1.060802897373613165e-104
3.941040847340265785e-93
7.420556303274628670e-83
1.025617844852063536e-73
1.428899302988472772e-65
2.635730677293685204e-58
8.144678354035101746e-52
5.169230337230411828e-46
8.044000747343216168e-41
3.581556016902610134e-36
5.222406850574295958e-32
2.807419084431884215e-28
6.174813768896898063e-25
6.091436952919581299e-22
2.923290391825775600e-19
7.334113040849513330e-17
1.025476085392181889e-14
8.459455437234177327e-13
4.331868081674988376e-11
1.441021757072636801e-09
3.243607628826526800e-08
5.124447596466646630e-07
5.872668652092810152e-06
5.029154098591667119e-05
3.305792510694385215e-04
1.708872031790464093e-03
7.101056919945201301e-03
2.419525965448828669e-02
6.881971203676910676e-02
1.660682598614128536e-01
3.449545858533634712e-01
6.248838448080678010e-01
9.987683612816898870e-01
1.423265394901882974e+00
1.825193617503430898e+00
2.124009234253139589e+00
2.259865236066121330e+00
2.213223478004682665e+00
2.007485681169494107e+00
1.695906147074603076e+00
1.341263330510098051e+00
9.978372726181784502e-01
7.013915865052815501e-01
4.677418223279509180e-01
2.970759304418520985e-01
1.803460948531281360e-01
1.049993367022113572e-01
5.881344741422513817e-02
3.178776690888846651e-02
1.662411086044207620e-02
8.434069032763041179e-03
4.161113647292546958e-03
2.000973803849183906e-03
9.398415439058981470e-04
4.320275018895981616e-04
1.947231047320131542e-04
8.620369071329356877e-05
3.754394037806665170e-05
2.463731877351982307e-05
