# bin_14
0.000000000000000000e+00
0.000000000000000000e+00
0.000000000000000000e+00
0.000000000000000000e+00
0.000000000000000000e+00
0.000000000000000000e+00
0.000000000000000000e+00
0.000000000000000000e+00
6.380185886761355023e-318
7.874433273207183123e-285
1.263721591956649981e-255
9.122255212265023489e-230
8.370203929727288340e-207
2.340398006135289446e-186
4.178981251435725497e-168
8.938920185233679853e-152
3.920225726209242701e-137
5.589391928749093203e-124
3.853989985365491293e-112
1.811669565174200756e-101
7.821475171662466975e-92
4.020106991536228239e-83
3.085900506532896509e-75
4.315198209994961054e-68
1.308952450574547666e-61
1.004576642635138048e-55
2.234788479773054231e-50
1.625566740836654821e-45
4.302816144385163413e-41
4.558686651193911664e-37
2.104565460097087560e-33
4.567795177471970198e-30
4.989095605846015838e-27
2.914951780067155791e-24
9.624704054671984256e-22
1.887030872847774347e-19
2.297210292187247139e-17
1.807951108621888319e-15
9.541468552434545878e-14
3.490508847167868060e-12
9.122023975046927689e-11
1.750357739078965413e-09
2.528377786344254798e-08
2.812759121127302735e-07
2.460584327595727378e-06
1.725144220311639715e-05
9.864144778133385563e-05
4.673781163275963287e-04
1.862080262806492179e-03
6.322118571131125735e-03
1.851758587928676453e-02
4.731901936499932626e-02
1.065793561722681998e-01
2.135845571829013134e-01
3.841028910284619569e-01
6.247493497861231759e-01
9.256584750837031361e-01
1.257543425424472838e+00
1.575881397451974308e+00
1.831634346734664964e+00
1.984555630371707124e+00
2.013819303782661052e+00
1.922124209798114158e+00
1.732531106838394397e+00
1.480240776349578402e+00
1.202926170350319346e+00
9.328362955173259419e-01
6.923829082399645118e-01
4.932805703814931442e-01
3.382245675729094181e-01
2.237518231794277390e-01
1.796958018986890004e-01
