# bin_9_9
7.383738028101608763e-08
6.977514524940233745e-08
6.430353609183864960e-08
5.769538779624582029e-08
5.036291235511510632e-08
4.280986802703270758e-08
3.554639260290826335e-08
2.897184804504039213e-08
2.327795366479156200e-08
1.844868481097044721e-08
1.435839851715116308e-08
1.093024070573865143e-08
8.189266047489231569e-09
6.126155226680107217e-09
4.585513925489703980e-09
3.419969968700041620e-09
2.567869894923485992e-09
1.939982460180138382e-09
1.477319742407561391e-09
1.132385677703265038e-09
8.719615735144189213e-10
6.722853618423496735e-10
5.170592548783904514e-10
3.952140050131612478e-10
2.991551763413459394e-10
2.235796390792608309e-10
1.645915795378046172e-10
1.191396791968229389e-10
8.470114761091426595e-11
5.911405872146865562e-11
4.050462636396080456e-11
