# bin_3_3
3.167246402640277432e-08
2.786797248679148201e-08
2.387665537706163840e-08
1.996417610592791791e-08
1.636093659694168468e-08
1.320410458716467540e-08
1.051980580235618943e-08
8.254588912304038424e-09
6.351202978421560500e-09
4.803352931824549072e-09
3.618300810113487004e-09
2.738112008376202507e-09
2.072427866190378196e-09
1.578146330160269100e-09
1.213744846571199963e-09
9.414825954219458848e-10
7.358692986133984291e-10
5.777237448475942274e-10
4.537343971461074110e-10
3.549273032580628605e-10
2.753515641998107333e-10
2.110490265924792847e-10
1.593045831282092188e-10
1.181237455324060756e-10
8.588998171245448295e-11
6.117978786203916886e-11
4.268159561191718956e-11
2.917951887789714578e-11
1.957318600318456846e-11
1.290551044480564206e-11
8.382003169620123767e-12
