# bin_13_10
8.443819014035266367e-08
8.071743809178084536e-08
7.531348511888376734e-08
6.845324283118341428e-08
6.053260326264022657e-08
5.208300544074209515e-08
4.369397257813986161e-08
3.589526060902963443e-08
2.902006333554362315e-08
2.315063328963040814e-08
1.817775117059559781e-08
1.396863165756009505e-08
1.050995800058462908e-08
7.842385351591387564e-09
5.861664570952323206e-09
4.361708810538228329e-09
3.249026543287230841e-09
2.437668413025630297e-09
1.840023762207003301e-09
1.399161177962518741e-09
1.070200584197415299e-09
8.212106095119605728e-10
6.300568903534486870e-10
4.815754359987118550e-10
3.653859977019392645e-10
2.743054413820402991e-10
2.032181233725629809e-10
1.482640385732150246e-10
1.063695888255047170e-10
7.497865228458958310e-11
5.191359217019263467e-11
