# bin_10_5
5.924432176142546874e-08
5.482203242784176442e-08
4.939105194571811730e-08
4.327961024909843610e-08
3.690683957214919541e-08
3.071760721817177306e-08
2.508059230601475991e-08
2.018942691186671827e-08
1.604643979622542742e-08
1.253397543077827758e-08
9.568632475957616485e-09
7.180190630511942403e-09
5.386852707177778595e-09
4.050525366092600540e-09
3.033246349156467805e-09
2.291372946418780503e-09
1.742374817587666315e-09
1.337026427992682362e-09
1.033255168520524607e-09
8.023122891811131754e-10
6.236904382912699920e-10
4.834038873453372888e-10
3.720659074293505108e-10
2.833136482931707625e-10
2.127540513414860139e-10
1.571673921028378132e-10
1.140042357178088170e-10
8.110743309072988991e-11
5.657038355473937812e-11
3.869170308047348579e-11
2.597377346456580470e-11
