# bin_6_1
2.123526889563276356e-08
1.804035258530692443e-08
1.497411536411295045e-08
1.220693111132785891e-08
9.818459530626355431e-09
7.794917723294888247e-09
6.078462329026070470e-09
4.642147684244412353e-09
3.503916608471764823e-09
2.651719300604593552e-09
2.012827016792227424e-09
1.531639019409603844e-09
1.177782501495116148e-09
9.145734981261085099e-10
7.170172127782851805e-10
5.659163595288243405e-10
4.479079208616777621e-10
3.538461960269490010e-10
2.777115542558538607e-10
2.156026868485491662e-10
1.649587335164203371e-10
1.240105607783999432e-10
9.140050127802595116e-11
6.595521768898338851e-11
4.657411195999208741e-11
3.219596697595254861e-11
2.181376837259088991e-11
1.451158690988951149e-11
9.499641504646762375e-12
6.133683523615769980e-12
3.915160231373329461e-12
