# bin_10_7
6.942972059741494207e-08
6.522416251217033758e-08
5.972435858744568576e-08
5.322300033427480237e-08
4.613962781560460215e-08
3.896640160720270028e-08
3.217978920664861300e-08
2.612079852590515246e-08
2.091998771261760373e-08
1.651861083596347267e-08
1.278824764576535850e-08
9.682586558749419690e-09
7.243557396948743052e-09
5.430093261099592961e-09
4.064579958581971997e-09
3.038069883649468665e-09
2.291195617244264785e-09
1.738145268864635530e-09
1.329714461015952293e-09
1.023698701776740829e-09
7.909954194167346079e-10
6.112686509358038854e-10
4.706084949333923227e-10
3.595934707485673791e-10
2.717555507164337725e-10
2.025423162517782674e-10
1.485423288668392552e-10
1.070251739195334698e-10
7.568533376847446700e-11
5.251679175931523088e-11
3.576691571847431922e-11
