# bin_8_7
6.509431312456635691e-08
6.083508538226429398e-08
5.540461905964458578e-08
4.910555270382318691e-08
4.235125059925828732e-08
3.560767161477273585e-08
2.930405927932592383e-08
2.372402874810523655e-08
1.895327236737369230e-08
1.491711089301523838e-08
1.150445813743054187e-08
8.690102668864342758e-09
6.504891772357498751e-09
4.881391961335529296e-09
3.655601878521231611e-09
2.740315567416832632e-09
2.072202817371308200e-09
1.577291069348339513e-09
1.210237232666049867e-09
9.340510299384010313e-10
7.229526255514840852e-10
5.590958798942548978e-10
4.303281554722278505e-10
3.284121491660065925e-10
2.476758664489903240e-10
1.840802487304915097e-10
1.345482811225746214e-10
9.657593772617319177e-11
6.802020055570572628e-11
4.700312078940162987e-11
3.188161944592547643e-11
