# bin_10_2
3.407207627635509361e-08
2.995679437949837036e-08
2.562207963146960826e-08
2.137766121429033499e-08
1.749019271620352852e-08
1.410906295324529112e-08
1.124403964096992885e-08
8.811653696992457533e-09
6.750495482508771312e-09
5.085290942577878573e-09
3.833532988847828374e-09
2.900130481286003700e-09
2.190848439280030905e-09
1.671039918237426497e-09
1.285986859082254375e-09
9.994764858568909780e-10
7.828291486502386392e-10
6.159401317452222643e-10
4.847449582741037739e-10
3.798353549056378118e-10
2.950365933527993951e-10
2.262754292694598852e-10
1.707871874013778865e-10
1.265402527650118116e-10
9.187369360544664964e-11
6.530332245483889700e-11
4.543880203728332450e-11
3.097343250575676171e-11
2.071411755490842431e-11
1.361866711254677743e-11
8.822477778565424417e-12
