# bin_9_6
6.310878057348037025e-08
5.878459251059742518e-08
5.334248679215745939e-08
4.709464140091009788e-08
4.045792084288079673e-08
3.389292560993872785e-08
2.781164275546423826e-08
2.246793828374435077e-08
1.791829752544581528e-08
1.406886231773262406e-08
1.081284374428455546e-08
8.144343335572116669e-09
6.097571573885486365e-09
4.581076260214523451e-09
3.429316546860826868e-09
2.576951310558091855e-09
1.952498137192524202e-09
1.490490276852410777e-09
1.146492677909518741e-09
8.868772374973668673e-10
6.876330135317486452e-10
5.323235389795866148e-10
4.098272573364688794e-10
3.126032624392652373e-10
2.354597754464028678e-10
1.746689484215927517e-10
1.273541028248364161e-10
9.114305628874290376e-11
6.398140598015206516e-11
4.405549736114808227e-11
2.977337003446867872e-11
