# bin_2_7
-2.203477343547118880e-19
-2.426428902077245943e-19
-2.612452251957831117e-19
-2.733874668376242481e-19
-2.763258301156002706e-19
-2.669274296596474253e-19
-2.435290466781478536e-19
-2.101121922030384120e-19
-1.731187658587869787e-19
-1.425584471825782845e-19
-1.223135974613215304e-19
-1.032874172478774755e-19
-7.599191396995381256e-20
-5.450304634846400282e-20
-4.374569516084797589e-20
-2.969656033612326260e-20
-2.236437196630059048e-20
-1.567921509641838321e-20
-1.112328452060349016e-20
-7.976252748086041185e-21
-5.766436990506162245e-21
-4.229449449137482990e-21
-3.154104513254286224e-21
-2.396873605037134628e-21
-1.848856274105910524e-21
-1.440047411283282090e-21
-1.125426218259029067e-21
-8.761354421414464602e-22
-6.749876948647032666e-22
-5.117276770161499448e-22
-3.800893946330189585e-22
