# bin_8_5
-4.381685901810898672e-10
-4.823141526330166420e-10
-5.190484173272000196e-10
-5.428717875532681143e-10
-5.483620208455831678e-10
-5.293496074960802972e-10
-4.829002790737350031e-10
-4.166450989062432636e-10
-3.436903670785226946e-10
-2.833745525561483356e-10
-2.427736350349705502e-10
-2.043063604463327086e-10
-1.508488780761904040e-10
-1.087106837114002379e-10
-8.630773792704265382e-11
-5.942175772175871795e-11
-4.422103508604017359e-11
-3.109027213349018239e-11
-2.213235469110855904e-11
-1.585722574470899762e-11
-1.146059533520637032e-11
-8.405011016634853060e-12
-6.267360044057509532e-12
-4.760845739335232483e-12
-3.670557639193730975e-12
-2.857297610823662132e-12
-2.231624441678497890e-12
-1.736242800319452348e-12
-1.336881892622348390e-12
-1.013049684885607858e-12
-7.521754966082209819e-13
