# bin_5_2
-1.408963225223599179e-09
-1.455941080294821948e-09
-1.449793463763040154e-09
-1.376157010267517913e-09
-1.236594393203990301e-09
-1.054494501969444590e-09
-8.701958310811362153e-10
-7.244924404373722241e-10
-6.170219619283689902e-10
-5.025758376695992731e-10
-3.704797593600646052e-10
-2.760528560446034786e-10
-2.112159575771336143e-10
-1.518048867103680776e-10
-1.117868590681833463e-10
-8.126278309125324334e-11
-5.973330326426391116e-11
-4.443015197202580425e-11
-3.359229952673135918e-11
-2.585115466423570001e-11
-2.020689822581599352e-11
-1.597564369703499542e-11
-1.268868470029758822e-11
-1.005240286282485327e-11
-7.889478426490732866e-12
-6.095989647189600108e-12
-4.613427726698084225e-12
-3.406950553416306470e-12
-2.449863903619906800e-12
-1.715089909615611577e-12
-1.170691354259755290e-12
