# bin_5_10
-3.268399675475989503e-17
-3.677240382735814341e-17
-4.064702169663211382e-17
-4.395337787006834484e-17
-4.623381607589953051e-17
-4.699378307644436967e-17
-4.575471483142461466e-17
-4.208069449713897887e-17
-3.659690009205153476e-17
-3.026303241607780318e-17
-2.483551666927902594e-17
-2.122611395731368636e-17
-1.813477608088233015e-17
-1.358500588666612858e-17
-9.535080438059429525e-18
-7.725447777784970608e-18
-5.207840480979171901e-18
-3.919635490449965842e-18
-2.676737088056186993e-18
-1.866609886114158202e-18
-1.307737159322687177e-18
-9.165839190829382653e-19
-6.472071935171282943e-19
-4.626044633361282387e-19
-3.371252120383489199e-19
-2.504684794423363817e-19
-1.894166802377632568e-19
-1.452932100908232204e-19
-1.123115613027555779e-19
-8.685976879395951389e-20
-6.672661572992462604e-20
