# bin_1_4
-3.666164968197508338e-15
-3.879202354534582296e-15
-3.974650848430817463e-15
-3.915450844344611991e-15
-3.657294133015631396e-15
-3.229789711864706274e-15
-2.705002263501334636e-15
-2.216325375829880005e-15
-1.865931907237936051e-15
-1.602589594575334233e-15
-1.261558880075857000e-15
-8.919673399913070114e-16
-6.973136904369061860e-16
-5.122195474773906069e-16
-3.716642409168929654e-16
-2.679804641543632303e-16
-1.958152226375809826e-16
-1.429733667876768639e-16
-1.057897177798076475e-16
-7.964596515789054396e-17
-6.102767760063055006e-17
-4.752691600713418767e-17
-3.744190261514348185e-17
-2.963631002702301398e-17
-2.340473124415562279e-17
-1.831435345413530548e-17
-1.411110976042659166e-17
-1.065011931279282452e-17
-7.842549597551189127e-18
-5.621366814976749104e-18
-3.921086818189599443e-18
