# bin_2_1
-1.267559989591307091e-09
-1.223390531591882965e-09
-1.122137417265082917e-09
-9.774125604873349757e-10
-8.178949115824758272e-10
-6.775703565615299477e-10
-5.699996952529606018e-10
-4.735339429813771919e-10
-3.664674810452205315e-10
-2.704972737008478693e-10
-2.053755970449453018e-10
-1.528134294433345794e-10
-1.117704522629357153e-10
-8.258894455745711954e-11
-6.123975340086088155e-11
-4.604617479328608579e-11
-3.521724311025430972e-11
-2.741879907899241603e-11
-2.167495273671804393e-11
-1.730868151387890905e-11
-1.386820515383787001e-11
-1.106649603560778304e-11
-8.734644159469226804e-12
-6.778086129121243260e-12
-5.146107124432609562e-12
-3.809790487264169459e-12
-2.745940970779033112e-12
-1.927169189426250092e-12
-1.319286302896607791e-12
-8.833198645072729441e-13
-5.802581885048927306e-13
