# bin_2_4
-6.923700030506867370e-13
-7.389046166033725583e-13
-7.650499785857770061e-13
-7.637629565645071138e-13
-7.256541796035993111e-13
-6.514818130174080395e-13
-5.535187226387093614e-13
-4.541046005710446544e-13
-3.777060107694232837e-13
-3.251547757227861306e-13
-2.660854353239880771e-13
-1.907560991642420914e-13
-1.432666606882649082e-13
-1.105781455752179788e-13
-7.746706610630742088e-14
-5.720406528559500419e-14
-4.134025050242741286e-14
-2.992479084617706085e-14
-2.195810621748472218e-14
-1.636026450958822772e-14
-1.240646210138878693e-14
-9.569251066935377585e-15
-7.486739934850012950e-15
-5.903903912049271734e-15
-4.660738049491870666e-15
-3.657794140252852665e-15
-2.834919346719033268e-15
-2.157663797618771042e-15
-1.605407517641613591e-15
-1.163991683709672346e-15
-8.213741231015194766e-16
