# bin_9_14
-1.195332650755371350e-15
-1.363064895336865115e-15
-1.532130049448538798e-15
-1.691078893366764135e-15
-1.824788521491705292e-15
-1.913896220373977744e-15
-1.938635868870455547e-15
-1.877300351649085611e-15
-1.715857207499359000e-15
-1.482916380094388298e-15
-1.221995206958786802e-15
-1.005402949522574861e-15
-8.636694069470873900e-16
-7.324244127092402983e-16
-5.379385360891247240e-16
-3.819804174872958096e-16
-3.088395834347683535e-16
-2.041192429422345754e-16
-1.535476353444970435e-16
-1.045381811243430497e-16
-7.113993320292851989e-17
-4.870558529127111848e-17
-3.311665762153048156e-17
-2.254271266220782603e-17
-1.542931053055745805e-17
-1.071762645328992884e-17
-7.574804339651229040e-18
-5.466040894662347195e-18
-4.031786017337508218e-18
-3.032432513489081658e-18
-2.313373551099998356e-18
