# bin_4_14
-3.332288173621879556e-28
-3.787468730466341946e-28
-4.239221162029454221e-28
-4.654922247802085781e-28
-4.990953237767449636e-28
-5.192326508433845718e-28
-5.211257169382885048e-28
-4.978967925707539148e-28
-4.489650436606484722e-28
-3.826728343518892636e-28
-3.137336346457548846e-28
-2.602543067634390826e-28
-2.250850777498722242e-28
-1.862988069994256136e-28
-1.321801239473859114e-28
-9.804469661696266358e-29
-7.650356742780587985e-29
-5.133620883755465209e-29
-3.746046046351836300e-29
-2.616686172185493743e-29
-1.786947685711389067e-29
-1.221435100125639455e-29
-8.355920199272107542e-30
-5.757009708078374045e-30
-4.008172736138441660e-30
-2.839779794635274417e-30
-2.050998763336721274e-30
-1.512783726967747046e-30
-1.137599536303693575e-30
-8.681436014852802063e-31
-6.677586709435837841e-31
