# bin_4_1
-2.359685992341380084e-09
-2.300772550791540805e-09
-2.135432180077957357e-09
-1.881340758458710346e-09
-1.586546159595954037e-09
-1.314128787824342395e-09
-1.101277312189695309e-09
-9.212238625389968511e-10
-7.265306390598752469e-10
-5.387813181071751790e-10
-4.057041456867297006e-10
-3.048413626111072865e-10
-2.224852134221797447e-10
-1.642167682870201676e-10
-1.212675671095882572e-10
-9.072621681938335569e-11
-6.894707517140773628e-11
-5.333417384395406150e-11
-4.192864541353806204e-11
-3.335058057804526197e-11
-2.667217299347456678e-11
-2.129102410552567133e-11
-1.684487860576357359e-11
-1.312668589180294763e-11
-1.002296461354821047e-11
-7.470282839479897160e-12
-5.423275305132091460e-12
-3.833557763818187022e-12
-2.641823765251289855e-12
-1.779155595759155211e-12
-1.174477754353175272e-12
