# bin_14_10
-1.669029483541317196e-10
-1.893605344960943513e-10
-2.114660316022937633e-10
-2.315599656913713067e-10
-2.474230586663493574e-10
-2.562866751749090734e-10
-2.558929880379546919e-10
-2.427824364492288124e-10
-2.174937333281914752e-10
-1.841950092658888090e-10
-1.508471738471519234e-10
-1.257988299242240822e-10
-1.088734780870283952e-10
-8.867890128519671765e-11
-6.226175317611107961e-11
-4.723679157294882150e-11
-3.587329187669285338e-11
-2.459755097447344147e-11
-1.752986893700359681e-11
-1.235530923039279001e-11
-8.473766172713488169e-12
-5.805336068544313071e-12
-3.994433698705919643e-12
-2.770157490037171901e-12
-1.945330286989112490e-12
-1.391365149839137993e-12
-1.014786927311957496e-12
-7.553405300680959208e-13
-5.721092756885615787e-13
-4.385474018723669858e-13
-3.377815182485475211e-13
