# bin_5_1
-2.656813902935006439e-09
-2.594242364969527511e-09
-2.411875747010909691e-09
-2.128379417251629908e-09
-1.796951332968566358e-09
-1.488513130735550866e-09
-1.246749075533781486e-09
-1.043767335504528913e-09
-8.252925398151864414e-10
-6.125891903389941881e-10
-4.607580400520583274e-10
-3.466109315216302339e-10
-2.529564137035982670e-10
-1.866569592146576476e-10
-1.377716597146386198e-10
-1.030010416282316873e-10
-7.820489890775668534e-11
-6.043979780780567021e-11
-4.747631204357297068e-11
-3.774091701899583097e-11
-3.017434565180317344e-11
-2.408698933061323204e-11
-1.906287311401425318e-11
-1.486360125507529641e-11
-1.135813550693192352e-11
-8.473361028596721800e-12
-6.157739827278945063e-12
-4.357148385450863340e-12
-3.005486438189879853e-12
-2.025756174982533339e-12
-1.338208148925611284e-12
