# bin_5_6
-1.259815860237333517e-11
-1.391492807243803026e-11
-1.503787773408241327e-11
-1.581112092405145155e-11
-1.606752650427071361e-11
-1.564293184607693896e-11
-1.439452376973826020e-11
-1.252559863319864979e-11
-1.036846308090566344e-11
-8.510773929640722281e-12
-7.260581982257912185e-12
-6.194078470034806899e-12
-4.663891402149956949e-12
-3.289794031775008430e-12
-2.647188596848258650e-12
-1.820526028041701688e-12
-1.363346911727153882e-12
-9.473238633524545089e-13
-6.747672303858769466e-13
-4.822122772167635881e-13
-3.468162120444524568e-13
-2.527746577847832953e-13
-1.871767119581542257e-13
-1.412793369275386368e-13
-1.083785364404789265e-13
-8.409430088345043346e-14
-6.561082864319104953e-14
-5.110082877986881277e-14
-3.946235663778266500e-14
-3.003678385070322911e-14
-2.242881271392557342e-14
