# bin_10_6
-3.963344887248689390e-10
-4.404838665063787836e-10
-4.796819177637182623e-10
-5.091911383973172847e-10
-5.233714520866261368e-10
-5.175104663928623516e-10
-4.851811556425731832e-10
-4.298593059152787166e-10
-3.606743973766717673e-10
-2.953438437341143279e-10
-2.483976359486520351e-10
-2.141997468669425283e-10
-1.695579841139254208e-10
-1.187467949225893315e-10
-9.266843624590740957e-11
-6.773900676983331632e-11
-4.840944936508966573e-11
-3.414754502755287990e-11
-2.443496441268830722e-11
-1.725076391650602413e-11
-1.224498593738142962e-11
-8.797258264183454541e-12
-6.414220246810932224e-12
-4.763141164843110358e-12
-3.602715511406044406e-12
-2.765553974102834109e-12
-2.144193824672193495e-12
-1.667797910988288685e-12
-1.292204888531137261e-12
-9.907617125644448520e-13
-7.476610828745337355e-13
