# bin_2_9
-1.694647677286778349e-24
-1.889620443659024274e-24
-2.066056508616925270e-24
-2.204099754216087219e-24
-2.279099784611832034e-24
-2.271263295930964492e-24
-2.149917636276518530e-24
-1.921923904240921576e-24
-1.624473341024002563e-24
-1.329687493021691964e-24
-1.110068108498384418e-24
-9.604215787812040617e-25
-7.790144507527573548e-25
-5.463838757620524494e-25
-4.174049146080231257e-25
-3.159167243660432393e-25
-2.193455556888087476e-25
-1.571272657741136751e-25
-1.125019062061185759e-25
-7.889238452653803462e-26
-5.561773275163517538e-26
-3.966600034560134354e-26
-2.870034766534507137e-26
-2.113293965697200668e-26
-1.586355004225381873e-26
-1.210413128297792212e-26
-9.349213438872249250e-27
-7.263814068512811504e-27
-5.635833610268870633e-27
-4.336629964943750118e-27
-3.290007385017856924e-27
