# bin_10_8
-1.462151752757237777e-10
-1.644544213717647952e-10
-1.817150874839157104e-10
-1.964075728821634025e-10
-2.064813243361660030e-10
-2.097516931854516583e-10
-2.040426802505183660e-10
-1.875294713820886408e-10
-1.629746383300198184e-10
-1.347790759689677589e-10
-1.106921612592635632e-10
-9.461000719169721446e-11
-8.065634531937137062e-11
-6.036113375428767359e-11
-4.254483606815507079e-11
-3.428720244532445625e-11
-2.324265851473134534e-11
-1.738844334809897950e-11
-1.191476409229186532e-11
-8.324410218151195547e-12
-5.827139499329641060e-12
-4.082780881844970255e-12
-2.884350544292276703e-12
-2.063173598273152672e-12
-1.504455987880184750e-12
-1.118309095950077064e-12
-8.459986540473158341e-13
-6.489701273914477950e-13
-5.015530942198058593e-13
-3.877251492697927656e-13
-2.976792006357711425e-13
