# bin_1_5
-8.739556142845804934e-15
-9.385033905352308695e-15
-9.793692628355371262e-15
-9.868822192414392907e-15
-9.500273636476003904e-15
-8.648706745288615677e-15
-7.450153295306083531e-15
-6.149504475856621118e-15
-5.079555629619031505e-15
-4.344140870471141913e-15
-3.632757582419933309e-15
-2.689889947909607763e-15
-1.957361945628063013e-15
-1.537122561986273416e-15
-1.079534121167505323e-15
-7.998579854170675190e-16
-5.713749685075038089e-16
-4.133612215649119941e-16
-3.014520466193487916e-16
-2.226666977403894163e-16
-1.672801442364524107e-16
-1.278349797235068305e-16
-9.925531890071154502e-17
-7.787441535129393850e-17
-6.133755990156806599e-17
-4.817029687550995921e-17
-3.746106466749794675e-17
-2.867830393659526212e-17
-2.150685733354031479e-17
-1.574190871587583028e-17
-1.122345895767810741e-17
