# bin_5_9
-1.066585109020110241e-13
-1.194572388039836418e-13
-1.313202993751648969e-13
-1.410419806330973229e-13
-1.470971062045308601e-13
-1.480700629108964964e-13
-1.421595619971083643e-13
-1.288783156458773381e-13
-1.104813671051680200e-13
-9.081599528127683113e-14
-7.509603700454656860e-14
-6.466975397576560983e-14
-5.399012895265025330e-14
-3.903727298378839923e-14
-2.848427797702174581e-14
-2.250270878077803477e-14
-1.521684316506078646e-14
-1.127709382951935938e-14
-7.886294184594543479e-15
-5.497822555844899414e-15
-3.861782784303305364e-15
-2.727357118934398735e-15
-1.948979395941759976e-15
-1.414057257392898965e-15
-1.046414514521729167e-15
-7.885029832601710685e-16
-6.032511100374069836e-16
-4.661744030648706907e-16
-3.613272894482622925e-16
-2.788972784377808866e-16
-2.129784114624938121e-16
