# bin_10_14
-1.590508708193459451e-13
-1.817283746790130228e-13
-2.047853235046290896e-13
-2.267208551252286229e-13
-2.455691336452212050e-13
-2.587786249777807775e-13
-2.635197583832035131e-13
-2.572076172110547145e-13
-2.371416807492144351e-13
-2.067340249020887500e-13
-1.711618496840192601e-13
-1.403679640765335681e-13
-1.198412763945007001e-13
-1.026890545789914749e-13
-7.729781077085047797e-14
-5.392275285615212456e-14
-4.372728548018958837e-14
-2.936170639852085056e-14
-2.199914745686928854e-14
-1.478491300480763402e-14
-1.013504581008704493e-14
-6.933211690702597581e-15
-4.703662568173762476e-15
-3.181477375913698793e-15
-2.156562924112393379e-15
-1.479780219570778136e-15
-1.031179290697301423e-15
-7.327920227679838910e-16
-5.325805578059370879e-16
-3.955651258827986853e-16
-2.990937806184199676e-16
