# bin_11_7
-3.160201368420854110e-10
-3.532738860832166890e-10
-3.874664007315006281e-10
-4.149760042722492231e-10
-4.312867869602188206e-10
-4.323184256917503909e-10
-4.127967828929618687e-10
-3.723493376046906741e-10
-3.177278358038686160e-10
-2.610408432959673036e-10
-2.167158546013821222e-10
-1.866082434446619657e-10
-1.539004705425867249e-10
-1.106633277905669849e-10
-8.199012185067069835e-11
-6.353683301618483085e-11
-4.364611284258638339e-11
-3.189992809606746208e-11
-2.242371034085289439e-11
-1.569229543031467651e-11
-1.104507614701468197e-11
-7.829077313813978485e-12
-5.618722728751796486e-12
-4.097124581217217146e-12
-3.046258395421913841e-12
-2.304671161478689204e-12
-1.768205615625827573e-12
-1.368129507338085278e-12
-1.060060817975585975e-12
-8.167722138373810374e-13
-6.219079931999360762e-13
