# bin_6_12
-4.496399590598588967e-16
-5.108219750476852860e-16
-5.714130018904699588e-16
-6.269943981315306393e-16
-6.716553647403420928e-16
-6.979595895437724327e-16
-6.995726481616326914e-16
-6.671744728428568324e-16
-6.005871573231202096e-16
-5.110411761892945921e-16
-4.188427639039600239e-16
-3.479215919628018464e-16
-3.009833395881314832e-16
-2.481121963625428426e-16
-1.755117301745274637e-16
-1.309684726134558145e-16
-1.014864116466481908e-16
-6.847494613327034449e-17
-4.964123725764492312e-17
-3.477385245595457881e-17
-2.377312346264030745e-17
-1.625608678081084933e-17
-1.113782766487255380e-17
-7.686763738778908311e-18
-5.363701523454028259e-18
-3.809606427102751995e-18
-2.758593092905700770e-18
-2.039678841299216294e-18
-1.536833741516188721e-18
-1.174278703498235791e-18
-9.036143293917606918e-19
