# bin_8_14
-1.806808688415053118e-15
-2.062820174069069416e-15
-2.322250123835769686e-15
-2.567941520262363102e-15
-2.777353379860375801e-15
-2.921390518676013162e-15
-2.968762814616368296e-15
-2.888801023095609840e-15
-2.654367691685863400e-15
-2.306217504795541736e-15
-1.905730260985616875e-15
-1.564657451664273591e-15
-1.339160044188302206e-15
-1.143224243418494706e-15
-8.523227901762785658e-16
-5.982135884588456951e-16
-4.851425023067824975e-16
-3.232448183633144090e-16
-2.429356774160932028e-16
-1.640164488356454691e-16
-1.120225428955892446e-16
-7.668083242473018946e-17
-5.207794069669326416e-17
-3.530999613161765461e-17
-2.402317382152045185e-17
-1.656262927911795298e-17
-1.160573705839883224e-17
-8.297828019467616564e-18
-6.066833698865797345e-18
-4.529424786481840727e-18
-3.437696901783307613e-18
