# bin_2_2
-3.312174671465646554e-10
-3.353185704058765113e-10
-3.254376830131394050e-10
-2.999376700089279795e-10
-2.620867422898767760e-10
-2.192781235140208635e-10
-1.812329679479226326e-10
-1.527225405075154334e-10
-1.278874199235183062e-10
-9.912078118011335137e-11
-7.259478034825765388e-11
-5.540146099353988811e-11
-4.103371647771527867e-11
-2.988995148609727246e-11
-2.193166033075700587e-11
-1.612102714837506022e-11
-1.198127118636351460e-11
-9.045919037605021788e-12
-6.951127959279374429e-12
-5.429638405827366005e-12
-4.294641157108261304e-12
-3.418839111573873857e-12
-2.719415647892559128e-12
-2.146244311789989053e-12
-1.670002412964754267e-12
-1.274180064315732091e-12
-9.494049425006478900e-13
-6.891551453950578540e-13
-4.869996967032111583e-13
-3.354097935622158279e-13
-2.256720155770989159e-13
