# bin_3_14
-5.724732653179999068e-24
-6.528217866438288545e-24
-7.338166386826735603e-24
-8.099762986861404744e-24
-8.740616637041470861e-24
-9.167996442396433036e-24
-9.287181497596488270e-24
-8.994502265244160211e-24
-8.222783196974061469e-24
-7.107995237405342914e-24
-5.858682989054512129e-24
-4.820539491045784218e-24
-4.139824142103471402e-24
-3.510416835460952489e-24
-2.580586309644289088e-24
-1.832910482798404800e-24
-1.479835456446099446e-24
-9.804345335427190919e-25
-7.361549422638029232e-25
-5.010894867081055246e-25
-3.413397749115157654e-25
-2.336484598717490811e-25
-1.588714024413655190e-25
-1.081344634438945055e-25
-7.399907392069305302e-26
-5.138713470987606614e-26
-3.630598984730637527e-26
-2.618816110492802536e-26
-1.930814263148394637e-26
-1.451592229571310076e-26
-1.106944248765017227e-26
