# bin_13_15
-1.895531052147836562e-12
-2.170350990586013058e-12
-2.452089072111453571e-12
-2.723269850291936475e-12
-2.961060011199699859e-12
-3.135361206838710430e-12
-3.210531608622856819e-12
-3.158578691031377122e-12
-2.939199697524450441e-12
-2.585229706112086125e-12
-2.153127776680988184e-12
-1.762061833456710184e-12
-1.493535714637503228e-12
-1.289171509903608611e-12
-9.961183662750819362e-13
-6.880468992482011778e-13
-5.526541009715981654e-13
-3.833519771428765621e-13
-2.813818054221627434e-13
-1.880936977408918198e-13
-1.309588960117708662e-13
-8.919465948627010333e-14
-6.017015292780160875e-14
-4.045093726431749790e-14
-2.717331699784043184e-14
-1.841476555595636927e-14
-1.264224662874453388e-14
-8.832699991818370273e-15
-6.308620526493643685e-15
-4.611503961004992394e-15
-3.443409853820727596e-15
