# bin_15_9
-2.639700613458267112e-10
-2.982158097556099308e-10
-3.312948676636231196e-10
-3.604658372636231764e-10
-3.821172654795932566e-10
-3.920132596792477089e-10
-3.865692017347546434e-10
-3.611111584759576213e-10
-3.188088698219843628e-10
-2.667067058000352398e-10
-2.184789760932561951e-10
-1.844068173133950858e-10
-1.588652471278293052e-10
-1.243738276650313165e-10
-8.684462897934171746e-11
-6.833080719957882181e-11
-4.894421019288406410e-11
-3.516548847102084177e-11
-2.433266964229589479e-11
-1.715621263667170500e-11
-1.188758889038870373e-11
-8.228831723232792005e-12
-5.734557321090659428e-12
-4.035899729339120136e-12
-2.887216661660334112e-12
-2.105629162673834860e-12
-1.565243052384668049e-12
-1.184229888225028481e-12
-9.073459200911589926e-13
-6.994030144560473340e-13
-5.384001741376560406e-13
