# bin_7_15
-1.088686207089052638e-17
-1.244718042666849847e-17
-1.403784080713831923e-17
-1.555673643441243543e-17
-1.687036701962208448e-17
-1.780463026133734047e-17
-1.816198266689225069e-17
-1.777133425963981958e-17
-1.643180665729550547e-17
-1.436485519744140302e-17
-1.191374346284482351e-17
-9.762652721739097375e-18
-8.316947238999795037e-18
-7.145540944117914162e-18
-5.422369626772006669e-18
-3.767620299241306702e-18
-3.050036507407713438e-18
-2.065666488723042979e-18
-1.540440445084340532e-18
-1.032349022453358775e-18
-7.105998765002880259e-19
-4.856290451372594979e-19
-3.290289983615590977e-19
-2.221163885984256485e-19
-1.501202969236909129e-19
-1.026058001254742027e-19
-7.116994675395729919e-20
-5.031422808518778131e-20
-3.637775054925607866e-20
-2.689384692942230476e-20
-2.026346739645466676e-20
