# bin_7_11
-7.162284620689565459e-14
-8.120671892514267192e-14
-9.061029704659973824e-14
-9.911784342644417154e-14
-1.057712284011691990e-13
-1.093783178736048277e-13
-1.089971766936431282e-13
-1.031291441561728643e-13
-9.214319529892017066e-14
-7.782539872298448471e-14
-6.369610700862989504e-14
-5.322971976448288583e-14
-4.609611068378817337e-14
-3.731316597831533584e-14
-2.605523771432451867e-14
-1.996195057218540185e-14
-1.499776514788766955e-14
-1.036725748177685951e-14
-7.313594422690333379e-15
-5.180174613919234408e-15
-3.558572858134612208e-15
-2.439140520266123740e-15
-1.682068220257577740e-15
-1.169668656356120308e-15
-8.242935553435987016e-16
-5.918345289854847106e-16
-4.333652004831383109e-16
-3.237628665315713630e-16
-2.459513072485052213e-16
-1.888966403579691895e-16
-1.456040098035174846e-16
