# bin_2_6
-1.995033431024047095e-14
-2.176957933293006601e-14
-2.317556069347279105e-14
-2.391529690121812911e-14
-2.376836387323390573e-14
-2.244608883646162324e-14
-2.003183072000020452e-14
-1.692781148433553514e-14
-1.387936633937655575e-14
-1.160139270182229006e-14
-9.989660121251575039e-15
-8.055620819690853680e-15
-5.723938131758521651e-15
-4.364414786861040594e-15
-3.294231579771407041e-15
-2.323942780115057280e-15
-1.685792560318880118e-15
-1.211717755311350882e-15
-8.671929344230164452e-16
-6.271028926403909580e-16
-4.597662658405110370e-16
-3.427217795167773860e-16
-2.600321268616812360e-16
-2.005304347232333747e-16
-1.563523226644330439e-16
-1.225009724898433331e-16
-9.578300833324559826e-17
-7.422897344942839055e-17
-5.668011986392761404e-17
-4.243799049717690817e-17
-3.104266637248911556e-17
