# bin_6_13
-3.885238531457904384e-17
-4.423913520086511360e-17
-4.963155259048843744e-17
-5.465386733771923056e-17
-5.880672602536418887e-17
-6.145571570730300361e-17
-6.199723274694970359e-17
-5.967652449123204772e-17
-5.421127349703792940e-17
-4.655985115479631639e-17
-3.827049149198272049e-17
-3.159490835748818314e-17
-2.723437739590061292e-17
-2.286178114118354976e-17
-1.652176191210418217e-17
-1.195285038951162013e-17
-9.534884819804137663e-18
-6.323987066142735746e-18
-4.707032937416989408e-18
-3.240787089965550180e-18
-2.207192609739544366e-18
-1.509801956114869001e-18
-1.028677488157077335e-18
-7.038803997836883338e-19
-4.854242280251717286e-19
-3.402058609406520871e-19
-2.428401326518750708e-19
-1.770361252567714685e-19
-1.317940535800504829e-19
-9.983928481691152511e-20
-7.649390513575118592e-20
