# bin_2_12
-8.165223371357846779e-24
-9.265281369109660277e-24
-1.034869827857299901e-23
-1.133445218639214475e-23
-1.211405755684308057e-23
-1.255185238023994419e-23
-1.253771169773372580e-23
-1.190070952505608638e-23
-1.066508918621658359e-23
-9.034499867557264410e-24
-7.397826417999750553e-24
-6.166946181473200581e-24
-5.339123388833896142e-24
-4.354752325690687817e-24
-3.055390838785382228e-24
-2.316277408385574166e-24
-1.762832154853930380e-24
-1.205963884029280623e-24
-8.601689044498835662e-25
-6.068642594469553856e-25
-4.160368349192339988e-25
-2.848071932500773613e-25
-1.958763286074831781e-25
-1.357916282321220134e-25
-9.531470835069060395e-26
-6.813964634612941578e-26
-4.967500893480136496e-26
-3.696217629707555021e-26
-2.799097369059513191e-26
-2.145688351993312332e-26
-1.653029277125700560e-26
