# bin_11_11
-2.421242031053006182e-11
-2.751012250971120070e-11
-3.077776030292758493e-11
-3.377759365768598509e-11
-3.619168428946041965e-11
-3.761989593657629467e-11
-3.771935448561888242e-11
-3.598930630943618576e-11
-3.241170147709805493e-11
-2.759172458247027751e-11
-2.261619480733646107e-11
-1.878021703334138989e-11
-1.624474595344634292e-11
-1.340457571546286217e-11
-9.491006271797669856e-12
-7.070835271101014196e-12
-5.488769751148714061e-12
-3.698534373005294034e-12
-2.685943530763709063e-12
-1.879819616013204628e-12
-1.284782880025585640e-12
-8.785180161842165459e-13
-6.016853453710249699e-13
-4.150670671879656837e-13
-2.894577084271605760e-13
-2.054556435076896469e-13
-1.486718270399284707e-13
-1.098549551108126587e-13
-8.272816281682716745e-14
-6.318939194344566783e-14
-4.861764417753788636e-14
