# bin_3_5
-5.482309392808383863e-12
-5.947358143576661792e-12
-6.285562886221752082e-12
-6.429690307927576622e-12
-6.317595711603871792e-12
-5.883450623423442114e-12
-5.180469167660026129e-12
-4.331262468511113506e-12
-3.552974395118994281e-12
-2.999004109234658079e-12
-2.568406430017989318e-12
-2.004327086591891536e-12
-1.419851702415680838e-12
-1.110472691145828993e-12
-8.068723351385727344e-13
-5.849698910424865147e-13
-4.180344934572570815e-13
-3.020641725162471447e-13
-2.177835733210943721e-13
-1.586856308984011158e-13
-1.174276777656491776e-13
-8.838505902711505747e-14
-6.770162113515073911e-14
-5.260297893623748815e-14
-4.121477826900665516e-14
-3.235252760295174237e-14
-2.526598203755266636e-14
-1.950322344345699279e-14
-1.479858784109659803e-14
-1.098909849767737311e-14
-7.961323761737088944e-15
