# bin_5_13
-9.310365607672291383e-19
-1.059778225117801677e-18
-1.188458145087596174e-18
-1.308052042798310017e-18
-1.406553425570725788e-18
-1.468731462938642680e-18
-1.480323864518162705e-18
-1.423019501176287108e-18
-1.290975209683886258e-18
-1.107251819254491503e-18
-9.096663126373818211e-19
-7.516040226363012588e-19
-6.483005212067267109e-19
-5.429044374063242759e-19
-3.910180119648891835e-19
-2.841098972148176100e-19
-2.258336213039641059e-19
-1.500168891468340663e-19
-1.113196110108409794e-19
-7.683740315903283893e-20
-5.235019136185117727e-20
-3.580379606233934620e-20
-2.440940892224467443e-20
-1.672228948928254972e-20
-1.155181386154088632e-20
-8.111818138559914385e-21
-5.802633420530543313e-21
-4.239391915853613205e-21
-3.161999988275657344e-21
-2.398749002532436005e-21
-1.839316526083339648e-21
