# bin_4_3
5.793229288752202184e-11
6.261078865204470531e-11
6.585848848054499225e-11
6.698138499236424644e-11
6.530477045112052205e-11
6.022335821743710276e-11
5.252022208983950036e-11
4.356217110693913313e-11
3.574622718085113641e-11
3.040788165158654374e-11
2.594974303516428327e-11
1.972153311993517600e-11
1.394793350055881576e-11
1.115109547050528617e-11
7.825433915941803962e-12
5.828523975486901774e-12
4.113427737185847546e-12
2.977096045944690147e-12
2.160803868492351266e-12
1.584700151240266440e-12
1.181225574109882047e-12
8.955810801785853500e-13
6.908619716664636215e-13
5.397336204642099762e-13
4.243767789860923552e-13
3.335735744285869803e-13
2.602783993401552515e-13
2.003381609178647913e-13
1.513097566138275206e-13
1.116707849556804025e-13
8.031396856192002988e-14
