# bin_4_1
6.305037468093870245e-14
6.690946103665354929e-14
6.879677110187555633e-14
6.808573107657185848e-14
6.395677833348949526e-14
5.678774089106663925e-14
4.776702672692837607e-14
3.912862785227144505e-14
3.280776438843249044e-14
2.823769463092984759e-14
2.253200922896502003e-14
1.594805154618714158e-14
1.233359701663427488e-14
9.209004044001808163e-15
6.601792465087800106e-15
4.790762838996686520e-15
3.494730228728852660e-15
2.544085691148285139e-15
1.877147842770913903e-15
1.408759924895654461e-15
1.076158909606139023e-15
8.358001045260731485e-16
6.572274231885755851e-16
5.197637314294325342e-16
4.105370508478773150e-16
3.216161196457414472e-16
2.483014255171751402e-16
1.879140818446743480e-16
1.388293226852248151e-16
9.985963240342096897e-17
6.989646635887375734e-17
