# bin_2_2
2.159283676813906421e-10
2.241548564303278484e-10
2.245204163991098618e-10
2.144788046899565705e-10
1.937554290009445913e-10
1.657304252138758053e-10
1.364445525831782423e-10
1.131147850287336183e-10
9.688504189697007458e-11
8.002892635725327808e-11
5.859627914155247203e-11
4.332759624720410442e-11
3.373430248106079675e-11
2.386189705985211232e-11
1.773661952274407585e-11
1.283996224216286137e-11
9.411322585459863435e-12
6.986830166681354497e-12
5.270462860072099066e-12
4.047942318445762064e-12
3.159592288636217771e-12
2.496904167026615820e-12
1.984136480237979915e-12
1.574045547617504355e-12
1.237993502682149554e-12
9.591153056548285780e-13
7.279909616798055509e-13
5.391597322801594895e-13
3.886586540858706113e-13
2.726103003924005261e-13
1.863256005750042572e-13
