# bin_1_12
-5.297253401261218848e-37
-5.980641794729182040e-37
-6.638503281421909399e-37
-7.215523590340484329e-37
-7.638792325841162601e-37
-7.822292148028839433e-37
-7.697215166741391930e-37
-7.166800055137969277e-37
-6.307515845446945800e-37
-5.257548955551669702e-37
-4.302656485960801587e-37
-3.642725144841832507e-37
-3.143058761258706461e-37
-2.437478142335140156e-37
-1.688221668434724806e-37
-1.350908670821932097e-37
-9.474392619648802235e-38
-6.939783513120818594e-38
-4.717019589001516633e-38
-3.335147281116158764e-38
-2.319219990624243937e-38
-1.610399836737646573e-38
-1.125967985297113535e-38
-7.950643689002604349e-39
-5.713029786371448207e-39
-4.185992909235371333e-39
-3.126257852902095987e-39
-2.375320536689021563e-39
-1.826050131324153176e-39
-1.410629205700530057e-39
-1.086861221124526880e-39
