# bin_11_5
-6.623675959070476897e-10
-7.297093012608276086e-10
-7.860964024177932972e-10
-8.232450962514348210e-10
-8.328333735585077582e-10
-8.056813068469470444e-10
-7.366910435188164485e-10
-6.370709291974672604e-10
-5.261446042324316519e-10
-4.333999984625487320e-10
-3.708030347173774868e-10
-3.129893460488313606e-10
-2.324427623654017419e-10
-1.667725244705621054e-10
-1.325716177660666837e-10
-9.150077003044532522e-11
-6.802828816059892900e-11
-4.775203285272427297e-11
-3.400871297759241483e-11
-2.434073577890761326e-11
-1.756517032303003721e-11
-1.285939378339703468e-11
-9.570496091221761666e-12
-7.256791296299599617e-12
-5.586729993355193077e-12
-4.344611222774857398e-12
-3.391831666999258553e-12
-2.639307482443306129e-12
-2.033582421169031830e-12
-1.542681214173915423e-12
-1.147086690510320698e-12
