# bin_6_7
-2.866455410475444818e-12
-3.198287821987887688e-12
-3.499630864856757316e-12
-3.737028557782261668e-12
-3.868659955422549960e-12
-3.861143131912682979e-12
-3.661375177967425565e-12
-3.278231883735286297e-12
-2.774363272421319549e-12
-2.270454751579516121e-12
-1.892622761676276791e-12
-1.638730367658111329e-12
-1.335758686247019892e-12
-9.363689241670274702e-13
-7.122934839678198176e-13
-5.432873874659273752e-13
-3.743366786154939191e-13
-2.692972242264668132e-13
-1.930529538731662178e-13
-1.351800474448694196e-13
-9.510970106544864164e-14
-6.772913841433088524e-14
-4.894252946899285007e-14
-3.598568779753382518e-14
-2.697805762598986981e-14
-2.056402668909858639e-14
-1.587442217444615900e-14
-1.233244811211073047e-14
-9.572016132241278856e-15
-7.370985990019765919e-15
-5.597869206145090502e-15
