# bin_1_5
-5.588571945825712474e-26
-6.007360215247258916e-26
-6.276038465599237253e-26
-6.332834858215570060e-26
-6.103790055352131706e-26
-5.555000849022314577e-26
-4.781267831447976667e-26
-3.932943517738632133e-26
-3.239209580748918274e-26
-2.782816160732365449e-26
-2.345634027579293035e-26
-1.716872062146450571e-26
-1.237671184821745912e-26
-9.971864569450580469e-27
-6.772970172153134221e-27
-5.152417192212623038e-27
-3.661253773919764509e-27
-2.630358932031315104e-27
-1.921475645132563725e-27
-1.420303210083676875e-27
-1.067830173269306577e-27
-8.167463445890549065e-28
-6.350049973733001374e-28
-4.989054293568962930e-28
-3.935005948615920991e-28
-3.094249718747824128e-28
-2.408901965134033943e-28
-1.845655541913728898e-28
-1.384762441959741681e-28
-1.013486813834934048e-28
-7.220332994718523586e-29
