# bin_10_4
-8.988378698593103229e-10
-9.789981435113558684e-10
-1.039814843824942092e-09
-1.069792559197794776e-09
-1.059413414606935330e-09
-9.953048383191945532e-10
-8.836416609696792365e-10
-7.427041525447991401e-10
-6.079734857720535069e-10
-5.101222546982010933e-10
-4.400584697458145183e-10
-3.507608184775992282e-10
-2.463688630019853055e-10
-1.913920233521907661e-10
-1.418605727026959104e-10
-1.013236749381346069e-10
-7.256899578480648531e-11
-5.255578352164211731e-11
-3.771060737261049241e-11
-2.733031133435415464e-11
-2.011121488061905070e-11
-1.505269622472838478e-11
-1.147034762939448882e-11
-8.877989861701371800e-12
-6.940679335743721771e-12
-5.446325977817310096e-12
-4.259584276361231473e-12
-3.298020215986709098e-12
-2.513339628650145345e-12
-1.876372416851988842e-12
-1.367479278173584575e-12
