# bin_2_3
-5.080017046647064090e-12
-5.348083976050105222e-12
-5.445886561956466775e-12
-5.320830140650540855e-12
-4.918305916961997144e-12
-4.299607925978006684e-12
-3.570029527932118602e-12
-2.925304070473141406e-12
-2.483312093687940093e-12
-2.126450599019081362e-12
-1.628484336185110612e-12
-1.147010664258075008e-12
-9.198870593121440175e-13
-6.505048563952915495e-13
-4.865190567826049472e-13
-3.453224528599697860e-13
-2.529464731597112847e-13
-1.860135258436772438e-13
-1.385431743866245212e-13
-1.050204399879365622e-13
-8.098506344777372206e-14
-6.343192628089299167e-14
-5.016923343354990869e-14
-3.978801219436980331e-14
-3.141890014045361965e-14
-2.453388914835066474e-14
-1.883006583770891549e-14
-1.413454534748798224e-14
-1.033924440033864256e-14
-7.356893664071797514e-15
-5.094167652306638095e-15
