# bin_4_9
-4.912581898229960089e-26
-5.499457696060308149e-26
-6.042061965033897954e-26
-6.484549541007191124e-26
-6.756433128226242739e-26
-6.794077173192887517e-26
-6.510382478132523058e-26
-5.887426853511252780e-26
-5.033238446011977003e-26
-4.128786577292212578e-26
-3.415552627363999136e-26
-2.950226262562497355e-26
-2.459378409469667414e-26
-1.758817334469998998e-26
-1.290984241311241060e-26
-1.022543936512583839e-26
-6.845867430389687569e-27
-5.098167289936108908e-27
-3.585836504668373915e-27
-2.494116349766910787e-27
-1.751135872623592799e-27
-1.236797298939795130e-27
-8.856645738374568321e-28
-6.443990851516505871e-28
-4.783030625733823214e-28
-3.614608902503288216e-28
-2.772566043609579665e-28
-2.146809129397799301e-28
-1.666004030257586090e-28
-1.286448699333217481e-28
-9.820066747178113529e-29
