# bin_4_3
-4.194795522637145708e-10
-4.472548891103487419e-10
-4.625340606359098776e-10
-4.610982376382770912e-10
-4.372306477590832439e-10
-3.917724639807174461e-10
-3.322228409586769996e-10
-2.724036924112690270e-10
-2.268757152268292972e-10
-1.954125860962939890e-10
-1.592638552190244080e-10
-1.137588255313315341e-10
-8.593527331736555625e-11
-6.596850722213812916e-11
-4.636700752506822396e-11
-3.413072803935261637e-11
-2.471624218680516239e-11
-1.790391473897074581e-11
-1.314955147431896044e-11
-9.809799294057487691e-12
-7.448673974523591101e-12
-5.752464751693820146e-12
-4.504924931471144771e-12
-3.554600521712689047e-12
-2.806649637493948166e-12
-2.202200585433379695e-12
-1.705771468113895030e-12
-1.297070175561348619e-12
-9.639333437129994447e-13
-6.979289792713497984e-13
-4.917813482692587857e-13
