# bin_7_4
-6.126062207417564627e-10
-6.669462407213871677e-10
-7.079891165233318246e-10
-7.279087736750277241e-10
-7.202238548606864781e-10
-6.758890645433864806e-10
-5.994239699792480940e-10
-5.033441439573946714e-10
-4.120122660511515665e-10
-3.459960385749965547e-10
-2.984208976081124089e-10
-2.372120083939814437e-10
-1.664773947794571101e-10
-1.297112357297088085e-10
-9.575750841542166803e-11
-6.861444720116663922e-11
-4.903606354194181670e-11
-3.553357554064748563e-11
-2.551568742477425121e-11
-1.850388330791477106e-11
-1.362681735234895744e-11
-1.020731164669457355e-11
-7.784258982073274739e-12
-6.028780628328823224e-12
-4.715208892967833307e-12
-3.700693999738492931e-12
-2.894133411054585748e-12
-2.240161269770002294e-12
-1.706344663989955689e-12
-1.273072569162417607e-12
-9.270828893315650567e-13
