# bin_1_13
-1.847398324544555852e-39
-2.092621175648058747e-39
-2.332177910084657168e-39
-2.547446727974090718e-39
-2.713524099417208885e-39
-2.799628766030930272e-39
-2.782079219243727849e-39
-2.622472001105229130e-39
-2.334877378166726471e-39
-1.965386489546292080e-39
-1.607858951760811877e-39
-1.347666593710900954e-39
-1.167122525208397252e-39
-9.360111046957695636e-40
-6.504191474469577784e-40
-5.044683359216502930e-40
-3.730692518133378982e-40
-2.613205387701772411e-40
-1.819735372980269719e-40
-1.293750493526152603e-40
-8.910456113903967310e-41
-6.119323127053406895e-41
-4.233956836836777624e-41
-2.954815305722910378e-41
-2.092059625076600481e-41
-1.509596113855421561e-41
-1.110949740532191821e-41
-8.337293760443181487e-42
-6.355227179244549220e-42
-4.890647587258324507e-42
-3.771398647106904137e-42
