# bin_6_10
-1.081849896377536560e-19
-1.220028527830355908e-19
-1.352359136296897996e-19
-1.467401724370630499e-19
-1.550170726032437371e-19
-1.583273306130280811e-19
-1.552505636724972831e-19
-1.439139538781020552e-19
-1.261329264317003976e-19
-1.047643713333595491e-19
-8.575775939275317883e-20
-7.288066478500715702e-20
-6.279216683704079190e-20
-4.806382365258369231e-20
-3.328311605408122473e-20
-2.693968502433150877e-20
-1.848227788088894917e-20
-1.379652050389335658e-20
-9.313171347028337289e-21
-6.544383147397613898e-21
-4.571093703256176150e-21
-3.191528023971309373e-21
-2.239864991545477806e-21
-1.588324567742632885e-21
-1.147393308742959690e-21
-8.452450428688958656e-22
-6.344593104858662276e-22
-4.840504797274502522e-22
-3.731358796393456379e-22
-2.885743845174260418e-22
-2.222396805648551358e-22
