# bin_12_15
-3.244315891902479284e-13
-3.712586998354214838e-13
-4.191644504549970949e-13
-4.651344788950914363e-13
-5.052337027195448576e-13
-5.342960201676253844e-13
-5.462914085935443337e-13
-5.363339950547897515e-13
-4.978392484226855178e-13
-4.368511907906692540e-13
-3.632034512632167552e-13
-2.973561359879115673e-13
-2.525558928890899052e-13
-2.176704168145352568e-13
-1.669957523395221013e-13
-1.155345087665974175e-13
-9.317553123108736451e-14
-6.395695191756212251e-14
-4.730283329679392623e-14
-3.161214808919541265e-14
-2.190266643389693938e-14
-1.494165784546734122e-14
-1.010077742022311638e-14
-6.801274096907512436e-15
-4.579216610977072179e-15
-3.113470493190100247e-15
-2.146056078887943496e-15
-1.506362733162968159e-15
-1.081171500322502806e-15
-7.939750190491021789e-16
-5.951070217683183604e-16
