# bin_13_8
-2.870088232082743833e-10
-3.230621070263811437e-10
-3.573054616199990258e-10
-3.866435684542215345e-10
-4.070670267158693459e-10
-4.142129410442604911e-10
-4.039149325840345241e-10
-3.722538490077187577e-10
-3.243908543277219203e-10
-2.687302245004375876e-10
-2.205356739073281051e-10
-1.881110692069455453e-10
-1.607834822452451896e-10
-1.212680236814754499e-10
-8.515261350887056635e-11
-6.851754476996242646e-11
-4.679039532885082499e-11
-3.484290931262424493e-11
-2.384331790492985855e-11
-1.669624569583346097e-11
-1.167060768636200058e-11
-8.160827584862323675e-12
-5.752168294980040330e-12
-4.103004464031144774e-12
-2.982469848518476132e-12
-2.210200252462560866e-12
-1.667503057648628787e-12
-1.276596871567420426e-12
-9.855202247094753814e-13
-7.617339897311047346e-13
-5.852455589955986644e-13
