# bin_14_3
-1.567456302637555073e-09
-1.674619067473662761e-09
-1.736607434592241847e-09
-1.736566143309366929e-09
-1.655120086291910362e-09
-1.491813958314354909e-09
-1.273587791032903349e-09
-1.048611691009927394e-09
-8.711426578720074736e-10
-7.460607142917254494e-10
-6.126667575350032800e-10
-4.471847123587734413e-10
-3.320337580569219693e-10
-2.562518839928988571e-10
-1.811143219425347119e-10
-1.334538899946302005e-10
-9.592451757406024962e-11
-6.955928213430186092e-11
-5.096018759346141130e-11
-3.786804740674265098e-11
-2.862871684713343448e-11
-2.201193144852171063e-11
-1.717289663528917497e-11
-1.351348940413676100e-11
-1.065387012786609418e-11
-8.357517148082652377e-12
-6.480187684843589793e-12
-4.938356444825793764e-12
-3.682029069107888780e-12
-2.677322091701410415e-12
-1.895829235681201060e-12
