# bin_3_8
-7.590263287485843174e-28
-8.437544490793938698e-28
-9.190530264968876129e-28
-9.758318353506357589e-28
-1.002994094422240397e-27
-9.922183725505640374e-28
-9.299844672742739402e-28
-8.236331223979271980e-28
-6.898909010857578753e-28
-5.640071913996310363e-28
-4.745786272570997696e-28
-4.106981820756208812e-28
-3.249878940670373513e-28
-2.250033219553244200e-28
-1.776847235265270338e-28
-1.290218979585669088e-28
-9.284138645061338510e-29
-6.435538599989401094e-29
-4.656842415325633669e-29
-3.290208290758006527e-29
-2.333061828703167487e-29
-1.677970230520189719e-29
-1.224366566671616887e-29
-9.102041138960876400e-30
-6.892616877683943740e-30
-5.297383495306893639e-30
-4.112190441815424232e-30
-3.201969898477557819e-30
-2.482956400764938770e-30
-1.904771433943935770e-30
-1.437781177724317995e-30
