# bin_3_5
-1.347709771086734157e-14
-1.468135096648145164e-14
-1.559599866209416898e-14
-1.604561986387199894e-14
-1.589513585772922496e-14
-1.493055853142534036e-14
-1.325150536375848587e-14
-1.112478162502762808e-14
-9.096137266221615038e-15
-7.633753651154574433e-15
-6.601350697372151034e-15
-5.262527149357530836e-15
-3.667001890903623091e-15
-2.869714885436609417e-15
-2.120359440345596913e-15
-1.518412861443400328e-15
-1.077040778976175003e-15
-7.859338567730356151e-16
-5.641282699167159843e-16
-4.084475992735977969e-16
-3.007292045882359588e-16
-2.252139832721693855e-16
-1.717367482246877608e-16
-1.330148836233044511e-16
-1.040559345558284910e-16
-8.169944328550785501e-17
-6.392604413976990709e-17
-4.951020427138426893e-17
-3.773599621225921568e-17
-2.817207207354827198e-17
-2.052657935555158088e-17
