# bin_7_9
-5.840924659082330463e-14
-6.579652391863730489e-14
-7.283671328284164779e-14
-7.890431670850337074e-14
-8.318613689649201268e-14
-8.476551544404240186e-14
-8.283976463664919190e-14
-7.649189830607792702e-14
-6.678848772129357997e-14
-5.533726155992107755e-14
-4.533881136249813807e-14
-3.864771685833325264e-14
-3.319100876486425197e-14
-2.512850087415945473e-14
-1.747887621202162374e-14
-1.420299438152476171e-14
-9.615431833929309659e-15
-7.239492407100103909e-15
-4.906156735705555446e-15
-3.426867975697487125e-15
-2.399760473621560313e-15
-1.680311288546062543e-15
-1.182843762180424185e-15
-8.420122507668752912e-16
-6.109617704088983083e-16
-4.520381121406517594e-16
-3.406390125195111232e-16
-2.606492538196464501e-16
-2.012581071721198857e-16
-1.556912992670471553e-16
-1.197815473971506456e-16
