# bin_13_13
-1.890063868254633821e-11
-2.158076376534910323e-11
-2.429781035085851052e-11
-2.687241882452286506e-11
-2.906906193889954238e-11
-3.058352049981130509e-11
-3.108728677610303996e-11
-3.026142490986286795e-11
-2.781721705046165241e-11
-2.417873148952999892e-11
-1.998443332766435299e-11
-1.640526515420327310e-11
-1.403679308409466844e-11
-1.198896198535763874e-11
-8.948792543058524601e-12
-6.275527412522409950e-12
-5.089933115150515370e-12
-3.394009373639929318e-12
-2.550303475685658951e-12
-1.720630795748775285e-12
-1.175583443276874393e-12
-8.046877490576594186e-13
-5.464764784515434777e-13
-3.704126317958120658e-13
-2.518938454013676911e-13
-1.735652155312999866e-13
-1.215380202436457194e-13
-8.683274063670690928e-14
-6.344109614430917525e-14
-4.733542442018914708e-14
-3.591056610180246275e-14
