# bin_7_13
-8.744779071152994263e-18
-9.938794579917751318e-18
-1.112352797654390775e-17
-1.221333979824594390e-17
-1.309370603954713027e-17
-1.362028124196895702e-17
-1.366796028416167210e-17
-1.305595586698261505e-17
-1.177037821038321930e-17
-1.003021532425984334e-17
-8.222653816916099283e-18
-6.821969623049006757e-18
-5.900650912744950159e-18
-4.881853202509387422e-18
-3.461834325713030208e-18
-2.569731905850599265e-18
-2.003788216641096120e-18
-1.345114725107220070e-18
-9.809272564011762830e-19
-6.854975165958224935e-19
-4.681731439097298369e-19
-3.200020220020180282e-19
-2.189431537919073178e-19
-1.508767037403110129e-19
-1.050731405748478959e-19
-7.446727424380673417e-20
-5.380108161424550576e-20
-3.969579803466841220e-20
-2.985920512432209190e-20
-2.279122973172211440e-20
-1.753240662578977638e-20
