   0.1000E+05   0.1296E-11   0.4073E-04   0.1041E-02   0.4900E+00
   0.8129E+04   0.1884E-11   0.4073E-04   0.1041E-02   0.4864E+00
   0.6608E+04   0.2680E-11   0.4073E-04   0.1041E-02   0.4822E+00
   0.5372E+04   0.3722E-11   0.4073E-04   0.1041E-02   0.4777E+00
   0.4367E+04   0.5043E-11   0.4073E-04   0.1041E-02   0.4731E+00
   0.3550E+04   0.6663E-11   0.4073E-04   0.1041E-02   0.4689E+00
   0.2885E+04   0.8604E-11   0.4073E-04   0.1041E-02   0.4652E+00
   0.2346E+04   0.1089E-10   0.4073E-04   0.1041E-02   0.4624E+00
   0.1907E+04   0.1359E-10   0.4073E-04   0.1041E-02   0.4607E+00
   0.1550E+04   0.1682E-10   0.4073E-04   0.1041E-02   0.4602E+00
   0.1260E+04   0.2079E-10   0.4073E-04   0.1041E-02   0.4611E+00
   0.1024E+04   0.2588E-10   0.4073E-04   0.1041E-02   0.4632E+00
   0.8326E+03   0.3265E-10   0.4073E-04   0.1041E-02   0.4664E+00
   0.6768E+03   0.4194E-10   0.4073E-04   0.1041E-02   0.4701E+00
   0.5501E+03   0.5492E-10   0.4073E-04   0.1041E-02   0.4737E+00
   0.4472E+03   0.7307E-10   0.4073E-04   0.1041E-02   0.4765E+00
   0.3635E+03   0.9822E-10   0.4073E-04   0.1041E-02   0.4784E+00
   0.2955E+03   0.1323E-09   0.4073E-04   0.1041E-02   0.4789E+00
   0.2402E+03   0.1773E-09   0.4073E-04   0.1041E-02   0.4783E+00
   0.1953E+03   0.2344E-09   0.4073E-04   0.1041E-02   0.4766E+00
   0.1587E+03   0.3038E-09   0.4073E-04   0.1041E-02   0.4737E+00
   0.1290E+03   0.3830E-09   0.4073E-04   0.1041E-02   0.4700E+00
   0.1049E+03   0.4704E-09   0.4073E-04   0.1041E-02   0.4668E+00
   0.8527E+02   0.5628E-09   0.4073E-04   0.1041E-02   0.4626E+00
   0.6931E+02   0.6496E-09   0.4073E-04   0.1041E-02   0.4575E+00
   0.5635E+02   0.7241E-09   0.4073E-04   0.1041E-02   0.4528E+00
   0.4580E+02   0.7815E-09   0.4073E-04   0.1041E-02   0.4485E+00
   0.3723E+02   0.8179E-09   0.4073E-04   0.1041E-02   0.4443E+00
   0.3027E+02   0.8309E-09   0.4073E-04   0.1041E-02   0.4402E+00
   0.2460E+02   0.8199E-09   0.4073E-04   0.1041E-02   0.4361E+00
   0.2000E+02   0.7865E-09   0.4073E-04   0.1041E-02   0.4322E+00
