# bin_1_13
-1.919653187490048351e-63
-2.144839207524732493e-63
-2.350902560982218459e-63
-2.515678075232738700e-63
-2.611331396410188528e-63
-2.614532214008543253e-63
-2.490180277275067260e-63
-2.238922506761388812e-63
-1.902807576388269671e-63
-1.558607011382537931e-63
-1.294971741783764708e-63
-1.120330153936688312e-63
-9.221626483216931760e-64
-6.516132537249477476e-64
-4.882556159806125427e-64
-3.785798451583858007e-64
-2.575003184112289025e-64
-1.880226605748941566e-64
-1.337672378987708338e-64
-9.339487610159223861e-65
-6.563318991124817520e-65
-4.657326879290585223e-65
-3.352735891464716778e-65
-2.454413226484688011e-65
-1.832498919298648739e-65
-1.391929306798822790e-65
-1.071756665120458394e-65
-8.315522530395403056e-66
-6.454281506512740099e-66
-4.976122557787241952e-66
-3.787298440432801092e-66
