# bin_3_13
-3.466356538415044829e-40
-3.888516494412821842e-40
-4.283009326232161461e-40
-4.611129217208495652e-40
-4.823663269896446954e-40
-4.872475990982991590e-40
-4.700190536765814100e-40
-4.279296219670641803e-40
-3.684003111504767578e-40
-3.030224566696937865e-40
-2.496879164089559619e-40
-2.148815485026492875e-40
-1.812469223699656513e-40
-1.319599636323885690e-40
-9.474657006694897990e-41
-7.629890484168760429e-41
-5.073390044386758639e-41
-3.827864521190536228e-41
-2.656575403807995760e-41
-1.843232411024329381e-41
-1.294327091569287464e-41
-9.111972729397575619e-42
-6.487108077168216885e-42
-4.685903533860864411e-42
-3.453227705550780160e-42
-2.592759041094888986e-42
-1.978431875482706423e-42
-1.526995403413158836e-42
-1.183798032272778047e-42
-9.151133791535582400e-43
-7.005861051587685204e-43
