# bin_11_15
-2.802821218165042605e-10
-3.207423158941687948e-10
-3.621379767879173190e-10
-4.018647349887432048e-10
-4.365238110241048879e-10
-4.616524014815780256e-10
-4.720360720910409587e-10
-4.634625820330303291e-10
-4.302253709065120668e-10
-3.775449078182211525e-10
-3.139000544941472179e-10
-2.569814059491337930e-10
-2.182567605481699503e-10
-1.881319632251308552e-10
-1.443543801173437313e-10
-9.984790254596403285e-11
-8.053830788519728907e-11
-5.527898258071391837e-11
-4.089330645682140422e-11
-2.731851342432808988e-11
-1.892837092368895284e-11
-1.291308426082672528e-11
-8.729971840918279109e-12
-5.878003026147261467e-12
-3.957269959909559247e-12
-2.690357328712405905e-12
-1.854216315439490958e-12
-1.301364477416411238e-12
-9.339356012224635311e-13
-6.857907421988307420e-13
-5.139945168482784476e-13
