# bin_10_14
-4.250701215578982431e-11
-4.846036612331654247e-11
-5.445470577052049053e-11
-6.008225182783089420e-11
-6.480365345818832471e-11
-6.792961116700580753e-11
-6.876411538358387150e-11
-6.652280707475297600e-11
-6.073297704537207098e-11
-5.242773430774497049e-11
-4.317349345165547600e-11
-3.553388681241474056e-11
-3.055186870051592484e-11
-2.587814495084017545e-11
-1.893951489773862628e-11
-1.347675816877690394e-11
-1.090193496704953478e-11
-7.181666687879374735e-12
-5.410201856287258439e-12
-3.690610295638828287e-12
-2.508485401096777391e-12
-1.717472819207107926e-12
-1.167662631184264384e-12
-7.954664321059010080e-13
-5.451445963853237848e-13
-3.792790377077873510e-13
-2.685510644845545289e-13
-1.941719236851831838e-13
-1.434958126711494954e-13
-1.081048953596789434e-13
-8.256994356975074930e-14
