# bin_7_10
-6.304438299998023301e-12
-7.126528416288336370e-12
-7.922034885606476055e-12
-8.626075963692929775e-12
-9.152373714468929196e-12
-9.396279128936955952e-12
-9.279486640077758687e-12
-8.676605475317598920e-12
-7.666611081704252416e-12
-6.408123697876072088e-12
-5.240043276880273851e-12
-4.421514105357276589e-12
-3.825923081756730399e-12
-3.001873863009946164e-12
-2.071379941743263240e-12
-1.648337876375163946e-12
-1.174564466576926001e-12
-8.503747482082174948e-13
-5.767703065501487761e-13
-4.110211223128062317e-13
-2.848647539173202582e-13
-1.969763450994366166e-13
-1.372946630326891978e-13
-9.656278048598977542e-14
-6.905606707250849023e-14
-5.035504935114467758e-14
-3.744024797119211446e-14
-2.834884107443937073e-14
-2.174864818920152528e-14
-1.679277193686688091e-14
-1.295161652408792952e-14
