# bin_3_12
-2.694056848334531648e-35
-3.012863127883142267e-35
-3.306053025452068652e-35
-3.542748521616469215e-35
-3.684069477390575339e-35
-3.696284007816030775e-35
-3.530759001005455882e-35
-3.183330282427425598e-35
-2.713090289193927302e-35
-2.223818169725640098e-35
-1.843771577555913085e-35
-1.593994605154391938e-35
-1.320201767286044074e-35
-9.381486291023709008e-36
-6.960144376768415169e-36
-5.452922437686741279e-36
-3.680089374261658365e-36
-2.712782783493381999e-36
-1.919719598502648758e-36
-1.337870448832922889e-36
-9.396662465766362925e-37
-6.652811516069523981e-37
-4.777167468621656879e-37
-3.486947616053428377e-37
-2.596142038156818606e-37
-1.967218238293499220e-37
-1.511999456634938146e-37
-1.172022675529057490e-37
-9.096372127192056901e-38
-7.018427283706654580e-38
-5.349283746075796608e-38
