# bin_11_3
-1.508899748869354320e-30
-1.681866556048063440e-30
-1.838041193171715536e-30
-1.959679918412860252e-30
-2.024708969865983988e-30
-2.015977946957069907e-30
-1.905585598075571817e-30
-1.701087342287687569e-30
-1.435438088844216921e-30
-1.174221402662972601e-30
-9.812753676986889870e-31
-8.497609476789366652e-31
-6.873581323534315687e-31
-4.797245209195537864e-31
-3.688210102318926458e-31
-2.777163503254858203e-31
-1.934712834360430153e-31
-1.376687561970839002e-31
-9.909718458506396352e-32
-6.955038116050750062e-32
-4.901138351617601518e-32
-3.499722732721372063e-32
-2.535822365502776498e-32
-1.870250868464983957e-32
-1.406109744397468494e-32
-1.074363745980988936e-32
-8.307390108855302206e-33
-6.458655484672995992e-33
-5.012194071212319385e-33
-3.855898571900569763e-33
-2.923562016517581429e-33
