# bin_2_8
-1.177275712932898337e-31
-1.305753188688053382e-31
-1.418359881488916441e-31
-1.500819526308874520e-31
-1.536206768116842593e-31
-1.511275709948328588e-31
-1.406787670398727097e-31
-1.237921635900972034e-31
-1.031415894625069839e-31
-8.435718415360203500e-32
-7.138357776247932167e-32
-6.162189467955166664e-32
-4.783469186623319593e-32
-3.312289940721272003e-32
-2.659111121156943850e-32
-1.874291704412213810e-32
-1.384045291077749080e-32
-9.499344427551978998e-33
-6.834130164612894228e-33
-4.857442932451129344e-33
-3.468647294768596614e-33
-2.507881359891543002e-33
-1.839947757901181138e-33
-1.376119576027827102e-33
-1.047630371719311528e-33
-8.084966042578324969e-34
-6.291764778162178291e-34
-4.902219536786802620e-34
-3.797225792119144855e-34
-2.905422098888573533e-34
-2.184770692681488425e-34
