# bin_2_4
-6.404165597846421592e-11
-6.867717667324983617e-11
-7.153249334205675642e-11
-7.193214211242772600e-11
-6.898888580408740524e-11
-6.247748270850842947e-11
-5.350692016181885883e-11
-4.393444307853363531e-11
-3.629261954496138424e-11
-3.124994752633657193e-11
-2.611086207096817797e-11
-1.889285205892041487e-11
-1.382505573315005105e-11
-1.101376921647591973e-11
-7.518940487217115285e-12
-5.674180771530402638e-12
-4.065445190478754790e-12
-2.924433396800204306e-12
-2.138190809823856920e-12
-1.584453866996046098e-12
-1.195050623272950682e-12
-9.170150450520950024e-13
-7.147839505089775675e-13
-5.625112114115837810e-13
-4.439536188912352941e-13
-3.489584899557072814e-13
-2.712992263332153923e-13
-2.074091355737134263e-13
-1.551677225748238352e-13
-1.131800293110890822e-13
-8.034284451978424392e-14
