# bin_8_10
-7.209244602450478551e-10
-8.163746371087703236e-10
-9.094679397831419760e-10
-9.929251154990490824e-10
-1.056994086712023558e-09
-1.089599516656864740e-09
-1.081745709746049586e-09
-1.018229365986954759e-09
-9.053124124560484749e-10
-7.608607156591883751e-10
-6.221818056626729926e-10
-5.221106146803179772e-10
-4.524038048493461660e-10
-3.616182168952561731e-10
-2.502695553146410361e-10
-1.953792649849375424e-10
-1.435797730268490693e-10
-1.010968258870752883e-10
-6.978561394969568337e-11
-4.987104653342020795e-11
-3.437707435687729708e-11
-2.360471094286847370e-11
-1.635767902006912070e-11
-1.143304931923336171e-11
-8.110385857485737122e-12
-5.864484058196029418e-12
-4.325011099624179894e-12
-3.252243671234000944e-12
-2.483081693253753354e-12
-1.912937526321843010e-12
-1.475885017480869102e-12
