# bin_15_3
2.134614756065522592e-32
2.430848930465528446e-32
2.727552936406905697e-32
3.004097572881413712e-32
3.233077053082658551e-32
3.379663304400158636e-32
3.410534002139171840e-32
3.284306989233322927e-32
2.984686958789583604e-32
2.564441493642596328e-32
2.107999582657786367e-32
1.739717392223248011e-32
1.499515490989269927e-32
1.259955524830477518e-32
9.111624798026886346e-33
6.581747975764210785e-33
5.260451318061197155e-33
3.483091877735315006e-33
2.597612765942275065e-33
1.787082831151882641e-33
1.216584213676883130e-33
8.322169424706024022e-34
5.667936481513822641e-34
3.876760673119897662e-34
2.672173065134824673e-34
1.871683624613903094e-34
1.335181827374943696e-34
9.727926892315461261e-35
7.238379453112226306e-35
5.481661490676497676e-35
4.199495897869480129e-35
