# bin_5_3
6.516150359723973852e-12
7.105714654473992822e-12
7.558275852481135526e-12
7.790039791836357514e-12
7.732398566836861128e-12
7.285501714565423728e-12
6.485833193007504898e-12
5.463816462853511079e-12
4.472562249470031848e-12
3.744497786225145427e-12
3.232853740250308530e-12
2.595340080889984151e-12
1.824626434459864503e-12
1.408098580942439887e-12
1.054081067082486178e-12
7.468455608737448983e-13
5.370750998532543710e-13
3.887812989499272093e-13
2.783861598840053603e-13
2.013419719173520923e-13
1.478326945866455067e-13
1.104012966246743717e-13
8.393985990076268020e-14
6.485361155111595818e-14
5.064155209896943280e-14
3.971846563660785895e-14
3.107054426241046885e-14
2.407700528871685265e-14
1.837411152801746437e-14
1.374289735175486271e-14
1.003761372722099719e-14
