# bin_10_6
6.800764414041629459e-14
7.670025136067336815e-14
8.502901128148208003e-14
9.227540579868874859e-14
9.749818179657871051e-14
9.961052551637188148e-14
9.770545765285017644e-14
9.062390409128458631e-14
7.946719307511692109e-14
6.605744059946661475e-14
5.408900369373788255e-14
4.593492001376295069e-14
3.954728650185898423e-14
3.033758188213853237e-14
2.105294201858456553e-14
1.696118851970337733e-14
1.171415603794937752e-14
8.683019902719709646e-15
5.890075389954743538e-15
4.145085096773194214e-15
2.890508747521172962e-15
2.013890770891195425e-15
1.412169644503834390e-15
1.000604792316161344e-15
7.220218243791187541e-16
5.312701560801977140e-16
3.983290384571844773e-16
3.035902442494803716e-16
2.338425727536139983e-16
1.807594611006143236e-16
1.391847266469847966e-16
