# bin_3_3
1.422575757383020568e-10
1.521297827435631854e-10
1.579158891454114315e-10
1.581369759904574589e-10
1.508786758431835243e-10
1.360255436629248123e-10
1.160362568717629765e-10
9.530481119582720499e-11
7.905838414707972508e-11
6.799188198069868716e-11
5.610187163019312638e-11
4.052013192707581341e-11
3.008965532382971732e-11
2.345758912029097297e-11
1.634690266054390089e-11
1.213509740735144004e-11
8.728158504958994808e-12
6.309455967251105868e-12
4.620841430470742697e-12
3.433228920825488533e-12
2.595737754399897188e-12
1.996303486918792003e-12
1.558334555901995150e-12
1.227145593491351525e-12
9.682828444007251919e-13
7.602680301189585731e-13
5.900112532983271990e-13
4.499888516551095718e-13
3.357129924827426427e-13
2.441654614117803051e-13
1.728598821928173367e-13
