# bin_1_1
3.741940967979489948e-10
3.678597069785830295e-10
3.438460045346580124e-10
3.043175259704445481e-10
2.563935840825365278e-10
2.112147388387712693e-10
1.771668930784245063e-10
1.503438613599451302e-10
1.192603732212460622e-10
8.694860722819810061e-11
6.610056561833286855e-11
4.975959876258959262e-11
3.607553331605139107e-11
2.665552826303791440e-11
1.963318905993718417e-11
1.464073380473268573e-11
1.109766859821338430e-11
8.566703159689479837e-12
6.726323384034626885e-12
5.349472197894239168e-12
4.282674922804338711e-12
3.425482940650585692e-12
2.717684703463068854e-12
2.124718031667109189e-12
1.627800516353147530e-12
1.216928951962217761e-12
8.856187909113019576e-13
6.270646061394854483e-13
4.325648375838125632e-13
2.914615078959295396e-13
1.924413939770105484e-13
