# bin_8_7
3.453456132574100335e-11
3.880709533247240941e-11
4.283307343862650340e-11
4.623332921833795522e-11
4.852146807805612151e-11
4.919232215105660508e-11
4.771407859358451458e-11
4.370188485392354620e-11
3.785067982903501725e-11
3.123127872715079788e-11
2.567097744610329822e-11
2.200215135585007118e-11
1.870304074861344160e-11
1.385186095723128324e-11
9.806540153876708785e-12
7.930356399309158067e-12
5.312511640130985349e-12
4.005221112155773724e-12
2.751418654865036551e-12
1.913763848879947688e-12
1.342095540089590644e-12
9.423665344359598093e-13
6.674468981749095610e-13
4.789559251491860232e-13
3.505266463167408885e-13
2.614785655031075278e-13
1.984304639383627365e-13
1.525761619241599112e-13
1.180774162807808129e-13
9.130514694820951527e-14
7.004937061005954959e-14
