# bin_8_4
1.409718856761066897e-14
1.571839375063381061e-14
1.718508712367908780e-14
1.833203232406319157e-14
1.895411611361339901e-14
1.888696465159887698e-14
1.787518642073715652e-14
1.597718142779670159e-14
1.350233329873494838e-14
1.105165826898419221e-14
9.227351137637955737e-15
7.983847298473228593e-15
6.473680370671415928e-15
4.538833953053145436e-15
3.469330549435693294e-15
2.624277893450716331e-15
1.822714703421925895e-15
1.304938384418422311e-15
9.345600995599425487e-16
6.553550109746406802e-16
4.619638116796281647e-16
3.294557153853865227e-16
2.383701161610476941e-16
1.755166619355373829e-16
1.317513991182408530e-16
1.005285064168146114e-16
7.764927336345355608e-17
6.033058896423151432e-17
4.681066621471137358e-17
3.602090231296292386e-17
2.732849717800002040e-17
