# bin_12_11
2.778274697395935186e-11
3.167472898436116350e-11
3.559390668990032491e-11
3.927380189606799495e-11
4.236209821879009825e-11
4.440828390713220298e-11
4.495686931578600333e-11
4.349758384573366527e-11
3.972120686695562245e-11
3.429749966008058175e-11
2.825069629885994868e-11
2.325328395372644655e-11
1.998683559983721583e-11
1.692757001126220897e-11
1.240150471921219698e-11
8.827268444119334042e-12
7.128341519245541534e-12
4.709086132339812546e-12
3.540006168099611864e-12
2.413899921741707699e-12
1.642380315019438356e-12
1.124335783681681609e-12
7.646008326095965131e-13
5.208379477523328360e-13
3.568674937201703951e-13
2.482102864762915167e-13
1.756815716576562880e-13
1.269683331432416956e-13
9.378662159722371408e-14
7.062162753845394639e-14
5.391644407269470802e-14
