# bin_13_3
4.746031509644160630e-28
5.379609116410271938e-28
6.000416317569428706e-28
6.560927233994770482e-28
6.997485954382183781e-28
7.230947092357416214e-28
7.199740245519127841e-28
6.804079472659328753e-28
6.072380592791822738e-28
5.122779211715856617e-28
4.191628889305842681e-28
3.506090677242610642e-28
3.037011776687469387e-28
2.451664241622196047e-28
1.707801318037535747e-28
1.314179392660641438e-28
9.826093503801933910e-29
6.817959034387263491e-29
4.786102282067846568e-29
3.398211279575744425e-29
2.336150605669261924e-29
1.601549855011294042e-29
1.105620164376754249e-29
7.697319781376656129e-30
5.432793722722906032e-30
3.907177681838775262e-30
2.865865871234605696e-30
2.144444237333929703e-30
1.631110460166175524e-30
1.253753319724729466e-30
9.667141789854492357e-31
