# bin_2_2
2.146419788037386883e-10
2.228208288558799273e-10
2.231859823785636543e-10
2.132061609014322601e-10
1.926079720138392616e-10
1.647508875175873833e-10
1.356395242354691553e-10
1.124487157907645142e-10
9.631650798100639225e-11
7.956040432326202347e-11
5.825059307673376395e-11
4.306957648963226435e-11
3.353194962358526559e-11
2.371441323265773637e-11
1.762406667129895700e-11
1.275479442827243369e-11
9.345470022418170769e-12
6.934888425280043499e-12
5.228709374059588424e-12
4.013885644938650547e-12
3.131609158536186192e-12
2.473931244802471666e-12
1.965444890904324565e-12
1.559083251507958047e-12
1.226287108164381052e-12
9.502141610906167415e-13
7.214444421972995388e-13
5.345138921413062103e-13
3.854750256397359979e-13
2.704950828476859200e-13
1.849543119119118187e-13
