# bin_7_6
3.766452212357946710e-11
4.206951642560090573e-11
4.609370919061644520e-11
4.930135865919299563e-11
5.114679594019995125e-11
5.117213540210820011e-11
4.869808075259064815e-11
4.375585610794390160e-11
3.716863963798722517e-11
3.045238486806680791e-11
2.532109954805235413e-11
2.189352531582422445e-11
1.797663790802688314e-11
1.271417281570277401e-11
9.544951880734245327e-12
7.369608474901021525e-12
5.036295586913138513e-12
3.665807021214082393e-12
2.606033981087401686e-12
1.820781174620989836e-12
1.280689288106950501e-12
9.094058313612603121e-13
6.548666084302305713e-13
4.795576379144224121e-13
3.581336130425935000e-13
2.720711317706863330e-13
2.094893942315479620e-13
1.625129723306716611e-13
1.261022350123603983e-13
9.718558387409696675e-14
7.393573615447569795e-14
