# bin_6_2
1.379808990963671314e-15
1.509065125994268231e-15
1.611034667196359764e-15
1.667950805502360300e-15
1.664927000493466778e-15
1.580287525613687773e-15
1.416730635123253139e-15
1.201226227469907999e-15
9.841074646439192253e-16
8.193995517981652876e-16
7.075643590085264897e-16
5.778647760088441508e-16
4.095493363960755334e-16
3.095135658105760504e-16
2.377043033925657544e-16
1.650805356607790472e-16
1.206280361825924356e-16
8.679868695680823111e-17
6.186724976642625804e-17
4.458322447232721835e-17
3.257082574423088783e-17
2.419772603440331638e-17
1.829946112108738730e-17
1.407669394321159654e-17
1.095848710794681037e-17
8.582168024893934797e-18
6.715057624067697259e-18
5.212693194628712745e-18
3.990275613023612364e-18
2.997020667398665622e-18
2.200044897527215537e-18
