# bin_8_3
5.339726627912947937e-17
5.938209516791260144e-17
6.471455367324387228e-17
6.875771064117788557e-17
7.073793673298956149e-17
7.004827487368622545e-17
6.575957929576386176e-17
5.832978249870208264e-17
4.895070431979554642e-17
4.004400974271463529e-17
3.364863631287200560e-17
2.909077755639136156e-17
2.311223374389657342e-17
1.608666028154915052e-17
1.259349695448422026e-17
9.220682111080804551e-18
6.582971957780931777e-18
4.615004841662635905e-18
3.320197956156353956e-18
2.342466697613838953e-18
1.659924530014954029e-18
1.191598313013751669e-18
8.680188754094746182e-19
6.440525459210149044e-19
4.868464809894248830e-19
3.736027074674658750e-19
2.896885450110070657e-19
2.254289895086657906e-19
1.747936340198933278e-19
1.341466633084142188e-19
1.013422846307830525e-19
