# bin_7_10
-1.586592338563536222e-09
-1.791426307251324514e-09
-1.988717150620522415e-09
-2.161905818324571750e-09
-2.289181967190081972e-09
-2.344940323197864272e-09
-2.308188162771161077e-09
-2.150449511242040478e-09
-1.893696423099157443e-09
-1.579821009418912631e-09
-1.293353931662390271e-09
-1.094259254657335462e-09
-9.434442547246402935e-10
-7.330974058951309166e-10
-5.091496943691410180e-10
-4.054337792458456840e-10
-2.859575284869807510e-10
-2.082570118814205513e-10
-1.424057861306210854e-10
-1.005951322488400212e-10
-6.988336388254947654e-11
-4.847818942058024587e-11
-3.386982188290154893e-11
-2.390122210255897755e-11
-1.715891445644134972e-11
-1.256028929801418370e-11
-9.371142948213499579e-12
-7.113387644074931224e-12
-5.464106465629943806e-12
-4.218575679729259256e-12
-3.249274822140292740e-12
