# bin_11_6
-9.289112475781620250e-13
-1.050515465513328152e-12
-1.168447808552297171e-12
-1.273188072403658226e-12
-1.352072415486486016e-12
-1.389720612612523230e-12
-1.374389596017129525e-12
-1.287573451807838275e-12
-1.139772345130599015e-12
-9.544358565296532370e-13
-7.806720616235837877e-13
-6.576432890982171410e-13
-5.689526943489924141e-13
-4.488395112941406118e-13
-3.105906870093851487e-13
-2.452663869767627320e-13
-1.765137220518427482e-13
-1.265830378543461842e-13
-8.667089560471810874e-14
-6.164313181498399079e-14
-4.265715750401325923e-14
-2.944447300418692781e-14
-2.048319470318082343e-14
-1.437908805882118412e-14
-1.025752793046711337e-14
-7.460269021239492386e-15
-5.532725266395818709e-15
-4.179816651571634918e-15
-3.201290461224489535e-15
-2.469443150745557938e-15
-1.904214071969646338e-15
