# bin_3_10
-3.002713263939111100e-14
-3.368755789904075210e-14
-3.710966614298529509e-14
-3.995905599089239304e-14
-4.180948340738285347e-14
-4.224281151195260619e-14
-4.077255364057099684e-14
-3.716391589672268188e-14
-3.203197271049445489e-14
-2.638605914675221194e-14
-2.175227885359414528e-14
-1.868434283316510687e-14
-1.574396712338660496e-14
-1.153156148817855695e-14
-8.287830420218048588e-15
-6.619492614560750543e-15
-4.462866976338597198e-15
-3.330896156060372680e-15
-2.309733555573076203e-15
-1.609644602255347827e-15
-1.129212155286533281e-15
-7.948847122326021365e-16
-5.654118529459183321e-16
-4.079148318882981474e-16
-3.001400056775780536e-16
-2.249924731508232454e-16
-1.714152367207798648e-16
-1.321205773105437973e-16
-1.023177626531301785e-16
-7.904238169662146664e-17
-6.049871387059668620e-17
