# bin_7_5
-4.203974586108914570e-09
-4.677182069207001894e-09
-5.099952089396665170e-09
-5.422349490051550308e-09
-5.584055214361467577e-09
-5.535469813962985397e-09
-5.205752378818449829e-09
-4.625734824368367984e-09
-3.890433183276747656e-09
-3.185288184822249174e-09
-2.672701137486151585e-09
-2.307432821613217998e-09
-1.840839535149355236e-09
-1.289740674734656117e-09
-1.000060946901509071e-09
-7.387444389338336773e-10
-5.235990650415325349e-10
-3.708856344040371956e-10
-2.653661868116982140e-10
-1.869671948462596083e-10
-1.324456092327339964e-10
-9.493245126111671307e-11
-6.904224291163887118e-11
-5.112883298445590028e-11
-3.857738477713712863e-11
-2.955554065976520506e-11
-2.288713411142153338e-11
-1.779549998866990303e-11
-1.379393192563230756e-11
-1.058817772003712930e-11
-8.003814750859400183e-12
