# bin_3_11
-4.498419604967902477e-21
-5.067863683122709399e-21
-5.610819595615102614e-21
-6.079185616375194321e-21
-6.410370756883771653e-21
-6.534083757793932066e-21
-6.387896044964614216e-21
-5.902170897817304380e-21
-5.156353394760184369e-21
-4.275658032264294993e-21
-3.504040185958037424e-21
-2.984612665026549975e-21
-2.561632301905861639e-21
-1.943974123575933528e-21
-1.354744671844778708e-21
-1.095682998258989063e-21
-7.473501824184818303e-22
-5.587232427716721451e-22
-3.797762002106965064e-22
-2.660440539895925071e-22
-1.859879284078496709e-22
-1.299850578632760786e-22
-9.144664269744953338e-23
-6.505939114647402059e-23
-4.716618199059142204e-23
-3.486590342900280783e-23
-2.625025169971779124e-23
-2.007000671393246059e-23
-1.548712785497451628e-23
-1.197581248615338666e-23
-9.212170887354558061e-24
