# bin_8
0.000000000000000000e+00
8.566521245375845366e-264
2.933570768377064113e-226
8.713998460534454945e-195
4.090057100857098786e-168
2.228522527868034322e-145
6.616676083179890880e-126
3.670607565411047695e-109
1.029470692387053713e-94
3.287607963268963582e-82
2.330367482779021277e-71
6.371101148461063819e-62
1.064455443614266735e-53
1.598065872829772920e-46
2.982672956782342720e-40
9.108878756185563633e-35
5.748962527400276292e-30
9.152955956227279547e-26
4.361116900834736121e-22
7.203792532779747071e-19
4.683880261218060254e-16
1.338232310348174016e-13
1.848865374101315331e-11
1.342743646411037219e-09
5.514918924833045635e-08
1.365902903439988900e-06
2.158713265612928459e-05
2.288611222276613585e-04
1.701357949595979670e-03
9.225071030651423726e-03
3.778467671959037655e-02
1.206071168810868982e-01
3.084225080553905096e-01
6.474614563675835655e-01
1.139773980929628339e+00
1.713792346394334976e+00
2.236134349126758014e+00
2.566317937469348109e+00
2.620802062952872546e+00
2.405665464380009055e+00
2.002421501879007248e+00
1.523475331239516395e+00
1.067102651361303334e+00
6.927143877892558699e-01
4.193369499786251398e-01
2.380894620735461709e-01
1.274770965387836408e-01
6.468980190484044379e-02
3.126115762982699386e-02
1.444963995306898161e-02
6.414722729551098658e-03
2.745545700010427505e-03
1.136976276143072213e-03
4.570622947603926846e-04
1.789055292422127535e-04
6.837854856061696283e-05
2.558549299969587970e-05
9.394820198238078122e-06
3.392859321793524057e-06
1.207570685715783660e-06
4.243707044427072164e-07
1.475083000295192333e-07
5.079465142824384770e-08
1.735349079290252984e-08
5.889911458616607295e-09
1.988484379913468857e-09
6.685315486050595144e-10
2.240590251165362540e-10
7.493092519070848469e-11
2.502654110726965413e-11
8.354739489691217708e-12
4.827505637107210581e-12
