# bin_12_3
4.534351690119418289e-08
4.088582437789148377e-08
3.585082984945219541e-08
3.058601138432860045e-08
2.546621266666476144e-08
2.080253120414891678e-08
1.675884409647302725e-08
1.333260874767465918e-08
1.042168821407045685e-08
7.961762225210634412e-09
5.986723948663438877e-09
4.505837588467454811e-09
3.397960563786824709e-09
2.558286775736531201e-09
1.943774310996008763e-09
1.488853850329807942e-09
1.151178770540413069e-09
8.967444691904312054e-10
7.017001474295449451e-10
5.493289019370536790e-10
4.283577390111506804e-10
3.313074783272484918e-10
2.531806056124356385e-10
1.905492341612837156e-10
1.408876724424291226e-10
1.021538999912528429e-10
7.256356030831513901e-11
5.048600883877402153e-11
3.442333584894413045e-11
2.303126389669010098e-11
1.514792415352237043e-11
