# bin_5_5
4.709480679969360946e-08
4.281078999189110004e-08
3.788185047113996124e-08
3.262774033985285484e-08
2.740526187456980974e-08
2.253855482716348425e-08
1.823841411176666629e-08
1.456526975688860382e-08
1.146069089677389628e-08
8.842394101363308389e-09
6.691739017496140489e-09
5.025761291009899827e-09
3.786152632686761347e-09
2.850956643921381392e-09
2.153092003153655732e-09
1.641161535436005722e-09
1.260615016203801693e-09
9.761137345667600643e-10
7.599328058440723291e-10
5.927946415528176371e-10
4.614491118334274328e-10
3.569765599687539464e-10
2.733882248127030725e-10
2.065791337291786666e-10
1.536009887432028520e-10
1.121587741298615596e-10
8.032324986994844334e-11
5.638568459140079387e-11
3.880341280950610515e-11
2.619956112634801211e-11
1.737955241485319351e-11
