# bin_7_2
-1.743784738377231461e-09
-1.806721617518257903e-09
-1.805065966306393399e-09
-1.720527026831538903e-09
-1.552615176127340751e-09
-1.328782775588559573e-09
-1.097625242286974436e-09
-9.119474402386452360e-10
-7.766598177564954192e-10
-6.370618613365633801e-10
-4.720266639075289210e-10
-3.496754601007356747e-10
-2.687363785763992616e-10
-1.931040517355755327e-10
-1.421839735127420227e-10
-1.032275688800406528e-10
-7.578406369744107701e-11
-5.624909770729560920e-11
-4.242442505804594136e-11
-3.256950435763780146e-11
-2.540506720650463341e-11
-2.005596279974574748e-11
-1.591877889500403380e-11
-1.261302450662841159e-11
-9.908016072890961441e-12
-7.667715922626518361e-12
-5.815230128207985870e-12
-4.305215621765133313e-12
-3.104070206276865233e-12
-2.178779009796184036e-12
-1.490753687931638426e-12
