# bin_8_7
-1.134200130425934769e-10
-1.266481746396538719e-10
-1.387141971787989323e-10
-1.483038403770006321e-10
-1.537775350396203388e-10
-1.537506165198923781e-10
-1.462091180330974606e-10
-1.312924082804002565e-10
-1.114815834983984996e-10
-9.135885844755454417e-11
-7.601461170563016681e-11
-6.568577848004215855e-11
-5.381781538781522927e-11
-3.810531435200718224e-11
-2.864545824851077723e-11
-2.203984890090128983e-11
-1.512037015167845347e-11
-1.098683824993793829e-11
-7.802621582002061497e-12
-5.456427532900203102e-12
-3.842092175520487127e-12
-2.730650849438213873e-12
-1.967712852032432376e-12
-1.442009636963972448e-12
-1.077586349834810829e-12
-8.190340922823166725e-13
-6.308008953161853157e-13
-4.893449879948537983e-13
-3.796136749149818335e-13
-2.924339639510335888e-13
-2.223445937586613302e-13
