# bin_1_6
-3.001085054331996299e-20
-3.263099032968289066e-20
-3.458351209483970913e-20
-3.548618421315119137e-20
-3.502248684621918316e-20
-3.275929993372336812e-20
-2.896243303971508559e-20
-2.425264258094501830e-20
-1.984931946277442501e-20
-1.671145202126174302e-20
-1.440530511568053407e-20
-1.135681489457046060e-20
-7.951580635208680016e-21
-6.250539980042965432e-21
-4.558727616750494586e-21
-3.298998137135247439e-21
-2.341536488237816450e-21
-1.699903975696457467e-21
-1.223454019254844441e-21
-8.889390468430823127e-22
-6.561826848884048444e-22
-4.926626924412542994e-22
-3.765873394880354459e-22
-2.921996139192978120e-22
-2.288160199533910087e-22
-1.796798491948427200e-22
-1.404903242205982566e-22
-1.086511273638586071e-22
-8.264165151489426412e-23
-6.153933792527008787e-23
-4.471181672112522049e-23
