# bin_6_10
-3.360462110871410658e-15
-3.783540737094634564e-15
-4.185821816690137166e-15
-4.531132966513060645e-15
-4.772579197445640073e-15
-4.858354449434317052e-15
-4.740740581552122970e-15
-4.370791814970977650e-15
-3.810437612938020227e-15
-3.155324286564921144e-15
-2.587307039518431548e-15
-2.207412804173570775e-15
-1.890996746909857846e-15
-1.426255589257383533e-15
-9.966822817743046068e-16
-8.074880526080283755e-16
-5.471464333882778677e-16
-4.108092223846578423e-16
-2.796604021358091191e-16
-1.954183743931826770e-16
-1.367836196310519635e-16
-9.574500629275684247e-17
-6.747483957331676577e-17
-4.810878418294731735e-17
-3.496355955637054108e-17
-2.590786372145367014e-17
-1.954774881197033358e-17
-1.496948279372149931e-17
-1.156165714219433991e-17
-8.941611999277322302e-18
-6.874324960187824662e-18
