# bin_8_1
-3.058703740970671538e-09
-3.007331132357946644e-09
-2.817702602518855853e-09
-2.504651277277105414e-09
-2.124719511980831390e-09
-1.759746425994364925e-09
-1.470689742477154570e-09
-1.236852157767075185e-09
-9.889358334428375169e-10
-7.359317730491486109e-10
-5.511594423792550350e-10
-4.168113298142830746e-10
-3.038749575756146628e-10
-2.240484761567337077e-10
-1.649842741992195039e-10
-1.229651851133746888e-10
-9.299954581632791671e-11
-7.158866141236261939e-11
-5.604072174280039376e-11
-4.443964849254568532e-11
-3.548948432025767381e-11
-2.833673645599632016e-11
-2.246061756089707895e-11
-1.755950087001213216e-11
-1.346589763169594067e-11
-1.008734086015501749e-11
-7.362719027480956386e-12
-5.232076154060966332e-12
-3.623123337811988377e-12
-2.450356678716754905e-12
-1.623280872799217748e-12
