# bin_4_8
-7.373191728887612734e-16
-8.207019044190018295e-16
-8.953944995245905293e-16
-9.526522397001450948e-16
-9.817560587727169476e-16
-9.743074587068456733e-16
-9.171983417464089643e-16
-8.156913972049108923e-16
-6.861048479903702970e-16
-5.612947860315719307e-16
-4.706060720071492751e-16
-4.070892997478774930e-16
-3.257650220426496319e-16
-2.271016350804542314e-16
-1.764476034234806108e-16
-1.306570710476760088e-16
-9.239240606189535948e-17
-6.517864023340405211e-17
-4.687312096810543953e-17
-3.300243994593155200e-17
-2.334062730891933984e-17
-1.672028454656979435e-17
-1.215385648821806516e-17
-8.996199135525105246e-18
-6.785537712046093293e-18
-5.198019718621322217e-18
-4.025846201019023906e-18
-3.131471926499997180e-18
-2.428732531102795575e-18
-1.865589754281219307e-18
-1.411311346924491215e-18
