# bin_5_2
-1.372099381003534461e-09
-1.419752365169211450e-09
-1.416134933900095986e-09
-1.346965059088118026e-09
-1.212809125652207928e-09
-1.035893260896009559e-09
-8.550495024410203328e-10
-7.111149056958710362e-10
-6.058487140978117822e-10
-4.952763062506156613e-10
-3.657027424119781643e-10
-2.717311890651078865e-10
-2.084846016752283356e-10
-1.497015016218915659e-10
-1.102855011932624092e-10
-8.010525906040246522e-11
-5.884565055875847963e-11
-4.372671207600012919e-11
-3.302285769175689114e-11
-2.538507660209425366e-11
-1.982404065098771220e-11
-1.566330541794675856e-11
-1.243763317321307258e-11
-9.854875589486676984e-12
-7.738277495140426782e-12
-5.983953802590041777e-12
-4.533350500648527928e-12
-3.351800689050394062e-12
-2.413187210191929959e-12
-1.691406229324252655e-12
-1.155737495250028678e-12
