# bin_5_7
-1.130198364897198329e-12
-1.254872887340058423e-12
-1.364890753393441701e-12
-1.446643944959111306e-12
-1.483944268022864496e-12
-1.463783704683214672e-12
-1.367576346878211107e-12
-1.207575697284035996e-12
-1.009624710940901656e-12
-8.260997531340365269e-13
-6.968150304830337466e-13
-6.014014771618898305e-13
-4.717672195685851116e-13
-3.281481058110010394e-13
-2.597667875469899841e-13
-1.866960170548078909e-13
-1.353737908411012883e-13
-9.420031269158037003e-14
-6.770646014514106894e-14
-4.794496543569224298e-14
-3.410607768755071019e-14
-2.457845599373718413e-14
-1.797670953532601992e-14
-1.339737185271330274e-14
-1.016688356684429309e-14
-7.825935569324114554e-15
-6.079602326924688869e-15
-4.733489729326916638e-15
-3.667482523057647477e-15
-2.809370594695208625e-15
-2.116500637108962301e-15
