# bin_2_5
-1.075411575133341995e-14
-1.162524826795126713e-14
-1.223172247161519531e-14
-1.244411681543487193e-14
-1.213801618905578858e-14
-1.119807732247149610e-14
-9.769590644202273225e-15
-8.103863344135265758e-15
-6.647932932970426745e-15
-5.654384124634923295e-15
-4.829499451067590100e-15
-3.673091645638746585e-15
-2.593807140444047397e-15
-2.076537501994996168e-15
-1.455855182939010200e-15
-1.085453376249214196e-15
-7.650364700532654142e-16
-5.536540119948747125e-16
-4.017719633835450796e-16
-2.945440947026309458e-16
-2.194500475828207193e-16
-1.663016232851685571e-16
-1.282362134507620392e-16
-1.001563705869846916e-16
-7.873942169513966835e-17
-6.189274773593982066e-17
-4.830077657758340176e-17
-3.718779514012741752e-17
-2.809750398196951292e-17
-2.074611882487723557e-17
-1.492786945971552441e-17
