# bin_10_6
-4.022152472950199991e-10
-4.467186156354970329e-10
-4.860687934555554303e-10
-5.154378097580189570e-10
-5.291240533149870793e-10
-5.223411660814326650e-10
-4.886949489216017620e-10
-4.321128758612427275e-10
-3.619508089451305990e-10
-2.963862884805531357e-10
-2.496742713707060765e-10
-2.151814303976878223e-10
-1.694356432458258356e-10
-1.185434958134083072e-10
-9.297962254299260593e-11
-6.745336780639331381e-11
-4.849627112994292029e-11
-3.408272586855142693e-11
-2.440338238455025529e-11
-1.725309167706520877e-11
-1.226279735843383406e-11
-8.824309815534026878e-12
-6.445164032102782093e-12
-4.795297679635698115e-12
-3.633263530577162514e-12
-2.792826618230027514e-12
-2.167255187958238516e-12
-1.686263479328067371e-12
-1.306205517304543666e-12
-1.000776962089684253e-12
-7.543794242908079714e-13
