# bin_7_10
-1.077314725932341408e-13
-1.214756156651733379e-13
-1.346319650927322238e-13
-1.460596317749204660e-13
-1.542659815269079850e-13
-1.575361332008721698e-13
-1.544234363034360159e-13
-1.431223213714692031e-13
-1.254110004566711383e-13
-1.041952636618911689e-13
-8.532926063953642267e-14
-7.250854848948168634e-14
-6.239183603081248777e-14
-4.776005454289600568e-14
-3.316548302067105057e-14
-2.674635861729545238e-14
-1.842317344228980300e-14
-1.368337998680990833e-14
-9.283558223789366773e-15
-6.527844058072423945e-15
-4.555096382637804202e-15
-3.176268733402961816e-15
-2.229116298687774550e-15
-1.581063754624296526e-15
-1.142204009832779011e-15
-8.414171643511961136e-16
-6.315278818901563999e-16
-4.817117917776357942e-16
-3.712186165762619229e-16
-2.869843017440543116e-16
-2.209288381271934621e-16
