# bin_2_1
-1.199773525272137428e-09
-1.164373284544327537e-09
-1.074318169721485790e-09
-9.406054247601897020e-10
-7.891527950082493183e-10
-6.529733515429486851e-10
-5.487627997563417895e-10
-4.584953571278529597e-10
-3.577086518495235120e-10
-2.636160339886368533e-10
-1.999061085925428314e-10
-1.493551054671430907e-10
-1.089899849545386197e-10
-8.052923593011055725e-11
-5.957727677747173050e-11
-4.468250919089788746e-11
-3.407409963555619682e-11
-2.645375360412493171e-11
-2.086441984611045457e-11
-1.663746913338078928e-11
-1.332498998460245189e-11
-1.063946728507010338e-11
-8.410391564703186843e-12
-6.541442878591955966e-12
-4.980663681433401662e-12
-3.699043530108573328e-12
-2.674756150126485936e-12
-1.882956415376875439e-12
-1.292529995230103132e-12
-8.674071277494025423e-13
-5.708858069259426801e-13
