# bin_14_6
-5.877096479648011216e-10
-6.535115421131335687e-10
-7.121142369174136352e-10
-7.565155188206356490e-10
-7.783309069625468409e-10
-7.705674576925414391e-10
-7.235709655269815398e-10
-6.420390600504840094e-10
-5.394136813024684141e-10
-4.417292030804691330e-10
-3.710662437571328649e-10
-3.200870252553490119e-10
-2.543795466734544088e-10
-1.783301532607932425e-10
-1.386125127715968956e-10
-1.019009298798721386e-10
-7.249998790945841402e-11
-5.129135965475227487e-11
-3.667772502592828145e-11
-2.586678955100076579e-11
-1.834344541864593371e-11
-1.316256839646925792e-11
-9.584268872531648291e-12
-7.106698801792732340e-12
-5.368172574345175078e-12
-4.116352138370958931e-12
-3.189242295230491093e-12
-2.479991439997551740e-12
-1.921786224010089247e-12
-1.474256377513002316e-12
-1.113452272932704364e-12
