# bin_1_9
-8.241362130111081077e-29
-9.171054069999303638e-29
-1.000262156368168117e-28
-1.063816480363876464e-28
-1.095798313813387083e-28
-1.086825846334180203e-28
-1.022335168272970118e-28
-9.085396224286878134e-29
-7.637200402306939525e-29
-6.247833174373372352e-29
-5.241582822651213938e-29
-4.533422304788685641e-29
-3.620561303694338833e-29
-2.522957600402288654e-29
-1.964326411157326685e-29
-1.450021105864728400e-29
-1.028122857977740215e-29
-7.240408590776757769e-30
-5.207443899241135732e-30
-3.668633490229618068e-30
-2.596119116104946245e-30
-1.860897768756611051e-30
-1.353518106386368056e-30
-1.002565837748669304e-30
-7.566795420750502433e-31
-5.799437423398148046e-31
-4.493116353597535797e-31
-3.495334825880867998e-31
-2.710695248234620918e-31
-2.081611286347548491e-31
-1.574078450298366520e-31
