# bin_15_7
-4.671352151275703652e-10
-5.230522251995183978e-10
-5.748109656162348333e-10
-6.171195053912410259e-10
-6.432923475148127599e-10
-6.471702901991611022e-10
-6.208389117106852998e-10
-5.624017927155974037e-10
-4.817548983336870766e-10
-3.959239893134341502e-10
-3.275660733663453048e-10
-2.821459442005892184e-10
-2.351722692842520470e-10
-1.697912119396536760e-10
-1.241919223128818916e-10
-9.787601554292002973e-11
-6.629187267365280779e-11
-4.903678344324201413e-11
-3.433168347962211337e-11
-2.394274623126477332e-11
-1.682145524183374158e-11
-1.188632427671039527e-11
-8.499684459057143165e-12
-6.171772115461567987e-12
-4.570723738249896450e-12
-3.446535478609748123e-12
-2.638179989121661707e-12
-2.039291650322041477e-12
-1.580695491254635747e-12
-1.219851256294003359e-12
-9.311723775996692445e-13
