# bin_6_3
-8.863002548054610048e-10
-9.449588682163104755e-10
-9.774554846162745344e-10
-9.743862492828888236e-10
-9.248352079498506843e-10
-8.300181478262653275e-10
-7.057917681906788178e-10
-5.803579864437559421e-10
-4.832814794536828633e-10
-4.142626162418883268e-10
-3.376214278896586978e-10
-2.446508831582535087e-10
-1.832558923077939860e-10
-1.404904348098734636e-10
-9.943619064384821031e-11
-7.315915962999751308e-11
-5.272147363420174453e-11
-3.826288353299289949e-11
-2.809075921184612352e-11
-2.093039266199475982e-11
-1.586834168261180563e-11
-1.223393236493795724e-11
-9.564989123562470682e-12
-7.536922054839036604e-12
-5.944877030593663801e-12
-4.661629621244054339e-12
-3.610109902879387637e-12
-2.745877805737151407e-12
-2.042213489266697878e-12
-1.480650859181876095e-12
-1.045235401244367486e-12
