# bin_9_1
-3.163311847809888863e-09
-3.111111862567881747e-09
-2.915964104575093775e-09
-2.592894721345112787e-09
-2.200143937679128886e-09
-1.822282182392799658e-09
-1.522767954908085133e-09
-1.280808271093459556e-09
-1.024622322188333731e-09
-7.626834049542230666e-10
-5.710441145882845539e-10
-4.319471873795942720e-10
-3.149165437409269337e-10
-2.321739296735156816e-10
-1.709527703015195580e-10
-1.273957841659046074e-10
-9.633280424920173847e-11
-7.414029798782951666e-11
-5.802818137134679562e-11
-4.600968223625114062e-11
-3.674070605702134755e-11
-2.933561496697396839e-11
-2.325367253720499183e-11
-1.818154033545541621e-11
-1.394512534068811252e-11
-1.044832607696560320e-11
-7.627788547299924280e-12
-5.421573251293767173e-12
-3.755081261634663775e-12
-2.540040450875815043e-12
-1.682939065654435858e-12
