# bin_4_15
-2.727219979903160780e-30
-3.106192297870143170e-30
-3.486053520619147774e-30
-3.840475197131031400e-30
-4.134501930497826658e-30
-4.323677228383636677e-30
-4.365131021681368831e-30
-4.206339851841591080e-30
-3.825136518655000269e-30
-3.288786098057181484e-30
-2.704107976381128914e-30
-2.230797892723969236e-30
-1.922130479927987857e-30
-1.616945552384470985e-30
-1.171329196835380540e-30
-8.442959130934308126e-31
-6.759662099028556179e-31
-4.472548018594466596e-31
-3.340405662896561188e-31
-2.295231712323561858e-31
-1.562222172505163006e-31
-1.068762684374404289e-31
-7.276910462254627151e-32
-4.974341311695013000e-32
-3.425845008571907531e-32
-2.397248075985126807e-32
-1.708265811562352330e-32
-1.243260228376421560e-32
-9.241942946183598499e-33
-6.993852417710820413e-33
-5.355742808671723763e-33
