# bin_9_7
-1.875563051620076423e-10
-2.096072254178091160e-10
-2.298134950136596863e-10
-2.460163028119988418e-10
-2.555119891666677519e-10
-2.559570004519935499e-10
-2.440582055447088760e-10
-2.197406231274617208e-10
-1.870802618457256438e-10
-1.534272281138565868e-10
-1.274232225230709140e-10
-1.100206392220880673e-10
-9.064689143133462315e-11
-6.454031846874984401e-11
-4.809509035484551275e-11
-3.731723424422379591e-11
-2.546357076783856021e-11
-1.862492891435816034e-11
-1.316941872405051087e-11
-9.197910313782362302e-12
-6.472109837684512857e-12
-4.591417257862618563e-12
-3.300798618281625580e-12
-2.412204460295267522e-12
-1.797770917008923799e-12
-1.363236289419050370e-12
-1.048083203609720816e-12
-8.122608325189411943e-13
-6.300224325205636232e-13
-4.856355754783036676e-13
-3.697061706333754032e-13
