# bin_6_13
-9.883955441521891573e-16
-1.122982926127628566e-15
-1.256315206183852579e-15
-1.378689605268031070e-15
-1.477120970856798447e-15
-1.535262954031235898e-15
-1.539176952399165484e-15
-1.468292091434484845e-15
-1.322019145257652315e-15
-1.125091071793307547e-15
-9.220299682876879892e-16
-7.657017875755803407e-16
-6.625381432442646784e-16
-5.466062144737647076e-16
-3.865426436268312351e-16
-2.882493293734320132e-16
-2.236916646099887838e-16
-1.506696292561208394e-16
-1.093732266566376696e-16
-7.662423205229635576e-17
-5.236959692264387644e-17
-3.579707782852122854e-17
-2.451674937035578968e-17
-1.691636351713097014e-17
-1.180077533441607150e-17
-8.379227071262458595e-18
-6.065889407077202741e-18
-4.484129764892758278e-18
-3.378288068586482619e-18
-2.581363595358016687e-18
-1.986659259116030253e-18
