# bin_7_2
-2.014848412848266591e-15
-2.221435148956589210e-15
-2.395367862835079813e-15
-2.511492037365434273e-15
-2.544015319833474939e-15
-2.465255948314385770e-15
-2.256686416894552260e-15
-1.953550652630111013e-15
-1.612183808153353538e-15
-1.325577187160214188e-15
-1.135050454018052856e-15
-9.629810107223803785e-16
-7.146595847494992277e-16
-5.085502844487948792e-16
-4.095589764179907203e-16
-2.786234622545257119e-16
-2.099529602850908052e-16
-1.465192718179457291e-16
-1.040300788720307393e-16
-7.452296131461167495e-17
-5.377642434750857816e-17
-3.934625947596080019e-17
-2.926156224068343899e-17
-2.217958570006809437e-17
-1.707352414370852745e-17
-1.328024792238472520e-17
-1.037330316336455947e-17
-8.077913906007221682e-18
-6.229726210083266064e-18
-4.730644201095144083e-18
-3.521226050798050696e-18
