# bin_4_5
-1.187012824449948395e-08
-1.302498835517817339e-08
-1.396223788984187064e-08
-1.453053556481335015e-08
-1.459333062008719101e-08
-1.396960731019787393e-08
-1.262852670681151781e-08
-1.079597679419939470e-08
-8.864517905140714573e-09
-7.338507178986467977e-09
-6.322535683048424587e-09
-5.254289034222861334e-09
-3.784620781392337566e-09
-2.786129944361123577e-09
-2.194010045994714103e-09
-1.499406819241862080e-09
-1.115596001129583908e-09
-7.932116479261054888e-10
-5.634119805011351233e-10
-4.049845805772247399e-10
-2.943460550832888942e-10
-2.173681348180707337e-10
-1.633264467334949603e-10
-1.249486913808240208e-10
-9.687808930733230791e-11
-7.569777777586401773e-11
-5.921217481556310279e-11
-4.603626411981278706e-11
-3.535254718730908126e-11
-2.667277459753742423e-11
-1.969008019820501137e-11
