# bin_12_8
-8.253382130489662867e-11
-9.378566798493753241e-11
-1.049401735419366886e-10
-1.151879880170183043e-10
-1.234462930369499996e-10
-1.283512513644947133e-10
-1.287317169597930318e-10
-1.228745244355681967e-10
-1.106949354276249570e-10
-9.425914621448222416e-11
-7.725745982571888110e-11
-6.413159050623371030e-11
-5.548289762854144458e-11
-4.583101393117204172e-11
-3.244794787881102189e-11
-2.414883842670622422e-11
-1.878002659267635405e-11
-1.263017918978284698e-11
-9.187037343510128407e-12
-6.429337625005573361e-12
-4.392789380259413808e-12
-3.002564533548438131e-12
-2.055477752174476032e-12
-1.417478363034542043e-12
-9.881028172532263870e-13
-7.010377276942774129e-13
-5.070597568278884727e-13
-3.745298971563456758e-13
-2.819763554079242728e-13
-2.153622852274727394e-13
-1.657151101882687955e-13
