# bin_1_9
-8.048920895657474270e-25
-8.968587221275872153e-25
-9.797456843520955913e-25
-1.044075587988909172e-24
-1.078143060914778342e-24
-1.072640686746691045e-24
-1.013106207230416772e-24
-9.038020912221066014e-25
-7.624515913871355016e-25
-6.239603448141555146e-25
-5.217933079091253630e-25
-4.514158242898727799e-25
-3.641956424747260658e-25
-2.548348168728179748e-25
-1.959806557165662443e-25
-1.470537964021416313e-25
-1.028435439794420855e-25
-7.322695802259165319e-26
-5.251942654594907214e-26
-3.688802998030409933e-26
-2.603853597080237651e-26
-1.860308432753695772e-26
-1.348487497371874780e-26
-9.949992034918617878e-27
-7.483316316718799685e-27
-5.718928613525148629e-27
-4.422087142247258020e-27
-3.437299771451732866e-27
-2.666520968787799441e-27
-2.050381807647276270e-27
-1.553757151104794417e-27
