# bin_12_7
-2.983505021883938368e-12
-3.386349798182217179e-12
-3.783540118120317361e-12
-4.145556622770269660e-12
-4.432835725450566933e-12
-4.595781836416523334e-12
-4.594028738719493679e-12
-4.364653482202295898e-12
-3.914695356038736350e-12
-3.318559247227427426e-12
-2.717296642763969231e-12
-2.263440997031651132e-12
-1.960079915910884319e-12
-1.602639813584996631e-12
-1.124772678367159440e-12
-8.504951644493390573e-13
-6.499187140866234788e-13
-4.428869292250456437e-13
-3.168382775141256601e-13
-2.235320033507529604e-13
-1.531365010947740111e-13
-1.047419988461760901e-13
-7.197286400266441583e-14
-4.985439283956798329e-14
-3.495641387997942539e-14
-2.496155593622015327e-14
-1.817673263964310922e-14
-1.351160145990508211e-14
-1.022507004989218195e-14
-7.835740472900906324e-15
-6.037168475362123169e-15
