# bin_3_14
-1.484522202829970120e-27
-1.687152473367584811e-27
-1.888172436573029536e-27
-2.073038548299651747e-27
-2.222302416900643829e-27
-2.311454996922230495e-27
-2.319286834393818302e-27
-2.215117112722654749e-27
-1.996753752183065872e-27
-1.701345452023252642e-27
-1.394742659698042852e-27
-1.157296597474839757e-27
-1.000978018042973108e-27
-8.278545572534658765e-28
-5.869862989299480487e-28
-4.359160975306068707e-28
-3.396933915158553809e-28
-2.281720977718743139e-28
-1.662884356122507233e-28
-1.162272681007313450e-28
-7.938840952316813125e-29
-5.426693809484937450e-29
-3.713511541002980045e-29
-2.559378129710392637e-29
-1.782696657118555761e-29
-1.263663703456782554e-29
-9.131445068953850601e-30
-6.738568359851298384e-30
-5.069403695162547420e-30
-3.869681416924740185e-30
-2.976791555268056855e-30
