# bin_13_5
-2.186726219140737042e-18
-2.482392896127372711e-18
-2.774135738184991803e-18
-3.040347026073652588e-18
-3.252072371196119666e-18
-3.372989544240565839e-18
-3.373316378454867074e-18
-3.207015796381732870e-18
-2.878208827627899930e-18
-2.441459990694496178e-18
-1.999374817780195014e-18
-1.664595339292794808e-18
-1.441326028083049180e-18
-1.180245586042816748e-18
-8.293233349496947171e-19
-6.256663509352438202e-19
-4.793418329512070522e-19
-3.260023656063884816e-19
-2.337846229136768329e-19
-1.647531089206220199e-19
-1.128237787903555621e-19
-7.715902221996204250e-20
-5.299022196292245686e-20
-3.668206605239668918e-20
-2.569896048186400558e-20
-1.833425563401490633e-20
-1.333817841860156281e-20
-9.906113188207052861e-21
-7.491277748281634098e-21
-5.738167589485917484e-21
-4.420339126960879767e-21
