# bin_9_2
-2.750671313770022745e-20
-3.069331125532873599e-20
-3.358854298078210689e-20
-3.587178797339504441e-20
-3.714341340107007395e-20
-3.707724929016444204e-20
-3.517495101817246831e-20
-3.151149530113988847e-20
-2.668933651893850470e-20
-2.185363979171588486e-20
-1.821316140821951054e-20
-1.575514663915787850e-20
-1.284627506405547590e-20
-9.039126609145929136e-21
-6.855800987691589345e-21
-5.233355612796418805e-21
-3.608597516314524003e-21
-2.602262138793347218e-21
-1.858279363231705056e-21
-1.301129505813287545e-21
-9.163470674331976748e-22
-6.523757404072708958e-22
-4.711323089220137118e-22
-3.461541030862293116e-22
-2.593157175078340133e-22
-1.975245694536390361e-22
-1.523833630558343178e-22
-1.183262471135157436e-22
-9.181368646876668496e-23
-7.069486865367253350e-23
-5.369376611288965100e-23
