# bin_15_13
-5.762837009329812523e-09
-6.605610634939910227e-09
-7.472911287676214898e-09
-8.312573005738730206e-09
-9.056084183574582463e-09
-9.612487845997310550e-09
-9.871557574900580988e-09
-9.750250763386458388e-09
-9.116891750063860906e-09
-8.055224189363354315e-09
-6.732821568808088659e-09
-5.507094349275535776e-09
-4.649227668025777383e-09
-4.021880690980043326e-09
-3.150611240526340279e-09
-2.173255093970622705e-09
-1.728374928337027348e-09
-1.225099872439777363e-09
-8.840093019403911972e-10
-5.937759910926477017e-10
-4.168413582926063534e-10
-2.830033607689826463e-10
-1.900654423793899438e-10
-1.273918624878132625e-10
-8.522482830694775118e-11
-5.739658805015461490e-11
-3.910296689626098486e-11
-2.707253507671191536e-11
-1.914733750177731149e-11
-1.386367664907238706e-11
-1.026839614689804720e-11
