# bin_7_13
-1.395813604837226959e-13
-1.587322207813554431e-13
-1.777872006884519043e-13
-1.953849200925004860e-13
-2.097077864914378815e-13
-2.184598920573844477e-13
-2.195919697133449487e-13
-2.102604242083784579e-13
-1.899948888779373466e-13
-1.622903928891266038e-13
-1.331327926524548250e-13
-1.102717656528516903e-13
-9.530264555797511889e-14
-7.923003770976855603e-14
-5.648039251501734139e-14
-4.158514605149828431e-14
-3.269135546325549920e-14
-2.182814664522283597e-14
-1.604116538841618852e-14
-1.115881725263272531e-14
-7.612079997684666057e-15
-5.203317543426178279e-15
-3.554232244843355655e-15
-2.443766462997975659e-15
-1.696748269061563106e-15
-1.198435505032670108e-15
-8.627160383684769564e-16
-6.342975883896364196e-16
-4.757134305204750098e-16
-3.623636871208105491e-16
-2.784847658142477025e-16
