# bin_3_1
-1.161855357129806284e-09
-1.211248940947293403e-09
-1.219500302406236007e-09
-1.172861851421129577e-09
-1.066660606914427246e-09
-9.179655331213931597e-10
-7.570311093634768702e-10
-6.251065253879252224e-10
-5.348276097992765655e-10
-4.472690013065733836e-10
-3.307292228173811409e-10
-2.410380917573777280e-10
-1.900244377321360633e-10
-1.336951517648890140e-10
-9.982183742588936215e-11
-7.191020861189437698e-11
-5.260772023436861334e-11
-3.893199645905315786e-11
-2.925155721420904665e-11
-2.237736213295472079e-11
-1.740444186291454105e-11
-1.371991606196082053e-11
-1.088945168714368668e-11
-8.640044239266943849e-12
-6.805192187174308192e-12
-5.285800528669575403e-12
-4.026152195094372079e-12
-2.994207187567394231e-12
-2.167950678429646979e-12
-1.527131645271353285e-12
-1.047773639450871514e-12
