# bin_6_10
-2.088341288281034578e-11
-2.355888606213503901e-11
-2.612536697399313344e-11
-2.836286460288956039e-11
-2.998272944608269224e-11
-3.064971984711182488e-11
-3.008750751134242523e-11
-2.793324993933641842e-11
-2.451658114925536497e-11
-2.039280038631802992e-11
-1.669525263333786412e-11
-1.416766245358124699e-11
-1.220505422576886559e-11
-9.387966036411391709e-12
-6.510455774781786779e-12
-5.237633373327203409e-12
-3.630485653985639854e-12
-2.683946274174845697e-12
-1.820962174618646303e-12
-1.283180188105458745e-12
-8.943166975057131826e-13
-6.226866390121641350e-13
-4.364056654365050844e-13
-3.090175127270543713e-13
-2.228028261707442385e-13
-1.638081129115514925e-13
-1.227261247073240544e-13
-9.348188180993303838e-14
-7.197908074772333755e-14
-5.563364421161774915e-14
-4.284376939886217239e-14
