# bin_10_7
-4.358882278903324119e-10
-4.925872821198300591e-10
-5.473955813166659282e-10
-5.958095060804050004e-10
-6.318603933763107659e-10
-6.483805549419768779e-10
-6.398200704050016597e-10
-5.977735665029628267e-10
-5.278048343911031569e-10
-4.410448908312246744e-10
-3.608015479350077723e-10
-3.046195547125065140e-10
-2.632852433596689386e-10
-2.061412695981550588e-10
-1.426155547841214673e-10
-1.133595240159754102e-10
-8.062316502359354337e-11
-5.839658163235589755e-11
-3.980426325968349135e-11
-2.825099464919324690e-11
-1.959285687505424414e-11
-1.356021711310625725e-11
-9.454793789950022247e-12
-6.654386923692969939e-12
-4.762441539250321577e-12
-3.475298883272843435e-12
-2.585594946144029439e-12
-1.958502383791066274e-12
-1.502660133538322116e-12
-1.160000741411446843e-12
-8.942404172011557734e-13
