# bin_13_13
-1.281008738386287750e-08
-1.465362052582371335e-08
-1.653698443802996559e-08
-1.834059076098790296e-08
-1.990836047371846629e-08
-2.103594092892933821e-08
-2.148717854253609020e-08
-2.106645861991978842e-08
-1.952224503123728773e-08
-1.710378426189043051e-08
-1.420424689690665416e-08
-1.163247057680672151e-08
-9.893166078538763922e-09
-8.517504601805520026e-09
-6.503765316925955314e-09
-4.505116623010677786e-09
-3.642275399339676339e-09
-2.483155493241847694e-09
-1.845329179409354313e-09
-1.233501873929017940e-09
-8.518669552884034039e-10
-5.817322758571156767e-10
-3.937756845325892581e-10
-2.654277687560767217e-10
-1.789845638733767524e-10
-1.219614938933577892e-10
-8.428875858071504779e-11
-5.934479850819004416e-11
-4.272927338489059422e-11
-3.147183567411900382e-11
-2.364544894952899676e-11
