# bin_3_8
-1.423235224424332286e-14
-1.582887023167783806e-14
-1.725207989666687661e-14
-1.833230683719177239e-14
-1.886328481702550198e-14
-1.868320465685317656e-14
-1.754392627161561727e-14
-1.556556491642911101e-14
-1.306554228282921580e-14
-1.068823550286448995e-14
-8.979253887190415292e-15
-7.763328313169540744e-15
-6.172162342586010753e-15
-4.296789282164378224e-15
-3.361370500700248888e-15
-2.463987037307772120e-15
-1.757703080441753412e-15
-1.233217163913819656e-15
-8.873641470877725785e-16
-6.261182301452243907e-16
-4.437672047114063027e-16
-3.186403143133424634e-16
-2.321791813801070337e-16
-1.723177530150278524e-16
-1.302884124000490878e-16
-1.000018232172174848e-16
-7.755037063990201910e-17
-6.035134970144785022e-17
-4.679485148967840092e-17
-3.591059111942246653e-17
-2.712580614351577689e-17
