# bin_9_5
-9.489600899600408745e-12
-1.064897099595392740e-11
-1.173416914741843775e-11
-1.263963119885345640e-11
-1.323080523684801438e-11
-1.337450734539822039e-11
-1.291665500907603768e-11
-1.177646633529825979e-11
-1.015269140371841720e-11
-8.358755855721394884e-12
-6.885065839200131904e-12
-5.917969817565722298e-12
-4.997958618079130726e-12
-3.656048861657052172e-12
-2.618444333725164888e-12
-2.106153744953373517e-12
-1.407215806018885957e-12
-1.058896182623843881e-12
-7.332352113085252660e-13
-5.095868225204343661e-13
-3.577580377378070654e-13
-2.518419819338745481e-13
-1.791401140495489964e-13
-1.292443545681600390e-13
-9.511905440037575902e-14
-7.132653383913248325e-14
-5.436480356405997159e-14
-4.192425627379100525e-14
-3.248553957077429123e-14
-2.510945544777654348e-14
-1.922780485971546545e-14
