# bin_7_1
-2.800031269774965921e-19
-3.076593967371190614e-19
-3.303489371528079648e-19
-3.445196437745372697e-19
-3.468578328265781232e-19
-3.331741806118895240e-19
-3.022124036685581599e-19
-2.592286940976432770e-19
-2.130783432848819003e-19
-1.760134164082081190e-19
-1.514624367513856291e-19
-1.266967870705410961e-19
-9.191017502994842712e-20
-6.697486205868815732e-20
-5.320877275836314423e-20
-3.619076524360535899e-20
-2.709617253217704318e-20
-1.917028957485852788e-20
-1.360414381586364014e-20
-9.771224762684305777e-21
-7.088682778228370348e-21
-5.222920720099569242e-21
-3.914612749610738763e-21
-2.988287910863014803e-21
-2.313190846781724069e-21
-1.805750709807430820e-21
-1.412252598395325716e-21
-1.098614352848988413e-21
-8.446705107468428196e-22
-6.383856046713083867e-22
-4.722754162330551911e-22
