# bin_13_15
-5.150992568780178967e-09
-5.904328964533490670e-09
-6.679605941105729096e-09
-7.430204158504905544e-09
-8.094890357523655651e-09
-8.592368937361147857e-09
-8.824115604541640705e-09
-8.715890539085613979e-09
-8.149983952390542905e-09
-7.201132373604918394e-09
-6.019118243273117920e-09
-4.923333496996030818e-09
-4.156288098206350804e-09
-3.595465144021808443e-09
-2.816818235555648127e-09
-1.943076776595863922e-09
-1.545148642126707541e-09
-1.095394826446435281e-09
-7.903129607910514170e-10
-5.309072843975028206e-10
-3.727010690229241535e-10
-2.530313011899356603e-10
-1.699337628824285633e-10
-1.138960601395958815e-10
-7.619429940665474985e-11
-5.131275956992013776e-11
-3.495646420186365314e-11
-2.420028061466276661e-11
-1.711473707117764177e-11
-1.239110262892018127e-11
-9.177116650388250289e-12
