# bin_3_3
-3.321366772371989089e-08
-3.552323306704296683e-08
-3.688035393696763664e-08
-3.693920815357783088e-08
-3.525321572545980765e-08
-3.179126636766731854e-08
-2.712645618019020622e-08
-2.228159925566493260e-08
-1.847992059689493128e-08
-1.589160672237662489e-08
-1.311940562879917163e-08
-9.481025894037138502e-09
-7.035660422056624006e-09
-5.488627616542238261e-09
-3.824504926011684174e-09
-2.840515282358076543e-09
-2.043007008849742160e-09
-1.477328174459541842e-09
-1.082318272702977455e-09
-8.044307544891736151e-10
-6.084183253947436553e-10
-4.680710539881172596e-10
-3.654833534620959490e-10
-2.878685969109136769e-10
-2.271723117313768888e-10
-1.783766870637764161e-10
-1.384250807715847281e-10
-1.055616102161997126e-10
-7.873947121403317989e-11
-5.725387805674777479e-11
-4.052280992665434692e-11
