# bin_4_8
-3.823432207758658548e-12
-4.263484753627150878e-12
-4.661782702043516480e-12
-4.973537480714020678e-12
-5.143125374468180899e-12
-5.125889646399620332e-12
-4.852550659556001128e-12
-4.338361093880415575e-12
-3.667215850315978779e-12
-3.001711718268007474e-12
-2.505694502435885923e-12
-2.167971932940791710e-12
-1.758989403276597527e-12
-1.233745071610680808e-12
-9.422605692111491433e-13
-7.135147879393058016e-13
-4.952239424273838801e-13
-3.548835368467379693e-13
-2.541344094296510409e-13
-1.782314294806248816e-13
-1.256688117017416079e-13
-8.964425671118693506e-14
-6.487876230143391792e-14
-4.778480160485182220e-14
-3.587904398796040113e-14
-2.738234671384716845e-14
-2.115365736092743966e-14
-1.643695815088059981e-14
-1.275360912416360740e-14
-9.813413062735251031e-15
-7.444502075006565490e-15
