# bin_6_10
-2.041774081537825720e-11
-2.302913004530128825e-11
-2.553199699512509239e-11
-2.771079694554970053e-11
-2.928304220265496507e-11
-2.992203327832132095e-11
-2.935607880064421292e-11
-2.723533221250392516e-11
-2.388820374256129044e-11
-1.986059230522587105e-11
-1.626138438089063024e-11
-1.380703052749975706e-11
-1.188905731641143207e-11
-9.127061623357666231e-12
-6.332644383553823486e-12
-5.100035606278127205e-12
-3.525966474231646706e-12
-2.611942713174538149e-12
-1.772119670360671646e-12
-1.247812621451593498e-12
-8.702504991611733655e-13
-6.064339937275597523e-13
-4.253654408291097721e-13
-3.014985731757010339e-13
-2.176309946877718137e-13
-1.601891682993104583e-13
-1.201404417956753721e-13
-9.158719198878914268e-14
-7.055578330170653002e-14
-5.454215730241533439e-14
-4.199595261310893780e-14
