# bin_1_9
-6.984188907835501050e-25
-7.780301559114321250e-25
-8.496808024019609861e-25
-9.051332310946693839e-25
-9.342307893316652790e-25
-9.289267376710537875e-25
-8.767001655406953166e-25
-7.815492317387926521e-25
-6.588706156618756659e-25
-5.391480318965507198e-25
-4.511329878573812633e-25
-3.902779370587575461e-25
-3.142858954829617947e-25
-2.197236057503508594e-25
-1.693785702498362155e-25
-1.267162837488604070e-25
-8.884909986253199302e-26
-6.313525809198862535e-26
-4.531693643125327425e-26
-3.185332875398029157e-26
-2.250021832618049822e-26
-1.609000199122886084e-26
-1.167478527324059338e-26
-8.623821665003861664e-27
-6.492487001780229216e-27
-4.965902170559488466e-27
-3.842080672340432840e-27
-2.987290478661811871e-27
-2.317355460759391147e-27
-1.781356808125151821e-27
-1.349183505589902665e-27
