# bin_7_4
-1.193845562150279514e-10
-1.324902778634949508e-10
-1.440206905418108055e-10
-1.525343364670595820e-10
-1.563270724052730127e-10
-1.540195868515316548e-10
-1.436830315857250280e-10
-1.266943261653730568e-10
-1.058020704911699783e-10
-8.657532409277078905e-11
-7.311351908499752776e-11
-6.306900745981196696e-11
-4.927508849753075779e-11
-3.426837664600358019e-11
-2.722461729422609881e-11
-1.944974317155553521e-11
-1.417598042902354886e-11
-9.842400491443556130e-12
-7.071926236880131919e-12
-5.014801980193720378e-12
-3.572709024875028552e-12
-2.578509566071821861e-12
-1.888884951144945958e-12
-1.410086925688134040e-12
-1.071674063280451511e-12
-8.258900356526029203e-13
-6.420701535229125448e-13
-5.000294475697821611e-13
-3.873346693421710432e-13
-2.965207642639686326e-13
-2.231767923586571743e-13
