# bin_8_7
-9.986049093708586670e-09
-1.122236558228130845e-08
-1.238776667469093502e-08
-1.337269574701979547e-08
-1.403655947402627442e-08
-1.423295510842984862e-08
-1.380859776844515631e-08
-1.265077032562015079e-08
-1.095984082623828061e-08
-9.044360811848507620e-09
-7.433287680921143870e-09
-6.369771094380782556e-09
-5.416485022652762353e-09
-4.014541404899099710e-09
-2.840509473423517400e-09
-2.297530376459511947e-09
-1.539771770876226606e-09
-1.160930049466775448e-09
-7.973416834789962320e-10
-5.548191985305993650e-10
-3.891964225911934543e-10
-2.733645621256332869e-10
-1.936763641713423650e-10
-1.390269816250109944e-10
-1.017815713406704242e-10
-7.594887485910254916e-11
-5.765096241220907186e-11
-4.433691920774461824e-11
-3.431536285950306541e-11
-2.653525485649627791e-11
-2.035661715687276757e-11
