# bin_2_6
-3.401407189684134597e-13
-3.720403640276784994e-13
-3.972278943653769985e-13
-4.113244093301425458e-13
-4.106542630163218156e-13
-3.898757960421639720e-13
-3.496087117202910179e-13
-2.964975896714403579e-13
-2.429170944363048753e-13
-2.022214519689946228e-13
-1.746122933169046209e-13
-1.426851023850053260e-13
-1.011712097961564956e-13
-7.640159110669070372e-14
-5.872944306102495306e-14
-4.076794625943047400e-14
-2.981342029884842789e-14
-2.145094827310549998e-14
-1.529281466345578668e-14
-1.102408740393327083e-14
-8.056414010624352998e-15
-5.987394794598054440e-15
-4.529420640627088441e-15
-3.485214170562109272e-15
-2.713791981461610857e-15
-2.125614954135289070e-15
-1.663272441512459211e-15
-1.291123661100756288e-15
-9.882577312344419113e-16
-7.421482275645763148e-16
-5.446793453924631590e-16
