# bin_10_5
-2.858542408551344934e-13
-3.218551554790389264e-13
-3.560923217097695394e-13
-3.854900983078169849e-13
-4.060601842410459595e-13
-4.133934511921119495e-13
-4.034340479332157747e-13
-3.720074191016259475e-13
-3.243610271735557770e-13
-2.686255027894109641e-13
-2.202637239780156946e-13
-1.878973420901267889e-13
-1.609749715822320209e-13
-1.214694615824063646e-13
-8.488059790284282431e-14
-6.874531065267177793e-14
-4.661806906227791317e-14
-3.498242797165381486e-14
-2.381869833926548588e-14
-1.665038554768473937e-14
-1.165468742649349408e-14
-8.158328111410572959e-15
-5.750244733673039784e-15
-4.100506831739233808e-15
-2.980519618300217182e-15
-2.208861246160299549e-15
-1.666797794399898708e-15
-1.276517422694503077e-15
-9.859532761374524052e-16
-7.625206200455348266e-16
-5.862070043457640861e-16
