# bin_1_1
-8.228817021548647548e-08
-8.090934715319246129e-08
-7.564357936649037127e-08
-6.696145443131287489e-08
-5.642516311827134909e-08
-4.648219416126686212e-08
-3.898379740452290297e-08
-3.308350976694666962e-08
-2.625480161575064926e-08
-1.914483224976021424e-08
-1.455082776067434684e-08
-1.095831042593880668e-08
-7.945085961671110916e-09
-5.872221085625949892e-09
-4.326252733392448832e-09
-3.227278440430910770e-09
-2.447211477466705035e-09
-1.889833407886491050e-09
-1.484384061750545671e-09
-1.180888896532170294e-09
-9.455915561949540447e-10
-7.564096617273902220e-10
-6.001178035716241409e-10
-4.691356926715063742e-10
-3.593528415981626678e-10
-2.685834911784854625e-10
-1.954064492321213676e-10
-1.383183742838528679e-10
-9.538975319375746761e-11
-6.425816910433681678e-11
-4.241871213920506231e-11
