# bin_7_7
-1.616297147659319714e-08
-1.811052551366474426e-08
-1.991981092841179451e-08
-2.140862108680317042e-08
-2.234605567378945212e-08
-2.251576949027207697e-08
-2.164265872228736189e-08
-1.963766421300553814e-08
-1.684745039749170041e-08
-1.384376717060103157e-08
-1.143399277734676991e-08
-9.852600253312997063e-09
-8.253537678249304516e-09
-5.964340317149193447e-09
-4.333410378434145723e-09
-3.450133876254314710e-09
-2.312403633884720401e-09
-1.727057807641338112e-09
-1.206573907906700704e-09
-8.392177439145798123e-10
-5.894415430405514450e-10
-4.159698109529543482e-10
-2.971017723081859400e-10
-2.154413795227860143e-10
-1.593679729452113311e-10
-1.200607384068761294e-10
-9.185285150712935943e-11
-7.099901982192086462e-11
-5.505666524703073259e-11
-4.252343636738190842e-11
-3.249592796031637777e-11
