# bin_10_4
-9.818056780669240228e-16
-1.103613015905780198e-15
-1.218560000970355735e-15
-1.315899436163232644e-15
-1.381824070058665313e-15
-1.401842716621779121e-15
-1.361024476806827290e-15
-1.247857796447917046e-15
-1.081894749963941609e-15
-8.931434417533608290e-16
-7.338012957491794028e-16
-6.285060276122275495e-16
-5.350023681072601786e-16
-3.973432411187379550e-16
-2.806300997835941724e-16
-2.271580131030462378e-16
-1.523316412439771974e-16
-1.148719280343919333e-16
-7.879874836052084222e-17
-5.484415971171211107e-17
-3.846679635111064725e-17
-2.700892877555805702e-17
-1.912374577742999693e-17
-1.371678854201489620e-17
-1.003371618595089260e-17
-7.481265792280349691e-18
-5.675113154788377604e-18
-4.362551440322894373e-18
-3.375824938718644725e-18
-2.610605292738925707e-18
-2.003304525205406773e-18
