# bin_13_5
-1.590249500842710606e-18
-1.805088673509530819e-18
-2.016977776620304817e-18
-2.210190664264068349e-18
-2.363651935305235516e-18
-2.450934711673693061e-18
-2.450466137263740980e-18
-2.328732313951898784e-18
-2.089184563613393149e-18
-1.771490142548628164e-18
-1.450606020584785837e-18
-1.208077964420829062e-18
-1.046112295984047382e-18
-8.558511587374592969e-19
-6.009503224156234605e-19
-4.539941316784437781e-19
-3.472813552469963739e-19
-2.364697308126647474e-19
-1.693319390276486385e-19
-1.194113078924387182e-19
-8.179301284927258090e-20
-5.594192793501204344e-20
-3.843180547389500464e-20
-2.661431496519328856e-20
-1.865497599747848316e-20
-1.331623338078710647e-20
-9.693084495536396013e-21
-7.202777812719079367e-21
-5.449256124367267312e-21
-4.175154255511671008e-21
-3.216600728210802189e-21
