# bin_9_2
-2.484937341026196215e-20
-2.772170249226452358e-20
-3.032801727325529120e-20
-3.237817314662121148e-20
-3.351095435795777684e-20
-3.343328917424336420e-20
-3.169481421176523237e-20
-2.837408389796849198e-20
-2.401567676327082632e-20
-1.966185466358188926e-20
-1.639538920196273384e-20
-1.418382676387076638e-20
-1.154573996877413151e-20
-8.114925240961704520e-21
-6.169579360676974179e-21
-4.696838738679615848e-21
-3.245921789746923337e-21
-2.335835946666694143e-21
-1.669829489713980240e-21
-1.169971344501005203e-21
-8.244197891197312592e-22
-5.874349304564421236e-22
-4.246375442070881349e-22
-3.123255880557556275e-22
-2.342081834054524102e-22
-1.785517058780800012e-22
-1.378310094804738777e-22
-1.070597982117490800e-22
-8.307242828004853341e-23
-6.394727507030923475e-23
-4.854506147424492069e-23
