# bin_4_5
-1.198404022304167800e-08
-1.314574742415444443e-08
-1.408605284765058770e-08
-1.465197882904673768e-08
-1.470661670224060813e-08
-1.406636016236257972e-08
-1.270545912942185259e-08
-1.085276055128369025e-08
-8.908711639958803723e-09
-7.378938090891900598e-09
-6.359272695560854319e-09
-5.276448702121864178e-09
-3.793865642731887498e-09
-2.800010899841672263e-09
-2.200336017667302206e-09
-1.505526778604238387e-09
-1.118578762678818144e-09
-7.964379208208698767e-10
-5.659324832187091869e-10
-4.069711675585886049e-10
-2.960075509405999362e-10
-2.187854861535369160e-10
-1.645435261087443826e-10
-1.259815016027902887e-10
-9.773888059397088407e-11
-7.639869883655777800e-11
-5.976621574481973510e-11
-4.645947473153693055e-11
-3.566361179002505521e-11
-2.689180856975228691e-11
-1.983702715944188613e-11
