# bin_3_9
-1.094074413558130727e-16
-1.222722691755071829e-16
-1.340612138965699436e-16
-1.435140625617082964e-16
-1.490486975686453586e-16
-1.493150548789164149e-16
-1.423481367335039925e-16
-1.281182441363538678e-16
-1.090132372506965018e-16
-8.934756039071703326e-17
-7.419618823611786116e-17
-6.413090088704065201e-17
-5.286234688111020257e-17
-3.750366292863038242e-17
-2.799314041256229867e-17
-2.175027949321098343e-17
-1.479515478960246892e-17
-1.082675981800989656e-17
-7.678130630637680617e-18
-5.360299318331134569e-18
-3.769586907917711506e-18
-2.674413038171233933e-18
-1.923935942556336385e-18
-1.407183712944623836e-18
-1.049681448071736456e-18
-7.966529701691883660e-19
-6.129665732100594279e-19
-4.753474834419860192e-19
-3.688564111501056341e-19
-2.843799107918787387e-19
-2.164890460369739470e-19
