# bin_12_11
2.518361858350432691e-09
2.867132643070424927e-09
3.216045420148224295e-09
3.540721138068885506e-09
3.808744158847613065e-09
3.978964210671240955e-09
4.012488716896575249e-09
3.860071857879442990e-09
3.504430031350839701e-09
3.007936206278008735e-09
2.471714349752087435e-09
2.041199615689846281e-09
1.760154742022771327e-09
1.476170292843085661e-09
1.064955224902755757e-09
7.718088097875201706e-10
6.150536984782403782e-10
4.078861439812534217e-10
3.033929328833193814e-10
2.091199930471385803e-10
1.424142458846430569e-10
9.740989109131048834e-11
6.637846875217894648e-11
4.544299886869233453e-11
3.136270629645203862e-11
2.199971571899685448e-11
1.571882045514921317e-11
1.147091003140099788e-11
8.547272271965163483e-12
6.479561234764706591e-12
4.966709461994963464e-12
