# bin_11_13
2.761683331245402124e-08
3.141365459859993229e-08
3.519623815614009745e-08
3.869556198352097125e-08
4.155300062403400247e-08
4.331499746390559540e-08
4.357070024356999234e-08
4.176648622110106414e-08
3.778743437336134881e-08
3.231971701341852391e-08
2.653015704428480857e-08
2.196133438102941135e-08
1.896232473885056631e-08
1.579246914046731243e-08
1.130391189148288507e-08
8.289285333552974102e-09
6.531250708069455805e-09
4.361896343250762560e-09
3.210976493171569999e-09
2.227569704377123301e-09
1.519442875675095354e-09
1.039136340167311365e-09
7.096571841015044039e-10
4.874180699041359120e-10
3.378963303629974895e-10
2.382289473603611891e-10
1.711524563097641411e-10
1.255799381330233578e-10
9.400830159313602510e-11
7.150228450404055345e-11
5.489737045820013689e-11
