# bin_7_4
8.482486296787447012e-12
9.399083681812177750e-12
1.019762612383782237e-11
1.077483636764297131e-11
1.101185092716439149e-11
1.080755573135975997e-11
1.003599142632912127e-11
8.810631822204506198e-12
7.333857569757389284e-12
6.005050179866639832e-12
5.089573961372792292e-12
4.378547826047064964e-12
3.378377828562634532e-12
2.354829531880240850e-12
1.885040802591558344e-12
1.325168081041040162e-12
9.779935048721301151e-13
6.769842680537213753e-13
4.849080272611374547e-13
3.448353209546703367e-13
2.464547371558547307e-13
1.784034548899022730e-13
1.311076780377041790e-13
9.820985514181452171e-14
7.486066236234759628e-14
5.782058556527938721e-14
4.500808102238786035e-14
3.505774379194458167e-14
2.713464001550592044e-14
2.073830875115084567e-14
1.557225035370347525e-14
