# bin_1_3
4.209730456464070773e-07
4.094147901465077118e-07
3.788585718634932824e-07
3.328036934449682364e-07
2.800734676033647783e-07
2.319531176436767348e-07
1.945740521864124526e-07
1.625288568688636526e-07
1.275853936535240718e-07
9.444939631560001077e-08
7.126929208153421515e-08
5.343547025528043670e-08
3.899907947192683455e-08
2.879694825847963750e-08
2.128068865023339525e-08
1.593837784233017856e-08
1.212942270667437117e-08
9.396290032311112393e-09
7.396174748077267443e-09
5.888357641585378865e-09
4.711290583559609919e-09
3.760555955873435272e-09
2.973684899019034852e-09
2.315120823947035495e-09
1.765460985980609966e-09
1.313823408288693810e-09
9.522375569665083530e-10
6.719981082679786263e-10
4.623805187355454527e-10
3.109686858929331447e-10
2.050438732045200479e-10
