# bin_6_15
1.647395149312827241e-07
1.832261527296643806e-07
1.997126986975034411e-07
2.122392451981606457e-07
2.184530010393750224e-07
2.163929904495875531e-07
2.033378555281975375e-07
1.805469349509195339e-07
1.517763621142617385e-07
1.242935384083265584e-07
1.043546218387731306e-07
9.003070518824253349e-08
7.167403565127410900e-08
5.026924176313201681e-08
3.900409597985673650e-08
2.874605515261178804e-08
2.041184273727876925e-08
1.445969006325075652e-08
1.033678204136032948e-08
7.286577614718153202e-09
5.165121757842944602e-09
3.704301917180359244e-09
2.695684508062264038e-09
1.997532974891013107e-09
1.507980435744931740e-09
1.155777342953420722e-09
8.951836786613540300e-10
6.960211723492485491e-10
5.393949040137827144e-10
4.138824265362517961e-10
3.127064881870699849e-10
