# bin_8_3
4.375315637166937960e-16
4.862316852754227060e-16
5.294420127872753472e-16
5.619215769805481887e-16
5.773566154791566739e-16
5.707608650663625011e-16
5.346806909719649057e-16
4.733243557119265282e-16
3.965435696225573994e-16
3.244036973940558134e-16
2.730556627034990316e-16
2.359249642513841544e-16
1.863944581854386705e-16
1.296460335654185001e-16
1.020355377459072143e-16
7.407849363306841785e-17
5.326631621687528530e-17
3.719591382746886650e-17
2.675537141455427473e-17
1.890713453425820402e-17
1.342010250676902079e-17
9.649912645331436885e-18
7.041633933559311840e-18
5.234756736647303510e-18
3.963774348178013200e-18
3.045901630156941164e-18
2.363794830763633741e-18
1.839957368226527152e-18
1.426272374381025641e-18
1.093767713107671050e-18
8.253450582658777866e-19
