# bin_2_3
1.583911648071987526e-07
1.628226493257738996e-07
1.610794170674888455e-07
1.516183685104484044e-07
1.350563644951271920e-07
1.142852028799092065e-07
9.409607595985472330e-08
7.868571452565558633e-08
6.704984296306402432e-08
5.381171395279889102e-08
3.918842884581416349e-08
2.959405045116061434e-08
2.242488574802085435e-08
1.611744183447521028e-08
1.187103376029844584e-08
8.654200356403523860e-09
6.375724805678492606e-09
4.762929168650809315e-09
3.619084035941461157e-09
2.798679186393062403e-09
2.196906113629221288e-09
1.742025238516055066e-09
1.385507350197927662e-09
1.097400612887035062e-09
8.597680117729232413e-10
6.622444082805593888e-10
4.990499400636968257e-10
3.666684743935506896e-10
2.622119715268241449e-10
1.825663355421345936e-10
1.239893188642023575e-10
