# bin_10_4
2.414225866051516831e-17
2.712322881712051215e-17
2.992928313157802128e-17
3.229479060897674078e-17
3.387937474506656074e-17
3.433209243047189588e-17
3.327786634325054256e-17
3.045727988081277098e-17
2.635999757126527087e-17
2.174189850213297954e-17
1.787643687164888901e-17
1.532909309378283962e-17
1.301822947519954207e-17
9.622026527879315326e-18
6.823307103637071523e-18
5.515043794197792034e-18
3.691208943294381932e-18
2.783137250160523334e-18
1.914136756852492115e-18
1.330926929831951358e-18
9.335137775972478961e-19
6.556938985291937034e-19
4.646815855028084085e-19
3.337060724344046688e-19
2.444213848032379663e-19
1.824669443451182557e-19
1.385597449537429829e-19
1.065880515649364626e-19
8.250456170640225188e-20
6.379546636971167751e-20
4.893147560290308520e-20
