# bin_3_6
2.087921353421699915e-07
2.226310763159279513e-07
2.303160187737042677e-07
2.296257336493369184e-07
2.180003790633809790e-07
1.957057418511610210e-07
1.664689223443059641e-07
1.369133183594963391e-07
1.139998081683015490e-07
9.769236573256511273e-08
7.964567538749586443e-08
5.777178719320250213e-08
4.324085199881495030e-08
3.315396440243448736e-08
2.347241552094806292e-08
1.726616811917821183e-08
1.243803040860456438e-08
9.025661414080285412e-09
6.623759177534407811e-09
4.933123721456175830e-09
3.738253882204264596e-09
2.880733235656880953e-09
2.251400551740551863e-09
1.773545332211649784e-09
1.398704294289642460e-09
1.096762209250329898e-09
8.494569948654598329e-10
6.462473079921455466e-10
4.807949509496506759e-10
3.487304100012168972e-10
2.462926747973664537e-10
