# bin_8_8
1.117493540974732600e-08
1.254728721148154022e-08
1.383537694494939039e-08
1.491560314548512025e-08
1.562993490292962798e-08
1.581888284945097453e-08
1.530539203195458888e-08
1.398319666111738108e-08
1.208039083822987765e-08
9.957750206447552270e-09
8.196208041774079618e-09
7.034120029274936522e-09
5.954638908706859376e-09
4.382962989866535454e-09
3.125486317638839695e-09
2.514673349517317981e-09
1.687040170279311317e-09
1.267220262495844218e-09
8.744922880775550313e-10
6.085025478254578755e-10
4.268072537840252896e-10
3.000373794390152512e-10
2.129491133671490235e-10
1.532131087810528769e-10
1.124305729510845526e-10
8.407644772018320367e-11
6.393326410171770486e-11
4.922252452026297085e-11
3.810986435491047918e-11
2.945773444138087826e-11
2.257540474662178431e-11
