# bin_14_8
9.033026915109369785e-15
1.029345099198780629e-14
1.155983510314860085e-14
1.274526291129547548e-14
1.373457775404737042e-14
1.438093572828895253e-14
1.453923135694963891e-14
1.403944536461369859e-14
1.279419483664041383e-14
1.102408955336894617e-14
9.072166534990691332e-15
7.475306449861680563e-15
6.433289689323754625e-15
5.431109793773543011e-15
3.956610766150010967e-15
2.833183874606317103e-15
2.279311412961468736e-15
1.506000822830021998e-15
1.129125137982576938e-15
7.727976868650689089e-16
5.258005475006677556e-16
3.598401645327583422e-16
2.448303165587169867e-16
1.670574598345427219e-16
1.147508770082551294e-16
8.005001393873945735e-17
5.684824404704934312e-17
4.122835662125914909e-17
3.055088184796768419e-17
2.306301475960711153e-17
1.763544279104554964e-17
