# bin_1_4
5.159419131143060414e-07
5.032413800927818466e-07
4.672713874342611693e-07
4.118373725998450262e-07
3.474024461287248471e-07
2.877557001788562971e-07
2.411181255548834543e-07
2.017424924468334830e-07
1.592064785943512035e-07
1.180846952347942576e-07
8.889167057065858387e-08
6.680994404360022294e-08
4.875455445769746806e-08
3.598015033484157715e-08
2.656246761612902276e-08
1.986556256137931130e-08
1.509022649155381348e-08
1.166790230520794000e-08
9.169088270427412258e-09
7.291016286210393756e-09
5.829995724136476185e-09
4.653626516526703757e-09
3.682187285392897021e-09
2.870044604231567292e-09
2.192143576781522608e-09
1.634483800804828845e-09
1.187114015625747912e-09
8.395000086073372030e-10
5.787594943594034157e-10
3.899090473100224597e-10
2.574693300839284897e-10
