# bin_7_1
6.510756159507186083e-21
7.152560733908582439e-21
7.678318588303438390e-21
8.005323190065552870e-21
8.057047544150661297e-21
7.735157841355203951e-21
7.013379594001230040e-21
6.013479392405049800e-21
4.943539970948896550e-21
4.086565918869018813e-21
3.517865942075474556e-21
2.938862993943710377e-21
2.129139903054779398e-21
1.555324527061396710e-21
1.233340858831478856e-21
8.398155724432726471e-22
6.279447581151447364e-22
4.447929060706239022e-22
3.156781377782234559e-22
2.267520109039590946e-22
1.645449656862998658e-22
1.212767564621575784e-22
9.093283005079388455e-23
6.943797304478137959e-23
5.376431353606284642e-23
4.197668500765238069e-23
3.283081439974436475e-23
2.553806379008444350e-23
1.963193394036593105e-23
1.483401696140095668e-23
1.097091739736008004e-23
