# bin_8_15
1.002176349581701288e-07
1.128733959017194833e-07
1.249264871676261356e-07
1.353021220681594132e-07
1.426038323107113491e-07
1.452926267248905541e-07
1.419285370729908552e-07
1.310715636849318585e-07
1.144548883888582070e-07
9.495671727925497075e-08
7.791454383761570421e-08
6.638172573536570873e-08
5.683089200088929175e-08
4.308584660264222685e-08
3.019812070399271537e-08
2.427015080643151459e-08
1.665755934263228938e-08
1.236713778653626415e-08
8.459255845501569655e-09
5.932063432692741380e-09
4.143142084947743183e-09
2.893807483684059274e-09
2.036892733553090986e-09
1.450437075240920392e-09
1.052260491147271545e-09
7.782974665294230063e-10
5.861901204885443844e-10
4.482012528852931909e-10
3.457635655857620182e-10
2.672244239420171759e-10
2.054070924007197052e-10
