# bin_7_9
5.149240541420254782e-08
5.761712556376567690e-08
6.326613570272961407e-08
6.785235778384116828e-08
7.063627100539470160e-08
7.095408465425559540e-08
6.791382339500672272e-08
6.138429915535741145e-08
5.246450208852955467e-08
4.308965158182766796e-08
3.571094994949174156e-08
3.079877659490953875e-08
2.556020310155302379e-08
1.834431528141951995e-08
1.351991434830814065e-08
1.059903938466149110e-08
7.190907419976994889e-09
5.301430566160575239e-09
3.727615838204044969e-09
2.600200779419358022e-09
1.828152088956844126e-09
1.293972018836663456e-09
9.274076911501967650e-10
6.752660581193447114e-10
5.014660589734063576e-10
3.790620414958382345e-10
2.907286011272711989e-10
2.250072352248739289e-10
1.744813739881298867e-10
1.346021373706202300e-10
1.026427208856477160e-10
