# bin_8_8
1.116710729812227301e-08
1.254225107773044474e-08
1.383480426155740303e-08
1.492153995983239250e-08
1.564467288419093613e-08
1.584398635770386151e-08
1.534287561775563089e-08
1.403139614906572573e-08
1.213456866489480615e-08
1.000963606720629866e-08
8.238678671395926012e-09
7.068173551963948355e-09
5.989514790569789682e-09
4.418255411605754879e-09
3.146552494566610408e-09
2.533248097895103200e-09
1.701134129227575529e-09
1.278070389523513354e-09
8.812811337342764239e-10
6.134913889202584058e-10
4.303641115096104162e-10
3.025250895889578597e-10
2.146618026285527612e-10
1.543893340213162500e-10
1.132472840501065617e-10
8.465406441881416506e-11
6.435105824686139690e-11
4.953337998669618473e-11
3.834752594212899233e-11
2.964336117322827575e-11
2.272200752501434784e-11
