# bin_12_12
7.358903961002155527e-09
8.384485344166661968e-09
9.414073159663522732e-09
1.037683050866907594e-08
1.117874893564292448e-08
1.169999345359806455e-08
1.182358926741278994e-08
1.140913573231056315e-08
1.039131337619088904e-08
8.948674677158980810e-09
7.365117583394051788e-09
6.074054906979091200e-09
5.229672242041099848e-09
4.407600326378027541e-09
3.205578675200784445e-09
2.303219666614180400e-09
1.847181157107607708e-09
1.223404714168545084e-09
9.146587121721387196e-10
6.271412973667359378e-10
4.269838163723837751e-10
2.922070449194150163e-10
1.989432736609807786e-10
1.358679374958664041e-10
9.344049588148714980e-11
6.527279377520786059e-11
4.642260286176956010e-11
3.371710201156366359e-11
2.501685807130277508e-11
1.890281598105583947e-11
1.446102285119983047e-11
