# bin_9_9
9.811219096144757335e-09
1.107284521380368855e-08
1.228539999418436338e-08
1.334595178427555171e-08
1.411917203063023584e-08
1.444734745813267369e-08
1.419996340306095838e-08
1.320467288516824770e-08
1.160829244307396068e-08
9.670495216205343949e-09
7.919668115226045083e-09
6.713748202715489761e-09
5.785338537168607820e-09
4.469035408761341423e-09
3.102385286425498612e-09
2.485333597942436253e-09
1.735732727580901328e-09
1.275122650805428921e-09
8.679059981654472197e-10
6.125755259773757136e-10
4.263849303232898628e-10
2.964190560160936456e-10
2.075132062506512273e-10
1.467613537576802947e-10
1.056484873665898043e-10
7.754844391222427192e-11
5.801022755763037834e-11
4.413040786223291068e-11
3.394980917239663667e-11
2.622999113153514047e-11
2.020172981191994937e-11
