# bin_8_6
3.384607918884336321e-10
3.788334103156319748e-10
4.161285080423849220e-10
4.464938602395171835e-10
4.650658421845008715e-10
4.674775182953155240e-10
4.477884859170699517e-10
4.049543160494881659e-10
3.462503362484495970e-10
2.842843775523299107e-10
2.354188938879486613e-10
2.031691913309027081e-10
1.690113195144388598e-10
1.211552423874035046e-10
8.909854383830187519e-11
7.019870376204990541e-11
4.734297133691864847e-11
3.505595552178327902e-11
2.465648295015138299e-11
1.717467923932314570e-11
1.206782169463470575e-11
8.534584606170620756e-12
6.113955516760152786e-12
4.449614121691649153e-12
3.303174322662279367e-12
2.496305132821410226e-12
1.914497697243159950e-12
1.481951672185341179e-12
1.149568975369188854e-12
8.872447350796329471e-13
6.769498488791858933e-13
