# bin_1_13
7.701662028156681187e-07
7.555534662871310258e-07
7.062585595214112872e-07
6.265608499039860955e-07
5.310316575628418923e-07
4.401156682494710637e-07
3.681047972302526763e-07
3.089656896354870233e-07
2.462236541891844487e-07
1.833193016137437767e-07
1.374387070039469485e-07
1.037573351581815151e-07
7.572005858673193155e-08
5.583389907951769263e-08
4.115482148199099554e-08
3.070529734785759955e-08
2.325204435951010751e-08
1.792135032823308676e-08
1.404398952407359108e-08
1.114485710534131596e-08
8.902923173496530044e-09
7.107568334883062118e-09
5.630618981064786327e-09
4.398066100833426126e-09
3.368918691053481244e-09
2.520436534121665717e-09
1.837254688900364958e-09
1.303976085676118730e-09
9.019974075893217215e-10
6.094700262059609596e-10
4.034516653019056837e-10
