# bin_12_13
1.513491087035525231e-08
1.725340634496670395e-08
1.938544590193406679e-08
2.138586300534310011e-08
2.306244812782029808e-08
2.416943676570889667e-08
2.446079872923901170e-08
2.365522658676326906e-08
2.159448291356246465e-08
1.864012692170151275e-08
1.535774418773110376e-08
1.265103784181741845e-08
1.087703920885040207e-08
9.199379668719930670e-09
6.733081802766950822e-09
4.806797245922047080e-09
3.869554957347662231e-09
2.563912688433521627e-09
1.921577808548139890e-09
1.312156388931108933e-09
8.936340310539855821e-10
6.117088668447258417e-10
4.162161673492169420e-10
2.837205556033844365e-10
1.945818162173603465e-10
1.354743507134401916e-10
9.599305968515372515e-11
6.945116859954167652e-11
5.134773084302363893e-11
3.868909763241419052e-11
2.954488329796645432e-11
