# bin_6_8
6.404788505231202550e-08
7.115986648526911972e-08
7.746158627782698150e-08
8.218546717380269479e-08
8.442121575138313911e-08
8.340726117105979346e-08
7.811144483697395425e-08
6.913812065853478307e-08
5.796226683004035980e-08
4.747383927686315826e-08
3.997677752633444106e-08
3.446959826522020477e-08
2.719872671764277461e-08
1.902989405461326153e-08
1.490941350889494029e-08
1.084422109303401795e-08
7.782455636378966041e-09
5.473572140259048329e-09
3.920955670298063385e-09
2.771024225450616476e-09
1.968622608521452722e-09
1.415960287139853035e-09
1.033691831483625004e-09
7.686688350358329209e-10
5.821248432240821288e-10
4.473125243256901790e-10
3.470548957330387166e-10
2.700327920120538371e-10
2.092097807139689738e-10
1.603435804470272319e-10
1.209200088872300338e-10
