# bin_1_14
7.798541033860134474e-07
7.651386518183579285e-07
7.153062226292622300e-07
6.346632320294768173e-07
5.379444933022428534e-07
4.458485731128827545e-07
3.728852263384456123e-07
3.129949052472370099e-07
2.494799133929569906e-07
1.857572832472714774e-07
1.392551061843352268e-07
1.051369143914098249e-07
7.672692835357054389e-08
5.657515394969835765e-08
4.169983864312615412e-08
3.111038867473690003e-08
2.355730400689967370e-08
1.815542730154424198e-08
1.422658874135174832e-08
1.128927070854955647e-08
9.018082406078437351e-09
7.199505081216505257e-09
5.703573501059215384e-09
4.455230808805855411e-09
3.412897662560023483e-09
2.553509584367380867e-09
1.861497306305147410e-09
1.321277136342627011e-09
9.140261812574425773e-10
6.176341200347970238e-10
4.088763333568117087e-10
