# bin_4_1
8.573270053620488064e-13
9.078150109764467176e-13
9.309841887442152812e-13
9.181685171030725634e-13
8.588469461817124589e-13
7.595587424394348370e-13
6.369448954013829992e-13
5.220288117089052115e-13
4.392056329288199582e-13
3.773949831468590043e-13
2.979750580581605585e-13
2.108108499998527779e-13
1.644413593921171015e-13
1.212175135941153054e-13
8.774735635386475215e-14
6.335933127801020387e-14
4.628248029885789130e-14
3.377374848541699866e-14
2.497636064405193999e-14
1.879199788777018334e-14
1.439038523127072633e-14
1.120089062021904099e-14
8.821041423149529528e-15
6.981171071930979644e-15
5.513725114812600426e-15
4.315802071902798039e-15
3.326887053912802596e-15
2.512483097642608292e-15
1.851503700251193758e-15
1.328153832581668597e-15
9.271407344861117291e-16
