# bin_7_13
1.098012306899819138e-07
1.229840239204553930e-07
1.352061833401497723e-07
1.452266122982234952e-07
1.514749430367177167e-07
1.524945247335956584e-07
1.464257634150994850e-07
1.327802642552373710e-07
1.138603084527086906e-07
9.363430345680268852e-08
7.745509184787747909e-08
6.669950722983274867e-08
5.567175310347790027e-08
4.027439292168734062e-08
2.940451526244461742e-08
2.321138985148957813e-08
1.571591175225927583e-08
1.163884159121459743e-08
8.140697875466537276e-09
5.677117644183603020e-09
3.988274845360899620e-09
2.817175814520641861e-09
2.013390756809373182e-09
1.460953939786824369e-09
1.081200323826069048e-09
8.147559861542361315e-10
6.233495354611584852e-10
4.817013389071851965e-10
3.733502375305013352e-10
2.881639331944841002e-10
2.200432074496072430e-10
