# bin_3_8
2.718687773057450879e-07
2.903399427083129777e-07
3.009391990167791929e-07
3.007474161615842798e-07
2.864053110489198776e-07
2.579497810751808478e-07
2.200789572280594366e-07
1.812166554748681305e-07
1.506744374627900431e-07
1.290667565831861168e-07
1.057948413401816344e-07
7.712227429475148648e-08
5.739594268399118963e-08
4.422012272156154725e-08
3.127723619477813645e-08
2.303820024850833134e-08
1.657180533303098307e-08
1.202093109874302804e-08
8.812082705053054111e-09
6.553076593105825579e-09
4.958021335346546551e-09
3.814935048104916535e-09
2.978033983933253584e-09
2.344348183605918760e-09
1.848562828370101263e-09
1.450031602503472567e-09
1.124009738269827061e-09
8.561845771172314833e-10
6.379830128237281260e-10
4.635684715612253835e-10
3.280086867338620419e-10
