# bin_8_7
2.842114611032068165e-09
3.187160522857841419e-09
3.509018988238672530e-09
3.775869657697132324e-09
3.947247809858700963e-09
3.984237365282930959e-09
3.839412477161966443e-09
3.493228911280531678e-09
3.005318646625243828e-09
2.473124505004668551e-09
2.040624207320724224e-09
1.756063158986739988e-09
1.476768449117095726e-09
1.074518009140142190e-09
7.755274120343364110e-10
6.199985466681284685e-10
4.155789853927703803e-10
3.111991817894783222e-10
2.164474327590690652e-10
1.505377948664201584e-10
1.056997203136977919e-10
7.449564873912731026e-11
5.308737285701922994e-11
3.838834082011451990e-11
2.831605089767029792e-11
2.127635685366274467e-11
1.624296445431486875e-11
1.253813957384045018e-11
9.717885535524937613e-12
7.508229643204931802e-12
5.743838370898041393e-12
