# bin_13_6
2.124831630273824636e-17
2.413526152479339064e-17
2.699138233157654157e-17
2.960772408234796716e-17
3.170426792079468149e-17
3.292877018815128153e-17
3.298590673155903478e-17
3.142942251119074912e-17
2.826978216644314897e-17
2.403405576600382947e-17
1.969744856457796241e-17
1.637874553203811491e-17
1.417717544199783788e-17
1.166211600775195626e-17
8.227608683394052498e-18
6.166244106715388862e-18
4.760281306555469298e-18
3.219696815818553337e-18
2.325673653491816487e-18
1.633711822997376623e-18
1.117621663487020729e-18
7.641239386153457110e-19
5.239733864240702002e-19
3.620555939878103105e-19
2.530389922373979481e-19
1.800383594180897055e-19
1.306096796992233836e-19
9.674512677298275408e-20
7.300516981002112238e-20
5.584348716807800345e-20
4.299666681985013845e-20
