# bin_5_7
8.266746469958688871e-08
9.099117741752157559e-08
9.791386101169784051e-08
1.023969699578377942e-07
1.034207820251056728e-07
9.981180976603571549e-08
9.103306829308621157e-08
7.852820427003075415e-08
6.477928339205917358e-08
5.343283271241408579e-08
4.579979472904549321e-08
3.852715577187551327e-08
2.841048706835331621e-08
2.049442898986516726e-08
1.627735783373457837e-08
1.119352677865397453e-08
8.338765503262818015e-09
5.864036171795197044e-09
4.173622737387817922e-09
2.991492888573250163e-09
2.163067894097770829e-09
1.587112017216878260e-09
1.184062325913069940e-09
8.998876653621458985e-10
6.940899907216287328e-10
5.404731777104714908e-10
4.222008149012788489e-10
3.284958289675092689e-10
2.529184083175954818e-10
1.916190802345724389e-10
1.422348138153450433e-10
