# bin_13_11
5.847236248168807627e-10
6.668580864994339778e-10
7.496830459538784804e-10
8.276061838880265442e-10
8.932361253598654571e-10
9.371008407646325433e-10
9.495227899467021320e-10
9.198494095511308966e-10
8.411892390805605147e-10
7.274013605925945172e-10
5.997329022014144867e-10
4.935445966377290325e-10
4.239319605502055924e-10
3.596040276679576592e-10
2.643857311498201953e-10
1.877334915735512555e-10
1.517446680708793400e-10
1.004083698778568384e-10
7.550081562492111985e-11
5.139288963431612137e-11
3.498649771363791850e-11
2.395623602770189645e-11
1.629080705824643661e-11
1.108849883005798890e-11
7.588362066935795383e-12
5.269840466830587325e-12
3.723417891057009409e-12
2.685943571684029024e-12
1.980493848698055658e-12
1.489141667049004456e-12
1.135771417140436711e-12
