# bin_6_1
4.620992297409014908e-18
5.028757592409978016e-18
5.335347670984243378e-18
5.481754874290656754e-18
5.419158869303455398e-18
5.079677323361927128e-18
4.500422377388203980e-18
3.775673606853784676e-18
3.091247741846001999e-18
2.599300540751139436e-18
2.241710190108567066e-18
1.775988331148313626e-18
1.245069423454837349e-18
9.742607747084146822e-19
7.154603577878156506e-19
5.150230301308682328e-19
3.667840196393519692e-19
2.661512022611870440e-19
1.913254980026010509e-19
1.388631436960426299e-19
1.023762160309910619e-19
7.676926108294306006e-20
5.860942015451365499e-20
4.543199303111893572e-20
3.555496387014201615e-20
2.791367150463815214e-20
2.182959734468947785e-20
1.689167934772690426e-20
1.285917497776394444e-20
9.586383427826915039e-21
6.974216527831304626e-21
