# bin_14_7
1.158026114204244021e-16
1.318890725401571653e-16
1.480080825162729562e-16
1.630420256848844408e-16
1.755050501726454829e-16
1.835075327424874838e-16
1.852403453910913676e-16
1.784482472420677676e-16
1.622416693218229798e-16
1.394641592541518516e-16
1.146889039230614848e-16
9.466805066246673814e-17
8.160036835366204952e-17
6.858937497832916302e-17
4.963139090931702058e-17
3.584429963691605982e-17
2.866214479162998678e-17
1.897723585279964167e-17
1.416061364837913445e-17
9.740837997398698561e-18
6.631350739203224965e-18
4.536809891038277905e-18
3.089884685194468960e-18
2.113286072455850370e-18
1.456508550536286573e-18
1.020047511795661358e-18
7.275363550479694003e-19
5.299779201817493937e-19
3.942860048663388558e-19
2.985633292441811082e-19
2.287196491844572540e-19
