# bin_14_14
5.217457213675342893e-06
5.980846159562150171e-06
6.766599463098964788e-06
7.527494904261548180e-06
8.201465668659138733e-06
8.706078206661520337e-06
8.941509520188393342e-06
8.831988107374236571e-06
8.258526782223192078e-06
7.296881792141417642e-06
6.100642594592008068e-06
4.991457800724708476e-06
4.215684737850331444e-06
3.646949939297918183e-06
2.855574751686414558e-06
1.970392595856973879e-06
1.568140098139071001e-06
1.110472544496526195e-06
8.022169165929012280e-07
5.386873898391116206e-07
3.780524364328976508e-07
2.567574349873567004e-07
1.724988512816128360e-07
1.156453604790536809e-07
7.738531446593658700e-08
5.213531940883329224e-08
3.553243952682835540e-08
2.461144135684501756e-08
1.741489602860886936e-08
1.261509488033356879e-08
9.347307815979375581e-09
