# bin_15_1
9.001760482065033594e-37
1.025342456457064398e-36
1.150821650892539223e-36
1.267929707083652653e-36
1.365119602496221796e-36
1.427692823890693415e-36
1.441523766626693206e-36
1.389131626605842213e-36
1.263436152219171473e-36
1.085794847826246491e-36
8.935231414832079884e-37
7.374595989892388762e-37
6.355285832919125054e-37
5.344752707436907164e-37
3.871456103575777541e-37
2.793518184867976404e-37
2.234611780365504278e-37
1.480133080869049953e-37
1.104498996217468656e-37
7.593513408821416957e-38
5.170350483953448062e-38
3.537332332350633885e-38
2.409036045771071757e-38
1.647162860672373135e-38
1.134724949496942555e-38
7.942540809604699017e-39
5.661367814916941739e-39
4.121357553906488637e-39
3.064285224526865876e-39
2.319196171299527159e-39
1.776057489994330494e-39
