# bin_4_3
3.216147864811715899e-06
3.478647001476810686e-06
3.662655898357920547e-06
3.729341751489040785e-06
3.641420761270406599e-06
3.363846377398688114e-06
2.937778981385429156e-06
2.440357368211111425e-06
2.002379281515256283e-06
1.701970300102249810e-06
1.454489192202553930e-06
1.109734401028762594e-06
7.837941904345562890e-07
6.260762015038889834e-07
4.408278949527542473e-07
3.276182056780580981e-07
2.311907387869382869e-07
1.673775762199215719e-07
1.213709939712052342e-07
8.891061461616246804e-08
6.619234131502453079e-08
5.012367351477519889e-08
3.862322978647016236e-08
3.014987635156215187e-08
2.369540391927002880e-08
1.862444904463851661e-08
1.453702803713914431e-08
1.119678628736923062e-08
8.464741811077523795e-09
6.254677405979094064e-09
4.504419495463073870e-09
