# bin_8_8
4.354006594897084272e-06
4.907167084453303053e-06
5.435530621724399409e-06
5.892675693717880066e-06
6.218054907820572302e-06
6.343214748181089952e-06
6.207819206596919883e-06
5.742806767655686487e-06
5.021869092026490370e-06
4.169597889974594554e-06
3.417188471814794318e-06
2.909043018250076311e-06
2.499055710644919439e-06
1.902000823054515337e-06
1.324510386454446481e-06
1.070321201096090469e-06
7.324702865555190134e-07
5.465377243948333157e-07
3.713345068687046202e-07
2.604773419028081113e-07
1.820008308920890203e-07
1.271161464632594035e-07
8.936400972321628980e-08
6.351909941053090566e-08
4.600032285455015129e-08
3.396776659997951756e-08
2.554953608092690237e-08
1.952031095869139295e-08
1.505708579364402820e-08
1.164283215860784232e-08
8.958646885093217005e-09
