# bin_9_8
2.938544123516897596e-06
3.319711346118735839e-06
3.687621407926542558e-06
4.011760513994431589e-06
4.251762397271908127e-06
4.359530556003188894e-06
4.297079865669828601e-06
4.009044614534578924e-06
3.534868439108734675e-06
2.951579478793621726e-06
2.415612746990100701e-06
2.042680567878827457e-06
1.764402759643772727e-06
1.375298910323319944e-06
9.520669235940214893e-07
7.595589637760390962e-07
5.365059105572086776e-07
3.909283623207094457e-07
2.659906566848447317e-07
1.884831196434849637e-07
1.309124292236845358e-07
9.076220320872690200e-08
6.337562644273267773e-08
4.467802327992383081e-08
3.204039426937912302e-08
2.342884570404102843e-08
1.746453369420641025e-08
1.324967035960096245e-08
1.017642409141319767e-08
7.859211715016288514e-09
6.057579760194864985e-09
