# bin_13_4
4.326833388332080889e-19
4.909094531012424562e-19
5.482028208976221993e-19
6.002649610384818476e-19
6.413288112886876147e-19
6.641794864170972946e-19
6.630508289627063533e-19
6.287787310909952912e-19
5.630487530135754751e-19
4.763847882098737186e-19
3.901662903664158214e-19
3.256206502838040024e-19
2.820635508720593398e-19
2.295244788171718527e-19
1.606126149140691256e-19
1.223348157137172704e-19
9.269871973854540995e-20
6.362883384861366717e-20
4.517574080274358047e-20
3.196662339616708561e-20
2.193239623179766543e-20
1.501420624882179012e-20
1.033660548870944166e-20
7.174761456842753186e-21
5.044193539819977554e-21
3.612333068904961211e-21
2.638190305350581375e-21
1.966388448511869850e-21
1.491229333907057965e-21
1.144252124715331356e-21
8.819567456085491949e-22
