# bin_15_2
1.165865842136526591e-31
1.327922332976529115e-31
1.490353038061132565e-31
1.641907991537001785e-31
1.767625360319899915e-31
1.848464446576064342e-31
1.866162539349917629e-31
1.798031372977378616e-31
1.635041089900008899e-31
1.404885358133736730e-31
1.156007597832050620e-31
9.541830230489046337e-32
8.223959617109739962e-32
6.914444654526383733e-32
5.005790645135333275e-32
3.613888202083461538e-32
2.890068225698266796e-32
1.914132759083728542e-32
1.428129011575641186e-32
9.821781196161572237e-33
6.687356735973080638e-33
4.575082435150390373e-33
3.115872536817505929e-33
2.130773332727450367e-33
1.468207422911453865e-33
1.027946465283551383e-33
7.329252818124001427e-34
5.337166810842872273e-34
3.969362708439792221e-34
3.004873163439637034e-34
2.301488394502118268e-34
