# bin_6_5
2.818115762219391662e-06
3.125214148267548726e-06
3.394125540963905852e-06
3.590643099610096380e-06
3.674938406205367736e-06
3.613619592016694950e-06
3.363241438302047304e-06
2.958635740588095380e-06
2.467510253799676515e-06
2.020454284547822098e-06
1.710111995474152675e-06
1.473110149097257592e-06
1.143075928856201485e-06
7.962293365108256688e-07
6.353453425273788321e-07
4.498748976268624758e-07
3.302659556220679279e-07
2.289509830810308124e-07
1.642259112018684645e-07
1.166539073700003500e-07
8.326360286332693213e-08
6.019729919278052219e-08
4.417843303812381739e-08
3.304490775945029231e-08
2.515685276398491771e-08
1.941221009735553785e-08
1.510288707409884260e-08
1.176350473071959165e-08
9.108595658762382150e-09
6.966885825323833798e-09
5.237036699053110765e-09
