# bin_12_4
4.407109294334469847e-17
4.987087773699579885e-17
5.551038935059161945e-17
6.054031929112438675e-17
6.436138210312374298e-17
6.624110276847678267e-17
6.561864429416492197e-17
6.160061195795072678e-17
5.463649902822952863e-17
4.583435453581330362e-17
3.750289814437480722e-17
3.155353425466101386e-17
2.731278381972034169e-17
2.165689078396322779e-17
1.500300822792484657e-17
1.179100467420968189e-17
8.554841662446862032e-18
6.094337259612815469e-18
4.191042007888936257e-18
2.982494144362896851e-18
2.061311026311822619e-18
1.420664708012311661e-18
9.868449984683192838e-19
6.916159163769423870e-19
4.923326191459494385e-19
3.572780303319412671e-19
2.643956088177536119e-19
1.993796845224617714e-19
1.525114679656030808e-19
1.175787746596310360e-19
9.067818100066350800e-20
