# bin_12_11
3.443288668496344899e-06
3.926492550821519351e-06
4.413459602120557314e-06
4.871221512749661585e-06
5.256145396310586958e-06
5.512356963195373864e-06
5.583180807655413461e-06
5.405150538910946112e-06
4.939262250445792958e-06
4.265449780506850551e-06
3.517218778436385557e-06
2.895319269388856266e-06
2.488382987749400099e-06
2.109016350007816701e-06
1.547078123063362009e-06
1.100438064941150475e-06
8.891798939330034109e-07
5.876288030821180185e-07
4.419303979571124473e-07
3.012140505825474480e-07
2.049898892031685871e-07
1.403429378361474733e-07
9.543760656864080975e-08
6.499432100623666978e-08
4.451379668309842085e-08
3.094369985531193564e-08
2.188758645555260062e-08
1.580766188638571696e-08
1.166893107342282060e-08
8.782142080960884218e-09
6.702502681387911783e-09
