# bin_11_10
3.381239857622384535e-06
3.846133354799765101e-06
4.309168193352832735e-06
4.737424141469307034e-06
5.086909856000216544e-06
5.301971059554163218e-06
5.332636107529113733e-06
5.109873830911035735e-06
4.621370257879843108e-06
3.948607041147322963e-06
3.242322615869973400e-06
2.685459953908066173e-06
2.320736221684120206e-06
1.931598200071103857e-06
1.378971215605720810e-06
1.013839650993540827e-06
7.983747735377491610e-07
5.326969190745474154e-07
3.920978220589087702e-07
2.725334551044161390e-07
1.858900652822674330e-07
1.270845619231266005e-07
8.678392949575308312e-08
5.964372236349295155e-08
4.138597795196493733e-08
2.921002514481442666e-08
2.101025966715214760e-08
1.543500480083792448e-08
1.156802420421556637e-08
8.807373500217223249e-09
6.767061906433580211e-09
