# bin_7_3
3.378265157891376935e-10
3.738124315214968837e-10
4.048736210829121480e-10
4.268612317772729349e-10
4.351449261151730317e-10
4.255065898193516337e-10
3.934377715173232785e-10
3.438890951192629415e-10
2.855634184415150346e-10
2.340936274391447292e-10
1.991368492127027804e-10
1.707706587770894503e-10
1.301438385583181768e-10
9.110614133569898400e-11
7.334948488946431099e-11
5.083778317901225219e-11
3.793166996378885650e-11
2.625177602145432905e-11
1.874499128470299460e-11
1.337169449055790670e-11
9.591679268029854824e-12
6.968435384564275325e-12
5.141302860963603243e-12
3.866902729022449234e-12
2.957763793180591242e-12
2.290398256706383996e-12
1.785407344614618456e-12
1.390949988404183573e-12
1.075574429614211124e-12
8.204642080312219983e-13
6.144194856566503487e-13
