# bin_14_1
1.120309611862798134e-34
1.273080827892361327e-34
1.424528684362896125e-34
1.563665409531790985e-34
1.675774130984833195e-34
1.742308136572312665e-34
1.747393419659724853e-34
1.667681044126187943e-34
1.502446407935270525e-34
1.278771536201198943e-34
1.048853089453337293e-34
8.711768959302128448e-35
7.537536283029711164e-35
6.221684788942820072e-35
4.404537742404247484e-35
3.282717296760900787e-35
2.548966390356460063e-35
1.717319607525628157e-35
1.247332443596923203e-35
8.734152427980628129e-36
5.969927941437679161e-36
4.081748018766917210e-36
2.795495157457439910e-36
1.928559032790820346e-36
1.345014907098032367e-36
9.547321582534180226e-37
6.908925134445707961e-37
5.105387136317914348e-37
3.845012679150750182e-37
2.937209457655286211e-37
2.260158863969841832e-37
