# bin_4_4
6.042553548826960827e-06
6.586178988586171522e-06
7.001444657294609174e-06
7.210878532662015027e-06
7.150224291596289046e-06
6.728447179048014028e-06
5.982882810190656143e-06
5.035440918859068953e-06
4.124168539704216156e-06
3.457627188507452028e-06
2.983797370536952938e-06
2.386794206667067785e-06
1.678362435408090409e-06
1.299526155031375072e-06
9.680172439306419414e-07
6.888840385601254132e-07
4.945188430885068388e-07
3.580332327149978833e-07
2.566881573233361291e-07
1.858763461224376074e-07
1.366509239274025923e-07
1.021801391998957195e-07
7.778662302738602035e-08
6.015971360580215458e-08
4.700810793863935949e-08
3.688010050067616785e-08
2.884802870406308026e-08
2.234551526796218618e-08
1.704065023883392403e-08
1.273333455747725998e-08
9.289638989069163767e-09
