# bin_12
0.000000000000000000e+00
0.000000000000000000e+00
0.000000000000000000e+00
0.000000000000000000e+00
0.000000000000000000e+00
0.000000000000000000e+00
1.158663718270339087e-290
1.052274872179904096e-257
6.338407953148666981e-229
1.061787432429377802e-203
1.613892080760814909e-181
5.944433964194815859e-162
1.205999062494888016e-144
2.687598560567798369e-129
1.178989788772792652e-115
1.670876015152032363e-103
1.167446725716048410e-92
5.776734647419525685e-83
2.764431513893520417e-74
1.674472442472731801e-66
1.621048536897367493e-59
3.072264962902716010e-53
1.360611889713693962e-47
1.643987388218932173e-42
6.208742351326288606e-38
8.260915708584804264e-34
4.303736439678903145e-30
9.639277447106683557e-27
1.008379796162048873e-23
5.303817110525396934e-21
1.497798334934774654e-18
2.408136897203916921e-16
2.323037269216288932e-14
1.409312542814729776e-12
5.609034901740826623e-11
1.521316262491392072e-09
2.910050129839634015e-08
4.049409281497403403e-07
4.215748586477927322e-06
3.368140776627469654e-05
2.113281418775725363e-04
1.063349270337163354e-03
4.373352516614900654e-03
1.495838603774797548e-02
4.322211198196886789e-02
1.070190469972633340e-01
2.300100141190303260e-01
4.341306447579156846e-01
7.271861857581572997e-01
1.091280551390983788e+00
1.479797024916510662e+00
1.827221374365509021e+00
2.068869692725846754e+00
2.161617093537248735e+00
2.096215572544481986e+00
1.896713372040228718e+00
1.609124845726804809e+00
1.285741068713457391e+00
9.716400725044873621e-01
6.971598920355560614e-01
4.766599967554818740e-01
3.116063810804765577e-01
1.953905784696740311e-01
1.178670391995822880e-01
6.859368372511309708e-02
3.861138963343755531e-02
2.107427564762125866e-02
1.117882841548133860e-02
5.775437898665202602e-03
2.912050493889189323e-03
1.435700405181174677e-03
6.933519414346232205e-04
3.285445161078095425e-04
1.529907909487880570e-04
7.011389723279978694e-05
3.166704929533281702e-05
1.411350504231640569e-05
6.214548681124320136e-06
2.706587411043354770e-06
1.167162548528861229e-06
4.988468185608568259e-07
3.251317163946057351e-07
