# bin_3
0.000000000000000000e+00
1.296549510163142381e-52
8.196979092969864995e-42
2.948772465401034023e-33
2.394318868354851852e-26
9.591032560030916522e-21
3.361859322795931394e-16
1.607823782624507476e-12
1.492485899936598279e-09
3.571018329282091602e-07
2.774238140290225844e-05
8.460408082142401595e-04
1.185825365785944142e-02
8.722083832693004746e-02
3.769152723926187942e-01
1.054480876603743456e+00
2.074237051478779126e+00
3.067113067827534234e+00
3.580472277056197861e+00
3.406406641248831857e+00
2.692957575580674945e+00
1.793128043617473910e+00
1.018093964229930481e+00
4.993593952182041051e-01
2.145360351683191502e-01
8.188098166822826984e-02
2.814900056333920902e-02
8.831365632031107013e-03
2.559466786898141957e-03
6.928515452763485665e-04
1.769487057593040669e-04
4.302002584838442541e-05
1.003669054968622490e-05
2.263093987774324785e-06
4.963100483510677776e-07
1.064568416441797305e-07
2.244470383086417828e-08
4.671669517176920861e-09
9.636565931509084541e-10
1.976692533941917603e-10
4.044083848865943207e-11
8.273811842673429599e-12
1.696665238613873170e-12
3.494365040374118955e-13
7.240830844145229853e-14
1.511907384288016179e-14
3.185373768681774419e-15
6.779515057050219781e-16
1.459069222443659262e-16
3.178097897685502757e-17
7.011220912299178358e-18
1.567573021855531712e-18
3.553854118489525533e-19
8.173366777027211409e-20
1.907611931424585980e-20
4.519545399610379916e-21
1.087217676449137560e-21
2.656029798727534645e-22
6.590232126786141340e-23
1.660954839095136956e-23
4.252318578512918774e-24
1.105889001055063400e-24
2.921521469951399330e-25
7.839729452269800430e-26
2.136781711623502590e-26
5.914937712341393533e-27
1.662751204614355225e-27
4.746143442831241054e-28
1.375417364791916525e-28
4.046193900858519682e-29
1.208124086727837191e-29
6.638074019050638658e-30
