# bin_7_6
5.891015142228889252e-08
5.457960752467539522e-08
4.925424932253964657e-08
4.325044777564677108e-08
3.697194963542199036e-08
3.084640973457986560e-08
2.523412878869906595e-08
2.033623387704955399e-08
1.617494627006232392e-08
1.265487747618807792e-08
9.692317757045411184e-09
7.292441732102318973e-09
5.466861615660597747e-09
4.109321963204329440e-09
3.080391103791009991e-09
2.321988198511218421e-09
1.764088990638016301e-09
1.350881419133332380e-09
1.041918310755257233e-09
8.075772153884629563e-10
6.268222549260778959e-10
4.852889899292079547e-10
3.732812683897845241e-10
2.842149850574510753e-10
2.135285114796254382e-10
1.578961139711086343e-10
1.147056905274899785e-10
8.176813365030628236e-11
5.716732486991216956e-11
3.920536236717778777e-11
2.639427998059112548e-11
