# bin_5_5
4.848113460356403245e-08
4.417681906049717527e-08
3.918573445948362227e-08
3.382919074313352258e-08
2.847180310231052742e-08
2.345243385991731386e-08
1.900024730058551068e-08
1.519040896576854686e-08
1.197014553170783040e-08
9.251621847414036658e-09
7.008758085731191421e-09
5.261913209802940462e-09
3.962054241543811276e-09
2.982735372534417118e-09
2.249519185927750774e-09
1.712673012236135971e-09
1.313649107505179715e-09
1.015962868856972919e-09
7.902200380249061710e-10
6.160913584041496527e-10
4.795439902589685059e-10
3.711099518241207706e-10
2.844352066041311412e-10
2.151730052868971924e-10
1.602219808454615588e-10
1.171890388312916341e-10
8.407878451446122534e-11
5.913393274266126392e-11
4.077147384641951110e-11
2.757785810927071830e-11
1.832386150145463658e-11
