# bin_13_12
8.939028670083085210e-08
8.589285112156590627e-08
8.059480419642818962e-08
7.369610970024087881e-08
6.557621687782903406e-08
5.676806600255470799e-08
4.788638862535676267e-08
3.951244763439282036e-08
3.205018653031779802e-08
2.564296740708556916e-08
2.021190995202359101e-08
1.560916933500427220e-08
1.178928122663268044e-08
8.796317920766930345e-09
6.565386563728430780e-09
4.885744708683001303e-09
3.627359079241162921e-09
2.712307419290692417e-09
2.038259649996636521e-09
1.543411076068917612e-09
1.175835165305634359e-09
8.993611185849771879e-10
6.885075288965366085e-10
5.257042244266897582e-10
3.989284574038292845e-10
2.998676860132382917e-10
2.226636098239604946e-10
1.629680157695184773e-10
1.173789574648205468e-10
8.311471111338483567e-11
5.783366376073052851e-11
