# bin_9_6
6.331691357682420849e-08
5.899922819765006033e-08
5.355831323850020457e-08
4.730547605597851351e-08
4.065725468914986347e-08
3.407481655505448314e-08
2.797139808139062888e-08
2.260350037717168916e-08
1.803028986127611013e-08
1.416025105658372623e-08
1.088725186690232428e-08
8.203976859409216136e-09
6.142894437461002611e-09
4.614043779651801017e-09
3.454298076233843033e-09
2.595152890282879979e-09
1.965752660045618204e-09
1.500078985395570778e-09
1.153530739464563751e-09
8.920543748747368186e-10
6.914810496150114262e-10
5.352179758704154967e-10
4.120264042914891320e-10
3.142869411511839228e-10
2.367533199105232919e-10
1.756614927751546736e-10
1.281113682423742322e-10
9.171511645724460072e-11
6.440776465777315925e-11
4.436811507786326889e-11
2.999842181019876855e-11
