# bin_12_8
7.652306274022193673e-08
7.250295582920983185e-08
6.699828201777259686e-08
6.027474735345231450e-08
5.274703505859272692e-08
4.493362545545933689e-08
3.737248834584289934e-08
3.049849003298422750e-08
2.453265561933844191e-08
1.947144803339094536e-08
1.518054027929683009e-08
1.156919408084148941e-08
8.666619957879801497e-09
6.480222825910884109e-09
4.849575635269088690e-09
3.612487513303850847e-09
2.709077935483233868e-09
2.043544891016362841e-09
1.554001294977127721e-09
1.189718721349262054e-09
9.153197693139121099e-10
7.054202400474784756e-10
5.425725656995895227e-10
4.149281099144773214e-10
3.143669529552253480e-10
2.352445903615465128e-10
1.734431786747929380e-10
1.257618168943567275e-10
8.957164044513253572e-11
6.262867536928953585e-11
4.299019461549611810e-11
