# bin_8_8
6.852801006374748766e-08
6.433794410352639057e-08
5.888202406496544032e-08
5.245201415875572910e-08
4.546205299661493282e-08
3.839437035527454132e-08
3.171146974284252715e-08
2.574290535110622807e-08
2.061476739478993171e-08
1.627307692245044868e-08
1.259852662333995365e-08
9.545665643335453822e-09
7.145889454593411130e-09
5.355470983093528661e-09
4.009943562287797989e-09
2.998700413801138893e-09
2.261165811401887202e-09
1.715581236576616593e-09
1.312330487997203694e-09
1.010068785834379848e-09
7.802170525844930580e-10
6.027075251489090715e-10
4.638194277483403929e-10
3.542499017830682134e-10
2.676048716505480442e-10
1.993738081779192407e-10
1.461740339900848574e-10
1.052967325961511885e-10
7.445586115163921754e-11
5.166517666751005675e-11
3.519242098807171809e-11
