# bin_14_8
7.896126173532740214e-08
7.499339297955836674e-08
6.947431368124984674e-08
6.266175424295781188e-08
5.497051117503120850e-08
4.693005574543766988e-08
3.910130519245550918e-08
3.195117002692017676e-08
2.572965501637216946e-08
2.044867926256028546e-08
1.596949347995521916e-08
1.218765834694675307e-08
9.131622859972254574e-09
6.824182328092848390e-09
5.106279999229481539e-09
3.800207781453989633e-09
2.846036509611429623e-09
2.143829881384722175e-09
1.627878657703610956e-09
1.244625667898252575e-09
9.566016017776021185e-10
7.367970591374954799e-10
5.666245983121839428e-10
4.334562712814160930e-10
3.286438698244309538e-10
2.461954751461829692e-10
1.817679890527143385e-10
1.320097630497705952e-10
9.418693917462753089e-11
6.597668399769155846e-11
4.537194452504509873e-11
