# bin_3_1
1.861155858874374583e-08
1.574722329684704099e-08
1.303315672821207538e-08
1.060114570706608472e-08
8.505633729189007717e-09
6.730593859470287855e-09
5.233613706737735185e-09
3.995843591173111467e-09
3.021679431159052915e-09
2.289142119562910062e-09
1.740051911185121963e-09
1.328106611614551372e-09
1.023564011827367917e-09
7.965918622119675534e-10
6.253458406464745229e-10
4.937655660878446981e-10
3.905516508629060462e-10
3.080371706124327493e-10
2.411723915368355612e-10
1.866658809201742861e-10
1.423285764457742430e-10
1.066114050446709430e-10
7.829479582512888546e-11
5.630723998543568262e-11
3.964108868370955987e-11
2.733271681942218670e-11
1.847988178343487140e-11
1.227343355829809472e-11
8.024363738183121219e-12
5.176263110917658598e-12
3.301770080112029923e-12
