# bin_14_14
9.481771234486441861e-08
9.157840326605486914e-08
8.641283318773914585e-08
7.949067399560204831e-08
7.117185895431835017e-08
6.198861610817608325e-08
5.258051271330624701e-08
4.358174341632451562e-08
3.547184809877975092e-08
2.846325578279401161e-08
2.251503362839950684e-08
1.746966468654456491e-08
1.324819162572892400e-08
9.891297684559096895e-09
7.372177320865616104e-09
5.485773094567106611e-09
4.062863166012218129e-09
3.026875520688474928e-09
2.265560669995464639e-09
1.708229177435841711e-09
1.296026155070686156e-09
9.878956231094676691e-10
7.544168758549750216e-10
5.752425673361434641e-10
4.364346718865789277e-10
3.283642849434762180e-10
2.442972527033272884e-10
1.793107307588366696e-10
1.296164275237141015e-10
9.216832481376137001e-11
6.443479261187235351e-11
