# bin_15_9
3.460556350670058686e-15
3.954218497112803070e-15
4.456296438166626617e-15
4.934134326096950907e-15
5.344991925630474747e-15
5.633372056177464727e-15
5.737497143021246912e-15
5.601445128820895545e-15
5.165575132207758099e-15
4.504248359117008340e-15
3.729313074758884750e-15
3.057811329258764245e-15
2.610437825546719922e-15
2.238035167359711795e-15
1.685443977270710383e-15
1.174491367998049335e-15
9.534800841928947622e-16
6.395514819773125363e-16
4.798230253899685790e-16
3.221766789211599370e-16
2.207181052706129267e-16
1.510378945199079989e-16
1.024971981252563928e-16
6.931532170973915199e-17
4.697020616034172598e-17
3.221918450413274771e-17
2.244335351057283375e-17
1.594272690351613120e-17
1.158284417941818667e-17
8.600785475166219454e-18
6.502479030481422170e-18
