# bin_12_7
9.175496858011032254e-15
1.041412248664586366e-14
1.163517876098450166e-14
1.274786441012014078e-14
1.363047219331588017e-14
1.413044979709832023e-14
1.412382317864046157e-14
1.341695189487320015e-14
1.203245838303409254e-14
1.019891788175142668e-14
8.350873939207373892e-15
6.956733726359611888e-15
6.024447114953534547e-15
4.924465608685335818e-15
3.455367486294267164e-15
2.613863671966306377e-15
1.996470239564645252e-15
1.361003608640506470e-15
9.732203964525723740e-16
6.867515313405168459e-16
4.705147205068323495e-16
3.218331144891592927e-16
2.211705313278859190e-16
1.532209287696402042e-16
1.074514958723707094e-16
7.674296402553646723e-17
5.589395440222087566e-17
4.155587079365454343e-17
3.145235665934668381e-17
2.410493991154229729e-17
1.857263555766449002e-17
