# bin_13_11
1.205654513083466705e-11
1.376320377833414686e-11
1.549177401701063590e-11
1.712763272991319692e-11
1.852013057483069909e-11
1.947500938580253843e-11
1.978424440929166755e-11
1.924181066125388548e-11
1.766947975168590456e-11
1.534271235608588675e-11
1.267284264929449518e-11
1.040572468941240976e-11
8.910738762774151553e-12
7.604133320659588378e-12
5.658469669318285431e-12
3.973126183934668065e-12
3.226103755669845188e-12
2.142899425623484719e-12
1.613825824069809162e-12
1.090157928197480073e-12
7.434541182076274894e-13
5.091067553155333796e-13
3.458824828517692746e-13
2.346107637476691052e-13
1.597109862828464130e-13
1.102031846863159495e-13
7.729632215505667150e-14
5.532487056513339394e-14
4.049419339266180324e-14
3.026252807522800473e-14
2.298647254422139281e-14
