# bin_11_9
1.186018045128384481e-11
1.347008336325771260e-11
1.506208888413570161e-11
1.651944336874739755e-11
1.768577397444505869e-11
1.836451742654338444e-11
1.839113653036349396e-11
1.751710215462461229e-11
1.574898590612665536e-11
1.338294413876012433e-11
1.096368157060735600e-11
9.115099607251173470e-12
7.889888572594170234e-12
6.487749987676202082e-12
4.574062220307799469e-12
3.428956499659088053e-12
2.645925880321551216e-12
1.789603176538906101e-12
1.292091400049359419e-12
9.077219891059177740e-13
6.209280723407381858e-13
4.244978359008288191e-13
2.910821241488418757e-13
2.011412326393579247e-13
1.405878560806982159e-13
1.000417183456465768e-13
7.258631695981634397e-14
5.377408092187569484e-14
4.058388316066233127e-14
3.104637331014539874e-14
2.390507631155701637e-14
