# bin_9_6
1.040993998038883284e-12
1.170853876622148659e-12
1.293747646259842752e-12
1.398349568478961779e-12
1.470061827038602111e-12
1.493266293799105002e-12
1.452508464258190929e-12
1.334477878048102568e-12
1.159367918911767676e-12
9.581612393734987936e-13
7.866126107018341636e-13
6.727856930225393243e-13
5.741162482519040627e-13
4.288293310371769590e-13
3.015899361937720484e-13
2.443091759765456562e-13
1.643698955268823800e-13
1.238115772298785532e-13
8.466971691524718340e-14
5.899838410961160599e-14
4.134819100817860624e-14
2.899611785405318577e-14
2.049129809283983087e-14
1.466185093248830753e-14
1.069714863465242250e-14
7.956192407326784659e-15
6.022560840959267912e-15
4.622739115826328657e-15
3.574560077164626667e-15
2.764446744915465645e-15
2.122966013620064344e-15
