# bin_6_6
6.660007773143240867e-11
7.413126596708586379e-11
8.087728508868805571e-11
8.604836483377564783e-11
8.867775859791589540e-11
8.800298589417721846e-11
8.284637712581994783e-11
7.368055632671408133e-11
6.198163651882560972e-11
5.071150019588536964e-11
4.251722536051807477e-11
3.677120983618425967e-11
2.942497983390596446e-11
2.052770595903672329e-11
1.593906746459869576e-11
1.180545630233439896e-11
8.346788720828029653e-12
5.893907956736112909e-12
4.235258898909189132e-12
2.982027349213116222e-12
2.109410813486180700e-12
1.511101963661794169e-12
1.098420916220972425e-12
8.130431738936313421e-13
6.132503392946991309e-13
4.697698291258983643e-13
3.638251566212236607e-13
2.829897823045463437e-13
2.194769723468492706e-13
1.685836255380827525e-13
1.275309732835086153e-13
