# bin_15_3
3.756003486017352634e-32
4.277820988197073468e-32
4.800784302417493950e-32
5.288629896790742037e-32
5.693201848039926687e-32
5.953259538633369212e-32
6.009859954170593244e-32
5.790535692410644383e-32
5.265200980739845473e-32
4.526404179838844237e-32
3.721599066698932756e-32
3.070447030644017074e-32
2.645694302349971322e-32
2.225118915756622760e-32
1.611508115318572484e-32
1.162048765218307226e-32
9.299685332113698471e-33
6.155071080517650503e-33
4.595139979315802690e-33
3.158048375034227606e-33
2.149669448271552368e-33
1.470623145672746694e-33
1.001381823562726418e-33
6.845941809887486378e-34
4.715412384563695006e-34
3.300135559956547290e-34
2.352039384975461067e-34
1.712063538803215982e-34
1.272855094558982204e-34
9.633206102571945145e-35
7.377156804487746469e-35
