# bin_14_7
1.510798397761731534e-17
1.721065526694519246e-17
1.932010110854726098e-17
2.129066422578511141e-17
2.292908133757800598e-17
2.398932768688613773e-17
2.423209059597280377e-17
2.336841200887179159e-17
2.126711513295561254e-17
1.829950662731822840e-17
1.505075882925222192e-17
1.241070021835365536e-17
1.068908323926572053e-17
9.004161742812384771e-18
6.535747397271548244e-18
4.699264295961296830e-18
3.769854698964424571e-18
2.492295624316321677e-18
1.864546525323304811e-18
1.279297444751374688e-18
8.705475524510673340e-19
5.956426457042926370e-19
4.054279746928470818e-19
2.769543653865785775e-19
1.905519645738103269e-19
1.331886332378751319e-19
9.479045170268351883e-20
6.889923612945491712e-20
5.115877210535314052e-20
3.868085361303610523e-20
2.960609698262451096e-20
