# bin_10_8
1.025747402422224365e-11
1.161116420173773115e-11
1.292947211641766738e-11
1.410830492518843076e-11
1.500868902791902040e-11
1.545992295283950093e-11
1.533195247547137393e-11
1.441423604179296874e-11
1.280186144919118757e-11
1.075128106942316328e-11
8.794005380631231306e-12
7.386743534167141596e-12
6.395562063070645815e-12
5.093923697968260525e-12
3.530978899024085747e-12
2.761123851696611306e-12
2.018464892471203473e-12
1.428029451488149833e-12
9.862545470663699942e-13
7.020264734350979474e-13
4.844559113795108568e-13
3.333393262194546455e-13
2.311830715345717960e-13
1.617485120277900755e-13
1.148951645600590647e-13
8.319325520606894451e-14
6.143313520985027287e-14
4.624135366595683979e-14
3.532530074127953535e-14
2.721633614304337796e-14
2.098995588673523046e-14
