# bin_13_3
6.549873018013585117e-28
7.425277585878695706e-28
8.283566901717838627e-28
9.059235401799980695e-28
9.664530409596990388e-28
9.990244312981852903e-28
9.951087977693639511e-28
9.409192401010728985e-28
8.401567321510790976e-28
7.091104256558702105e-28
5.802533302098417238e-28
4.851491138609965770e-28
4.202380469085695872e-28
3.396886389107699246e-28
2.367844176678867459e-28
1.818929329531607207e-28
1.363058994672537326e-28
9.439942673309162929e-29
6.639076195929047022e-29
4.711317774446284594e-29
3.237710775923886157e-29
2.219021100620483839e-29
1.531183466235007723e-29
1.065481068460650145e-29
7.515360867772636577e-30
5.401231275396024540e-30
3.958993025733753826e-30
2.960558980373921764e-30
2.250809375674868060e-30
1.729620552874389430e-30
1.333565933288766672e-30
