# bin_6_13
1.458805677210856054e-07
1.622320458854576680e-07
1.768043204732342592e-07
1.878605398964695082e-07
1.933182487233392807e-07
1.914417198089637539e-07
1.798272091316607399e-07
1.596163231428618988e-07
1.341402020117887137e-07
1.098487652242272775e-07
9.225232009827623727e-08
7.958483976294932917e-08
6.330169524679554163e-08
4.438497412290721536e-08
3.447090542235692284e-08
2.537216571909276323e-08
1.803433508359305172e-08
1.276645529498946876e-08
9.128059726833820052e-09
6.436052178269369530e-09
4.563175049258339552e-09
3.273505900312796008e-09
2.382911280624977872e-09
1.766363201171893735e-09
1.333875582377840589e-09
1.022591737589423412e-09
7.921595910879479730e-10
6.159590586488884204e-10
4.773344676663033616e-10
3.662197503683461901e-10
2.766430172579513794e-10
