# bin_15_8
3.349890981483484200e-16
3.823416887473162046e-16
4.302661084647400069e-16
4.755734763822037398e-16
5.140695268809500580e-16
5.403523438170163632e-16
5.486781389341624512e-16
5.332699795996785208e-16
4.893283744533649516e-16
4.245752363891085784e-16
3.505561778564680684e-16
2.879285690343793156e-16
2.466898433192355999e-16
2.103180816886000656e-16
1.561771552843897799e-16
1.098410712707867121e-16
8.914970685929164216e-17
5.915158592158751212e-17
4.455125900165937928e-17
3.013132598236998074e-17
2.053890632242171725e-17
1.406482981170314828e-17
9.556722086267821976e-18
6.485853272562188022e-18
4.419050598552069468e-18
3.052462393303280345e-18
2.143627466680408127e-18
1.536349160619093790e-18
1.125947364440049749e-18
8.423648096878210168e-19
6.403177658507303451e-19
