# bin_9_14
7.239489582948521420e-08
8.186262430945346431e-08
9.104243314156465415e-08
9.919058481011344561e-08
1.053207312495696660e-07
1.082456855734282929e-07
1.070237157390828774e-07
1.002573996779104055e-07
8.874621146350487638e-08
7.434772673758798932e-08
6.084326293521914393e-08
5.125206661578762145e-08
4.428769160866529285e-08
3.493033888063938077e-08
2.426028972780862590e-08
1.908808171956317535e-08
1.376172163509837520e-08
9.846646593014527826e-09
6.786825600919996549e-09
4.807502459275646202e-09
3.326456719995775979e-09
2.297174274177384966e-09
1.597583781520530913e-09
1.121435310477459404e-09
7.998534745302987809e-10
5.815910437046471102e-10
4.311768751568346234e-10
3.255889705727290739e-10
2.492279386706972860e-10
1.921370865757249244e-10
1.480732323333759821e-10
