# bin_14_7
8.056100851332639480e-17
9.173580896366730556e-17
1.029253401332241895e-16
1.133507665192637594e-16
1.219771389455196778e-16
1.274896872027690773e-16
1.286339424730898708e-16
1.238432617753757780e-16
1.125161301536564065e-16
9.664805313940788686e-17
7.943551591086823707e-17
6.556564489206447018e-17
5.652308414435743746e-17
4.747518596224620385e-17
3.430604216858925458e-17
2.479927916428034176e-17
1.981346423036283106e-17
1.311722803805546821e-17
9.780540103967699786e-18
6.731943627337504314e-18
4.582696124587163868e-18
3.134696450098438831e-18
2.134995556334610749e-18
1.460599158672776952e-18
1.007076799934466979e-18
7.056541975547499867e-19
5.035930061288943828e-19
3.670676617498575855e-19
2.732361849233456789e-19
2.069886244094233113e-19
1.586066246061523906e-19
