# bin_3_12
3.421718443963687682e-07
3.656094678103313554e-07
3.791996992676523271e-07
3.792603028523505734e-07
3.615605019419389992e-07
3.259672871776806243e-07
2.783474898221043421e-07
2.291946895374949396e-07
1.903791052153525126e-07
1.630359950623027805e-07
1.339444943664896001e-07
9.780526430249392756e-08
7.258380866770245527e-08
5.603949885527227132e-08
3.960401938045649950e-08
2.918491415428750000e-08
2.097453631245357169e-08
1.520884385256760974e-08
1.114089966020198634e-08
8.277422951350344485e-09
6.256823889171314404e-09
4.809972283111010060e-09
3.752100577149617084e-09
2.952330335266728754e-09
2.327518656002383410e-09
1.825885786633804060e-09
1.415842120989746912e-09
1.079091251928898778e-09
8.046845645080702344e-10
5.852098316696127359e-10
4.144638117808999532e-10
