# bin_10_7
3.344724010585616532e-11
3.774900965338545710e-11
4.188365631693381124e-11
4.550057199626638319e-11
4.813851890166162744e-11
4.925699017158760030e-11
4.841825615762922484e-11
4.502414670299844194e-11
3.957774921766614178e-11
3.295874145319929934e-11
2.697679278571160219e-11
2.286275621889128698e-11
1.971356433230996707e-11
1.523312870875968294e-11
1.055551958310219007e-11
8.467233769642218107e-12
5.907627490757411105e-12
4.345104332676424509e-12
2.950359905066260224e-12
2.083239072907091876e-12
1.450086374569625017e-12
1.008102150096721713e-12
7.055938734811694110e-13
4.988483393194967368e-13
3.589932525537693627e-13
2.634376495589312756e-13
1.970235845738450526e-13
1.498671755931099376e-13
1.152946519667369562e-13
8.908784152072541065e-14
6.862648165244179048e-14
