# bin_11_1
5.768697286612528395e-32
6.488168541106237910e-32
7.168977956746844392e-32
7.748355329450817037e-32
8.145398102256010541e-32
8.273626830272050073e-32
8.047355122438206278e-32
7.393157434206444635e-32
6.422775186118265120e-32
5.308262728434613428e-32
4.358173069472727668e-32
3.727465688838909406e-32
3.180184549701032495e-32
2.375373391785435826e-32
1.671239131335270406e-32
1.353039805468892253e-32
9.109507787098780574e-33
6.856908742752345536e-33
4.690754416605277244e-33
3.269430685208851289e-33
2.291073550170536741e-33
1.606542629891781199e-33
1.135369711969519230e-33
8.124326510862918828e-34
5.927678805717624068e-34
4.408968306570447599e-34
3.337504452193896627e-34
2.561762403669887898e-34
1.980850376792137544e-34
1.531861291646341997e-34
1.176336886633645328e-34
