# bin_7_12
9.956674588048985754e-08
1.114759128704150504e-07
1.224947510871379679e-07
1.314944953510564000e-07
1.370496544037094174e-07
1.378506070558869544e-07
1.322068341642288034e-07
1.197294677332941038e-07
1.025317552863477787e-07
8.425419034555402156e-08
6.971760428542609066e-08
6.005944219309890561e-08
5.003779146277076371e-08
3.610066415015658673e-08
2.642540422143062825e-08
2.081614543012386909e-08
1.409907499057330264e-08
1.042656674166620796e-08
7.303005180670734730e-09
5.092957747150992548e-09
3.578423645827195645e-09
2.529010769035977714e-09
1.808883053701681634e-09
1.313847514682932739e-09
9.733058720867624758e-10
7.341157701476311840e-10
5.620582524133052081e-10
4.345273071781680612e-10
3.368284576267042367e-10
2.599279633452686979e-10
1.983944091610751536e-10
