# bin_6_4
5.447538163229247537e-12
6.008659331723363984e-12
6.482498238839725314e-12
6.801201669333963757e-12
6.894008769865607265e-12
6.687044668395433775e-12
6.125119831107673397e-12
5.305859310947157604e-12
4.377041265538062753e-12
3.595083428694647062e-12
3.079319598333555012e-12
2.620080516810461772e-12
1.944636281354125556e-12
1.376202285592433499e-12
1.117553999945178994e-12
7.529296037452826443e-13
5.727575021291292175e-13
3.983055271744350185e-13
2.818992151740313607e-13
2.021813260284784884e-13
1.459498132878822804e-13
1.067463706702413644e-13
7.934966239152699809e-14
6.013202138198852645e-14
4.628523765423239173e-14
3.600534039939989356e-14
2.813182593975049134e-14
2.191580668439089806e-14
1.691011904743860939e-14
1.284815862821120145e-14
9.569121672069796747e-15
