# bin_11_12
1.695378785194406322e-08
1.927631653641806907e-08
2.158536769565018883e-08
2.371529964952035568e-08
2.544499738884108509e-08
2.649535856155074113e-08
2.661890554980076577e-08
2.547105478263470409e-08
2.300344520966718757e-08
1.963894479495823190e-08
1.611100104236229959e-08
1.335196421057304034e-08
1.153771824683876137e-08
9.576129280636652168e-09
6.824217044911850054e-09
5.034426502165273545e-09
3.945690574028921835e-09
2.642527632393854451e-09
1.936121139993611106e-09
1.347769149349462285e-09
9.199026789823410378e-10
6.290343458031113811e-10
4.300054523832163714e-10
2.958330930554750710e-10
2.055530580410813288e-10
1.453012177152038836e-10
1.046837231259584410e-10
7.702363250104149397e-11
5.779737378852038049e-11
4.403685038665194311e-11
3.384133839265965090e-11
