# bin_6_13
1.432383837332385325e-07
1.594515578672572867e-07
1.739828320915546031e-07
1.851345639188559673e-07
1.908252463607880281e-07
1.894185376287001184e-07
1.783694075620612006e-07
1.586747048035359208e-07
1.335053358856040228e-07
1.092249367389183168e-07
9.155547016522899569e-08
7.919573735767377246e-08
6.342075936424618541e-08
4.423589423354359250e-08
3.433176044056918137e-08
2.545375946890241478e-08
1.798054877900150641e-08
1.269956451619735747e-08
9.127637765936485085e-09
6.425198439944358228e-09
4.543687056069831010e-09
3.254021815265727861e-09
2.364692177456278811e-09
1.749803168018323565e-09
1.319454197920183724e-09
1.010526419609625138e-09
7.825207150681225452e-10
6.086300286218456782e-10
4.720498303813490870e-10
3.626281532714248739e-10
2.743678267359164091e-10
