# bin_4_7
1.475395074874958314e-07
1.606749388225294632e-07
1.706264765273075118e-07
1.755074641554367135e-07
1.737570823894257186e-07
1.631836027313196170e-07
1.448257379063664685e-07
1.216876483415193874e-07
9.960931061561629500e-08
8.360064898249077606e-08
7.211678683459851793e-08
5.743225508579090447e-08
4.032423160130356916e-08
3.135867462074224399e-08
2.321261188960904764e-08
1.659678809461162962e-08
1.187737231711881112e-08
8.604235177726295242e-09
6.175323538894183374e-09
4.476341154343085571e-09
3.294787078655143056e-09
2.466701489917076789e-09
1.880157093401974565e-09
1.455543230837274529e-09
1.138088627628777218e-09
8.931154311571301627e-10
6.984979715988132256e-10
5.407704244398038374e-10
4.120444547571018763e-10
3.075539556523447478e-10
2.240852908585195200e-10
