# bin_13_1
4.084535627090790288e-66
4.562516571286045571e-66
4.999301889046970010e-66
5.347635329166414896e-66
5.548223021067181338e-66
5.551812642512638854e-66
5.283520357401754140e-66
4.746802132193249449e-66
4.031094051086222447e-66
3.301348116344366075e-66
2.744561561964371590e-66
2.374804410283094838e-66
1.951314222709038451e-66
1.376806009379141196e-66
1.034464803379102150e-66
7.997385143099267501e-67
5.452092870034579615e-67
3.970405805166914212e-67
2.828646861715990587e-67
1.975953029098086633e-67
1.388872207979522785e-67
9.861664199381160062e-68
7.104118357540411762e-68
5.204773699199468557e-68
3.888861687632430398e-68
2.955794412483324654e-68
2.276968751801754367e-68
1.767069539642563152e-68
1.371552325145424920e-68
1.057209882155554378e-68
8.043191255239016774e-69
