# bin_10_3
4.700760616580483723e-37
5.274528064803293663e-37
5.811348306982509749e-37
6.258830837292593198e-37
6.550327822786484925e-37
6.620059298664845349e-37
6.390680230386636265e-37
5.822404660199313569e-37
5.015978588229176697e-37
4.126563881310873578e-37
3.398525910754412322e-37
2.924024333251397200e-37
2.469935136328087692e-37
1.800971769876006067e-37
1.289613738236177831e-37
1.041493775617554974e-37
6.909502730072881367e-38
5.227108108544291703e-38
3.622821975242922544e-38
2.511806040598118240e-38
1.763964680999132328e-38
1.241202945268065575e-38
8.831126632842394988e-39
6.374419090080081754e-39
4.694272239580307666e-39
3.522370116705999654e-39
2.686502348470585140e-39
2.072968859849197578e-39
1.607027150596090867e-39
1.242528212584312098e-39
9.516005571182678156e-40
