# bin_4_11
2.298917413567475580e-07
2.504831269048702768e-07
2.661615309311721581e-07
2.739840378034640097e-07
2.715150205028592933e-07
2.553125770388418658e-07
2.268620071051708755e-07
1.908213243578205677e-07
1.562113961153105677e-07
1.309800336125320474e-07
1.130075653341860750e-07
9.027395623796757109e-08
6.344662496048694718e-08
4.917346533213386651e-08
3.656424211473046060e-08
2.604921221164064343e-08
1.868853119120979870e-08
1.352860370421365901e-08
9.701442610830756304e-09
7.027431755797003472e-09
5.167979041645191554e-09
3.865670115589052836e-09
2.943830917806070641e-09
2.277362236782731603e-09
1.779805958680482390e-09
1.396402209205119940e-09
1.092188402368784957e-09
8.458335435120796500e-10
6.448399828346372537e-10
4.816655436819153619e-10
3.512500097242285768e-10
