# bin_3_11
3.274861983089817393e-07
3.503562434232395456e-07
3.638700444683642635e-07
3.646000240069207391e-07
3.481713014140978193e-07
3.141899282781272783e-07
2.682697410166762453e-07
2.204279353447391498e-07
1.827644280640943201e-07
1.571052504443082041e-07
1.298196420605224153e-07
9.398740679315742675e-08
6.962945860050463140e-08
5.434934036498577733e-08
3.789030101388460094e-08
2.813921595975184390e-08
2.021356948926720413e-08
1.461703079096394948e-08
1.070470221120183365e-08
7.951683931267815091e-09
6.009909893664999177e-09
4.620344565118863123e-09
3.605633959430408339e-09
2.838821157429255545e-09
2.239836815027577343e-09
1.758761922772628459e-09
1.365140082256557032e-09
1.041450220609026930e-09
7.772515764635987603e-10
5.655420104993487246e-10
4.005705380991921190e-10
