# bin_3_4
9.649206632279114299e-08
1.029202749691283385e-07
1.064866640586442646e-07
1.062175283735237689e-07
1.007978642371009299e-07
9.038698309946287546e-08
7.670347855853157544e-08
6.290258063604309106e-08
5.236140985013670378e-08
4.509514666279743937e-08
3.681374198861543228e-08
2.632643508676894668e-08
1.984430255721488623e-08
1.526714995478452613e-08
1.071548811005111835e-08
7.897690305563073697e-09
5.714615808981700143e-09
4.138205801122594755e-09
3.038317932228454339e-09
2.265577749697794582e-09
1.719428252637958990e-09
1.327250693424057603e-09
1.039039183663686154e-09
8.196791451676789430e-10
6.471692700075718092e-10
5.078455650899531532e-10
3.934615386835207436e-10
2.992990454691722691e-10
2.225319704940986767e-10
1.612087300594124109e-10
1.136551486778989418e-10
