# bin_6_3
9.622723607520517917e-16
1.056750754265346191e-15
1.133918686510408047e-15
1.181527459621705259e-15
1.188408434458981840e-15
1.139630238112322412e-15
1.031571045172208066e-15
8.828721767674714440e-16
7.245374183421959952e-16
5.987697051888544040e-16
5.164105186082022021e-16
4.313225184064654387e-16
3.103071882440501260e-16
2.271466087810278936e-16
1.808114522848855773e-16
1.220562583186953424e-16
9.173921631718441713e-17
6.516619700548596434e-17
4.614894738795005544e-17
3.314509942612898522e-17
2.405137953658141357e-17
1.774432548826404649e-17
1.332112073447867271e-17
1.018494228213692081e-17
7.894439270012835573e-18
6.168748766538974865e-18
4.827181020220808458e-18
3.755516306409732269e-18
2.886509425185108130e-18
2.180075421388259429e-18
1.611166269971644939e-18
