# bin_7_3
3.232647062512913753e-20
3.573583379348584426e-20
3.866001514137735300e-20
4.070061748917984179e-20
4.141618210301720080e-20
4.040414178859168233e-20
3.724256700935320130e-20
3.246387652463722600e-20
2.687245586343825000e-20
2.202144753423472418e-20
1.877941082413989811e-20
1.609623605353135587e-20
1.215475702313793224e-20
8.494974262279937808e-21
6.907092776595025930e-21
4.703663068352495237e-21
3.562477755976502483e-21
2.454652206275310972e-21
1.744134385605093080e-21
1.248380390593002005e-21
8.985965751032991785e-22
6.543081091100907632e-22
4.838639043960385751e-22
3.648663394334845138e-22
2.797131123465143771e-22
2.169798548542766212e-22
1.693204244946526921e-22
1.319512881060107108e-22
1.019903158240304679e-22
7.771713836671042192e-23
5.810746080851038965e-23
