# bin_14_2
8.250080053044892511e-59
9.263472030756841391e-59
1.021481591878651480e-58
1.101277845417486723e-58
1.154075620391799087e-58
1.168071642549834869e-58
1.130111550909129685e-58
1.032104656242081111e-58
8.913369675690363456e-59
7.341976499353907992e-59
6.040367426546034144e-59
5.188417324496098695e-59
4.396968393214500344e-59
3.228576150816978007e-59
2.297814316996340865e-59
1.859610520419621350e-59
1.236760373272888644e-59
9.358901061968232170e-60
6.457651290135779107e-60
4.480021141092619923e-60
3.145584760271813321e-60
2.211993289253295571e-60
1.570750238695415758e-60
1.130894583867278324e-60
8.306105970537470935e-61
6.217089517719524078e-61
4.731867621801372447e-61
3.646045556796826941e-61
2.824718131587677634e-61
2.184352522498565596e-61
1.674319220921031424e-61
