# bin_6_12
1.317640321785440879e-07
1.466721925220886488e-07
1.600305012951833342e-07
1.702768643783561110e-07
1.754966189781292593e-07
1.741852044118992776e-07
1.640028836064959078e-07
1.458762066166227620e-07
1.227227707856197690e-07
1.004023952106166397e-07
8.416903378803636605e-08
7.280562132524467579e-08
5.828394598162910969e-08
4.064784137715976997e-08
3.155967319498105955e-08
2.338585460074794505e-08
1.652736534651615963e-08
1.166901156408647688e-08
8.387627663402076229e-09
5.904879911569439757e-09
4.176092608999231446e-09
2.991088554485041328e-09
2.173860495354334407e-09
1.608794725104635288e-09
1.213263790969591061e-09
9.292851778279073987e-10
7.196550140159630900e-10
5.597483925510632861e-10
4.341327185767218096e-10
3.334857749248193126e-10
2.523008790215955086e-10
