# bin_9_11
3.349988076626556020e-08
3.790162732268383961e-08
4.217836168715207857e-08
4.598841697382611797e-08
4.887621421189944889e-08
5.028465189069203750e-08
4.979271104133369750e-08
4.671946037952321426e-08
4.141589353714734712e-08
3.472162836621397877e-08
2.839705770416621722e-08
2.389188089570729646e-08
2.068205065258630917e-08
1.638556992759426100e-08
1.133718399997916990e-08
8.921510171830504652e-09
6.463395571081382880e-09
4.609044845914902716e-09
3.162566322380361016e-09
2.252999579179493252e-09
1.557118550515571386e-09
1.073066304871213229e-09
7.455517704714669971e-10
5.226238764474153134e-10
3.721454963950183309e-10
2.701540929066353970e-10
1.999952233683203619e-10
1.508680426292355801e-10
1.154358287238752793e-10
8.901154837565969369e-11
6.865148487213969527e-11
