# bin_5_3
3.282206974010486684e-12
3.576076433276352995e-12
3.799641823761101544e-12
3.910170771086359047e-12
3.874749174536499514e-12
3.641120814673793697e-12
3.232902868862122482e-12
2.715003644823253442e-12
2.219945590282338236e-12
1.862425322238031716e-12
1.610652808646369510e-12
1.285368126652824330e-12
8.959119959982120857e-13
7.002882605485058907e-13
5.182936046855089066e-13
3.706136111561113428e-13
2.631456355523311022e-13
1.919943304640149903e-13
1.377659370411857799e-13
9.971762530712135509e-14
7.339711092865939976e-14
5.495089838947562155e-14
4.189066033287230382e-14
3.243804622650294026e-14
2.537202381654905397e-14
1.991954997805161220e-14
1.558657025331732766e-14
1.207300171945982280e-14
9.203548201936706930e-15
6.872633991746606563e-15
5.008942286167871573e-15
