# bin_14_14
6.201447660805505836e-09
7.095238062292820206e-09
8.008944175369791859e-09
8.884845801639558297e-09
9.647552477054884360e-09
1.019822774714380692e-08
1.042222024885614538e-08
1.022521119388760518e-08
9.483849262097139109e-09
8.315702205169193112e-09
6.910491434324529347e-09
5.658780178351289401e-09
4.809079404391551418e-09
4.141930970385369349e-09
3.170816402289777493e-09
2.195849097023106164e-09
1.771910773695287373e-09
1.213326120464177023e-09
8.985889105406837121e-10
6.009825458891128570e-10
4.159039282307028690e-10
2.838054696170860058e-10
1.919242526439699233e-10
1.292972048951653434e-10
8.712230029986374000e-11
5.929846677535687918e-11
4.092536261546255131e-11
2.876812174822694260e-11
2.067865740515547140e-11
1.520629072346011467e-11
1.140953406347035846e-11
