# bin_2_11
4.845654160438450709e-07
5.032268307997589026e-07
5.042727287963522639e-07
4.820705608922190262e-07
4.358908237995001997e-07
3.732094834487797296e-07
3.074829206171750479e-07
2.548638749201288908e-07
2.180994125507295581e-07
1.802632966867883618e-07
1.324317765920031975e-07
9.777604844465377411e-08
7.603515881077363366e-08
5.395135260811682000e-08
4.002345281288687096e-08
2.894739063601476542e-08
2.122796954046351011e-08
1.574907132031644143e-08
1.187034018229813041e-08
9.109130680756830231e-09
7.104389414023863277e-09
5.610678231699385576e-09
4.456593483100078141e-09
3.534868376063361062e-09
2.780393612913167891e-09
2.154741813647966118e-09
1.636373926674267963e-09
1.212802497550458637e-09
8.750261014417234102e-10
6.143255179187699307e-10
4.202617237570634047e-10
