# bin_10_13
4.066429163086952649e-08
4.617776496696759392e-08
5.162628550304140932e-08
5.660920428532096351e-08
6.058964233962042805e-08
6.289297507840387900e-08
6.295904340933650546e-08
5.993188045321295746e-08
5.385082851447311650e-08
4.573226885853792600e-08
3.745753261114224548e-08
3.115433999088102669e-08
2.697399791130152207e-08
2.215465971399574169e-08
1.559520052977522086e-08
1.171639602402551317e-08
9.022713315195002185e-09
6.109879737780804778e-09
4.402424750595788466e-09
3.097175539864580437e-09
2.119232249892604479e-09
1.448614606529283415e-09
9.937201435390365819e-10
6.870673738636578181e-10
4.805969214470470217e-10
3.422826818191839178e-10
2.485724485786986249e-10
1.843126081989028818e-10
1.392066026897584023e-10
1.065489968622013962e-10
8.206338594013884089e-11
