# bin_6_11
1.184010866391740103e-07
1.317894374009124863e-07
1.437817190704638997e-07
1.529736961508522132e-07
1.576450113510601040e-07
1.564445753719375033e-07
1.472717339010700041e-07
1.309711679907788446e-07
1.101654729403406929e-07
9.012772665266205697e-08
7.556684316206068683e-08
6.536373827080656261e-08
5.230164979239479387e-08
3.646922034413873098e-08
2.833132034621541320e-08
2.097758720930533694e-08
1.483499836693671872e-08
1.046883680618644102e-08
7.525817158993783729e-09
5.298920662772153736e-09
3.747994737489976701e-09
2.684878362972013279e-09
1.951619291090755789e-09
1.444577311311928924e-09
1.089595213444787668e-09
8.346722191206023062e-10
6.464420774516664859e-10
5.028211964859283049e-10
3.899747273719341564e-10
2.995467739457191426e-10
2.266018725698793036e-10
