# bin_1_11
7.525519003166616881e-07
7.398258573506217521e-07
6.919339341534258895e-07
6.128950783663481306e-07
5.171478704211447793e-07
4.265478849947526528e-07
3.575459421553388733e-07
3.026950268926463994e-07
2.404788496470527569e-07
1.764165624787342174e-07
1.333180079238016893e-07
1.006847470284247714e-07
7.294866388491719269e-08
5.399656500142441893e-08
3.970624938674390303e-08
2.961920016734630716e-08
2.244769905409614323e-08
1.732121717394997135e-08
1.359406501515163606e-08
1.080634455155333511e-08
8.647889441936616335e-09
6.914972624438119542e-09
5.485205413276697272e-09
4.288255762592631748e-09
3.285772806433676367e-09
2.457207090653593141e-09
1.789115376780829174e-09
1.267584022437463657e-09
8.749925763550592470e-10
5.899448409188389286e-10
3.897385483433699150e-10
