# bin_5_4
8.676871449393292271e-10
9.502147208284698818e-10
1.016063789731119599e-09
1.054047476907479440e-09
1.054755278945671300e-09
1.004217258581444049e-09
9.027346758493268074e-10
7.672251590560547733e-10
6.284733180399186166e-10
5.219814825972683003e-10
4.511045722270697128e-10
3.712796168148666019e-10
2.633605506592658723e-10
1.974178503403128458e-10
1.535385348480541930e-10
1.053820674270507835e-10
7.767121047682234681e-11
5.584798814607812664e-11
3.971127298989426579e-11
2.856427481593395930e-11
2.082489809551366232e-11
1.544544940739262203e-11
1.166087328838929070e-11
8.958289640672569635e-12
6.968142848068691054e-12
5.455724173314159956e-12
4.270244279035769610e-12
3.317679927532643679e-12
2.542921502910759204e-12
1.913045754067064291e-12
1.406929862713292101e-12
