# bin_6_2
1.035502616807076847e-21
1.131733330641725647e-21
1.207154611689635633e-21
1.248293684146189663e-21
1.244471545714159842e-21
1.178656877705981514e-21
1.054225247192549627e-21
8.913953565896784965e-22
7.292877079265426374e-22
6.080381916958407478e-22
5.261386812555685925e-22
4.281628540471429280e-22
3.006379517728027630e-22
2.294761487756527829e-22
1.752121869691385117e-22
1.219485712598726852e-22
8.844984423392530531e-23
6.418799913408133146e-23
4.579040199852035101e-23
3.298091914936346421e-23
2.413443967879814908e-23
1.797030817961145244e-23
1.362285368269728988e-23
1.050151133523756940e-23
8.188872571367977607e-24
6.420216268369292004e-24
5.025687885601812146e-24
3.900526274073724192e-24
2.983514574950387810e-24
2.238006138600032731e-24
1.639988694512504011e-24
