# bin_14_13
2.460806637579958864e-09
2.814079488148392872e-09
3.174532913218659991e-09
3.519128222797345703e-09
3.817767872015852350e-09
4.031137605222123410e-09
4.114289613152349731e-09
4.029010233298791649e-09
3.728691194446318305e-09
3.262537515107915203e-09
2.707276016428538347e-09
2.217891546306809954e-09
1.888176281160084373e-09
1.623649366181235252e-09
1.235193078117815265e-09
8.571216936087739605e-10
6.935696743099236583e-10
4.709389198377925456e-10
3.507457063544077500e-10
2.347824664821731993e-10
1.618212487027286138e-10
1.105583498340890836e-10
7.488102709866476813e-11
5.051901828728703125e-11
3.411220028902419797e-11
2.328656405416166522e-11
1.612845842826447921e-11
1.138335526796081514e-11
8.216628563225406979e-12
6.065485606761651119e-12
4.564978872026826070e-12
