# bin_8_6
1.237301093117014752e-11
1.386404733497628342e-11
1.524931360506241021e-11
1.638925467057906671e-11
1.710720786064038786e-11
1.723773371184817362e-11
1.656748240443767351e-11
1.502726571630001118e-11
1.288696999493195240e-11
1.058314292754408419e-11
8.738637127370141822e-12
7.536693348358036572e-12
6.317410714620457149e-12
4.553098958479575736e-12
3.307856878527824153e-12
2.642288662660597518e-12
1.761164270925019298e-12
1.320875161480393626e-12
9.234237327551943179e-13
6.413501392406735307e-13
4.503311399775438259e-13
3.175300626567552162e-13
2.267803680807054723e-13
1.644697625915998214e-13
1.216904522863546950e-13
9.170193597062058113e-14
7.018130052331846314e-14
5.426826094420678007e-14
4.209829576530586200e-14
3.252543614973080688e-14
2.486158507763045694e-14
