# bin_13_3
9.630699975211015690e-43
1.080091800417215203e-42
1.189307997137467213e-42
1.279941169247760228e-42
1.338301330727224802e-42
1.351122663067450644e-42
1.302320791891955149e-42
1.184742942918829193e-42
1.019090921994862354e-42
8.379552431556559480e-43
6.907767562997592417e-43
5.947546662947855363e-43
5.009892481482407573e-43
3.639732464018968217e-43
2.619835677497852827e-43
2.106103572854494728e-43
1.401142057068666471e-43
1.055815776694133841e-43
7.338818776270094768e-44
5.093008597704443856e-44
3.576313648091671631e-44
2.518567375107901261e-44
1.794270497601075023e-44
1.297186534706493079e-44
9.567709452225891973e-45
7.189299656948610584e-45
5.489375320473488132e-45
4.238521118539828563e-45
3.286355207122050039e-45
2.540153427825866735e-45
1.944012484696214692e-45
