# bin_3_8
-1.423169894346072638e-14
-1.582609230993115013e-14
-1.724654898709050463e-14
-1.832350835816660573e-14
-1.885095842876367434e-14
-1.866769336001146650e-14
-1.752588436241621619e-14
-1.554601933820163167e-14
-1.304570904367356717e-14
-1.066869856200657446e-14
-8.960306980909872563e-15
-7.746166056785648314e-15
-6.158666508444801926e-15
-4.286117339865165531e-15
-3.351717309449995972e-15
-2.457341528387371815e-15
-1.751959124214767987e-15
-1.229185119979410191e-15
-8.842859739996866577e-16
-6.237309669099866751e-16
-4.419256332214933790e-16
-3.172062980535022892e-16
-2.310522246193097996e-16
-1.714185283357053902e-16
-1.295665375329745933e-16
-9.942095435471763135e-17
-7.708465276343525541e-17
-5.998205150371659078e-17
-4.650678357342738650e-17
-3.569067807077540390e-17
-2.696210733712121821e-17
