# bin_13_11
-4.363820127832669637e-09
-4.981644051458685264e-09
-5.607470879796686517e-09
-6.199816722277907413e-09
-6.704169668485302430e-09
-7.050227959837025540e-09
-7.162603853733316374e-09
-6.966912763493523466e-09
-6.398281251602643350e-09
-5.556324969290430524e-09
-4.589694918077561217e-09
-3.768470567778116951e-09
-3.226824430171791677e-09
-2.753993442143493739e-09
-2.049937862816503287e-09
-1.439071429427491791e-09
-1.168533627296272006e-09
-7.763377230139742230e-10
-5.846315111335055305e-10
-3.948613473965380323e-10
-2.693072327338449935e-10
-1.844166084132118208e-10
-1.252886567718430187e-10
-8.497633845681906825e-11
-5.784192527561149790e-11
-3.990635230171975899e-11
-2.798590130485976130e-11
-2.002761122342828981e-11
-1.465657575064695228e-11
-1.095184637844326891e-11
-8.317930229466458661e-12
