# bin_4_14
-8.667769694974874177e-24
-9.854024682376259692e-24
-1.103263988387495836e-23
-1.211889552026292917e-23
-1.299958689868255446e-23
-1.353187941335674081e-23
-1.359020561148913878e-23
-1.299665454821273909e-23
-1.173004397403829420e-23
-1.000738057201743540e-23
-8.206649903144638556e-24
-6.803261885498123205e-24
-5.882109200308621462e-24
-4.877887381673954829e-24
-3.467995283060647941e-24
-2.564120354024023070e-24
-2.007257588276547016e-24
-1.344020674037874007e-24
-9.837596067415360552e-25
-6.859438576506587333e-25
-4.682124924911206326e-25
-3.200426014744761512e-25
-2.187995089925700323e-25
-1.506135296182698743e-25
-1.047363829010420521e-25
-7.410651312443145135e-26
-5.344678078236045990e-26
-3.936738365879245266e-26
-2.956998206295735693e-26
-2.254807183384055161e-26
-1.733720802522750981e-26
