# bin_7_15
-1.104729086552054124e-16
-1.260455021837273895e-16
-1.417819327198719579e-16
-1.566280575997576469e-16
-1.691951203104759892e-16
-1.776986454258001777e-16
-1.802697918082129222e-16
-1.749646718073788029e-16
-1.603067057812344813e-16
-1.388837430639261345e-16
-1.145825284457689568e-16
-9.416990347809239335e-17
-8.076552978379539547e-17
-6.872466246053025340e-17
-5.081835770421909615e-17
-3.586337752115501922e-17
-2.907726929078394096e-17
-1.925395410630155565e-17
-1.450168519583008828e-17
-9.832111466644166041e-18
-6.696205400603592443e-18
-4.585414973033507820e-18
-3.116463216242671803e-18
-2.117418545013203107e-18
-1.445148891989646414e-18
-1.000364552658195376e-18
-7.042354582288646024e-19
-5.060567789137061032e-19
-3.718049776155737522e-19
-2.787455230916194166e-19
-2.121926222477302208e-19
