# bin_11_8
-6.000075580666701145e-10
-6.804668296599396096e-10
-7.594952800062716610e-10
-8.311144046194937288e-10
-8.873109291413472500e-10
-9.180837449128735132e-10
-9.155422965384409735e-10
-8.670104624595156405e-10
-7.752608474687366778e-10
-6.552254744828045213e-10
-5.362415449798695852e-10
-4.478051459770815187e-10
-3.879018375187566730e-10
-3.147443895813065107e-10
-2.197898121502205415e-10
-1.680148850051406358e-10
-1.267174217714148943e-10
-8.727832304491341537e-11
-6.170395558685179597e-11
-4.372902570820516342e-11
-3.001979463077519763e-11
-2.055642352040319637e-11
-1.416511571911879278e-11
-9.842475353692347677e-12
-6.929226705552483853e-12
-4.969811211284659733e-12
-3.635285292099370238e-12
-2.713470637778055988e-12
-2.060080481058395726e-12
-1.581799562153690350e-12
-1.219416034777124788e-12
