# bin_10_5
-2.858644391298801248e-13
-3.218285394423957399e-13
-3.560147959701025852e-13
-3.853482571291926450e-13
-4.058440998824304520e-13
-4.130992763438930502e-13
-4.030742593558909900e-13
-3.715971342687288125e-13
-3.239281304235084815e-13
-2.681903116910027398e-13
-2.198372458157990135e-13
-1.874874890961811611e-13
-1.606171693718311399e-13
-1.211996545888399874e-13
-8.465211279247866799e-14
-6.855143232705676125e-14
-4.648468461706508422e-14
-3.487158971368435904e-14
-2.373607171160960170e-14
-1.658928091751291590e-14
-1.160915625101742958e-14
-8.123977264713721219e-15
-5.724120661892773425e-15
-4.080310299040692461e-15
-2.964685338330932545e-15
-2.196333503033458209e-15
-1.656819721541981305e-15
-1.268573292631660314e-15
-9.796737380787435821e-16
-7.576248979408298493e-16
-5.824629754263993949e-16
