# bin_1_8
-4.334821410066167670e-22
-4.798251301829386418e-22
-5.199349273890440237e-22
-5.485128869161058811e-22
-5.595682847974620571e-22
-5.478410935323544362e-22
-5.072651952219517439e-22
-4.440818988055500545e-22
-3.688720355512518635e-22
-3.020871622894516048e-22
-2.564951033151387976e-22
-2.202420146924066509e-22
-1.686904748689038011e-22
-1.177813780839337606e-22
-9.460879367381966224e-23
-6.593781923146267906e-23
-4.897250508387233447e-23
-3.388170764477222491e-23
-2.422251549783149150e-23
-1.725635881678712504e-23
-1.235935888482951250e-23
-8.965732423871330311e-24
-6.604204153741278866e-24
-4.958976168425984810e-24
-3.787780479339417240e-24
-2.930040839678371891e-24
-2.282619341179165897e-24
-1.778065250105959269e-24
-1.375320487688973136e-24
-1.049809873220621564e-24
-7.869313430612397516e-25
