# bin_2_5
-3.318275003311856664e-11
-3.595680948692349050e-11
-3.794718328055080090e-11
-3.874305919145289970e-11
-3.797988366965055111e-11
-3.524076850583985013e-11
-3.091613483499431505e-11
-2.573599437054579576e-11
-2.107689659472826976e-11
-1.784584659539550396e-11
-1.531573488025613119e-11
-1.183132599266460670e-11
-8.302917928301492637e-12
-6.610757780823389401e-12
-4.704747812495310830e-12
-3.469376681756518685e-12
-2.446571140666477268e-12
-1.773813346911719978e-12
-1.282835255098239756e-12
-9.368017856980514861e-13
-6.951527644438157743e-13
-5.246609411365216909e-13
-4.030601894365307461e-13
-3.139324444649969211e-13
-2.464038031633947962e-13
-1.936153633023092148e-13
-1.512301397621286273e-13
-1.166647275096317038e-13
-8.840318955061039135e-14
-6.551379453205815694e-14
-4.733731041185044047e-14
