# bin_2_7
-1.921028707363323354e-15
-2.117133513605456729e-15
-2.281790438948132738e-15
-2.391006306114379674e-15
-2.420373003650325822e-15
-2.343377908870638930e-15
-2.143045808931532820e-15
-1.853346803705413990e-15
-1.528453646456432821e-15
-1.256724941939820538e-15
-1.076370533538846467e-15
-9.122926888674672939e-16
-6.756740147107975368e-16
-4.813563058298417075e-16
-3.874654366536141211e-16
-2.633405279936949988e-16
-1.984515137722410693e-16
-1.385904438579162150e-16
-9.836485858034657308e-17
-7.047904811801621413e-17
-5.087687597218600653e-17
-3.724299666190112592e-17
-2.771266867986531812e-17
-2.101665555266530255e-17
-1.618514713187143587e-17
-1.259261944030089645e-17
-9.837000399045251277e-18
-7.659489044583115713e-18
-5.905445227264646650e-18
-4.482578176733383788e-18
-3.334862905906281906e-18
