# bin_10_7
-4.324539779234064348e-10
-4.885588994640753444e-10
-5.427246040535736540e-10
-5.904742346391071729e-10
-6.258843770339576782e-10
-6.418665322288387060e-10
-6.329251067893658031e-10
-5.908029902843329427e-10
-5.211911353432706756e-10
-4.351678437813719030e-10
-3.558970170153226003e-10
-3.005647084860920125e-10
-2.596899690070753784e-10
-2.029396939147071229e-10
-1.403518279221455093e-10
-1.117048493179307979e-10
-7.922440853993083304e-11
-5.749855495056326115e-11
-3.915294840216678445e-11
-2.777233857137711852e-11
-1.926829795602023971e-11
-1.334289406241809683e-11
-9.307884476346657182e-12
-6.554984922997036693e-12
-4.694930292026895579e-12
-3.428845802580542063e-12
-2.553034771240074363e-12
-1.935088852231448676e-12
-1.485332581539209250e-12
-1.146819899780839645e-12
-8.840024027674626342e-13
