# bin_5_7
-2.175475175442260935e-09
-2.422026622112561793e-09
-2.643202846685310901e-09
-2.813279632641489445e-09
-2.900670190522733781e-09
-2.880541491241678213e-09
-2.714157523483422353e-09
-2.415752629828910499e-09
-2.033458564987519752e-09
-1.663228168241902850e-09
-1.392871617774803656e-09
-1.204752538666932625e-09
-9.667593281326165985e-10
-6.746819475905808588e-10
-5.221368856578430904e-10
-3.884770433185011561e-10
-2.735248747752030759e-10
-1.936213686299387887e-10
-1.390929292469580149e-10
-9.783837869428288246e-11
-6.914626329123213081e-11
-4.948681451778956741e-11
-3.593795957786505297e-11
-2.657276316567046713e-11
-2.002383045877533795e-11
-1.532707939086123530e-11
-1.186425809170155677e-11
-9.226238850623214571e-12
-7.156075254362271481e-12
-5.498507770009448205e-12
-4.161764612665033505e-12
