# bin_12_2
5.244359603530613744e-30
5.924307158026999159e-30
6.580505450556993547e-30
7.158539775806823383e-30
7.586450988528120151e-30
7.778416252204848679e-30
7.667150909985484885e-30
7.153602702288810208e-30
6.308241425350394354e-30
5.266081412982523003e-30
4.308606106976886213e-30
3.641687309850169903e-30
3.145491067963294349e-30
2.453508682921610429e-30
1.698077445900925267e-30
1.353382385629927039e-30
9.571555226045095620e-31
6.963922569551399072e-31
4.740720507651709178e-31
3.359239443058695955e-31
2.331918499210894831e-31
1.615775638417010467e-31
1.127583889650937476e-31
7.944249970011341494e-32
5.693017964453453528e-32
4.159916286616493719e-32
3.098854880646246910e-32
2.349686918332750483e-32
1.803991331852399700e-32
1.392955044065026600e-32
1.073641765350545281e-32
