# bin_15_8
6.554935016266188001e-17
7.484355208860490937e-17
8.426560719630291237e-17
9.319330760789069435e-17
1.008096112068189016e-16
1.060594467931990120e-16
1.078027104843739711e-16
1.049339633974518614e-16
9.644698992894247286e-17
8.382268117530816922e-17
6.927051311440579112e-17
5.685954866969268621e-17
4.865918290945201358e-17
4.156810911926324278e-17
3.101158775308095184e-17
2.173570978338456585e-17
1.765257361660129408e-17
1.174610795491612335e-17
8.841325221685164096e-18
5.963864931871312559e-18
4.070128847841337858e-18
2.786630424154855797e-18
1.892547277784301413e-18
1.282590706483482238e-18
8.720198368245170736e-19
6.007445197271798078e-19
4.205836107982417027e-19
3.004326670043709988e-19
2.194730341039032629e-19
1.637492877616768107e-19
1.242336689202968384e-19
