# bin_12_3
1.076346949327138658e-25
1.216664610840502257e-25
1.352457316208594201e-25
1.472634729569413558e-25
1.562481014976237440e-25
1.604257088366477813e-25
1.584285408528667076e-25
1.481582096038836552e-25
1.309336195286395297e-25
1.094930195772566071e-25
8.956824531045972055e-26
7.556228668516597999e-26
6.532996283846123095e-26
5.128584406025159699e-26
3.548604316342677924e-26
2.813984915136071467e-26
2.009673728498824087e-26
1.450454152978402882e-26
9.902750120526699882e-27
7.032299172514072654e-27
4.872709957670806052e-27
3.368737072368622744e-27
2.346444868995364146e-27
1.649542012197552522e-27
1.178881307385207061e-27
8.590170132389685220e-28
6.382229613782079376e-28
4.828849776427544677e-28
3.702121689863339721e-28
2.856995392340874462e-28
2.202709581639632405e-28
