# bin_12_9
2.656081175984059777e-12
3.021499289756519623e-12
3.385661382116272292e-12
3.722721030825826491e-12
3.998205150349319233e-12
4.168512623380076910e-12
4.194068634522136609e-12
4.021291766376214325e-12
3.638530313994594223e-12
3.112221976052568922e-12
2.554150540392801138e-12
2.113647037574329824e-12
1.825749841324785286e-12
1.521868377743542338e-12
1.088326795780867178e-12
7.976184033409988251e-13
6.297723297404780640e-13
4.193765630646803291e-13
3.094376436153175329e-13
2.146756946536629247e-13
1.463374136762530335e-13
1.000276815145838121e-13
6.825497377692095297e-14
4.685880373686055390e-14
3.246907041996978938e-14
2.288070284510408379e-14
1.643054900199061605e-14
1.205111345446392846e-14
9.019547066220856261e-15
6.860339834129140747e-15
5.268426575494535447e-15
