# bin_15_12
4.369764367493764731e-12
5.004424132930587816e-12
5.655582759164397814e-12
6.283085664176566217e-12
6.834437206892159040e-12
7.240329767280001274e-12
7.418228629913021073e-12
7.304091696716561491e-12
6.803362885114385924e-12
5.989503354042528781e-12
4.991750013195521184e-12
4.084495181989893326e-12
3.459334365705129041e-12
2.987705599393630045e-12
2.314832865227795060e-12
1.597979122303703337e-12
1.281511018289426240e-12
8.924566713977105395e-13
6.531804831532966712e-13
4.366885539733693438e-13
3.045592009899463305e-13
2.072924553880330676e-13
1.397137852702421238e-13
9.385241757637594374e-14
6.297636408875135634e-14
4.261068610386197949e-14
2.919733347574260451e-14
2.035367969057069816e-14
1.450299896306710163e-14
1.057769118506620189e-14
7.883694172203478780e-15
