# bin_15_11
7.308164830438583877e-13
8.362740541014257723e-13
9.441488029526027028e-13
1.047646943843743370e-12
1.137901004652372342e-12
1.203271666635548776e-12
1.230177158649585414e-12
1.207613969210016030e-12
1.120766246352346691e-12
9.833267516716655299e-13
8.174402277795661944e-13
6.692419807562448827e-13
5.684945508427961056e-13
4.899591138085019426e-13
3.757124962404303913e-13
2.599159317115885832e-13
2.097185839492904221e-13
1.438133314624752794e-13
1.064529511767699038e-13
7.111433756968129964e-14
4.924957267234267195e-14
3.360004385787858113e-14
2.271647351986975658e-14
1.529458602875869564e-14
1.029634295908515470e-14
6.999810663418567704e-15
4.824194535155148405e-15
3.385756000180216800e-15
2.429786649875417364e-15
1.784184876742448237e-15
1.337225639354339076e-15
