# bin_15_6
1.417831009126089904e-21
1.616774694628645614e-21
1.817290795139970784e-21
2.005799782023017739e-21
2.164362357009015320e-21
2.270010686515875014e-21
2.299307349537892606e-21
2.226492305763629247e-21
2.034957186129882334e-21
1.758641138134803319e-21
1.449189580382836314e-21
1.192351977993219483e-21
1.024283040461393896e-21
8.685820324175426172e-22
6.378859695978527765e-22
4.529998973671725633e-22
3.662251031001453430e-22
2.420527266038001331e-22
1.820638597001911195e-22
1.239536602863803602e-22
8.434745320724472113e-23
5.774020813378253471e-23
3.925294101428631425e-23
2.671439188441589414e-23
1.828011240032450396e-23
1.269416058509856122e-23
8.968813494807267447e-24
6.469810578140849318e-24
4.770696351578332250e-24
3.587292286304710553e-24
2.736207362478117720e-24
