# bin_15_3
3.751732757125485643e-32
4.272831052271032753e-32
4.795008506869686176e-32
5.282035192964496926e-32
5.685796314157064887e-32
5.945113608867964448e-32
6.001156897333456541e-32
5.781520115580045240e-32
5.256378638329457971e-32
4.518299449086244114e-32
3.714758191531347340e-32
3.065004342847879491e-32
2.641184601418920140e-32
2.220875523879929673e-32
1.607933711356401883e-32
1.159888340835093271e-32
9.279766283798389106e-33
6.142296936120692159e-33
4.584426301818186714e-33
3.151189501020679458e-33
2.144850665492053880e-33
1.467112208643228868e-33
9.988589833831192948e-34
6.827815039090350385e-34
4.702340503825594110e-34
3.290476138449673333e-34
2.344778730179924014e-34
1.706521959626943162e-34
1.268569097405379503e-34
9.599860790237469248e-35
7.351247401849296026e-35
