# bin_6_1
6.981390732391519274e-19
7.602805294812387762e-19
8.073471913553220451e-19
8.303878911526358483e-19
8.220783030878819816e-19
7.719502670039630021e-19
6.850112578061093504e-19
5.754189800007150384e-19
4.709393464356501217e-19
3.953042686727401200e-19
3.411220413087409818e-19
2.715861417031435412e-19
1.904439554432097651e-19
1.483122362048527963e-19
1.096701555519156472e-19
7.847720419601536060e-20
5.605338502690951853e-20
4.064809024628105938e-20
2.917273808827950153e-20
2.114037151128119811e-20
1.555886729269694180e-20
1.164704959097613943e-20
8.876831098421758992e-21
6.871693775019046663e-21
5.372843612644883217e-21
4.216401913511400436e-21
3.297754558003607652e-21
2.553260388486278754e-21
1.945641924813290793e-21
1.452388957900722181e-21
1.058319487492468879e-21
