# bin_13_6
2.924824373924604508e-18
3.322892116121609372e-18
3.717135152755765148e-18
4.078828784560100680e-18
4.369525887345501391e-18
4.540838230658051920e-18
4.551626901553545993e-18
4.340947719626359858e-18
3.907583493423018069e-18
3.324713057547689543e-18
2.724491281254132560e-18
2.262958180220632802e-18
1.958197820377022000e-18
1.614714974535901972e-18
1.141301719975656351e-18
8.517965883545494792e-19
6.604412183180521628e-19
4.451249443916653815e-19
3.228499443298804507e-19
2.262840169529683516e-19
1.546765667730413785e-19
1.057299321217965064e-19
7.242584945281363951e-20
4.998490924770835821e-20
3.487999620358955300e-20
2.477530941435603934e-20
1.794182640148979082e-20
1.326784971656994642e-20
9.998676080338473789e-21
7.641489955041918329e-21
5.881495262768149878e-21
