# bin_13_5
6.563923227873162173e-21
7.450965750475144570e-21
8.325978774781318913e-21
9.124069747767205903e-21
9.758276648000325758e-21
1.011953877297717115e-20
1.011868052848746467e-20
9.617424609621474883e-21
8.629323185881706666e-21
7.318127913878588782e-21
5.992712479161857295e-21
4.990229355697339018e-21
4.321081915406824708e-21
3.536360658105503855e-21
2.483780468836716974e-21
1.875447819532236633e-21
1.435437671355861104e-21
9.769838518667396612e-22
6.999786199917252875e-22
4.934955344779747674e-22
3.379992049757015605e-22
2.311662514497260419e-22
1.587904763708426274e-22
1.099479795658837656e-22
7.705236638021718733e-23
5.499004690865123083e-23
4.001961956787503660e-23
2.973206941397906490e-23
2.249022035490222853e-23
1.722998810680972586e-23
1.327374771696261267e-23
