# bin_6_1
6.900642972903759672e-19
7.514824315388925579e-19
7.979983472995924064e-19
8.207645281287483070e-19
8.125414541442152422e-19
7.629833967247598191e-19
6.770439825404136538e-19
5.687184677695310137e-19
4.654533737311163529e-19
3.907008852580865133e-19
3.371465452939593295e-19
2.684136667692029436e-19
1.882230277053443416e-19
1.465894339533927214e-19
1.083971175130148398e-19
7.757481377881035174e-20
5.541410771521215461e-20
4.019006518405650334e-20
2.884968930528729418e-20
2.091123520343995431e-20
1.539434300738702680e-20
1.152712242171938956e-20
8.787760200365558454e-21
6.804249033555393129e-21
5.320958540077090524e-21
4.176043306924527513e-21
3.266228818573268656e-21
2.528709742019682324e-21
1.926708388099709338e-21
1.438009372218187346e-21
1.047615392413136619e-21
