# bin_15_9
3.376770463658970933e-15
3.858361620657198787e-15
4.348108246146233716e-15
4.814135045824934599e-15
5.214721754582431606e-15
5.495707863279348334e-15
5.596848516625300073e-15
5.463547757342012669e-15
5.037776470536639427e-15
4.392271071448331742e-15
3.636329034513392571e-15
2.981678655694816667e-15
2.545688633090957403e-15
2.182245219983924576e-15
1.642844859978875686e-15
1.145022087059958631e-15
9.296128487394699028e-16
6.233162241530440535e-16
4.677275241811847264e-16
3.141032816363221131e-16
2.151493514294953878e-16
1.472329109332838557e-16
9.992000212037921932e-17
6.757811279037633449e-17
4.579979023576999626e-17
3.142196189306943718e-17
2.189270654143779228e-17
1.555533503944474837e-17
1.130411662320530867e-17
8.395621627143651576e-18
6.348407367962329311e-18
