# bin_10_6
6.834520872594968828e-14
7.709550581233912472e-14
8.548656616599820500e-14
9.279782773655119740e-14
9.808426811739061709e-14
1.002501107962415836e-13
9.838905795627696480e-14
9.131994873185085445e-14
8.012958145685305524e-14
6.663910331838889149e-14
5.455876015407324922e-14
4.630869221924424513e-14
3.988686226068704208e-14
3.065718372051550586e-14
2.126432199496545856e-14
1.711420385529265832e-14
1.185062770561645483e-14
8.767711386627391237e-15
5.948322785500157418e-15
4.190185186068247467e-15
2.920940006073894187e-15
2.034253795600233198e-15
1.426000347572506410e-15
1.010009772798255745e-15
7.284474081125428087e-16
5.357322614657645187e-16
4.014886322531782829e-16
3.058865705485434067e-16
2.355582382607678403e-16
1.820734236653385288e-16
1.402082851660108990e-16
