# bin_1_1
3.674803230549313256e-10
3.617080676611675699e-10
3.385944949008561811e-10
3.001006036551435842e-10
2.531104501699510360e-10
2.085051987863018308e-10
1.747563696801550395e-10
1.483931589179130376e-10
1.180424036355167234e-10
8.611002758284674615e-11
6.535170934352178524e-11
4.930167697142098647e-11
3.571049577042126909e-11
2.639881792463786534e-11
1.943433483013219527e-11
1.448702728997442999e-11
1.097549305794504379e-11
8.467741964347612050e-12
6.645518573550137094e-12
5.283451268088969392e-12
4.229246511303266335e-12
3.382968221921185957e-12
2.684626820212236838e-12
2.099740958799323436e-12
1.609538723747274238e-12
1.204033473223053533e-12
8.768141357310179592e-13
6.212302371087907305e-13
4.287900771382140988e-13
2.890629698867303683e-13
1.909366185962367058e-13
