# bin_14_14
3.222217697417132033e-11
3.692953553334004006e-11
4.177174571736818646e-11
4.645640000991930094e-11
5.059982632340177799e-11
5.369305383684405537e-11
5.512075282672675587e-11
5.441781686179634139e-11
5.085335738907100887e-11
4.490712009391446278e-11
3.751800763889910880e-11
3.068898946189711516e-11
2.592100913449843049e-11
2.241874059254555676e-11
1.753303362830265323e-11
1.209424685207260390e-11
9.631752968660314646e-12
6.808662422634626527e-12
4.924092198888354410e-12
3.304224090359034442e-12
2.317633078715800980e-12
1.574094669312905171e-12
1.057752723535738823e-12
7.092183612198459590e-13
4.746910884624920850e-13
3.199281794720538223e-13
2.181605123907641150e-13
1.512081073985302450e-13
1.070731210477886301e-13
7.761945202866700250e-14
5.755037290863888270e-14
