# bin_6_3
2.650612132204829737e-13
2.913199629127467610e-13
3.129087565376417743e-13
3.264691958185260346e-13
3.288441516382791789e-13
3.160908339450513147e-13
2.869185569268602038e-13
2.462851687918027028e-13
2.024938325454566186e-13
1.672024142451878310e-13
1.438338856790798966e-13
1.204636476395509723e-13
8.753312975814733664e-14
6.365231088187941944e-14
5.064468491119070340e-14
3.442439301071631993e-14
2.579864026466988599e-14
1.822883185174350457e-14
1.293242828899665541e-14
9.285580204528867487e-15
6.732179408114975627e-15
4.956414467145413328e-15
3.711771169671505451e-15
2.831348160254677909e-15
2.190445862334159233e-15
1.709313003538108621e-15
1.336673381786554855e-15
1.039941853924766764e-15
7.998192606885190634e-16
6.047887032695826722e-16
4.477088565244616108e-16
