# bin_8_6
8.860453749908587675e-12
9.934700070838460507e-12
1.093594621150790379e-11
1.176474078928032397e-11
1.229469008382490161e-11
1.240514139295647852e-11
1.194649967684808734e-11
1.086128222530832795e-11
9.331711230381745237e-12
7.679227236376591597e-12
6.338114361767012191e-12
5.457936782983613878e-12
4.586273777679678821e-12
3.328502684954807806e-12
2.406720248681249750e-12
1.923819280657990677e-12
1.287508821540931781e-12
9.645790913132935300e-13
6.718531397230903090e-13
4.670849903756567624e-13
3.279657143440640357e-13
2.311846531694968448e-13
1.648429785839857400e-13
1.192898058599963610e-13
8.806066089591782473e-14
6.621685520608386472e-14
5.058423545644234635e-14
3.906451240084842441e-14
3.028494872799575236e-14
2.339920725520790739e-14
1.789725930719286152e-14
