# bin_6_3
2.685433682509225774e-13
2.951893135986235195e-13
3.171153106986717274e-13
3.309151651000822639e-13
3.333891313000596332e-13
3.205165186683385239e-13
2.910128236857555145e-13
2.497466965056732296e-13
2.054937425232504652e-13
1.697323497717663269e-13
1.460351330514440438e-13
1.223132208203507298e-13
8.888349625553870195e-14
6.466517323514518134e-14
5.144648344567116513e-14
3.497839359259831231e-14
2.621333632841631435e-14
1.852585464074292024e-14
1.314430161838833343e-14
9.437833456477692606e-15
6.842685615917557217e-15
5.037848748951258963e-15
3.772824786555303533e-15
2.877965564941637026e-15
2.226545132727591843e-15
1.737530793369805045e-15
1.358792503635883263e-15
1.057203955219754342e-15
8.131432712125402874e-16
6.149032325899224544e-16
4.552255256680107876e-16
