# bin_14_6
6.578113394202576950e-20
7.488680823876793803e-20
8.399157936115523671e-20
9.245855533850420020e-20
9.943900698539645866e-20
1.038555334600213196e-19
1.047002780391003861e-19
1.006655892754408721e-19
9.134486853391695138e-20
7.831329598456750749e-20
6.438262007219314664e-20
5.320864646610931544e-20
4.591380810066730744e-20
3.846059610899758369e-20
2.768441162917863002e-20
2.012390487498816457e-20
1.601021520945125441e-20
1.062220870174777186e-20
7.891570844559399144e-21
5.449485864856917225e-21
3.711964196236430743e-21
2.538664735561971634e-21
1.730354548175440925e-21
1.185522044412021415e-21
8.190889588635597085e-22
5.752764684254998659e-22
4.115903102689177731e-22
3.007748900638640643e-22
2.243927216204931164e-22
1.702747671887100301e-22
1.305994102305604041e-22
