# bin_5_3
6.517003169802814532e-12
7.110010022151779183e-12
7.567149280501567862e-12
7.804518122479464026e-12
7.753084144067385412e-12
7.312390520327716764e-12
6.516290051443207544e-12
5.493959480723619549e-12
4.499770593115552531e-12
3.766037946240561055e-12
3.252005037106498668e-12
2.615931029472135349e-12
1.840994029607791947e-12
1.418029776248665928e-12
1.064512691888325639e-12
7.528594539386509512e-13
5.423557380950249686e-13
3.924692204408005366e-13
2.809624687836706107e-13
2.031750641036659445e-13
1.491382444525186323e-13
1.113449695693440040e-13
8.463222254793794323e-14
6.537369607783936084e-14
5.104094037237903625e-14
4.003107994726338834e-14
3.131843660139149696e-14
2.427432311159405420e-14
1.853034668100456551e-14
1.386493464478559334e-14
1.013100599836688167e-14
