# bin_14_10
5.779853251657172056e-13
6.601361869832575578e-13
7.435142490427295439e-13
8.226462406185580324e-13
8.903420035081788636e-13
9.372979633105969033e-13
9.533909750672934422e-13
9.288895271028488411e-13
8.546624140395506307e-13
7.432885499127180338e-13
6.150236910459050271e-13
5.048121248140217493e-13
4.318406098292553958e-13
3.692969599626546367e-13
2.761757717430336663e-13
1.933473335047327945e-13
1.570565111622767082e-13
1.046973308703669977e-13
7.877939386130053351e-14
5.308885796548148024e-14
3.626816328872035465e-14
2.483229687974490427e-14
1.686588823723688248e-14
1.142661085556520814e-14
7.764516178536649704e-15
5.345053388017156829e-15
3.738667764565441056e-15
2.667876224545788253e-15
1.946967583499300402e-15
1.451363478456033691e-15
1.100431449073409257e-15
