# bin_14_12
1.270679914514971930e-11
1.453768600199972300e-11
1.640906301874369303e-11
1.820249242221129234e-11
1.976319976898148345e-11
2.088835384250515532e-11
2.134335804732702939e-11
2.093277037102392343e-11
1.940620980538519807e-11
1.700556058666074088e-11
1.413355314691358223e-11
1.157679973630593728e-11
9.846641023915292296e-12
8.479482786763840079e-12
6.478635300025200394e-12
4.488654668572685609e-12
3.628736314779333778e-12
2.475743863365589903e-12
1.839529769997273259e-12
1.229655784942745312e-12
8.495779200331059771e-13
5.801706251325747753e-13
3.927226198259824588e-13
2.647075873207752055e-13
1.784813662937982127e-13
1.215991467292458376e-13
8.401838287555994275e-14
5.913734920179376729e-14
4.256665205589179738e-14
3.134299694012488186e-14
2.354321332536333159e-14
