# bin_6_4
7.307922376403454468e-12
8.068763833762349098e-12
8.715776682580206338e-12
9.158220982393708956e-12
9.299965749469456507e-12
9.043626414199052663e-12
8.310445789790877501e-12
7.219081653163284182e-12
5.973474448297094153e-12
4.906182031371930950e-12
4.191805096246416430e-12
3.572117401736717843e-12
2.676997467528019527e-12
1.892178961971843087e-12
1.525879828238054505e-12
1.043632949867816855e-12
7.848797057914338845e-13
5.456356046687203371e-13
3.880997517350431309e-13
2.776544296170974744e-13
1.999483033437800593e-13
1.459171220727441825e-13
1.082008679891657249e-13
8.178530442525443913e-14
6.281471835997022715e-14
4.878384574968622748e-14
3.808109846741728808e-14
2.966255029038836246e-14
2.290062944617182294e-14
1.742052546905323904e-14
1.299686012273430423e-14
