# bin_9_1
2.991872827037593196e-27
3.333851347427241132e-27
3.642086374574444509e-27
3.881308149786027436e-27
4.007961536069117813e-27
3.987366306401389303e-27
3.765679640863573766e-27
3.359334592717822565e-27
2.833417219833418916e-27
2.319815532707374606e-27
1.941007776019232214e-27
1.679394306002843669e-27
1.353974675273472882e-27
9.472755361915384223e-28
7.294641179119290459e-28
5.466254021790212964e-28
3.828460604577036350e-28
2.723440223643883884e-28
1.954081123742831095e-28
1.373068875967168381e-28
9.695355428353117586e-29
6.929493173026757730e-29
5.024950439496664035e-29
3.709341579256891634e-29
2.790873331284845683e-29
2.133561810245390930e-29
1.650166112738147295e-29
1.282869692112205192e-29
9.952494524689088199e-30
7.652514583586892719e-30
5.798333280230319214e-30
