# bin_4_4
1.030181616204955018e-10
1.122599805588423527e-10
1.193032188428730566e-10
1.228278502156062200e-10
1.217388429400638843e-10
1.144903616862260040e-10
1.017461993625638678e-10
8.559239897497560918e-11
7.009975789341070648e-11
5.879658849077525427e-11
5.073459702977938074e-11
4.052537294730120764e-11
2.848423088487823469e-11
2.208894623323071825e-11
1.641998817787290848e-11
1.170440964081139665e-11
8.392599325627747708e-12
6.078242795462611578e-12
4.359404811175666204e-12
3.157822887712464671e-12
2.322487840368206866e-12
1.737350659783655839e-12
1.323147047947436113e-12
1.023658155881756042e-12
8.000563342521171604e-13
6.277456000092357164e-13
4.910138142329974293e-13
3.802789316175108433e-13
2.899260534620868545e-13
2.165682765159980959e-13
1.579335059798795555e-13
