# bin_15_13
1.443147309743712413e-11
1.654283334041794707e-11
1.871597595518993439e-11
2.082025559116035808e-11
2.268397519281354541e-11
2.407910824982519971e-11
2.472956750252466245e-11
2.442576839756079616e-11
2.283874487329730573e-11
2.017845351464235449e-11
1.686981211272029338e-11
1.380263896003992088e-11
1.165788462280687383e-11
1.008502073084018249e-11
7.895553489312068995e-12
5.447976677174558951e-12
4.336345757319360325e-12
3.070072367959893495e-12
2.218293352373719317e-12
1.489398022572250717e-12
1.045214850709073235e-12
7.098865797756673477e-13
4.769482211354548777e-13
3.197614381141475911e-13
2.139795804393001671e-13
1.441687937509100461e-13
9.826435633665305626e-14
6.806853247985181372e-14
4.816956089609051102e-14
3.489673836247059425e-14
2.585941364776600548e-14
