# bin_13_7
4.150387710244731570e-16
4.720101356109405535e-16
5.287000605756972596e-16
5.810621540669477712e-16
6.236858961895057409e-16
6.497315866002670798e-16
6.531188979812313344e-16
6.253263291329757160e-16
5.650956978713467434e-16
4.824390480869448370e-16
3.960384787967609628e-16
3.281989089417547682e-16
2.837160417572438987e-16
2.357654077467731661e-16
1.679911569754006526e-16
1.238541880318223543e-16
9.727449838804734972e-17
6.500887732698760582e-17
4.773271159761400434e-17
3.323009397214455099e-17
2.267414921344327623e-17
1.550023474372174393e-17
1.059028721009038536e-17
7.283928849922910476e-18
5.059488303108561184e-18
3.575178302004949785e-18
2.574822049238904674e-18
1.893926763493381842e-18
1.420939612208035320e-18
1.082656284566663254e-18
8.321637230222183012e-19
