# bin_12_10
1.250129276385593150e-11
1.423916018899745640e-11
1.598113958323558351e-11
1.760661194122475284e-11
1.895515510859239655e-11
1.982263172702694360e-11
2.001313173468670316e-11
1.928314237820165337e-11
1.753523271360785065e-11
1.506683139943012015e-11
1.239719437055612292e-11
1.023219993230998321e-11
8.819603325706091956e-12
7.416404383989564521e-12
5.368314244210454853e-12
3.874826960356319662e-12
3.100514011291366721e-12
2.051938952937284063e-12
1.531982789267993036e-12
1.053569970099215696e-12
7.171890215454185458e-13
4.906556828948131884e-13
3.341151792551670031e-13
2.284723766397679725e-13
1.574231297919028140e-13
1.102149229453537072e-13
7.858160489320755684e-14
5.722296041695295375e-14
4.255877747041442152e-14
3.221925712413420088e-14
2.467915599883582353e-14
