# bin_11_5
2.622325991981423264e-17
2.961954576524074244e-17
3.289513959308734780e-17
3.577720792821565456e-17
3.790515875468699133e-17
3.885057357446254855e-17
3.827367433241470138e-17
3.568466467596317379e-17
3.144414433376737314e-17
2.624266533083481598e-17
2.147818152864535372e-17
1.817212482073979399e-17
1.569251201343518156e-17
1.220906236801337373e-17
8.452041272988979555e-18
6.753438790276538219e-18
4.756332494758047205e-18
3.474206187997183759e-18
2.361610770996215893e-18
1.672408779617512882e-18
1.162221610189159137e-18
8.063175173582051603e-19
5.633303360431900545e-19
3.973823610091568717e-19
2.852024496315412905e-19
2.087149873022995709e-19
1.556996856405062138e-19
1.181963299061390236e-19
9.081789150179674587e-20
7.014987424664690591e-20
5.406477064061153434e-20
