# bin_10_2
3.170238170969533630e-25
3.554466807234689470e-25
3.912517147608714173e-25
4.208795000980147539e-25
4.398067810631912273e-25
4.437219228214194559e-25
4.272674770043065940e-25
3.884125733871058120e-25
3.336767802175267124e-25
2.745797607654643703e-25
2.266445861975603609e-25
1.951777929183344637e-25
1.639691933262030951e-25
1.189731544955068303e-25
8.605988924095076113e-26
6.876420958238737647e-26
4.603448223010063372e-26
3.447500897135856484e-26
2.401814434496981282e-26
1.669951406058603456e-26
1.172552467918143214e-26
8.265903577649451438e-27
5.894448258503038628e-27
4.266052688441207745e-27
3.149582903553240016e-27
2.368549470167242473e-27
1.809513852053337921e-27
1.397484789931709538e-27
1.083412084209071213e-27
8.370574694800443204e-28
6.402004007770487263e-28
