# bin_11_13
2.756253341325589046e-08
3.135182124818751016e-08
3.512686041438068317e-08
3.861915386609949583e-08
4.147077324236549279e-08
4.322904836234574429e-08
4.348397401115100259e-08
4.168297223890950845e-08
3.771152753497233642e-08
3.225448665235634899e-08
2.647651630421031866e-08
2.191705331130685332e-08
1.892417899834654742e-08
1.576043865380507900e-08
1.128071228537352888e-08
8.272517674943259102e-09
6.517887573735021818e-09
4.353009403198668406e-09
3.204372282713778163e-09
2.223027217151363624e-09
1.516346646563716588e-09
1.037018155704715028e-09
7.082136543624523260e-10
4.864306603190058096e-10
3.372157765407839991e-10
2.377523483172662787e-10
1.708125548810815789e-10
1.253323812439893226e-10
9.382418614234656964e-11
7.136293216104900118e-11
5.479067879607067546e-11
