# bin_15_10
1.198918212670302153e-12
1.370329461341943074e-12
1.544866346960259048e-12
1.711243035603004066e-12
1.854702854040838475e-12
1.956044531558656512e-12
1.993672262282372355e-12
1.948517622218239364e-12
1.799134941660698136e-12
1.570711735161244836e-12
1.301460727648245999e-12
1.066758875358247912e-12
9.098230756371996952e-13
7.809236134905123660e-13
5.901902227074065919e-13
4.105678953406709254e-13
3.330371846638306823e-13
2.242518661207231668e-13
1.678913620311886059e-13
1.125746995551876453e-13
7.726993752903450872e-14
5.285247922484773509e-14
3.584705800513745302e-14
2.422152146370137059e-14
1.639247981413806781e-14
1.122525659914074936e-14
7.803641966752876119e-15
5.530943075124268605e-15
4.009384042001143438e-15
2.971212951515990563e-15
2.242949334443327298e-15
