# bin_2_6
3.628016430862383538e-07
3.755846100191531877e-07
3.748526392260472482e-07
3.568505555559923975e-07
3.216321247148883207e-07
2.749983596196001975e-07
2.271314888030320680e-07
1.888324041559972798e-07
1.607782715027311429e-07
1.315898846519140425e-07
9.741305579925811967e-08
7.228236778554934638e-08
5.545738861920369905e-08
3.987470231855268253e-08
2.935131633193040165e-08
2.132022672555475850e-08
1.565803886490312479e-08
1.162864910882855832e-08
8.776542920425835217e-09
6.742204302954102541e-09
5.262018575995656575e-09
4.155596902237168537e-09
3.298824492806246968e-09
2.613542515914060828e-09
2.052414817691930670e-09
1.587571374295161212e-09
1.203267643179229967e-09
8.901872491260321455e-10
6.413568815585205681e-10
4.498629072228628158e-10
3.076144565279473781e-10
