# bin_14_2
4.984280695973925018e-34
5.662704450512757669e-34
6.334663808120923617e-34
6.951205472360549997e-34
7.446822176544896036e-34
7.739071041574545844e-34
7.757751243249088112e-34
7.399225041799668262e-34
6.661150542770249628e-34
5.668159458388373153e-34
4.645193580567338693e-34
3.858178553003068725e-34
3.338198942522284943e-34
2.752855722460542655e-34
1.946618092350788121e-34
1.452336025379080252e-34
1.126187427023657077e-34
7.591470112842008237e-35
5.506727030559625935e-35
3.858364092675970498e-35
2.637387742894047931e-35
1.803006057020999831e-35
1.235081851074707081e-35
8.523242488678590694e-36
5.946886721251689473e-36
4.223482083469998327e-36
3.058084002711510841e-36
2.261050092805066996e-36
1.703658581060111202e-36
1.301840459744936823e-36
1.001893333553666035e-36
