# bin_7_14
1.199017367879325526e-07
1.342943882251238899e-07
1.476373168725261990e-07
1.585757062483850223e-07
1.653956332545343003e-07
1.665028299205184624e-07
1.598789796892483133e-07
1.449687919935539395e-07
1.242997751552924785e-07
1.021904981631167185e-07
8.449928025564889446e-08
7.275197863171692209e-08
6.074353144396156982e-08
4.395451100020075854e-08
3.206110809654888477e-08
2.532142546886391642e-08
1.713706257667256370e-08
1.269475135981201792e-08
8.874463178248017897e-09
6.188239167691217676e-09
4.346640486232092744e-09
3.069567855058865314e-09
2.193179169609214126e-09
1.590910857897177579e-09
1.177024887084346542e-09
8.867307890663926766e-10
6.782699425632963547e-10
5.240682888726684893e-10
4.061621273960907475e-10
3.134934175245296209e-10
2.394035361889812961e-10
