# bin_1_8
6.906766489381848145e-07
6.767201534684856247e-07
6.316381064293947451e-07
5.595239139926705515e-07
4.736554960653859551e-07
3.924112098921376597e-07
3.282690457357672194e-07
2.753557999303660665e-07
2.190102290975207401e-07
1.628985698384251933e-07
1.222085376375783429e-07
9.217962160131736855e-08
6.726091779455004394e-08
4.960261493105439394e-08
3.657061361640460583e-08
2.729682653354692728e-08
2.068274614678007204e-08
1.595056294472274370e-08
1.250607839992176175e-08
9.928059032232058955e-09
7.932177751526911623e-09
6.332206160246466995e-09
5.015048758048311416e-09
3.915506185114501773e-09
2.997516330195958460e-09
2.241038267082966899e-09
1.632397088675498273e-09
1.157743337026857037e-09
8.003087121599609428e-10
5.404430373393270766e-10
3.575822101663388259e-10
