# bin_11_4
2.915208686555051520e-19
3.287064733230831958e-19
3.642991405371851246e-19
3.952109596041432671e-19
4.174026303542381245e-19
4.262369209039165588e-19
4.177932599817505699e-19
3.871979299611219088e-19
3.392648979079749795e-19
2.818671543853366498e-19
2.308379526407072843e-19
1.961608251773188141e-19
1.687765909643164736e-19
1.291797159835708384e-19
8.972066617602291546e-20
7.234737760949833362e-20
4.983311830549683423e-20
3.700898623285786820e-20
2.511626243770198275e-20
1.765905468189811010e-20
1.232240576814248343e-20
8.592364901621737513e-21
6.030329912924932289e-21
4.277400610962455215e-21
3.090269070641478819e-21
2.276590069114668563e-21
1.708768387568033104e-21
1.303431381364925300e-21
1.004460329401038641e-21
7.765246432777284621e-22
5.977738341630636354e-22
