# bin_15_2
3.644732590572810402e-36
4.150349375012407278e-36
4.656661029077092979e-36
5.128433834516390317e-36
5.518853106260073464e-36
5.768434882192873102e-36
5.820392526599321293e-36
5.603974719546758610e-36
5.091874287906998794e-36
4.374177697156217893e-36
3.595453417925173890e-36
2.967662934851484481e-36
2.558076439999305875e-36
2.148649037527563640e-36
1.553257452996664886e-36
1.122670335099724003e-36
8.967307243825322825e-37
5.940105856269505647e-37
4.427350774292358131e-37
3.046888943908553033e-37
2.074452300509683118e-37
1.419017228090284055e-37
9.665558532258403934e-38
6.612114308351351607e-38
4.558584732841253861e-38
3.193779158159464667e-38
2.278920267483724704e-38
1.660826738419618129e-38
1.236071591064851113e-38
9.362317196879059009e-39
7.172986732940752772e-39
