# bin_5_10
1.518550320306833872e-07
1.673315531302070418e-07
1.803120456563896913e-07
1.888992369508510347e-07
1.911772761016490761e-07
1.850510620341508005e-07
1.693105173557284216e-07
1.465050328111980116e-07
1.210341615176383500e-07
9.967408773374175551e-08
8.524681944052902531e-08
7.201331804935132894e-08
5.356430393616180686e-08
3.838552380034842252e-08
3.052394263291427175e-08
2.108162735143723883e-08
1.566966201171969888e-08
1.099424572506883305e-08
7.831088159721320955e-09
5.603329599872603227e-09
4.041936524677428442e-09
2.957703136829711767e-09
2.200118744806339380e-09
1.667419850051525464e-09
1.283180182758075641e-09
9.976201987372190209e-10
7.787527331361536380e-10
6.060007649888218658e-10
4.670063513934143809e-10
3.543768174732360639e-10
2.636057306763658237e-10
