# bin_9_6
2.323344314232310052e-11
2.610075722231296110e-11
2.879909984607804819e-11
3.107272431754828264e-11
3.259396986569510894e-11
3.302570577920825049e-11
3.200636334973844660e-11
2.928916573644407492e-11
2.534517101309825890e-11
2.090413278425041783e-11
1.718950019803184321e-11
1.474069521065026991e-11
1.251445223747731951e-11
9.246983995044567070e-12
6.561218609811394613e-12
5.300007912878210319e-12
3.549306120412870452e-12
2.674670297200133096e-12
1.840327002531179116e-12
1.280022653557100138e-12
8.979356915835459665e-13
6.308877349471237878e-13
4.472805349122054857e-13
3.213600674390543831e-13
2.354893218250392821e-13
1.758756821514626178e-13
1.336019334342062637e-13
1.027979256292493681e-13
7.957796964410629839e-14
6.152964614135118122e-14
4.718586487890307810e-14
