# bin_15_7
3.293118200095692873e-18
3.756669057119972857e-18
4.224726565957162288e-18
4.665830321360731612e-18
5.038499458779222073e-18
5.289493554831823660e-18
5.363494118678756630e-18
5.201971788557867114e-18
4.762572134129479089e-18
4.122977446493621446e-18
3.400296024683840167e-18
2.795477812454214117e-18
2.398762544256974669e-18
2.039027906094897154e-18
1.504591093821598887e-18
1.063812627751481234e-18
8.618227126923302162e-19
5.702949429774821068e-19
4.293979402593409304e-19
2.915037739771423192e-19
1.984758807146005760e-19
1.359044332710571937e-19
9.237849363862427380e-20
6.280096469275695475e-20
4.289962232499971797e-20
2.972804567244230594e-20
2.095361557801293415e-20
1.507678400291494382e-20
1.109074316864647862e-20
8.323292427798645377e-21
6.340357801514096550e-21
