# bin_13_13
6.843052919800099026e-09
7.813846286172546461e-09
8.798257055916704288e-09
9.731374633131870633e-09
1.052798297241951991e-08
1.107796886272310075e-08
1.126214711417671676e-08
1.096542380351029844e-08
1.008223882417695463e-08
8.765638424888644792e-09
7.246020573621800822e-09
5.947732168004899965e-09
5.088156305535620866e-09
4.347114374014523947e-09
3.247010697509956146e-09
2.275909165861888857e-09
1.846076990367651725e-09
1.231540775808499264e-09
9.252874816339575330e-10
6.240354434051559953e-10
4.264501101645738743e-10
2.918982536905491819e-10
1.982208854194820572e-10
1.343340363077121377e-10
9.132699077452136781e-11
6.290623835097531118e-11
4.403202337320851860e-11
3.144486095846498502e-11
2.296425388855769202e-11
1.712814291303253490e-11
1.299075193499754607e-11
