# bin_3_15
3.711111700437397241e-07
3.965775004470439838e-07
4.113802730009741998e-07
4.115199281316163454e-07
3.924147380932924598e-07
3.538832573102915139e-07
3.022701367321851626e-07
2.489278568528616434e-07
2.067443089487346783e-07
1.770243039161822535e-07
1.454953662542339458e-07
1.063126989526126893e-07
7.885272851471360341e-08
6.089346385677189393e-08
4.304236369401396623e-08
3.171670069113809739e-08
2.279085676907502504e-08
1.652563756328500833e-08
1.210376886167480598e-08
8.991172953223080091e-09
6.795018049620100523e-09
5.222713141006649418e-09
4.073411795634499779e-09
3.204802449974053301e-09
2.526425625668431607e-09
1.981936174872832048e-09
1.536943834702092238e-09
1.171521420257339219e-09
8.737466865457052871e-10
6.355570963808284265e-10
4.502167828587187741e-10
