# bin_4_4
2.603783173124806674e-08
2.814352024552314353e-08
2.960772293030176543e-08
3.011960427076117603e-08
2.937500420394198017e-08
2.710888927412221788e-08
2.365880590605017069e-08
1.964519090512087452e-08
1.612851023984016265e-08
1.370536727406969991e-08
1.168326040422442438e-08
8.906558561300877686e-09
6.315732935183622940e-09
5.018114491484916687e-09
3.548814469756801589e-09
2.625201805315964040e-09
1.859383027578316569e-09
1.345861134403590301e-09
9.756650828616127234e-10
7.148546061426289452e-10
5.323596734164001574e-10
4.032740621315412848e-10
3.108045622241314489e-10
2.426287478866830748e-10
1.906625662155084786e-10
1.498147103937660851e-10
1.168848488806673985e-10
8.997919224728127029e-11
6.798341742620767567e-11
5.020330936109705211e-11
3.613568280624718441e-11
