# bin_8_2
1.861485650500857985e-19
2.064520947430820202e-19
2.242440342441233538e-19
2.372689785353470144e-19
2.428878254761904698e-19
2.389256212338721074e-19
2.224676723203858257e-19
1.958098371075775776e-19
1.632948328428705639e-19
1.336502269894523606e-19
1.130388003530498162e-19
9.741304918721256353e-20
7.571476439594101057e-20
5.268881167382046553e-20
4.200660853462435404e-20
2.979970148478504570e-20
2.184045861080676484e-20
1.513766937358799085e-20
1.086250621162645349e-20
7.711720778093425540e-21
5.501034182656071694e-21
3.974696373143133904e-21
2.915111179708880540e-21
2.178993363641525261e-21
1.657885225300414562e-21
1.278722819136192969e-21
9.945753405556484525e-22
7.745878124444777670e-22
5.998107076024610472e-22
4.588729375259586093e-22
3.450494656189294843e-22
