# bin_3_11
3.289557050829700399e-07
3.514306694731413902e-07
3.644219331014081088e-07
3.643904964381389045e-07
3.472776119974948901e-07
3.129967115979596706e-07
2.672042093284651151e-07
2.200113031904309906e-07
1.827855054178120086e-07
1.565283394230944090e-07
1.285201213718483416e-07
9.381894778950567979e-08
6.966566122720153778e-08
5.375271778378234755e-08
3.800092871496133424e-08
2.799699443864368192e-08
2.012449013537917105e-08
1.459390726418258491e-08
1.069193619725125093e-08
7.945276052603979944e-09
6.006863695084320409e-09
4.618616680653733677e-09
3.603298075869557036e-09
2.835453770871023054e-09
2.235405929955871675e-09
1.753542093050364508e-09
1.359607387005744919e-09
1.036080543945583001e-09
7.724726345743342769e-10
5.616723596364874693e-10
3.977145056672932937e-10
