# bin_12_5
2.979927153785451885e-18
3.373552805638994294e-18
3.757079818330788881e-18
4.100301739470794592e-18
4.362875333111828355e-18
4.495186306717220090e-18
4.459425913726522108e-18
4.194254783693949700e-18
3.726518165508123019e-18
3.130712807405493743e-18
2.560798587574174128e-18
2.150274884169756687e-18
1.861870870749060707e-18
1.484578439373187016e-18
1.029369248350053387e-18
8.039624171587956012e-19
5.887928513412673054e-19
4.159042616977381727e-19
2.875671790598042262e-19
2.046863636898353651e-19
1.412048156121327334e-19
9.712497906712271906e-20
6.733441245160309377e-20
4.709182157470618858e-20
3.343336402609963830e-20
2.419502314904863728e-20
1.785690374976567418e-20
1.343478418513065446e-20
1.025980788822728936e-20
7.903276473093992313e-21
6.095179762502660543e-21
