# bin_5_8
1.106495454046712929e-07
1.218572616152516963e-07
1.312177857732686778e-07
1.373451290690462693e-07
1.388573881715741618e-07
1.342110527527044068e-07
1.225975413645495070e-07
1.059157378326748314e-07
8.742519905264414082e-08
7.203971107216042992e-08
6.167327669005965770e-08
5.199811475519961051e-08
3.851718381922589007e-08
2.768011908174655938e-08
2.200176630577673231e-08
1.516166187029400211e-08
1.128220738438861002e-08
7.922789316841053041e-09
5.641226269645641304e-09
4.039537992001345533e-09
2.917028667706221830e-09
2.137167919426836847e-09
1.591879992662620405e-09
1.207996372033337255e-09
9.305927175105953015e-10
7.240157023261619797e-10
5.653553140786900754e-10
4.399065733880829919e-10
3.388590277086937048e-10
2.569439491712968702e-10
1.909392798580429466e-10
