# bin_6_3
4.626345373923455662e-12
5.075914348066979493e-12
5.440451786664064247e-12
5.660939740984868057e-12
5.684313608083299114e-12
5.439807335931308614e-12
4.916096716871348377e-12
4.201393666088879221e-12
3.449256561961693457e-12
2.855925243619743096e-12
2.460987283294968031e-12
2.044207485864260834e-12
1.471178926404650204e-12
1.084001300533237225e-12
8.531952871118213096e-13
5.830899126042673101e-13
4.337037109491532617e-13
3.085427229823994774e-13
2.191531649100544680e-13
1.575377669723203048e-13
1.145181236868851884e-13
8.458854698045086442e-14
6.357455482282687154e-14
4.864723280120113790e-14
3.772503961320800920e-14
2.948067854267272258e-14
2.306126475070146407e-14
1.792909839294215978e-14
1.376693641874323756e-14
1.038530791687614662e-14
7.665010735272075119e-15
