# bin_3_12
3.423983495450657432e-07
3.658271727151386406e-07
3.793960472922750478e-07
3.794191121094970082e-07
3.616708504303900351e-07
3.260344695441279041e-07
2.783858576978233286e-07
2.292320577547310184e-07
1.904253829996479246e-07
1.630640087260379563e-07
1.339330654840257643e-07
9.780283600816524510e-08
7.259518006707004112e-08
5.602969110879427846e-08
3.960850496419107191e-08
2.918310081402300072e-08
2.097471894283374372e-08
1.520988268963812606e-08
1.114213184487329466e-08
8.278785605282719862e-09
6.258186578800134757e-09
4.811248650994631634e-09
3.753206500282855475e-09
2.953230722122856108e-09
2.328205582653434027e-09
1.826371803329344814e-09
1.416155889260860864e-09
1.079269417294645048e-09
8.047664269864142716e-10
5.852322985795469063e-10
4.144560720502133692e-10
