# bin_9_9
7.281483778043499321e-08
6.870419286411183070e-08
6.321342415767338433e-08
5.662098366951201953e-08
4.934121505851905518e-08
4.187495148447343495e-08
3.472341449003164718e-08
2.827126859698062708e-08
2.269527080345900399e-08
1.796957747729361501e-08
1.396831297906320861e-08
1.062091708248621870e-08
7.954461646898001938e-09
5.952194655491312252e-09
4.455259861426604463e-09
3.324224065141093993e-09
2.498151531239375148e-09
1.888878448740813267e-09
1.439743230666982352e-09
1.104533851485545757e-09
8.510732604740920372e-10
6.564427316069328821e-10
5.049311867106883350e-10
3.858737071945471241e-10
2.919509623341676649e-10
2.180421231369855507e-10
1.603690232110325370e-10
1.159583362270016392e-10
8.234071115761814148e-11
5.739351708160988104e-11
3.927451262704062906e-11
