# bin_7_1
2.225750007410758352e-08
1.898029381514115026e-08
1.580713149901460729e-08
1.291911033154458742e-08
1.040990397323518600e-08
8.278595418778248238e-09
6.472980437383815504e-09
4.960404659832300742e-09
3.750375689553511542e-09
2.834912555520490985e-09
2.150272387781284831e-09
1.634856582440198258e-09
1.253957489005724216e-09
9.715764680645217134e-10
7.598841522509095578e-10
5.986095123223064189e-10
4.731857886024881352e-10
3.736374185666459236e-10
2.933455266891835081e-10
2.279988184028912846e-10
1.747679272202356037e-10
1.317122570232845469e-10
9.736960952378015626e-11
7.050223108005356139e-11
4.996691766298756842e-11
3.466997339852573705e-11
2.357486746459604401e-11
1.573559439937628170e-11
1.033141014361744651e-11
6.687561404235744966e-12
4.277563396521647509e-12
