# bin_4_3
3.525294209489414610e-08
3.126520294357856387e-08
2.699075820997320313e-08
2.271747227054445991e-08
1.871391863750585315e-08
1.516263442949452510e-08
1.212482701386482968e-08
9.559160017831622940e-09
7.395485103281634929e-09
5.611875931025290914e-09
4.223077110604025077e-09
3.189191825485931375e-09
2.410718647829871923e-09
1.827886719425313427e-09
1.399891043757192784e-09
1.081009340304132731e-09
8.418013950806402235e-10
6.591403009774320287e-10
5.170503774237295682e-10
4.045872055456540897e-10
3.144461093039851334e-10
2.417764856702809142e-10
1.832850984497526735e-10
1.366157268099560146e-10
9.992234321134379775e-11
7.162478658682651326e-11
5.029106095164063693e-11
3.459894472504857050e-11
2.334576027293877722e-11
1.547468508108408158e-11
1.009664442359313563e-11
