# bin_8_8
6.741517613676405891e-08
6.318311884815403037e-08
5.771793885624572873e-08
5.131645363028050148e-08
4.439370723849806401e-08
3.742721679941643849e-08
3.086834585476297290e-08
2.503043709606121259e-08
2.002476921631913349e-08
1.578919715726518269e-08
1.220651453018826133e-08
9.237861589813466260e-09
6.914243513590856823e-09
5.183580873524832846e-09
3.881251823755971411e-09
2.904570732198841051e-09
2.192224367237207585e-09
1.665013120101868186e-09
1.274940050807101382e-09
9.821810225507557703e-10
7.591717263677650708e-10
5.866509334204860720e-10
4.514666795772488128e-10
3.447036189285081864e-10
2.602298899660431150e-10
1.937062149767188870e-10
1.418606425641021882e-10
1.020582142112148541e-10
7.206439426017913890e-11
4.993202662999472829e-11
3.396129359498514184e-11
