# bin_9_3
4.315495534532126442e-08
3.878565411360432647e-08
3.390445176168790452e-08
2.884704951002612491e-08
2.396591496565583853e-08
1.954393657140810423e-08
1.572142928895315693e-08
1.248566527982134018e-08
9.740289009055547522e-09
7.430435728635399771e-09
5.586703265467780685e-09
4.207030195849243007e-09
3.173647105816639357e-09
2.392150699649179128e-09
1.820137514218783205e-09
1.396182006762991101e-09
1.080954616235594069e-09
8.428726967567724062e-10
6.598760821730732746e-10
5.165654621585092446e-10
4.025775212063092664e-10
3.110380607687987065e-10
2.373428203366889571e-10
1.783119684932836795e-10
1.315767861356719852e-10
9.520101186396539927e-11
6.747986649482264395e-11
4.685146462167379671e-11
3.188331206920899635e-11
2.129485607995975330e-11
1.398494621514844969e-11
