# bin_13_8
7.767692466720843845e-08
7.367848896283987722e-08
6.816358466158863649e-08
6.139446364683493576e-08
5.378632239625663670e-08
4.586336084994736337e-08
3.817491585984369730e-08
3.117110107619094855e-08
2.508616296313435950e-08
1.992300460296100941e-08
1.554441594431757310e-08
1.185333388392567632e-08
8.879572382587183172e-09
6.637890137908787655e-09
4.967249395973702505e-09
3.698397702863067376e-09
2.771907153162144099e-09
2.089581314042885341e-09
1.587999132331723452e-09
1.215054987418419100e-09
9.344211855832226856e-10
7.199763339986839507e-10
5.537548116974061517e-10
4.235554503599678378e-10
3.210198343604007717e-10
2.403475568927110630e-10
1.773195880397490360e-10
1.286671107803034397e-10
9.171359563379967943e-11
6.417878929555819583e-11
4.408995949430827258e-11
