# bin_14_14
9.497398179829207531e-08
9.174222617724494082e-08
8.658067739510655757e-08
7.965812968568222588e-08
7.133394223319826537e-08
6.214027683520309440e-08
5.271734482794800982e-08
4.370076699238894959e-08
3.557219342399461163e-08
2.854607607376087384e-08
2.258269404325714496e-08
1.752439344672833439e-08
1.329127452878410475e-08
9.923781134452901110e-09
7.396107665923223573e-09
5.503554464845792049e-09
4.075813338725504721e-09
3.036205440855445123e-09
2.272305930799306538e-09
1.713107008710896101e-09
1.299573638763838310e-09
9.905006127385163207e-10
7.563494365136551609e-10
5.766900716683177293e-10
4.375271208291955003e-10
3.291921879632542840e-10
2.449246149939167078e-10
1.797841688942003373e-10
1.299708638160762867e-10
9.243069837327264434e-11
6.462634428211344742e-11
