# bin_3_3
3.159074618159965508e-08
2.778588221336668644e-08
2.379866854594976600e-08
1.989394070890109399e-08
1.630018605800385681e-08
1.315274114920028816e-08
1.047652066164912204e-08
8.218320103983083760e-09
6.322147682129451309e-09
4.781780913326312161e-09
3.602454842060500863e-09
2.725558978694299798e-09
2.063075952097946160e-09
1.571166307699734552e-09
1.208332696353382889e-09
9.372844530310377796e-10
7.325647868781178373e-10
5.750787983378466026e-10
4.516017738046550166e-10
3.532052316905856487e-10
2.739675827002474196e-10
2.099487006615577365e-10
1.584437272941314257e-10
1.174637413377840970e-10
8.539584939485615024e-11
6.081945155192087312e-11
4.242599532753746386e-11
2.900314733323323897e-11
1.945459586010414038e-11
1.282755790995726894e-11
8.331708875501740380e-12
