# bin_11_1
1.699005879284283002e-32
1.911231678054614906e-32
2.112212858352931014e-32
2.283494580320216350e-32
2.401268660745340234e-32
2.439949944872081894e-32
2.374476896255578717e-32
2.182724040312904997e-32
1.897333192022023380e-32
1.568609693744957793e-32
1.287591192573970355e-32
1.100798926313927230e-32
9.397975824238314127e-33
7.031076017653109497e-33
4.941415146259753596e-33
4.000860873394651190e-33
2.696675777406904893e-33
2.028842735433252900e-33
1.386871229819353950e-33
9.670647055675836146e-34
6.775355317962906875e-34
4.749494091478948542e-34
3.354966017259851916e-34
2.399263468316893830e-34
1.749410559978607257e-34
1.300387288170909684e-34
9.838352075836578391e-35
7.548698107984211468e-35
5.835805679655363770e-35
4.513058993310661540e-35
3.466280463109238608e-35
