# bin_12_7
9.410890096044192450e-15
1.068096181544450378e-14
1.193286147292030010e-14
1.307343151853401446e-14
1.397781052502441025e-14
1.448951834268234315e-14
1.448151718527008941e-14
1.375523336260260463e-14
1.233444752507190579e-14
1.045380707633424847e-14
8.559397505255870845e-15
7.131047521577132762e-15
6.175514207775769671e-15
5.046636596727088008e-15
3.540415386934240882e-15
2.679227838195293667e-15
2.045481497408039315e-15
1.394905055549916439e-15
9.970441029759300166e-16
7.036885215303086788e-16
4.821496379419293666e-16
3.297985069444837336e-16
2.266643110587139330e-16
1.570420324227350312e-16
1.101456550334104099e-16
7.867782076750663929e-17
5.731140745592374677e-17
4.261539827873464233e-17
3.225763924866860286e-17
2.472370141275953552e-17
1.904975718061616259e-17
