# bin_14_9
4.172666567740951652e-14
4.761078198614812924e-14
5.355804640370772129e-14
5.917042214988922813e-14
6.392364094197933223e-14
6.714384490577166331e-14
6.812383682377829466e-14
6.613137749168799297e-14
6.060314879956101754e-14
5.251481715592582271e-14
4.333023818590503540e-14
3.560789690646304510e-14
3.053536543174304010e-14
2.599014765642857121e-14
1.922899006348377314e-14
1.356347401423988632e-14
1.099935406620955333e-14
7.284587639822696351e-15
5.487100074669273563e-15
3.718978308833625611e-15
2.532991409468114784e-15
1.734568305739480985e-15
1.178861098252719036e-15
8.008321220157383581e-16
5.464455003769837647e-16
3.781546286075658351e-16
2.661266220619818409e-16
1.911698548692607852e-16
1.404085238918328938e-16
1.052371706761208016e-16
8.009643092140424144e-17
