# bin_13_3
6.715083478820138632e-28
7.612329696984696327e-28
8.491921756796349268e-28
9.286681669132661770e-28
9.906621594358696162e-28
1.023977561912278202e-27
1.019877282904161251e-27
9.642325322486454385e-28
8.608775658356283795e-28
7.265273083038303318e-28
5.944975950746730656e-28
4.971026231731319495e-28
4.305932440273204748e-28
3.479611997527704202e-28
2.425166759675807780e-28
1.863650059433177788e-28
1.395903407925634842e-28
9.671291106809394708e-29
6.799063725351388119e-29
4.825391441326767570e-29
3.316339994829084377e-29
2.273026462746950940e-29
1.568587861320142531e-29
1.091612930214536767e-29
7.700646506912032553e-30
5.535100775680540330e-30
4.057652524131011947e-30
3.034693741139969885e-30
2.307371493508529208e-30
1.773169701792347917e-30
1.367149666237739086e-30
