# bin_13_6
3.067549490749634597e-18
3.485051491129564028e-18
3.898547392015112157e-18
4.277911384296608489e-18
4.582821243495996696e-18
4.762528312005409664e-18
4.773881058231575502e-18
4.552964706398763590e-18
4.098477710389474978e-18
3.487170394893236077e-18
2.857627283338114559e-18
2.373521779784872419e-18
2.053865450520873899e-18
1.693641468232989030e-18
1.197114894725238547e-18
8.934182380541949057e-19
6.927403297624147191e-19
4.668805885900429890e-19
3.386423220191197570e-19
2.373479596455239412e-19
1.622383535185105736e-19
1.108987594073229277e-19
7.596589752179054372e-20
5.242753147779198735e-20
3.658397408081499371e-20
2.598524438800640609e-20
1.881773246283585466e-20
1.391535910929741873e-20
1.048650628303087069e-20
8.014245525237341603e-21
6.168375015531093701e-21
