# bin_9_5
3.489876782859867152e-14
3.916759869536928424e-14
4.316591685708594831e-14
4.650597686242046250e-14
4.869327163141984058e-14
4.923601389926498517e-14
4.757025237365089542e-14
4.338997347568229631e-14
3.742375476241839419e-14
3.081733655442213629e-14
2.537872772996399178e-14
2.180835876352012087e-14
1.843007667053117841e-14
1.349735542092058383e-14
9.655325151415147770e-15
7.771180218050941001e-15
5.192459529691966437e-15
3.908358983749183386e-15
2.704005126955787761e-15
1.879062008057300492e-15
1.318904111134765805e-15
9.280465870377413010e-16
6.597278465864828671e-16
4.756191484703913889e-16
3.497712770026041468e-16
2.620966903915937221e-16
1.996536258301455592e-16
1.539073721917568168e-16
1.192384603037781044e-16
9.217046494551156975e-17
7.059856911971165858e-17
