# bin_4_2
5.857564325052470237e-12
6.279154937558821488e-12
6.537489004748081818e-12
6.570183759754877879e-12
6.298977057729622554e-12
5.705858836737920096e-12
4.889265631259570263e-12
4.020539143052615519e-12
3.324853696077102841e-12
2.856537265225391995e-12
2.379374497470771241e-12
1.732171889243199694e-12
1.270128123370765486e-12
1.001942087303818510e-12
6.936580577371302697e-13
5.183377151729574928e-13
3.710546442027144488e-13
2.678700469717678385e-13
1.958503195791936854e-13
1.451416719805200858e-13
1.094348932361738130e-13
8.393602321383394735e-14
6.538611699731166116e-14
5.142604105318918749e-14
4.056405674515797461e-14
3.186804876826382783e-14
2.476599701510222401e-14
1.892828361210841628e-14
1.415904203909696119e-14
1.032912667382727512e-14
7.335477990131396024e-15
