# bin_8_2
3.163650337242913571e-20
3.510407972265286710e-20
3.815193100979892601e-20
4.039775360492449602e-20
4.139066015394876622e-20
4.076419065692975847e-20
3.801090347650030537e-20
3.350199448422896085e-20
2.796800304431685587e-20
2.288676673560736848e-20
1.933528352988747356e-20
1.667525957621231418e-20
1.301167241527057199e-20
9.049962101844607250e-21
7.196226559543527782e-21
5.131749990769746748e-21
3.745417423405881106e-21
2.598977234710574250e-21
1.866539808967089033e-21
1.323765149698922962e-21
9.432047771153289613e-22
6.807548446626690945e-22
4.986949819939911007e-22
3.723014218883551685e-22
2.829585246387948387e-22
2.180645879519550227e-22
1.695263343868580192e-22
1.320164488079127982e-22
1.022550271275900099e-22
7.827250089701081746e-23
5.890494288258540089e-23
