# bin_13_7
4.265220402629795565e-16
4.850151167083355147e-16
5.431999854633768307e-16
5.969150877178069034e-16
6.406033254397268352e-16
6.672466950999434001e-16
6.705986581554234421e-16
6.419560622174855415e-16
5.799538444998583255e-16
4.952734551289554162e-16
4.062627127091062429e-16
3.365523574137192117e-16
2.908917582320076097e-16
2.417253805088967623e-16
1.722267029162420545e-16
1.269046905893843794e-16
9.968988181266315897e-17
6.659356821110626257e-17
4.890478258767912131e-17
3.403500905374147404e-17
2.321969955757539454e-17
1.587179044210021167e-17
1.084311114484402629e-17
7.456931920189545292e-18
5.178968004491464464e-18
3.659167693423832359e-18
2.635041744902748562e-18
1.938035645060181378e-18
1.453920306848554276e-18
1.107718924152158581e-18
8.513944549973937031e-19
