# bin_5_1
2.934838702001205336e-16
3.160317859731102696e-16
3.309063028307126901e-16
3.347670448117579227e-16
3.239394826941714939e-16
2.962556555028364078e-16
2.562542765536035145e-16
2.115446722154028275e-16
1.740743211597114896e-16
1.488926031541413740e-16
1.259185678634556019e-16
9.365424077701544785e-17
6.711411758514596618e-17
5.368481762262185131e-17
3.714135044065991568e-17
2.789384085926520098e-17
1.976250791299502868e-17
1.426576554782846171e-17
1.039321864447036120e-17
7.659668901124479860e-18
5.739590599687963444e-18
4.374868823116411901e-18
3.390680110629002214e-18
2.657768113177839067e-18
2.093368005820230580e-18
1.645527321838030303e-18
1.281924951468178000e-18
9.837438440696170636e-19
7.398666723183773639e-19
5.432132206147262741e-19
3.884363641695605938e-19
