# bin_5_3
6.633167223055329996e-12
7.235731712250075219e-12
7.699771162966154929e-12
7.939951441852703881e-12
7.886295228353696459e-12
7.436759734165655710e-12
6.625802368852027815e-12
5.585800869232514268e-12
4.572734706065999302e-12
3.825892776012635833e-12
3.303321949779841133e-12
2.657286476616265543e-12
1.869747834906045760e-12
1.439545527664572211e-12
1.080914189535759423e-12
7.640995324823277369e-13
5.505290663489125290e-13
3.983358213985700775e-13
2.851264415882883082e-13
2.061734524061259691e-13
1.513320187532156510e-13
1.129789972234931669e-13
8.587051970838298714e-14
6.632773465219289670e-14
5.178387680187850248e-14
4.061192306251369037e-14
3.177130911287749884e-14
2.462402893782648990e-14
1.879630781600024953e-14
1.406323110122669068e-14
1.027544767284060823e-14
