# bin_15_2
1.010508700864967893e-36
1.150701976859425433e-36
1.291093753776607094e-36
1.421915980793566683e-36
1.530190367242919137e-36
1.599425748776376660e-36
1.613871940447890329e-36
1.553919116749442754e-36
1.411968670389001800e-36
1.212995862613881198e-36
9.970608437378736204e-37
8.229485118320242998e-37
7.093568663090738815e-37
5.958618577035815140e-37
4.307846148709243445e-37
3.113275802824301942e-37
2.486990739221900945e-37
1.647326963124594031e-37
1.227925459731350178e-37
8.449984225004829447e-38
5.753024402826550130e-38
3.935347921721229989e-38
2.680494795473986581e-38
1.833646639827638392e-38
1.264117791762655628e-38
8.856089976887101649e-39
6.318937180479100578e-39
4.604866652476736259e-39
3.427024701141486842e-39
2.595632605941679704e-39
1.988625807828919078e-39
