# bin_8_8
5.108560138929812661e-11
5.756041779154423823e-11
6.373791700486107932e-11
6.907267712953820408e-11
7.285436689649100585e-11
7.428237515928888649e-11
7.265139358778009225e-11
6.716030505972610333e-11
5.870186230593266270e-11
4.869112821624440604e-11
3.989934815351001104e-11
3.397180610243660811e-11
2.916916229022475979e-11
2.216702850389892536e-11
1.543930797559781815e-11
1.248087069817719797e-11
8.526861858655449643e-12
6.367785050728678105e-12
4.326969315396297080e-12
3.033092264644077641e-12
2.119745115476888260e-12
1.480915837531518424e-12
1.041440408432489071e-12
7.405658372556086844e-13
5.365862017933418722e-13
3.964325035112538037e-13
2.983225040289890743e-13
2.280014152160787882e-13
1.759009859559782792e-13
1.360145294232395057e-13
1.046395110178043785e-13
