# bin_5_2
1.424506983903207038e-13
1.544193314127987573e-13
1.630423888963892646e-13
1.665502030336016398e-13
1.633780357159408379e-13
1.517135435893543132e-13
1.332001586184070086e-13
1.109569656558840095e-13
9.089034619324859917e-14
7.694391402962080604e-14
6.606360817692956580e-14
5.111028177749638187e-14
3.586967040298830497e-14
2.854205274469439480e-14
2.034586034317975353e-14
1.498894401017546813e-14
1.057405034818607179e-14
7.667851667276305319e-15
5.544096584351950888e-15
4.047456047316052648e-15
3.002456212050216925e-15
2.265351973932028727e-15
1.739793816385512616e-15
1.354789558714766664e-15
1.063259911726841629e-15
8.354917246679306575e-16
6.526839597578775496e-16
5.036303736013421137e-16
3.817556578291902336e-16
2.830249730611450168e-16
2.045919214808562111e-16
