# bin_15_2
3.636556573679542305e-36
4.141166011367759769e-36
4.646530019864616638e-36
5.117503989573654658e-36
5.507391527794844927e-36
5.756849020047722766e-36
5.809172159207113463e-36
5.593786311999952833e-36
5.083224304435991970e-36
4.367252478593193594e-36
3.589932165164302805e-36
2.962911435294438737e-36
2.553812544556402248e-36
2.145505963135734157e-36
1.551458918076825819e-36
1.120958843260916559e-36
8.956169090049146486e-37
5.932118401536743010e-37
4.422441106229901745e-37
3.042843101126646111e-37
2.071645813868726255e-37
1.417119218939611516e-37
9.652155154041417695e-38
6.602265323298927719e-38
4.551058800532644481e-38
3.187945566289076869e-38
2.274304837268656313e-38
1.657124040156035140e-38
1.233090675700534908e-38
9.338416623048388833e-39
7.154060069173849011e-39
