# bin_4_11
2.311634796065397866e-07
2.515950777865018408e-07
2.669908006142397862e-07
2.744620069341885693e-07
2.714231590760656256e-07
2.547769252238479098e-07
2.260623536178981600e-07
1.901577304992785426e-07
1.559410891043353067e-07
1.308996223453277286e-07
1.124630751201647129e-07
8.942778001152141608e-08
6.345697071616557017e-08
4.892156296965961327e-08
3.632267004485390951e-08
2.593010160998350143e-08
1.868853394020489342e-08
1.346059127659082273e-08
9.663661648041742764e-09
7.010583419473493682e-09
5.160050751725875138e-09
3.862207972654343898e-09
2.942265782935580277e-09
2.276306803854230057e-09
1.778547081167772897e-09
1.394613942136042744e-09
1.089879664300537750e-09
8.431902752690185178e-10
6.421033305434204726e-10
4.790664666579951859e-10
3.489939362808538213e-10
