# bin_7_10
7.007309053087691082e-08
7.844015533092044588e-08
8.617422298766126067e-08
9.247958287385303854e-08
9.635217185795408687e-08
9.687554394889253364e-08
9.285348757875953145e-08
8.403785513454086504e-08
7.192100350574042043e-08
5.908416144602875970e-08
4.890657683166647882e-08
4.214522284795113344e-08
3.507710256104881933e-08
2.526602706282378327e-08
1.852621584498728887e-08
1.457811528621354313e-08
9.874347511431951590e-09
7.298084936105635509e-09
5.116748802663738879e-09
3.568120779169967310e-09
2.507474380801924200e-09
1.772830466167957592e-09
1.268723209081588571e-09
9.221239743203766646e-10
6.835797393790463821e-10
5.159066201525484086e-10
3.951873280943448245e-10
3.056160180699825711e-10
2.369293076417017715e-10
1.828224835124923764e-10
1.395081793268373683e-10
