# bin_11_6
3.986611914390747378e-14
4.506265741402077881e-14
5.009122098778310570e-14
5.454098622705405997e-14
5.786684178250288000e-14
5.941179239499515259e-14
5.866926812447555821e-14
5.486227117096189178e-14
4.848122131722271727e-14
4.053972254426033434e-14
3.316221325363810495e-14
2.797807131398547323e-14
2.418952015183271502e-14
1.898616430712408852e-14
1.313580128364235061e-14
1.041914199603148964e-14
7.438935850305142539e-15
5.370696951949079698e-15
3.665960434228905855e-15
2.603762146106458218e-15
1.804485962382069830e-15
1.247802507811492205e-15
8.693845303634740827e-16
6.113674433410758842e-16
4.370882008870341985e-16
3.186150246297929482e-16
2.368050889600976139e-16
1.792213578426515786e-16
1.374307201611714717e-16
1.060674244478563200e-16
8.177516739865004944e-17
