# bin_7_5
2.904930407293527988e-10
3.228764930113025302e-10
3.516364547488078555e-10
3.732972223858161712e-10
3.836718289586006128e-10
3.794306122472153012e-10
3.556339753859643006e-10
3.149845928728473886e-10
2.640297766037374592e-10
2.160196554182084382e-10
1.817442679809247165e-10
1.570118777209158990e-10
1.242245973317732736e-10
8.649003058587542728e-11
6.792143614678631287e-11
4.944543732513359276e-11
3.547030410190881536e-11
2.482725773404920653e-11
1.784853837814521743e-11
1.260848759054831600e-11
8.947461269407134059e-12
6.431899524128129235e-12
4.692177207698104172e-12
3.487006265766959488e-12
2.639560459610183115e-12
2.027785024029791602e-12
1.573356000619601481e-12
1.224547676645608720e-12
9.492069403324996684e-13
7.279678300234257877e-13
5.493926932984147039e-13
