# bin_10_10
8.798268602742199710e-09
9.968056750187541082e-09
1.111188749123414971e-08
1.214120538656317419e-08
1.293762069012102129e-08
1.335477268676857094e-08
1.327872688588199724e-08
1.252713980665643505e-08
1.116209075569996853e-08
9.403357719358588706e-09
7.694090505547220431e-09
6.444736504982199343e-09
5.580403097196780483e-09
4.484315813738400000e-09
3.121194987754371884e-09
2.413075020252052530e-09
1.791022875371598039e-09
1.250707029486305661e-09
8.742999566762542931e-10
6.205602131987231247e-10
4.271663448690404940e-10
2.932879085839385215e-10
2.027682416626215088e-10
1.413946557474983764e-10
1.000052541311546424e-10
7.208154856213010157e-11
5.298630396814001587e-11
3.972293395201874248e-11
3.025465138222948072e-11
2.327040122846181769e-11
1.794165040021174634e-11
