# bin_2_8
4.273400811491989672e-07
4.427815762581807753e-07
4.423955542963469271e-07
4.217332000269478961e-07
3.806666781811241255e-07
3.258976579241373481e-07
2.693012300733621830e-07
2.237471402001973521e-07
1.904622926736530343e-07
1.562286305359029194e-07
1.159099881383894669e-07
8.584280599804179961e-08
6.593132692114543295e-08
4.742845936367574358e-08
3.489900892987515468e-08
2.534295257880666206e-08
1.860468983698684232e-08
1.380679115978735280e-08
1.041161211834075275e-08
7.991451268841956052e-09
6.232266012230974185e-09
4.919109711114240549e-09
3.903813147443347429e-09
3.092831126575437758e-09
2.429435047699130447e-09
1.880149157866221794e-09
1.426028104751611333e-09
1.055890971512596675e-09
7.614568720913440853e-10
5.346070138316170186e-10
3.658829954044982321e-10
