# bin_9_14
7.072353159704763501e-08
7.999058739994350909e-08
8.898477433195532206e-08
9.698119426441713923e-08
1.030176739967941640e-07
1.059326398219634856e-07
1.048059967040297687e-07
9.826169519931008387e-08
8.704851930013389881e-08
7.297457571609485888e-08
5.971888179076377967e-08
5.027121815242380780e-08
4.345020510107059621e-08
3.434618855067253922e-08
2.386235648984325607e-08
1.873501882376278940e-08
1.355411593878974878e-08
9.670474099102052915e-09
6.676895538745707941e-09
4.730196830308970369e-09
3.270963311780807470e-09
2.257402391355285987e-09
1.568821130094840429e-09
1.100364238130798649e-09
7.840401062536731433e-10
5.695035291492697170e-10
4.217929207514038152e-10
3.182338589389398349e-10
2.434550975402815074e-10
1.876351387831869169e-10
1.446098843879196765e-10
