# bin_3_14
3.631117525978419716e-07
3.880274454959599828e-07
4.025088510908608372e-07
4.026425459888832040e-07
3.839445512203928117e-07
3.462419641175545539e-07
2.957404272049778311e-07
2.435503108331323359e-07
2.022796358324357455e-07
1.732011239627598690e-07
1.423501849865779261e-07
1.040132258188207964e-07
7.714860574345706494e-08
5.957572628127146032e-08
4.211119716922651450e-08
3.102986102547990178e-08
2.229710127260848504e-08
1.616735469739544716e-08
1.184112242201082869e-08
8.795885594808524886e-09
6.647288949303377629e-09
5.109049304317611106e-09
3.984694963702812789e-09
3.134960375006599468e-09
2.471342816413705119e-09
1.938714853204881209e-09
1.503425334595627225e-09
1.145975450712193826e-09
8.546991634770265491e-10
6.217075605600684877e-10
4.404107338259564991e-10
