# bin_7_3
5.775573035323169036e-14
6.382149649677646668e-14
6.901044995936789073e-14
7.260949268274641210e-14
7.384442570983373724e-14
7.197316483976749403e-14
6.630318928954488784e-14
5.775839908113263004e-14
4.783169110893206832e-14
3.923833703084819888e-14
3.345508860611600480e-14
2.859233117761345072e-14
2.158406474921050786e-14
1.517809412597237808e-14
1.223868373763780377e-14
8.412347412427840120e-15
6.308445638403713316e-15
4.374163849089982052e-15
3.115804934468345382e-15
2.226349427647983681e-15
1.600482351514576549e-15
1.165622061623234568e-15
8.623628600750741692e-16
6.503863915641879774e-16
4.986143219746367230e-16
3.867377027260994359e-16
3.017013168729499095e-16
2.350177615537838557e-16
1.815644056864747781e-16
1.382799727880737905e-16
1.033324840433279596e-16
