# bin_3_9
2.950038238586722708e-07
3.150837325836754467e-07
3.266346646307834093e-07
3.264875016234803538e-07
3.110034365670112026e-07
2.801642920597732559e-07
2.390653232475087553e-07
1.968125688996842222e-07
1.635565082250017049e-07
1.400757377201678087e-07
1.149115813038863898e-07
8.381532087076521815e-08
6.229860785433741329e-08
4.803260349045858583e-08
3.396145428874642587e-08
2.501689882845073732e-08
1.798710004719238405e-08
1.304493369215345311e-08
9.559202349967133384e-09
7.105552581471972087e-09
5.373612461597909679e-09
4.132895755870220762e-09
3.225092695822680116e-09
2.538200207327852679e-09
2.001150878269309084e-09
1.569705332550824863e-09
1.216901881761012832e-09
9.271339533605835731e-10
6.910541312310252840e-10
5.023116869013709578e-10
3.555619827441040508e-10
