# bin_9_6
2.318653721233427820e-11
2.604901301069755407e-11
2.874324231027563170e-11
3.101407980781877706e-11
3.253457549620459598e-11
3.296806282560188940e-11
3.195383533212113975e-11
2.924455097769820013e-11
2.530947655098923464e-11
2.087593754399849022e-11
1.716548432499860792e-11
1.471894507012332559e-11
1.249797546057167986e-11
9.237748863407852575e-12
6.552889931596331113e-12
5.293788482580454115e-12
3.545554343855334521e-12
2.671847474537641102e-12
1.838033189047687457e-12
1.278477409459042479e-12
8.968181996580177464e-13
6.300582918108842398e-13
4.466436553181607376e-13
3.208540204861996381e-13
2.350836897927929969e-13
1.755477604903636820e-13
1.333364601497143862e-13
1.025849250433187315e-13
7.940975359762163443e-14
6.139970218342909215e-14
4.708816063648370717e-14
