# bin_3_2
5.003429066507249873e-09
5.247788180831538086e-09
5.321485393188048724e-09
5.168967169034828079e-09
4.752312775168577917e-09
4.133473875994526479e-09
3.428700581405638001e-09
2.820135899664648240e-09
2.398006874546057250e-09
2.031216895125152701e-09
1.541026056168121823e-09
1.104904660762057569e-09
8.723454505357080025e-10
6.220918977902731807e-10
4.607612025418869785e-10
3.310457531083773921e-10
2.421284517753568029e-10
1.782244067738157048e-10
1.330556002084041457e-10
1.011196197515291184e-10
7.816965237020418492e-11
6.132568633806053572e-11
4.853611306260394306e-11
3.848087426223484603e-11
3.034843099402535475e-11
2.364879813231319477e-11
1.810137954004617451e-11
1.354555686114608113e-11
9.877096808966911036e-12
7.008009664752758898e-12
4.841159863823152801e-12
