# bin_14_4
1.708593517100134879e-25
1.942358366696460427e-25
2.174572765209979097e-25
2.388533375651240382e-25
2.561916725239217410e-25
2.666559468476578383e-25
2.677759321385900901e-25
2.560396563786116117e-25
2.310536039596668252e-25
1.970906075222372243e-25
1.616202815631759009e-25
1.339976136281005196e-25
1.158588841374610658e-25
9.604753631395126272e-26
6.826491503408819928e-26
5.049956343877359335e-26
3.951014547739539383e-26
2.646583813901012501e-26
1.936137195509052818e-26
1.350389454925388978e-26
9.218293874499335551e-27
6.301129509322453937e-27
4.308316227155719449e-27
2.966121845809672710e-27
2.063017966779815719e-27
1.460011269519053147e-27
1.053219913340399090e-27
7.759388067556050336e-28
5.829332164337079004e-28
4.445573460934634721e-28
3.418356543134675786e-28
