# bin_5_11
1.660964189929392310e-07
1.830560829861689626e-07
1.972984413345393245e-07
2.067498794423182554e-07
2.093089736421220385e-07
2.026901662947321190e-07
1.855387697603500443e-07
1.606233658619174558e-07
1.327322952387682498e-07
1.092881196295560474e-07
9.344172489319456395e-08
7.898223195641429837e-08
5.881964986366449598e-08
4.211619970525687559e-08
3.349508461882890747e-08
2.314864003229081377e-08
1.720046918463289253e-08
1.206507214011389947e-08
8.594709185141594686e-09
6.148298498641402056e-09
4.433622401663531121e-09
3.243135297677924297e-09
2.411463893723963006e-09
1.826899314520732295e-09
1.405478285608353395e-09
1.092474044363826123e-09
8.527223677916780267e-10
6.635848076931856125e-10
5.114565337809606478e-10
3.881986488906119328e-10
2.888546231778316593e-10
