# bin_15_1
2.348032155604201662e-08
2.005203793649148995e-08
1.671856012662545442e-08
1.367668409168641053e-08
1.103027736664598585e-08
8.780266051867664117e-09
6.870744768838215882e-09
5.267087386547664945e-09
3.981697421060269869e-09
3.008596215681151311e-09
2.280781128277018275e-09
1.732800454899673862e-09
1.327980643228554541e-09
1.028182570959400194e-09
8.037284717984381825e-10
6.329984555976806230e-10
5.004160135551059759e-10
3.953026440198420683e-10
3.105697268494100092e-10
2.416052070255854061e-10
1.853932426575939979e-10
1.398790311985184119e-10
1.035270694847843696e-10
7.504552242635528180e-11
5.324332141473473603e-11
3.697880465293065989e-11
2.516596711811234129e-11
1.680961182408791639e-11
1.104308769518138883e-11
7.151633524961416858e-12
4.576107830690787673e-12
