# bin_11_6
6.633699673283726803e-08
6.201073285646684864e-08
5.647556419948553236e-08
5.004062117332723978e-08
4.313203222046968180e-08
3.623411913558633763e-08
2.979569665162037172e-08
2.410986256963714915e-08
1.925974298609025577e-08
1.515562081754887666e-08
1.167589796242735756e-08
8.804534874595110286e-09
6.587502829435028033e-09
4.945495169492268397e-09
3.699588743851143462e-09
2.774155684353189400e-09
2.097777276954335925e-09
1.597666403062621138e-09
1.226470689660754803e-09
9.472126519464290798e-10
7.336610003327487415e-10
5.677586830529053944e-10
4.372545311110550207e-10
3.338499032962781478e-10
2.518489486718943597e-10
1.871995854601381601e-10
1.368121010366532082e-10
9.816748955819945561e-11
6.910248501799170083e-11
4.771464057474380369e-11
3.233419227675087365e-11
