# bin_5_2
3.032557172114081127e-08
2.651728018074623152e-08
2.257909993216160970e-08
1.877696913154192380e-08
1.532526313004575690e-08
1.233325562113943012e-08
9.797741909849876385e-09
7.652328884119143305e-09
5.854282602500090302e-09
4.416329050510096121e-09
3.332637560441411771e-09
2.522644572325784737e-09
1.911293851218743007e-09
1.460922037691022458e-09
1.127069894293969878e-09
8.774724708025196825e-10
6.879609141287242630e-10
5.413044667635633542e-10
4.255929925783847910e-10
3.328668534265193678e-10
2.578860950456846184e-10
1.971681213344993516e-10
1.483063470555457411e-10
1.094919820917823662e-10
7.921753618209900209e-11
5.612332561795020341e-11
3.893784632800120516e-11
2.647678724414169076e-11
1.767158120123606673e-11
1.160018202593624235e-11
7.505920278491470949e-12
