# bin_10_8
7.344585592082034124e-08
6.933917765351220650e-08
6.383402644247475453e-08
5.720781843835804599e-08
4.987637678793836704e-08
4.234499567534756924e-08
3.512240418660363287e-08
2.860168265734555827e-08
2.296548002512196984e-08
1.818915950738598950e-08
1.414337105789950005e-08
1.075475654056017217e-08
8.053217643636898358e-09
6.025804585180009048e-09
4.510075262367880790e-09
3.363964410377712622e-09
2.527584332642536132e-09
1.910540157264463040e-09
1.455938185861181582e-09
1.116777001743708332e-09
8.604328271812780322e-10
6.636666646958773039e-10
5.105380819720245383e-10
3.902296080450854140e-10
2.953201386534750975e-10
2.206244359427059923e-10
1.623221775701136849e-10
1.174112011631304084e-10
8.340090819051312217e-11
5.815125133333656390e-11
3.980455143025231303e-11
