# bin_14_4
5.537431582476765513e-08
5.082104685571891646e-08
4.537910205376457425e-08
3.939783124044371783e-08
3.330177152427054555e-08
2.751535438197139906e-08
2.234826167741925145e-08
1.792176873459895067e-08
1.417663169173618465e-08
1.098865622285741859e-08
8.323497731686874874e-09
6.238368523334048094e-09
4.694372063103837121e-09
3.525441152184041918e-09
2.650275835818772972e-09
2.011570087917051788e-09
1.538299119008548309e-09
1.186884126585087136e-09
9.219163132864259616e-10
7.186216389749463198e-10
5.598853744128211802e-10
4.341602990883332488e-10
3.337251089966838149e-10
2.533572887126389773e-10
1.894045169052186500e-10
1.391109457561213981e-10
1.002205337721420387e-10
7.076373789353699144e-11
4.896371563478544971e-11
3.322134929706386062e-11
2.213031564936420676e-11
