# bin_11_2
3.462349954404798021e-08
3.048544940045388955e-08
2.611456824604246497e-08
2.182113822989916623e-08
1.787467075914024950e-08
1.443058695762053887e-08
1.150590185623145752e-08
9.024297121471263497e-09
6.925007793009343591e-09
5.224717106634383525e-09
3.936741692128042558e-09
2.976287011227286619e-09
2.249049312324702842e-09
1.713136205877759492e-09
1.317273269566808853e-09
1.022505419356537531e-09
8.000117668120264152e-10
6.289051870013302065e-10
4.946564594166973314e-10
3.875059582492970317e-10
3.010260001538696151e-10
2.309735742543255069e-10
1.744684231521713189e-10
1.294058116299677661e-10
9.407880313902666274e-11
6.697343615036624434e-11
4.667925912227591841e-11
3.187450442448294797e-11
2.135321151856237734e-11
1.406118387166737846e-11
9.121959898482841281e-12
