# bin_9_2
3.376708937320656705e-08
2.969474752165880398e-08
2.541008697574434980e-08
2.121455385714117193e-08
1.736667312569457500e-08
1.401267054805906322e-08
1.116553216977890202e-08
8.750917365596287990e-09
6.711654040823187693e-09
5.063636904448108266e-09
3.816367295712477722e-09
2.885893758569372982e-09
2.181747813030974022e-09
1.662879746297644086e-09
1.279373142429654479e-09
9.936059973781147823e-10
7.776843920397699637e-10
6.114497721133442069e-10
4.808947983498614914e-10
3.766185119579231394e-10
2.924298975253353539e-10
2.242374651258675983e-10
1.692553417531628994e-10
1.254377625605256515e-10
9.111753294505330835e-11
6.481143301568430119e-11
4.513669812072186534e-11
3.079895042326508276e-11
2.061960656686935627e-11
1.357080245368780310e-11
8.799946408964638775e-12
