# bin_8_7
6.545300594853858520e-08
6.118187798191499195e-08
5.573185351914480773e-08
4.940596360301700643e-08
4.261876648026879036e-08
3.583841003498449032e-08
2.949703701101548604e-08
2.388144895129969984e-08
1.907975146740134276e-08
1.501804252564989260e-08
1.158431983875526862e-08
8.751746971329089450e-09
6.550658349633617400e-09
4.914667149578339997e-09
3.680153833886209759e-09
2.758161869660648092e-09
2.085036186677523039e-09
1.586615934796558892e-09
1.217037836319717388e-09
9.390443039725206452e-10
7.266596059140144654e-10
5.618758958761592607e-10
4.324304302778290580e-10
3.300104493505865184e-10
2.488927512510436786e-10
1.850041128447628823e-10
1.352450338773946054e-10
9.709606485487374912e-11
6.840335088831078427e-11
4.728094862843202205e-11
3.207958725740315648e-11
