# bin_10_5
5.947013657503528844e-08
5.504070675663113440e-08
4.959933876094417283e-08
4.347418206326785660e-08
3.708439768499896622e-08
3.087492395518765488e-08
2.521492252653603470e-08
2.030005648731679957e-08
1.613505621457968689e-08
1.260512853872533948e-08
9.627270649644310877e-09
7.227601521174627375e-09
5.421337193844702720e-09
4.075144624241197733e-09
3.052382472706630298e-09
2.304486552955107605e-09
1.752043539118963242e-09
1.343775940475781668e-09
1.038034121982411267e-09
8.057176590050570301e-10
6.261352972253782711e-10
4.851818675190257428e-10
3.733784002201242523e-10
2.842993359869485580e-10
2.135050124728890337e-10
1.577454421616437227e-10
1.144513884687488449e-10
8.145271816387561312e-11
5.683480801599125825e-11
3.889133757389012554e-11
2.612166050323360560e-11
