# bin_10_2
3.424789665738509266e-08
3.013866455558605079e-08
2.580559777444782883e-08
2.155510316730610642e-08
1.765187370243603957e-08
1.424729759275708813e-08
1.135662282531281622e-08
8.904398446636713722e-09
6.831435260059126576e-09
5.154070668637474768e-09
3.883947980923649425e-09
2.936642409788760496e-09
2.219532278021680839e-09
1.691094774847357333e-09
1.300651070454742398e-09
1.009830742610578916e-09
7.902194525745394971e-10
6.212496117370155107e-10
4.886208861961686443e-10
3.827309542992564206e-10
2.972559305085014031e-10
2.280192579804112544e-10
1.721820743772764977e-10
1.276655076396297465e-10
9.278005115967607499e-11
6.602522598842408623e-11
4.600272341563389901e-11
3.140278835206468641e-11
2.103146728378495405e-11
1.384611251293146566e-11
8.980731289328799580e-12
