# bin_11_4
5.344475663932052504e-08
4.894199525972835712e-08
4.360815999686510510e-08
3.778721308500894579e-08
3.188939758597346152e-08
2.631659885958316402e-08
2.135463373125944884e-08
1.710857956027440246e-08
1.351689008896461248e-08
1.046438934063434128e-08
7.922248260238954405e-09
5.939714165956134968e-09
4.471040268889871571e-09
3.359128412358405984e-09
2.527895388636711500e-09
1.920556203617753262e-09
1.470288660423856366e-09
1.135435247594002185e-09
8.825195524590067803e-10
6.881160374590984791e-10
5.360759855368713152e-10
4.155148088066583438e-10
3.191501154106270605e-10
2.420450042820740094e-10
1.807276140419465468e-10
1.325593135378439397e-10
9.536572252137562528e-11
6.724066916623428427e-11
4.646281021010023770e-11
3.148500911178209936e-11
2.095033778681324229e-11
