# bin_11_1
2.293080937558510656e-08
1.956568747482654406e-08
1.630182309723372359e-08
1.332863764248880720e-08
1.074438115110891339e-08
8.548024254824701454e-09
6.685157128475631797e-09
5.122911053602551446e-09
3.872774515386947655e-09
2.926936598586464116e-09
2.219390985082404837e-09
1.686843541201473418e-09
1.293403912337008720e-09
1.001872852793569516e-09
7.834599226015310616e-10
6.171757099989329889e-10
4.879288122613282253e-10
3.853824901891459567e-10
3.026795799876700185e-10
2.353579535827650813e-10
1.804956033620696706e-10
1.360950935268464588e-10
1.006567379952142904e-10
7.291367303636255354e-11
5.169562539757636857e-11
3.588113291490876193e-11
2.440505381275527113e-11
1.629332514987494834e-11
1.069948483470652982e-11
6.926774992937838121e-12
4.431041041316056253e-12
