# bin_12_1
2.310647793561798066e-08
1.972114714840933313e-08
1.643502027147602599e-08
1.343987088711217876e-08
1.083574546157597178e-08
8.622237408976187427e-09
6.744459041142749972e-09
5.168978894144535404e-09
3.907578862816298267e-09
2.953029675860118103e-09
2.239008133303342725e-09
1.701529646347165357e-09
1.304454023689809002e-09
1.010281408069328629e-09
7.899379785397776108e-10
6.222329328889803544e-10
4.919199157155983184e-10
3.885530310094014927e-10
3.052011913555263755e-10
2.373543828352892276e-10
1.820606227750150873e-10
1.373041426676246652e-10
1.015738028031479546e-10
7.359474787056806604e-11
5.219004710905527631e-11
3.623177295380109333e-11
2.464810905513817367e-11
1.645823438333404494e-11
1.080923323039764614e-11
6.998594238555989748e-12
4.477374184070538593e-12
