# bin_8_3
4.260832245854283796e-08
3.827051251756588588e-08
3.343593398695123368e-08
2.843621214164248270e-08
2.361730788553142279e-08
1.925512238134816775e-08
1.548517660749489434e-08
1.229395649694794852e-08
9.587776452864144571e-09
7.313583536481651722e-09
5.499721968313343985e-09
4.141863688927733736e-09
3.124871535064071857e-09
2.356118456106358795e-09
1.793137145020089191e-09
1.375841889156125042e-09
1.065411668620723415e-09
8.308457550304758065e-10
6.504668305709058636e-10
5.091520930837915161e-10
3.967258707131673006e-10
3.064360868451376241e-10
2.337564854677864393e-10
1.755554360180816653e-10
1.294950928790683365e-10
9.366092521486550240e-11
6.636574227443740530e-11
4.606399885068749064e-11
3.133936659351897652e-11
2.092717031187583907e-11
1.374121963072799600e-11
