# bin_13_7
7.366770425324681707e-08
6.950293140886358274e-08
6.392700021177128703e-08
5.722364661010201926e-08
4.981837717781414672e-08
4.222806380938690829e-08
3.497315764353382296e-08
2.844869789895706106e-08
2.282856105627103689e-08
1.807070947900291204e-08
1.403239003344808015e-08
1.064693282132666774e-08
7.963097193613055049e-09
5.963216281607263198e-09
4.461489659898071291e-09
3.327545316439430820e-09
2.503255386048869065e-09
1.893786321121771969e-09
1.444971551819511250e-09
1.109882407341003189e-09
8.561887051500874122e-10
6.610927083255842096e-10
5.089642737072609279e-10
3.892161319919324988e-10
2.945954701573355216e-10
2.200394772958854508e-10
1.618042972434367907e-10
1.169345833660417865e-10
8.296437624357037175e-11
5.776295351909910109e-11
3.947272388810238264e-11
