# bin_14_1
-3.418152347410735281e-37
-3.882436807488157900e-37
-4.342107989070848004e-37
-4.763637337131934951e-37
-5.102206525693241532e-37
-5.301450610142999270e-37
-5.313335802839188353e-37
-5.067205242594300743e-37
-4.561237911040865145e-37
-3.880889298461680245e-37
-3.179773044690379790e-37
-2.639977600683761187e-37
-2.283369433809732959e-37
-1.883141256314519785e-37
-1.331881824532912616e-37
-9.927950770962910105e-38
-7.701055326071445269e-38
-5.188038148854379811e-38
-3.764468408843130693e-38
-2.635872863375749502e-38
-1.801084736623164067e-38
-1.230940096254041617e-38
-8.428392359799851008e-39
-5.813377687873589525e-39
-4.053748421946468051e-39
-2.877203332201910481e-39
-2.082012327073323961e-39
-1.538501047043315757e-39
-1.158681634541503450e-39
-8.850868550465474135e-40
-6.810078396815034282e-40
