# bin_9_13
-1.360437957659926695e-10
-1.549632520288677411e-10
-1.739504277635774531e-10
-1.916964717661018089e-10
-2.064679569853751517e-10
-2.160578459308624208e-10
-2.183002635739993306e-10
-2.106314744672802072e-10
-1.917960187793104957e-10
-1.651271597452082005e-10
-1.358205336766568181e-10
-1.119120537875003390e-10
-9.631486680695536727e-11
-8.122344570634589737e-11
-5.907386415399500331e-11
-4.235319281162109516e-11
-3.403140977077446553e-11
-2.248178983074298370e-11
-1.683941267524532808e-11
-1.153274671730782881e-11
-7.844620947275372776e-12
-5.366503277004221543e-12
-3.650551323699493542e-12
-2.491060174233102790e-12
-1.711491920416548717e-12
-1.194333129138190338e-12
-8.485255538040761837e-13
-6.156766979049170771e-13
-4.564336988020521570e-13
-3.446866070670034519e-13
-2.636201371794387553e-13
