# bin_7_6
-1.030136513140145487e-08
-1.150647960025618076e-08
-1.260840281568313480e-08
-1.348845271591181844e-08
-1.399793736741332456e-08
-1.401100512349846296e-08
-1.334324920233122902e-08
-1.199732087189288541e-08
-1.019821555255727332e-08
-8.355018366141319013e-09
-6.940178838324665319e-09
-5.997718300493644557e-09
-4.934201807845367570e-09
-3.495523992282186483e-09
-2.614737193476131091e-09
-2.025527999438154441e-09
-1.380349400792167825e-09
-1.007535863770728652e-09
-7.149847854413546870e-10
-4.991790529850868299e-10
-3.509790207735890693e-10
-2.490265505930096106e-10
-1.791639089921734040e-10
-1.310679598345015332e-10
-9.778827027692138209e-11
-7.422759742439217433e-11
-5.711728312477626716e-11
-4.429179022914467082e-11
-3.436312045118559675e-11
-2.648496171796966197e-11
-2.015355719302230947e-11
