# bin_6_8
-2.512256880870255553e-09
-2.815907246976197017e-09
-3.098671445816845133e-09
-3.332426163356020736e-09
-3.481479999078009038e-09
-3.511657637488089552e-09
-3.381149666377448153e-09
-3.073131969462924452e-09
-2.641070236052759148e-09
-2.171247173838775993e-09
-1.790709153744537497e-09
-1.541123453860252995e-09
-1.295181974249935034e-09
-9.403369278788734266e-10
-6.788489673259710110e-10
-5.428645667538756978e-10
-3.630571011233983237e-10
-2.720490255532296700e-10
-1.892885225937826455e-10
-1.315394540108320856e-10
-9.233028349425765226e-11
-6.505397947940870620e-11
-4.635958847442161768e-11
-3.352789577014517089e-11
-2.473622289782745924e-11
-1.859084724999397075e-11
-1.419580566250925751e-11
-1.095944892864972069e-11
-8.494527293163270459e-12
-6.562334914694410379e-12
-5.018988393829541297e-12
