# bin_15_6
-5.057243927562680628e-19
-5.765482580785441799e-19
-6.479084508531076286e-19
-7.149667866507955368e-19
-7.713397428871203216e-19
-8.088587869142351092e-19
-8.191772274998588661e-19
-7.931771206720184914e-19
-7.249011005430402268e-19
-6.264365734273264491e-19
-5.161172771869339487e-19
-4.244793217009141450e-19
-3.644898892044177662e-19
-3.091036517599840450e-19
-2.270923831266652068e-19
-1.611298239075121643e-19
-1.302723664717800769e-19
-8.609264700892357208e-20
-6.475181676918039273e-20
-4.405697619083429256e-20
-2.997542663792828395e-20
-2.051637090050942752e-20
-1.394453566157274066e-20
-9.487185202338155499e-21
-6.489398087876698260e-21
-4.504574462347612536e-21
-3.181312823979721077e-21
-2.293977017794077175e-21
-1.690926760314890709e-21
-1.271112234648700790e-21
-9.693348739696041921e-22
