# bin_14_4
-1.312369552247730201e-23
-1.491693691149756506e-23
-1.669839946714878447e-23
-1.834002691515463894e-23
-1.967091399723440764e-23
-2.047552402461440616e-23
-2.056368898902903437e-23
-1.966795826425485632e-23
-1.775317512814102796e-23
-1.514785453985668219e-23
-1.242011883768651221e-23
-1.029038762495514014e-23
-8.893311783376236167e-24
-7.379135731649857453e-24
-5.249812852535069855e-24
-3.875023716436325304e-24
-3.036912187842777110e-24
-2.031120392766289369e-24
-1.488237364793711403e-24
-1.036585978674200463e-24
-7.072066265601192209e-25
-4.832640016394909930e-25
-3.301855533564090457e-25
-2.271175938052577863e-25
-1.577948694304703583e-25
-1.115400036078627570e-25
-8.036446560307958525e-26
-5.913848279905949753e-26
-4.438549491462068537e-26
-3.382593775116398793e-26
-2.600021037870802109e-26
