# bin_1_3
-1.166218358731467727e-09
-1.215447235624896658e-09
-1.223375285842560748e-09
-1.176252231989415027e-09
-1.069440364025092016e-09
-9.200989283125307129e-10
-7.585792918326486548e-10
-6.262142917462545125e-10
-5.356377835850338193e-10
-4.478399591132707627e-10
-3.310731263168560139e-10
-2.412331331638316209e-10
-1.901431511891339862e-10
-1.337513219522891310e-10
-9.984780006176450956e-11
-7.191731095843781981e-11
-5.260567747225580875e-11
-3.892580540911305879e-11
-2.924377683329268497e-11
-2.236918340591767570e-11
-1.739630916110438569e-11
-1.371197703171513643e-11
-1.088173632463836893e-11
-8.632597743137855551e-12
-6.798115915001963040e-12
-5.279245571555762926e-12
-4.020288672832560280e-12
-2.989174436751842209e-12
-2.163817636374260311e-12
-1.523882718585613524e-12
-1.045321817070970650e-12
