# bin_3_9
-1.177909902468155768e-16
-1.316324290696182741e-16
-1.443207929938712276e-16
-1.545039207530264354e-16
-1.604842866257871687e-16
-1.608046321766238505e-16
-1.533646636938127802e-16
-1.380876221736492302e-16
-1.175430440096349816e-16
-9.632918877581965411e-17
-7.993278449616220969e-17
-6.905759666854687555e-17
-5.699202983907001564e-17
-4.047943127103319287e-17
-3.013570982429956546e-17
-2.346364142082259741e-17
-1.592933896332180270e-17
-1.167627987079135584e-17
-8.267654164700290742e-18
-5.767157433707347722e-18
-4.053181597839732471e-18
-2.872708919723193127e-18
-2.064212241488334075e-18
-1.507876514361422511e-18
-1.123445943749443855e-18
-8.517463930131008115e-19
-6.548296571479636705e-19
-5.075579565851894290e-19
-3.937743677132216828e-19
-3.036147348522876389e-19
-2.311997852643216431e-19
