# bin_12_9
-9.038622921901233009e-10
-1.027971063659193587e-09
-1.151611761926972761e-09
-1.266000193982452984e-09
-1.359433797076443552e-09
-1.417120692250580537e-09
-1.425615934271132979e-09
-1.366800470179599212e-09
-1.236623142618165754e-09
-1.057686728583857906e-09
-8.678440942819129464e-10
-7.178592222844661395e-10
-6.198482881608226561e-10
-5.167687443509954957e-10
-3.696620181107108950e-10
-2.706382519793704332e-10
-2.137892555362049514e-10
-1.422733129678195042e-10
-1.050226334943510943e-10
-7.281269546706527436e-11
-4.961970018537248097e-11
-3.391222548530970309e-11
-2.313394599130714451e-11
-1.587681900794613286e-11
-1.099712767944671404e-11
-7.746656585995917541e-12
-5.560777507395699305e-12
-4.077179736038368274e-12
-3.050630108440682999e-12
-2.319800435050087037e-12
-1.781207416375114141e-12
