# bin_12_6
-3.761047705216449338e-14
-4.262807732433913527e-14
-4.754614941406472318e-14
-5.198927551947104570e-14
-5.545486352595176754e-14
-5.731746486665809435e-14
-5.708925727436081281e-14
-5.398053673468454352e-14
-4.819842558662619982e-14
-4.067855143948554795e-14
-3.327723553899918199e-14
-2.780864260717246388e-14
-2.408276763955396255e-14
-1.947646116190686529e-14
-1.357484101788120335e-14
-1.041659113427656457e-14
-7.813805353973263517e-15
-5.403916456253456892e-15
-3.802719571060368360e-15
-2.697845847402925346e-15
-1.853083581827731824e-15
-1.269329019054987271e-15
-8.753701985295107410e-16
-6.087706837193500963e-16
-4.291074773080634323e-16
-3.081850969454543802e-16
-2.257467138163105828e-16
-1.687202226737727135e-16
-1.282179095095401018e-16
-9.850259246617169670e-17
-7.593915777738063842e-17
