# bin_2_4
-1.352868500401657027e-09
-1.449985018204393983e-09
-1.509418964569722551e-09
-1.516785047125547749e-09
-1.454099757751488320e-09
-1.317122442787693593e-09
-1.128571478993029343e-09
-9.278712074331348287e-10
-7.670054295239615201e-10
-6.587334417856063328e-10
-5.487886349911314279e-10
-3.996252377196289907e-10
-2.927762138342869736e-10
-2.310085786339939558e-10
-1.598755527209210032e-10
-1.194674952959959423e-10
-8.548011998132287234e-11
-6.169590692118758841e-11
-4.509586024221060598e-11
-3.340927559248599418e-11
-2.518208612607879737e-11
-1.930852427141838009e-11
-1.503720522175015800e-11
-1.182398500214620323e-11
-9.324784021731818767e-12
-7.324628178149421336e-12
-5.691570081409496414e-12
-4.349567457462425806e-12
-3.253414762610535534e-12
-2.373295981409430074e-12
-1.685415935046661446e-12
