# bin_9_7
-2.860798377593384706e-09
-3.223666746464360497e-09
-3.570211541701284756e-09
-3.870056120741957287e-09
-4.083582881204064866e-09
-4.165738164300906365e-09
-4.077767485586858110e-09
-3.773462924085242485e-09
-3.301503981420087309e-09
-2.739986159121869221e-09
-2.243893971774879679e-09
-1.908082410540828959e-09
-1.639733403504103267e-09
-1.250419785400012430e-09
-8.693081467489742240e-10
-7.017545624768943515e-10
-4.812775646338378787e-10
-3.583555937996509814e-10
-2.432401338150946483e-10
-1.707227784007390414e-10
-1.191889125194525414e-10
-8.316542158625845135e-11
-5.840707969204297426e-11
-4.146670156200624618e-11
-2.999184828841219029e-11
-2.211993881187965501e-11
-1.662005696012028219e-11
-1.268748024713609041e-11
-9.781364192076136248e-12
-7.561747940363068178e-12
-5.818761358632101957e-12
