# bin_1_6
-1.699801703744196123e-16
-1.850755627685903524e-16
-1.965012467646655853e-16
-2.020823792698540736e-16
-2.000428633191188680e-16
-1.878395039100871446e-16
-1.666780492838979150e-16
-1.400023973486589772e-16
-1.145505796727397979e-16
-9.610715066478072016e-17
-8.291661815182412241e-17
-6.604139382446657597e-17
-4.630728552445090425e-17
-3.603049860986541727e-17
-2.666360513063899539e-17
-1.906232500501329039e-17
-1.362087089325557316e-17
-9.875571695765655202e-18
-7.086214476782216506e-18
-5.134484397784362561e-18
-3.778467492058129776e-18
-2.828255171843777310e-18
-2.155382784280664820e-18
-1.668384280698506047e-18
-1.304361832907739586e-18
-1.023500693081348962e-18
-8.003969970896806671e-19
-6.195975759713094967e-19
-4.720548490431561578e-19
-3.523041023722140835e-19
-2.566559731696405241e-19
