# bin_4_1
-1.464734704564308552e-11
-1.554807754407333242e-11
-1.599295517204851152e-11
-1.583700174663639269e-11
-1.488894221902835601e-11
-1.323052606475973174e-11
-1.113611328984488959e-11
-9.120258465203037295e-12
-7.638773110657616293e-12
-6.574419049748791172e-12
-5.258391468637190430e-12
-3.723736099702618285e-12
-2.871560031564189442e-12
-2.150774067073765198e-12
-1.537566516872043828e-12
-1.117215761394764257e-12
-8.141731325062527303e-13
-5.921068814173809919e-13
-4.364534760450327530e-13
-3.271827329263152738e-13
-2.496615991113219957e-13
-1.937033569806038342e-13
-1.521987838193589453e-13
-1.203034773236246718e-13
-9.499964598912242826e-14
-7.442562894891711900e-14
-5.747568521883901350e-14
-4.351894360192637431e-14
-3.217288139208306337e-14
-2.315981123070283416e-14
-1.622348915781135494e-14
