# bin_13_6
-9.932281793363381259e-16
-1.128145333484342070e-15
-1.261721781556499080e-15
-1.384217273049978180e-15
-1.482608403288898512e-15
-1.540514610078223268e-15
-1.543990047693020912e-15
-1.472454069418868408e-15
-1.325381878183318327e-15
-1.127626793568527607e-15
-9.238442933982639379e-16
-7.669923712413534259e-16
-6.634741045250149783e-16
-5.472328176482786397e-16
-3.868805872123631012e-16
-2.884257983072006416e-16
-2.237744094233804748e-16
-1.506838777705897992e-16
-1.093561122501366785e-16
-7.659159457012640842e-17
-5.233198886114149495e-17
-3.576025107952894432e-17
-2.448340090004416322e-17
-1.688744257541720415e-17
-1.177633078865473237e-17
-8.358869436644617534e-18
-6.049096088275058383e-18
-4.470371503170390149e-18
-3.367086604121216264e-18
-2.572313310634615832e-18
-1.979416702563286542e-18
