# bin_6_9
-3.037853523784950982e-10
-3.415957472506668958e-10
-3.773584790435555930e-10
-4.077746402278728211e-10
-4.285949398489196473e-10
-4.352703143305507304e-10
-4.233237975154682288e-10
-3.888682318275230042e-10
-3.377931546567330962e-10
-2.791123510424466177e-10
-2.290640020532326704e-10
-1.958440652589145174e-10
-1.671047423056322316e-10
-1.248349089511911807e-10
-8.774734512911850533e-11
-7.106603452199107645e-11
-4.781369890541721259e-11
-3.600276985505817026e-11
-2.460951766826122431e-11
-1.714541848417154537e-11
-1.201225703154916438e-11
-8.420806128340030233e-12
-5.948528687406597605e-12
-4.254508970586281409e-12
-3.102755089917019317e-12
-2.306850421803646737e-12
-1.745637347864608921e-12
-1.339557168988735089e-12
-1.035629933494897159e-12
-8.008240051618458277e-13
-6.149467377271279784e-13
