# bin_5_6
-1.061091406904417073e-08
-1.175646127833635912e-08
-1.275405517277099497e-08
-1.347456840160183984e-08
-1.377138077784669896e-08
-1.351401646559596823e-08
-1.255330093342222763e-08
-1.102394896349802365e-08
-9.186119201308317112e-09
-7.528308306760004832e-09
-6.376186247313336526e-09
-5.474007739165336778e-09
-4.230419332066788175e-09
-2.965676818360892336e-09
-2.354485808745317508e-09
-1.669154590258822896e-09
-1.221609095218822653e-09
-8.528111542912241409e-10
-6.099315711372997708e-10
-4.332115975267208069e-10
-3.094244177960701557e-10
-2.238826226886865460e-10
-1.644870290680799140e-10
-1.231488953897783077e-10
-9.381717624081864635e-11
-7.241869814662048265e-11
-5.633696760450681949e-11
-4.385827342945530326e-11
-3.393134163709805366e-11
-2.592491654299596993e-11
-1.946328638034502573e-11
