# bin_6_6
-1.359308031593302274e-08
-1.512123027050866445e-08
-1.648548641548377013e-08
-1.752426831450864185e-08
-1.804275105537788734e-08
-1.788035715495510882e-08
-1.680916459339737953e-08
-1.493117051311443534e-08
-1.255432184921347397e-08
-1.027910743128735567e-08
-8.627360321691252295e-09
-7.447132744592580289e-09
-5.935716777372570364e-09
-4.158771876210048479e-09
-3.227016143929226257e-09
-2.380830183729939272e-09
-1.689140304975625091e-09
-1.195945399033672070e-09
-8.556468675685973557e-10
-6.030035449368629158e-10
-4.272685015887698884e-10
-3.063351404045963307e-10
-2.228560062427614070e-10
-1.650875454544869623e-10
-1.245962379257537686e-10
-9.547910693686713062e-11
-7.394699589253607943e-11
-5.749835701729131573e-11
-4.456647117234300894e-11
-3.420430213019253904e-11
-2.585042122332007365e-11
