# bin_4_2
-4.009151421377013018e-09
-4.294107731376984603e-09
-4.466692286091439335e-09
-4.483579710927219516e-09
-4.293677323665833338e-09
-3.887765306042770535e-09
-3.331942547519392008e-09
-2.744766958148132371e-09
-2.273451028485871200e-09
-1.947866762696816271e-09
-1.614802541889230051e-09
-1.183396719486664881e-09
-8.705484494482007171e-10
-6.789227469157709729e-10
-4.768436860018706688e-10
-3.529096747721823868e-10
-2.529363017428229871e-10
-1.831063488328840876e-10
-1.338654519198419177e-10
-9.920532248437923398e-11
-7.479163134780872831e-11
-5.735366816033690176e-11
-4.465726015171917290e-11
-3.510220248170555844e-11
-2.766908773179466743e-11
-2.172136492028912469e-11
-1.686842109126752734e-11
-1.288374357029734921e-11
-9.632500812751416525e-12
-7.025254053965917542e-12
-4.989667102367680532e-12
