# bin_6_12
-2.283382964884567436e-12
-2.595266356956777188e-12
-2.904806815430286711e-12
-3.189642072225263544e-12
-3.419885900744313450e-12
-3.557865480563213588e-12
-3.570792681669427935e-12
-3.411745999199184952e-12
-3.076717086801455439e-12
-2.622737920879789341e-12
-2.150560058355792125e-12
-1.784052762123024993e-12
-1.542575395618839548e-12
-1.276580323207397815e-12
-9.064642211109767986e-13
-6.721734493187234905e-13
-5.242854284937519743e-13
-3.521328086695866857e-13
-2.568426355663758066e-13
-1.793281011161059986e-13
-1.224794624190302735e-13
-8.374042007755721178e-14
-5.729742437071838181e-14
-3.947458552502733716e-14
-2.748039674534182329e-14
-1.946722053366689521e-14
-1.405770034712890560e-14
-1.036667569865273902e-14
-7.793929738435996544e-15
-5.946467544313445891e-15
-4.572902520750359914e-15
