# bin_13_8
-5.837057838674541190e-11
-6.655217612600309932e-11
-7.479345337089128573e-11
-8.253486131446637747e-11
-8.903690257120571271e-11
-9.335330150854149500e-11
-9.452458405156718598e-11
-9.148434887748103232e-11
-8.357452416866991029e-11
-7.219121048280589663e-11
-5.948086840397184489e-11
-4.895629694616022232e-11
-4.206368260328767563e-11
-3.563379295940555839e-11
-2.614134781329952846e-11
-1.859992190339140422e-11
-1.500712143446626784e-11
-9.934552478742153910e-12
-7.458188155113645382e-12
-5.082799952137794254e-12
-3.461096656516679872e-12
-2.369110145382167977e-12
-1.611158257860887367e-12
-1.097236346055057106e-12
-7.515001383052482673e-13
-5.224047027207845059e-13
-3.695227971421303892e-13
-2.668758297172977736e-13
-1.969940794041302163e-13
-1.482436636636794440e-13
-1.131202094411053537e-13
