# bin_2_15
-1.837734699867762849e-23
-2.100236655010761510e-23
-2.367376287802895196e-23
-2.621853353637981350e-23
-2.841016294947061755e-23
-2.995416333377383078e-23
-3.052149985358747277e-23
-2.981660351462213876e-23
-2.751864713497603161e-23
-2.401398869069612074e-23
-1.989498064574744109e-23
-1.631159976763162442e-23
-1.391510999008183100e-23
-1.193376690157609738e-23
-9.009603146818412922e-24
-6.277437966405236599e-24
-5.085660836568002832e-24
-3.427003161238354398e-24
-2.562099570465888712e-24
-1.720671060740342514e-24
-1.181487981741550629e-24
-8.078690726955156046e-25
-5.477570623870063843e-25
-3.702349092063822420e-25
-2.507043459547395500e-25
-1.717860458799714819e-25
-1.195102659370327289e-25
-8.477059829215523880e-26
-6.149470493828508297e-26
-4.559747347676366619e-26
-3.443243813847097396e-26
