# bin_9_9
-1.053119225529181125e-08
-1.191239136501138183e-08
-1.325353898335148409e-08
-1.444682809214234837e-08
-1.534906460253321225e-08
-1.578695429567256956e-08
-1.562399113455762104e-08
-1.465378429756164605e-08
-1.298595949084112367e-08
-1.088902974809021151e-08
-8.910497402186185202e-09
-7.498729333480866106e-09
-6.482804895975603262e-09
-5.129467039368589171e-09
-3.562790278451945819e-09
-2.795875395290293584e-09
-2.025228667102607704e-09
-1.443593994459153217e-09
-9.967400775942057357e-10
-7.064486015386610368e-10
-4.883956310374255861e-10
-3.369507639495464920e-10
-2.341032426261078904e-10
-1.641425690760503308e-10
-1.169066363995618240e-10
-8.488041458733388294e-11
-6.283956433692338782e-11
-4.739563324622044086e-11
-3.625116680255720855e-11
-2.793767675344962175e-11
-2.153310663592717039e-11
