# bin_13_7
-5.002275518245528883e-12
-5.700490884104916930e-12
-6.402128682994756708e-12
-7.059070758197757465e-12
-7.607583551488651475e-12
-7.966352754565359091e-12
-8.054894652648293533e-12
-7.779458002515490281e-12
-7.091289870942484919e-12
-6.111801828485806261e-12
-5.030769160065068155e-12
-4.145234882523260668e-12
-3.566363859983366772e-12
-3.011050247602293727e-12
-2.195826585327549459e-12
-1.572016828056368331e-12
-1.263626997261795917e-12
-8.363817544831888825e-13
-6.263149107568693225e-13
-4.284967630369008434e-13
-2.917202428394942010e-13
-1.996346278627161430e-13
-1.358472036683432817e-13
-9.268091958610538361e-14
-6.364540913404860800e-14
-4.438320425569434973e-14
-3.150609565492654099e-14
-2.283872492709681633e-14
-1.691582678232309043e-14
-1.276414995435272124e-14
-9.756612241613910195e-15
