# bin_4_8
-1.294534170484468095e-10
-1.443184600966960066e-10
-1.577565239899552258e-10
-1.682507708184646161e-10
-1.739334193962998825e-10
-1.732534777821542574e-10
-1.639562036061004450e-10
-1.465602969024226400e-10
-1.239281734988602237e-10
-1.015167112693699545e-10
-8.477815153702015757e-11
-7.323673070740974205e-11
-5.931667887081006342e-11
-4.180034062366523335e-11
-3.186065073809064409e-11
-2.407476635009469030e-11
-1.676275386978992824e-11
-1.203426542129499378e-11
-8.576464922518558334e-12
-6.017936264183128739e-12
-4.248302606623869150e-12
-3.030569979959791579e-12
-2.192541366886297101e-12
-1.614088229078621640e-12
-1.211256633171365781e-12
-9.238527252458169384e-13
-7.132391235551016642e-13
-5.538591744335589476e-13
-4.295101753169666892e-13
-3.303507224402705259e-13
-2.505331189274638928e-13
