# bin_10_9
-8.496217023211948741e-09
-9.628853204993950006e-09
-1.073813151397191153e-08
-1.173872443476545974e-08
-1.251665298942654802e-08
-1.293093064266790945e-08
-1.286967442924794762e-08
-1.215814080869654745e-08
-1.084786766700818063e-08
-9.151699851826195692e-09
-7.490863001839285770e-09
-6.267782815691863241e-09
-5.425008699603694526e-09
-4.373319710309638209e-09
-3.053582720490646972e-09
-2.348175245696275833e-09
-1.752795585193461276e-09
-1.218726110179666555e-09
-8.569555106032935936e-10
-6.064053161865405374e-10
-4.170656777295229387e-10
-2.863058873556774030e-10
-1.977001171173238951e-10
-1.376652540223163393e-10
-9.718859252047892503e-11
-6.991134404991203408e-11
-5.128601859896743344e-11
-3.837500855962762952e-11
-2.918316287373125425e-11
-2.242337022876243236e-11
-1.728099820227220551e-11
