# bin_3_1
-4.228905864550985389e-09
-4.404116391946761439e-09
-4.428224282958076325e-09
-4.253974606335771458e-09
-3.868394210604449882e-09
-3.331668460706353616e-09
-2.755310075330105132e-09
-2.279783444614370572e-09
-1.943017244742989408e-09
-1.615630767380416660e-09
-1.205495897825347505e-09
-8.830926620700917141e-10
-6.860256602539296206e-10
-4.910551560193522302e-10
-3.623273739561571790e-10
-2.622436386253118470e-10
-1.920706988266362416e-10
-1.420466334067613663e-10
-1.066833140935975935e-10
-8.156347582214711196e-11
-6.339365475065331608e-11
-4.992492597392719673e-11
-3.958642506235553718e-11
-3.137914188362147956e-11
-2.469356973400489737e-11
-1.916669506289457958e-11
-1.459242228245690866e-11
-1.085130369000570953e-11
-7.859947273872480415e-12
-5.541239016531584763e-12
-3.806200742431079399e-12
