# bin_6_15
-5.016553499712935440e-19
-5.721384469009296870e-19
-6.432186462836253722e-19
-7.100975864930793585e-19
-7.664290682605821185e-19
-8.040789781550578183e-19
-8.147397104603743927e-19
-7.892388808807242394e-19
-7.216756002834683167e-19
-6.236393907754250987e-19
-5.144026060241843503e-19
-4.233207897852482717e-19
-3.636696353919135706e-19
-3.085080130944328686e-19
-2.267181306401001196e-19
-1.609950809476090981e-19
-1.301897702394883060e-19
-8.607756185538073278e-20
-6.475968188985682758e-20
-4.408980434732706990e-20
-3.001120458558306031e-20
-2.054775598779758485e-20
-1.397148908810963799e-20
-9.509972460975955945e-21
-6.508305588638806571e-21
-4.520061940706335060e-21
-3.193859355402746837e-21
-2.304121880980584270e-21
-1.699106950244713274e-21
-1.277687879606474887e-21
-9.745852421187603139e-22
