# bin_9_12
-8.966523509094453012e-10
-1.020183396194514786e-09
-1.143363697896399890e-09
-1.257478043715138454e-09
-1.350889148851764549e-09
-1.408860397383311074e-09
-1.417997171334040157e-09
-1.360122414419176892e-09
-1.231295153512968835e-09
-1.053094348354626786e-09
-8.650149949812159835e-10
-7.159725951223987836e-10
-6.184885572676941177e-10
-5.157873279405898645e-10
-3.690834000424818038e-10
-2.704365720507955690e-10
-2.136471189546320171e-10
-1.422745480553652715e-10
-1.050353565052187064e-10
-7.286565604440591411e-11
-4.967791503301077650e-11
-3.396533269342069323e-11
-2.317998800856620540e-11
-1.591599367601660499e-11
-1.102985428367748363e-11
-7.773580023143034956e-12
-5.582711418565052391e-12
-4.095007318020881693e-12
-3.065058941110018606e-12
-2.331417317181455575e-12
-1.790479232166436572e-12
