# bin_3_10
-7.450316031148881038e-19
-8.364658538812638611e-19
-9.222491639108063237e-19
-9.941195711630479713e-19
-1.041520253840638014e-18
-1.053878615210731389e-18
-1.019161086790271207e-18
-9.305673116122061470e-19
-8.030422911529096158e-19
-6.620737489653623473e-19
-5.451948893090799683e-19
-4.683546781120546013e-19
-3.962807918449804635e-19
-2.908548719801002523e-19
-2.077434207370326801e-19
-1.673647971303852370e-19
-1.118952938885423518e-19
-8.426243431290781219e-20
-5.823455654803168377e-20
-4.048011713126152262e-20
-2.840982565168522267e-20
-1.998402091399065123e-20
-1.419760695529319554e-20
-1.022753620849461306e-20
-7.515186007315624747e-21
-5.627033445880476758e-21
-4.283666928530145676e-21
-3.300768476721364817e-21
-2.556835120392894320e-21
-1.976615278449444855e-21
-1.514503237488828521e-21
