# bin_15_15
-1.530249579444194470e-08
-1.756988941177803844e-08
-1.991575509250187987e-08
-2.220633279625515550e-08
-2.426296124864943773e-08
-2.584646550424850198e-08
-2.666021904676940279e-08
-2.648196614870892339e-08
-2.493781558028712347e-08
-2.218146866245251250e-08
-1.864734584904758429e-08
-1.525681622209256798e-08
-1.281060212737670895e-08
-1.110078752811907488e-08
-8.865260566455437920e-09
-6.131840682842567218e-09
-4.786791986432077345e-09
-3.503280289515191690e-09
-2.459631481380542616e-09
-1.681724366746274190e-09
-1.187395496738523487e-09
-8.031467682899692579e-10
-5.363597757333899399e-10
-3.579923316954526729e-10
-2.382485296386470760e-10
-1.591113510988968529e-10
-1.072510524811751542e-10
-7.329162221615342769e-11
-5.108079710325371266e-11
-3.643649641167297816e-11
-2.662509520139910671e-11
