# bin_4_3
-1.355416444710247941e-08
-1.465866577685866129e-08
-1.543171448014080512e-08
-1.570988746213795012e-08
-1.533570706164049841e-08
-1.416269112146476445e-08
-1.236536635466693518e-08
-1.026986566954099021e-08
-8.427272849272913282e-09
-7.164399819280860980e-09
-6.121149312159771194e-09
-4.666790441480031326e-09
-3.297093853827588677e-09
-2.634225946972640825e-09
-1.853527910492353311e-09
-1.378181543636644479e-09
-9.725266081940961288e-10
-7.040338583214128548e-10
-5.105973234266827777e-10
-3.741071512538568488e-10
-2.785690087843572105e-10
-2.109847597259653892e-10
-1.626045539754545961e-10
-1.269478543348894739e-10
-9.977820633881718729e-11
-7.842608905337768556e-11
-6.121144584297314642e-11
-4.714198232619366480e-11
-3.563414241601485405e-11
-2.632569309031248037e-11
-1.895509473680065845e-11
