# bin_8_3
-1.485418888231870940e-14
-1.652651840015286436e-14
-1.802031378506785274e-14
-1.915865069425756010e-14
-1.972590294333550978e-14
-1.955215318347749118e-14
-1.837672753804116566e-14
-1.631902948020162470e-14
-1.370917012491861425e-14
-1.121959426663522955e-14
-9.423046828642881297e-15
-8.148960876153570658e-15
-6.490946757385976945e-15
-4.521885189591033878e-15
-3.531599221001284363e-15
-2.595819429670469675e-15
-1.847920280215687793e-15
-1.298432918438223184e-15
-9.340789031081677640e-16
-6.587205029320063540e-16
-4.665877340249514225e-16
-3.347807131075263943e-16
-2.437442184199103467e-16
-1.807443105840648661e-16
-1.365515518763196774e-16
-1.047424898607173724e-16
-8.119437249072481562e-17
-6.317926407026853703e-17
-4.899444096876124245e-17
-3.761260372040542300e-17
-2.842739744598090128e-17
