# bin_7_14
-5.229402512379679854e-15
-5.958017129051486519e-15
-6.689308913289706194e-15
-7.372914556611392858e-15
-7.941926042922369123e-15
-8.311083024322368084e-15
-8.397451878022173132e-15
-8.100393318897260871e-15
-7.374682864889276701e-15
-6.344158860755415901e-15
-5.222605199638752935e-15
-4.307681847119443126e-15
-3.710575438220600841e-15
-3.126375231951136024e-15
-2.270057198679165777e-15
-1.632538064400337967e-15
-1.309842937519914857e-15
-8.661473001128704906e-16
-6.480785094738405675e-16
-4.447265523967850054e-16
-3.026728898328676076e-16
-2.071075908525327699e-16
-1.409741704013567644e-16
-9.630307313394677554e-17
-6.625884417261196808e-17
-4.631028637156594165e-17
-3.295647120603033916e-17
-2.395261675091110108e-17
-1.778367023070863754e-17
-1.344528826290664299e-17
-1.029062218107464512e-17
