# bin_9_1
-8.025174764382927416e-25
-8.943277385722448415e-25
-9.771217587764441380e-25
-1.041445001800723609e-24
-1.075614503274704057e-24
-1.070315541948315908e-24
-1.011093840580602675e-24
-9.022314946176596796e-25
-7.611692526966953211e-25
-6.232181009776742800e-25
-5.213374478911251951e-25
-4.510720334067983511e-25
-3.639170975669482142e-25
-2.546897908902424224e-25
-1.959563474557801045e-25
-1.470040096604522967e-25
-1.028635038046861510e-25
-7.323188715883819094e-26
-5.253130740812903774e-26
-3.690445533687428923e-26
-2.605441764921366010e-26
-1.861744060588348646e-26
-1.349729042879494082e-26
-9.960788007002697264e-27
-7.492529632905774900e-27
-5.726689147055361742e-27
-4.428574022012661182e-27
-3.442639223872067845e-27
-2.670840790876601184e-27
-2.053800246864802641e-27
-1.556396379926945438e-27
