# bin_4_5
-1.183629908236369072e-08
-1.298969225588972401e-08
-1.392656758129707482e-08
-1.449585061042331771e-08
-1.456126323865892783e-08
-1.394129356673726913e-08
-1.260620181852953260e-08
-1.077491711505751172e-08
-8.853457906358047990e-09
-7.331705874722851518e-09
-6.317688292392965642e-09
-5.250384466633050318e-09
-3.782093165656693778e-09
-2.785657663057838150e-09
-2.193342989407387624e-09
-1.499432604269198941e-09
-1.115532206124856211e-09
-7.933365624975008937e-10
-5.635549665234068229e-10
-4.050959583832550940e-10
-2.944338470391540666e-10
-2.174373893259016256e-10
-1.633826294221057893e-10
-1.249943495829973055e-10
-9.691548173491575805e-11
-7.572936866349196413e-11
-5.923927269380508023e-11
-4.605960919628830590e-11
-3.537242687113887840e-11
-2.668933230242620419e-11
-1.970341476585521286e-11
