# bin_12_14
-4.825808656120199223e-09
-5.521418535775001991e-09
-6.232547252358218206e-09
-6.914240827115259805e-09
-7.507754626789277771e-09
-7.936075706094082799e-09
-8.110002187325240713e-09
-7.955463892549155486e-09
-7.376917179819878991e-09
-6.465744075427054019e-09
-5.374526082685446781e-09
-4.402088494974790493e-09
-3.743535986934148327e-09
-3.224263108692037809e-09
-2.464999263955777535e-09
-1.707519607932736303e-09
-1.379999990356231067e-09
-9.423302497415499704e-10
-6.997673412473918729e-10
-4.677270503788993724e-10
-3.232908926345242511e-10
-2.207455554081242837e-10
-1.494010578578667178e-10
-1.006867936092640874e-10
-6.787476235024320242e-11
-4.622942257208087174e-11
-3.193073290620744731e-11
-2.246573444746492001e-11
-1.616391427830160496e-11
-1.189732972447345228e-11
-8.933889487671336368e-12
