# bin_14_9
-1.453164833760883002e-11
-1.658348844159884186e-11
-1.865845914500615631e-11
-2.061813949135516868e-11
-2.227998152769030580e-11
-2.340910514525617273e-11
-2.375881498043919626e-11
-2.307237095325954510e-11
-2.115282457046519772e-11
-1.832898161272231230e-11
-1.513778509693155076e-11
-1.244241080835244669e-11
-1.067058062093066752e-11
-9.085395563071066737e-12
-6.726095982576158424e-12
-4.744453990291228811e-12
-3.848118238023882964e-12
-2.549601919200547728e-12
-1.920693709915716201e-12
-1.301731535617068563e-12
-8.868636490233527442e-13
-6.073299014358527027e-13
-4.127722649239055754e-13
-2.803882785433462367e-13
-1.912952692640710391e-13
-1.323547126326666442e-13
-9.311973370691599318e-14
-6.687175974595026918e-14
-4.910074298570504429e-14
-3.679221480675745733e-14
-2.799791840128269402e-14
