# bin_9_10
-9.598734996744020595e-09
-1.088508832534901560e-08
-1.214796418177511419e-08
-1.329158055863344483e-08
-1.418746470430201663e-08
-1.467537694709182746e-08
-1.462931410706619108e-08
-1.384624064196686376e-08
-1.237609169090526884e-08
-1.045312722454610843e-08
-8.558574509951403736e-09
-7.153582029566959543e-09
-6.197354515051707328e-09
-5.019454225675271968e-09
-3.502646498454533192e-09
-2.685135206360997626e-09
-2.018450033559870741e-09
-1.394659741871575442e-09
-9.833124234701310459e-10
-6.974525832460159777e-10
-4.791389905254324771e-10
-3.282741366062776395e-10
-2.263883132077531398e-10
-1.574312681759707599e-10
-1.109495321299578453e-10
-7.966306391127474383e-11
-5.833509696380881497e-11
-4.358574726966866887e-11
-3.311539914180954146e-11
-2.543847069563801889e-11
-1.961289756606782948e-11
