# bin_7_11
-4.657814565355764859e-11
-5.276133141135160646e-11
-5.880091231879727212e-11
-6.422704722193415024e-11
-6.841081341121266315e-11
-7.057473134092115084e-11
-7.012199849491357537e-11
-6.608150383862708739e-11
-5.882406192325754562e-11
-4.950031662022868786e-11
-4.050895420372882819e-11
-3.397655376999253980e-11
-2.942999640168085680e-11
-2.357609957043671501e-11
-1.637239317189448296e-11
-1.272566657724299826e-11
-9.390165865176500591e-12
-6.592088878109629398e-12
-4.580583200769345103e-12
-3.259662837210028250e-12
-2.246237593069888257e-12
-1.543095982723622525e-12
-1.068297742330987524e-12
-7.459801723508743369e-13
-5.285549903877906695e-13
-3.816864944389892545e-13
-2.811041228285743456e-13
-2.111035563121124714e-13
-1.610033443265829362e-13
-1.239425031652997921e-13
-9.559074323106465290e-14
