# bin_10_13
-1.154242253565881974e-09
-1.316599417665999146e-09
-1.480437527202605104e-09
-1.634726529580323970e-09
-1.764887718357118046e-09
-1.852219390431592044e-09
-1.877495357432583775e-09
-1.819771193843764315e-09
-1.664981122891237776e-09
-1.439687257363430261e-09
-1.187839966708395821e-09
-9.772280654496501167e-10
-8.392073789733692388e-10
-7.125493894537705145e-10
-5.245063517969211053e-10
-3.718453489651526750e-10
-3.009703660381557868e-10
-1.990260088236395874e-10
-1.498208114952564416e-10
-1.018936094648552439e-10
-6.936241482208625695e-11
-4.749399564825733088e-11
-3.229007164450283563e-11
-2.196839170104694411e-11
-1.502364660529249721e-11
-1.042500796526025471e-11
-7.359065082122937930e-12
-5.303514227104197130e-12
-3.907167217898495119e-12
-2.935817761378833648e-12
-2.238236637437912623e-12
