# bin_8_7
-9.868698373661492677e-09
-1.109418137202298635e-08
-1.225110202319383111e-08
-1.323138564124434368e-08
-1.389608798087925766e-08
-1.409969542447969162e-08
-1.369065411418894228e-08
-1.255453556594882367e-08
-1.088195408308088881e-08
-8.990613624343768414e-09
-7.389142538241062597e-09
-6.330227735685508882e-09
-5.388061451624234222e-09
-4.001451011836417291e-09
-2.828203687049365187e-09
-2.288525624560341104e-09
-1.535357953167873784e-09
-1.157453445023205013e-09
-7.942261311193620876e-10
-5.528533907343259841e-10
-3.876912707311610773e-10
-2.721708170145530558e-10
-1.926804225649604020e-10
-1.381773216197584364e-10
-1.010544623716030771e-10
-7.533094113445281279e-11
-5.713357704538440579e-11
-4.391350451963598538e-11
-3.397877849893318690e-11
-2.627664123319273051e-11
-2.016535804027606266e-11
