# bin_5_6
-1.082794485781738208e-08
-1.200674439934249646e-08
-1.303833330896645691e-08
-1.379121049042470130e-08
-1.411250964218935409e-08
-1.387370401242953415e-08
-1.290870677721013270e-08
-1.135257523050575037e-08
-9.466164130437068077e-09
-7.751373273654444005e-09
-6.562245231797516626e-09
-5.651903480443448307e-09
-4.382197311384171607e-09
-3.052839401410604945e-09
-2.437252043999778110e-09
-1.723971703113109660e-09
-1.266667260739958683e-09
-8.778944644565197882e-10
-6.296089258820385368e-10
-4.473187797506322967e-10
-3.193537365871696334e-10
-2.309346485025211326e-10
-1.695212271056604751e-10
-1.268312807159838395e-10
-9.657657230425759518e-11
-7.453526860457250996e-11
-5.799467546369579179e-11
-4.517237570359768209e-11
-3.497557182298886263e-11
-2.674870570348460230e-11
-2.010383454011137140e-11
