# bin_4_12
-1.421085030614613111e-19
-1.607990517181900069e-19
-1.789675345489480376e-19
-1.951640878855917879e-19
-2.074554092980219758e-19
-2.134804904200927355e-19
-2.114312274693620981e-19
-1.984331013578514505e-19
-1.759563595627541357e-19
-1.475786128394806824e-19
-1.207520601672467659e-19
-1.016178064854713647e-19
-8.795562360606629483e-20
-6.969282600967179497e-20
-4.827390265905889498e-20
-3.796648435438097720e-20
-2.751449444390900944e-20
-1.962043540761952792e-20
-1.348413292351251603e-20
-9.595320764206851080e-21
-6.633033001762878242e-21
-4.572576618816838891e-21
-3.176994918241229008e-21
-2.227100646443206571e-21
-1.585880501063159953e-21
-1.151226954652083550e-21
-8.522119238584102601e-22
-6.428245854040901609e-22
-4.918097337553677039e-22
-3.791958912372238489e-22
-2.924378703582190004e-22
