# bin_6_8
-2.493163995415153484e-09
-2.795662657022211524e-09
-3.077720132935180049e-09
-3.311372938832251116e-09
-3.461070879627422666e-09
-3.492777290158415151e-09
-3.364505529935099138e-09
-3.059674980097009569e-09
-2.629492840751029146e-09
-2.164092793610828600e-09
-1.785889489332812791e-09
-1.537666921084136056e-09
-1.292661150174762290e-09
-9.387891159534068322e-10
-6.782740181344386731e-10
-5.424743754138092383e-10
-3.629965198060637260e-10
-2.720566103705599926e-10
-1.894016459278009298e-10
-1.316710393818218998e-10
-9.245106021122584841e-11
-6.516049040120316953e-11
-4.645135635762771799e-11
-3.360548918864898291e-11
-2.480087556264592821e-11
-1.864414714753896102e-11
-1.423964660864204242e-11
-1.099536849607765592e-11
-8.523826846882335915e-12
-6.586057383939688644e-12
-5.038002686256494373e-12
