# bin_6_3
-6.702652016753782794e-11
-7.368445435779246022e-11
-7.916728667226849585e-11
-8.262523702963559380e-11
-8.325783809206857335e-11
-8.006367827769075775e-11
-7.271283252756080851e-11
-6.241852531121836676e-11
-5.136397451367535809e-11
-4.241903770716954681e-11
-3.649201339571813881e-11
-3.057778752902215370e-11
-2.223462951199136658e-11
-1.616433715298067116e-11
-1.286654125972262290e-11
-8.746799004443754077e-12
-6.557004906631879395e-12
-4.632139244365533304e-12
-3.286494285795515301e-12
-2.359604205135559884e-12
-1.710522585024756675e-12
-1.259106627318034872e-12
-9.427358244633697006e-13
-7.189935421649848990e-13
-5.561679021167671443e-13
-4.339764152308155563e-13
-3.393707309626779912e-13
-2.640553424628780637e-13
-2.031151470382899385e-13
-1.536176275620369499e-13
-1.137461238100577038e-13
