# bin_1_12
-1.516500267945221081e-32
-1.712844742726565058e-32
-1.902186712481897867e-32
-2.068740119218915016e-32
-2.191650614877918755e-32
-2.246186189305463799e-32
-2.212610201890900261e-32
-2.062760767476045217e-32
-1.817477622824518363e-32
-1.516837763684269590e-32
-1.241553031197619985e-32
-1.050492542308645360e-32
-9.069536274689163403e-33
-7.054860723078887663e-33
-4.886433380702231765e-33
-3.902709537779630297e-33
-2.748958800423853039e-33
-2.007258046551237941e-33
-1.365746260827988437e-33
-9.667566305942807916e-34
-6.718313532316279025e-34
-4.661026081997355722e-34
-3.256473230362859067e-34
-2.297342701309052294e-34
-1.648919088113695686e-34
-1.206772407932771948e-34
-9.002788409272166911e-35
-6.834337409098695510e-35
-5.251119139902448996e-35
-4.055844446696150677e-35
-3.125593136558560598e-35
