# bin_2_7
-2.009045142410387633e-15
-2.215340274615722357e-15
-2.389159798436125845e-15
-2.505397301456280755e-15
-2.538339767847165247e-15
-2.460160288643867316e-15
-2.252535035993381991e-15
-1.949578165818626554e-15
-1.610104777442431495e-15
-1.324259634770275040e-15
-1.134157350549179282e-15
-9.622705388774320549e-16
-7.141404047584069402e-16
-5.084272351670913550e-16
-4.094620323352820272e-16
-2.785919655402081496e-16
-2.099524630753169633e-16
-1.465514746936397199e-16
-1.040609082238385699e-16
-7.454800068711352820e-17
-5.379744106915526327e-17
-3.936358611965285953e-17
-2.927596246960585288e-17
-2.219163422148416555e-17
-1.708355227628459687e-17
-1.328868859552874860e-17
-1.038044276390150349e-17
-8.083929224182227083e-18
-6.234732804246378596e-18
-4.734728736772170174e-18
-3.524463360039373084e-18
