# bin_1_1
3.854117290721027231e-10
3.793671009978136109e-10
3.551354051957273517e-10
3.147699341578745186e-10
2.654884124472504244e-10
2.187017413783364066e-10
1.832997003840992085e-10
1.556496605205512067e-10
1.238215065681465437e-10
9.032674413538412819e-11
6.854963514556044687e-11
5.171631457214665300e-11
3.745876970122028181e-11
2.769141876640051005e-11
2.038566338598671157e-11
1.519601436230857805e-11
1.151246199295842343e-11
8.881885746653281164e-12
6.970447672068434267e-12
5.541728248614946906e-12
4.435968091257895898e-12
3.548325740957805651e-12
2.815864611920615634e-12
2.202407907307804773e-12
1.688259543381688398e-12
1.262941285553992990e-12
9.197280320212013608e-13
6.516458126621792615e-13
4.497904844273395926e-13
3.032240375439052491e-13
2.002926729867980429e-13
