# bin_12_5
4.712294980141889347e-19
5.336385542571957194e-19
5.945299695714807195e-19
6.491420483878855098e-19
6.911089113744161351e-19
7.125766776513911920e-19
7.075477725563702550e-19
6.662486387184836535e-19
5.925919828856259580e-19
4.983349800836410853e-19
4.076348435981364633e-19
3.419629328727878035e-19
2.961497403145688337e-19
2.368655751731854266e-19
1.643731097341232458e-19
1.279411515914307171e-19
9.417851575664279031e-20
6.623045634176656018e-20
4.594424333398309004e-20
3.269775170619150831e-20
2.253700152037964697e-20
1.548698242655730530e-20
1.072582496809608026e-20
7.493106835289575366e-21
5.312293478979663325e-21
3.838675989736736085e-21
2.828956054807331596e-21
2.125693107922943452e-21
1.621863020267240325e-21
1.248766864448475648e-21
9.630785532371383035e-22
