# bin_14_2
1.387042989343020782e-34
1.575873744303378578e-34
1.762925662189418833e-34
1.934578301131365253e-34
2.072606036850138156e-34
2.154069169019170401e-34
2.159413360309305416e-34
2.059807473276568982e-34
1.854504737034926065e-34
1.578190760321495844e-34
1.293390966710025676e-34
1.074183524630311772e-34
9.293940703778531818e-35
7.665828443281143882e-35
5.421651842430798683e-35
4.043723283974951624e-35
3.136716542867776287e-35
2.113868729980179409e-35
1.533868364882792837e-35
1.074555169928583184e-35
7.344750727392950070e-36
5.021061646577905175e-36
3.439245450611952468e-36
2.373206764582425980e-36
1.655662929006697046e-36
1.175707383599433491e-36
8.511809053639774832e-37
6.292591364494455186e-37
4.740880939738018275e-37
3.622484546528548038e-37
2.787790667611176422e-37
