# bin_6_2
1.481754189290188778e-15
1.621041845839290290e-15
1.731217612461101064e-15
1.793213187984270293e-15
1.790964614007688095e-15
1.701213367630105718e-15
1.526263501117365301e-15
1.295021399144963952e-15
1.061110250560299260e-15
8.830270854202004731e-16
7.624115666048626802e-16
6.236988289764837129e-16
4.425891944416698462e-16
3.337008662015942335e-16
2.569317589890571431e-16
1.781239801287571586e-16
1.304028493231182587e-16
9.375528942452320027e-17
6.681006182270140246e-17
4.814158661646973602e-17
3.516152386292119001e-17
2.611502096379931235e-17
1.974311441429864504e-17
1.518329005361477446e-17
1.181787445714495283e-17
9.254448892920646072e-18
7.241279094364943160e-18
5.621887662923787928e-18
4.304416498175061610e-18
3.233863522051110438e-18
2.374688124646066834e-18
