# bin_9_4
2.857238023949790385e-16
3.200020083178238906e-16
3.517698262395434283e-16
3.777931419808915089e-16
3.939805070842713893e-16
3.965655179262314783e-16
3.806181021572531073e-16
3.448354581213819662e-16
2.953823105355132535e-16
2.425788305362803175e-16
2.005346973505912915e-16
1.729294798430153503e-16
1.444741084094547214e-16
1.040033708011930430e-16
7.592428565729869106e-17
6.022713099106557177e-17
4.042519910735368795e-17
3.010424589346088300e-17
2.109055295055475073e-17
1.467315573223273647e-17
1.030533529159551416e-17
7.276845261509153509e-18
5.202838672356050050e-18
3.777776150258057711e-18
2.798183674778183120e-18
2.110513928952870522e-18
1.616178377191436991e-18
1.249963840899671804e-18
9.694549689845265580e-19
7.485967697593109698e-19
5.717496574692658851e-19
