# bin_13_11
1.256669350244231462e-11
1.434513695008616558e-11
1.614621256421307932e-11
1.785041317880129425e-11
1.930066292365526721e-11
2.029446003646318561e-11
2.061512310276662641e-11
2.004779837777036452e-11
1.840738595304319351e-11
1.598155511854075463e-11
1.319965625621760221e-11
1.083877376479463862e-11
9.282381953748156688e-12
7.920102043295891088e-12
5.891596091141136996e-12
4.137834384830795255e-12
3.359710038641289981e-12
2.231161485534316757e-12
1.680379692849376594e-12
1.135329103812803867e-12
7.741847241361145001e-13
5.301557427526340461e-13
3.601924692223677032e-13
2.443384320608487432e-13
1.663585796002459739e-13
1.148105465744343320e-13
8.054482781593453445e-14
5.766333279999800266e-14
4.221525290243483030e-14
3.155482456143780729e-14
2.397142614043754309e-14
