# bin_6_1
7.285228033239725017e-19
7.933674585532636670e-19
8.424807466894925406e-19
8.665219277383785772e-19
8.578480236898364134e-19
8.055357276275284446e-19
7.148110495964550649e-19
6.004484804135680763e-19
4.914221476448466495e-19
4.124954546532763043e-19
3.559545212145919619e-19
2.833952773722860061e-19
1.987300772014723689e-19
1.547679586147975921e-19
1.144494472821326790e-19
8.190351119299320055e-20
5.850743898549790509e-20
4.243337235806545926e-20
3.045977340484788117e-20
2.207812996359839483e-20
1.625325489263867501e-20
1.217017108410318693e-20
9.277918507050959679e-21
7.183727340162544789e-21
5.617689220870798438e-21
4.408918486001990124e-21
3.448371256430956877e-21
2.669732191337160580e-21
2.034168190123192598e-21
1.518222586911684021e-21
1.106060796035071338e-21
