# bin_9_8
3.328522689864493897e-11
3.759300997412553394e-11
4.174648546430750714e-11
4.539951905201394393e-11
4.809484293929558288e-11
4.928887837237544131e-11
4.855359284928390165e-11
4.526646710260732037e-11
3.988808558102881037e-11
3.327832247088943795e-11
2.722895987108105157e-11
2.302881949601007869e-11
1.988520715126513015e-11
1.547706131212911192e-11
1.071157375726322730e-11
8.552906679114563432e-12
6.028672018140006959e-12
4.398806756663599051e-12
2.991134146697669995e-12
2.118386331672998603e-12
1.471665828649231210e-12
1.020657309227704878e-12
7.128949871998570866e-13
5.027623749809980984e-13
3.607236612289926567e-13
2.639054088614168245e-13
1.968173907786176954e-13
1.493748460326553549e-13
1.147540543045590314e-13
8.862905587024792133e-14
6.830388069230933365e-14
