# bin_13_6
3.116347745194544716e-18
3.540486543204846547e-18
3.960552849287876928e-18
4.345941314698453729e-18
4.655687745476482070e-18
4.838235771506112495e-18
4.849750013174251313e-18
4.625297243601183799e-18
4.163567874776451171e-18
3.542532935791287824e-18
2.902991281818967227e-18
2.411210373757254862e-18
2.086481325244197766e-18
1.720516747745437383e-18
1.216097459914599413e-18
9.076022833848295781e-19
7.037243023017649466e-19
4.742901465299913185e-19
3.440101068158793802e-19
2.411126070746977726e-19
1.648121613208833076e-19
1.126581325495008308e-19
7.717139707586896069e-20
5.325978218637783624e-20
3.716497817421312641e-20
2.639813064073677462e-20
1.911688807044742622e-20
1.413668916373271561e-20
1.065336699775813490e-20
8.141802687532984013e-21
6.266564137854253769e-21
