# bin_10_8
1.069230676966567405e-11
1.210297334323557665e-11
1.347657859428691626e-11
1.470458115945244306e-11
1.564208242463232116e-11
1.611115653158147001e-11
1.597631120337762330e-11
1.501825655745749235e-11
1.333675920453464386e-11
1.119939262867103715e-11
9.160509179688553051e-12
7.695342931270087887e-12
6.662623521191840753e-12
5.304929273770687714e-12
3.676954952800634462e-12
2.876283369761734042e-12
2.101528684263084625e-12
1.487481079592554879e-12
1.026966239429707623e-12
7.310115295753386273e-13
5.045016489048457506e-13
3.471641248455711405e-13
2.407936191567445544e-13
1.684901180512887709e-13
1.196996078363573607e-13
8.668350833667167497e-14
6.401892346682834482e-14
4.819307552108532999e-14
3.681909447036204464e-14
2.836819552437038385e-14
2.187808566240733969e-14
