# bin_13_12
2.788094908551055847e-11
3.185911808697856659e-11
3.590563249469923052e-11
3.975742919267030988e-11
4.307027809941753099e-11
4.539711546571088708e-11
4.623956254168177602e-11
4.514832351901136225e-11
4.164038287498052245e-11
3.631384427575838117e-11
3.006831720115283497e-11
2.465320574590029992e-11
2.104443292465387166e-11
1.804459016126009791e-11
1.359396246442612012e-11
9.470847110822975044e-12
7.688529732407203667e-12
5.158653842878621804e-12
3.869810192764265623e-12
2.597900114738881187e-12
1.780033033973477599e-12
1.218055058822667551e-12
8.265711277437791188e-13
5.589315442227719943e-13
3.787047987445408557e-13
2.597286797049658501e-13
1.808876913705445447e-13
1.284672359873771902e-13
9.331569264806458761e-14
6.927866484261204135e-14
5.237022550094151715e-14
