# bin_7_4
4.789872131645182190e-13
5.316538897076182151e-13
5.780360647039782909e-13
6.123556252870048404e-13
6.277658380185784084e-13
6.187433369307079431e-13
5.774973591421623935e-13
5.094495253731711875e-13
4.255969014719583093e-13
3.482446281378298665e-13
2.939841337889646383e-13
2.536494730546322374e-13
1.984311478091065297e-13
1.379915090358456632e-13
1.095129664037906228e-13
7.837871551614199738e-14
5.703518329426684471e-14
3.961833988096027249e-14
2.846765640679551591e-14
2.017514794711221377e-14
1.436392801268212653e-14
1.035961493461687573e-14
7.583270060450855159e-15
5.656637838217622373e-15
4.296091016716367048e-15
3.308981683512192232e-15
2.571596201104505167e-15
2.002442776783788201e-15
1.551264813112945523e-15
1.187868493519621049e-15
8.944172203912359156e-16
