# bin_6_3
-8.895794674026051685e-10
-9.482203051248836687e-10
-9.805327893282378817e-10
-9.770868783203083765e-10
-9.269394603637135692e-10
-8.314982077698589898e-10
-7.067328617705471385e-10
-5.810670879022226138e-10
-4.840160379476386401e-10
-4.149078770577109963e-10
-3.378257552464456650e-10
-2.446271272145285828e-10
-1.834272820985627074e-10
-1.404889461860478575e-10
-9.947129062379758099e-11
-7.316232467640008182e-11
-5.274045876349836471e-11
-3.828140039714531879e-11
-2.811124108038889458e-11
-2.095242888749284091e-11
-1.589058192490509257e-11
-1.225544973665243926e-11
-9.584496972073607532e-12
-7.553844466667506979e-12
-5.958923349517303088e-12
-4.672755691798878553e-12
-3.618518238558381639e-12
-2.751925066724444453e-12
-2.046340453580487834e-12
-1.483322976810703496e-12
-1.046886662080561154e-12
