# bin_14_9
-2.350170100200975413e-10
-2.657181658632972132e-10
-2.954685154480081711e-10
-3.218504063572492969e-10
-3.416592082617176657e-10
-3.510450033477366834e-10
-3.469490756098096359e-10
-3.248578603781505111e-10
-2.874284114912040460e-10
-2.407027816902406838e-10
-1.969842499184173852e-10
-1.659961958928285896e-10
-1.434184773482079866e-10
-1.129705437477117639e-10
-7.845064288597709535e-11
-6.179844671463788586e-11
-4.446591732172994551e-11
-3.186756101021797767e-11
-2.194461275016728042e-11
-1.554282528268786066e-11
-1.075836275487390184e-11
-7.432304340281485107e-12
-5.170949681169960897e-12
-3.631464722640861767e-12
-2.591608538957303685e-12
-1.885544607575583684e-12
-1.398700692669340919e-12
-1.056694381550343221e-12
-8.091359310818744272e-13
-6.238823216178277004e-13
-4.807902168699600730e-13
