# bin_7_6
-1.485256709753561620e-10
-1.646199900496019145e-10
-1.786676705132804862e-10
-1.888639845290519052e-10
-1.931368080260636958e-10
-1.896928810325527580e-10
-1.763531920036289169e-10
-1.549906630688095112e-10
-1.291780334692168150e-10
-1.058082836154249010e-10
-8.957426536173677757e-11
-7.701643319716400345e-11
-5.963821018800166232e-11
-4.167949735825693056e-11
-3.315626217914596168e-11
-2.350226654351396798e-11
-1.721372624254076499e-11
-1.198161917266539937e-11
-8.581760966741989913e-12
-6.094528456070866122e-12
-4.350838904503254699e-12
-3.146580669110840871e-12
-2.310586606554922293e-12
-1.729078062741002819e-12
-1.316785635238394089e-12
-1.016283590027204427e-12
-7.906486848009665281e-13
-6.156819967054023265e-13
-4.765367011036026441e-13
-3.643000936073114718e-13
-2.736823317334786709e-13
