# bin_9_4
-8.202584760840129015e-10
-8.914514823813278043e-10
-9.442755072218876767e-10
-9.685461349452563379e-10
-9.550720635863947462e-10
-8.932574720405213690e-10
-7.897892895406461956e-10
-6.623812069096386058e-10
-5.431372425379028818e-10
-4.570971606711450026e-10
-3.923531027786219456e-10
-3.093326384914167225e-10
-2.190430071258092448e-10
-1.701887853062190047e-10
-1.250418525525020536e-10
-8.992596444432752655e-11
-6.451339310616669871e-11
-4.655863164142509886e-11
-3.348927630363653592e-11
-2.434268388482578693e-11
-1.796197344202223601e-11
-1.348004475224527666e-11
-1.029652295906089313e-11
-7.982950410316504366e-12
-6.246437462656299915e-12
-4.901358550453283262e-12
-3.829848807868798316e-12
-2.960409809296919376e-12
-2.251011485837043617e-12
-1.676043728160960169e-12
-1.218010718234231267e-12
