# bin_3_12
-1.186420902336276163e-27
-1.340645718630874353e-27
-1.489678895529411622e-27
-1.621251685982351375e-27
-1.719111776593011388e-27
-1.763769633564954515e-27
-1.740093262471562465e-27
-1.625302768285594612e-27
-1.434700058570763773e-27
-1.198633119061921023e-27
-9.805861116828122201e-28
-8.280749207015917175e-28
-7.156151332728093013e-28
-5.598758280369044612e-28
-3.873812999675347673e-28
-3.080732684044324999e-28
-2.188638533909239267e-28
-1.586682019890632571e-28
-1.081312738872667399e-28
-7.671873203600102025e-29
-5.321810721468568706e-29
-3.684232390886707379e-29
-2.569360875849358250e-29
-1.808802532585237895e-29
-1.294937328144514805e-29
-9.452567708257769195e-30
-7.034743325655309897e-30
-5.329869223019960685e-30
-4.089968064602225772e-30
-3.157477783742412497e-30
-2.433976786011597234e-30
