# bin_7_7
-4.834403284480916819e-11
-5.389941410986792583e-11
-5.892339644214059783e-11
-6.284931698509727630e-11
-6.497606107976917437e-11
-6.473412442359250469e-11
-6.125963569434828525e-11
-5.475300725479468213e-11
-4.627769325881935965e-11
-3.788795424527257027e-11
-3.163744149310214713e-11
-2.735910929729028166e-11
-2.217229152525959890e-11
-1.557147571649371943e-11
-1.189191055664516341e-11
-8.991538487547825630e-12
-6.250081399802519072e-12
-4.480343701252408787e-12
-3.202924322795984448e-12
-2.246596843051594339e-12
-1.584729141155787887e-12
-1.130407557086534286e-12
-8.180089387839514812e-13
-6.024063504130291605e-13
-4.522355052167034176e-13
-3.450813204264928844e-13
-2.665377950378176057e-13
-2.070708562514441680e-13
-1.606448139562767487e-13
-1.235968374437344421e-13
-9.375553904039669404e-14
