# bin_8_10
-1.383852165139478447e-12
-1.562374537251900474e-12
-1.734226347029958620e-12
-1.884958073301185670e-12
-1.995521320837533373e-12
-2.043441055743198019e-12
-2.010744717456528700e-12
-1.872139872991228704e-12
-1.647649504458736213e-12
-1.373319972893938217e-12
-1.123866765625230006e-12
-9.515175784303680656e-13
-8.210468736413412366e-13
-6.366803671045797169e-13
-4.408911445156649174e-13
-3.528924699479773329e-13
-2.474336957056062260e-13
-1.812928966925983033e-13
-1.231697079524574321e-13
-8.709646423147808875e-14
-6.056625193547230804e-14
-4.205592754560884271e-14
-2.940426384340368431e-14
-2.076307721557401015e-14
-1.491934283933254109e-14
-1.093145240249282189e-14
-8.164203196748762467e-15
-6.203348621369664052e-15
-4.769109597096372590e-15
-3.684379308778501202e-15
-2.838942977423817922e-15
