# bin_11_14
-2.780655120217806852e-13
-3.175530107390010042e-13
-3.576172829277271999e-13
-3.956225017155237328e-13
-4.281108264383241078e-13
-4.506107335695759999e-13
-4.582530522940407681e-13
-4.463998117738310337e-13
-4.106493350333252428e-13
-3.572032138217140246e-13
-2.953370065916568649e-13
-2.423556486773852569e-13
-2.072701270934603959e-13
-1.772263231205350736e-13
-1.325454819897960715e-13
-9.276406332515322546e-14
-7.532350385578024875e-14
-5.023271998971730568e-14
-3.777465693892017931e-14
-2.545091041145087609e-14
-1.738873622045600510e-14
-1.190445954513083047e-14
-8.084235701432339262e-15
-5.476566708633993040e-15
-3.721019802382021416e-15
-2.561223709202927010e-15
-1.791297989825835788e-15
-1.278116647241927273e-15
-9.326508804425660728e-16
-6.951720392246657332e-16
-5.270341649834757763e-16
