# bin_13_3
-1.524120158176626125e-09
-1.628218127977095207e-09
-1.688358202339010961e-09
-1.688157489749595343e-09
-1.608779452026039873e-09
-1.449858424236714861e-09
-1.237622730878066566e-09
-1.018960667660399307e-09
-8.465698448869640486e-10
-7.250345881108759242e-10
-5.952649294747567615e-10
-4.343914059659579854e-10
-3.226177824218182643e-10
-2.489359496106353551e-10
-1.759508900189963131e-10
-1.296436258525292229e-10
-9.319268934333443003e-11
-6.758004574363421488e-11
-4.951326648334011790e-11
-3.679581300496219007e-11
-2.782043820448570829e-11
-2.139220147075860082e-11
-1.669048019877110556e-11
-1.313440228750476231e-11
-1.035515030952184459e-11
-8.123083684375273805e-12
-6.298183096079062014e-12
-4.799378678054482890e-12
-3.578139380787473342e-12
-2.601554700398136654e-12
-1.842009074648090402e-12
