# bin_6_11
-1.056330522404030662e-16
-1.193778765683633733e-16
-1.326664804669871294e-16
-1.444079084920076218e-16
-1.531560110454406129e-16
-1.571729971272836347e-16
-1.551148095031269282e-16
-1.449405369660843418e-16
-1.279913912061144413e-16
-1.069628398499519486e-16
-8.750099017352470892e-17
-7.386786223926079583e-17
-6.384846674096037595e-17
-5.000914138429829227e-17
-3.459701512808050938e-17
-2.749221311696054279e-17
-1.956379166989769823e-17
-1.416392560435272194e-17
-9.655715054433521531e-18
-6.854124150227156568e-18
-4.753019830776212849e-18
-3.289132559717826333e-18
-2.293083364955541543e-18
-1.613693432610029742e-18
-1.154714691724750511e-18
-8.424959160315958397e-19
-6.267158384218711122e-19
-4.746583596811690799e-19
-3.641525045222924597e-19
-2.811046049325154438e-19
-2.167067186416185951e-19
