# bin_5_5
-7.993417038770706768e-11
-8.754615755585759957e-11
-9.362770836326391318e-11
-9.715694622457289143e-11
-9.723842964894393097e-11
-9.264982104991890694e-11
-8.338400857465887709e-11
-7.098323046587787939e-11
-5.823286401724793171e-11
-4.836372613236811104e-11
-4.169320287697164491e-11
-3.431040246289259242e-11
-2.454631116384861591e-11
-1.831189515871318734e-11
-1.421671934251895598e-11
-9.814512586733398079e-12
-7.232634489631482693e-12
-5.168860757293448440e-12
-3.679971440043083330e-12
-2.649853002109980403e-12
-1.931635536746156426e-12
-1.431175969478029467e-12
-1.079159400997978541e-12
-8.280304136373052782e-13
-6.434019719336632736e-13
-5.033340328086848844e-13
-3.937539207023928789e-13
-3.058587351094746864e-13
-2.344617364026775534e-13
-1.764588278993486654e-13
-1.298691026596119691e-13
