# bin_7_4
-6.101540305518640609e-10
-6.626503113154309148e-10
-7.013061360709637457e-10
-7.185718314865725134e-10
-7.075984393916025547e-10
-6.606599589516747178e-10
-5.831499818884595539e-10
-4.883961806914913847e-10
-4.004711860758469440e-10
-3.374488714007336282e-10
-2.894964944651691929e-10
-2.272950452999900082e-10
-1.608278358026544483e-10
-1.254050387896712044e-10
-9.167650743615408105e-11
-6.616685060563807645e-11
-4.736760418841323549e-11
-3.421374612058030359e-11
-2.463258834502695745e-11
-1.792183591969095810e-11
-1.323981152193026931e-11
-9.948469043189169495e-12
-7.608250280884762177e-12
-5.904418420549799705e-12
-4.622988043408256223e-12
-3.628454522521457641e-12
-2.834875447711652022e-12
-2.190286703487782075e-12
-1.664149897863784536e-12
-1.237817056434126838e-12
-8.984557316602524529e-13
