# bin_12_3
-1.474381337967317799e-09
-1.574961706322703731e-09
-1.632980413040012463e-09
-1.632596725704572302e-09
-1.555592245893831904e-09
-1.401704192743054244e-09
-1.196344032754955004e-09
-9.849288702666922951e-10
-8.183665351740147192e-10
-7.009019684739746232e-10
-5.752920780394398251e-10
-4.197079597541025742e-10
-3.118106487030756482e-10
-2.405391266259326910e-10
-1.700245897460893870e-10
-1.252704163813762277e-10
-9.005724868264769132e-11
-6.530838818036407515e-11
-4.785257082044082766e-11
-3.556516192609681341e-11
-2.689274087951544333e-11
-2.068090982733908994e-11
-1.613678940929078278e-11
-1.269930715128554803e-11
-1.001229629415310650e-11
-7.854013976243301177e-12
-6.089288338718556642e-12
-4.639867717311441831e-12
-3.458900567701582762e-12
-2.514593097850741889e-12
-1.780237283925378307e-12
