# bin_5_1
-2.557935021194273136e-09
-2.509681151275772153e-09
-2.345586021586654441e-09
-2.079852995420771694e-09
-1.761104000979552949e-09
-1.458187572121390747e-09
-1.219726910076311106e-09
-1.024908501634564381e-09
-8.163810635105059169e-10
-6.063790030339129094e-10
-4.549977848761671203e-10
-3.435297231789157836e-10
-2.504037084469615938e-10
-1.847149721936474295e-10
-1.361059396144770607e-10
-1.015459552313193122e-10
-7.690394683012108837e-11
-5.928310860473000516e-11
-4.646809483321600710e-11
-3.688593880534093351e-11
-2.947443254917326277e-11
-2.353706040933698504e-11
-1.865055828051833337e-11
-1.457068646779024609e-11
-1.116248195309619340e-11
-8.351406423700692129e-12
-6.087323429757526379e-12
-4.319812611107850830e-12
-2.987577846162654258e-12
-2.018277541981054222e-12
-1.335807157393980401e-12
