# bin_2_10
-6.793753068587178492e-27
-7.605162442589407357e-27
-8.355294148518949576e-27
-8.966937054946238559e-27
-9.342569303597893183e-27
-9.394061292933119395e-27
-9.002574707013381012e-27
-8.143932882505787946e-27
-6.965140676132666658e-27
-5.716925237549175964e-27
-4.730572746267227075e-27
-4.082165790664431068e-27
-3.400867407679154501e-27
-2.439095188525719312e-27
-1.789367813939271575e-27
-1.413697820801359179e-27
-9.507890350036108841e-28
-7.057118364985101324e-28
-4.958386949409851965e-28
-3.451375931694123025e-28
-2.424234237738050731e-28
-1.713254794209047415e-28
-1.226496231716034995e-28
-8.919715610862409598e-29
-6.616863596026689783e-29
-4.997650005079110261e-29
-3.831301402921072594e-29
-2.965138355381084112e-29
-2.300191280233997700e-29
-1.775742135079701424e-29
-1.355411971276343760e-29
