# bin_10
0.000000000000000000e+00
0.000000000000000000e+00
0.000000000000000000e+00
0.000000000000000000e+00
0.000000000000000000e+00
0.000000000000000000e+00
0.000000000000000000e+00
0.000000000000000000e+00
0.000000000000000000e+00
0.000000000000000000e+00
0.000000000000000000e+00
2.198457107554164727e-293
5.431688024638899568e-259
1.131719272813041252e-228
6.815006999862311814e-202
3.371966371111501230e-178
3.339275868027920459e-157
1.417959759984190570e-138
4.968414035071653815e-122
2.526426346099416078e-107
3.039131121140241201e-94
1.322038394596879956e-82
3.009890307558847215e-72
4.954176430088791067e-63
7.824535802098161511e-55
1.520737468152247929e-47
4.528424690417108825e-41
2.507333610699392188e-35
3.063992024387829632e-30
9.621335568603314648e-26
8.888288996581540839e-22
2.725374818457254751e-18
3.089415970649998463e-15
1.425953252698208486e-12
2.922634847348451312e-10
2.876095264326004722e-08
1.458283755458507532e-06
4.061646717996601682e-05
6.587987509484926696e-04
6.565967417336657230e-03
4.226163014108694216e-02
1.840548440762183602e-01
5.668525446914423060e-01
1.287276018767612440e+00
2.240717116472819459e+00
3.092737338341476239e+00
3.476625310887090592e+00
3.241782471659703013e+00
2.534718841859047167e+00
1.672204020830001303e+00
9.351235188685261823e-01
4.455200592460515918e-01
1.819771361995798364e-01
6.420636991957248685e-02
1.973274473909397003e-02
5.329465648592004133e-03
1.276330188417092474e-03
2.734482793787121964e-04
5.286322808160054079e-05
9.297659968563949017e-06
1.499437652685957765e-06
2.233667703106190028e-07
3.094921672075866920e-08
4.014533316781304264e-09
4.904583630419626112e-10
5.675451182341950393e-11
6.253319323839912583e-12
6.592566255909121322e-13
6.680429994380089167e-14
6.534206038480604251e-15
6.193291815787202101e-16
1.886521604991427145e-16
