# bin_12_1
5.036623643778572390e-35
5.687624131006061321e-35
6.314909971542928761e-35
6.866015556278154790e-35
7.271700349027172572e-35
7.449943592157073427e-35
7.335612931410179563e-35
6.835542046953712719e-35
6.020498028169472302e-35
5.021234104463999084e-35
4.108888734635008770e-35
3.476424854418299030e-35
3.000748636685097364e-35
2.332325342577057712e-35
1.615008219189551801e-35
1.290294558041844424e-35
9.079284364317068519e-36
6.633210539826845493e-36
4.512200668763819266e-36
3.193400927996400175e-36
2.219629046267898523e-36
1.540416125204536653e-36
1.076625479894475016e-36
7.598892088030616941e-37
5.457136437628461796e-37
3.996185232517628215e-37
2.982881025095306545e-37
2.265400918115396450e-37
1.741081490399222053e-37
1.344885711461238319e-37
1.036318046375178142e-37
