# bin_6_4
7.351072191443449223e-12
8.115293063871782109e-12
8.764696510555195396e-12
9.208088075582682800e-12
9.348752159602808144e-12
9.089552524148531076e-12
8.350815443706496024e-12
7.255198149939860340e-12
5.999083728719386575e-12
4.925780973469590858e-12
4.207600943274767677e-12
3.585361590432933742e-12
2.686933819806892188e-12
1.898367309271290898e-12
1.530801407008467373e-12
1.047004122957063250e-12
7.873171179293241193e-13
5.472894167935819917e-13
3.893066162163667875e-13
2.785516298796909434e-13
2.006243552267554415e-13
1.464384841779747956e-13
1.086098529148827652e-13
8.210997997954876873e-14
6.307410542001641988e-14
4.899012668472538782e-14
3.824309885404023509e-14
2.978735590705972891e-14
2.299441939161116906e-14
1.748896991244010839e-14
1.304520716400834755e-14
