# bin_15_14
2.852733990342968130e-11
3.272453951299180648e-11
3.705478529627736129e-11
4.126383157178971283e-11
4.501556459366912342e-11
4.786190533811360172e-11
4.925308656827133823e-11
4.877969656513191168e-11
4.576533306779092284e-11
4.056321939555400494e-11
3.399488060325039025e-11
2.780229060732929946e-11
2.340540051005646839e-11
2.026675696163103367e-11
1.602874172595395089e-11
1.106297526800038259e-11
8.721967761706169714e-12
6.281035907007133523e-12
4.471402255003657730e-12
3.025601754115626387e-12
2.132479719455879358e-12
1.444874398678381665e-12
9.674829410338732103e-13
6.471885170856045097e-13
4.319010500179132340e-13
2.897232623319783490e-13
1.964042506084130812e-13
1.351615208502268677e-13
9.495635010259780498e-14
6.829274823791061902e-14
5.028140009958821315e-14
