# bin_13_10
3.272337335502676129e-12
3.732016933005022533e-12
4.195638215106699213e-12
4.631882360405707129e-12
4.999411084896117243e-12
5.245253631827452409e-12
5.314998031032768301e-12
5.149651573944011531e-12
4.709495271188519935e-12
4.072509880681350198e-12
3.356840543186927265e-12
2.761086406867271866e-12
2.370986131300648824e-12
2.012393611998501292e-12
1.480370134624960470e-12
1.049545559866568707e-12
8.493141132003712539e-13
5.614499954473507791e-13
4.225784883999552278e-13
2.874257754014245844e-13
1.956311750044282660e-13
1.339635943472892491e-13
9.109189319849632362e-14
6.199269784893515900e-14
4.241402009603057623e-14
2.944776290125105664e-14
2.080112357803016700e-14
1.500142438890633262e-14
1.105909059488345635e-14
8.314216155845905349e-15
6.340942675378248114e-15
