# bin_3_2
7.347230964201363559e-11
7.767098535427356740e-11
7.949870869127012109e-11
7.820215974746499507e-11
7.293122042698439635e-11
6.431044672474682519e-11
5.381313083310883842e-11
4.411044455581066250e-11
3.717383780705104082e-11
3.188048081670962064e-11
2.500534184685039391e-11
1.771249289653815932e-11
1.385605257007078831e-11
1.015013898968993000e-11
7.379934258276622663e-12
5.322436805214503222e-12
3.888528323800393468e-12
2.841972974280549521e-12
2.105241136940331005e-12
1.586812038400718247e-12
1.217215658827038642e-12
9.488143324130504232e-13
7.479313272634192804e-13
5.921552781207552202e-13
4.675892443387927514e-13
3.657234935509566642e-13
2.815754428467947471e-13
2.123038539447307030e-13
1.561575853399808116e-13
1.117980457684231530e-13
7.789584503923912623e-14
