# bin_15_1
7.622033990181271783e-42
8.679767610447195155e-42
9.739175676509404879e-42
1.072659089596525739e-41
1.154415792398822674e-41
1.206750875678006492e-41
1.217766428237677933e-41
1.172698973815888403e-41
1.065739525980195417e-41
9.157038477113507762e-42
7.527496817699294750e-42
6.212528991850652958e-42
5.354439824648160035e-42
4.498783352072548019e-42
3.253968129820548323e-42
2.350590766643571656e-42
1.878185027413640282e-42
1.244189487274404014e-42
9.275792954836982468e-43
6.381674478471211083e-43
4.345360084452378697e-43
2.972906411514634194e-43
2.025261450002880646e-43
1.385567646188373056e-43
9.553049725427009817e-44
6.693339203767209730e-44
4.776306857530987032e-44
3.481018568431151563e-44
2.590829736536403449e-44
1.962383860374037210e-44
1.503483043554588289e-44
