# bin_10_4
3.644292183416168586e-18
4.096934585670783731e-18
4.524337022848076835e-18
4.886658103363887488e-18
5.132678336217360748e-18
5.208419932586833832e-18
5.058747302939543557e-18
4.640109083747744660e-18
4.024703620555587522e-18
3.323299544459136852e-18
2.729953539390979371e-18
2.337537833631146785e-18
1.990821561368621121e-18
1.480333502560661323e-18
1.044570961443894699e-18
8.456947107429621281e-19
5.674953269659294815e-19
4.278611528389571585e-19
2.933154515187820840e-19
2.042006850570266849e-19
1.432055946934794491e-19
1.005286638046547975e-19
7.115498557414551774e-20
5.101442859022398280e-20
3.729898664958665826e-20
2.779813560201544366e-20
2.107893119437931814e-20
1.619939501028570025e-20
1.253380973031696026e-20
9.692853004685001254e-21
7.439095662910876124e-21
