# bin_12_3
1.082818403905299200e-25
1.223978647999983390e-25
1.360585762478651942e-25
1.481482893727324838e-25
1.571865714605966702e-25
1.613888654256730488e-25
1.593792332650236451e-25
1.490467575178755150e-25
1.317183490675390111e-25
1.101487759579886734e-25
9.010427910847088529e-26
7.601418820763224437e-26
6.572046812372622772e-26
5.159246464496331852e-26
3.569866183601355472e-26
2.830899527595288746e-26
2.021858478266410365e-26
1.459367214679140481e-26
9.965127721092973703e-27
7.077999259339882881e-27
4.905788153424488236e-27
3.392907074569825368e-27
2.364413083148172729e-27
1.663131773383177139e-27
1.189357300240414302e-27
8.672241790770365440e-28
6.447195600248818592e-28
4.880476439032083965e-28
3.742990021848480782e-28
2.888983040119480618e-28
2.227300512270041713e-28
