# bin_2
0.000000000000000000e+00
3.869310554481939202e-30
7.134747625294605142e-23
2.536740636291733885e-17
5.567561168685146117e-13
1.391561670328336208e-09
6.138020923326172609e-07
6.687135721900627793e-05
2.347823494454621528e-03
3.293551904933035568e-02
2.203989120005978852e-01
8.167521278349354485e-01
1.903190621378353597e+00
3.097586673761152820e+00
3.805317138575624369e+00
3.695364367119683191e+00
2.899385173078976141e+00
1.859174945082742614e+00
9.856173024289033302e-01
4.384780413737848770e-01
1.665984386760421543e-01
5.507324618321690624e-02
1.613157199427767141e-02
4.259083216062300309e-03
1.029564940997501014e-03
2.310959622816244016e-04
4.877017281947920886e-05
9.784160663164079164e-06
1.884088577685176020e-06
3.512083437974057145e-07
6.384477424788789881e-08
1.139153046621339885e-08
2.006186049912219241e-09
3.504370964063892444e-10
6.097281183093389081e-11
1.060576339350044750e-11
1.850139810910963348e-12
3.245735123942826497e-13
5.739730281254139266e-14
1.025224774724888359e-14
1.852884711849301954e-15
3.393287792353189698e-16
6.304922265206653594e-17
1.189826695846520840e-17
2.282525947073577368e-18
4.454439050053366176e-19
8.848610005062901759e-20
1.790072356403848532e-20
3.689299639098735769e-21
7.748550038684380352e-22
1.658789815529738547e-22
3.620079107904623858e-23
8.054448678715532999e-24
1.827078130269846540e-24
4.225465764677609099e-25
9.962390702665623818e-26
2.394332271576156820e-26
5.865222768989229230e-27
1.464198753382956179e-27
3.724410590964047369e-28
9.651069108563689729e-29
2.547211575665217624e-29
6.845919892679933797e-30
1.873166387410779698e-30
5.216691166244082688e-31
1.478363677747043471e-31
4.262116659366890575e-32
1.249728616548609965e-32
3.725969737838495997e-33
1.129228845006419503e-33
3.477993376715303906e-34
1.941747246884557061e-34
