# bin_9_8
7.135206577924799759e-08
6.719145182558745353e-08
6.169123350990178171e-08
5.513619147905464672e-08
4.794241017976033482e-08
4.060565686421934102e-08
3.361433996232835025e-08
2.733318209218993349e-08
2.191898758192395488e-08
1.733339626281482285e-08
1.345119861529547736e-08
1.021129711101039599e-08
7.644233004411786309e-09
5.722974155876164737e-09
4.283640923658897647e-09
3.198124304437771296e-09
2.406366179650975045e-09
1.821595301847670798e-09
1.390264037443213182e-09
1.067849242482959330e-09
8.235535670211477639e-10
6.355652949853921329e-10
4.889440370462160715e-10
3.735561624342681105e-10
2.824446270820944428e-10
2.107291049196757987e-10
1.547864999398398892e-10
1.117465457662738737e-10
7.921054485642118320e-11
5.510767898155668541e-11
3.763695810666511494e-11
