# bin_6_2
3.156370903081090335e-08
2.765798556742456599e-08
2.359369327863046308e-08
1.964935340440338973e-08
1.605496187627507030e-08
1.293276949717753903e-08
1.028517228459252970e-08
8.043083595037354536e-09
6.158701482246079311e-09
4.645853034678902150e-09
3.503959591513891894e-09
2.651071374380230016e-09
2.006747484503774131e-09
1.532076971396564900e-09
1.180626331694429724e-09
9.182315997543871587e-10
7.193889527099295178e-10
5.658263121234299164e-10
4.448879878799133338e-10
3.481021775220097755e-10
2.698913206979777643e-10
2.065568714828292449e-10
1.555575683790801457e-10
1.150001199587859022e-10
8.331974790820431606e-11
5.911228997676538228e-11
4.106622767368430569e-11
2.795795518120060665e-11
1.867996988203810497e-11
1.227304434742435795e-11
7.947014647159488777e-12
