# bin_5_3
3.814910909147399106e-08
3.402051617843228991e-08
2.952361206757333609e-08
2.496334547268301462e-08
2.063849581774178515e-08
1.676800769174473663e-08
1.344203948615101450e-08
1.063030880998530818e-08
8.253505090358432470e-09
6.277467313694517468e-09
4.722085250621137276e-09
3.561262655752425925e-09
2.689449335218771992e-09
2.033852845499312811e-09
1.553080409437787406e-09
1.195740923002649299e-09
9.287286800545176857e-10
7.258177382980306483e-10
5.688051188346102560e-10
4.451092595366591622e-10
3.463014744383242927e-10
2.667871614417309646e-10
2.027906485605125669e-10
1.516521266847719968e-10
1.113326703119299722e-10
8.012076247609594182e-11
5.648411415088805604e-11
3.901293740570245923e-11
2.642112365875819004e-11
1.757096496367206133e-11
1.149689431027026757e-11
