# bin_10_5
5.952454281030888577e-08
5.508787713038559527e-08
4.963925839392327477e-08
4.350712189930880579e-08
3.711096355117442909e-08
3.089588511838473989e-08
2.523099487147278674e-08
2.031199496609924194e-08
1.614345482381950988e-08
1.261061146935233938e-08
9.630661154899689244e-09
7.229654157642946024e-09
5.422531089642522716e-09
4.075665634588865535e-09
3.052487232933897900e-09
2.304361620237436272e-09
1.751778680826975510e-09
1.343448150330958869e-09
1.037683932271463408e-09
8.053703657152369717e-10
6.258061271089842789e-10
4.848793568369116171e-10
3.731070991832336667e-10
2.840616179064254415e-10
2.133017147050024917e-10
1.575759192704472344e-10
1.143136998435652512e-10
8.134388276467085041e-11
5.675113432924308031e-11
3.882878886131190847e-11
2.607615090453515325e-11
