# bin_13_10
8.487812124260160779e-08
8.113801106186897579e-08
7.570691180814436661e-08
6.881232777217571178e-08
6.085149487317297831e-08
5.235791495763267005e-08
4.392369604569517673e-08
3.608170957265324865e-08
2.916790826412710159e-08
2.326616374277626126e-08
1.826747097002079943e-08
1.403743818174469062e-08
1.056104218582569735e-08
7.878811459836685492e-09
5.887495204201485982e-09
4.380157553381381110e-09
3.261743343103196542e-09
2.446506088862067708e-09
1.846078332722578653e-09
1.403325275789286533e-09
1.073062675821047315e-09
8.231821157930966942e-10
6.314196299672547972e-10
4.825205378201743908e-10
3.660438382265284408e-10
2.747645925647516738e-10
2.035392422600421046e-10
1.484888972860498082e-10
1.065270306114954884e-10
7.508871655128048203e-11
5.199024470712868321e-11
