# bin_12_11
8.561517231783538018e-08
8.191803341022126580e-08
7.651394597264448410e-08
6.962551345142812615e-08
6.164613000998371596e-08
5.310776625316542227e-08
4.460448391589518270e-08
3.667560475816631667e-08
2.966865306207060853e-08
2.367907480683877907e-08
1.860581658201016411e-08
1.431337635562165234e-08
1.077923729514726518e-08
8.041852465584913491e-09
6.007121620848624456e-09
4.469945291732843878e-09
3.326207542015207637e-09
2.493200662357030142e-09
1.879474333359858320e-09
1.427437042732967140e-09
1.090534935196024557e-09
8.359625923053457855e-10
6.408774764132297894e-10
4.895970713554010100e-10
3.713893711475787683e-10
2.788261438468608013e-10
2.066298562904789566e-10
1.508339882703899482e-10
1.082936734815493868e-10
7.640507382439529208e-11
5.295740205409223867e-11
