# bin_8_6
6.152640030456193223e-08
5.717906565782392812e-08
5.176458419954420076e-08
4.559792285326637259e-08
3.909139499573571119e-08
3.269248052733714977e-08
2.679152350939823878e-08
2.162052704083482339e-08
1.722164990947829159e-08
1.350085365593697314e-08
1.036143894401525834e-08
7.801203260673372117e-09
5.843077582013690162e-09
4.389459620236239703e-09
3.287373028179806067e-09
2.472806121898768227e-09
1.875152234560581198e-09
1.432835012760248029e-09
1.103064617634198120e-09
8.537333863288661621e-10
6.620538679021027489e-10
5.124200810574850858e-10
3.942780469733955689e-10
3.004685772061041955e-10
2.260495804434611688e-10
1.674511627484284036e-10
1.219000958364465318e-10
8.709568641804191380e-11
6.103824270581828521e-11
4.196100114174377549e-11
2.831518221836452413e-11
