# bin_15_14
9.648147653847061868e-08
9.328227626041946874e-08
8.812133111457047886e-08
8.116202811657033329e-08
7.276101416133162254e-08
6.345198708608153363e-08
5.388211184317527928e-08
4.469990251941476965e-08
3.640430160509354309e-08
2.922540361077545180e-08
2.313209582354879215e-08
1.796448696600095543e-08
1.363452503141201018e-08
1.018030442145108648e-08
7.583567888820485128e-09
5.641814997181669841e-09
4.175673629328263328e-09
3.107566810277392443e-09
2.323447288308938012e-09
1.749755280144206562e-09
1.325963954784530802e-09
1.009680595394307315e-09
7.704288146399069697e-10
5.871254214328219768e-10
4.453241918289989776e-10
3.350469635300547327e-10
2.493252359884684525e-10
1.830821862367596524e-10
1.324259244787483065e-10
9.423994463880594034e-11
6.594272036245542288e-11
