# bin_5_1
2.074820799075926266e-08
1.763295729316885903e-08
1.464501997639788472e-08
1.194435718072482626e-08
9.606752666825675213e-09
7.623359771096762948e-09
5.945724179032221045e-09
4.548132805096879884e-09
3.438319423869496802e-09
2.601055631713662097e-09
1.974237518790555770e-09
1.503191511993179121e-09
1.155131169557580756e-09
8.965810249557151650e-10
7.022850825289571380e-10
5.537605302489463560e-10
4.378475291735647818e-10
3.455706200441844191e-10
2.709946559975384257e-10
2.102548541479836924e-10
1.608031815834969240e-10
1.208707866700230621e-10
8.910051910290293904e-11
6.432475903942044691e-11
4.545583292395558902e-11
3.145260096624738065e-11
2.133305230760716325e-11
1.420754787966529297e-11
9.310450817598370761e-12
6.017217247610352869e-12
3.843906417065058617e-12
