# bin_13_12
8.967257276324188805e-08
8.614760022519208978e-08
8.081795274107538637e-08
7.388513815596793579e-08
6.573057371722314396e-08
5.688929731427262878e-08
4.797786897772073969e-08
3.957898704128457021e-08
3.209700265749753976e-08
2.567485728980686420e-08
2.023288502344059423e-08
1.562219426566019567e-08
1.179670395527494610e-08
8.800082855090353842e-09
6.566937457213335974e-09
4.886000298602693396e-09
3.626896541596604425e-09
2.711498263901549248e-09
2.037314067503491987e-09
1.542447400363152950e-09
1.174914942398156151e-09
8.985143643764307616e-10
6.877475179669668058e-10
5.250357507153588924e-10
3.983518043727380859e-10
2.993802879660542292e-10
2.222605601315980541e-10
1.626423842875231727e-10
1.171222221996034979e-10
8.291733852444840355e-11
5.768572492816418870e-11
