# bin_6_5
5.197238563834770370e-08
4.761127840962271585e-08
4.246303074612061574e-08
3.685214101257847235e-08
3.116113666799859809e-08
2.576246480159968651e-08
2.092882989163622996e-08
1.677229897229856725e-08
1.325697985484917120e-08
1.028560501423210408e-08
7.814046866345236708e-09
5.864773643618225194e-09
4.409019879298828798e-09
3.317068761352439744e-09
2.494665670386899643e-09
1.893291958930550416e-09
1.447250243109610746e-09
1.115800224755234240e-09
8.656327817596027062e-10
6.737511899124104671e-10
5.240819344887474259e-10
4.057365389081269476e-10
3.114066843105206413e-10
2.361111543449372170e-10
1.763409310567336134e-10
1.294414030708793843e-10
9.324143935506495433e-11
6.585691744933576932e-11
4.560272065355382131e-11
3.097520135370110000e-11
2.066178535827419184e-11
