# bin_9_5
5.818407306393095009e-08
5.376077672697270615e-08
4.836542444593826901e-08
4.232575718616266462e-08
3.605471589905446111e-08
2.998451422979680672e-08
2.446715937814772903e-08
1.968350858903758872e-08
1.563094308067093268e-08
1.219778792014306519e-08
9.308090417248489643e-09
6.987272576864917154e-09
5.242540307037301995e-09
3.940952772881469454e-09
2.953422600589000080e-09
2.231360736646957651e-09
1.697698958540675720e-09
1.303023357729129474e-09
1.007132940606922352e-09
7.820000266024148989e-10
6.077448483045434159e-10
4.708280325325100489e-10
3.621529280630513978e-10
2.755487593694878879e-10
2.067399495276512923e-10
1.525810807874072689e-10
1.105725849270819597e-10
7.859428457407151483e-11
5.477173431541624724e-11
3.743431568187852812e-11
2.511472799182793378e-11
