# bin_7_2
3.248598373206455824e-08
2.850944525936836095e-08
2.435226902128560213e-08
2.030249058608874079e-08
1.660193069043917329e-08
1.338273283901383362e-08
1.065162324462765039e-08
8.337387172133277603e-09
6.388362123007606359e-09
4.819231895758884009e-09
3.633519699545972957e-09
2.748354897520044112e-09
2.079172193187930095e-09
1.586155006080323740e-09
1.221404542560914678e-09
9.493229089704743860e-10
7.434076408800201373e-10
5.846023436197791794e-10
4.596895228352588195e-10
3.598112709745724547e-10
2.791352744209618077e-10
2.137999063720069143e-10
1.611623314975232347e-10
1.192657883791595245e-10
8.650271244870284395e-11
6.143583512235194493e-11
4.272381524516780401e-11
2.911354824103068824e-11
1.946805675416212999e-11
1.279977265329883022e-11
8.292850741846049925e-12
