# bin_14_12
9.125643804376683496e-08
8.779928271187193441e-08
8.249942876778779442e-08
7.555011792447861135e-08
6.732802760572201987e-08
5.836929619089733715e-08
4.929915158306088188e-08
4.071707957466440295e-08
3.304950685433928422e-08
2.645799400699594867e-08
2.087139794605638901e-08
1.613592631098196516e-08
1.219643827366851796e-08
9.098334181071242694e-09
6.787110920495613649e-09
5.049572824829161186e-09
3.745241037693091566e-09
2.797331740752698575e-09
2.099395536583248582e-09
1.587653702264460004e-09
1.208057580055808260e-09
9.230656429170771567e-10
7.061293518351490136e-10
5.389238776603629117e-10
4.089110626251291776e-10
3.074256583796108182e-10
2.283765370004437582e-10
1.672618516004426405e-10
1.205758684280492211e-10
8.546522262199490526e-11
5.953619392735745952e-11
