# bin_14_1
2.340188486694819678e-08
1.998125521230364723e-08
1.665696713650354260e-08
1.362449423300431336e-08
1.098673299116095011e-08
8.744227303541479569e-09
6.841306912828735920e-09
5.243792360821642960e-09
3.963857188311697996e-09
2.995035684411627401e-09
2.270415867690056894e-09
1.724901395326425342e-09
1.321937402511455259e-09
1.023500989149060586e-09
8.000579599515987022e-10
6.300828938304668394e-10
4.980756467107339332e-10
3.934122770653850903e-10
3.090412828757069596e-10
2.403747898498647594e-10
1.844121880470561944e-10
1.391078567226185222e-10
1.029317059579943496e-10
7.459541648862163310e-11
5.291073025069423193e-11
3.673881270471970859e-11
2.499680770400968681e-11
1.669300230773716368e-11
1.096431773795770894e-11
7.099368434088158033e-12
4.541957935547563944e-12
