# bin_13_5
6.235146426522413695e-08
5.788661285182110162e-08
5.232566759966487415e-08
4.599852757074863910e-08
3.933851169059501328e-08
3.281790169364980050e-08
2.684187122046997231e-08
2.163743029370901713e-08
1.722430845866671122e-08
1.348123039768058299e-08
1.031094308385160691e-08
7.740822032739354492e-09
5.802120515797751736e-09
4.359766694661633490e-09
3.261408247420743390e-09
2.458315721460416536e-09
1.865829186555990783e-09
1.428701243912402564e-09
1.102113807426955698e-09
8.546567253468765500e-10
6.638960524468825925e-10
5.145125831255555356e-10
3.962086643530323866e-10
3.020146425237864839e-10
2.271400327598710094e-10
1.681097064856993625e-10
1.222034751172248551e-10
8.714261836987398678e-11
6.092557321852306222e-11
4.176965412235151772e-11
2.810373931647037967e-11
