# bin_13_2
1.793492334669985294e-27
2.032356350687056027e-27
2.266114726573592731e-27
2.476759094490562786e-27
2.640183527237895915e-27
2.726486751098760437e-27
2.712524919647436775e-27
2.560752597615249136e-27
2.283125680994396727e-27
1.924322223950670606e-27
1.574420426794698185e-27
1.318042170947233309e-27
1.141618580194548294e-27
9.191069908868935260e-28
6.395684684713587556e-28
4.937724296287339215e-28
3.675296778371719436e-28
2.560094439644134561e-28
1.791081557716866735e-28
1.272474395931192220e-28
8.754392297647527781e-29
6.005826315468368169e-29
4.149945183626833283e-29
2.892072566000988142e-29
2.043877367783326411e-29
1.471953431600311133e-29
1.081148661361338828e-29
8.099807198591328374e-30
6.166462182436510881e-30
4.742191767686707083e-30
3.656701746555382252e-30
