# bin_8_2
1.942821920001108678e-15
2.156011206980779919e-15
2.343524174613065998e-15
2.481898052247536421e-15
2.543429956904128001e-15
2.505600325560357355e-15
2.337133218584615102e-15
2.060569163087803953e-15
1.720617485208339941e-15
1.407970166086376097e-15
1.189171149793917922e-15
1.025730390858082201e-15
8.011061447523374336e-16
5.571584808870675235e-16
4.427303581505273242e-16
3.161279370875889895e-16
2.304915099827247336e-16
1.600075773470966222e-16
1.149378346374252992e-16
8.150009311938281832e-17
5.805925487466018269e-17
4.189753798933769189e-17
3.068655645903931130e-17
2.290457470401350782e-17
1.740511856325353378e-17
1.341144449942305455e-17
1.042526152724127972e-17
8.118265842008117158e-18
6.288220854553110328e-18
4.813702073270992307e-18
3.622957211028329534e-18
