# bin_7_6
2.783439242176755604e-06
3.110028664944734473e-06
3.408933863841864144e-06
3.648037564100003620e-06
3.787061144101800865e-06
3.791869875008206640e-06
3.612349394281454592e-06
3.249134296195650897e-06
2.762798625794233604e-06
2.264131909555702399e-06
1.881185296492790966e-06
1.626117023974371863e-06
1.338299320477030355e-06
9.484204264357644396e-07
7.094996305040276716e-07
5.498558774122443189e-07
3.747640712170025878e-07
2.736601106243463496e-07
1.942346421824578487e-07
1.356445856533979843e-07
9.540074993189832750e-08
6.770667979852213850e-08
4.872464948155587775e-08
3.565212236066116267e-08
2.660525940021940699e-08
2.019835992760062204e-08
1.554439625651930638e-08
1.205527669823391970e-08
9.353820787910738507e-09
7.210049068477104377e-09
5.487017198985503797e-09
