# bin_14_1
8.382109164185065281e-35
9.522990297602146157e-35
1.065299291895453360e-34
1.168978617306733259e-34
1.252320517070191057e-34
1.301460957029099292e-34
1.304592361762695262e-34
1.244295625470333383e-34
1.120179432614882854e-34
9.531991605198628559e-35
7.811819338695709452e-35
6.488364443206483231e-35
5.613740175523434810e-35
4.629223522282378003e-35
3.273728874884029188e-35
2.442431809301630421e-35
1.893811357213742242e-35
1.276746369253739990e-35
9.260788057928216165e-36
6.488329154349908920e-36
4.435178625392399132e-36
3.032160092679474029e-36
2.077121972719731276e-36
1.433418507470539482e-36
1.000135429659554984e-36
7.102972161760509309e-37
5.143018694773620166e-37
3.802559276133674966e-37
2.865123068480903466e-37
2.189329695919735811e-37
1.684868644739165226e-37
