# bin_13_8
1.889681189399137823e-09
2.150910952444836796e-09
2.411969671151323613e-09
2.654538872647850582e-09
2.854237400269104454e-09
2.980152517292356561e-09
3.003389811604900465e-09
2.886587406123692164e-09
2.618050986918109640e-09
2.244846097396387558e-09
1.843832005424034050e-09
1.523478531440414126e-09
1.314536439554767506e-09
1.100715010836856146e-09
7.918296227746083173e-10
5.756475228393032303e-10
4.578040403002764540e-10
3.036856057504594327e-10
2.255449871501088475e-10
1.557562593427523220e-10
1.060839661105593957e-10
7.254502028794949912e-11
4.944682341001054894e-11
3.387997907200022816e-11
2.341123200466483674e-11
1.644569903784140056e-11
1.176913009828715009e-11
8.602574018221990041e-12
6.419393311225083311e-12
4.872021910647373485e-12
3.737154676989756667e-12
