# bin_9_12
-7.915034252214787076e-10
-9.003606503435717229e-10
-1.008823511654423014e-09
-1.109187443051256015e-09
-1.191175481187834815e-09
-1.241791631528249819e-09
-1.249263600104247293e-09
-1.197603794464189964e-09
-1.083436175874104660e-09
-9.265638998959803380e-10
-7.603733409689521537e-10
-6.293007628727000010e-10
-5.436229680889217478e-10
-4.530010228701346233e-10
-3.238241931236967017e-10
-2.374583216870513378e-10
-1.873975036017536104e-10
-1.248292899125811625e-10
-9.206707712690104550e-11
-6.389706057938524702e-11
-4.356392456564222593e-11
-2.978145611120944434e-11
-2.032751578018518226e-11
-1.396092346804409468e-11
-9.678635328441383734e-12
-6.824417258494696710e-12
-4.903631250285419006e-12
-3.598781473864101873e-12
-2.694871442937237323e-12
-2.050506770065255410e-12
-1.575002794158444107e-12
