# bin_5_10
-2.841460077364082932e-13
-3.199322093671688392e-13
-3.539654144587865436e-13
-3.831883842590697408e-13
-4.036366527061621367e-13
-4.109273877562340413e-13
-4.010288386153255701e-13
-3.697911296419500640e-13
-3.224301393792934128e-13
-2.670277773885359721e-13
-2.189547744435232760e-13
-1.867816979632343335e-13
-1.600198469886972941e-13
-1.207482362307655235e-13
-8.437484199856202356e-14
-6.833414610901133383e-14
-4.633540325034541430e-14
-3.476710622786243161e-14
-2.366757658845833636e-14
-1.654057428871720538e-14
-1.157401793817987923e-14
-8.098424268152936997e-15
-5.705055631147474365e-15
-4.065826501497112730e-15
-2.953425382527625509e-15
-2.187422180854303579e-15
-1.649729856492224586e-15
-1.262941436977126727e-15
-9.752475508978578838e-16
-7.542072267019657160e-16
-5.798863005559892818e-16
