# bin_8_1
-4.309258452236531770e-22
-4.770601126790021228e-22
-5.170168834601498268e-22
-5.455247904930930851e-22
-5.566208288787847123e-22
-5.450552759424096859e-22
-5.047929833335051560e-22
-4.420219362978802527e-22
-3.672655346174305220e-22
-3.008677494755145939e-22
-2.555262754494226143e-22
-2.194234935752537732e-22
-1.680610693054802642e-22
-1.173874267659998919e-22
-9.430886823491539904e-23
-6.572041751838449270e-23
-4.882500987068454329e-23
-3.377934954799000584e-23
-2.414740184882376433e-23
-1.720203339938296066e-23
-1.231929137484153743e-23
-8.935342199555350112e-24
-6.580701267093428628e-24
-4.940522083142167391e-24
-3.773148172365736019e-24
-2.918458064725533968e-24
-2.273538805684755321e-24
-1.771062845464657738e-24
-1.370043630152573604e-24
-1.045941513010307902e-24
-7.841824797567983350e-25
