# bin_5_3
-1.581684529690209051e-09
-1.724976249021197405e-09
-1.835084744850396092e-09
-1.891667630930599626e-09
-1.878061247848728645e-09
-1.769997329546944271e-09
-1.576126988514283787e-09
-1.328078015851017245e-09
-1.087161405034138106e-09
-9.100011412032898890e-10
-7.856766990887419610e-10
-6.311527559640215216e-10
-4.438404137452731769e-10
-3.422610599144168247e-10
-2.564589085964080544e-10
-1.815692025275109298e-10
-1.306457106069273612e-10
-9.455470236045798745e-11
-6.769380440573625189e-11
-4.895230330903390243e-11
-3.593583613316496439e-11
-2.683169612543698587e-11
-2.039656652198942104e-11
-1.575629684669273362e-11
-1.230211580417597335e-11
-9.648133358294138711e-12
-7.547525126904779921e-12
-5.849074205905867461e-12
-4.464173079483014491e-12
-3.339492816853935380e-12
-2.439573604000462670e-12
