# bin_7_9
-2.836649203230363915e-09
-3.196747692331756796e-09
-3.540585032788789453e-09
-3.837933740774284805e-09
-4.049384470471058047e-09
-4.130301621984010355e-09
-4.041799307731177861e-09
-3.738613755919084985e-09
-3.269714781079758214e-09
-2.713132885839064352e-09
-2.222883400353034407e-09
-1.891782833178676266e-09
-1.625252530996940250e-09
-1.237211602785628325e-09
-8.609914250442507308e-10
-6.957353501149644410e-10
-4.761217797493288862e-10
-3.551715125230227020e-10
-2.411959840421030923e-10
-1.691645443747399076e-10
-1.181689724508982120e-10
-8.250676245847456062e-11
-5.798004376191647774e-11
-4.119261919409154760e-11
-2.981693563905541851e-11
-2.200743275829863096e-11
-1.654666599975139822e-11
-1.263811888619463431e-11
-9.746695910238556588e-12
-7.536175489365248786e-12
-5.799096698875741905e-12
