# bin_2_2
-4.812441370366538538e-08
-4.996605106990071098e-08
-5.005751718858686194e-08
-4.783148459363056262e-08
-4.322183606827605902e-08
-3.697980452333127420e-08
-3.044818918252282162e-08
-2.523873862068249112e-08
-2.161630130071543668e-08
-1.786373777865197004e-08
-1.308527994235613326e-08
-9.669732236076152871e-09
-7.531273420047181268e-09
-5.325950303520882583e-09
-3.958448680653812684e-09
-2.864300206288199084e-09
-2.098586949250722997e-09
-1.557083503069861685e-09
-1.173816333720618664e-09
-9.009569741363396124e-10
-7.028242009111345371e-10
-5.551671442508420166e-10
-4.410372628043969492e-10
-3.498515914798825056e-10
-2.751871072254183740e-10
-2.132543695220968819e-10
-1.619332270995175939e-10
-1.199942533176446804e-10
-8.655102744657554775e-11
-6.074478697505310432e-11
-4.154143684046413926e-11
