# bin_15_2
-1.979279701914861297e-34
-2.253768977392777729e-34
-2.528585262456427295e-34
-2.784589966185354197e-34
-2.996349849780440472e-34
-3.131555266673437516e-34
-3.159420060454834737e-34
-3.041456490670600714e-34
-2.763067638772973441e-34
-2.373213395467520275e-34
-1.950580932512887396e-34
-1.610145071184922737e-34
-1.388048510520534708e-34
-1.165565813550217902e-34
-8.422107402722667602e-35
-6.090495566551438667e-35
-4.862977899880044864e-35
-3.221630865687035496e-35
-2.400484503025133779e-35
-1.652518774423125599e-35
-1.125131508383310539e-35
-7.696214114168466210e-36
-5.242539258415234865e-36
-3.586890843977942569e-36
-2.473425063809416588e-36
-1.733324961877448938e-36
-1.237148062569138364e-36
-9.018555235776702817e-37
-6.713730050256433132e-37
-5.086120849888576161e-37
-3.897205653893675831e-37
