# bin_1_2
-2.315171029703342568e-08
-2.354691226270209781e-08
-2.297432121994754743e-08
-2.124862584416122114e-08
-1.859593436838460988e-08
-1.550455218054453504e-08
-1.274790347885516754e-08
-1.078230688237931960e-08
-9.153416053751156956e-09
-7.069735509263152976e-09
-5.080767855439129178e-09
-3.963571106784012330e-09
-2.893358637733979415e-09
-2.122162464453935644e-09
-1.545405447920865130e-09
-1.137816443931604928e-09
-8.441211799082084505e-10
-6.364054308945743140e-10
-4.886876870014044594e-10
-3.816575003105913094e-10
-3.020791247049318908e-10
-2.407874867120074083e-10
-1.918695419275667788e-10
-1.517542283098118168e-10
-1.183494036242144864e-10
-9.049093599413702121e-11
-6.753768120510893821e-11
-4.907144099484206010e-11
-3.468334065298266252e-11
-2.387763594711464833e-11
-1.605341008196610516e-11
