# bin_12_15
-1.695017124118409844e-09
-1.941505406450296546e-09
-2.194542274504948176e-09
-2.438590316040071477e-09
-2.653324549005512490e-09
-2.811884786128415109e-09
-2.882192430880919042e-09
-2.839439376289350901e-09
-2.646603566104004463e-09
-2.331536819382751928e-09
-1.944124894973091910e-09
-1.590641805134063722e-09
-1.346405720532955433e-09
-1.163235116571826241e-09
-9.030622724369694811e-10
-6.232477553993158793e-10
-4.991274621910021634e-10
-3.486970127914291450e-10
-2.545887923335523333e-10
-1.703133937338896758e-10
-1.189409318875955123e-10
-8.092560002577638740e-11
-5.451684432444365908e-11
-3.661504627341109857e-11
-2.456148564990467077e-11
-1.661066141373853478e-11
-1.137504872771101595e-11
-7.923736650016180514e-12
-5.641511575279189169e-12
-4.111380732497587499e-12
-3.062214331007937802e-12
