# bin_15_14
-1.146709624488293942e-08
-1.315626343679056842e-08
-1.489979305991286343e-08
-1.659583804370423638e-08
-1.810952184116248371e-08
-1.926092019993902745e-08
-1.982886960850231145e-08
-1.964848048456668676e-08
-1.844633989989878554e-08
-1.635988280896418073e-08
-1.371807747812002133e-08
-1.121911720181487269e-08
-9.439688182957510516e-09
-8.174928477405941197e-09
-6.477449086296050737e-09
-4.471923659951561719e-09
-3.519015386605544055e-09
-2.542072700432934053e-09
-1.804757569697552588e-09
-1.223446295137355912e-09
-8.626650485006857714e-10
-5.842666177331174535e-10
-3.909871672175131244e-10
-2.614156848432700285e-10
-1.743408729355391548e-10
-1.168342084229386860e-10
-7.910478816775443985e-11
-5.435528951932143826e-11
-3.812140341377892489e-11
-2.736922256196635687e-11
-2.011902922845216246e-11
