# bin_10_10
-1.326648299979240207e-08
-1.506847127759909141e-08
-1.685105895079656293e-08
-1.848375029968586005e-08
-1.979175577833621360e-08
-2.055528316849088593e-08
-2.058977188005636722e-08
-1.961730507086406099e-08
-1.764284572993763506e-08
-1.499686217297002818e-08
-1.228686874974916720e-08
-1.021288738006531024e-08
-8.839220765363833325e-09
-7.273401592687584234e-09
-5.131349585280351134e-09
-3.842476235886997796e-09
-2.968477692149794764e-09
-2.006132563720793855e-09
-1.450065460443918448e-09
-1.018086655464063663e-09
-6.963225458359005387e-10
-4.760524135780244453e-10
-3.263674845983937268e-10
-2.254675273083323473e-10
-1.575337362360887554e-10
-1.120586161496795737e-10
-8.127162148516737515e-11
-6.018408513237283962e-11
-4.540630404630526089e-11
-3.472721671293378156e-11
-2.673600084562464720e-11
