# bin_4_11
-1.421727303759001246e-17
-1.603944567201136968e-17
-1.778773365140826557e-17
-1.931243294934724421e-17
-2.041708641007645755e-17
-2.087348810465896090e-17
-2.049314740912926796e-17
-1.902884730795928439e-17
-1.670398891937887524e-17
-1.389591603845108199e-17
-1.137608497186675521e-17
-9.652513635790259553e-18
-8.316182729527621264e-18
-6.399679395955194564e-18
-4.437755203158375716e-18
-3.569078295987284308e-18
-2.475593688632218820e-18
-1.829208980447557164e-18
-1.241210830490169781e-18
-8.748212349022018174e-19
-6.096475207222415445e-19
-4.244283227520077506e-19
-2.974335763510425439e-19
-2.105793102704491240e-19
-1.518064669905892604e-19
-1.115935535242350659e-19
-8.359303005628930336e-20
-6.366507285589527007e-20
-4.901585732369171442e-20
-3.788273988225167057e-20
-2.917305968144883858e-20
