# bin_11_10
-1.000124368405777745e-08
-1.137579945882205512e-08
-1.274475969913511531e-08
-1.401075036052628310e-08
-1.504379601914619715e-08
-1.567956541316530659e-08
-1.577008718150033681e-08
-1.511231713003930227e-08
-1.366714576063969354e-08
-1.168394057911993130e-08
-9.587337636984496052e-09
-7.936673227745120302e-09
-6.856881778732904547e-09
-5.709896521977055246e-09
-4.078363398992009509e-09
-2.994277874764802224e-09
-2.360231019972863328e-09
-1.573392998933357018e-09
-1.159169569377004152e-09
-8.050550379150132424e-10
-5.489851246647096598e-10
-3.753068443869851612e-10
-2.562407768227042414e-10
-1.760578936016744555e-10
-1.221152283297812703e-10
-8.615616296751507084e-11
-6.194569642384963374e-11
-4.548955768864785342e-11
-3.408130304861077715e-11
-2.594129189905191441e-11
-1.992870082175018323e-11
