# bin_7_12
-2.956627991316310184e-12
-3.356277746835946740e-12
-3.750540432060278277e-12
-4.110199491780062814e-12
-4.396091154072744470e-12
-4.559088792983177747e-12
-4.559021661429804634e-12
-4.333510663903713139e-12
-3.888677521398953750e-12
-3.298026605847719302e-12
-2.700742272175809662e-12
-2.248810774023725363e-12
-1.947236981658113229e-12
-1.593979662426139038e-12
-1.119649050977493059e-12
-8.451825391287987896e-13
-6.471306282976641071e-13
-4.403138283371505291e-13
-3.155811023547551367e-13
-2.224674990673844101e-13
-1.523661839850242054e-13
-1.042068983323972157e-13
-7.157825368712357333e-14
-4.956031981078240161e-14
-3.473015190111201795e-14
-2.478512957599992988e-14
-1.803658567258343020e-14
-1.339923615843601253e-14
-1.013507468261305597e-14
-7.764277551212720273e-15
-5.981331919122868869e-15
