# bin_13_9
-1.341937047793986504e-10
-1.529184392826456353e-10
-1.717306361050901593e-10
-1.893396010900860285e-10
-2.040343992470710474e-10
-2.136332674498585270e-10
-2.159842790307012560e-10
-2.085517576780170385e-10
-1.900510238377837576e-10
-1.637511543211748550e-10
-1.347562646583700555e-10
-1.110385385178216627e-10
-9.556070581183981521e-11
-8.067332124489580501e-11
-5.876615357583753452e-11
-4.208338454120746647e-11
-3.385542243500327906e-11
-2.236846046825527274e-11
-1.677091275381055860e-11
-1.147903780538873340e-11
-7.810345556998604710e-12
-5.345294701068824004e-12
-3.637049081558225966e-12
-2.481958755816472891e-12
-1.704954602801394718e-12
-1.189542780110843644e-12
-8.448775160649163091e-13
-6.128115088246571635e-13
-4.541548099856351265e-13
-3.428719270375956413e-13
-2.621921858377216075e-13
