# bin_12_5
-1.409213031843009839e-16
-1.596169792566502995e-16
-1.778742702319008136e-16
-1.942721257143194773e-16
-2.069096316431483179e-16
-2.134375447325152102e-16
-2.120555092029225989e-16
-1.998288977045911608e-16
-1.778670991976362845e-16
-1.496732062697295483e-16
-1.224372942035395959e-16
-1.026488869389757613e-16
-8.890315964279686529e-17
-7.124919421202323144e-17
-4.947669869079131272e-17
-3.842019941732550452e-17
-2.837653149811124435e-17
-1.989801020578125550e-17
-1.383646006409471415e-17
-9.844134295021278423e-18
-6.781485494143703714e-18
-4.657650035370672575e-18
-3.223710710882128929e-18
-2.250548402578476097e-18
-1.594125100674323551e-18
-1.150855361174123522e-18
-8.473390013790189365e-19
-6.361671886371556746e-19
-4.850858642162237438e-19
-3.733683008605314352e-19
-2.879346142970070555e-19
