# bin_1_13
-6.182686133462039866e-35
-7.006156152353402425e-35
-7.812035531859258205e-35
-8.538246749487471997e-35
-9.101696813126170545e-35
-9.399350164859473299e-35
-9.351291456450175699e-35
-8.828199448553719942e-35
-7.871437985591429935e-35
-6.634631662678469786e-35
-5.428393522251028484e-35
-4.544380614659293104e-35
-3.935888442959218396e-35
-3.168884243131858972e-35
-2.205519297663073897e-35
-1.702415715389173239e-35
-1.267295460453726759e-35
-8.827292244173123446e-36
-6.177634185776912152e-36
-4.387701885398024485e-36
-3.018746397313567944e-36
-2.071182215523885803e-36
-1.431181413970416211e-36
-9.973914009812829775e-37
-7.048779606539870905e-37
-5.076487541964464000e-37
-3.728643755492258669e-37
-2.793378752180614778e-37
-2.126549677691448033e-37
-1.635294352305329045e-37
-1.260893714610468479e-37
