# bin_5_3
-1.571884233078078624e-09
-1.715219415400040030e-09
-1.825936993454222109e-09
-1.883813785942876440e-09
-1.872220710446268523e-09
-1.766888331757114729e-09
-1.575433596110390913e-09
-1.329064558204114795e-09
-1.088109107811289658e-09
-9.098537658595083168e-10
-7.856059690514767239e-10
-6.331665148026755292e-10
-4.458795258084135062e-10
-3.425179674694254043e-10
-2.579136328692544507e-10
-1.819170164368458042e-10
-1.312959494455203657e-10
-9.494071216778914884e-11
-6.792337958910046956e-11
-4.909432120806730052e-11
-3.601485789516166215e-11
-2.687114443574631115e-11
-2.041067697297589338e-11
-1.575738588680861374e-11
-1.229741088587242108e-11
-9.642153413604110440e-12
-7.542828537526555855e-12
-5.846619096712996965e-12
-4.463997571760514118e-12
-3.341114272181114412e-12
-2.442307113772014223e-12
