# bin_13_12
-9.833875233383855276e-09
-1.123885654707953828e-08
-1.266889963218173991e-08
-1.403138074936293674e-08
-1.520512085404542189e-08
-1.603256596886554642e-08
-1.633722093055616623e-08
-1.596140290939634577e-08
-1.473168758064384844e-08
-1.285619111266539826e-08
-1.064964124690714360e-08
-8.729957729338356769e-09
-7.447994972603436470e-09
-6.390701673813612467e-09
-4.824172527715122627e-09
-3.357568407740576596e-09
-2.724579224850341392e-09
-1.831996210156794725e-09
-1.372747335955825250e-09
-9.208110195539671967e-10
-6.315962389381335356e-10
-4.321018949338956040e-10
-2.931507014584917131e-10
-1.981497217574699108e-10
-1.341604833773982912e-10
-9.193083338273963162e-11
-6.395766026431545553e-11
-4.536861729459121527e-11
-3.291529597127452454e-11
-2.441057200034893794e-11
-1.843776991025349666e-11
