# bin_14_12
-4.800403957884581070e-09
-5.492401007782250121e-09
-6.199906432347557155e-09
-6.878226847255616525e-09
-7.469021141547752567e-09
-7.895792851241693396e-09
-8.069670771999325554e-09
-7.917757983371225315e-09
-7.344113787378693915e-09
-6.440016252400250975e-09
-5.351538204684053067e-09
-4.381789496203418696e-09
-3.723854683969245071e-09
-3.208183724059187858e-09
-2.456144974090539828e-09
-1.699957435184708231e-09
-1.372712255523922059e-09
-9.392467300368936512e-10
-6.963139047670845215e-10
-4.652770074194002216e-10
-3.218962111156554221e-10
-2.197094245163759632e-10
-1.486305812626968210e-10
-1.001340779407956295e-10
-6.746585183428724746e-11
-4.591999784195479470e-11
-3.169247835642813053e-11
-2.227814779053802949e-11
-1.601432293375502343e-11
-1.177723927009364968e-11
-8.837675421953228995e-12
