# bin_14_1
-3.371116628488541553e-37
-3.830610081571818662e-37
-4.286069187435598882e-37
-4.704433153749906187e-37
-5.041464648049375734e-37
-5.241448299981555049e-37
-5.256607657855018303e-37
-5.016972423206889722e-37
-4.519554256657397596e-37
-3.848344036354703294e-37
-3.154407609809209569e-37
-2.618749817942719983e-37
-2.265284717970718219e-37
-1.870703664958162540e-37
-1.324767175034776221e-37
-9.860918346244686801e-38
-7.664457888000846064e-38
-5.158422530098362443e-38
-3.750228027446763424e-38
-2.624273130074729180e-38
-1.793274051527034381e-38
-1.225996069496271463e-38
-8.394663335226012174e-39
-5.789841108616279622e-39
-4.036484852303548459e-39
-2.864268977911300091e-39
-2.071996551556552179e-39
-1.530583676824465112e-39
-1.152396704135173557e-39
-8.801317887425923212e-40
-6.771727322385392886e-40
