# bin_9_4
-7.586338418010257498e-14
-8.498538253922321893e-14
-9.344982415441422310e-14
-1.003997705218446632e-13
-1.047500661857632845e-13
-1.054941803038449289e-13
-1.013279428602104336e-13
-9.187370656209456371e-14
-7.875889658486122925e-14
-6.469825256919967421e-14
-5.345977209333411289e-14
-4.608345560458937858e-14
-3.855534623234317753e-14
-2.780723774502733385e-14
-2.025023558770373859e-14
-1.609521935748556402e-14
-1.079332923812366194e-14
-8.050503164928918490e-15
-5.631892270111827027e-15
-3.917371552111179244e-15
-2.751133697388819445e-15
-1.941831471896735161e-15
-1.387505958618898493e-15
-1.006636346075368472e-15
-7.450308620410043803e-16
-5.615282073682837986e-16
-4.297498757860326462e-16
-3.322473125307312754e-16
-2.576499539371582498e-16
-1.989691245351300534e-16
-1.520059136983132665e-16
