# bin_3_13
-2.072755103649206233e-25
-2.350174785508592757e-25
-2.622375244077524953e-25
-2.868660667221719981e-25
-3.061298304657699389e-25
-3.165737410716851812e-25
-3.154862652058066405e-25
-2.984976130601661342e-25
-2.666975362616719999e-25
-2.252289765995858473e-25
-1.843155814267359235e-25
-1.540274283060787972e-25
-1.334163925637037435e-25
-1.080176317033012605e-25
-7.535831726974386809e-26
-5.776577496703011830e-26
-4.340648642706895475e-26
-2.999305773752969084e-26
-2.114252235783286368e-26
-1.499333889822938694e-26
-1.029947825769667101e-26
-7.056826990091964562e-27
-4.866769474790847368e-27
-3.384586226181917574e-27
-2.385474531330447606e-27
-1.713031346621931209e-27
-1.254559166367889635e-27
-9.374462969283021939e-28
-7.122853928830140471e-28
-5.471538783191551485e-28
-4.218190728400062247e-28
