# bin_11_13
-4.333331017398988426e-09
-4.947408362733734849e-09
-5.569726673422759028e-09
-6.159140897188720157e-09
-6.661589304299167147e-09
-7.007300419170339290e-09
-7.121195205841252422e-09
-6.929604107022218496e-09
-6.367133101765609025e-09
-5.531940161217342802e-09
-4.570770126834387122e-09
-3.752261837609788367e-09
-3.211804214550056215e-09
-2.742805390761456048e-09
-2.044413042411894752e-09
-1.433796628774430420e-09
-1.164396701627064900e-09
-7.743102982796542460e-10
-5.829641355050422945e-10
-3.934436770575193063e-10
-2.684590803430640681e-10
-1.838330392403026143e-10
-1.248852615251340794e-10
-8.467966258930260726e-11
-5.760989151341058880e-11
-3.972284460989015292e-11
-2.783764387842531809e-11
-1.990590028394004688e-11
-1.455644116129368267e-11
-1.086988643729239524e-11
-8.251736564945914275e-12
