# bin_8_2
-8.045315958374355095e-18
-8.929544899982280766e-18
-9.708039984414171567e-18
-1.028372713182155938e-17
-1.054172642712016090e-17
-1.038897102059503148e-17
-9.695072349060576661e-18
-8.551677517312843632e-18
-7.143408959840775638e-18
-5.845190865127568257e-18
-4.934972256662344419e-18
-4.257576266934728982e-18
-3.329508999742579548e-18
-2.315544057961555222e-18
-1.838103897179359087e-18
-1.314894899567703392e-18
-9.572535388724485290e-19
-6.649238865583055488e-19
-4.777270387851134841e-19
-3.386253791918535066e-19
-2.411382990348710866e-19
-1.739494212573453978e-19
-1.273546523742434419e-19
-9.501823702844347447e-20
-7.217761608322945039e-20
-5.560038727352516036e-20
-4.321307156313631373e-20
-3.364906656893249193e-20
-2.606580743249279369e-20
-1.995727907162658794e-20
-1.502451312762928166e-20
