# bin_13_14
-1.016303922590508722e-08
-1.163883275256341417e-08
-1.315286303168732361e-08
-1.461170369963715583e-08
-1.589322340012883555e-08
-1.683621879895399664e-08
-1.724894057705703603e-08
-1.698193104619727684e-08
-1.581601294778045684e-08
-1.392275107613136104e-08
-1.160256889161288784e-08
-9.493899022314197658e-09
-8.041472429298104384e-09
-6.944770486337404005e-09
-5.379193452719897421e-09
-3.713564386952320923e-09
-2.978647479679637695e-09
-2.073517669891919602e-09
-1.518091342292578269e-09
-1.014965720861531998e-09
-7.077690303986069099e-10
-4.818162563272565420e-10
-3.248246050502199557e-10
-2.182704693193114061e-10
-1.465176811807353198e-10
-9.919097517290756296e-11
-6.801273365190014940e-11
-4.744787815462145779e-11
-3.383591051017687825e-11
-2.469673533577853271e-11
-1.841834952909822020e-11
