# bin_15_12
6.601880872394534944e-07
7.562289719647300965e-07
8.548381586239620415e-07
9.499688784473992910e-07
1.033709405180939441e-06
1.095600782998655254e-06
1.123139285765890563e-06
1.106673253544335973e-06
1.031736436721429437e-06
9.090953089196093053e-07
7.581591734441122106e-07
6.202954254150400461e-07
5.249580189415625857e-07
4.535843939748005252e-07
3.523507126053307100e-07
2.431597523644242411e-07
1.946477178855915971e-07
1.361161336805405800e-07
9.930368755359704703e-08
6.644570376627474107e-08
4.642109657384453936e-08
3.157959471496540828e-08
2.126976439718819361e-08
1.428345238444738804e-08
9.579630099237412232e-09
6.476801652295424874e-09
4.433828102560149634e-09
3.087312495373623226e-09
2.197140085314959348e-09
1.600544314087793520e-09
1.191683664287757637e-09
