# bin_14_4
4.317829747357453072e-21
4.910153667905338126e-21
5.499431265366434077e-21
6.043556376321327532e-21
6.486289462214422775e-21
6.756585230886239351e-21
6.791191472224650232e-21
6.501938322607199833e-21
5.874939627339815119e-21
5.017853659992073079e-21
4.116366581044161300e-21
3.409804387989396366e-21
2.946828087611930984e-21
2.449368358919645231e-21
1.745956085074873747e-21
1.285862967029501020e-21
1.010435879705459476e-21
6.749555346601569562e-22
4.958037297400116319e-22
3.449453394845459640e-22
2.353339420618815405e-22
1.608771034743448784e-22
1.099080151694327921e-22
7.558096443427108047e-23
5.248484882619817557e-23
3.707857547916043840e-23
2.669688534424691708e-23
1.963180510090282073e-23
1.472549022068011500e-23
1.121755575765456925e-23
8.620905218174408117e-24
