# bin_7_5
5.737525820884731820e-07
6.391831549021689055e-07
6.980858142536905320e-07
7.436953431448540856e-07
7.676688137880213530e-07
7.633899111282523324e-07
7.205601936960342368e-07
6.424462819214061934e-07
5.416595325012631834e-07
4.432396389291966793e-07
3.708453813975455853e-07
3.208245814542660771e-07
2.584478544695257538e-07
1.806993795848114991e-07
1.392388449188127263e-07
1.042250824930705989e-07
7.303761287809137301e-08
5.191642133192074443e-08
3.725848689904035125e-08
2.618264289473544597e-08
1.848936434397929361e-08
1.321746458688970117e-08
9.586983645621738644e-09
7.078809389000283422e-09
5.327421581318339988e-09
4.073477891838359890e-09
3.150878688972399250e-09
2.449542668901544993e-09
1.900135545087337371e-09
1.460709953640596203e-09
1.106457277307893138e-09
