# bin_14_1
1.110904449652039015e-34
1.262408411660775434e-34
1.412629999147659430e-34
1.550679842468553896e-34
1.661989492443253471e-34
1.728205622683643437e-34
1.733538798612347673e-34
1.654962976872067504e-34
1.491270475011580844e-34
1.270140292531175075e-34
1.041181716235477560e-34
8.642084888711216521e-35
7.475015502785093652e-35
6.176491537749147412e-35
4.376501119804682398e-35
3.254608108919463610e-35
2.532096560308325336e-35
1.703054554554929943e-35
1.239262998375100910e-35
8.667514009917104864e-36
5.922031242356464072e-36
4.048640646898956898e-36
2.771645613038399316e-36
1.911123080720805393e-36
1.331910459919123761e-36
9.447518399843272965e-37
6.831496042441713815e-37
5.044446029450350966e-37
3.796797133481703434e-37
2.899125718718075317e-37
2.230366092717533684e-37
