# bin_5_2
7.901425948379283552e-09
8.569044001613438580e-09
9.052486796488959354e-09
9.253280357279824074e-09
9.084973550008413051e-09
8.445179815744433282e-09
7.422170757090555871e-09
6.187338756316604143e-09
5.067618896991146633e-09
4.286633225123770939e-09
3.682802474663154791e-09
2.857108515534879358e-09
2.004199231400082026e-09
1.592163920756952667e-09
1.138663899760624557e-09
8.367654573435270783e-10
5.907504920744243883e-10
4.284781679441198449e-10
3.096001806427567364e-10
2.258651831184070103e-10
1.674286778214250536e-10
1.262294241421540549e-10
9.687523116741884774e-11
7.539546925785258672e-11
5.914930208882156360e-11
4.647107380276053595e-11
3.630506320698781040e-11
2.802079550197006729e-11
2.124849036174593912e-11
1.576156420745802897e-11
1.140077820630653241e-11
