# bin_4_3
3.183434936751390623e-06
3.443532769844441355e-06
3.626120237624097191e-06
3.692692056057910591e-06
3.606665792847207566e-06
3.332811698473583707e-06
2.912295567884442328e-06
2.418660910019038865e-06
1.983702244601387300e-06
1.685050853192955258e-06
1.440589690705753461e-06
1.100657523897414756e-06
7.766674307440638374e-07
6.200213670658390222e-07
4.371472467037927234e-07
3.245036331077587613e-07
2.289924213229396047e-07
1.658057482992850447e-07
1.201890899177543985e-07
8.801068978687361327e-08
6.549693893915959328e-08
4.957601767909188576e-08
3.818622235770563327e-08
2.979922280534070741e-08
2.341409375952013717e-08
1.840055790530135107e-08
1.436145025512198915e-08
1.106180606194016547e-08
8.363501000458525473e-09
6.180861201936657770e-09
4.452166344158639956e-09
