# bin_10_5
8.648204102239085213e-11
9.741512702749655250e-11
1.078325933313676567e-10
1.168081265170864457e-10
1.231375717327453320e-10
1.254753271624317118e-10
1.226102351105577719e-10
1.132271071076771474e-10
9.886847304583850526e-11
8.195463015356671012e-11
6.717325701249475577e-11
5.723849060504516392e-11
4.910477800043564869e-11
3.720904135960450791e-11
2.594778540174794837e-11
2.099492529973719224e-11
1.429741676079150008e-11
1.070014023656390278e-11
7.275766010351998879e-12
5.093887850616877806e-12
3.562209580429344325e-12
2.490602622667482556e-12
1.753002817307777194e-12
1.247812265357062050e-12
9.052051152136330897e-13
6.695500862079197095e-13
5.043641465904399278e-13
3.857672695947311593e-13
2.977383889557003812e-13
2.302328732718772390e-13
1.770685951734717283e-13
