# bin_11_5
2.392324436657666579e-12
2.702624710410821212e-12
3.002140694740330039e-12
3.266063405372756045e-12
3.461573809152653649e-12
3.549495921850653041e-12
3.499151690608699287e-12
3.265217637727142609e-12
2.879767035546378181e-12
2.404168755317237671e-12
1.966938149534927636e-12
1.662306311665688897e-12
1.436030748892713656e-12
1.120553459212441828e-12
7.753155746393606049e-13
6.179402239942910708e-13
4.372148092244009870e-13
3.180512833003965367e-13
2.164524349236338959e-13
1.534493204789119915e-13
1.065294391881493417e-13
7.382036939119507321e-14
5.152537321535625267e-14
3.630660640823662052e-14
2.602273071979858468e-14
1.901844359069889132e-14
1.416955923354496103e-14
1.074527945823651352e-14
8.250427642670847816e-15
6.370751386168214036e-15
4.910222242083899867e-15
