# bin_12_8
2.701527089590931000e-08
3.070389199576352517e-08
3.436361331031175264e-08
3.772994396500684190e-08
4.044905024363766825e-08
4.207491385835972324e-08
4.222160998243506511e-08
4.032935760240131675e-08
3.635795938478319606e-08
3.098145053429728812e-08
2.539819931634474730e-08
2.107236430433991593e-08
1.822632467123840384e-08
1.507874591943726767e-08
1.069197464104050577e-08
7.937493014912357678e-09
6.188757403280552440e-09
4.154774917194050036e-09
3.029616828540436367e-09
2.117302947330468369e-09
1.446123647107706835e-09
9.884842965475224602e-10
6.763617916108014194e-10
4.661357744679885554e-10
3.246516010042496387e-10
2.301178113349813284e-10
1.662745869919606863e-10
1.226940211913433737e-10
9.229795952269030935e-11
7.045318420298313247e-11
5.419700822912802394e-11
