# bin_7_6
2.771910164841524807e-06
3.097874547713538135e-06
3.396588298127903586e-06
3.636126435135720593e-06
3.776413715981787262e-06
3.783226933905688094e-06
3.606797707668050833e-06
3.246474342661570485e-06
2.762532804629751429e-06
2.264330970725367225e-06
1.880360319883002602e-06
1.625093127188200202e-06
1.339569011990705812e-06
9.506986536279311933e-07
7.094451957829427058e-07
5.512016366897529227e-07
3.750037170564058231e-07
2.744190458465554538e-07
1.945331727801772199e-07
1.357948760896936484e-07
9.548879948918896402e-08
6.773266137383199874e-08
4.871185369378034399e-08
3.561565581683998665e-08
2.655877795357016213e-08
2.015040711032667581e-08
1.550021351179673048e-08
1.201799758546375298e-08
9.324666751798005705e-09
7.188912287775027471e-09
5.472894706454915447e-09
