# bin_1_3
3.998671764582097980e-07
3.910226046170971051e-07
3.639984638542000769e-07
3.214789283629017039e-07
2.714202949367745914e-07
2.246945538687279040e-07
1.882838418801845985e-07
1.580059483375272394e-07
1.250565783852752494e-07
9.260981389586653084e-08
6.973884077771300362e-08
5.251224361507424058e-08
3.827384478097798850e-08
2.826278941268036651e-08
2.085143988462711517e-08
1.558642850242060246e-08
1.183268959186215193e-08
9.144287904455072170e-09
7.183578293858261292e-09
5.711898743744320171e-09
4.568568929999976491e-09
3.648819943125239688e-09
2.889524871701311322e-09
2.254504530598211784e-09
1.723925199058474884e-09
1.286826501190929887e-09
9.355945747782819738e-10
6.622349674452173260e-10
4.568961456326902731e-10
3.079967842524217904e-10
2.034778558056435572e-10
