# bin_12_1
1.600468732303243548e-34
1.807082429908427953e-34
2.006046906405047855e-34
2.180664351410552801e-34
2.308915550162703124e-34
2.364784976494653937e-34
2.327516852093172087e-34
2.167743400023053144e-34
1.908349119048525539e-34
1.591011772193807334e-34
1.302005630220152620e-34
1.102053433498454997e-34
9.510221502700133233e-35
7.381181005955623403e-35
5.111814749743387318e-35
4.088162040521474776e-35
2.870524439642853586e-35
2.100629057363697869e-35
1.428160068143731144e-35
1.010082602988981901e-35
7.022424320404368586e-36
4.874853269925290272e-36
3.407630588701453547e-36
2.405525461231531749e-36
1.727941536125129064e-36
1.265651810771323614e-36
9.449383763247180714e-37
7.177793043065484377e-37
5.517102529064790511e-37
4.261732063651907847e-37
3.283722059816590901e-37
