# bin_13_10
8.112895644553286810e-11
9.244543095069136988e-11
1.038131932126311219e-10
1.144514007092949385e-10
1.233253533517048161e-10
1.291158518154734784e-10
1.305219330738908582e-10
1.260144161013885643e-10
1.148192245641336512e-10
9.891777751782846201e-11
8.139954982518943641e-11
6.707908843758381039e-11
5.773235375088951058e-11
4.872345663235407685e-11
3.548269494409878665e-11
2.542203851842024124e-11
2.044078877314379043e-11
1.351078373710570551e-11
1.012445968362844342e-11
6.931466554353419026e-12
4.716563509240443760e-12
3.227769655849935886e-12
2.196348524509920108e-12
1.498878069958095535e-12
1.029781814318175618e-12
7.185426607732071650e-13
5.104114083302607373e-13
3.702648186733400718e-13
2.744344068398704435e-13
2.072058694014273211e-13
1.584557207312569202e-13
