# bin_3_9
2.907690658679709652e-07
3.105362049705385245e-07
3.218637994161474606e-07
3.216305062351197608e-07
3.062251791303933024e-07
2.757053126728212058e-07
2.351325191968287988e-07
1.935572178204424493e-07
1.609610877462595639e-07
1.379390751439081541e-07
1.130377861812710071e-07
8.231450379178257956e-08
6.130535435976439895e-08
4.723285100399219100e-08
3.339548775742588299e-08
2.460513506503897254e-08
1.770356008690459400e-08
1.284310845667842160e-08
9.417264538504449353e-09
7.005294102542725880e-09
5.301886228507619493e-09
4.080800246208144813e-09
3.186479108824231733e-09
2.509020839394274358e-09
1.978767135078630899e-09
1.552368862395830184e-09
1.203442234546363256e-09
9.167331834944364895e-10
6.831063864039542740e-10
4.963407364103478361e-10
3.511764724084291661e-10
