# bin_8_7
2.817079293557776500e-09
3.156516992391135346e-09
3.471635630423502815e-09
3.730551144259509300e-09
3.892868259595056754e-09
3.921058832230882188e-09
3.766712279120742925e-09
3.415778105573442238e-09
2.928739345252643126e-09
2.406670473078561666e-09
1.989492687647280491e-09
1.715295866921903226e-09
1.434734873522711230e-09
1.035181619679295166e-09
7.544473612002470732e-10
5.991627946170899970e-10
4.023815537631399493e-10
2.998905654472754993e-10
2.098584186601205705e-10
1.460445941117659525e-10
1.026003797450593933e-10
7.244942150385138983e-11
5.178417575016786874e-11
3.758266249713737019e-11
2.782316157595669987e-11
2.097538457582117431e-11
1.605607415952222638e-11
1.241497930873235920e-11
9.628534867394056452e-12
7.436273172962173104e-12
5.681625551926614871e-12
