# bin_1_10
7.099588517901969309e-07
6.988417243548785715e-07
6.556361849362523978e-07
5.835537846026685703e-07
4.955528118678225171e-07
4.105920014297977311e-07
3.431132229708752998e-07
2.887264685855402886e-07
2.312674070906938256e-07
1.722786345671008396e-07
1.289495071780662953e-07
9.760090516616936296e-08
7.117600739974542087e-08
5.247691203148958048e-08
3.863991828613939042e-08
2.879183128433624801e-08
2.176721360849800120e-08
1.674892779717394085e-08
1.310662176523423219e-08
1.039097113524761438e-08
8.297777820384982336e-09
6.626375468430065281e-09
5.254073058630154388e-09
4.109704819818718355e-09
3.153701993022845885e-09
2.364253000877867039e-09
1.727074277059485370e-09
1.228298789222726063e-09
8.512385835367015244e-10
5.761070430965239841e-10
3.818855669428257857e-10
