# bin_2_5
3.061493282593330295e-07
3.169613606757697781e-07
3.163541699808035695e-07
3.011217308047573886e-07
2.713321463676271594e-07
2.319114540672161113e-07
1.915032174220854750e-07
1.592742005127391506e-07
1.357246895822268530e-07
1.110628506454990385e-07
8.208046358200470562e-08
6.096205278864939173e-08
4.680329306478108944e-08
3.361568467293834137e-08
2.476841117001061244e-08
1.799149816639435701e-08
1.321738141400038026e-08
9.820922094944874991e-09
7.416104167745228722e-09
5.700246392815893912e-09
4.451168251301995835e-09
3.516910854974822474e-09
2.792876898610622590e-09
2.213316765738831030e-09
1.738427085001139342e-09
1.344798488044750424e-09
1.019235820177459482e-09
7.539457475930157319e-10
5.430858320926007564e-10
3.808356195099021870e-10
2.603441913233431939e-10
