# bin_9_7
3.811745992730350134e-10
4.286388551830364037e-10
4.734874649213556628e-10
5.115469843983611075e-10
5.374472652018717295e-10
5.455254076535301410e-10
5.299881041482855028e-10
4.862620440203547437e-10
4.218850285080206527e-10
3.484665505440609083e-10
2.863423535682394488e-10
2.452457935448657833e-10
2.089057632140855054e-10
1.553808417777436704e-10
1.096873832553753344e-10
8.879814164343113708e-11
5.962123774234979630e-11
4.494492720388977444e-11
3.081774878699601248e-11
2.146013305002409194e-11
1.505082287213316964e-11
1.056612613081981592e-11
7.478833458285355977e-12
5.361706193892589504e-12
3.919857591496625761e-12
2.921086794451698761e-12
2.214814006071768449e-12
1.702016870121541450e-12
1.316897220571716244e-12
1.018492845912201311e-12
7.818091786800443585e-13
