# bin_4_3
4.197553619554785175e-09
4.512459258903956695e-09
4.714628087065246995e-09
4.757399500338627867e-09
4.586753043185904331e-09
4.179478007752974363e-09
3.602440309687085180e-09
2.970684504575270085e-09
2.450597100082788477e-09
2.099808132380544898e-09
1.764317999967095114e-09
1.302287949977807184e-09
9.426786796943342320e-10
7.487640856832231722e-10
5.193781881028324393e-10
3.887366030810439805e-10
2.767050265608159746e-10
1.998764439995919168e-10
1.458456157937182627e-10
1.077432537795492699e-10
8.094973295176926655e-11
6.186687553607039771e-11
4.805319549426094123e-11
3.772129573701197838e-11
2.973077886175153444e-11
2.336696210535831771e-11
1.818750359108230865e-11
1.393565116208619700e-11
1.045943243751885813e-11
7.660784766558454563e-12
5.464005801040313167e-12
