# bin_2_3
1.526295787346521515e-07
1.571650835136190490e-07
1.558043656072001580e-07
1.470067839659420473e-07
1.312548998199699507e-07
1.112722716256011400e-07
9.164070780809627443e-08
7.656228102756341280e-08
6.530932444126521862e-08
5.264114059989849154e-08
3.837897252021527037e-08
2.891047973544471358e-08
2.198664212571632759e-08
1.577981281045435152e-08
1.163549258586473848e-08
8.477088582905704358e-09
6.242796406138611220e-09
4.660676858684303630e-09
3.538691718665212269e-09
2.734592199442546072e-09
2.145435450320861482e-09
1.700797243695668720e-09
1.352836955970678701e-09
1.071969067693775954e-09
8.404462737031868499e-10
6.479893591197255545e-10
4.888705361394617595e-10
3.596391486184347196e-10
2.575084535397716195e-10
1.795027670847458445e-10
1.220360846846452057e-10
