# bin_8_4
1.658404048281907204e-14
1.848084391996083783e-14
2.019127143136340740e-14
2.152006205230670748e-14
2.222569536402606116e-14
2.211691507866953063e-14
2.089353741763806877e-14
1.864451879502528586e-14
1.573213405429375607e-14
1.287770950629530729e-14
1.077158703999944869e-14
9.320995125980386757e-15
7.521358413105455771e-15
5.260839335816457458e-15
4.048712235657716590e-15
3.037881271194193160e-15
2.124857220187537566e-15
1.512008912018669309e-15
1.085554589644159460e-15
7.625286498356223258e-16
5.381895713552019509e-16
3.845541773806428248e-16
2.787980581351032067e-16
2.057506537801128877e-16
1.547690543485030704e-16
1.182968542867306494e-16
9.148510577000939992e-17
7.112058240730820625e-17
5.517800914043972103e-17
4.243118133019848687e-17
3.215506193446553985e-17
