# bin_4_3
5.999713892802558913e-11
6.484292535642561936e-11
6.820650068640338895e-11
6.937029485737401388e-11
6.763097041148198541e-11
6.236676827256683837e-11
5.439128281994477501e-11
4.512001708346797653e-11
3.703700445715731914e-11
3.151841328416816039e-11
2.689453289751899107e-11
2.042586999495484903e-11
1.445212479937272685e-11
1.156130995509568472e-11
8.104890496315387471e-12
6.042490496675399479e-12
4.263316301527549689e-12
3.085017185859475580e-12
2.239422876052918330e-12
1.642495248773292568e-12
1.224363130081106185e-12
9.283292751156264898e-13
7.161651846130504167e-13
5.595301828934151613e-13
4.399642035916107744e-13
3.458419640457471101e-13
2.698614760953738994e-13
2.077208191154454972e-13
1.568889842897583869e-13
1.157894061538605142e-13
8.327564669221217976e-14
