# bin_9_9
4.775603893215285565e-11
5.399192649154104723e-11
6.003138944695947554e-11
6.538322840769691617e-11
6.939489517456643289e-11
7.127789564828594299e-11
7.042535890999601453e-11
6.589915553150778160e-11
5.827611123629965357e-11
4.876138188945992354e-11
3.989859277141123685e-11
3.365671289248498248e-11
2.910672478571437084e-11
2.287535095654844883e-11
1.582925393126534391e-11
1.254787001661255696e-11
8.974325211659546787e-12
6.472297740492782374e-12
4.418807052067746901e-12
3.140968233908098938e-12
2.176286755382208934e-12
1.504447998829681981e-12
1.047972500684084078e-12
7.367611127461856100e-13
5.265448717202934776e-13
3.836752489741521738e-13
2.850563582657744949e-13
2.156777897288227932e-13
1.653589285122450040e-13
1.276189857772416431e-13
9.840176223839377877e-14
