# bin_10_1
9.622125231645288669e-30
1.076711014456329154e-29
1.182337632074542017e-29
1.268115978983233552e-29
1.320198048301051268e-29
1.326287185443431816e-29
1.269343515048944989e-29
1.146912088309438078e-29
9.797462817501219203e-30
8.041059154721384433e-30
6.662259034738093943e-30
5.752469180675010362e-30
4.778146620424181551e-30
3.416757683430535302e-30
2.519952964202682911e-30
1.981369119579732270e-30
1.337175668829392561e-30
9.884889465397842527e-31
6.965705477544343886e-31
4.853100418184718673e-31
3.410010530460961587e-31
2.412732024280181749e-31
1.729764936513787931e-31
1.260090344167412320e-31
9.363138928041488335e-32
7.082034150991230558e-32
5.435162268009641747e-32
4.208988729563966781e-32
3.265450256602710997e-32
2.519981109913292076e-32
1.922003734844117014e-32
