# bin_13_9
3.255431557527561052e-13
3.708692107414892069e-13
4.163529106248684428e-13
4.588563968607614931e-13
4.942175742485711400e-13
5.171368884357740954e-13
5.224439997344860600e-13
5.039323113686619627e-13
4.587149694817421370e-13
3.947933836092367521e-13
3.247311988508113709e-13
2.677354077361640156e-13
2.305698358956738145e-13
1.942972836066632740e-13
1.411101869050993409e-13
1.013888648332462210e-13
8.138222956830680509e-14
5.378989819428705964e-14
4.026059877249990781e-14
2.761247553753838261e-14
1.878867072122726320e-14
1.285602633650681095e-14
8.749812157642023447e-15
5.976019184263359098e-15
4.110622400945064917e-15
2.872288885411298450e-15
2.043527500323888098e-15
1.484851964318592895e-15
1.102194196245332017e-15
8.331743640309126691e-16
6.376264715389601575e-16
