# bin_6_4
7.914668727000600441e-12
8.731350120938317031e-12
9.421831388034107497e-12
9.887531429355170540e-12
1.002610680423672514e-11
9.729815296545136332e-12
8.921063288769885652e-12
7.735528944235505597e-12
6.390419738271654899e-12
5.252886930089464280e-12
4.494656253698654110e-12
3.820187196374852795e-12
2.845724216017723005e-12
2.019676457993659075e-12
1.628220261889166551e-12
1.109292804415003831e-12
8.358953027104609577e-13
5.823948002604541025e-13
4.137000877595422497e-13
2.962732666526922684e-13
2.136599700289029681e-13
1.561869114287782096e-13
1.160362054523399100e-13
8.786771984456252132e-14
6.758713068338759404e-14
5.254462340269821041e-14
4.103579043600507751e-14
3.196028147730541214e-14
2.465879228297135078e-14
1.873776650596426394e-14
1.395950464235562434e-14
