# bin_5_3
7.143178853937923770e-12
7.787979314507978623e-12
8.281948422118978965e-12
8.533239664449334221e-12
8.466682225062533824e-12
7.972910963737004129e-12
7.094698996703683521e-12
5.974530170539559499e-12
4.891818708586415979e-12
4.098801120492381949e-12
3.538820019714297382e-12
2.836015376405308393e-12
1.992735800167904586e-12
1.541686847647802135e-12
1.150909548204465270e-12
8.175350912001352482e-13
5.869422984039031438e-13
4.252941997575124875e-13
3.047739149315275611e-13
2.205822593624622329e-13
1.621039705040525992e-13
1.211705303217356158e-13
9.221271002626301946e-14
7.129958900744236738e-14
5.570567957550950245e-14
4.370366068421568820e-14
3.418959334706711895e-14
2.648890332290825047e-14
2.020653175661483957e-14
1.510452523058995850e-14
1.102390080994842721e-14
