# bin_13_8
1.627249324839147838e-14
1.851999413236694466e-14
2.076485934140788998e-14
2.284923171458992685e-14
2.456292451454580185e-14
2.563957350324695108e-14
2.583155581071116243e-14
2.481581524737009184e-14
2.249710504479650401e-14
1.928119828412604519e-14
1.583421118062466381e-14
1.308678402352766063e-14
1.129447595018763728e-14
9.449538854833949830e-15
6.789937254593350632e-15
4.943592548288299498e-15
3.926590897866547383e-15
2.606288277618435542e-15
1.933523830532321377e-15
1.336413338841234472e-15
9.103572191310649533e-16
6.225016935624192787e-16
4.243901435673657367e-16
2.909025923703157837e-16
2.011304643900318842e-16
1.413815269194886617e-16
1.012505637530806774e-16
7.406204837294602355e-17
5.530140007207930625e-17
4.199094614725036314e-17
3.221814267707837269e-17
