# bin_2_9
-2.427960207350535898e-20
-2.708609909006955491e-20
-2.963269334978780419e-20
-3.163589477591671400e-20
-3.274276957688750487e-20
-3.266696238193101155e-20
-3.096842439422225390e-20
-2.772389332057266825e-20
-2.346544589117384866e-20
-1.921144848068030432e-20
-1.601987555514142282e-20
-1.385903315583626486e-20
-1.128137293318959425e-20
-7.929009805284463895e-21
-6.028135269737964662e-21
-4.589009578272921149e-21
-3.171172311650558125e-21
-2.281820341158192350e-21
-1.631005205685773361e-21
-1.142552011069067230e-21
-8.049033255071751093e-22
-5.733616561569954447e-22
-4.143270763641199407e-22
-3.046355684608945374e-22
-2.283655294108576882e-22
-1.740478225778004192e-22
-1.343263195609066550e-22
-1.043253267396660510e-22
-8.094865253991608931e-23
-6.231607007488381627e-23
-4.731273765535590546e-23
