# bin_7_1
-2.735832635349373377e-19
-3.006058253482914977e-19
-3.227756942805183773e-19
-3.366222182684955486e-19
-3.389076669753722729e-19
-3.255386645003439782e-19
-2.952875390835679981e-19
-2.532897684859125949e-19
-2.081975265713747420e-19
-1.719822761327093699e-19
-1.479943289486811915e-19
-1.237962010269575859e-19
-8.980483245464917367e-20
-6.543916502756917083e-20
-5.198772461810741336e-20
-3.535741839222970103e-20
-2.647046633223446277e-20
-1.872534694996019396e-20
-1.328624739456541278e-20
-9.541037722886620401e-21
-6.920088004574472631e-21
-5.097402453664686699e-21
-3.819547651207110200e-21
-2.915041456174685962e-21
-2.256074956254327879e-21
-1.760951341870807002e-21
-1.377146222078257779e-21
-1.071323028156803378e-21
-8.237513417967574641e-22
-6.226560815730705275e-22
-4.607195418684572947e-22
