# bin_1_6
-1.574828173753122338e-16
-1.714632188827265541e-16
-1.820288090943913923e-16
-1.871618471241937703e-16
-1.852099809928571401e-16
-1.738222749084042430e-16
-1.541663848677751864e-16
-1.294438162333817746e-16
-1.059387089635006681e-16
-8.896090526604413380e-17
-7.675820115505543025e-17
-6.102960121999333404e-17
-4.278353013313081146e-17
-3.336474107440998218e-17
-2.462526306527301582e-17
-1.765010345119857032e-17
-1.259590962884953592e-17
-9.137253311220830910e-18
-6.561346147504071463e-18
-4.757390210409787836e-18
-3.503561952093798846e-18
-2.624393457823279154e-18
-2.001456291845469032e-18
-1.550154358672774410e-18
-1.212464000711674208e-18
-9.516545133185764922e-19
-7.442951627849290013e-19
-5.761511607443457619e-19
-4.388869698819144679e-19
-3.274648142480178605e-19
-2.384767264200479017e-19
