# bin_10_5
-2.792995062809899895e-13
-3.144751164311819143e-13
-3.479275286843280793e-13
-3.766516373006963766e-13
-3.967505953242102209e-13
-4.039163518854374642e-13
-3.941859910434058337e-13
-3.634805488715517130e-13
-3.169270489294076659e-13
-2.624696162754973496e-13
-2.152166838037677394e-13
-1.835924282436536077e-13
-1.572872390191026799e-13
-1.186865458938417642e-13
-8.293507881852990138e-14
-6.716887589055605674e-14
-4.554716792909018078e-14
-3.417723017663893127e-14
-2.326821269528478726e-14
-1.626350142335083406e-14
-1.138198166475271115e-14
-7.965714030163893627e-15
-5.612996979378806004e-15
-4.001401436483820972e-15
-2.907533449104098465e-15
-2.154084679758411381e-15
-1.625012115932037351e-15
-1.244257883360210430e-15
-9.609219015750060541e-16
-7.431409460380256884e-16
-5.713405827230664197e-16
