# bin_6_2
-3.323422195999766924e-13
-3.635110141028879747e-13
-3.881217948125954794e-13
-4.018960661009717957e-13
-4.012424179858678749e-13
-3.809414984283709200e-13
-3.415985500865812830e-13
-2.897055387197054632e-13
-2.373533947450019310e-13
-1.975906680897374088e-13
-1.706147565283284907e-13
-1.394187807943385970e-13
-9.885327130084982806e-14
-7.464957511056036746e-14
-5.738089590627561922e-14
-3.982858097758983966e-14
-2.912387679630848045e-14
-2.095225999658905241e-14
-1.493470072338303488e-14
-1.076366676258267757e-14
-7.864191018149174852e-15
-5.843020282397603865e-15
-4.419080678173162906e-15
-3.399567314642783103e-15
-2.646664652017628367e-15
-2.072833264231076769e-15
-1.621925861348185440e-15
-1.259075707812628065e-15
-9.638199955066121448e-16
-7.239031728781124800e-16
-5.313910266797392310e-16
