# bin_9_5
-9.272002773990556177e-12
-1.040479665019573720e-11
-1.146512244716330417e-11
-1.234983751795515192e-11
-1.292747521958993328e-11
-1.306790457200672528e-11
-1.262057341249415982e-11
-1.150654753374923380e-11
-9.920015809956445848e-12
-8.167215354582924058e-12
-6.727313083724587846e-12
-5.782391534853322984e-12
-4.883466640247173513e-12
-3.572280524478055194e-12
-2.558415956891969508e-12
-2.057839460644854148e-12
-1.374863120792003428e-12
-1.034496706803363838e-12
-7.162678091448448544e-13
-4.977259172315357117e-13
-3.493703134705682453e-13
-2.458835874133422380e-13
-1.748563215056640547e-13
-1.261170238557114864e-13
-9.279014272408500044e-14
-6.956124189734200843e-14
-5.300764282197898491e-14
-4.087168062343429396e-14
-3.166794846343800025e-14
-2.447794427648850040e-14
-1.874587633762447780e-14
