# bin_5_3
-1.554700787572142826e-09
-1.695545252965103081e-09
-1.803771532647127120e-09
-1.859384252433666851e-09
-1.846004254732604423e-09
-1.739778197082051122e-09
-1.549210908283519775e-09
-1.305391960456047235e-09
-1.068586126705356841e-09
-8.944485982515370707e-10
-7.722437798212643624e-10
-6.203615892753018607e-10
-4.362627893937247644e-10
-3.364243850534515368e-10
-2.520966575719498629e-10
-1.784956621135725903e-10
-1.284486236894114776e-10
-9.297723273201232307e-11
-6.657736389050197414e-11
-4.815635538386605659e-11
-3.536101582273881327e-11
-2.640999802297140460e-11
-2.008145877112068412e-11
-1.551644596976685103e-11
-1.211690159784298672e-11
-9.503792932310012279e-12
-7.434776921313307097e-12
-5.761429517395853177e-12
-4.396806213152345769e-12
-3.288564659487150664e-12
-2.401870215621577547e-12
