# bin_4_2
-1.320135980102163458e-09
-1.414721408810605192e-09
-1.472363309409578880e-09
-1.479062219206071658e-09
-1.417120251474508213e-09
-1.282863832530826452e-09
-1.098578524115937579e-09
-9.031738853085658023e-10
-7.471676100158919168e-10
-6.420888384125843681e-10
-5.342385881120980116e-10
-3.883937006517290705e-10
-2.852660329159231056e-10
-2.247638581274854108e-10
-1.556630667107107465e-10
-1.162527225204604713e-10
-8.328153190408464810e-11
-6.012678517934344760e-11
-4.397145007403696351e-11
-3.259873911105055943e-11
-2.458923516687983408e-11
-1.886763533878571080e-11
-1.470274100821625637e-11
-1.156614182545038861e-11
-9.123956146880830378e-12
-7.167628041947179753e-12
-5.569297930558300833e-12
-4.255335015437206748e-12
-3.181967261887385975e-12
-2.320258456699183476e-12
-1.647024655837845593e-12
