# bin_8_10
-3.141595300484275515e-09
-3.555674868378108889e-09
-3.958671511090009234e-09
-4.318656789987391725e-09
-4.593023426374582047e-09
-4.729515825554092655e-09
-4.688363466592259150e-09
-4.405324720533642522e-09
-3.910519641873170665e-09
-3.282628737007085634e-09
-2.684982448410929301e-09
-2.256327700183797768e-09
-1.953388490197697932e-09
-1.553547651461359052e-09
-1.076482521528269375e-09
-8.431334962192475972e-10
-6.148579596137973290e-10
-4.359214091049233221e-10
-3.006041940315775734e-10
-2.139805381081469966e-10
-1.477257057286348499e-10
-1.016914164621021646e-10
-7.055998269604923631e-11
-4.939295928462014282e-11
-3.510837033781537752e-11
-2.543857228638608824e-11
-1.879740093631523017e-11
-1.415712265296236084e-11
-1.081949191106797090e-11
-8.337533696180433778e-12
-6.430039532575798326e-12
