# bin_4_7
-1.166472736158380357e-10
-1.294526550790480586e-10
-1.407189152582654912e-10
-1.490376534614317628e-10
-1.527437958413319997e-10
-1.504896331368730365e-10
-1.403904704021509340e-10
-1.237915733483253067e-10
-1.033784400377822373e-10
-8.459249070698384265e-11
-7.143935191393182018e-11
-6.162521221515920287e-11
-4.814704450672689100e-11
-3.348317867021107415e-11
-2.660040767843240616e-11
-1.900275788837023934e-11
-1.384918646845071901e-11
-9.614206749161749211e-12
-6.906907529959042572e-12
-4.896726439374971103e-12
-3.487635602720045468e-12
-2.516306450923820773e-12
-1.842665166684910179e-12
-1.375093634157718806e-12
-1.044741228353670255e-12
-8.049236848555192079e-13
-6.256601026987197018e-13
-4.872085324530064296e-13
-3.774045411175656411e-13
-2.889417686363754942e-13
-2.175034646766309285e-13
