# bin_3_3
-3.245225988793582900e-08
-3.470895396571592642e-08
-3.603506475309157235e-08
-3.609269580171646923e-08
-3.444548875922422968e-08
-3.106301624474641480e-08
-2.650520172177219233e-08
-2.177140333401771142e-08
-1.805686281253042649e-08
-1.552792675468398048e-08
-1.281922334332065857e-08
-9.263875912144284838e-09
-6.874328916346362598e-09
-5.362628996117761603e-09
-3.736353732433768948e-09
-2.774805476266233255e-09
-1.995466368818921430e-09
-1.442681612598213556e-09
-1.056700217014166084e-09
-7.851914902616312038e-10
-5.937107885394569260e-10
-4.566431142835557179e-10
-3.564877124422460647e-10
-2.807432331613196097e-10
-2.215330626557437146e-10
-1.739482040618984178e-10
-1.349969482869517671e-10
-1.029600597155979167e-10
-7.681242254945799821e-11
-5.586466738627856100e-11
-3.954874520453869593e-11
