# bin_13_14
-1.004950679088544963e-08
-1.150754519693865434e-08
-1.300279619376971558e-08
-1.444270952041537246e-08
-1.570636458625289241e-08
-1.663426056102904206e-08
-1.703703378632239302e-08
-1.676684517693598848e-08
-1.560832095832638890e-08
-1.373364930314351113e-08
-1.144106002150394202e-08
-9.362362821128076731e-09
-7.933197408145780882e-09
-6.849549867113404597e-09
-5.298146263184074436e-09
-3.658411101340851009e-09
-2.937066064667982336e-09
-2.040200567367075323e-09
-1.496131156015560407e-09
-9.999778402061178870e-10
-6.966726518035216915e-10
-4.744022718978037007e-10
-3.199532061656144511e-10
-2.150437710430580083e-10
-1.444056815045500624e-10
-9.781074271931168336e-11
-6.710818090682349833e-11
-4.685240703018432963e-11
-3.343833028457625976e-11
-2.442556169570770825e-11
-1.822809885676491972e-11
