# bin_6_4
-1.825925320043693084e-09
-2.015387482174797158e-09
-2.176181080684608257e-09
-2.285634360632196440e-09
-2.319811496405417721e-09
-2.254453904501136192e-09
-2.070174421799128937e-09
-1.797666613008500816e-09
-1.486011141986461866e-09
-1.220369121664356880e-09
-1.042808970581862834e-09
-8.880881257537105370e-10
-6.646240824133252908e-10
-4.699894323313180749e-10
-3.789709291439157758e-10
-2.589461295607018995e-10
-1.947999761948025863e-10
-1.354604899446224311e-10
-9.631643148134241929e-11
-6.891728367514705988e-11
-4.964129005845787253e-11
-3.623802742182600152e-11
-2.688076755884399274e-11
-2.032508744623561930e-11
-1.561481882769550740e-11
-1.212902483627714667e-11
-9.468437370176179220e-12
-7.374634174968286062e-12
-5.692363602683748167e-12
-4.328910266863827803e-12
-3.228462707024883154e-12
