# bin_7_6
-1.010927939036182496e-08
-1.129255450680290959e-08
-1.237404187765006850e-08
-1.323686442766970877e-08
-1.373460827760975717e-08
-1.374408216726288987e-08
-1.308311459019842315e-08
-1.175839201143163377e-08
-9.990811032003340861e-09
-8.185988079117637658e-09
-6.805284369720813849e-09
-5.883726162209105110e-09
-4.833933271466787643e-09
-3.420599314076140073e-09
-2.565675031450537060e-09
-1.982868070532948833e-09
-1.354183702045710208e-09
-9.865274076032916819e-10
-7.010862882213313357e-10
-4.898161604579735364e-10
-3.445520836164248757e-10
-2.446609393852358126e-10
-1.761782473225372714e-10
-1.290093963203732964e-10
-9.634030144441630286e-11
-7.318629654841322615e-11
-5.635030730927312531e-11
-4.371353887377467259e-11
-3.391962052936227016e-11
-2.614189048232241894e-11
-1.988847931931678664e-11
