# bin_12_4
-1.005732636151289470e-09
-1.094430314019836232e-09
-1.161144488351975938e-09
-1.193316119974513794e-09
-1.179696872824378718e-09
-1.106870426647310188e-09
-9.817061393663501662e-10
-8.254988477675162875e-10
-6.769536469881189117e-10
-5.684191345681922411e-10
-4.883024765401705155e-10
-3.878944117265175766e-10
-2.751852179394170600e-10
-2.123423270953144899e-10
-1.574659766108202308e-10
-1.125097228640150061e-10
-8.104708411902655073e-11
-5.838915345203835946e-11
-4.192925391148518623e-11
-3.042579458210577708e-11
-2.240178348712572893e-11
-1.677311951334119709e-11
-1.278228141147199216e-11
-9.891801243277110808e-12
-7.730198222664078406e-12
-6.061998424115483531e-12
-4.737299515942306606e-12
-3.664604655483561039e-12
-2.790100368134965776e-12
-2.081106685385487158e-12
-1.515576914781314577e-12
