# bin_1_3
-5.739123932830380595e-13
-5.948074268562989084e-13
-5.946173725013208663e-13
-5.664748380491530858e-13
-5.102603257164806574e-13
-4.352138772990572680e-13
-3.578647084534287538e-13
-2.971051721183174420e-13
-2.548095996818824853e-13
-2.095338291239355542e-13
-1.524145567548081569e-13
-1.134111200962738786e-13
-8.800672946844216285e-14
-6.219975264699011201e-14
-4.621645113809456882e-14
-3.352500422557618349e-14
-2.457203865219546326e-14
-1.826250459815831547e-14
-1.379674895428584836e-14
-1.061235758472331254e-14
-8.294683265201641054e-15
-6.561508333979816584e-15
-5.216732879226888842e-15
-4.138636213160722311e-15
-3.253595382597581994e-15
-2.518432592051305886e-15
-1.909128730644690021e-15
-1.411723369389204107e-15
-1.015887000833686915e-15
-7.113114023734197336e-16
-4.853813896595656531e-16
