# bin_6_5
-1.993459848517557320e-10
-2.190673346221675667e-10
-2.352686927008793871e-10
-2.454303068079299563e-10
-2.471638510582783729e-10
-2.375681128285525262e-10
-2.157175031122687968e-10
-1.852631025027555255e-10
-1.524719126142004327e-10
-1.259695403799150840e-10
-1.082091966375097605e-10
-9.048383974045075776e-11
-6.602194236641056566e-11
-4.805096941263183841e-11
-3.801022828132913682e-11
-2.606398161490242724e-11
-1.941383386725658265e-11
-1.370761773759192087e-11
-9.747950275071112124e-12
-6.998070774947008268e-12
-5.073140152783821437e-12
-3.733696030759268301e-12
-2.794848019442639179e-12
-2.130697945633405864e-12
-1.647461934218088660e-12
-1.284901784046040436e-12
-1.004315864392089561e-12
-7.810914265009637224e-13
-6.006011188223042139e-13
-4.541031472016655619e-13
-3.361740241410438899e-13
