# bin_5_13
-1.164843037747724496e-22
-1.321889690318786545e-22
-1.476604144814685718e-22
-1.617443663395048093e-22
-1.728937384869939753e-22
-1.791709397971498941e-22
-1.790098688779974170e-22
-1.699524647430769253e-22
-1.523313374502037762e-22
-1.290498651127338862e-22
-1.056567162137725530e-22
-8.805735670866869785e-23
-7.626055289678494710e-23
-6.225129866533807003e-23
-4.364172440375741770e-23
-3.307733219697044927e-23
-2.520554901258698907e-23
-1.721555471369084842e-23
-1.228436021968651227e-23
-8.675364765502810107e-24
-5.945913544449336868e-24
-4.067824275208878771e-24
-2.796880586906786965e-24
-1.938649232528040711e-24
-1.360510177386202986e-24
-9.724342706992071679e-25
-7.088091280102972395e-25
-5.273662344141324653e-25
-3.993729068610391496e-25
-3.061824924014095298e-25
-2.359331185563884963e-25
