# bin_9_9
-3.240920958101762380e-11
-3.656993390744715238e-11
-4.056558628234903535e-11
-4.405564291123553886e-11
-4.659281029278117645e-11
-4.765669789778948611e-11
-4.681741991386589269e-11
-4.350891636650604972e-11
-3.822303976421470152e-11
-3.182255460219027185e-11
-2.605407729825704770e-11
-2.208947159995142586e-11
-1.903048103707487895e-11
-1.468280985231633476e-11
-1.019035073697338010e-11
-8.168497836743717958e-12
-5.695915860675784286e-12
-4.188300545029151965e-12
-2.849565289690841217e-12
-2.010397188248208278e-12
-1.399539470425411930e-12
-9.731402139695834478e-13
-6.813990805782442005e-13
-4.820310468859128017e-13
-3.471117190965491501e-13
-2.548756286361907231e-13
-1.907211626839306913e-13
-1.451245843442532185e-13
-1.116615437725232873e-13
-8.627315321886088949e-14
-6.643963759910434096e-14
