# bin_6_8
-1.212842927411898099e-12
-1.357256618029558484e-12
-1.490534882199465717e-12
-1.598858464507318179e-12
-1.664796581205205605e-12
-1.672742678883083597e-12
-1.601457148139246402e-12
-1.447368206964917396e-12
-1.236756329868551201e-12
-1.014938705920850148e-12
-8.404300192004276066e-13
-7.253440204704627855e-13
-6.029893226453539010e-13
-4.318040951304395658e-13
-3.177834893283373198e-13
-2.501695431731048058e-13
-1.687431060443792492e-13
-1.248586709304678847e-13
-8.785396998978883693e-14
-6.119589515337209912e-14
-4.299741719802793389e-14
-3.041142144063470130e-14
-2.179032418661396078e-14
-1.586254594310967757e-14
-1.177866396275734384e-14
-8.903584676885438462e-15
-6.829679983003319073e-15
-5.287148645428615921e-15
-4.101323492200595648e-15
-3.165158825348310249e-15
-2.414567412128582375e-15
