# bin_10_2
-2.084935527053487719e-09
-2.160406432468979039e-09
-2.158691192585249446e-09
-2.058077114688020210e-09
-1.857862173441401788e-09
-1.590705630833479131e-09
-1.314500877196614130e-09
-1.092093849385458868e-09
-9.296225643729062010e-10
-7.626504923967293127e-10
-5.659128862266044090e-10
-4.190612977831768956e-10
-3.218817014466472326e-10
-2.315559778025599925e-10
-1.703797870868286808e-10
-1.237238616481263438e-10
-9.082456493895472484e-11
-6.739835220569289602e-11
-5.082142640849567623e-11
-3.900562398122581469e-11
-3.041757637474177511e-11
-2.400756154870484764e-11
-1.905208423293703239e-11
-1.509422403960836927e-11
-1.185684972699437260e-11
-9.176417494473687875e-12
-6.960359357958652094e-12
-5.154056802064287908e-12
-3.717093735341950409e-12
-2.609876905328893406e-12
-1.786290736908198393e-12
