# bin_10_5
-5.961997903746432972e-10
-6.568299919540890367e-10
-7.076063568316859968e-10
-7.410734894902952790e-10
-7.497370933602414310e-10
-7.253391973524812218e-10
-6.632739411807086113e-10
-5.736208017851472448e-10
-4.737601290943551912e-10
-3.902393973889911654e-10
-3.338613276659010934e-10
-2.818305189500798504e-10
-2.093409740627937920e-10
-1.501780485728381124e-10
-1.193826398533753390e-10
-8.240599151699885158e-11
-6.126379755805045143e-11
-4.300134247848656672e-11
-3.062607666356645067e-11
-2.191905500549218609e-11
-1.581689062462448668e-11
-1.157888849987901685e-11
-8.617002634724782029e-12
-6.533454031155377383e-12
-5.029638254146211885e-12
-3.911260929172492240e-12
-3.053474245958836525e-12
-2.376027428601383285e-12
-1.830759832795155481e-12
-1.388863385460284224e-12
-1.032756637286714035e-12
