# bin_3_12
-1.558498880186128049e-27
-1.761281677802432294e-27
-1.957332694577125583e-27
-2.130554641274117588e-27
-2.259611951032433011e-27
-2.318876079343894878e-27
-2.288492054132454429e-27
-2.138387047061883853e-27
-1.888329937787970077e-27
-1.578116681695057263e-27
-1.291006345030928332e-27
-1.089854774537323685e-27
-9.419815520271423887e-28
-7.378074788903166893e-28
-5.105044399270470751e-28
-4.055990418828433521e-28
-2.886562706908888338e-28
-2.089563450856034003e-28
-1.424944377282899510e-28
-1.011315108219677252e-28
-7.012968100850141906e-29
-4.853084829366769234e-29
-3.383361909207143163e-29
-2.380933991507869625e-29
-1.703710942005620161e-29
-1.243033240925376813e-29
-9.246507260800325634e-30
-7.002906131129888855e-30
-5.372416272717325681e-30
-4.147089359250023779e-30
-3.196964855901413551e-30
