# bin_9_10
-8.402362059760719643e-12
-9.508860772288066126e-12
-1.058532637547115370e-11
-1.154624579406541935e-11
-1.227762329514587943e-11
-1.264003753417166646e-11
-1.252646978446337223e-11
-1.176663769316101400e-11
-1.044211503648482957e-11
-8.764167831136647948e-12
-7.169291728698912012e-12
-6.026138393146993906e-12
-5.215490566672441934e-12
-4.144336773851569423e-12
-2.873536699082735870e-12
-2.250835226281373249e-12
-1.639693560069296540e-12
-1.163436834800419664e-12
-8.028756740125837746e-13
-5.708674354706729211e-13
-3.942078596336343659e-13
-2.714851031541427057e-13
-1.884078542396466757e-13
-1.319222652672768256e-13
-9.379974843562260733e-14
-6.798645909166777906e-14
-5.025193203159733733e-14
-3.785469206999013631e-14
-2.893298898454129335e-14
-2.229526039976631894e-14
-1.719208253728236573e-14
