# bin_6_7
-1.114332346364182610e-11
-1.241397147497011154e-11
-1.355783270056473872e-11
-1.444355169134573508e-11
-1.490945176570874977e-11
-1.482607515786899158e-11
-1.399528646781505328e-11
-1.247895531052888282e-11
-1.052349266209494559e-11
-8.612862012195394442e-12
-7.205782332369431390e-12
-6.231749779296757631e-12
-5.020141835364348001e-12
-3.514253550424314902e-12
-2.704997619057098399e-12
-2.025564941867026259e-12
-1.419109065173656214e-12
-1.010120520026390211e-12
-7.239544645383094568e-13
-5.086924307332873893e-13
-3.592772309298110541e-13
-2.567867501134936849e-13
-1.862143016976114312e-13
-1.374625473644273123e-13
-1.034254386352380775e-13
-7.906393461292602041e-14
-6.114518515032911986e-14
-4.752884117048138740e-14
-3.686622609124138409e-14
-2.834077078912305555e-14
-2.146915375984023033e-14
