# bin_14_14
-1.607622622029961997e-11
-1.839208101855809420e-11
-2.075897058911402353e-11
-2.302715183814490152e-11
-2.500103805802922648e-11
-2.642433342640112189e-11
-2.700026748130502324e-11
-2.648370034527856346e-11
-2.455677374608588870e-11
-2.152638291230676878e-11
-1.788551448152706123e-11
-1.464667765033396024e-11
-1.245013047867290472e-11
-1.072086042323589786e-11
-8.200823284140422569e-12
-5.680609803529498744e-12
-4.585524994349799535e-12
-3.136647109469252158e-12
-2.324657023084895746e-12
-1.554880385184829060e-12
-1.075500055883912846e-12
-7.340138589660582690e-13
-4.964761155106294568e-13
-3.345302606711117833e-13
-2.254703213199672430e-13
-1.535195571290917824e-13
-1.059999577244050412e-13
-7.454972010578491739e-14
-5.361496264394507537e-14
-3.944565877669368271e-14
-2.960830079522610665e-14
