# bin_7_4
-6.083180538410017212e-10
-6.612566041080385546e-10
-7.006250822641431516e-10
-7.188605310165611535e-10
-7.091568960956641891e-10
-6.636033796959797187e-10
-5.870266302280437372e-10
-4.925299906185880073e-10
-4.038575592894546734e-10
-3.397516716033116032e-10
-2.916814460138176278e-10
-2.302551316183073769e-10
-1.630722143727941306e-10
-1.265667849540590165e-10
-9.314044961970147965e-11
-6.690377998544558334e-11
-4.803074482942601781e-11
-3.465650970675126514e-11
-2.492064075565319096e-11
-1.810911751193359945e-11
-1.335762353125801412e-11
-1.002065195178365791e-11
-7.651110263522608343e-12
-5.930069381575774503e-12
-4.638994294263746269e-12
-3.639543993202457470e-12
-2.843787762106373366e-12
-2.198325305427806605e-12
-1.671770253598256866e-12
-1.245005353140210356e-12
-9.049915864762364329e-13
