# bin_3_15
-4.121102814949562593e-34
-4.693031031355110509e-34
-5.265875818825063057e-34
-5.799811183950702995e-34
-6.241929548554453516e-34
-6.524992348410616074e-34
-6.584657158426469816e-34
-6.341052860540653027e-34
-5.762679587519791473e-34
-4.951385873699195498e-34
-4.070142713180923826e-34
-3.359040768629053018e-34
-2.895212420832007601e-34
-2.432726129427029988e-34
-1.759388452447853452e-34
-1.270831670477425219e-34
-1.015709455383054868e-34
-6.725612499537619324e-35
-5.015721621093780130e-35
-3.450556984711006626e-35
-2.349048564504835778e-35
-1.606894260565034533e-35
-1.094401570090272079e-35
-7.485379383341972584e-36
-5.159391689298983798e-36
-3.613707618215024701e-36
-2.577780201505900941e-36
-1.878061016706377501e-36
-1.397382827811483329e-36
-1.058213121503621394e-36
-8.106780509763038527e-37
