# bin_10_13
-2.760456151944012605e-13
-3.145591251720971624e-13
-3.532521159162003355e-13
-3.894682071287960769e-13
-4.196878331013563903e-13
-4.394229785540541633e-13
-4.442418922966318659e-13
-4.289486759505181163e-13
-3.908869448267244701e-13
-3.367932543596274787e-13
-2.771625692181416872e-13
-2.283881943457281834e-13
-1.965503152038993199e-13
-1.659095918929089839e-13
-1.208629670923776610e-13
-8.656442374801313657e-14
-6.961682926061590846e-14
-4.601531112428181163e-14
-3.448675698115322637e-14
-2.360546414948808374e-14
-1.606262671022673308e-14
-1.099260206111775832e-14
-7.479756536046825239e-15
-5.103996641893657370e-15
-3.506120070371348631e-15
-2.446018094335222382e-15
-1.737177413231614680e-15
-1.259939536944535626e-15
-9.336769131634323976e-16
-7.048507901414130408e-16
-5.389682762326818154e-16
