# bin_4_8
-6.693563011625934915e-16
-7.457263167003937868e-16
-8.144976274906331200e-16
-8.677802827438900754e-16
-8.958376313505515744e-16
-8.909543833082012223e-16
-8.411049452494290396e-16
-7.500173279181958689e-16
-6.324377670159772196e-16
-5.175225462525667672e-16
-4.329412581498172294e-16
-3.745630221626952692e-16
-3.018523889264443983e-16
-2.110602034721565675e-16
-1.625700538206754903e-16
-1.217596953753769089e-16
-8.527955310319408145e-17
-6.063402546905129667e-17
-4.351355972496202182e-17
-3.057266524359572778e-17
-2.158516930841660269e-17
-1.542725184034679850e-17
-1.118738278269794231e-17
-8.258619042051510985e-18
-6.213936999653523048e-18
-4.750559496242142157e-18
-3.674249302174008703e-18
-2.856347779515853770e-18
-2.215809311636488092e-18
-1.703579647405503859e-18
-1.290647254980384288e-18
