# bin_12_11
-5.010076219933754539e-11
-5.695937602139437839e-11
-6.377547523312497476e-11
-7.005927077535775386e-11
-7.515680208936244541e-11
-7.824290770888830221e-11
-7.858886526744502528e-11
-7.517425557777143217e-11
-6.786881613008645130e-11
-5.792254296440344536e-11
-4.751260372390244346e-11
-3.938518984106955094e-11
-3.403765186882228110e-11
-2.823127043771374478e-11
-2.010312632957633603e-11
-1.484777946455838691e-11
-1.162374348854398180e-11
-7.790256833214141128e-12
-5.701875264576202361e-12
-3.971665909262371706e-12
-2.711233923491781751e-12
-1.853954819901513714e-12
-1.267635817255936369e-12
-8.723806241687220787e-13
-6.064171548499830093e-13
-4.288735956368036965e-13
-3.091476995571205485e-13
-2.275789125754870001e-13
-1.708450657217689771e-13
-1.302090436039511612e-13
-1.000771992845867029e-13
