# bin_15_2
-2.338893274261389116e-09
-2.424663442430759359e-09
-2.424110514090533668e-09
-2.312801244741859037e-09
-2.089389757779042105e-09
-1.790143869697031304e-09
-1.479667999866843259e-09
-1.228899771584284319e-09
-1.045963507782486249e-09
-8.590825742039822680e-10
-6.381842729061051694e-10
-4.721088219573739780e-10
-3.628354585262092529e-10
-2.610737682752046573e-10
-1.920668125115928141e-10
-1.394508799429941869e-10
-1.023475745628816817e-10
-7.592017166921877429e-11
-5.722209074737801579e-11
-4.389878605057692004e-11
-3.421999512715159574e-11
-2.700099345285312083e-11
-2.142454551952519674e-11
-1.697383348260351949e-11
-1.333518192568211789e-11
-1.032327872326438735e-11
-7.833141848482355958e-12
-5.802913042360117961e-12
-4.187070229151129142e-12
-2.941276959899259767e-12
-2.014011178681612168e-12
