# bin_13_3
-1.515416770292188739e-09
-1.618797577621825968e-09
-1.678440196321835846e-09
-1.678050563614099772e-09
-1.598936889247830259e-09
-1.440818421616081774e-09
-1.229801733070067904e-09
-1.012542455946509457e-09
-8.413135512662298400e-10
-7.204825160537358833e-10
-5.913554738049397208e-10
-4.315537664118576098e-10
-3.205792403822961705e-10
-2.472738956367744364e-10
-1.748278693459009888e-10
-1.287928737502882030e-10
-9.258849238634602285e-11
-6.714622774523196682e-11
-4.919796728787215725e-11
-3.656389921836657905e-11
-2.764689745097723978e-11
-2.126001434756560391e-11
-1.658798202069932171e-11
-1.305394713594929373e-11
-1.029163559444814613e-11
-8.073008752921405867e-12
-6.259043798684373404e-12
-4.769243131645553056e-12
-3.555407816762466183e-12
-2.584831216538174881e-12
-1.830039811254309657e-12
