# bin_6_13
-6.419283482881579320e-20
-7.290403292306815684e-20
-8.151727813737687828e-20
-8.940045108075028686e-20
-9.570696258915080548e-20
-9.937280479304769095e-20
-9.950824740612207549e-20
-9.476843310379992456e-20
-8.519308268977486073e-20
-7.238647711497667120e-20
-5.929975835839807031e-20
-4.930552000495523323e-20
-4.267889679541418360e-20
-3.508501777637370679e-20
-2.473120268693478011e-20
-1.854704493152486007e-20
-1.430517584370644587e-20
-9.678958483553435732e-21
-6.985141905128371333e-21
-4.908151039657673883e-21
-3.357649182185729440e-21
-2.295504917935060308e-21
-1.574197532414737751e-21
-1.087899737998141905e-21
-7.604946728282029300e-22
-5.412430645290951215e-22
-3.927653584076735917e-22
-2.910143611610552437e-22
-2.196568748568719637e-22
-1.680480412892352320e-22
-1.293966020246597091e-22
