# bin_11_7
-3.022592851299922791e-10
-3.383689527278446022e-10
-3.717567402863586281e-10
-3.989922005389897112e-10
-4.157456562461665321e-10
-4.180558351269175864e-10
-4.007763094354427570e-10
-3.628001869307828333e-10
-3.105577052390264249e-10
-2.551556385987236703e-10
-2.111838926077458932e-10
-1.819629006298031220e-10
-1.514889025373113854e-10
-1.091845962621835886e-10
-8.001774544725102135e-11
-6.297707848351438290e-11
-4.266643310047821274e-11
-3.153490079330455305e-11
-2.210211741687013942e-11
-1.541401536504767018e-11
-1.083142096097517701e-11
-7.657016534275953342e-12
-5.478691510732210440e-12
-3.981092171269766016e-12
-2.950515635417653728e-12
-2.226308332519049023e-12
-1.705058044093153220e-12
-1.318436930711042586e-12
-1.022063856481434466e-12
-7.886669144995707414e-13
-6.018577666494121410e-13
