# bin_3_5
-8.312452273295466805e-13
-9.039788081563665332e-13
-9.582869635448789721e-13
-9.836102791643758104e-13
-9.711076619730039110e-13
-9.088792830798231257e-13
-8.039926690876278387e-13
-6.737056256354622830e-13
-5.515136721464319054e-13
-4.640897673232638569e-13
-3.998975669209185825e-13
-3.157497969838260770e-13
-2.214539375709203943e-13
-1.735537432214540987e-13
-1.269871710073723611e-13
-9.164072843628576786e-14
-6.522202020082591320e-14
-4.730264500791980506e-14
-3.402597916716449086e-14
-2.471425473628839716e-14
-1.823438271586614620e-14
-1.368402454677443869e-14
-1.045471962797456618e-14
-8.108572726360903627e-15
-6.347702266864909551e-15
-4.983678783606164012e-15
-3.896544186096526955e-15
-3.013750835298849265e-15
-2.292793604931251236e-15
-1.707886916764249740e-15
-1.241406724902308835e-15
