# bin_2_14
-1.493650653182579393e-36
-1.696844790517018928e-36
-1.898040209562772648e-36
-2.082559863423055710e-36
-2.230760858035594959e-36
-2.317928395983268448e-36
-2.323084220690309314e-36
-2.215132738609525758e-36
-1.993663859683811426e-36
-1.696022180445434945e-36
-1.389840576938535034e-36
-1.154587667122480163e-36
-9.990511789933803443e-37
-8.234049325976016524e-37
-5.819351885276448400e-37
-4.345677254159059754e-37
-3.366537572542642378e-37
-2.270885536806884433e-37
-1.645761200927450890e-37
-1.153687824409461085e-37
-7.887177152077056472e-38
-5.392029593404851313e-38
-3.694349465618471137e-38
-2.550100617397887558e-38
-1.779870211117119085e-38
-1.264538587291649362e-38
-9.159715872527382416e-39
-6.774954308896073230e-39
-5.106379510724671261e-39
-3.902820288105846231e-39
-3.003867400920247171e-39
