# bin_10_9
7.613292851637058219e-08
7.214765740874737399e-08
6.669180699353815828e-08
6.002810512528851804e-08
5.256557180912256617e-08
4.481488896903899591e-08
3.730487873787588051e-08
3.046452509272105643e-08
2.451603198518479776e-08
1.946338830201671267e-08
1.518223968688203900e-08
1.158318334183007930e-08
8.685832066204388183e-09
6.493972941937532372e-09
4.860106289554379914e-09
3.622304906651464050e-09
2.715014426122419447e-09
2.047892108878600485e-09
1.556513848083629545e-09
1.191023166169233056e-09
9.158512885929013138e-10
7.054841152565539511e-10
5.423936945902172523e-10
4.146574316888065466e-10
3.141003059476934297e-10
2.350305094126488372e-10
1.732994125769943127e-10
1.256864974211175674e-10
8.955185947266862876e-11
6.264739971923043023e-11
4.303088411076022598e-11
