# bin_12_2
3.505284348570397415e-08
3.089365805959153598e-08
2.648810467285470233e-08
2.215026899983650233e-08
1.815552458442758175e-08
1.466502483653583205e-08
1.169927096246420620e-08
9.181806339177839949e-09
7.049759133200647907e-09
5.319874091624760954e-09
4.008200244596346231e-09
3.030266003129424939e-09
2.289367297071923209e-09
1.743253037485428479e-09
1.339969650167399816e-09
1.039780294143097415e-09
8.133309425592303021e-10
6.393030593539110800e-10
5.028520483062298304e-10
3.939979921523911876e-10
3.061661433642185749e-10
2.350187022815099513e-10
1.776162218309914716e-10
1.318173458640593251e-10
9.589124078557133036e-11
6.830637960329848465e-11
4.763713081207327079e-11
3.254686894155760447e-11
2.181457107661124426e-11
1.437117829542806571e-11
9.326397139188847434e-12
