# bin_14_5
6.277380690578680648e-08
5.832396452958677841e-08
5.276125952472131179e-08
4.641491272959411953e-08
3.972018465924085263e-08
3.315435175023004794e-08
2.712961276411387860e-08
2.187898601614628009e-08
1.742512779644087003e-08
1.364546458241319219e-08
1.044043871607758074e-08
7.839071252346930069e-09
5.876310974933837388e-09
4.416030162070453742e-09
3.303229989510569364e-09
2.489658643048173383e-09
1.889380236373611841e-09
1.446600243946519837e-09
1.115868246076136058e-09
8.653510214336128889e-10
6.722895916409891219e-10
5.211357898809121344e-10
4.014376219385236227e-10
3.061229301964345577e-10
2.303362402946096329e-10
1.705613896731926414e-10
1.240511363253336348e-10
8.850718109370373821e-11
6.191155449138068598e-11
4.246621099110786014e-11
2.858500941660645177e-11
