# bin_5_5
4.825035360032030963e-08
4.395672065048709582e-08
3.898219158929422431e-08
3.364726780942118960e-08
2.831492306895384638e-08
2.332159733736589000e-08
1.889376547852296677e-08
1.510476544904444172e-08
1.190138686172945440e-08
9.196995730457769390e-09
6.966924939405218108e-09
5.231294312723786648e-09
3.939769466235838367e-09
2.966316559906059299e-09
2.237778154848174567e-09
1.704211562984067680e-09
1.307553522480216967e-09
1.011519529322742371e-09
7.869418154765015209e-10
6.136320120119188743e-10
4.776675997454959909e-10
3.696578862666275832e-10
2.833007265148600762e-10
2.142839931440294186e-10
1.595279291061955964e-10
1.166525170350876361e-10
8.367025585132393911e-11
5.882874549215868479e-11
4.054840520830822322e-11
2.741856087531986479e-11
1.821274840440194604e-11
