# bin_14_11
-1.106335748743329627e-10
-1.258804026311507452e-10
-1.410903036648168727e-10
-1.551880864317940986e-10
-1.667412485581332753e-10
-1.739354409220049535e-10
-1.751062296690165105e-10
-1.680521385869418078e-10
-1.522262778299259379e-10
-1.303581078624689926e-10
-1.070548121768008800e-10
-8.855376672387633607e-11
-7.641566538642002547e-11
-6.378259682418984833e-11
-4.579325865949795591e-11
-3.345074354337069278e-11
-2.644059651700684293e-11
-1.763396631995926407e-11
-1.301672299722900877e-11
-9.009785692450479730e-12
-6.144114934387976275e-12
-4.202457738997199892e-12
-2.868466293189919032e-12
-1.968177280468561553e-12
-1.362393950220842958e-12
-9.589507568312364517e-13
-6.876932683387260819e-13
-5.036596315539681610e-13
-3.764343463077406270e-13
-2.859718580620890820e-13
-2.194113320860905071e-13
