# bin_6_3
-8.962881422919505939e-10
-9.561491688499973425e-10
-9.897328838950996830e-10
-9.874813748463435601e-10
-9.383623129234051837e-10
-8.432032811632900225e-10
-7.178421541595480593e-10
-5.905195188447379214e-10
-4.914130316834150300e-10
-4.210806871474681027e-10
-3.439214088909292753e-10
-2.498015523482197447e-10
-1.866120003940582004e-10
-1.433380914313255588e-10
-1.014227074318565504e-10
-7.465432840076609820e-11
-5.375500872051545692e-11
-3.900587219263602271e-11
-2.861917170503282260e-11
-2.130729516179285179e-11
-1.614052395883232018e-11
-1.243336351513843499e-11
-9.714374131138905056e-12
-7.651091207475268912e-12
-6.033552363794843837e-12
-4.731243419800691536e-12
-3.664904255501383469e-12
-2.788773620477983439e-12
-2.075363369633276100e-12
-1.505770704206290918e-12
-1.063794001049576825e-12
