# bin_3_12
-1.566567189523612582e-27
-1.770654021134590876e-27
-1.968089084836588894e-27
-2.142716548710760845e-27
-2.273108887431767688e-27
-2.333480824483022689e-27
-2.303865994369938785e-27
-2.153867067112199391e-27
-1.902958138572736603e-27
-1.590978528161176562e-27
-1.301483872175632153e-27
-1.098231048714361137e-27
-9.494054329515753748e-28
-7.447133651823746493e-28
-5.152876022118401531e-28
-4.088921770754736350e-28
-2.916674269906995470e-28
-2.107349882494864842e-28
-1.438290852673786717e-28
-1.021228054521899065e-28
-7.078915065246626556e-29
-4.896386260491129761e-29
-3.412227340119325828e-29
-2.400097031180051532e-29
-1.716436949154845630e-29
-1.251584412027167613e-29
-9.304703774488228375e-30
-7.043557177808773232e-30
-5.401790020833275910e-30
-4.169093166420190283e-30
-3.213972605630028429e-30
