# bin_3_7
-2.253242319093329111e-16
-2.490024494831936596e-16
-2.692655031693854130e-16
-2.833320642041967578e-16
-2.881808592651878246e-16
-2.809147055170869381e-16
-2.588248582820762046e-16
-2.255031478122507606e-16
-1.867638919379530882e-16
-1.532029725057140763e-16
-1.306078742994233086e-16
-1.116424856956687206e-16
-8.431329566101409528e-17
-5.927567647458825678e-17
-4.779419815305248989e-17
-3.286318759804181969e-17
-2.463941585013359489e-17
-1.708285388071904917e-17
-1.216989063734803705e-17
-8.695299486197910604e-18
-6.250380895132888338e-18
-4.551703526400405051e-18
-3.367002443856508419e-18
-2.539048559510038838e-18
-1.946313965855015741e-18
-1.509445401885310868e-18
-1.177450865252171363e-18
-9.171544057260239731e-19
-7.085295845815566431e-19
-5.396093106644845521e-19
-4.032325451606866878e-19
