# bin_14_1
-3.564934504897143112e-09
-3.496645922131332115e-09
-3.267775160885567165e-09
-2.898230462773704317e-09
-2.455599953871170591e-09
-2.034595058956777908e-09
-1.701358502512448556e-09
-1.427882112191489638e-09
-1.137810799786119290e-09
-8.469749994884104672e-10
-6.348853451294608088e-10
-4.792664803145877214e-10
-3.497321558810587895e-10
-2.578610173722161159e-10
-1.900558688250865597e-10
-1.417900885277663901e-10
-1.073639104390686064e-10
-8.274198644147639946e-11
-6.483297690583338764e-11
-5.144262830417941478e-11
-4.108878505167468392e-11
-3.279831938830668243e-11
-2.597919862033622870e-11
-2.028951969516000386e-11
-1.553970410887156625e-11
-1.162444030316072040e-11
-8.472494176138767964e-12
-6.012541462159382717e-12
-4.158538509697392651e-12
-2.809542090535676668e-12
-1.859618982290052922e-12
