# bin_1_1
-4.595784487263053812e-10
-4.364435939672288499e-10
-3.932917918407704659e-10
-3.371479210722444059e-10
-2.798165103006723829e-10
-2.327285575751783793e-10
-1.964651440625343981e-10
-1.602916755041783325e-10
-1.207389898081098530e-10
-8.968143132145377235e-11
-6.836713366769513511e-11
-5.014963636508339398e-11
-3.698409780071667914e-11
-2.733062576821741405e-11
-2.041622025618553360e-11
-1.547790928006763177e-11
-1.194902620793134522e-11
-9.386208322939139776e-12
-7.472579709791542778e-12
-5.993596300034312761e-12
-4.807917466999925666e-12
-3.829098943076445475e-12
-3.007714934389835973e-12
-2.317044755406239131e-12
-1.743100574992996473e-12
-1.277220954619148426e-12
-9.108329467290596239e-13
-6.327756924052543299e-13
-4.292310021719943849e-13
-2.851368911173338284e-13
-1.860908370512407817e-13
