# bin_7_9
-1.328734219494452197e-12
-1.495395564871306019e-12
-1.653560501694628482e-12
-1.788864633547801881e-12
-1.882728596903845999e-12
-1.914931112375561053e-12
-1.866168526303865120e-12
-1.718199475198314925e-12
-1.495891625588868918e-12
-1.237865415560251442e-12
-1.015585773365842199e-12
-8.672413189083147177e-13
-7.416483722331503680e-13
-5.573563021305167029e-13
-3.906521900732831117e-13
-3.161974623130747056e-13
-2.139197088644415937e-13
-1.606313852442962525e-13
-1.095992255845238320e-13
-7.653614512156347925e-14
-5.358711782184803618e-14
-3.753088413657507579e-14
-2.647863489097378174e-14
-1.890489570062186770e-14
-1.376019381297450197e-14
-1.021089302914698261e-14
-7.713577027144980590e-15
-5.911885906610723663e-15
-4.567678925933034207e-15
-3.532132559334280282e-15
-2.714005023375844462e-15
