# bin_4_9
-9.009744998482723395e-18
-1.008499368783535041e-17
-1.107857959129151270e-17
-1.188803718054902270e-17
-1.238397981250604402e-17
-1.244987646353424234e-17
-1.192786428367793154e-17
-1.078775204184236497e-17
-9.224108225494309762e-18
-7.570825484837716372e-18
-6.265853128825347418e-18
-5.407062048171231474e-18
-4.502089981111267558e-18
-3.227759884164143613e-18
-2.369961294149271313e-18
-1.870491101374194133e-18
-1.259172679845562417e-18
-9.337562526375818318e-19
-6.563305218960393469e-19
-4.569785767890997251e-19
-3.210252122254001424e-19
-2.269409637202414559e-19
-1.625162333279218881e-19
-1.182224490555361401e-19
-8.772937833488973005e-20
-6.627695829057713115e-20
-5.081657003405175165e-20
-3.932971501223641503e-20
-3.050741856652372035e-20
-2.354722332982261229e-20
-1.796845143563180315e-20
