# bin_8_4
-7.250547005465179645e-10
-7.886657135865389631e-10
-8.362985512107068843e-10
-8.589168187138973782e-10
-8.484040757648087571e-10
-7.951793827765053111e-10
-7.045321008278528968e-10
-5.918950320449830842e-10
-4.853548829723990938e-10
-4.078471444792341689e-10
-3.502918083904160106e-10
-2.775771711592377364e-10
-1.967632239450016408e-10
-1.521950660118728176e-10
-1.125192359478594339e-10
-8.056397625664649684e-11
-5.795446805543072185e-11
-4.178027302571425287e-11
-3.001826544185348153e-11
-2.179454408398383746e-11
-1.605823423156737295e-11
-1.203225523783720973e-11
-9.176075125640206519e-12
-7.105181005813414434e-12
-5.554509324845852734e-12
-4.356350285748109289e-12
-3.403938414388486484e-12
-2.632224646915177050e-12
-2.002967906990805770e-12
-1.492913376326456285e-12
-1.086297822272944537e-12
