# bin_3_8
-1.755003632974419886e-18
-1.950981537827294460e-18
-2.125206538512514846e-18
-2.256697932372163610e-18
-2.320095760911204951e-18
-2.295385471733797473e-18
-2.152401984617036692e-18
-1.907213588789396116e-18
-1.599104589338439494e-18
-1.308177742738485466e-18
-1.100238198500310826e-18
-9.508729789549029786e-19
-7.532279845061175551e-19
-5.241121513366088902e-19
-4.114418716758471824e-19
-2.999264266195825066e-19
-2.149460694658844183e-19
-1.504065754484478154e-19
-1.082021637731691531e-19
-7.641709614536344480e-20
-5.420965979831914205e-20
-3.895861092707396363e-20
-2.841191545240525015e-20
-2.110742030760063458e-20
-1.597318464801320245e-20
-1.226825198834721675e-20
-9.517660661524834251e-21
-7.407406791995727439e-21
-5.742188480845087164e-21
-4.404389976313877137e-21
-3.324579069541368723e-21
