# bin_8_15
-1.493603199237865830e-18
-1.705001624287436885e-18
-1.919092254553315534e-18
-2.121678140733151030e-18
-2.294091659900893594e-18
-2.412265844027974793e-18
-2.450474006092220392e-18
-2.383090079592376339e-18
-2.188202923019325298e-18
-1.899907279853196540e-18
-1.569252856614357934e-18
-1.288573375366640171e-18
-1.103482739076122166e-18
-9.415743376716514828e-19
-7.005194424436902733e-19
-4.919916486935681622e-19
-3.994170959980617121e-19
-2.653286612229259122e-19
-1.997908044664475986e-19
-1.349827122355544480e-19
-9.206087677631135398e-20
-6.304165221661882206e-20
-4.283165669237957992e-20
-2.905656626391448213e-20
-1.978277617737249731e-20
-1.365332191490110386e-20
-9.578579456682172079e-21
-6.857421510617712358e-21
-5.020252497988428335e-21
-3.752418173915169018e-21
-2.850509326054851097e-21
