# bin_7_8
-1.006349964272160819e-11
-1.128490548369151228e-11
-1.242407795886656609e-11
-1.336836665123417003e-11
-1.397455432638375779e-11
-1.410467231587600402e-11
-1.359146573144827394e-11
-1.236467943502454434e-11
-1.063608572936650846e-11
-8.749999128101139674e-12
-7.217093753376450732e-12
-6.209452942589677086e-12
-5.223306759070709144e-12
-3.801209874924518603e-12
-2.741120818860231313e-12
-2.192390769208352925e-12
-1.468895875192001195e-12
-1.100256968988461737e-12
-7.648718692599585841e-13
-5.319234764704316847e-13
-3.734470039991867016e-13
-2.631545873697433552e-13
-1.874956311231723823e-13
-1.355434623920270055e-13
-9.995762684182374753e-14
-7.509060933679663716e-14
-5.731498897136727926e-14
-4.423571360056145878e-14
-3.428231599982155299e-14
-2.648591772273677530e-14
-2.026171329590624522e-14
