# bin_5_3
-6.942100061056010723e-10
-7.397568692909135361e-10
-7.646912618481664389e-10
-7.616607493131959342e-10
-7.221445311023683686e-10
-6.474032469386970522e-10
-5.499658361307205045e-10
-4.521080998044515742e-10
-3.767223439669282608e-10
-3.229504562746768109e-10
-2.626711864176143160e-10
-1.900446573595185085e-10
-1.426582196740184167e-10
-1.091694894241896356e-10
-7.731161506203111186e-11
-5.685787313165641017e-11
-4.099950576439422344e-11
-2.976382108222414200e-11
-2.186327728888262569e-11
-1.630153234614316261e-11
-1.236758307955106519e-11
-9.541030413146016774e-12
-7.463194684463499649e-12
-5.882294149149032636e-12
-4.639865528121601454e-12
-3.637545272130239525e-12
-2.815823890966913305e-12
-2.140422963608033447e-12
-1.590697233232230189e-12
-1.152292410161997131e-12
-8.127006023575077643e-13
