# bin_11_4
-9.538896502409601871e-10
-1.038145839922624756e-09
-1.101600149565538528e-09
-1.132338464203318909e-09
-1.119682992290147222e-09
-1.050870282963916883e-09
-9.323183250616419396e-10
-7.841522027940401311e-10
-6.430495703189812288e-10
-5.398385873521553555e-10
-4.637929686336922261e-10
-3.686869101781730837e-10
-2.615910291458079709e-10
-2.017329063244032482e-10
-1.497246730457875784e-10
-1.069162786215411351e-10
-7.704558324043409204e-11
-5.549828012802449276e-11
-3.984722702873653753e-11
-2.891014683732040623e-11
-2.128127134897183250e-11
-1.593018505800605372e-11
-1.213678090438902439e-11
-9.390280912012423448e-12
-7.336986121899258550e-12
-5.752959509442548076e-12
-4.495534072383402611e-12
-3.477562466801192353e-12
-2.647793961529589747e-12
-1.975108483034369323e-12
-1.438527734149124294e-12
