# bin_6_14
-1.177835222650663243e-21
-1.340522941591730857e-21
-1.503015908108411233e-21
-1.653892867615487015e-21
-1.777939916449972330e-21
-1.855873643394871336e-21
-1.869795314286714958e-21
-1.796263144722093779e-21
-1.628481165865631489e-21
-1.395704560718743429e-21
-1.146219769999262925e-21
-9.473473658421215883e-22
-8.175617799987426399e-22
-6.840240342422411537e-22
-4.915507208456415236e-22
-3.578776961682445819e-22
-2.842318249124399585e-22
-1.886907047905351882e-22
-1.399691144574739521e-22
-9.674184727702231804e-23
-6.590440840998839001e-23
-4.506766215114450117e-23
-3.072736584796520696e-23
-2.106389157193548508e-23
-1.456391143768389038e-23
-1.023826208734592831e-23
-7.332538896885295534e-24
-5.363751834606792781e-24
-4.005154436029805840e-24
-3.041151722985255002e-24
-2.333300081829816911e-24
