# bin_1_6
-1.914386665387006327e-20
-2.083271688484286087e-20
-2.210236814269046178e-20
-2.270828401034366375e-20
-2.244869405363320813e-20
-2.104195700073290583e-20
-1.864063364015509677e-20
-1.563598446870900549e-20
-1.279722241302983767e-20
-1.075669753744586410e-20
-9.277335874307061833e-21
-7.353176089078588336e-21
-5.153276833528088773e-21
-4.029991038285579493e-21
-2.961616031475298613e-21
-2.130135504718190449e-21
-1.517402054134877773e-21
-1.100927786217584934e-21
-7.912215762330262430e-22
-5.741336344579236553e-22
-4.231761904158093030e-22
-3.172445998952472243e-22
-2.421361734801393865e-22
-1.876538283900209734e-22
-1.468282615998922447e-22
-1.152549391639960015e-22
-9.012444319046474999e-23
-6.973352661513659849e-23
-5.308485330816559786e-23
-3.957461182284035781e-23
-2.879219918832611009e-23
