# bin_6_4
-4.644991474067176283e-10
-5.046197724681317611e-10
-5.342612340970398148e-10
-5.476641310533812597e-10
-5.396258715363327193e-10
-5.041908558936163232e-10
-4.453451878177195397e-10
-3.731721997877338670e-10
-3.059642134375859029e-10
-2.576815175312892143e-10
-2.211542748728056515e-10
-1.739477273285212595e-10
-1.230560150994452491e-10
-9.584761793386293441e-11
-7.021187754249598763e-11
-5.059713048484307162e-11
-3.624657299849372675e-11
-2.617934463765710661e-11
-1.884013210580274149e-11
-1.370153104383772606e-11
-1.011702188819414986e-11
-7.597749716163538756e-12
-5.807327715513443555e-12
-4.504824713785232763e-12
-3.525927545661624592e-12
-2.766820771018011663e-12
-2.161534747669731538e-12
-1.670122025360837260e-12
-1.269115856193419694e-12
-9.441940176737820188e-13
-6.855198670387932472e-13
