# bin_3_11
-3.119289940795779555e-25
-3.513753772983152925e-25
-3.889673867599813709e-25
-4.213652265214383552e-25
-4.442264274237156150e-25
-4.526947361898622789e-25
-4.424058271816993590e-25
-4.086028980950574639e-25
-3.568319841565914432e-25
-2.958149940956201544e-25
-2.424566968608200363e-25
-2.065757137184458430e-25
-1.772350996365909337e-25
-1.343514362127760586e-25
-9.368222968667530143e-26
-7.578307323199506239e-26
-5.163618220538008654e-26
-3.862814120121026130e-26
-2.626648899713004008e-26
-1.839312377279420126e-26
-1.286112634608859839e-26
-8.991015355792095678e-27
-6.327603972893798493e-27
-4.503487460026107839e-27
-3.266473497453110785e-27
-2.415730145887540385e-27
-1.819485920836506509e-27
-1.391497702511038175e-27
-1.073897533884305363e-27
-8.303980580561944490e-28
-6.386614923868614228e-28
