# bin_5_2
7.921510170414332711e-09
8.585600557415893369e-09
9.063104640133254921e-09
9.255855646389839477e-09
9.076344213327795629e-09
8.424872376925103660e-09
7.393947316103910809e-09
6.157454542369669413e-09
5.044199901138889960e-09
4.271508827731942132e-09
3.666573229205099492e-09
2.833622203390627249e-09
1.989085601412124327e-09
1.583671711973852849e-09
1.127537132586082424e-09
8.314361316193239245e-10
5.864034188254665985e-10
4.251955828474126086e-10
3.075075881915211436e-10
2.245560427612345955e-10
1.666244690272023290e-10
1.257537929428508581e-10
9.660434848808434127e-11
7.524113309029223568e-11
5.905741103488953378e-11
4.640770547522810049e-11
3.625147270067415014e-11
2.796894621359589004e-11
2.119640196565508209e-11
1.571049113768597295e-11
1.135338494357923735e-11
