# bin_5_1
1.557691861053480207e-11
1.677046079643297270e-11
1.755556971873341814e-11
1.775567614596173205e-11
1.717438016445763789e-11
1.570017771995578775e-11
1.357455756591470666e-11
1.120383235146633240e-11
9.220999740744797543e-12
7.888966167772598125e-12
6.668141005670989600e-12
4.954303121343205552e-12
3.553357579186774197e-12
2.841564054582497973e-12
1.965145702055992858e-12
1.476031004285584680e-12
1.046132829965824440e-12
7.550978887951152066e-13
5.502121488976207439e-13
4.055976019733463701e-13
3.040055349510298995e-13
2.317858362364133408e-13
1.796834261600241322e-13
1.408661310661648874e-13
1.109603830924833658e-13
8.722109047979267372e-14
6.794174497518264434e-14
5.212932703692285784e-14
3.919698411619331681e-14
2.877049445288389030e-14
2.056663535505431001e-14
