# bin_10_3
1.929897454871153502e-16
2.166117982409371667e-16
2.387450766021187968e-16
2.572468090423259885e-16
2.693830942830598255e-16
2.724327319949853222e-16
2.632727233797563078e-16
2.402003094020452893e-16
2.072224622747346974e-16
1.706636200856032760e-16
1.405301560974180644e-16
1.207388160869816788e-16
1.020737588953070090e-16
7.480487016223284526e-17
5.347888341269889072e-17
4.305403543143617547e-17
2.877281622203988687e-17
2.165881349021134495e-17
1.497838886332277418e-17
1.040961179839389299e-17
7.306041954232115075e-18
5.140253720984907195e-18
3.653282157827177101e-18
2.633085936727193361e-18
1.935818247493420361e-18
1.450195092868213198e-18
1.104448774468473444e-18
8.512582557537404703e-19
6.594587149710501509e-19
5.097631030790384767e-19
3.904894649994027163e-19
