# bin_14_13
3.906474799420801261e-06
4.473467426903774654e-06
5.055032618139789490e-06
5.615221398752130476e-06
6.107056899784489703e-06
6.468553422318600447e-06
6.626038667292256372e-06
6.522119752223159578e-06
6.072782225841623700e-06
5.344485694668496420e-06
4.453019750030430757e-06
3.643861289060214338e-06
3.087070344727887227e-06
2.665678794953727015e-06
2.063191170772583354e-06
1.424522055189415139e-06
1.143167830483438445e-06
7.948558784331616789e-07
5.824560350261834882e-07
3.893543484431077885e-07
2.713692426437392999e-07
1.847628043886990009e-07
1.245854315803156943e-07
8.372370720985403897e-08
5.621126637385302443e-08
3.806298868131052521e-08
2.610606429511676369e-08
1.821886336247091357e-08
1.299707445216196417e-08
9.489972995259211790e-09
7.079628559562663076e-09
