# bin_7_5
5.815480831333961456e-07
6.475721841306793456e-07
7.068541250560601225e-07
7.525157789591648119e-07
7.761043044688178240e-07
7.709496460894384118e-07
7.266703142351853240e-07
6.470371543275204315e-07
5.448549820565376808e-07
4.457987581417551222e-07
3.733999655210145986e-07
3.230091998803268326e-07
2.593003279315879790e-07
1.810294537765222468e-07
1.400910026790502343e-07
1.042742821889093395e-07
7.341835964575064982e-08
5.198716571652061245e-08
3.734744686799619221e-08
2.627277648797418320e-08
1.856916557855994726e-08
1.328994337207101462e-08
9.651392971242895014e-09
7.136313662461059096e-09
5.377476401920959484e-09
4.116155956481839736e-09
3.186279567931358838e-09
2.477929646264814489e-09
1.922082973875853443e-09
1.477013903413337277e-09
1.118065327588112692e-09
