# bin_7_7
4.530098115424958214e-06
5.076185681129378179e-06
5.583630465374224315e-06
6.001385126597378757e-06
6.264739880361483336e-06
6.313060644823607959e-06
6.069073195569076874e-06
5.507776328656652675e-06
4.725887315307624343e-06
3.883590503325052633e-06
3.207328763502816148e-06
2.763486836633917753e-06
2.315656816707232874e-06
1.673992895827388284e-06
1.215666013848461173e-06
9.682005172053429915e-07
6.487929233044314665e-07
4.846685521915364368e-07
3.384717400115721623e-07
2.353796892490454651e-07
1.652919456972114613e-07
1.166115684921717036e-07
8.325566751949021430e-08
6.034603000633738751e-08
4.461961419513043865e-08
3.360093178339563201e-08
2.569835948775190359e-08
1.985994660164460712e-08
1.539944032450296663e-08
1.189450513037083389e-08
9.091082235258972187e-09
