# bin_6_4
4.755704572415902405e-07
5.249467632936084692e-07
5.668693135285980997e-07
5.954346324389425314e-07
6.044093097012902136e-07
5.874610886091738900e-07
5.395347187119472093e-07
4.685888377878598136e-07
3.873884661672678551e-07
3.181203361256487023e-07
2.718011080042895149e-07
2.315220738576651963e-07
1.733429030979273696e-07
1.225426309556755855e-07
9.881154567774098737e-08
6.753707025454966005e-08
5.079914000693494536e-08
3.531953091608584287e-08
2.511579856278156423e-08
1.797003609039605725e-08
1.294277547329605721e-08
9.447178730471283229e-09
7.007026870936965949e-09
5.297561081195173320e-09
4.069515783410363968e-09
3.160881822295172450e-09
2.467476219535641854e-09
1.921869168523746401e-09
1.483539772627901972e-09
1.128288587056876661e-09
8.415542074150700904e-10
