# bin_10_7
1.319050750902279576e-07
1.490402598350426430e-07
1.655931958218985533e-07
1.801987233303449526e-07
1.910491666398792599e-07
1.959800323079671727e-07
1.933044703137202043e-07
1.804999140469217746e-07
1.592918590203564113e-07
1.330500923539087418e-07
1.088466435962912736e-07
9.193975446905824135e-08
7.944793411708892109e-08
6.210862521109050360e-08
4.296792507170991248e-08
3.419778911381719535e-08
2.426392881181864266e-08
1.761009163164709274e-08
1.199350151216651620e-08
8.508302555859129204e-09
5.903472544727530997e-09
4.088076428325902070e-09
2.851733965537048478e-09
2.008195939116651613e-09
1.438210908887945478e-09
1.050234782858014063e-09
7.818853879283504692e-10
5.925758117605788498e-10
4.548196714169703313e-10
3.511590231222701841e-10
2.706921736594491723e-10
