# bin_15_8
4.208705171535602866e-17
4.804986846797368896e-17
5.409223649773556022e-17
5.981431598468171313e-17
6.469090879434765836e-17
6.804427558233326140e-17
6.914496196532787147e-17
6.727923176031905840e-17
6.181157881295001486e-17
5.369819202889804328e-17
4.436546595798394142e-17
3.642206388137415889e-17
3.117866893808482212e-17
2.662215328332144312e-17
1.983756174374917835e-17
1.391527291110717915e-17
1.130069330357129380e-17
7.513050402300509812e-18
5.656848752593328129e-18
3.818392737919714310e-18
2.605069353525508101e-18
1.783855254316318392e-18
1.211817514598197596e-18
8.216803595007789791e-19
5.590657056759695989e-19
3.855037750477302217e-19
2.701816715078652052e-19
1.932200879392083929e-19
1.413097309257502880e-19
1.055323178217093695e-19
8.012032515737617837e-20
