# bin_2_1
1.071267556071650228e-10
1.091784750207320120e-10
1.068138958178566814e-10
9.909273348434929850e-11
8.697495272246018055e-11
7.264834691517440998e-11
5.968926697625154087e-11
5.039855341123645406e-11
4.289821361049953083e-11
3.335062841451456478e-11
2.391839846023819646e-11
1.862581639168036264e-11
1.366335563286842992e-11
9.989712650825669803e-12
7.281461576765419164e-12
5.357716112186954237e-12
3.969716953185877272e-12
2.988784546959046895e-12
2.291817936190931997e-12
1.787663300053083917e-12
1.413623633180205224e-12
1.126305619530456388e-12
8.975295340049110407e-13
7.102399466807960064e-13
5.544132493677495833e-13
4.244469188595214216e-13
3.172610113157029210e-13
2.308865860519082945e-13
1.634451849769468616e-13
1.126838292812000255e-13
7.585182803574813335e-14
