# bin_13_4
3.014642668540339122e-24
3.419150848453774185e-24
3.816605948177136168e-24
4.176988153752707091e-24
4.460062549803211367e-24
4.615595542307959424e-24
4.603828035365341068e-24
4.361103193031348784e-24
3.900716607784921305e-24
3.297710035002262613e-24
2.699017531771368124e-24
2.253370016697762864e-24
1.951853510585560367e-24
1.584856278504298895e-24
1.107303185084032076e-24
8.455739403359548747e-25
6.385146154777735930e-25
4.393596765537673522e-25
3.109706532452135704e-25
2.202755434914275210e-25
1.511894824435930540e-25
1.035204814623373576e-25
7.131580285904356588e-26
4.953853931222871024e-26
3.486254954614299506e-26
2.499399909806025907e-26
1.827476912017996792e-26
1.363548135247190200e-26
1.034898304585544828e-26
7.944797918068582489e-27
6.124302575409537636e-27
