# bin_10_7
1.421860803137193968e-12
1.605040560324037499e-12
1.781248004868206872e-12
1.935611613514578007e-12
2.048540848208991364e-12
2.096955835297816203e-12
2.062416688829527759e-12
1.919061540285617331e-12
1.687948189326089106e-12
1.406172945330994322e-12
1.150753891467006495e-12
9.748001078916832152e-13
8.410219389527424057e-13
6.509899071904560729e-13
4.506829397431735514e-13
3.613993690342420019e-13
2.525997676326394120e-13
1.855950977958222983e-13
1.259103213971077604e-13
8.899025991148209313e-14
6.192203779203315675e-14
4.302980365758519080e-14
3.010356259348041955e-14
2.126987260179358390e-14
1.529595705111482997e-14
1.121669399393527731e-14
8.383627910760723514e-15
6.374073460711839705e-15
4.902408939277258372e-15
3.787999257766044679e-15
2.918553182538839451e-15
