# bin_10_8
1.027321184024151753e-11
1.161648132802250963e-11
1.291836785217555810e-11
1.407343469913932345e-11
1.494149329037464676e-11
1.535253046578248580e-11
1.517684094135867671e-11
1.421052218005978985e-11
1.257293643896792480e-11
1.052364884217975617e-11
8.607589355278200016e-12
7.254332751742523230e-12
6.275448293300613440e-12
4.943303919401929586e-12
3.419439054436069131e-12
2.704653482954170566e-12
1.941660362482618540e-12
1.395473433867058773e-12
9.539769767357117029e-13
6.785032158733298033e-13
4.697291083384662041e-13
3.243919243548988288e-13
2.257746423142681907e-13
1.585745970579469190e-13
1.131962939085069763e-13
8.238391103894479543e-14
6.113873299017912314e-14
4.621487540936529880e-14
3.540990251928889170e-14
2.732032875358205307e-14
2.106685760140204225e-14
