# bin_5_5
8.323485027608881107e-11
9.173699865531331288e-11
9.887708807473372418e-11
1.036142033536063164e-10
1.048910887819248443e-10
1.015535707210731731e-10
9.287595614591317222e-11
8.032611494773268840e-11
6.626220110870690954e-11
5.450665100458751779e-11
4.669648370342474127e-11
3.956365897632091705e-11
2.929442944972495527e-11
2.089277647288770963e-11
1.680610991887607872e-11
1.143053724020495644e-11
8.609431710447515473e-12
6.015795567226017000e-12
4.270843470016893538e-12
3.060249782935541336e-12
2.209447319399909010e-12
1.617667835470460139e-12
1.203962840416869135e-12
9.132157171621355060e-13
7.033716713084859065e-13
5.473014081078184787e-13
4.275585543870593293e-13
3.329178465259009818e-13
2.566721375550150110e-13
1.948183946780101918e-13
1.449253287992450940e-13
