# bin_9_7
9.985632496311784171e-12
1.124299505821944497e-11
1.243863662897366587e-11
1.346508777416787111e-11
1.418301048431769365e-11
1.443838205491493806e-11
1.408953203532788996e-11
1.299067247880789670e-11
1.132576607720259686e-11
9.378751802509723359e-12
7.690205121879468629e-12
6.560868601572304032e-12
5.620854584767373352e-12
4.239956356518568093e-12
2.962502467914795937e-12
2.400370657006184822e-12
1.626432913944153783e-12
1.221249665616968089e-12
8.312751291512942374e-13
5.808660579527973081e-13
4.065815476931803832e-13
2.845951078509875488e-13
2.005566420063477346e-13
1.429873480538617590e-13
1.039121833063893226e-13
7.699479055964361555e-14
5.809100409604443756e-14
4.448438615312290246e-14
3.435713417995968592e-14
2.657150256458977724e-14
2.042867285129715729e-14
