# bin_5_3
7.035534550250604840e-12
7.669590960734611172e-12
8.154745509498526273e-12
8.400524917479795554e-12
8.333088408687935603e-12
7.844873748974361894e-12
6.978156907507230779e-12
5.874096335897935015e-12
4.807884277950283393e-12
4.027777598221093422e-12
3.477401768986369805e-12
2.786097443453192765e-12
1.956801166040819078e-12
1.513927820974278111e-12
1.129918712190081879e-12
8.025575239741969346e-13
5.760779947012426169e-13
4.173906187272648070e-13
2.990927580748400157e-13
2.164600347434166101e-13
1.590692963034525489e-13
1.188986147945998119e-13
9.048137954800896785e-14
6.995919237430510221e-14
5.465672184371183123e-14
4.287901008992479567e-14
3.354290352693822352e-14
2.598651170401325569e-14
1.982222300708514941e-14
1.481648847697132451e-14
1.081318634780332447e-14
