# bin_2_2
2.118286516104004947e-10
2.201949345308385918e-10
2.209163355447600669e-10
2.114919816288514053e-10
1.914704681302559479e-10
1.640997865551395206e-10
1.351789890458704963e-10
1.119253455476459003e-10
9.583137382752975178e-11
7.947072656441542417e-11
5.837765353857661694e-11
4.296736772629402674e-11
3.358096348631206637e-11
2.371790172268053662e-11
1.764997385377569617e-11
1.275610596449061696e-11
9.343456337314833277e-12
6.928204306010086285e-12
5.218551813398993107e-12
4.002206893391307539e-12
3.119806677552214395e-12
2.463173298757533302e-12
1.956420255535715611e-12
1.552074467385595290e-12
1.221290635827062859e-12
9.470134433852575659e-13
7.196899838358724413e-13
5.337967426918763016e-13
3.854022641245462180e-13
2.707441940610339084e-13
1.853084926535388360e-13
