# bin_10_10
4.021083233773722187e-11
4.562030790339055508e-11
5.094295669279940384e-11
5.577945840739303435e-11
5.959451725052513007e-11
6.171848128961466351e-11
6.161613538802504985e-11
5.843785065453720745e-11
5.232818825210076209e-11
4.428775060335520302e-11
3.625389737222484392e-11
3.023964254771838953e-11
2.619099208228366179e-11
2.132766261902518994e-11
1.492747808240821283e-11
1.135383738861270709e-11
8.615292507133738047e-12
5.904791833838684721e-12
4.196514330968410164e-12
2.968482163539895202e-12
2.035889278132068607e-12
1.393261838771947624e-12
9.588588705405139917e-13
6.652951535801557600e-13
4.674946644071206660e-13
3.346144868781599977e-13
2.442521715269094190e-13
1.819685854502741328e-13
1.379467587783351767e-13
1.058247175618553125e-13
8.155952847409852970e-14
