# bin_6_8
-2.500642694724088397e-09
-2.803704683570790132e-09
-3.086143895533125697e-09
-3.319923671381773222e-09
-3.469432029334907732e-09
-3.500526085529765281e-09
-3.371410792937659202e-09
-3.065165086336857458e-09
-2.634979923789398334e-09
-2.166855349583189756e-09
-1.787587134830288578e-09
-1.538851014666280174e-09
-1.293607587999036925e-09
-9.394421440520801304e-10
-6.783810346150417725e-10
-5.426139847507208706e-10
-3.629891672486921054e-10
-2.720605592415437262e-10
-1.893464267699580825e-10
-1.316154657615966343e-10
-9.240898752881732565e-11
-6.512770712960065511e-11
-4.642507033646772020e-11
-3.358431981341184295e-11
-2.478398229704642126e-11
-1.863082996539839085e-11
-1.422901930012806586e-11
-1.098685906630712438e-11
-8.516989396024471929e-12
-6.580589201155886230e-12
-5.033666201911418228e-12
