# bin_6_3
-6.721881496052125034e-11
-7.388556132610950004e-11
-7.937110077286642915e-11
-8.282414716452858999e-11
-8.344213452351047571e-11
-8.022743197905457956e-11
-7.284303915544223662e-11
-6.254419053967773128e-11
-5.142898814248635933e-11
-4.245928838156861054e-11
-3.652020334338532396e-11
-3.060041071217313004e-11
-2.225003354490925171e-11
-1.616735487520808738e-11
-1.287017890972288263e-11
-8.747007893605575902e-12
-6.557338696311163485e-12
-4.631299728972800766e-12
-3.285609158043332303e-12
-2.358930776295046942e-12
-1.709993781481891309e-12
-1.258688366218430324e-12
-9.423973674620355584e-13
-7.187184699610231287e-13
-5.559432782148945256e-13
-4.337875964149015734e-13
-3.392094397504701694e-13
-2.639168755294607343e-13
-2.029974022075969833e-13
-1.535195005470354814e-13
-1.136669308501035288e-13
