# bin_8_2
-8.126438513506342391e-18
-9.017940788101493429e-18
-9.801962325310816760e-18
-1.038034956283439337e-17
-1.063719189604934870e-17
-1.047846410519199091e-17
-9.773325337728651798e-18
-8.616172416329240808e-18
-7.194364940914245173e-18
-5.887162853915532934e-18
-4.972561732150065100e-18
-4.288971120781179293e-18
-3.349091696248262397e-18
-2.329315966980920925e-18
-1.851152862275192414e-18
-1.321436981676526091e-18
-9.636447370825324199e-19
-6.688958522014961837e-19
-4.804450606723101207e-19
-3.406674562398395967e-19
-2.426790294688410033e-19
-1.751166699478990270e-19
-1.282559894190902698e-19
-9.572728335259383085e-20
-7.274025894104324530e-20
-5.604906518074923864e-20
-4.356915167726766489e-20
-3.392811519464254125e-20
-2.628059220919973930e-20
-2.011887105300089829e-20
-1.514294678185848223e-20
