# bin_5_12
-1.422229676868235417e-16
-1.610693316753138338e-16
-1.794628500437461246e-16
-1.959673196599535903e-16
-2.086623663708162076e-16
-2.151773024252287760e-16
-2.137001128048786234e-16
-2.012772633480034971e-16
-1.790673639377084912e-16
-1.506178860603055822e-16
-1.232063195316011233e-16
-1.033360407954091700e-16
-8.949428142070882837e-17
-7.162619649155688763e-17
-4.971630326618097910e-17
-3.866709568184913839e-17
-2.849459908996419194e-17
-2.001947396543348104e-17
-1.389844169954477926e-17
-9.890276012929832205e-18
-6.815622424543522281e-18
-4.682687847982840654e-18
-3.242364239128054882e-18
-2.264586199416470023e-18
-1.604998681528076136e-18
-1.159396990655072530e-18
-8.541549425079253313e-19
-6.416354978195540045e-19
-4.894548171643840054e-19
-3.768187600286185652e-19
-2.906094497914645305e-19
