# bin_14_5
-3.151403209508927623e-20
-3.585051488303883475e-20
-4.017262354413586521e-20
-4.417372408979332007e-20
-4.744490427259145226e-20
-4.946890933748496310e-20
-4.977565439039305427e-20
-4.773019084938502186e-20
-4.319189666528490677e-20
-3.694855690807330852e-20
-3.032462729036546864e-20
-2.509310974975790805e-20
-2.167360874186568157e-20
-1.806951351694562228e-20
-1.292635063312739227e-20
-9.470086737212801933e-21
-7.479175080103759599e-21
-4.980439038200839537e-21
-3.675652127186117760e-21
-2.549619007832383241e-21
-1.738139881163908918e-21
-1.188294138926044865e-21
-8.109795148343340122e-22
-5.568416672475687752e-22
-3.859043523941225643e-22
-2.719924267323278235e-22
-1.953528813875332746e-22
-1.433072038222176106e-22
-1.072716616578416078e-22
-8.159891917332723834e-23
-6.266635892075092632e-23
