# bin_11_11
-1.315473782251285871e-08
-1.497907960957407980e-08
-1.680560576962139014e-08
-1.850711968530234220e-08
-1.991457955480264121e-08
-2.081326798597499246e-08
-2.099857243424386882e-08
-2.021438428746769091e-08
-1.836350232979398690e-08
-1.577194187630952432e-08
-1.296243951730221133e-08
-1.069977876215940906e-08
-9.224682948427637753e-09
-7.746638828363906231e-09
-5.596136005059731085e-09
-4.046727337073543233e-09
-3.232368087926224752e-09
-2.140068697336133527e-09
-1.595388157346585211e-09
-1.098331355672946799e-09
-7.476873583433455779e-10
-5.114315276922545503e-10
-3.483414852851318005e-10
-2.383311595894187603e-10
-1.643510038999880133e-10
-1.151786304546315258e-10
-8.221236873582782276e-11
-5.993532590612193311e-11
-4.462168894146343557e-11
-3.380719472086048384e-11
-2.590699297922906525e-11
