# bin_12_6
-3.742911192087537701e-14
-4.243487240102534442e-14
-4.734448725929468263e-14
-5.178393321408636095e-14
-5.525203062476458901e-14
-5.712455939404117822e-14
-5.691376297814780030e-14
-5.383028070992864063e-14
-4.807820039166851584e-14
-4.058877251634330843e-14
-3.321327017139044720e-14
-2.776297510825799854e-14
-2.404970167987482906e-14
-1.945487140989744520e-14
-1.356350977483132046e-14
-1.041054978065057868e-14
-7.811215187125494228e-15
-5.403552869311121978e-15
-3.803456750976793875e-15
-2.699066821490933775e-15
-1.854440792161208765e-15
-1.270632481689826289e-15
-8.765352325638232952e-16
-6.097699111950623091e-16
-4.299438829124858833e-16
-3.088754243446115371e-16
-2.263114819298775060e-16
-1.691795348729722723e-16
-1.285895234254896144e-16
-9.880140360578028099e-17
-7.617758287684577298e-17
