# bin_15_1
-2.617909690474550527e-39
-2.981397345304169209e-39
-3.345567811091987326e-39
-3.685131290702487052e-39
-3.966500379688917408e-39
-4.146973669674196705e-39
-4.185573184899115474e-39
-4.031728236320610395e-39
-3.664981049490739623e-39
-3.149883993018237786e-39
-2.589628390542549396e-39
-2.136925461907064050e-39
-1.841500997059947923e-39
-1.547925261633812495e-39
-1.120400582051826147e-39
-8.086709723222986117e-40
-6.465487873708439854e-40
-4.282055542509107932e-40
-3.193920005876527871e-40
-2.196165170530805051e-40
-1.495185153126058133e-40
-1.022845332166831256e-40
-6.966070461359050277e-41
-4.763569429698809388e-41
-3.282289336728584000e-41
-2.298073745666064131e-41
-1.638589110864726986e-41
-1.193271576442481227e-41
-8.874945110807004221e-42
-6.718591438688126652e-42
-5.145849932530275108e-42
