# bin_12_14
-4.840998163043459902e-09
-5.538225172677450470e-09
-6.250788658370313064e-09
-6.933547022119352814e-09
-7.527588812689007762e-09
-7.955724853664215934e-09
-8.128493592164387956e-09
-7.972287335461673695e-09
-7.391126982918686198e-09
-6.478206624297871174e-09
-5.381528306948924298e-09
-4.406773215707997560e-09
-3.746560981664768561e-09
-3.226622968107098876e-09
-2.466830134555622581e-09
-1.708068363230381840e-09
-1.380176963450607280e-09
-9.425216045733476671e-10
-6.996545139086737451e-10
-4.675808075688095170e-10
-3.231804928770988577e-10
-2.206434381036759043e-10
-1.493091436270957834e-10
-1.006145026379124115e-10
-6.781849796530020337e-11
-4.618501878565357772e-11
-3.189646606891797103e-11
-2.243912634921612383e-11
-1.614314218569024379e-11
-1.188096929813207028e-11
-8.920988029302878040e-12
