# bin_8_10
-3.207426993776998069e-09
-3.630834922402809918e-09
-4.043243286356431697e-09
-4.412114707869547601e-09
-4.694003649073992861e-09
-4.835524243149909701e-09
-4.796005350607134473e-09
-4.509554361409986831e-09
-4.005605294747673946e-09
-3.364387859260582197e-09
-2.751914504572696664e-09
-2.311280585742662115e-09
-2.001185291966767181e-09
-1.594473463324474536e-09
-1.105362673681213150e-09
-8.640138769099532019e-10
-6.319966533286819632e-10
-4.468942488843725689e-10
-3.087615362312748234e-10
-2.197752935912353363e-10
-1.516464692331362399e-10
-1.043309849626759789e-10
-7.234785282579666354e-11
-5.061154934500918435e-11
-3.594450144343486761e-11
-2.602160316195896442e-11
-1.921173647329626549e-11
-1.445847931487245740e-11
-1.104396435330918190e-11
-8.508246009750609912e-12
-6.561726481041122294e-12
