# bin_2_4
-1.347434867506116990e-09
-1.444579283913266044e-09
-1.504227013145417976e-09
-1.512004416860030866e-09
-1.449933044939034716e-09
-1.313722748489287308e-09
-1.125976865245893982e-09
-9.259970660997227304e-10
-7.656659885231389416e-10
-6.577532901683084064e-10
-5.481057442629101619e-10
-3.992281381223968023e-10
-2.925562479182190581e-10
-2.308813286558780469e-10
-1.598260224443792061e-10
-1.194533734193546312e-10
-8.548773698221743850e-11
-6.171363357192705703e-11
-4.511718190944262222e-11
-3.343090065061649758e-11
-2.520248134646955138e-11
-1.932713955539851119e-11
-1.505392925844623524e-11
-1.183891162577545014e-11
-9.338039089133535843e-12
-7.336305853404532317e-12
-5.701718069325228546e-12
-4.358197313526717147e-12
-3.260543253623511542e-12
-2.378981574716318376e-12
-1.689787397126087710e-12
