# bin_2_15
-3.393352534712691015e-34
-3.864361176657444695e-34
-4.336169879450501076e-34
-4.775989771491500250e-34
-5.140266360623915340e-34
-5.373639566624408260e-34
-5.423081771736782301e-34
-5.222909653996130936e-34
-4.746987359521247344e-34
-4.079096796928603075e-34
-3.353283307383464903e-34
-2.767312808613330767e-34
-2.385014545513795396e-34
-2.004282481144976356e-34
-1.449979434262737939e-34
-1.047067263097999407e-34
-8.369368506463415297e-35
-5.542559624287620133e-35
-4.133490703230677699e-35
-2.843123910046176556e-35
-1.935595399127827762e-35
-1.324091021635341238e-35
-9.017956669089964873e-36
-6.167564703415527523e-36
-4.250590326289495887e-36
-2.976766005115506173e-36
-2.123104785822574474e-36
-1.546556554096281598e-36
-1.150553462156696662e-36
-8.711865824834713794e-37
-6.673439837555702223e-37
