# bin_1_11
-4.834092495368800804e-30
-5.438363772671027979e-30
-6.010831524810892524e-30
-6.499030742316802450e-30
-6.835247124248008770e-30
-6.946533257461503191e-30
-6.761813969619429319e-30
-6.217479625508791380e-30
-5.406026605830781824e-30
-4.470106106089343338e-30
-3.668939603523899644e-30
-3.136061673738507803e-30
-2.678196890624182871e-30
-2.005241272540224651e-30
-1.408577555166180999e-30
-1.140460727159288502e-30
-7.691467210164905436e-31
-5.785045360438391632e-31
-3.953202018433532330e-31
-2.757187451087298308e-31
-1.931507250250645743e-31
-1.353766422700886800e-31
-9.560661847985231572e-32
-6.835260415716306161e-32
-4.982351489256679192e-32
-3.702424992774923019e-32
-2.800422823243423788e-32
-2.148289877576406033e-32
-1.660659313811589653e-32
-1.284253160483472302e-32
-9.864618807706330916e-33
