# bin_8_7
6.357999869507339381e-08
5.929931204458365925e-08
5.389023248213104371e-08
4.765923740463007040e-08
4.101796512528466558e-08
3.442365885803960563e-08
2.828923265188819355e-08
2.287783978276561915e-08
1.825883468452876802e-08
1.435119904251879029e-08
1.104997203386855187e-08
8.338248438085772444e-09
6.243298308382412596e-09
4.687161308133957484e-09
3.510603664735999461e-09
2.634978534739412591e-09
1.994678021509698763e-09
1.520448329481810702e-09
1.168051094415021109e-09
9.024257312742786185e-10
6.989701147894133736e-10
5.407183720758788660e-10
4.161441812262836061e-10
3.174315164287698256e-10
2.391926534797785879e-10
1.775714804618968933e-10
1.296099910657809244e-10
9.288443121600775971e-11
6.530899693961496345e-11
4.505053548545890582e-11
3.050411786240981132e-11
