# bin_8_2
3.206720651486800889e-08
2.810755628431747133e-08
2.398026991469455455e-08
1.997240734278060758e-08
1.632098873893257148e-08
1.315095452575532567e-08
1.046227211810495076e-08
8.181708394181411161e-09
6.262176497000538151e-09
4.722632507229883457e-09
3.562726236672238707e-09
2.695437403795999606e-09
2.040148634745323136e-09
1.557933947775849714e-09
1.200782439604333432e-09
9.342265437945720311e-10
7.322153054556521851e-10
5.761742868346686569e-10
4.532351246881012882e-10
3.547932651529815625e-10
2.751918831944003071e-10
2.106866162860024883e-10
1.587102371726693662e-10
1.173516700146209425e-10
8.503040224176907524e-11
6.032523282356907795e-11
4.190509731030042547e-11
2.852491896243579111e-11
1.905551919507342043e-11
1.251763340284427648e-11
8.104143634262167412e-12
