# bin_6_3
3.872503226191373896e-08
3.456318493288824876e-08
3.001533010915001595e-08
2.539243323013168413e-08
2.100179916731784311e-08
1.706998886730818910e-08
1.369108583541215544e-08
1.083328799786838132e-08
8.413726321960668072e-09
6.398712307526305496e-09
4.812849958057517508e-09
3.630412597598329150e-09
2.741233044041356682e-09
2.072703010971196537e-09
1.582667317412231141e-09
1.218466107024937882e-09
9.464334107692410562e-10
7.397818848234563147e-10
5.799114971133206893e-10
4.539729246196771264e-10
3.533599246930910064e-10
2.723646734150113313e-10
2.071419157031100819e-10
1.549896604759007202e-10
1.138412565661620441e-10
8.196410590601151154e-11
5.780670608360753596e-11
3.993945530046650932e-11
2.705549434973607117e-11
1.799633688105422078e-11
1.177695589985985346e-11
