# bin_12_1
2.342420082710245332e-08
2.001521961413398359e-08
1.669618304375838531e-08
1.366371910859659421e-08
1.102319842769796502e-08
8.777617909297417320e-09
6.871933015963361174e-09
5.270553871346198640e-09
3.985238597247131910e-09
3.011434739266532988e-09
2.283173264542711037e-09
1.734569269012232604e-09
1.329155969100797006e-09
1.028924916366039228e-09
8.041597632676689680e-10
6.332366017968765129e-10
5.005505456214112061e-10
3.953951686082218737e-10
3.106566592176341210e-10
2.417035098348137118e-10
1.855063576260624241e-10
1.400022747148351281e-10
1.036521421477119888e-10
7.516379132525672236e-11
5.334798248879474371e-11
3.706594780554421798e-11
2.523464312290454207e-11
1.686117274206807838e-11
1.108021993068637454e-11
7.177456019610541596e-12
4.593556420501711881e-12
