# bin_9_4
5.001325341558605866e-08
4.558664533590856975e-08
4.042983097689006372e-08
3.488028067316033878e-08
2.932663091167862389e-08
2.413316198183662299e-08
1.954198300066645455e-08
1.562510489536105000e-08
1.231124597087931418e-08
9.500452424253219434e-09
7.179553614601595242e-09
5.387336175270618497e-09
4.059250342167093970e-09
3.051662809011456811e-09
2.302597160930574109e-09
1.753496397886976725e-09
1.346134119334718624e-09
1.042023760722963388e-09
8.113962286759676324e-10
6.333226552385082025e-10
4.934744114409761851e-10
3.822292892231979164e-10
2.931454122710790079e-10
2.218391473972587998e-10
1.651888740754109123e-10
1.207814427519787157e-10
8.659622674714349150e-11
6.084192103927813894e-11
4.189415817074483817e-11
2.829463687376692786e-11
1.877031063914826297e-11
