# bin_5_4
4.270721151341947626e-08
3.849202756655567207e-08
3.376425555610652689e-08
2.883803058846422492e-08
2.404468282699422142e-08
1.966114641257525314e-08
1.584058101893572410e-08
1.259767773386071402e-08
9.857640834018055122e-09
7.556137530625067596e-09
5.696560498372023538e-09
4.284089934481971171e-09
3.233209304826771371e-09
2.437317757250839556e-09
1.849986229112081476e-09
1.416467910583124040e-09
1.093779753071364466e-09
8.507174273630694537e-10
6.645727544332404331e-10
5.194064834559349598e-10
4.044286528429191100e-10
3.124334321489027380e-10
2.385754724866757865e-10
1.795047756298755450e-10
1.327516350408562606e-10
9.632805153305304650e-11
6.851237955275114120e-11
4.774902674434802219e-11
3.262312731966726456e-11
2.187426949211456837e-11
1.441791351781320151e-11
