# bin_10_4
5.110197468182479729e-08
4.664390553943876587e-08
4.142320528540605313e-08
3.578081589316300197e-08
3.011390659002520852e-08
2.479976402223875533e-08
2.009374755560470044e-08
1.607641374887269165e-08
1.267701658194267564e-08
9.790310487249884391e-09
7.400659425523697749e-09
5.551839216233573257e-09
4.182415117272770107e-09
3.143263026110466701e-09
2.370085966704169231e-09
1.803747165585112810e-09
1.383759557251453247e-09
1.070545601578601235e-09
8.332848244730017103e-10
6.503044601251342630e-10
5.067480725875880647e-10
3.926330690504406981e-10
3.012794281298866641e-10
2.281493236120936317e-10
1.700238642818324603e-10
1.244264670223104179e-10
8.929190251258135800e-11
6.279371190091161535e-11
4.327629498697549037e-11
2.925185714358647137e-11
1.941926141737042390e-11
