# bin_6_9
-7.985382408345497215e-14
-8.961221418829271882e-14
-9.874753125528080848e-14
-1.063716784165601906e-13
-1.113525713836441093e-13
-1.125684436557911679e-13
-1.087241408411296444e-13
-9.913526437258156936e-14
-8.547376505480549748e-14
-7.037338412584276824e-14
-5.796350234162781491e-14
-4.981960938990874328e-14
-4.208085986504805546e-14
-3.078910954396094630e-14
-2.204444189814795829e-14
-1.773513230313551492e-14
-1.184772522190388169e-14
-8.916331478960586618e-15
-6.172375375780092292e-15
-4.288892913362116136e-15
-3.010569305889345273e-15
-2.118765554687314395e-15
-1.506623133834687613e-15
-1.086571519570095405e-15
-7.993707097286816267e-16
-5.992096407120573030e-16
-4.565851298913747203e-16
-3.520370727008107870e-16
-2.727598842696463342e-16
-2.108346117346852607e-16
-1.614689526621861833e-16
