# bin_5_4
-2.775421540354639679e-10
-3.007242694938751370e-10
-3.173446943123120650e-10
-3.240146756719231979e-10
-3.175869312600170954e-10
-2.948176442946550012e-10
-2.587718573239637435e-10
-2.157485342180861152e-10
-1.769499328481883180e-10
-1.497330201985522673e-10
-1.281598559150352847e-10
-9.918990822763818589e-11
-7.010323168356399568e-11
-5.528644678008433543e-11
-3.972067538204726791e-11
-2.904056390110772392e-11
-2.064452883868819327e-11
-1.494379495966263976e-11
-1.079566192506556534e-11
-7.880599376783148367e-12
-5.845080055754449547e-12
-4.409890437077494231e-12
-3.385871458202139605e-12
-2.635681967003099619e-12
-2.067660992523328375e-12
-1.623965405276217547e-12
-1.268036974302898171e-12
-9.780139097139458639e-13
-7.410521193189422056e-13
-5.492404217501072703e-13
-3.969935701834352866e-13
