# bin_6_4
-4.528078563429276412e-10
-4.914703775047961338e-10
-5.197471761686430630e-10
-5.320495158921370883e-10
-5.232942025236310146e-10
-4.878379731347092887e-10
-4.299588379255890508e-10
-3.596454685145145494e-10
-2.948923635930448682e-10
-2.487614856098778617e-10
-2.133196098262050244e-10
-1.668637329895601882e-10
-1.179752217632453835e-10
-9.230061665432104878e-11
-6.716337771068670702e-11
-4.863810815275428645e-11
-3.474732799914792479e-11
-2.511912837345453065e-11
-1.810038867628911234e-11
-1.318022330605498757e-11
-9.747195769786280086e-12
-7.331939667583706808e-12
-5.613127694277229913e-12
-4.359685016600228803e-12
-3.415247484552361452e-12
-2.680990143450933164e-12
-2.094252556129366884e-12
-1.617257657783568397e-12
-1.227813726604969622e-12
-9.123393396316754874e-13
-6.614219506989728053e-13
