# bin_10_8
-1.487569960659550746e-10
-1.671813367136452981e-10
-1.845522487031141744e-10
-1.992396136452689695e-10
-2.091492055164779223e-10
-2.121031727786657898e-10
-2.058239818381619883e-10
-1.886548201428454642e-10
-1.635127258749660890e-10
-1.350211153079652035e-10
-1.109988987207485255e-10
-9.504891530412120907e-11
-8.077767897922537407e-11
-6.000176077655036814e-11
-4.250690364324458864e-11
-3.423879350369606367e-11
-2.309652314911401607e-11
-1.731581100741529622e-11
-1.190047186181918304e-11
-8.299367764339613662e-12
-5.815657037016505446e-12
-4.081522902297468118e-12
-2.889865448108607386e-12
-2.072864068423436769e-12
-1.516095622955727595e-12
-1.130212730921440114e-12
-8.571334327471930370e-13
-6.586721980476673734e-13
-5.095002679001221589e-13
-3.938564682485135557e-13
-3.021287251588569641e-13
