# bin_10_5
-5.921175948295958897e-10
-6.517836572929020003e-10
-7.014386522739389356e-10
-7.336509895599584326e-10
-7.410932343518839405e-10
-7.154265490374735272e-10
-6.526800232207405738e-10
-5.631556954533128634e-10
-4.645618338703938343e-10
-3.830304487253447218e-10
-3.281422430643614755e-10
-2.761585543886283072e-10
-2.039232307805732716e-10
-1.469585766976107128e-10
-1.166652492027326496e-10
-8.033380333972195330e-11
-5.977584309890174371e-11
-4.203003480798059001e-11
-2.991973312732888053e-11
-2.143576756931339124e-11
-1.549178578154807538e-11
-1.136096094020259074e-11
-8.471179132082372667e-12
-6.434658258963393507e-12
-4.960878491144064315e-12
-3.861634880429135693e-12
-3.015996795837156864e-12
-2.346493762634201352e-12
-1.806782711290714302e-12
-1.369152315987557040e-12
-1.016603924962475943e-12
