# bin_8_2
-1.832835266194923762e-09
-1.899609482675595078e-09
-1.898641247994422805e-09
-1.810669033858301802e-09
-1.634860890506269599e-09
-1.399862547814078398e-09
-1.156552728166759586e-09
-9.606704301062482531e-10
-8.180786711320213821e-10
-6.715949671499127686e-10
-4.980370242483251074e-10
-3.686704975142118140e-10
-2.834509884524220054e-10
-2.037134441498808726e-10
-1.499760243649166864e-10
-1.088725586527101118e-10
-7.991605398079791048e-11
-5.929937425617787961e-11
-4.471063436518620178e-11
-3.431356150684201142e-11
-2.675779955001551720e-11
-2.111944668069767029e-11
-1.676108789262856707e-11
-1.328038605360933299e-11
-1.043328987637233282e-11
-8.075761729138390763e-12
-6.126330387137023645e-12
-4.536999821037663961e-12
-3.272344128842005677e-12
-2.297704434888945762e-12
-1.572640805534108009e-12
