# bin_8_4
-7.082430518965809742e-10
-7.696804546904123878e-10
-8.152429550150876713e-10
-8.361352455599920553e-10
-8.244299751254844445e-10
-7.709775884362547319e-10
-6.815856736856053406e-10
-5.715676313562719173e-10
-4.686614511433179376e-10
-3.944547953713399636e-10
-3.385859090519641074e-10
-2.668649141435752151e-10
-1.889393405623573203e-10
-1.468527232963646646e-10
-1.078537803385813798e-10
-7.758653900098002741e-11
-5.564961454644993650e-11
-4.016683593606441008e-11
-2.889360823713792017e-11
-2.100348641327351338e-11
-1.549936125671995978e-11
-1.163265432643242579e-11
-8.885956075774753588e-12
-6.889624271006699487e-12
-5.390921856111703193e-12
-4.229896167609791696e-12
-3.304920820314237601e-12
-2.554353994022040639e-12
-1.941968208900323062e-12
-1.445680659062093117e-12
-1.050389832134291854e-12
