# bin_9_7
-1.838051790587674848e-10
-2.054150809094529818e-10
-2.252172251133865769e-10
-2.410959767557588691e-10
-2.504017493833340856e-10
-2.508378604429531651e-10
-2.391770414338143935e-10
-2.153458106649123943e-10
-1.833386566088109893e-10
-1.503586835515791355e-10
-1.248747580726094725e-10
-1.078202264376462406e-10
-8.883395360270789165e-11
-6.324951209937478147e-11
-4.713318854774853412e-11
-3.657088955933939987e-11
-2.495429935248176199e-11
-1.825243033607097703e-11
-1.290603034956951054e-11
-9.013952107506697963e-12
-6.342667640930821986e-12
-4.499588912705364948e-12
-3.234782645915992818e-12
-2.363960371089362059e-12
-1.761815498668745788e-12
-1.335971563630670175e-12
-1.027121539537524420e-12
-7.960156158685635619e-13
-6.174219838701523891e-13
-4.759228639687368188e-13
-3.623120472207082001e-13
