# bin_3_2
-6.731916269715914314e-10
-6.928328551623181430e-10
-6.864322366789641672e-10
-6.472458862241889303e-10
-5.775133321443925852e-10
-4.893011538887903101e-10
-4.028431015306354082e-10
-3.365413441162667061e-10
-2.869908615420256142e-10
-2.311030138252993030e-10
-1.683882988641717541e-10
-1.268939935744918363e-10
-9.642741331786535606e-11
-6.920646475451447618e-11
-5.101455487468385559e-11
-3.716673536854466248e-11
-2.736903212025570658e-11
-2.043322847087632137e-11
-1.551509725780169978e-11
-1.199019337721655299e-11
-9.407148676112519958e-12
-7.457215439175706157e-12
-5.930855335816925519e-12
-4.698581505821167255e-12
-3.682759972188289442e-12
-2.838448278204951371e-12
-2.140593401527462726e-12
-1.574057144537511715e-12
-1.126559135441886490e-12
-7.849614419476596216e-13
-5.334496505220286296e-13
