# bin_8_9
-8.997107471862579441e-12
-1.012901202976372409e-11
-1.120487820045519085e-11
-1.212779311336836652e-11
-1.277215445561825555e-11
-1.299973024764704085e-11
-1.268206297802435436e-11
-1.169012370257110755e-11
-1.018932564678442349e-11
-8.437483347361881946e-12
-6.919863342669362112e-12
-5.904125475916527043e-12
-5.055118330062407765e-12
-3.811380377975680953e-12
-2.666274056492500665e-12
-2.157543250331570554e-12
-1.463656962344483087e-12
-1.097439834757517539e-12
-7.478021008968680598e-13
-5.227626270584438886e-13
-3.658253164971359292e-13
-2.560312924077504285e-13
-1.804589512480976269e-13
-1.286921835410577804e-13
-9.354520999983574710e-14
-6.932757461952625837e-14
-5.231425951951107337e-14
-4.006344421254745756e-14
-3.094194140477505334e-14
-2.392765034749253042e-14
-1.839287885609433094e-14
