# bin_2_5
-1.053903343630674628e-14
-1.139274330259223402e-14
-1.198708802218289020e-14
-1.219523447912617162e-14
-1.189525586527467653e-14
-1.097411577602205696e-14
-9.574198831318221544e-15
-7.941786077252555962e-15
-6.514974274311015449e-15
-5.541296442142219023e-15
-4.732909462046233328e-15
-3.599629812725967741e-15
-2.541930997635166275e-15
-2.035006751955095613e-15
-1.426738079280229641e-15
-1.063744308724232074e-15
-7.497357406522001296e-16
-5.425809317549766503e-16
-3.937365241158739827e-16
-2.886532128085783555e-16
-2.150610466311644715e-16
-1.629755908194652008e-16
-1.256714891817465879e-16
-9.815324317524492775e-17
-7.716463326123686709e-17
-6.065489278122097840e-17
-4.733476104603173866e-17
-3.644403923732482726e-17
-2.753555390233014928e-17
-2.033119644837971674e-17
-1.462931207052118508e-17
