# bin_2_2
-2.486868910239708069e-10
-2.538560647408629122e-10
-2.488880228242334859e-10
-2.316432950600382260e-10
-2.040203892805388947e-10
-1.710397989936085872e-10
-1.406820689751091252e-10
-1.184371127111948919e-10
-1.006749726229500560e-10
-7.896427935972988773e-11
-5.698480420880635311e-11
-4.385987073158005356e-11
-3.256196541167798625e-11
-2.363247736493435860e-11
-1.731392995349337264e-11
-1.270216631665543236e-11
-9.397448833180398868e-12
-7.062929798861769550e-12
-5.404082816722919130e-12
-4.206465169579274601e-12
-3.320134413152057867e-12
-2.641937548745827936e-12
-2.103982345914015582e-12
-1.664991861676241021e-12
-1.300589668267030147e-12
-9.970066381139225933e-13
-7.466282295713532783e-13
-5.446132580808732075e-13
-3.865136423465220580e-13
-2.671475827180548418e-13
-1.802434242320862982e-13
