# bin_7_4
-5.953580693806562553e-10
-6.467237989190491515e-10
-6.846377860111539380e-10
-7.017216994728806607e-10
-6.913061059207147669e-10
-6.457904863352915960e-10
-5.703139882980008834e-10
-4.778391844835473701e-10
-3.918032587815031179e-10
-3.300207422336144585e-10
-2.831884221920004206e-10
-2.226270649764708119e-10
-1.575363137412641191e-10
-1.227226176877575842e-10
-8.984904134323126767e-11
-6.477885281612470180e-11
-4.640046637161721704e-11
-3.350949308696287482e-11
-2.411861325144034340e-11
-1.754267575009713243e-11
-1.295503209884836545e-11
-9.730574670237580001e-12
-7.438667819695975544e-12
-5.770976337169127774e-12
-4.517422049216365845e-12
-3.545115677786151574e-12
-2.769683182986699206e-12
-2.140052661064578576e-12
-1.626214334327782015e-12
-1.209851161208898497e-12
-8.783800103182078847e-13
