# bin_4_11
-7.729676044855507147e-22
-8.714085668341437047e-22
-9.655569518166719941e-22
-1.047208836962080130e-21
-1.105644458084949990e-21
-1.128609440532114685e-21
-1.105647148309218204e-21
-1.024020255374482048e-21
-8.966965717844239187e-22
-7.446693597959582543e-22
-6.099310103768855083e-22
-5.185680896559834908e-22
-4.459694742977524189e-22
-3.407178701206284202e-22
-2.367771397130285404e-22
-1.910890188299547577e-22
-1.313191399121455535e-22
-9.768817373782393231e-23
-6.630358732358730622e-23
-4.657946391180339940e-23
-3.251729899019830676e-23
-2.268639281032313400e-23
-1.593007286371397857e-23
-1.130657916686052240e-23
-8.174662861563442124e-24
-6.026676278264800705e-24
-4.526542724506502046e-24
-3.454577247515422788e-24
-2.663005296175488915e-24
-2.058861769538815172e-24
-1.584700575404484190e-24
