# bin_7_3
-1.019218079394977818e-09
-1.087294069858834195e-09
-1.125480854605263941e-09
-1.122926821810356392e-09
-1.067057672806117580e-09
-9.588012362674907743e-10
-8.161960518309779512e-10
-6.713701994713308695e-10
-5.586937456489802615e-10
-4.788027053339213308e-10
-3.910642302006271941e-10
-2.839284422920537326e-10
-2.121527002273728414e-10
-1.629619050575128144e-10
-1.152821871094454598e-10
-8.485920480855688424e-11
-6.110806634319534052e-11
-4.433833863118117689e-11
-3.253203721165178524e-11
-2.422135965121750273e-11
-1.834900630249320140e-11
-1.413582850566680264e-11
-1.104545676334499632e-11
-8.700300505041310688e-12
-6.861654870967212530e-12
-5.381160529816583409e-12
-4.168773415983681013e-12
-3.172513202560942300e-12
-2.361167987604930945e-12
-1.713287731964770853e-12
-1.210496766904698685e-12
