# bin_3_5
-8.750525860801892824e-13
-9.509978081707570362e-13
-1.007308444273575022e-12
-1.032901211466858144e-12
-1.018446972985024417e-12
-9.516289455924717610e-13
-8.404929618892798712e-13
-7.033621701132233195e-13
-5.758004533467126661e-13
-4.851387060944349645e-13
-4.178339109788412932e-13
-3.285429169992341160e-13
-2.302846662019767249e-13
-1.811735747013939515e-13
-1.317999840235998473e-13
-9.555419503533245143e-14
-6.782765314523704191e-14
-4.921497496436986636e-14
-3.544059388920402394e-14
-2.576766417550710064e-14
-1.903339583613891987e-14
-1.429996745460642151e-14
-1.093765896371267023e-14
-8.490659028312116897e-15
-6.650660016796237737e-15
-5.222729995337318074e-15
-4.082906505765151448e-15
-3.156458908265463900e-15
-2.399600471462200326e-15
-1.785715860436285943e-15
-1.296492842255568265e-15
