# bin_10_4
-8.796847121415639865e-10
-9.564193792660817481e-10
-1.013599476180189589e-09
-1.040277723332300227e-09
-1.026616168355223334e-09
-9.611128051514863293e-10
-8.505892456344281981e-10
-7.139285717080754118e-10
-5.853997460356906830e-10
-4.923214016053540240e-10
-4.227264943456446592e-10
-3.340577232993552082e-10
-2.366395903291445804e-10
-1.835040704313204025e-10
-1.352018528855948330e-10
-9.704082112901561607e-11
-6.969859434336182416e-11
-5.027887680772835260e-11
-3.614650082743234841e-11
-2.626016490228279216e-11
-1.936392557058890443e-11
-1.452166527058073866e-11
-1.108416289876656501e-11
-8.588652859881559971e-12
-6.717599150838190724e-12
-5.269938020399150882e-12
-4.117835526623306806e-12
-3.183592733052783125e-12
-2.421536335124394741e-12
-1.803862660839359060e-12
-1.311644592265613969e-12
