# bin_11_13
-1.654524725723968024e-12
-1.886671647975125091e-12
-2.120650595027287626e-12
-2.340613207633813482e-12
-2.525625744504308121e-12
-2.648884721824717594e-12
-2.683044275879076795e-12
-2.598060444429441624e-12
-2.374593092510917623e-12
-2.052186064419493727e-12
-1.691145594598339957e-12
-1.391469829304813129e-12
-1.195276691789031075e-12
-1.013506165531563627e-12
-7.444139067425861445e-13
-5.287294478776599250e-13
-4.272821694957759356e-13
-2.825720979510571913e-13
-2.124473965877024930e-13
-1.446464097188611030e-13
-9.845633754934839695e-14
-6.740467981131914920e-14
-4.583342460262242051e-14
-3.120025713415771821e-14
-2.135581979341924189e-14
-1.483483135575684287e-14
-1.048501678371764656e-14
-7.566240717145279156e-15
-5.580927232359999134e-15
-4.197506506551313589e-15
-3.202040331643243218e-15
