# bin_7_8
-9.933185854660379629e-12
-1.112581903391027383e-11
-1.223160255495892067e-11
-1.313820053941486799e-11
-1.370346017858906070e-11
-1.379593024712368450e-11
-1.324523017851753527e-11
-1.200428786568249856e-11
-1.028668862152563915e-11
-8.449724605150207335e-12
-6.984305282058908379e-12
-6.020885200952144926e-12
-5.032129415434822626e-12
-3.627252272611274066e-12
-2.645276600059318169e-12
-2.098805162317500101e-12
-1.409596241024062061e-12
-1.049716726144707322e-12
-7.347820200347406165e-13
-5.112618139613977402e-13
-3.590963320359211498e-13
-2.535475347449659251e-13
-1.812277102753195969e-13
-1.315373208025489831e-13
-9.738940302155818239e-14
-7.342728856052144801e-14
-5.621030275765148239e-14
-4.346331167433779812e-14
-3.370547135908780893e-14
-2.602665264970598100e-14
-1.988014433707972730e-14
