# bin_14_8
7.918010460476086966e-08
7.521818141783199622e-08
6.969894350274969508e-08
6.287915377742938056e-08
5.517336584008664281e-08
4.711188551966970000e-08
3.925765409522384968e-08
3.208123683739909593e-08
2.583581952294949503e-08
2.053535750762874075e-08
1.604014173511081983e-08
1.224305187670669074e-08
9.172057703873903071e-09
6.853486656051508445e-09
5.128822811980094593e-09
3.816183843045544281e-09
2.857806589691970334e-09
2.152337302582618760e-09
1.634238345029793499e-09
1.249360608737249800e-09
9.601831416994977986e-10
7.395435672799010239e-10
5.687516328187285189e-10
4.351131179451454795e-10
3.299341378768066109e-10
2.471946845656306436e-10
1.825338585616372630e-10
1.325881951181907999e-10
9.461593149716991702e-11
6.628829265979964060e-11
4.559326153149650449e-11
