# bin_10_4
5.264613468226353572e-08
4.816847209093557440e-08
4.288004100408372516e-08
3.712294203525211068e-08
3.130267262980986607e-08
2.581462849479503109e-08
2.093655515964929390e-08
1.676726125672228368e-08
1.324174034814102192e-08
1.024481132004931402e-08
7.750045900593801185e-09
5.809433061830469477e-09
4.375703113762103551e-09
3.287674474564357328e-09
2.475185288532222099e-09
1.881940823941924401e-09
1.441755183900740812e-09
1.114140162770674270e-09
8.665056142540680111e-10
6.759357779289908611e-10
5.267213264641588243e-10
4.082846503741094864e-10
3.135496492906325610e-10
2.377177979235358018e-10
1.774082425945190217e-10
1.300414027710201081e-10
9.348336613881539643e-11
6.585738657689934279e-11
4.546539380251474798e-11
3.078010357867661277e-11
2.046223580407675102e-11
