# bin_7_1
2.140178209215366947e-08
1.817927783836433844e-08
1.508752621903918673e-08
1.229874493123905773e-08
9.892517623681495760e-09
7.853435014112383449e-09
6.122652575016403137e-09
4.674419365895679066e-09
3.528016352229576066e-09
2.670051360438233006e-09
2.026478476895943196e-09
1.542071478574703292e-09
1.185884795465680766e-09
9.209667456780913901e-10
7.221321970706958312e-10
5.700429224818650672e-10
4.512414527597538851e-10
3.565246524892562883e-10
2.798390925192270147e-10
2.172644323764993020e-10
1.662295955263048410e-10
1.249592073800659056e-10
9.209025708854763128e-11
6.644338622080082844e-11
4.691067903967000579e-11
3.242250873576389716e-11
2.196310598403228702e-11
1.460834978740241968e-11
9.561483429938965913e-12
6.172788999630992449e-12
3.939689580395022109e-12
