# bin_8_6
6.162434175339767947e-08
5.730085052288600806e-08
5.190311008382991139e-08
4.574439486735992718e-08
3.923647250111983859e-08
3.282782198483385924e-08
2.691198735681203564e-08
2.172455317574021621e-08
1.731060056933231224e-08
1.357648830667126665e-08
1.042356953429930183e-08
7.849027149002963697e-09
5.878833999872173390e-09
4.417404321320062259e-09
3.308408591899344287e-09
2.488460655698024662e-09
1.887089380268004526e-09
1.441944228785172268e-09
1.110073338466332350e-09
8.592176406184868616e-10
6.663926169743703942e-10
5.158771062777185007e-10
3.970398161577691956e-10
3.026685332075508859e-10
2.277870848500279028e-10
1.688052674331127231e-10
1.229371877218403529e-10
8.787384110277767263e-11
6.160902290302233298e-11
4.236980001642978996e-11
2.860101657523909688e-11
