# bin_7_7
6.278389887455945554e-08
5.849649380148549569e-08
5.310346506749000543e-08
4.691271110106222249e-08
4.033424165219899430e-08
3.381997819156016116e-08
2.777390930925148935e-08
2.244902849303033716e-08
1.790717826382316168e-08
1.406531331456021628e-08
1.082173844291826133e-08
8.162502175077796088e-09
6.112371412368334242e-09
4.589780768688197596e-09
3.438238920280287313e-09
2.582108189789855067e-09
1.955806001405639655e-09
1.491796262163708073e-09
1.146719780221129364e-09
8.863787849867576233e-10
6.867599281545442468e-10
5.313377348827976984e-10
4.088928372857346265e-10
3.118163584123507180e-10
2.348587235269392502e-10
1.742530752236789342e-10
1.270997435669544446e-10
9.101478431195393934e-11
6.394143394278789944e-11
4.406980928690485768e-11
2.981513189209952475e-11
