# bin_5_5
4.868313179068160417e-08
4.437486127182063901e-08
3.937358406414076141e-08
3.400095236243571593e-08
2.862287192072685798e-08
2.358059968175692629e-08
1.910619208457313039e-08
1.527691737513781140e-08
1.204060067543520596e-08
9.308096957920158415e-09
7.051982080519076972e-09
5.293562099758985539e-09
3.985706276780072343e-09
3.000552614889825033e-09
2.262374083126436548e-09
1.722338494326997464e-09
1.320796952747252401e-09
1.021377185356188744e-09
7.943701177523119805e-10
6.193084024814759852e-10
4.820610665495319813e-10
3.730877416834813061e-10
2.859876906609024819e-10
2.163833078058122718e-10
1.611544757095497768e-10
1.178960920364286665e-10
8.460458700494169549e-11
5.951650731542092305e-11
4.104343100279392965e-11
2.776665946734603928e-11
1.845195615333437299e-11
