# bin_11_6
6.635530702082189909e-08
6.204528552903061239e-08
5.652292074603112755e-08
5.009602661762163962e-08
4.319015710528529409e-08
3.628984935199678769e-08
2.984590787230610241e-08
2.415368075815118573e-08
1.929805940881809033e-08
1.518921983306804232e-08
1.170362623383246302e-08
8.824679731599397977e-09
6.601755171309738292e-09
4.957469600439205733e-09
3.708407464130553556e-09
2.780546018884554318e-09
2.102823142298340265e-09
1.601574241973771383e-09
1.229510504872211661e-09
9.496553632961441514e-10
7.356443339727253605e-10
5.693752494334640894e-10
4.385704057642299564e-10
3.349125036019517272e-10
2.526948607307794551e-10
1.878603748385705865e-10
1.373163798538651304e-10
9.854223804410745698e-11
6.937307405124867850e-11
4.790426045961134712e-11
3.246312242407088119e-11
