# bin_6_6
5.607475078581277136e-08
5.173608707064167309e-08
4.648526387708068350e-08
4.064190043971020382e-08
3.460149318805386917e-08
2.877011562327949882e-08
2.347397179819396023e-08
1.887850615311726364e-08
1.498217813178371718e-08
1.168711551845263538e-08
8.924128090023838358e-09
6.706537347203776186e-09
5.032489082942565881e-09
3.785008050089556095e-09
2.840084498862701276e-09
2.146502767908511163e-09
1.634484381645523830e-09
1.255008294521414748e-09
9.701908981257741828e-10
7.532791074513521775e-10
5.852560871168912964e-10
4.531874101937740430e-10
3.483673076947427257e-10
2.648761428001071234e-10
1.985919450782615362e-10
1.464702304145985389e-10
1.060837062320745333e-10
7.537079990252394155e-11
5.251094843535856513e-11
3.588545090030529351e-11
2.407690554961809267e-11
