# bin_13_10
8.485541555569868921e-08
8.115203514099644820e-08
7.575519989185590552e-08
6.888961856346121316e-08
6.094995311824705815e-08
5.246803992514555099e-08
4.403583243410012129e-08
3.618794248781133094e-08
2.926375784956316221e-08
2.335048560190572810e-08
1.834081396723459063e-08
1.409977023229760953e-08
1.061114286715826028e-08
7.916997842563799318e-09
5.916997526609029014e-09
4.402879669056488819e-09
3.278517703327602907e-09
2.459252572806489230e-09
1.855604663012226755e-09
1.410544015475870977e-09
1.078596278530924907e-09
8.274696460649124323e-10
6.347744924543921314e-10
4.851628584941716988e-10
3.681298691898144743e-10
2.764063937960885579e-10
2.048212775594900808e-10
1.494778928594254651e-10
1.072780545883001489e-10
7.564860490024321472e-11
5.239928554031587106e-11
