# bin_13_7
7.370708416186971658e-08
6.956277785115647303e-08
6.400369775524939142e-08
5.731177334783218163e-08
4.991135014726896825e-08
4.231905261980615505e-08
3.505669672424767646e-08
2.852217130083929607e-08
2.289185574114875414e-08
1.812525543550411773e-08
1.407841461578184198e-08
1.068293416869682803e-08
7.989194421319665790e-09
5.983317110122424098e-09
4.477302105607428922e-09
3.338591811652233039e-09
2.511935682048997619e-09
1.900104579747129456e-09
1.449831750371272042e-09
1.113652453041266969e-09
8.591414215677034168e-10
6.634333641058938075e-10
5.108306934128818143e-10
3.907051937472035157e-10
2.957757527742468586e-10
2.209641043862470718e-10
1.625167192292910772e-10
1.174722767757633545e-10
8.336076134188456846e-11
5.804785075417605779e-11
3.967218569386628324e-11
