# bin_15_4
5.570307990620528055e-08
5.114382206441104626e-08
4.568220862488896667e-08
3.966910764044172433e-08
3.353296350765378294e-08
2.770551012806134234e-08
2.250259595721120753e-08
1.804860086866153311e-08
1.428143137140845664e-08
1.107059693931912967e-08
8.380844060471229568e-09
6.278207689822927331e-09
4.726696601014298768e-09
3.548948698080119001e-09
2.667330340067769249e-09
2.024994848161078184e-09
1.548707828205409918e-09
1.195115814057421668e-09
9.285818768645733485e-10
7.240544872333592398e-10
5.643137419039236853e-10
4.377464516626091139e-10
3.365915899790634105e-10
2.556058499536007303e-10
1.911283931346846361e-10
1.403977402059857200e-10
1.011530634573898025e-10
7.141863953049105718e-11
4.940909389920519341e-11
3.351490609031082069e-11
2.231836266592212188e-11
