# bin_12_6
9.267378101642552839e-17
1.050510895692533023e-16
1.171816694291335909e-16
1.281380828932505609e-16
1.366777817901016449e-16
1.412548157468311343e-16
1.406670364259699865e-16
1.329618939721814160e-16
1.186838210043805792e-16
1.001383856368936494e-16
8.193582775746858801e-17
6.852463569531461708e-17
5.936018484862384983e-17
4.794417580684279476e-17
3.339787892715990847e-17
2.568767602460246258e-17
1.922265632400086634e-17
1.332751612103220238e-17
9.359904197743599935e-18
6.646586097338824020e-18
4.568616458063387117e-18
3.131345921330529150e-18
2.161350484559083360e-18
1.504474380249434986e-18
1.061625767490496054e-18
7.633243437661334408e-19
5.597595673319966441e-19
4.187696884620835754e-19
3.184824313278429653e-19
2.447875651707439600e-19
1.887490712873723864e-19
