# bin_5_5
8.436424153381836417e-11
9.299484974201539677e-11
1.002485847386498881e-10
1.050693860365825664e-10
1.063857305373428567e-10
1.030185767283521769e-10
9.423846864778512904e-11
8.148921510021556819e-11
6.727214941612014498e-11
5.535367567930018686e-11
4.743151784540138006e-11
4.018885330461747671e-11
2.975856809681733192e-11
2.123367215031803718e-11
1.708035975745241587e-11
1.161877267873344830e-11
8.752038847286949047e-12
6.116725321419337537e-12
4.342843987091384471e-12
3.111942898600293499e-12
2.246868670804244826e-12
1.645128110040599582e-12
1.224448146307448217e-12
9.287898572728072536e-13
7.153913374043207988e-13
5.566768703227895408e-13
4.349040149433494474e-13
3.386563367623614354e-13
2.611124516882704157e-13
1.982015001741904199e-13
1.474512978005288070e-13
