# bin_9_1
5.462958590508528519e-27
6.081746033166214055e-27
6.636481888777629050e-27
7.062354708164284868e-27
7.279886933445434881e-27
7.226485807772427579e-27
6.804917421344377146e-27
6.053834228744139542e-27
5.093405210634211262e-27
4.168784261276662769e-27
3.496002021100790142e-27
3.024381813024440665e-27
2.420810618430156634e-27
1.688419238841198013e-27
1.311810798055753062e-27
9.716052327671756119e-28
6.871904862622783474e-28
4.849364261250785630e-28
3.487042000333989235e-28
2.455538713819529303e-28
1.736925634416173157e-28
1.244366676198448005e-28
9.045756195229072427e-29
6.696023425302155682e-29
5.050853168515494575e-29
3.869359687330367107e-29
2.996965946119962391e-29
2.331306501236368396e-29
1.808261216228627348e-29
1.389094947585106549e-29
1.050934976121414158e-29
