# bin_8_5
7.801694685860241593e-13
8.716791711159503167e-13
9.554048861757156890e-13
1.022328053381664424e-12
1.061133168893270625e-12
1.062292679693779678e-12
1.011648315799933324e-12
9.096800315616982904e-13
7.729562928146580011e-13
6.337183859378373316e-13
5.268904503701021810e-13
4.556473382909372982e-13
3.746150285361685217e-13
2.651120081624804162e-13
1.988154738783738038e-13
1.538052878695905569e-13
1.049636188030137580e-13
7.652117343595563193e-14
5.439396938914330567e-14
3.800008972616444174e-14
2.672708940535529300e-14
1.897585802766592252e-14
1.366320075706670424e-14
1.000415351317813129e-14
7.470131420294829172e-15
5.674410640427274405e-15
4.368992429067912304e-15
3.389381534646160370e-15
2.630270841139032207e-15
2.027458853518879949e-15
1.542757085106057989e-15
