# bin_8_6
9.464894687029869750e-12
1.060202619651867553e-11
1.165658930315994516e-11
1.252142898998932464e-11
1.306085403966957877e-11
1.314997552411620994e-11
1.262435195287431120e-11
1.144139286293092113e-11
9.798389656201169907e-12
8.053020494666636110e-12
6.658975470967891321e-12
5.743408716331290293e-12
4.799538071627194139e-12
3.455351283612428583e-12
2.523046426668103605e-12
2.002134150142615999e-12
1.343587086644161768e-12
1.000985846361171281e-12
7.014041368458391623e-13
4.879780644962569232e-13
3.427319313575513508e-13
2.420041056293348686e-13
1.730305154246583507e-13
1.256378633428837518e-13
9.305937282906019296e-14
7.018904663053896704e-14
5.374961464255589483e-14
4.157157931293861521e-14
3.224403997760762315e-14
2.490004750425765354e-14
1.901930802098666203e-14
