# bin_5_2
1.682066091981108377e-13
1.822709456387448301e-13
1.923545736638435282e-13
1.963769771929522220e-13
1.924635931144727525e-13
1.785290941665885629e-13
1.565513532779551292e-13
1.303519583210981784e-13
1.068295589037967416e-13
9.054949158767249566e-14
7.769489265399753303e-14
5.990349967665058820e-14
4.207547162801888493e-14
3.355959940918990194e-14
2.382166006936970233e-14
1.761211757082026936e-14
1.241182527436819937e-14
8.998802907011489284e-15
6.512351919402887372e-15
4.758693973586474161e-15
3.533316143104845587e-15
2.668302562541625747e-15
2.051051149574548242e-15
1.598239407603085209e-15
1.254864539231117208e-15
9.862179289059328117e-16
7.703541284145526088e-16
5.942285787192306319e-16
4.501838852239583418e-16
3.335137243907124722e-16
2.408826807864788826e-16
