# bin_10_3
3.176608304043335485e-21
3.562703253902268787e-21
3.923051492899976586e-21
4.222080555996939378e-21
4.414539844492751301e-21
4.456808042232146657e-21
4.295623608043305502e-21
3.908608095858936875e-21
3.360943206051249567e-21
2.766573890164210873e-21
2.282212226338785393e-21
1.964595352667332231e-21
1.653406208187091879e-21
1.202247627475817084e-21
8.669834449276319843e-22
6.946379971611124810e-22
4.642655256246374759e-22
3.485012195169088438e-22
2.423662638692651895e-22
1.684347626860763172e-22
1.182605264537294198e-22
8.332210772858838690e-23
5.936936563797518568e-23
4.292568828748302692e-23
3.166084363837866141e-23
2.378882244985256275e-23
1.816162095922925580e-23
1.402055769299644267e-23
1.086853807785032488e-23
8.398848896703361649e-24
6.426484664695359463e-24
