# bin_7_6
-1.074011762955172055e-08
-1.199186536079133214e-08
-1.313227463947936153e-08
-1.403625434833100258e-08
-1.454745761015514562e-08
-1.453710865182572208e-08
-1.380962414358976488e-08
-1.238699585508298335e-08
-1.050428017586746978e-08
-8.604688178172561311e-09
-7.167561716384154302e-09
-6.201586818306616721e-09
-5.070259316401783872e-09
-3.573470235979266018e-09
-2.702084130061885758e-09
-2.071405938805988043e-09
-1.423928353589508035e-09
-1.030330959366795551e-09
-7.350927609909868614e-10
-5.144527643352918555e-10
-3.622285084388286634e-10
-2.577317766874641097e-10
-1.860121282266589906e-10
-1.365629737243774381e-10
-1.022295339321002408e-10
-7.782271863803527172e-11
-6.001382671115158077e-11
-4.659582564583262378e-11
-3.616211419909943305e-11
-2.785706494245577523e-11
-2.117253412899764557e-11
