# bin_7_8
-1.038910490014000522e-08
-1.166918801760642900e-08
-1.287203927611267199e-08
-1.388259700562006018e-08
-1.455367257140423290e-08
-1.473603402741635016e-08
-1.426418819874858821e-08
-1.303589196206571586e-08
-1.126540637991782073e-08
-9.286169111145370900e-09
-7.643153818495894558e-09
-6.563338640501607641e-09
-5.562114909920577934e-09
-4.092227174836096200e-09
-2.914946828649898440e-09
-2.352890806041110092e-09
-1.572601287270492664e-09
-1.185844933632576431e-09
-8.182174469522107509e-10
-5.687640109765358112e-10
-3.992482456784200175e-10
-2.807942092033923005e-10
-1.993860891369434534e-10
-1.435282585890543493e-10
-1.053852868105435581e-10
-7.885334388778769845e-11
-5.999439540020675828e-11
-4.621294793795916978e-11
-3.579489004499589050e-11
-2.767771167793940546e-11
-2.121654037175298591e-11
