# bin_9_9
-1.457520766979756443e-08
-1.648285414356066868e-08
-1.833152710862859702e-08
-1.997116022475292529e-08
-2.120222695284120551e-08
-2.178319117246502218e-08
-2.152881236044981171e-08
-2.015070842296871047e-08
-1.782280524586076023e-08
-1.491451617778429731e-08
-1.220288731614662573e-08
-1.029276220612338006e-08
-8.904222078101026423e-09
-7.003168960011473658e-09
-4.845373222471804331e-09
-3.839522367651752945e-09
-2.749214754808468446e-09
-1.981153923536848127e-09
-1.353266626676713280e-09
-9.622404742119292362e-10
-6.667104479384423732e-10
-4.608694522922315376e-10
-3.210409438968916645e-10
-2.257001480629097107e-10
-1.612914546678195036e-10
-1.175179593694237887e-10
-8.730336814309265976e-11
-6.604997970413651564e-11
-5.063856401011612541e-11
-3.908262315928061057e-11
-3.013837908807247900e-11
