# bin_15_15
-1.272714675959436539e-08
-1.461308696561920514e-08
-1.656427349577520625e-08
-1.846973986050961414e-08
-2.018105658994078101e-08
-2.149963805175662909e-08
-2.217915399000757125e-08
-2.203482439960155245e-08
-2.075608991023800906e-08
-1.846556163017604234e-08
-1.552753499544184355e-08
-1.270030103277320315e-08
-1.065638665621009445e-08
-9.233003632916830439e-09
-7.382688431825994695e-09
-5.108807047375674537e-09
-3.979709857570861604e-09
-2.919664123394524631e-09
-2.044952769701714731e-09
-1.401363936296018375e-09
-9.888140250223713701e-10
-6.685287032900693883e-10
-4.463576368979681987e-10
-2.977793047555319763e-10
-1.980870783224187865e-10
-1.321969349009608779e-10
-8.903272160260863930e-11
-6.077794816523408404e-11
-4.230815936453925605e-11
-3.014034854162965081e-11
-2.199747248527616228e-11
