# bin_4_10
-1.147933879974988366e-15
-1.289718508595684068e-15
-1.423120413947783269e-15
-1.535457689179273382e-15
-1.610488371003615825e-15
-1.631589504140184057e-15
-1.580658979492651127e-15
-1.445800138327164756e-15
-1.250531150612372624e-15
-1.031230011781401351e-15
-8.484124351953402718e-16
-7.281717552103884510e-16
-6.178916726716490951e-16
-4.556461484967669934e-16
-3.238130197626789656e-16
-2.617111806582580810e-16
-1.749479766111668334e-16
-1.320144210571259661e-16
-9.095018753502412456e-17
-6.322643199815451948e-17
-4.437788892898114781e-17
-3.119917086862122810e-17
-2.213804014690351368e-17
-1.592163182161486488e-17
-1.167947754620922345e-17
-8.731430485659934843e-18
-6.638376522069403765e-18
-5.111030062478010943e-18
-3.958067280391991845e-18
-3.060787180096315759e-18
-2.347066109024444418e-18
