# bin_6_1
-2.679946234984414751e-16
-2.917901355087090635e-16
-3.097539759128110482e-16
-3.184456989768994834e-16
-3.150453480590457171e-16
-2.955511116296136109e-16
-2.620276460417222022e-16
-2.199353868869055851e-16
-1.800394687218628696e-16
-1.513102629330182637e-16
-1.305782845453682012e-16
-1.036648648334895489e-16
-7.264519106848885964e-17
-5.677875563223160858e-17
-4.180506178465167755e-17
-3.003441968834522491e-17
-2.140598111554967065e-17
-1.553816816969188443e-17
-1.116546972705023067e-17
-8.100512037482512976e-18
-5.969650561400498790e-18
-4.474638783754697939e-18
-3.414773520348796817e-18
-2.646242491739130529e-18
-2.070642861810330450e-18
-1.625679393759247527e-18
-1.271619021943120767e-18
-9.843515385899356452e-19
-7.497574829083747629e-19
-5.592998019084443521e-19
-4.071935767116369726e-19
