# bin_8_10
-3.217497495844774136e-09
-3.639496459930187656e-09
-4.048886833911148379e-09
-4.412629668084202831e-09
-4.686744110695406808e-09
-4.817798959932382916e-09
-4.764981092484460871e-09
-4.463976503399021049e-09
-3.951601510975297008e-09
-3.309117637687546367e-09
-2.707373052196299428e-09
-2.281904978460161522e-09
-1.974649810799952910e-09
-1.556930212410859279e-09
-1.077347725925909691e-09
-8.518082515205376074e-10
-6.123317431227085457e-10
-4.397841983188795856e-10
-3.008833475257981825e-10
-2.140846078702233459e-10
-1.482248263025096826e-10
-1.023705761838797435e-10
-7.125742124252806201e-11
-5.005331532876588630e-11
-3.573115534627496531e-11
-2.600521084207450356e-11
-1.929872157566521486e-11
-1.458777522827391860e-11
-1.117738803326079990e-11
-8.624464636605136827e-12
-6.651275155147517826e-12
