# bin_1_4
-1.872211986995140423e-11
-1.988306690413503372e-11
-2.046130784815643752e-11
-2.027052572796512303e-11
-1.906387061347476084e-11
-1.694632571018548089e-11
-1.426839282350633150e-11
-1.169108945392475481e-11
-9.798796602928713199e-12
-8.438545930348026689e-12
-6.749441666858518567e-12
-4.779435552172312740e-12
-3.690264183520764525e-12
-2.763151139592693284e-12
-1.977117593484211264e-12
-1.436462412831107615e-12
-1.047579604310476781e-12
-7.622119538978549373e-13
-5.620913190774860097e-13
-4.215672514906314836e-13
-3.218347160783391002e-13
-2.498141553676261841e-13
-1.963696555371626717e-13
-1.552787709058340359e-13
-1.226639709239321271e-13
-9.613261481530629880e-14
-7.426398797008743456e-14
-5.624805116061439402e-14
-4.159485772685671471e-14
-2.994943931630685726e-14
-2.098409465259252403e-14
