# bin_6_4
-1.996878414746233299e-09
-2.203520127965839021e-09
-2.378417572860344519e-09
-2.496659539399584291e-09
-2.532274946135774390e-09
-2.458188871899867499e-09
-2.254392217863255654e-09
-1.955173805787753332e-09
-1.615245110591873694e-09
-1.327583025271691208e-09
-1.135950935897767987e-09
-9.659838398642261107e-10
-7.200275192271411238e-10
-5.107189162306638014e-10
-4.118885213304610633e-10
-2.806943781477634824e-10
-2.115268340642364811e-10
-1.473418769014047979e-10
-1.046931933604956158e-10
-7.497727925431820001e-11
-5.406886001779283097e-11
-3.952240552616094280e-11
-2.935949319636864557e-11
-2.223008844809211252e-11
-1.709796768002237084e-11
-1.329219865621851390e-11
-1.038121784515472740e-11
-8.086231078025044113e-12
-6.240086174211108534e-12
-4.742970099240410698e-12
-3.534613483282061477e-12
