# bin_5_5
-2.127913000520239355e-08
-2.346194525804477665e-08
-2.529861797685596730e-08
-2.652262307738935144e-08
-2.686219117142573792e-08
-2.602189979075585713e-08
-2.381199193486414161e-08
-2.060614195529800987e-08
-1.700557240733729343e-08
-1.399083334773926079e-08
-1.198717180130952145e-08
-1.016254314542004210e-08
-7.532320488983339411e-09
-5.370062345775546723e-09
-4.321493013510096367e-09
-2.940806600085319186e-09
-2.215355973292512323e-09
-1.547765372777835011e-09
-1.099164821449712526e-09
-7.876860367040706584e-10
-5.687128181404235812e-10
-4.163749964338625847e-10
-3.098671977980446644e-10
-2.350180297815821256e-10
-1.810054654667568390e-10
-1.408432889494064353e-10
-1.100376688072665108e-10
-8.569519331634282666e-11
-6.608579877000050451e-11
-5.017661516519563818e-11
-3.734071603059192772e-11
