# bin_5_2
-4.003933947202439770e-11
-4.339787338174265076e-11
-4.581061569001275505e-11
-4.678056808721436679e-11
-4.586375983802819032e-11
-4.255768457433842826e-11
-3.733797665919597093e-11
-3.108810247451551470e-11
-2.547593145315173353e-11
-2.158972175563906393e-11
-1.853117803355764254e-11
-1.430094130573841423e-11
-1.004226218717474608e-11
-8.007023162933132603e-12
-5.689740849126872123e-12
-4.203709768207311494e-12
-2.963454801879468860e-12
-2.149071518879719649e-12
-1.555203659634510216e-12
-1.136373508629719396e-12
-8.437267336306301567e-13
-6.371456194070688411e-13
-4.897333024138739409e-13
-3.816100356910355156e-13
-2.996325305468132803e-13
-2.355061470016986045e-13
-1.839858696643810393e-13
-1.419507703854433616e-13
-1.075691063751333366e-13
-7.971552934783202599e-14
-5.759397035267946753e-14
