# bin_2_3
-1.736776564948041409e-08
-1.836829514912033979e-08
-1.880908729347138395e-08
-1.851196990859710575e-08
-1.727325163591728998e-08
-1.523914023223076173e-08
-1.275650198684669147e-08
-1.045826191809323836e-08
-8.814857777836713767e-09
-7.564000910216389682e-09
-5.937325550987728964e-09
-4.204412759441936657e-09
-3.290222664878160865e-09
-2.411185751654802644e-09
-1.753054438131850419e-09
-1.264159135661102060e-09
-9.237502800612537027e-10
-6.750473731028314362e-10
-4.999518608722508187e-10
-3.767528520104780354e-10
-2.889393061999042083e-10
-2.251916715553219544e-10
-1.775031504985747683e-10
-1.405410816286405254e-10
-1.109965635738131402e-10
-8.684147422217854625e-11
-6.688739403561473554e-11
-5.045672323742195599e-11
-3.713292723012056888e-11
-2.659936462844064615e-11
-1.854310027320198256e-11
