# bin_12_6
7.772405091219558952e-16
8.806929495268481120e-16
9.818978487156656508e-16
1.073046769337482014e-15
1.143685873488453962e-15
1.180850083175619759e-15
1.174546548484068831e-15
1.108484382552730242e-15
9.880140707519133348e-16
8.324860107345139828e-16
6.810689852342034612e-16
5.703039329132049476e-16
4.939982997436959867e-16
3.974237048235431855e-16
2.763756268461988016e-16
2.136238925222140248e-16
1.587993602683526603e-16
1.107303189860509409e-16
7.736296387774089736e-17
5.499868913443322649e-17
3.784554767208909601e-17
2.596480740161437196e-17
1.794648150776252205e-17
1.251066227149295711e-17
8.845009811489262192e-18
6.372699332303188650e-18
4.682781230602848405e-18
3.509678152745170172e-18
2.672798013706780202e-18
2.055875196724001936e-18
1.585401336891379942e-18
