# bin_6_1
4.349025125331594283e-18
4.730833477020289342e-18
5.016700519585240933e-18
5.151153205201272594e-18
5.088333165359452343e-18
4.764862122625212984e-18
4.217146582105246320e-18
3.534643451626994595e-18
2.892938664102441901e-18
2.433478668094871161e-18
2.098222174773168335e-18
1.658931555436695251e-18
1.162196220025193974e-18
9.109642731337307791e-19
6.671415706696486721e-19
4.811709408794309323e-19
3.422128128876178622e-19
2.483403367097405136e-19
1.785918896997925890e-19
1.296674480214279702e-19
9.563697468888927857e-20
7.174526499798272658e-20
5.479670420469649910e-20
4.249019118059550536e-20
3.325900489626725861e-20
2.611222170168485107e-20
2.041852902328069645e-20
1.579593282195088706e-20
1.202071369867409015e-20
8.957310147213228899e-21
6.513233279022223584e-21
