# bin_4_15
2.757745378670778570e-07
3.001893964817887101e-07
3.186121967553631680e-07
3.275938783483091818e-07
3.240525119459916970e-07
3.042774987637909420e-07
2.700676713090305519e-07
2.272309073272872692e-07
1.863420322264800389e-07
1.563834028751851532e-07
1.343733315295721367e-07
1.069304918618676966e-07
7.588420024429928784e-08
5.846767877346754131e-08
4.344806455023929962e-08
3.099840639503831381e-08
2.234926369043880475e-08
1.609544435805021244e-08
1.155368171501807270e-08
8.380527198593762091e-09
6.167265911731411572e-09
4.615228300247361198e-09
3.515269873305807921e-09
2.719213418161642473e-09
2.124407264480704102e-09
1.665761201528265621e-09
1.301820178746454862e-09
1.007247680402603916e-09
7.671404181384922865e-10
5.724557930176151225e-10
4.171116494985821674e-10
