# bin_3_4
1.000680104006674982e-07
1.063204414929718651e-07
1.095055739283224751e-07
1.085785730274563697e-07
1.023346849264440079e-07
9.119162790715309307e-08
7.704588312362485530e-08
6.325471119999504375e-08
5.290390921663025375e-08
4.537173709093082963e-08
3.646416356348566102e-08
2.615973792400392920e-08
1.989993505092570394e-08
1.504109008624612658e-08
1.071024549887478964e-08
7.841454445447790809e-09
5.679366691689534126e-09
4.129537217663731564e-09
3.042149922760677596e-09
2.276843195364664261e-09
1.734142978814219851e-09
1.342802358399061948e-09
1.053358561230227019e-09
8.316612368838014000e-10
6.563452514154879546e-10
5.142054919914714410e-10
3.973374410286792411e-10
3.012085513453024980e-10
2.230676678110614367e-10
1.609426867977560420e-10
1.130377027000763074e-10
