# bin_4_4
2.610030569203896096e-08
2.820124109039633511e-08
2.965550111095071899e-08
3.015279556988786600e-08
2.938637659816488674e-08
2.709750517774202220e-08
2.363032059460144887e-08
1.961174633981028784e-08
1.610445460929318803e-08
1.369234717803147188e-08
1.166361230277547708e-08
8.873396459068530869e-09
6.297698767103071197e-09
5.006233125189831905e-09
3.534333949148914026e-09
2.617557458245449070e-09
1.853796003803797197e-09
1.341635855515177984e-09
9.729970944083702698e-10
7.132375378870142865e-10
5.314264639342224116e-10
4.027707943507150947e-10
3.105604280803250533e-10
2.425194691968473533e-10
1.906116329564076664e-10
1.497777452948281689e-10
1.168397448100089002e-10
8.991940012352394143e-11
6.791121353925960158e-11
5.012520687643393581e-11
3.605947933013649288e-11
