# bin_1_5
5.823187352508465901e-07
5.688286125873448082e-07
5.290851686802350372e-07
4.671057910406897523e-07
3.944949498617892539e-07
3.267891502008942091e-07
2.736704175557270591e-07
2.291638275264206081e-07
1.813256521319219935e-07
1.346281443757598817e-07
1.012278202644837817e-07
7.617545101251745324e-08
5.559243456863424622e-08
4.101942609082164039e-08
3.027300507340877288e-08
2.262893898494019500e-08
1.717752330374686210e-08
1.327243853738578815e-08
1.042360514900241383e-08
8.284960470797349712e-09
6.623479082672999407e-09
5.287328075034208454e-09
4.184857980456255929e-09
3.263509538893059513e-09
2.494369887384540999e-09
1.861314577577972555e-09
1.353020267776036529e-09
9.576437258033790716e-10
6.607343248690487122e-10
4.454477473268997832e-10
2.943171484535588006e-10
