# bin_2_7
4.011981972963411902e-07
4.152686562655501036e-07
4.143774891343343754e-07
3.943820248225405645e-07
3.553784037516983042e-07
3.037970997234109956e-07
2.509149866632215527e-07
2.086339329779360978e-07
1.776273747373863187e-07
1.453155142596240815e-07
1.075586947183475914e-07
7.983958194164227346e-08
6.123117425662989658e-08
4.403481894397507245e-08
3.241023388018364814e-08
2.354524453007595645e-08
1.729333445937267729e-08
1.284456010029990982e-08
9.695496572436533381e-09
7.449067371293235544e-09
5.814284892956857161e-09
4.592037614499934599e-09
3.645357311135106582e-09
2.888020154228690566e-09
2.267817730597653866e-09
1.754017714214489400e-09
1.329259757775031995e-09
9.832640558295291275e-10
7.083202776767130096e-10
4.967710569723827821e-10
3.396542605295180809e-10
