# bin_10_4
2.416603620352961109e-17
2.715091126366762263e-17
2.996108980786382253e-17
3.233076579583843917e-17
3.391927860498254598e-17
3.437511614085201716e-17
3.332297998809828096e-17
3.050210202423704510e-17
2.640176078811974754e-17
2.177758735064214169e-17
1.790486649841343388e-17
1.535221141824545140e-17
1.303989999833085607e-17
9.641158417255993129e-18
6.835108897704832831e-18
5.525174961348917500e-18
3.698620347908305140e-18
2.788868447766782155e-18
1.917907737110258643e-18
1.333790677259052605e-18
9.356557992830417686e-19
6.573034473623688093e-19
4.658997195618698498e-19
3.346350053844055855e-19
2.451444711184857805e-19
1.830363886703394034e-19
1.390103483733388410e-19
1.069445430759046228e-19
8.278433392794587227e-20
6.401190279103063387e-20
4.909563978439641353e-20
