# bin_4_8
1.762897697217510385e-07
1.916946357393403807e-07
2.031911727401999884e-07
2.085853506757566752e-07
2.059033569079142164e-07
1.928370337657474392e-07
1.707247104763287880e-07
1.433433096992009729e-07
1.175428271104563159e-07
9.882607668925647624e-08
8.485690697929852493e-08
6.711807797890149216e-08
4.756500120710388316e-08
3.684616143367537608e-08
2.718139512921239508e-08
1.949155606959593356e-08
1.400873454450345150e-08
1.010235622181891471e-08
7.261099362977561232e-09
5.273951680512694411e-09
3.887799548156172660e-09
2.914672751825977498e-09
2.224017629608999508e-09
1.722854724258458180e-09
1.347282776614814733e-09
1.056842170986306165e-09
8.257999612797777680e-10
6.385016157394611851e-10
4.857438588569088232e-10
3.619261420831052013e-10
2.632422941900455275e-10
