# bin_3_8
2.737001235184728294e-07
2.921219504723515006e-07
3.025654433633983917e-07
3.021018908878146312e-07
2.873650013253557673e-07
2.584941846342425652e-07
2.202824886342117207e-07
1.812777639623449994e-07
1.507701591838076985e-07
1.291541733561245589e-07
1.056742025830624766e-07
7.690490289293130814e-08
5.732934377343128011e-08
4.409653767155121488e-08
3.119923954744736008e-08
2.296836534646630172e-08
1.652841656107872486e-08
1.199087083150044209e-08
8.792978944095520726e-09
6.541916881967842252e-09
4.952030328785744699e-09
3.812102916348903233e-09
2.976879271946361375e-09
2.343883637777512992e-09
1.848219897132232048e-09
1.449525841278237377e-09
1.123256823426601277e-09
8.552233918649721364e-10
6.369134478610801869e-10
4.625053760417095554e-10
3.270488361715760235e-10
