# bin_10_3
1.302993424697082744e-20
1.461894313695637105e-20
1.610481475380450686e-20
1.734234060132527196e-20
1.814657861067748156e-20
1.833587895679524081e-20
1.769701087562024697e-20
1.612457092070557267e-20
1.389220006629559714e-20
1.143451803440954559e-20
9.421911515577702002e-21
8.101312335864464964e-21
6.834687928877986773e-21
4.991378153431917494e-21
3.581507505667502068e-21
2.877035448824714010e-21
1.922788108286310276e-21
1.445442166083865846e-21
1.001984188998685064e-21
6.963254832875447191e-22
4.887894509512620530e-22
3.441056908720934713e-22
2.448343373170138167e-22
1.767041069568304320e-22
1.300961140651975501e-22
9.758739846209604410e-23
7.440097479939009413e-23
5.738480120181284197e-23
4.446711957737254954e-23
3.436773650859702659e-23
2.631261516741165664e-23
