# bin_7_3
-1.577568986710672122e-12
-1.743814195004886723e-12
-1.886342185577846997e-12
-1.985705856061845752e-12
-2.020601587378449485e-12
-1.971006568454351531e-12
-1.817299231506382270e-12
-1.584444728200374879e-12
-1.312690515351554333e-12
-1.076473794010267377e-12
-9.173124933563111844e-13
-7.848441688519954482e-13
-5.937813298170126646e-13
-4.167767440176542252e-13
-3.362652064092378714e-13
-2.313370861085677925e-13
-1.734589858140019904e-13
-1.201227443724608484e-13
-8.559893220611136770e-14
-6.114779662909928254e-14
-4.393862269656553189e-14
-3.198059084033597341e-14
-2.364361093279472185e-14
-1.781975019587659334e-14
-1.365384368178773980e-14
-1.058624548796970832e-14
-8.257170741105889007e-15
-6.432468131428134573e-15
-4.970664520015666944e-15
-3.787202383056593881e-15
-2.831571429616128961e-15
