# bin_10_9
-9.744925413889310387e-09
-1.103824392819518833e-08
-1.230148870223839776e-08
-1.343644106767554719e-08
-1.431168144211482264e-08
-1.476463675648422188e-08
-1.467102854560627415e-08
-1.382743756994311448e-08
-1.230933523086102229e-08
-1.035939942516051176e-08
-8.474169676257173299e-09
-7.103641498682057421e-09
-6.152855846890231971e-09
-4.933166265639789508e-09
-3.425472493298510377e-09
-2.659153605238286018e-09
-1.965286639010788217e-09
-1.377270053754660850e-09
-9.577892964188444181e-10
-6.816409674559196007e-10
-4.694959312985474655e-10
-3.223776699980185292e-10
-2.230929112468223024e-10
-1.557188054081209958e-10
-1.102743027254177382e-10
-7.959032515773352665e-11
-5.858676008431338757e-11
-4.397801902292938830e-11
-3.353009934814933878e-11
-2.580732442163378695e-11
-1.990333453013553665e-11
