# bin_6_13
-7.366236399054617870e-16
-8.368472417605501704e-16
-9.360904505018925457e-16
-1.027116953021512957e-15
-1.100240353489986951e-15
-1.143271368978006329e-15
-1.145865812100841692e-15
-1.092663362468277414e-15
-9.834389883426525876e-16
-8.366215211929285727e-16
-6.855575658039549558e-16
-5.694846793363525032e-16
-4.928109178272691499e-16
-4.062391167886708901e-16
-2.870451393953736027e-16
-2.143438038588348778e-16
-1.661015314068568781e-16
-1.119920963889938538e-16
-8.118591880151558923e-17
-5.691897763389267875e-17
-3.891016214854685765e-17
-2.659738820419164985e-17
-1.822149006329508976e-17
-1.257742391678345872e-17
-8.778332185716994961e-18
-6.236585642684823875e-18
-4.517430854090227591e-18
-3.341321927803275210e-18
-2.518469903333024861e-18
-1.924970063348785676e-18
-1.481685746412148133e-18
