# bin_6_12
-2.951330529202359388e-14
-3.345711799266551050e-14
-3.732342302339541945e-14
-4.081703393175473492e-14
-4.354244391448481315e-14
-4.500736450559583227e-14
-4.482829336380606567e-14
-4.238314167916430674e-14
-3.784049710699709052e-14
-3.193461184919410337e-14
-2.613045523922234237e-14
-2.184918601269118585e-14
-1.892704597148045654e-14
-1.529630797519443038e-14
-1.065873775774677870e-14
-8.191504173329952201e-15
-6.136214315770536045e-15
-4.250666350326364349e-15
-2.987819999033684542e-15
-2.121160261686706387e-15
-1.457763121011428224e-15
-9.990277418985736262e-16
-6.894091547384112083e-16
-4.797722479509396099e-16
-3.384466440345373658e-16
-2.432689767549879711e-16
-1.783351679530856995e-16
-1.333776220288436726e-16
-1.014136738541492593e-16
-7.793718920827555771e-17
-6.009369358803664464e-17
