# bin_10_5
-3.105312161551306191e-13
-3.493595959508205530e-13
-3.861500146800329722e-13
-4.175327418455018695e-13
-4.391586961838286746e-13
-4.463316720170984951e-13
-4.344999546103562097e-13
-3.995324259582911644e-13
-3.474017508236339085e-13
-2.872295148770324849e-13
-2.357172999614686868e-13
-2.014973326307578321e-13
-1.721428399278913028e-13
-1.288721358864499015e-13
-9.045178662149316135e-14
-7.333155186593267246e-14
-4.937224791966845865e-14
-3.719681166829940832e-14
-2.540031560532617834e-14
-1.770409415542271126e-14
-1.240623517842227533e-14
-8.697389804883536465e-15
-6.142288724439207555e-15
-4.391170439732350380e-15
-3.200843026606623317e-15
-2.378637700878765759e-15
-1.799234703166828652e-15
-1.380355421476237662e-15
-1.067137570514340924e-15
-8.253458474577797196e-16
-6.340289314957653406e-16
