# bin_10_8
-3.232895713289960743e-09
-3.655848970652979796e-09
-4.065890480425949187e-09
-4.429863423128955194e-09
-4.703669556452317330e-09
-4.833781513023776240e-09
-4.779391788807307596e-09
-4.476174044691096833e-09
-3.961253291633204137e-09
-3.316247243535471380e-09
-2.712435385923673516e-09
-2.285537914373636781e-09
-1.977269050448780063e-09
-1.558584135674756996e-09
-1.078195262933484826e-09
-8.522708337282793865e-10
-6.125050081922751352e-10
-4.397980285814406539e-10
-3.008077855475132002e-10
-2.139741995356397582e-10
-1.481054451810598779e-10
-1.022564455925057122e-10
-7.115500947199141350e-11
-4.996474563697630524e-11
-3.565620601609053387e-11
-2.594262416043567582e-11
-1.924693920519282210e-11
-1.454525104036573960e-11
-1.114273262004300670e-11
-8.596474215338540985e-12
-6.628907024434430375e-12
