# bin_5_9
-1.059048460188616502e-11
-1.187190026938337507e-11
-1.306587618498246559e-11
-1.405396534032954362e-11
-1.468580276744202921e-11
-1.481680132926428205e-11
-1.427108167873133215e-11
-1.297509024052530640e-11
-1.115441859115545010e-11
-9.170695897628512106e-12
-7.561511215196171428e-12
-6.507142189730236178e-12
-5.472669461580353719e-12
-3.975594339156957177e-12
-2.866624660480957161e-12
-2.295506376651661688e-12
-1.533414380151274461e-12
-1.150526451381910142e-12
-8.000338462125502801e-13
-5.557658918708662932e-13
-3.901041972935303912e-13
-2.747963114547209730e-13
-1.957738999001788158e-13
-1.415393517343398050e-13
-1.043919843876475804e-13
-7.843554416632355848e-14
-5.988039096668355634e-14
-4.622412482265681699e-14
-3.582788232330586982e-14
-2.768121295904397421e-14
-2.117490459028526961e-14
