# bin_9_6
-3.210907730186024389e-10
-3.606929411042614975e-10
-3.979732234832516602e-10
-4.294093424519733623e-10
-4.504886602822469387e-10
-4.565350390538530704e-10
-4.426160878062039733e-10
-4.051953998056874558e-10
-3.507711786613992090e-10
-2.892972792440692153e-10
-2.377287064110276802e-10
-2.037371547889110603e-10
-1.731256875740839203e-10
-1.280981694864137609e-10
-9.067535808258549216e-11
-7.335061007165512863e-11
-4.906874382644411455e-11
-3.701937608949782121e-11
-2.543016212317461471e-11
-1.767758382444441016e-11
-1.239794346931323988e-11
-8.706081795939003459e-12
-6.167118810111193874e-12
-4.426507313952950774e-12
-3.240525349243843292e-12
-2.418031407220760417e-12
-1.835479111215277905e-12
-1.411577056010363844e-12
-1.092464155181586528e-12
-8.446870013619393414e-13
-6.478911991718533320e-13
