# bin_1_10
-2.673544956595053922e-27
-2.990760484633106980e-27
-3.283142234021393564e-27
-3.520251273388327120e-27
-3.663731755438214265e-27
-3.679458173919471655e-27
-3.520552958532073226e-27
-3.179809787142971479e-27
-2.715311520452420752e-27
-2.227231408824485842e-27
-1.844043577244930943e-27
-1.591563595374611729e-27
-1.322167700318070027e-27
-9.453992958781470606e-28
-6.963427914464800927e-28
-5.478171261444837192e-28
-3.693145137036775883e-28
-2.731149933385886518e-28
-1.922945979433255994e-28
-1.339076240843156561e-28
-9.405373842023497209e-29
-6.651277188840484702e-29
-4.765983162097096664e-29
-3.469947553317316864e-29
-2.577033921719856766e-29
-1.948327094673155608e-29
-1.494709455826270056e-29
-1.157190494539824792e-29
-8.976171667037257971e-30
-6.926240633246152754e-30
-5.282366378528889756e-30
