# bin_5_3
-1.738661393399147415e-09
-1.895008690481843264e-09
-2.014567782838756930e-09
-2.075029038927523819e-09
-2.058209867128804094e-09
-1.937596334521618621e-09
-1.723483563692012164e-09
-1.450728920334433424e-09
-1.187097181305503195e-09
-9.940058266691318544e-10
-8.579859340564513483e-10
-6.877046614312410318e-10
-4.829952337490484088e-10
-3.733145479169058201e-10
-2.788351051643972887e-10
-1.978489350355199946e-10
-1.420658405132660964e-10
-1.028932656105275965e-10
-7.370214859357833290e-11
-5.332114639024678366e-11
-3.916917289596667668e-11
-2.926686383030465852e-11
-2.226407522134676516e-11
-1.720907385536424173e-11
-1.344146304723910750e-11
-1.054292413622873330e-11
-8.246160089656021350e-12
-6.387788590169772460e-12
-4.872146960583695412e-12
-3.641601369541731738e-12
-2.657626497668411159e-12
