# bin_5_10
-3.119917500911234228e-13
-3.509006267578498365e-13
-3.877401220333519662e-13
-4.191294854610699765e-13
-4.407091986188305605e-13
-4.477766737623992524e-13
-4.357798039958167370e-13
-4.005932960505576535e-13
-3.482242698735751628e-13
-2.878272097938626749e-13
-2.361412851230958308e-13
-2.018046909495790687e-13
-1.723601085134898746e-13
-1.290008535723202753e-13
-9.051781358880754490e-14
-7.336792584967031309e-14
-4.938333914646371963e-14
-3.719648285343174293e-14
-2.539310542902406921e-14
-1.769423142374776784e-14
-1.239584538412040481e-14
-8.687581443135223923e-15
-6.133549782994406822e-15
-4.383638431171608190e-15
-3.194477254924421499e-15
-2.373323085637663795e-15
-1.794835879800923994e-15
-1.376740554344298482e-15
-1.064188873766390605e-15
-8.229607542835917560e-16
-6.321190493788471545e-16
