# bin_12_8
-6.969591554200746266e-11
-7.919002468576927980e-11
-8.859770506036496213e-11
-9.723502836503663072e-11
-1.041867662469722962e-10
-1.083005749197639258e-10
-1.085916394530966650e-10
-1.036103260538148703e-10
-9.330520827789011032e-11
-7.942079763663459223e-11
-6.508900674933507128e-11
-5.404561010980906881e-11
-4.676242346292685242e-11
-3.859600469218389145e-11
-2.730311405187571432e-11
-2.034722840148421305e-11
-1.580157055556499974e-11
-1.063737146456508465e-11
-7.727196604801141349e-12
-5.411709255858507639e-12
-3.698272404651500253e-12
-2.527869105430793421e-12
-1.731014639870232088e-12
-1.194170094322557015e-12
-8.328499413622861097e-13
-5.912156394606336166e-13
-4.278749021272843473e-13
-3.162185131446466700e-13
-2.381849909079294484e-13
-1.819733519754452550e-13
-1.400426557935980186e-13
