# bin_3_4
-1.426620872304052256e-08
-1.541362613758288480e-08
-1.620813410079751793e-08
-1.647923892075307144e-08
-1.606151771458719637e-08
-1.480646071047705308e-08
-1.290800951797971548e-08
-1.070233605421310472e-08
-8.779401355125057339e-09
-7.467045170718048987e-09
-6.371220859244529694e-09
-4.839456643441334060e-09
-3.420950981487001992e-09
-2.735826859854593357e-09
-1.917996805832541497e-09
-1.429051952638080540e-09
-1.007839713423891486e-09
-7.291605820490781562e-10
-5.290847933229717051e-10
-3.878951512907256271e-10
-2.890350295326951226e-10
-2.190655865068678942e-10
-1.689394711718160618e-10
-1.319492780473317179e-10
-1.037253392138676033e-10
-8.151685494360102325e-11
-6.359590135250638920e-11
-4.894420192401099178e-11
-3.696255565341396936e-11
-2.727747869863115529e-11
-1.961710472929872919e-11
