# bin_2_10
-1.241706178999528584e-22
-1.390364915279863874e-22
-1.528074625742227566e-22
-1.640810434841884458e-22
-1.710840918980304236e-22
-1.721826027150722539e-22
-1.652454366106856607e-22
-1.496970229176061087e-22
-1.282177065715340839e-22
-1.052723156440135114e-22
-8.698916266661608376e-23
-7.499028682694328179e-23
-6.266175433754209950e-23
-4.511430934404635964e-23
-3.290272632109892459e-23
-2.611330004974983504e-23
-1.751309124158893576e-23
-1.304741760189592599e-23
-9.135166554379944713e-24
-6.352928918134524795e-24
-4.460499118103399739e-24
-3.148344149754187971e-24
-2.250022921467188879e-24
-1.632981669000967077e-24
-1.209020125334186215e-24
-9.115497126461989020e-25
-6.978265546906714855e-25
-5.395837941153759301e-25
-4.184334318242596708e-25
-3.230805342576112395e-25
-2.467460073127679221e-25
