# bin_3_3
-3.362696655486605444e-08
-3.596075765049171574e-08
-3.733120826902250011e-08
-3.738920343984246460e-08
-3.568348438183841406e-08
-3.217921536106568621e-08
-2.745645820630984783e-08
-2.254655775165506314e-08
-1.869045167466866312e-08
-1.606947685432515914e-08
-1.327226692618904976e-08
-9.590491431874645210e-09
-7.109593716240199087e-09
-5.550734330491662483e-09
-3.863177971996941949e-09
-2.870267740100220498e-09
-2.063238922357691547e-09
-1.491086506411866518e-09
-1.091821845682013422e-09
-8.110160508909115076e-10
-6.130372480267765066e-10
-4.713616358290098789e-10
-3.678829823914466324e-10
-2.896569239310000760e-10
-2.285299880997630784e-10
-1.794208971014271872e-10
-1.392322546148732983e-10
-1.061842959757252479e-10
-7.921531880151956741e-11
-5.761135000196333184e-11
-4.078469155853925289e-11
