# bin_4_4
-1.467397308758253866e-10
-1.578907039052120840e-10
-1.651836790600152907e-10
-1.669502014387921301e-10
-1.614036679882683598e-10
-1.476580261809448494e-10
-1.278249197361067932e-10
-1.058360632191334327e-10
-8.729337406414580061e-11
-7.440130996262519118e-11
-6.252856667747664025e-11
-4.691898612402410780e-11
-3.390985019874854022e-11
-2.659080289433111498e-11
-1.884363910200139596e-11
-1.388502548906737123e-11
-9.914277625442662272e-12
-7.174267507877139247e-12
-5.218458384404887894e-12
-3.842549764402934133e-12
-2.876884642817390423e-12
-2.190995213184270134e-12
-1.695989553843148040e-12
-1.327731378158740049e-12
-1.044506701852859200e-12
-8.201392128127595209e-13
-6.383438930850704913e-13
-4.895403512932666483e-13
-3.680593594030669718e-13
-2.702673484491241016e-13
-1.933960551517727977e-13
