# bin_7_5
-3.408091855166057497e-10
-3.739022197831667885e-10
-4.007394721895868070e-10
-4.170365967784835735e-10
-4.187317393072382605e-10
-4.010247001208987286e-10
-3.630494343003411885e-10
-3.110517206428427786e-10
-2.561746445906943006e-10
-2.122719523468338032e-10
-1.820522498620641956e-10
-1.508677689219059459e-10
-1.101759015416228531e-10
-8.095042827757671753e-11
-6.304013260716105946e-11
-4.389579873174342404e-11
-3.231671849501243734e-11
-2.290133098613223533e-11
-1.634084485686902417e-11
-1.174216991522392170e-11
-8.526551199043263577e-12
-6.287344529549726350e-12
-4.715832823700001784e-12
-3.600424518366422561e-12
-2.786246851708934513e-12
-2.173377441399884270e-12
-1.697741844774158699e-12
-1.318769588839888611e-12
-1.012279123070324657e-12
-7.637629557577644863e-13
-5.641149494591977937e-13
