# bin_10_4
-9.110841778809435235e-10
-9.886559251667001784e-10
-1.045332845108075805e-09
-1.070101742883316027e-09
-1.052319527160293214e-09
-9.821168254172738833e-10
-8.669405984391485359e-10
-7.275440775893921363e-10
-5.981600693038924957e-10
-5.036587978902236587e-10
-4.294976132664082522e-10
-3.374110148627841771e-10
-2.420121743592321850e-10
-1.861338755266987527e-10
-1.372119744026621123e-10
-9.854832407565855311e-11
-7.107432649101434320e-11
-5.111636489333017666e-11
-3.681397598795327228e-11
-2.679380587559996055e-11
-1.978763862250516178e-11
-1.486035507975476329e-11
-1.135378160904131697e-11
-8.801275244280429685e-12
-6.882778781912882050e-12
-5.395319504225359526e-12
-4.210352420241641824e-12
-3.249653814561910620e-12
-2.467014612736008849e-12
-1.834020538519885222e-12
-1.331072425722033444e-12
