# bin_5_10
-1.079926528841136363e-14
-1.213676823637723569e-14
-1.339778685198520722e-14
-1.446400169725486309e-14
-1.518338088764328756e-14
-1.539807357024949216e-14
-1.494255546932362712e-14
-1.369779837472521504e-14
-1.187366791491934440e-14
-9.807081371712697243e-15
-8.063434598471642855e-15
-6.903029221864067096e-15
-5.864461750294369288e-15
-4.359221677872637338e-15
-3.090593252926633137e-15
-2.484908801669728829e-15
-1.680598910086369159e-15
-1.256992745858849472e-15
-8.646151571436310212e-16
-6.034298022202897055e-16
-4.226882454841954693e-16
-2.965664071575301498e-16
-2.099532820996634349e-16
-1.505784692517832081e-16
-1.101110928888494875e-16
-8.206728770189957177e-17
-6.222413456237184305e-17
-4.780599166142110029e-17
-3.697188955981960691e-17
-2.857578820206411221e-17
-2.191844429850102735e-17
