# bin_9_2
-2.024259571773389356e-09
-2.088061362059682810e-09
-2.074998684164365400e-09
-1.967626514257267128e-09
-1.769260671223692571e-09
-1.513307928032009834e-09
-1.254863443824300784e-09
-1.045212270034149254e-09
-8.831573911694509244e-10
-7.174980083775963604e-10
-5.372815258998259918e-10
-3.993239637195694463e-10
-3.032072428745300625e-10
-2.204905241589596325e-10
-1.613900873363290292e-10
-1.176979790712226753e-10
-8.650102535256629954e-11
-6.430252300566462598e-11
-4.857241147993144752e-11
-3.732661454525212629e-11
-2.912726771761194512e-11
-2.298343200929629343e-11
-1.822087755486690818e-11
-1.441128294622994588e-11
-1.129524410685023827e-11
-8.719818279740965598e-12
-6.597320214517485967e-12
-4.874292783540274510e-12
-3.509426119831066397e-12
-2.461556493103495000e-12
-1.684080937037751809e-12
