# bin_8_6
-2.530944631911814983e-10
-2.804153611397403289e-10
-3.042106535425043992e-10
-3.214047801540811974e-10
-3.285411274486887379e-10
-3.224345271663342606e-10
-2.997203429395667767e-10
-2.633947478865339119e-10
-2.198090117021255791e-10
-1.803165111468218312e-10
-1.525524535911249986e-10
-1.306799896960746001e-10
-1.012828717125191443e-10
-7.142745797101772262e-11
-5.617242872987091489e-11
-4.022246400560184011e-11
-2.917344394531885607e-11
-2.052554777087148527e-11
-1.465682994220461904e-11
-1.039603505501342675e-11
-7.420426562314064250e-12
-5.364465628223919434e-12
-3.938135973768934436e-12
-2.945222113074329365e-12
-2.241320150417409223e-12
-1.728364563582655957e-12
-1.343370469105751709e-12
-1.045130514781664329e-12
-8.082551258572201775e-13
-6.174635699612811188e-13
-4.636222572373419314e-13
