# bin_1_6
-2.353668248790163929e-16
-2.557480822334729051e-16
-2.708386972152600320e-16
-2.777113712847818929e-16
-2.737435999197913148e-16
-2.558753981199552531e-16
-2.261013917401166790e-16
-1.895016257051035750e-16
-1.553544382774592419e-16
-1.308109696335431443e-16
-1.123165866872658139e-16
-8.841388307558901375e-17
-6.251677241780570299e-17
-4.870283249394302401e-17
-3.568128251915689376e-17
-2.571830115140263230e-17
-1.841479087241353970e-17
-1.330030293913999447e-17
-9.570961574930471227e-18
-6.959087833063045479e-18
-5.137277273911840381e-18
-3.857118837100325568e-18
-2.947580225547285274e-18
-2.286157349007948784e-18
-1.789305567259280141e-18
-1.404162166494995745e-18
-1.097145727921560057e-18
-8.479164335576742682e-19
-6.445242491672349455e-19
-4.796840181733845954e-19
-3.484032520507202508e-19
