# bin_15_3
-1.605492698758322944e-09
-1.715345452793841265e-09
-1.778956077722123200e-09
-1.779054711576381529e-09
-1.695793541621743265e-09
-1.528638584759568799e-09
-1.305154542306673732e-09
-1.074636573933908396e-09
-8.927103647433934615e-10
-7.645154726507521228e-10
-6.279404475483424852e-10
-4.584134750109253430e-10
-3.402982169613786289e-10
-2.626731239856042169e-10
-1.856462974632285632e-10
-1.367981819492576968e-10
-9.832225978199505225e-11
-7.129646991838903582e-11
-5.223015902566391655e-11
-3.880915404135925920e-11
-2.933814791047110423e-11
-2.255587220498368176e-11
-1.759631646400193246e-11
-1.384621646253653400e-11
-1.091605832168944515e-11
-8.563280819133405997e-12
-6.639934214928528334e-12
-5.060338072761782067e-12
-3.773213678147155594e-12
-2.743823590347483599e-12
-1.943067517370997528e-12
