# bin_1_15
-5.100674694141830682e-44
-5.807609445291106214e-44
-6.515136591162637618e-44
-7.173910816091146113e-44
-7.718339599068978854e-44
-8.065122758125879080e-44
-8.135179551606385396e-44
-7.829061000623316959e-44
-7.110332114735745174e-44
-6.105233155299131858e-44
-5.017470613447759722e-44
-4.142566822202337178e-44
-3.571645236011144818e-44
-2.997474763093797028e-44
-2.164326858117949189e-44
-1.566715847671776841e-44
-1.249826952814804958e-44
-8.283917975283768813e-45
-6.167490696479782817e-45
-4.248190122360545140e-45
-2.892770901411243499e-45
-1.978654903546480241e-45
-1.348041769061832630e-45
-9.225657967428333411e-46
-6.364170417478163987e-46
-4.461816047843398860e-46
-3.186101057132024879e-46
-2.323710629822861527e-46
-1.730571560586572376e-46
-1.311429647894747747e-46
-1.005037119832927406e-46
