# bin_8_7
3.535124797067672123e-11
3.972487459448792283e-11
4.384613976594146866e-11
4.732691530025378224e-11
4.966930918511725340e-11
5.035617872022554388e-11
4.884319156697877882e-11
4.473627173531838441e-11
3.874675281757097205e-11
3.197067329598972965e-11
2.627857947973807136e-11
2.252274100176762599e-11
1.914570643609323394e-11
1.418004019653568716e-11
1.003883796075326041e-11
8.118359208840855997e-12
5.438773354544305490e-12
4.100618833713123217e-12
2.817210261874991557e-12
1.959806568561049961e-12
1.374626415567952428e-12
9.654241063419195242e-13
6.839609179814325564e-13
4.909555820689542792e-13
3.594214285450002631e-13
2.681934067380337731e-13
2.035768290460077171e-13
1.565606633310415327e-13
1.211716717333494938e-13
9.369799691778059525e-14
7.187976750710990843e-14
