# bin_3_1
5.224003635645732924e-12
5.442336592507701003e-12
5.474918389080210762e-12
5.259606724844807275e-12
4.777715598729582095e-12
4.107013358744374047e-12
3.385313518248275026e-12
2.796953920981325107e-12
2.394225853777505267e-12
1.998715422958105440e-12
1.474257401424415248e-12
1.076990104071342278e-12
8.480219741393887341e-13
5.964372599151148756e-13
4.453152760471368065e-13
3.210372872898724586e-13
2.348828111668995010e-13
1.739167562786127556e-13
1.307615137193559124e-13
1.001015193324787399e-13
7.790534158022535115e-14
6.144176459069947416e-14
4.877858248911557594e-14
3.870368606723295591e-14
3.047853828324570623e-14
2.366434239711684379e-14
1.801479746979223577e-14
1.338815575114314246e-14
9.686253794481843888e-15
6.817901937275126381e-15
4.674497170253413132e-15
