# bin_5_5
8.321320190764035023e-11
9.176525221584319973e-11
9.897701960827779231e-11
1.038107347609414352e-10
1.051964838921032544e-10
1.019991702703554875e-10
9.343313287194919693e-11
8.093724498069406961e-11
6.682339408414744507e-11
5.493393364451567506e-11
4.701299290747699547e-11
3.991049224569132524e-11
2.967928477253385093e-11
2.109834200868843645e-11
1.698301533475556195e-11
1.157642254207853710e-11
8.712112845389863702e-12
6.076484022793500032e-12
4.317032319636701023e-12
3.091461588871772360e-12
2.229858485595922205e-12
1.630685127223237934e-12
1.212042791596693113e-12
9.181860652370197781e-13
7.064781677373775381e-13
5.493345140314247606e-13
4.290170061409961463e-13
3.340855901942378931e-13
2.576890308355408933e-13
1.957371041476433821e-13
1.457542383864776662e-13
