# bin_14_5
6.300363611298695439e-23
7.166215163968039467e-23
8.028556341416316763e-23
8.826020544936005884e-23
9.476729458037464493e-23
9.877176185549742358e-23
9.934030122077293783e-23
9.519714187326629331e-23
8.609124531374880831e-23
7.359894173309956264e-23
6.039171999622737483e-23
4.999407215616598836e-23
4.319310764933020305e-23
3.596634065763634516e-23
2.568926040896296399e-23
1.886137526569492009e-23
1.486656464301117149e-23
9.910928975923424129e-24
7.301156234374912910e-24
5.070792250045413393e-24
3.457816995132006281e-24
2.363803131378299298e-24
1.613831774650333505e-24
1.108761863558170475e-24
7.690254144805024702e-25
5.425270228820746390e-25
3.900493551639235801e-25
2.864167211319637095e-25
2.145778503132138626e-25
1.633244456525287591e-25
1.254699337742506876e-25
