# bin_2_2
2.175483079343094711e-10
2.258399573933778766e-10
2.262125175561287371e-10
2.161005639832958094e-10
1.952255415713466889e-10
1.669920066548922465e-10
1.374847632496010935e-10
1.139765257153053208e-10
9.762367357989884775e-11
8.064243101168127002e-11
5.904612227368067008e-11
4.365712712230947485e-11
3.399117401799067056e-11
2.404115847062191644e-11
1.786848590202288996e-11
1.293333629102956168e-11
9.477951327633216365e-12
7.034646785426793653e-12
5.305139111786946526e-12
4.073498675298712774e-12
3.178781996499054442e-12
2.511605357298371034e-12
1.995584517088595469e-12
1.583057126824530087e-12
1.245116344721363040e-12
9.647260345065430258e-13
7.323638812480131715e-13
5.425083107090004051e-13
3.911620254622690362e-13
2.744298609803189594e-13
1.876094334427841073e-13
