# bin_1_1
3.783250338025814462e-10
3.719280397605868225e-10
3.476567540209929570e-10
3.076967945497196058e-10
2.592443072714405712e-10
2.135615411076585016e-10
1.791308831534874520e-10
1.520104229983373336e-10
1.205888196755057678e-10
8.792015265474194317e-11
6.683792750892169332e-11
5.031880680281833027e-11
3.648312128010982996e-11
2.695969930666686321e-11
1.985999978012760907e-11
1.481255022054420387e-11
1.123022187342245758e-11
8.670883930664841159e-12
6.809478094151309916e-12
5.416475335022036378e-12
4.336780288161042709e-12
3.468924182246321999e-12
2.752114848534910509e-12
2.151485190095934497e-12
1.648109778289347121e-12
1.231916960218220997e-12
8.963652244202776738e-13
6.345579278095537745e-13
4.376591367815330858e-13
2.948496485095057591e-13
1.946535802884710549e-13
