# bin_5_2
1.407156993142622961e-13
1.524863612407214551e-13
1.609325897810266546e-13
1.643119391579912386e-13
1.610704414048493280e-13
1.494478228334416793e-13
1.311070071609336565e-13
1.091506656160836503e-13
8.942224522516512870e-14
7.574777730337615911e-14
6.500252447950462118e-14
5.018061604980890163e-14
3.523326304231187794e-14
2.806880303495681372e-14
1.995930560035954989e-14
1.473185125564200293e-14
1.038765896650300391e-14
7.531252743709421740e-15
5.448084448736392305e-15
3.979516808447237954e-15
2.953706309169293082e-15
2.229811446291771146e-15
1.713398565722472400e-15
1.334763057307161434e-15
1.047791955713051427e-15
8.233892790180148873e-16
6.431581195781065637e-16
4.961490904214614146e-16
3.759359419227064540e-16
2.785695304067855372e-16
2.012544847225399910e-16
