# bin_7_7
6.229867004538063873e-08
5.803209479328631451e-08
5.267012757533804227e-08
4.651985678810331274e-08
3.998920355491502396e-08
3.352683117733168326e-08
2.753230845942299457e-08
2.225439654400967891e-08
1.775215628467580841e-08
1.394249465510895009e-08
1.072603824142839319e-08
8.090818547196369270e-09
6.060586818204797995e-09
4.551976550377563249e-09
3.410672518444801422e-09
2.562601016580035216e-09
1.941700275699497540e-09
1.481699363466194482e-09
1.139399672445307184e-09
8.810175758718395520e-10
6.827931890866876760e-10
5.283742778620338811e-10
4.066634688912710121e-10
3.101334112333866615e-10
2.335898738215588757e-10
1.733018763976806076e-10
1.263936875965600000e-10
9.049778154574378560e-11
6.356908814864123815e-11
4.380661913672399362e-11
2.963278881246256111e-11
