# bin_15_15
9.726913848857209136e-08
9.419966799880478010e-08
8.914687435874255754e-08
8.226269850379844482e-08
7.389376835267669152e-08
6.456791303334705345e-08
5.493315419406535545e-08
4.564716740108285434e-08
3.722645808958548580e-08
2.992075580646993408e-08
2.371258695129941654e-08
1.844414562001284712e-08
1.402028648433017948e-08
1.047657967588959607e-08
7.804719917147243456e-09
5.808307829963026501e-09
4.298786696668558189e-09
3.197242996373690383e-09
2.389156525455283701e-09
1.797845890053839370e-09
1.361381531612383773e-09
1.036027675745695745e-09
7.902321153178463030e-10
6.021517554112416252e-10
4.568075642703511230e-10
3.438528915046896220e-10
2.560708693116635909e-10
1.882225921643809187e-10
1.363075233907470841e-10
9.713496624633518993e-11
6.807009708054527913e-11
