# bin_6_6
5.566064363699842905e-08
5.134500439405604119e-08
4.612571490133593211e-08
4.032120465201079741e-08
3.432464919176975671e-08
2.853888619493223011e-08
2.328608513900664132e-08
1.872860546335732505e-08
1.486334707341173698e-08
1.159356309597358172e-08
8.852423418811097706e-09
6.654027475300684751e-09
4.994710608738444969e-09
3.757169282765243964e-09
2.820158284740719845e-09
2.132249655890645805e-09
1.624220474330767610e-09
1.247559964045934980e-09
9.647568383481148074e-10
7.492629911049524505e-10
5.822565563438669584e-10
4.509295271998762063e-10
3.466600237937064633e-10
2.635852937759132584e-10
1.976207151805176583e-10
1.457462047889540311e-10
1.055510652979030497e-10
7.498538866568864663e-11
5.223733693021518502e-11
3.569518403679412018e-11
2.394740100451109823e-11
