# bin_14_10
8.571044256813588115e-08
8.207118758854180920e-08
7.671347497782094121e-08
6.985552979381742642e-08
6.188823289968440858e-08
5.334420033155502834e-08
4.482183372659354985e-08
3.686813376160124625e-08
2.983682205887231091e-08
2.382612659687460896e-08
1.873179465112755650e-08
1.441448808886827082e-08
1.085473071677460453e-08
8.099420940543852833e-09
6.053567463858284778e-09
4.504565269666641776e-09
3.352893267736476375e-09
2.513937974758069401e-09
1.895826324325367751e-09
1.440381342445548021e-09
1.100940788139471378e-09
8.443845296966986676e-10
6.477036069885357594e-10
4.951129350100560392e-10
3.758092057986546096e-10
2.823221629066047451e-10
2.093496817104304244e-10
1.529086393910166391e-10
1.098418040863652813e-10
7.753348189393132443e-11
5.376025152816434645e-11
