# bin_14_13
9.275655892314752585e-08
8.945698611984162979e-08
8.427579415444395120e-08
7.739120510118358840e-08
6.916794214393453764e-08
6.013698247063800702e-08
5.092853501605020196e-08
4.215895441236097601e-08
3.428257808730898097e-08
2.748896127272025317e-08
2.172440707396372813e-08
1.683424952196910198e-08
1.275127882189689756e-08
9.519195518448652402e-09
7.099592395482546465e-09
5.284131886165906578e-09
3.916979741744030015e-09
2.922326456689109228e-09
2.190468508689374470e-09
1.654250539265395039e-09
1.257036634986922312e-09
9.594626199212397926e-10
7.334672410352614737e-10
5.596529752509342790e-10
4.247382775506417574e-10
3.195457405245840318e-10
2.376433892912606119e-10
1.743065690078933649e-10
1.258799841848167313e-10
8.940785812615788645e-11
6.242237535512736200e-11
