# bin_12_9
7.978206581524751001e-08
7.592092548536688687e-08
7.049004491213851217e-08
6.373619934932406667e-08
5.606376130199272769e-08
4.799520399287092683e-08
4.008993603937760527e-08
3.282520051835377841e-08
2.647217708359579972e-08
2.106643407848594473e-08
1.648461005557823207e-08
1.261599994049935199e-08
9.470847237286981112e-09
7.074562023960130826e-09
5.293132757449122014e-09
3.941053102714992791e-09
2.946315811030334066e-09
2.217180370955253176e-09
1.680462118790502856e-09
1.282600733112103316e-09
9.842754903892883668e-10
7.571888445957326107e-10
5.818490524446341956e-10
4.449690782022704883e-10
3.374458976474053773e-10
2.529678341615775156e-10
1.869861037007320436e-10
1.360153669264495105e-10
9.723513257236965347e-11
6.826643745137117850e-11
4.706412157965505149e-11
