# bin_15_13
9.403701977018643867e-08
9.079810266083720154e-08
8.564775726150540064e-08
7.875708143324997846e-08
7.048624245925082602e-08
6.136616274459990339e-08
5.203306273520677748e-08
4.311597731022881103e-08
3.508710118137890805e-08
2.815214141801874822e-08
2.226603448641195544e-08
1.727162930042951191e-08
1.309397471008164408e-08
9.776327733213122611e-09
7.289179241256833293e-09
5.425104085914014839e-09
4.019309258547430583e-09
2.996286720022683018e-09
2.243938674589333363e-09
1.693047509328683720e-09
1.285354787817946709e-09
9.803422695103110706e-10
7.490258861774287557e-10
5.713573038096116896e-10
4.336063030313134464e-10
3.262872014658341532e-10
2.427630435566678168e-10
1.781746482801344968e-10
1.287762550641380692e-10
9.155011607327030054e-11
6.398375661564862751e-11
