# bin_12_11
8.508234273981068966e-08
8.143932643805518228e-08
7.609673934951697801e-08
6.927405997505247896e-08
6.136081059993754308e-08
5.288499133694922386e-08
4.443722007408006570e-08
3.655452477644894323e-08
2.958374726202354508e-08
2.362138370829946219e-08
1.856807263807177969e-08
1.429013056545350434e-08
1.076614424540585285e-08
8.035321411295212839e-09
6.004552608890094178e-09
4.469711073620525571e-09
3.327259337819949678e-09
2.494873399823585885e-09
1.881386785509267705e-09
1.429373211258520588e-09
1.092379524338867995e-09
8.376568511345229909e-10
6.423937279713977208e-10
4.909246480470575207e-10
3.725276507806673992e-10
2.797813262357239260e-10
2.074134900964889602e-10
1.514618708285957052e-10
1.087846011445519944e-10
7.677943504441358466e-11
5.323583639217298018e-11
