# bin_7_6
5.874143715876349478e-08
5.443392909519507175e-08
4.913271606038953435e-08
4.315277944174942862e-08
3.689642998365659828e-08
3.079017909644045218e-08
2.519362366455122577e-08
2.030794341976713254e-08
1.615571080326274081e-08
1.264229383969315769e-08
9.684565460745524472e-09
7.288028832729509149e-09
5.464583423791295999e-09
4.108343565843641052e-09
3.080204440893801844e-09
2.322249038125608508e-09
1.764585196170218205e-09
1.351486025476689533e-09
1.042556701281138314e-09
8.082059014024634077e-10
6.274157312371741247e-10
4.858320070394253855e-10
3.737648214776511227e-10
2.846345138121925566e-10
2.138830401894665330e-10
1.581877450659617948e-10
1.149390521402619289e-10
8.194972537755550279e-11
5.730474767674916390e-11
3.930655403913947144e-11
2.646687191627684709e-11
