# bin_15_14
9.586435612868934344e-08
9.272072660185726113e-08
8.762494711084467547e-08
8.073731310444030138e-08
7.241039175897691095e-08
6.317342270765723744e-08
5.366937448698605770e-08
4.454353454804884775e-08
3.629322207846453056e-08
2.914898484932487615e-08
2.308127998107418362e-08
1.793238586803727820e-08
1.361580316588016567e-08
1.017055774992682201e-08
7.579364910067746018e-09
5.640878603929433026e-09
4.176595295953472130e-09
3.109415681791647140e-09
2.325680633380713107e-09
1.752062702054111020e-09
1.328179285278261777e-09
1.011720040256039148e-09
7.722543252548825011e-10
5.887236721536685579e-10
4.466955976740077825e-10
3.362002715242019780e-10
2.502750154010802968e-10
1.838473628578465560e-10
1.330284246119651742e-10
9.470327512485558867e-11
6.629064074223339562e-11
