# bin_11_2
3.447961524341088007e-08
3.037014769315238952e-08
2.602602618811741418e-08
2.175598913574510592e-08
1.782852517146006978e-08
1.439884336432458871e-08
1.148449257359050068e-08
9.010287138899451904e-09
6.916297873502554871e-09
5.219775216921859675e-09
3.934185432305477012e-09
2.975076187399584671e-09
2.248648672053470654e-09
1.713199013655217834e-09
1.317576710628262017e-09
1.022932421849205613e-09
8.004912044783915742e-10
6.293966294904601537e-10
4.951358737815242215e-10
3.879577246105891869e-10
3.014393456932164100e-10
2.313412944862257693e-10
1.747863446218560129e-10
1.296725742863650968e-10
9.429575854696707366e-11
6.714434012726460474e-11
4.680966393588719303e-11
3.197098346511154079e-11
2.142255292739800135e-11
1.410971745747372256e-11
9.155138303353333993e-12
