# bin_14_1
2.329693640924169823e-08
1.990024488709304413e-08
1.659669286882716859e-08
1.358112642969495176e-08
1.095638827897476819e-08
8.723555635911084962e-09
6.827734774089228886e-09
5.235362823321381366e-09
3.958925723445493515e-09
2.992361258573069626e-09
2.269121966889741759e-09
1.724451153232366370e-09
1.321974939753758898e-09
1.023812169097775859e-09
8.005132703276292293e-10
6.306043721169772868e-10
4.986164447587233730e-10
3.939430940427706931e-10
3.095430159508849435e-10
2.408346535568451166e-10
1.848218309864654301e-10
1.394625022204808425e-10
1.032298094456956300e-10
7.483842337763903132e-11
5.310269158139805774e-11
3.688574781439896149e-11
2.510588803555195032e-11
1.677167813955469767e-11
1.101958674702391729e-11
7.137295397887068161e-12
4.567462490524952880e-12
