# bin_7_8
-1.007351316997480364e-11
-1.129333597382430788e-11
-1.242950304744089710e-11
-1.336883857316578737e-11
-1.396755861569624075e-11
-1.408895490747777177e-11
-1.356296292028947285e-11
-1.232705008676173779e-11
-1.058804780629310109e-11
-8.713030358973081895e-12
-7.193630334549428688e-12
-6.194381755334933174e-12
-5.200373278460603248e-12
-3.773142812704273851e-12
-2.731800616256130309e-12
-2.179552544241305290e-12
-1.461482233445663113e-12
-1.092870833901797703e-12
-7.615965991167062722e-13
-5.297559521595114396e-13
-3.719903610720993802e-13
-2.623013764712974205e-13
-1.870838970979451168e-13
-1.354282943742970322e-13
-1.000034292626497847e-13
-7.521547965589609637e-14
-5.746767652702230298e-14
-4.438260446720344608e-14
-3.440581406232690116e-14
-2.657906021832748629e-14
-2.032490789723608890e-14
