# bin_10_3
-1.359334383026486533e-09
-1.451190144250464304e-09
-1.503507564225020399e-09
-1.501694752674969210e-09
-1.428978304693956573e-09
-1.285898455289614047e-09
-1.096084887531815755e-09
-9.025574910916053561e-10
-7.508084874739036399e-10
-6.432297951474167968e-10
-5.264871415289452245e-10
-3.833446261423034086e-10
-2.857612335926810463e-10
-2.198524848889253104e-10
-1.555826225963821729e-10
-1.145463186198572935e-10
-8.243072112781671338e-11
-5.980352712006472633e-11
-4.385221114453114795e-11
-3.262313892813482838e-11
-2.469246604118644332e-11
-1.900694283563831110e-11
-1.484177045892163721e-11
-1.168570558748021569e-11
-9.214828875991023344e-12
-7.227592360576345899e-12
-5.601413691538940539e-12
-4.265426734263545656e-12
-3.177145218269591751e-12
-2.307559319716727077e-12
-1.632032845982822087e-12
