# bin_7_3
-1.058282264982421634e-09
-1.128963126541441312e-09
-1.168599919538079115e-09
-1.165878715851701424e-09
-1.107777829794733193e-09
-9.953366564493851316e-10
-8.472380758399734456e-10
-6.973457609486280030e-10
-5.805937748530178859e-10
-4.975302285849530121e-10
-4.061149130196459980e-10
-2.949844931105560245e-10
-2.205711527823684260e-10
-1.692823873607369264e-10
-1.198715725098293308e-10
-8.820199854824237849e-11
-6.352971441832571071e-11
-4.610596086282990336e-11
-3.383339189026837294e-11
-2.519387719607521023e-11
-1.908828267962948781e-11
-1.470719976197910769e-11
-1.149291453735586857e-11
-9.053207605385117627e-12
-7.140095620543541163e-12
-5.599425350038567946e-12
-4.337663884190588239e-12
-3.300815283282332649e-12
-2.456453682613289377e-12
-1.782282117623246484e-12
-1.259157509287692595e-12
