# bin_10_7
-2.533367427892661889e-10
-2.835054236955304103e-10
-3.113470659351624451e-10
-3.339738341667740495e-10
-3.477458068075955964e-10
-3.493829192458717578e-10
-3.345056634227734594e-10
-3.024356678254376438e-10
-2.584505989585757384e-10
-2.123778348575927587e-10
-1.759931623922524142e-10
-1.517623958699540905e-10
-1.260045328098559447e-10
-9.050765013233464850e-11
-6.665817286108718251e-11
-5.227220804605327972e-11
-3.547643228599013429e-11
-2.615567095553427805e-11
-1.838061822275689891e-11
-1.282374650199611138e-11
-9.015331094910501020e-12
-6.379800384864085337e-12
-4.571180741987224135e-12
-3.327200377775557707e-12
-2.469957312213301313e-12
-1.866432680434779869e-12
-1.431102626094967140e-12
-1.107391024265522157e-12
-8.586605059107234585e-13
-6.624275760295838418e-13
-5.052082946419077475e-13
