# bin_2_2
-2.600563383328665490e-10
-2.650583592124522443e-10
-2.593410162133706942e-10
-2.408098701047457348e-10
-2.116031126501610774e-10
-1.771730874648557284e-10
-1.458517002527698692e-10
-1.229839347078387493e-10
-1.043511018975950885e-10
-8.143580659745486358e-11
-5.883263588647177620e-11
-4.538189150834503651e-11
-3.355993801981118381e-11
-2.442251420323705047e-11
-1.787743832445684693e-11
-1.312876182813320116e-11
-9.724615149757500214e-12
-7.318465114425181310e-12
-5.607474321694781565e-12
-4.370336050743147743e-12
-3.452927112052127600e-12
-2.749158763880869448e-12
-2.189618955320515682e-12
-1.732199673047301470e-12
-1.352106799771347116e-12
-1.035399855193495405e-12
-7.743697458188635452e-13
-5.640408716660053121e-13
-3.997325839764131280e-13
-2.759227810024053543e-13
-1.859540808631713024e-13
