# bin_10_4
-9.010700628350776219e-10
-9.801209841901265560e-10
-1.039293813235002512e-09
-1.067360603671946461e-09
-1.054182737931578814e-09
-9.879117553598934784e-10
-8.751075654788601295e-10
-7.352098030773858057e-10
-6.031759905549992135e-10
-5.071130942885527639e-10
-4.355067610264896463e-10
-3.448244507203013566e-10
-2.445231736453232898e-10
-1.892839848255346949e-10
-1.398002034895236953e-10
-1.001972145460461509e-10
-7.205461766550314268e-11
-5.195266746231720960e-11
-3.733743076519386230e-11
-2.711514339545859129e-11
-1.998372211475209898e-11
-1.497784670126174180e-11
-1.142579658064974909e-11
-8.849292940687084722e-12
-6.919366364569278888e-12
-5.427599877570062224e-12
-4.241365267271384389e-12
-3.279933817871995564e-12
-2.495831732871172490e-12
-1.860196222045219503e-12
-1.353455725579897560e-12
