# bin_5_9
-1.595778265431615763e-15
-1.789132383008927608e-15
-1.969286650384640994e-15
-2.118319120407034316e-15
-2.213458462210519365e-15
-2.233020791725500308e-15
-2.150008174756244285e-15
-1.954281509588559735e-15
-1.678693942699082213e-15
-1.381302143806462119e-15
-1.140207409740718496e-15
-9.819786276306423517e-16
-8.248519182475769864e-16
-5.983057877799443736e-16
-4.328921624661009456e-16
-3.458781364357512058e-16
-2.315062710401231813e-16
-1.733841234731553703e-16
-1.208150149925051993e-16
-8.399537081741626935e-17
-5.897894862913413738e-17
-4.157918389590216756e-17
-2.965294959107107032e-17
-2.146350188981949733e-17
-1.584818622868497018e-17
-1.191948824245637004e-17
-9.107058644135414613e-18
-7.033827290946513681e-18
-5.453206336000592859e-18
-4.213201003572296848e-18
-3.222241003445208734e-18
