# bin_5_2
-1.412625239029628430e-09
-1.459992967974577998e-09
-1.454108299958526128e-09
-1.380524935077082342e-09
-1.240728313390728965e-09
-1.058167872855687520e-09
-8.736495807793775014e-10
-7.275815353873588553e-10
-6.197478957014057182e-10
-5.048302442295297100e-10
-3.721991754558823580e-10
-2.774141655795123153e-10
-2.122655696946357007e-10
-1.525809903180799171e-10
-1.123673690848777219e-10
-8.169021084730219084e-11
-6.005049270610542542e-11
-4.466746778661085197e-11
-3.377250623422057430e-11
-2.599042449399699359e-11
-2.031642803565817632e-11
-1.606293157873651114e-11
-1.275868546286428242e-11
-1.010849806929808661e-11
-7.934066714293347014e-12
-6.130898128026619718e-12
-4.640194750006605891e-12
-3.426967181948003997e-12
-2.464426341448096852e-12
-1.725395332413956243e-12
-1.177793417453517707e-12
