# bin_12_10
-9.785011648264552081e-11
-1.109621650391919853e-10
-1.238388883227612351e-10
-1.355034339796479729e-10
-1.446491554162201424e-10
-1.496506373081445474e-10
-1.492061948491916636e-10
-1.412820323431831344e-10
-1.263265123174502519e-10
-1.067847304426772291e-10
-8.741878379489215588e-11
-7.301183132974305834e-11
-6.320771218434339510e-11
-5.124984017358722697e-11
-3.586007591106467288e-11
-2.738813665264860702e-11
-2.064029638113720187e-11
-1.423572787681084129e-11
-1.007834221775240758e-11
-7.123290618157863270e-12
-4.891268562128345889e-12
-3.352862136745344240e-12
-2.310633535423139962e-12
-1.605495432613174427e-12
-1.130276279625781774e-12
-8.106184701915739177e-13
-5.928774839270184439e-13
-4.424432079781637838e-13
-3.358022027945953690e-13
-2.577418054749064750e-13
-1.986106890557227057e-13
