# bin_5_2
-1.411968191305645906e-09
-1.459067747481178491e-09
-1.452933847256160073e-09
-1.379169738508677092e-09
-1.239331433971529723e-09
-1.056850995097558831e-09
-8.721484642956342213e-10
-7.261163567089131322e-10
-6.184118007757619206e-10
-5.037253462889314643e-10
-3.713266443388864880e-10
-2.766702785252671384e-10
-2.116859530287733270e-10
-1.521299260415527378e-10
-1.120158253694101811e-10
-8.141704629365355308e-11
-5.983550556600278681e-11
-4.449602784127320026e-11
-3.363364571703518908e-11
-2.587650105241877633e-11
-2.022222354191662451e-11
-1.598506138049031855e-11
-1.269485305888307515e-11
-1.005695604718616353e-11
-7.893336991119426358e-12
-6.099579662865040654e-12
-4.616860987949543122e-12
-3.410155878286044174e-12
-2.452705452924374024e-12
-1.717458382465400051e-12
-1.172547896170965886e-12
