# bin_13_6
-5.500860977347299179e-10
-6.116359434985436272e-10
-6.664305190564768309e-10
-7.079131426456590381e-10
-7.282383310707294321e-10
-7.208620062258893902e-10
-6.767615351940467086e-10
-6.003887523290775062e-10
-5.043358791525973934e-10
-4.130001634481803555e-10
-3.469859834781781936e-10
-2.993039877846041247e-10
-2.377444953451203936e-10
-1.666444701285425370e-10
-1.295964781359066983e-10
-9.520395165682659538e-11
-6.777351444296692937e-11
-4.792903956560475504e-11
-3.427669267731918963e-11
-2.417668265514188418e-11
-1.714692886653108788e-11
-1.230589240134815370e-11
-8.961998845722511045e-12
-6.646537359375280971e-12
-5.021435511910998424e-12
-3.851002185856304578e-12
-2.983928871167673379e-12
-2.320420298513293597e-12
-1.798099182536942293e-12
-1.379281183485735941e-12
-1.041611155297352590e-12
