# bin_5_10
-3.292509163204014930e-17
-3.704372130497070789e-17
-4.094701279194599514e-17
-4.427788483060746675e-17
-4.657530750184307870e-17
-4.734106319915609483e-17
-4.609306952989589197e-17
-4.239212122392642488e-17
-3.686796182636512795e-17
-3.048732229637608477e-17
-2.501961804419599019e-17
-2.138346281612587978e-17
-1.826931692323198069e-17
-1.368588901631020736e-17
-9.605719497668792923e-18
-7.782585921664572520e-18
-5.246160772134015045e-18
-3.948274219752311755e-18
-2.696018755607733529e-18
-1.879814468076602273e-18
-1.316764694369879932e-18
-9.227099621021175864e-19
-6.513594535251133301e-19
-4.654294826517665477e-19
-3.390749791463649656e-19
-2.518392357431389026e-19
-1.904030514446409013e-19
-1.460219605869628268e-19
-1.128633912663900678e-19
-8.728556834409382713e-20
-6.705848761349553179e-20
