# bin_1_9
-4.053998133668828073e-29
-4.514524941708018057e-29
-4.928163271633664021e-29
-5.246984139025145540e-29
-5.412054626375042518e-29
-5.376857751333529668e-29
-5.069043884303964236e-29
-4.514263882390803689e-29
-3.802066803434202346e-29
-3.110936158202074906e-29
-2.605329360448994017e-29
-2.253733035503701830e-29
-1.809985300320674397e-29
-1.263992463434032185e-29
-9.775441685184745319e-30
-7.280994962753522997e-30
-5.123298464743088073e-30
-3.629344491142638607e-30
-2.606406984437871303e-30
-1.832967841296189492e-30
-1.295126125446568538e-30
-9.265463326362791633e-31
-6.725680914578080188e-31
-4.970604901465626161e-31
-3.743874169443343396e-31
-2.864657532029364168e-31
-2.216931756764152904e-31
-1.723865757074613383e-31
-1.337180667724821040e-31
-1.027678891187503621e-31
-7.781033366460007155e-32
