# bin_2_2
-2.599183639449881254e-10
-2.648712561774167352e-10
-2.591142442303529386e-10
-2.405550760233206725e-10
-2.113634450491362078e-10
-1.769190314176549533e-10
-1.455809249762777142e-10
-1.227263372959207341e-10
-1.041247776517385478e-10
-8.125647815256765593e-11
-5.868617384701857565e-11
-4.525836801844309884e-11
-3.346733929305574186e-11
-2.434804684452757384e-11
-1.782047946932338188e-11
-1.308384599639123267e-11
-9.688831968352150915e-12
-7.289557653724839279e-12
-5.583754851678869969e-12
-4.350669654041003757e-12
-3.436562085312628350e-12
-2.735617993898802303e-12
-2.178558199129382035e-12
-1.723339291918425226e-12
-1.345190017534102718e-12
-1.030164065539609100e-12
-7.705383274211494829e-13
-5.613307693535761151e-13
-3.978741277901400417e-13
-2.746812704404579575e-13
-1.851419365269667956e-13
