# bin_10_10
-2.789965685004794344e-11
-3.160001548077893205e-11
-3.521358593249400601e-11
-3.845876902069512425e-11
-4.095933154798062938e-11
-4.225133564824219909e-11
-4.197537087646818500e-11
-3.955597574389494382e-11
-3.520908816075827138e-11
-2.963298783788777171e-11
-2.424459424741200008e-11
-2.032580471471507859e-11
-1.759836651201808113e-11
-1.410189871387652425e-11
-9.804443181986909876e-12
-7.605800109975084725e-12
-5.618495565980684942e-12
-3.939048991377998491e-12
-2.744019604812212097e-12
-1.948726402837943045e-12
-1.342309847800807133e-12
-9.221151233953406225e-13
-6.379957560323871597e-13
-4.452417788927663816e-13
-3.152435311462819783e-13
-2.274754906974181158e-13
-1.674030939373909594e-13
-1.256249575863097821e-13
-9.575215864091987346e-14
-7.367782380039431873e-14
-5.680899363199331849e-14
