# bin_5_7
-1.089349089633881094e-12
-1.210331621517414608e-12
-1.317533592335544372e-12
-1.397891405942842169e-12
-1.435735974507317210e-12
-1.418570810312242532e-12
-1.328080250990884901e-12
-1.175000477019787257e-12
-9.840150710638290119e-13
-8.051019910470272159e-13
-6.779809450448363853e-13
-5.855270967094176370e-13
-4.618536618460478804e-13
-3.214280977867999539e-13
-2.531487231848305601e-13
-1.834409017674707658e-13
-1.320914333393609779e-13
-9.224957211136767132e-14
-6.631204229359249171e-14
-4.687841825637242838e-14
-3.328990618733565277e-14
-2.394759037596378669e-14
-1.748295100133775076e-14
-1.300325213616060573e-14
-9.850297277396888818e-15
-7.571716978764462042e-15
-5.877083910673783972e-15
-4.574705751551588935e-15
-3.545658648906643083e-15
-2.718347872716392902e-15
-2.050496184989869829e-15
