# bin_11_10
-6.017324281502739845e-11
-6.820269145417940324e-11
-7.606970102267625566e-11
-8.317094820942770713e-11
-8.869955170623945992e-11
-9.165500254045857077e-11
-9.124890284803225354e-11
-8.623118582439121875e-11
-7.695799665925599952e-11
-6.493329984894483330e-11
-5.314141977558011193e-11
-4.445218857894954168e-11
-3.848897409884108772e-11
-3.105939089405723833e-11
-2.166775975858824352e-11
-1.665830296633449217e-11
-1.245289399608571000e-11
-8.644726158737007837e-12
-6.078628654783223538e-12
-4.306758029170513169e-12
-2.961111448148516667e-12
-2.031364045877437098e-12
-1.402287806027293758e-12
-9.762239861764750065e-13
-6.889828262052595802e-13
-4.954613317470559323e-13
-3.633665942534882370e-13
-2.718433749161562888e-13
-2.067193907402147667e-13
-1.588507468130317843e-13
-1.224480183567033014e-13
