# bin_2_15
-6.027182471249148204e-39
-6.862131261485793946e-39
-7.697549899419915640e-39
-8.475107952545117652e-39
-9.117250254801946494e-39
-9.525515964788594332e-39
-9.606698026320022578e-39
-9.242958912532942745e-39
-8.392299227452365442e-39
-7.204103431805077295e-39
-5.919887318563134956e-39
-4.888292136723025832e-39
-4.215246753594114082e-39
-3.536168774599037239e-39
-2.551467875310933299e-39
-1.848397689267715934e-39
-1.473781764269624752e-39
-9.768937866955694725e-40
-7.270345806365024442e-40
-5.010235477783814902e-40
-3.411730001856318455e-40
-2.333523974408153556e-40
-1.589922776840815566e-40
-1.088337794722117791e-40
-7.510087085985307675e-41
-5.267144896934550446e-41
-3.762706807239837998e-41
-2.745393109675392906e-41
-2.045387675131106463e-41
-1.550453261693510397e-41
-1.188432345841684351e-41
