# bin_3_1
-1.928586552100108997e-09
-1.875041149638057325e-09
-1.734468584649884755e-09
-1.523094147910780455e-09
-1.281475282452868934e-09
-1.061312821239950023e-09
-8.903858725921274794e-10
-7.435805582283833829e-10
-5.833791438748601648e-10
-4.318148955268112420e-10
-3.259149361055280012e-10
-2.442882616332124861e-10
-1.783034109563508734e-10
-1.316631416246732387e-10
-9.731002972332852138e-11
-7.289225880034533978e-11
-5.548311751660550069e-11
-4.298940342911555204e-11
-3.384421760545205201e-11
-2.694777460741279786e-11
-2.156216284864469113e-11
-1.721073327496329587e-11
-1.360849994027180063e-11
-1.059334705537482798e-11
-8.076863401132276086e-12
-6.009434768480293781e-12
-4.354597841434709966e-12
-3.072403164252495141e-12
-2.113607823685748416e-12
-1.421238786758574568e-12
-9.369897597353486236e-13
