# bin_2_6
-5.648196880907265156e-17
-6.168976318456459761e-17
-6.574790192973280064e-17
-6.792855742870597071e-17
-6.763174600626005765e-17
-6.397524400425509569e-17
-5.716754433721674121e-17
-4.832325607104804476e-17
-3.956944646451854752e-17
-3.302960795116609358e-17
-2.852585907229348450e-17
-2.311676698192341497e-17
-1.631189915540865126e-17
-1.245215101232653397e-17
-9.451920994256092957e-18
-6.623547437926739556e-18
-4.802545459378166009e-18
-3.467169656766035752e-18
-2.476376858229955087e-18
-1.787315745804231550e-18
-1.308761774288521630e-18
-9.746779962727493727e-19
-7.389635626590892755e-19
-5.696270913000041520e-19
-4.440977255894532420e-19
-3.480533058328418336e-19
-2.723170810955105355e-19
-2.112281252070905260e-19
-1.614672421448575635e-19
-1.210425270503566540e-19
-8.864771575610681357e-20
