# bin_3_7
-5.381813099829270521e-18
-5.950710740422705524e-18
-6.439369080488657127e-18
-6.781530333596284185e-18
-6.903362151607430915e-18
-6.738421306759976109e-18
-6.215013552466108832e-18
-5.420867831594176951e-18
-4.488809338050589700e-18
-3.677785263685607790e-18
-3.134913656428628558e-18
-2.688719766837871808e-18
-2.033809809494487174e-18
-1.419973459228185555e-18
-1.154330904067233311e-18
-7.872249197593765281e-19
-5.957567093194093241e-19
-4.101570820742687321e-19
-2.915933471472217145e-19
-2.086547125102851390e-19
-1.501432561901692050e-19
-1.092773131948675745e-19
-8.076916878454112109e-20
-6.087455274156531235e-20
-4.664786491047125320e-20
-3.617497472001483097e-20
-2.822510845059155436e-20
-2.199616288045657556e-20
-1.700441051948507921e-20
-1.296106543107906632e-20
-9.694372677708348301e-21
