# bin_5_3
-1.182082326961489595e-10
-1.289724149529587295e-10
-1.372744890235599986e-10
-1.415733072395022734e-10
-1.406754221229456182e-10
-1.326595190402637635e-10
-1.181747204484166279e-10
-9.953998463223044345e-11
-8.140282976790805137e-11
-6.810080637242542016e-11
-5.892252946125933677e-11
-4.744580281633941703e-11
-3.315661401874072867e-11
-2.565334343496740378e-11
-1.925625618866442716e-11
-1.360129235607821991e-11
-9.742285298020200753e-12
-7.097157440729564494e-12
-5.079008578848075481e-12
-3.667407028266097930e-12
-2.692424942401118209e-12
-2.010891073305536208e-12
-1.529195478401483001e-12
-1.181815334962011609e-12
-9.231677529640378510e-13
-7.243714293481224355e-13
-5.669319373274699316e-13
-4.395388991457850453e-13
-3.355862516860354096e-13
-2.511075303215087112e-13
-1.834596355857069110e-13
