# bin_9_3
-2.199909891638715135e-28
-2.469039027007397439e-28
-2.721574266578274176e-28
-2.933064560098771820e-28
-3.072472555233781160e-28
-3.111217471134597823e-28
-3.009756236681340414e-28
-2.759982449984192203e-28
-2.393617715994871170e-28
-1.991527748456196423e-28
-1.650338157665248949e-28
-1.406861823869793831e-28
-1.172721007635461622e-28
-8.778692591549230281e-29
-6.531986203749481626e-29
-4.916286597596080680e-29
-3.552620794634216474e-29
-2.495916380399445319e-29
-1.815178897994964508e-29
-1.257887849012742242e-29
-8.734308228541999143e-30
-6.125315581385524455e-30
-4.329329591952666473e-30
-3.101265102144652659e-30
-2.259457631728367902e-30
-1.676301907999125077e-30
-1.263752329177327061e-30
-9.642064542753709187e-31
-7.400860398959430914e-31
-5.676722810083536250e-31
-4.323781973064872816e-31
