# bin_2_1
-1.567254397278157332e-08
-1.597978575797037342e-08
-1.564582902266111749e-08
-1.450715033671428781e-08
-1.272266506048465565e-08
-1.059499759658967576e-08
-8.681196432720381333e-09
-7.344501388845164678e-09
-6.291083668877438738e-09
-4.870563385433692724e-09
-3.442636933562214211e-09
-2.733469233732067030e-09
-1.971842111907664791e-09
-1.461062853826076357e-09
-1.051649929506858991e-09
-7.770875067104654765e-10
-5.765433996797166023e-10
-4.343179525585105009e-10
-3.333766690667064292e-10
-2.603078181308010083e-10
-2.060939875092929482e-10
-1.643829140909627456e-10
-1.311105552402485769e-10
-1.038206204405654859e-10
-8.107251454570943037e-11
-6.206857872645506697e-11
-4.637374470667442722e-11
-3.371764632658623365e-11
-2.383720458835836717e-11
-1.640909145501773125e-11
-1.102892359269549303e-11
