# bin_14_11
-1.256798311076770329e-09
-1.436497229516741253e-09
-1.619481075058930835e-09
-1.793918873984154584e-09
-1.944343188744895149e-09
-2.050626696964677041e-09
-2.090118791570442514e-09
-2.042851005335697254e-09
-1.886294142940285807e-09
-1.646858443292578487e-09
-1.364559713583958984e-09
-1.118451249798560412e-09
-9.538995820575844506e-10
-8.188162148681274178e-10
-6.188689667166866942e-10
-4.304555929180896431e-10
-3.492195181695379076e-10
-2.351158021740412354e-10
-1.760567590741740681e-10
-1.180334957574640079e-10
-8.101003056122850487e-11
-5.541330995056403243e-11
-3.758572603768078235e-11
-2.539571002161479430e-11
-1.718640091176961454e-11
-1.176838199338242578e-11
-8.180790027687266599e-12
-5.797937301389640293e-12
-4.202724817066037426e-12
-3.114381751218484807e-12
-2.350990367263049824e-12
