# bin_10_5
-1.097232165077772393e-19
-1.238631643311739280e-19
-1.374897612356364673e-19
-1.494480514595842139e-19
-1.582362902803839909e-19
-1.621399879750571562e-19
-1.595569080305029735e-19
-1.487770358814667961e-19
-1.311709750898790268e-19
-1.097467149883562281e-19
-9.007034985232799037e-20
-7.616064621497903668e-20
-6.533698681216062258e-20
-5.078017894637453789e-20
-3.591058747918124150e-20
-2.814032269566789409e-20
-1.996290882350001664e-20
-1.448340243483948857e-20
-1.014944579806094958e-20
-7.024108533724814996e-21
-4.879338693722111691e-21
-3.398123940993309113e-21
-2.371310647131314469e-21
-1.670719942866086076e-21
-1.196589658252301392e-21
-8.735165873004989753e-22
-6.497056916864353018e-22
-4.914508885992101918e-22
-3.761589724264041996e-22
-2.894192235413745330e-22
-2.222446412430695559e-22
