# bin_8_6
-3.985651441181760255e-10
-4.468492558928202406e-10
-4.918391010468221411e-10
-5.290609407559003714e-10
-5.528410799709739000e-10
-5.577486367899515145e-10
-5.370303025632696065e-10
-4.879843709850366913e-10
-4.192594550748325586e-10
-3.445400345353024762e-10
-2.841764621217033753e-10
-2.448671695644642930e-10
-2.059241349567461448e-10
-1.490968351890370033e-10
-1.076668977871787012e-10
-8.642969709877396516e-11
-5.746174978325472681e-11
-4.327344931875501535e-11
-3.014487050537584282e-11
-2.091908675014986027e-11
-1.468921332683366602e-11
-1.034733423541651431e-11
-7.378491426758075872e-12
-5.340849480444484522e-12
-3.944160145470344944e-12
-2.967094927604240882e-12
-2.267682719943750912e-12
-1.752063382779488700e-12
-1.358838426013370965e-12
-1.050201762201524433e-12
-8.034002387731017714e-13
