# bin_10_9
-8.755520484853489319e-09
-9.926746317980426972e-09
-1.107536784727973437e-08
-1.211401577015476455e-08
-1.292538182038041098e-08
-1.336292365223461843e-08
-1.331410631418900304e-08
-1.259138166857068794e-08
-1.124436485809888333e-08
-9.489583471726331905e-09
-7.763209951701626015e-09
-6.489698445577429594e-09
-5.624357835910862935e-09
-4.550804709705811699e-09
-3.166076069596413573e-09
-2.433517416980997738e-09
-1.825741984768083575e-09
-1.262132373794410723e-09
-8.864076087494001549e-10
-6.310222791824695675e-10
-4.335267320192720175e-10
-2.967267148318488797e-10
-2.047325234340162546e-10
-1.424570319559396924e-10
-1.004695506393102679e-10
-7.219976822103272992e-11
-5.291921382492858219e-11
-3.957640337868231365e-11
-3.009438006590065671e-11
-2.313289181917736888e-11
-1.784267081102209160e-11
