# bin_2_10
-1.090065038506031655e-32
-1.242637214444513222e-32
-1.396206074810898714e-32
-1.540310881480316696e-32
-1.661101836593864694e-32
-1.740891703631118858e-32
-1.761933624152236117e-32
-1.703856516202739571e-32
-1.554797392683532249e-32
-1.341505688117837020e-32
-1.104274331749101832e-32
-9.089109564729216325e-33
-7.818599773683011289e-33
-6.621108968752198339e-33
-4.836998976302467134e-33
-3.442213481926352788e-33
-2.790465576422540673e-33
-1.831411286102506884e-33
-1.383001874453424676e-33
-9.445798724911890151e-34
-6.413821842243304402e-34
-4.390718877886793677e-34
-2.982898465069837752e-34
-2.032544674370899737e-34
-1.393571067616123814e-34
-9.701858474542337166e-35
-6.874615705453576436e-35
-4.974779760896704856e-35
-3.679622229432765586e-35
-2.774361800933941981e-35
-2.120492799094013858e-35
