# bin_10_6
6.986827381865720229e-14
7.882065740542805765e-14
8.740885702421276721e-14
9.489656862002834294e-14
1.003177914153531095e-13
1.025528752663495277e-13
1.006699995374793924e-13
9.346307712035632677e-14
8.203854443331905503e-14
6.825286125958193395e-14
5.589782357167044703e-14
4.745234069322976275e-14
4.087258286773129037e-14
3.142288920675265945e-14
2.180489397229226263e-14
1.754814463471590788e-14
1.215451082699515093e-14
8.992885687561428269e-15
6.102792489629828852e-15
4.299175363459692900e-15
2.997253118423304272e-15
2.087612828140184980e-15
1.463525710078977522e-15
1.036675211579124592e-15
7.477307918419763884e-16
5.499445414491775072e-16
4.121593501031273371e-16
3.140287372604514184e-16
2.418364435291419227e-16
1.869314796002391819e-16
1.439528235935314969e-16
