# bin_12_8
2.496776279423957867e-13
2.837235330305405447e-13
3.174750767503624526e-13
3.484851095836342633e-13
3.734767368465898946e-13
3.883207688820408710e-13
3.894835144622709590e-13
3.717564972294988644e-13
3.349415412904228440e-13
2.852405219478411215e-13
2.338657175050381921e-13
1.942138866830501787e-13
1.680409233671967281e-13
1.387541585298952988e-13
9.822432869664782413e-14
7.317669824335210188e-14
5.685835574441103842e-14
3.827462932517990388e-14
2.781829782315043478e-14
1.947995024452099547e-14
1.331317606750783204e-14
9.100653801065425465e-15
6.231880023118172115e-15
4.298884476948522857e-15
2.997838110278323303e-15
2.127745198691009957e-15
1.539614450275818483e-15
1.137634471504116841e-15
8.567634962559822320e-16
6.544956340526448914e-16
5.036603635217242801e-16
