# bin_15_8
6.579330115599459140e-17
7.512773520635143229e-17
8.459289055743693015e-17
9.356488449886948484e-17
1.012238594282741226e-16
1.065106873158133082e-16
1.082821643669793787e-16
1.054210391234471771e-16
9.692165458507888829e-17
8.426242749475897507e-17
6.966053127217480354e-17
5.719700563108666025e-17
4.895424559215554099e-17
4.182055543869934786e-17
3.120801023226601153e-17
2.188273719286185766e-17
1.777039211268550149e-17
1.182882982668791604e-17
8.903677896376705791e-18
6.007815085171849877e-18
4.100396122999350062e-18
2.808144896306680030e-18
1.907692817571292488e-18
1.293271831406022720e-18
8.796262988585102105e-19
6.062520427674364025e-19
4.246441868759880440e-19
3.034845600713094518e-19
2.218067009147252031e-19
1.655560589058846037e-19
1.256400017365284338e-19
