# bin_9_7
9.614620960497051043e-12
1.083746303740850070e-11
1.200619296917731195e-11
1.301853779911833525e-11
1.374100962849336590e-11
1.402203232838542559e-11
1.372958972144534046e-11
1.270885989518474252e-11
1.112344239082395731e-11
9.236148876121394515e-12
7.568831781029175280e-12
6.440137852609909557e-12
5.534813584701029593e-12
4.219726671720265154e-12
2.936455417309219971e-12
2.371578645982384478e-12
1.625908793597347813e-12
1.211727087439401611e-12
8.230173625959314971e-13
5.776230188452663692e-13
4.034946057125625339e-13
2.817110864561270869e-13
1.979610853407290652e-13
1.406329487303727654e-13
1.017813812191668211e-13
7.511163303684013004e-14
5.646549500640914923e-14
4.312262285132812906e-14
3.325482230217980239e-14
2.571289879198101472e-14
1.978746413866566300e-14
