# bin_14_11
3.444162264434882719e-12
3.936711349105712408e-12
4.438278267332024575e-12
4.916463156524467493e-12
5.328864711246025967e-12
5.620309421146440157e-12
5.728870537998228807e-12
5.599304313975376634e-12
5.170434590594039228e-12
4.514611275679071071e-12
3.741642867957415609e-12
3.067946955006863183e-12
2.617406367540679691e-12
2.246296978346139955e-12
1.697107610194303574e-12
1.181291604778694315e-12
9.584396675883562113e-13
6.450039620307694216e-13
4.831857214362859387e-13
3.241209899678668526e-13
2.223649256056819396e-13
1.521439710284572741e-13
1.032197924482478694e-13
6.976172827089049499e-14
4.722722327089394436e-14
3.235239434014738793e-14
2.250029976812083554e-14
1.595464890725035434e-14
1.157072887654355820e-14
8.578133789818047386e-15
6.477637282140621966e-15
