# bin_10_5
1.015932672600241379e-15
1.144124316966108163e-15
1.266152688842883425e-15
1.371105433754199838e-15
1.444816349630379759e-15
1.471582274359703619e-15
1.436967441823271161e-15
1.325979898348756275e-15
1.157029858965845374e-15
9.588377908689979517e-16
7.863639549004875635e-16
6.706873645104555421e-16
5.748330809849596489e-16
4.344037158981094534e-16
3.034899731146196575e-16
2.457148761347067093e-16
1.668714566967993259e-16
1.251254300457784694e-16
8.517596833769908362e-17
5.956258940200094884e-17
4.168105297362994442e-17
2.916517676570566406e-17
2.054553873181828277e-17
1.464118921188065236e-17
1.063406828723687402e-17
7.874954332550483162e-18
5.938449566926226987e-18
4.545723535249898738e-18
3.510077545043729384e-18
2.714564381883260183e-18
2.087294879950825999e-18
