# bin_15_1
7.604447905879015083e-42
8.660453709467063328e-42
9.718397088148622589e-42
1.070486635976600722e-41
1.152225526331377797e-41
1.204643678374430594e-41
1.215880577612554876e-41
1.171125516626161913e-41
1.064639495728323477e-41
9.150626170754243620e-42
7.525124260606470353e-42
6.212301459406818826e-42
5.354670556497638778e-42
4.499244856965579285e-42
3.255299673258264028e-42
2.352335425388048636e-42
1.879342829624030983e-42
1.245451281065964107e-42
9.284574544981658422e-43
6.388317193100791066e-43
4.350083972275670980e-43
2.976065414613890713e-43
2.027302937372364167e-43
1.386750987364431543e-43
9.559361042599826362e-44
6.696028809204970726e-44
4.776797335510621305e-44
3.480315943440743640e-44
2.589589867162832201e-44
1.961033610299275835e-44
1.502266248491782456e-44
