# bin_6_6
6.676233816756204424e-11
7.431681789786796457e-11
8.108604813987857557e-11
8.627834715813363685e-11
8.892461874962845422e-11
8.825881033430884324e-11
8.309963469492801453e-11
7.392370324298340046e-11
6.220334000664596141e-11
5.091057713497826489e-11
4.269611540574578253e-11
3.692626907384538613e-11
2.954631697718086969e-11
2.061944305076218451e-11
1.601597453928943709e-11
1.185893998151783703e-11
8.389010828796183547e-12
5.922942042399485046e-12
4.256771993672635576e-12
2.997577800331421321e-12
2.120638161153729917e-12
1.519294642984542022e-12
1.104483121727966869e-12
8.176058393019483481e-13
6.167333371169925022e-13
4.724640480199909384e-13
3.659258020176863098e-13
2.846289570565370675e-13
2.207488477980515061e-13
1.695584694138066720e-13
1.282651947763241633e-13
