# bin_7_5
8.126288119283253640e-12
9.050765776849975506e-12
9.881786479118799273e-12
1.052332828203048022e-11
1.085723286615519179e-11
1.079002824616398951e-11
1.017628646810166431e-11
9.066835779019463408e-12
7.640005322714964857e-12
6.253427207152095534e-12
5.237535884046518484e-12
4.530966860601602556e-12
3.640828086757441472e-12
2.543785921131003724e-12
1.966703612701801531e-12
1.465952560959489093e-12
1.031197286628527599e-12
7.308968533355149886e-13
5.250060263374858505e-13
3.692409128143804038e-13
2.609167122886013156e-13
1.866806466730343044e-13
1.355247496167860919e-13
1.001686639650495032e-13
7.545294384509496527e-14
5.773691145317401755e-14
4.468400759371047802e-14
3.474688780726448328e-14
2.695316065332765691e-14
2.071472143997551023e-14
1.568397408008384643e-14
