# bin_13_10
3.264831976271763396e-12
3.723756660879633525e-12
4.186726012379312807e-12
4.622532597791640195e-12
4.989943867517876968e-12
5.236098258459391214e-12
5.306764949989152875e-12
5.142699930133469801e-12
4.704518060063161381e-12
4.069538400548765200e-12
3.355686522886309405e-12
2.760950594361606766e-12
2.371124539805320754e-12
2.012565627555444523e-12
1.480903464688286580e-12
1.050342010978048556e-12
8.498462072562926699e-13
5.620236437753748613e-13
4.229815784973951904e-13
2.877414279766436730e-13
1.958439892041857114e-13
1.341123672647719921e-13
9.118867168667428078e-14
6.205030430148672843e-14
4.244582092441726742e-14
2.946252365945507213e-14
2.080530978800895499e-14
1.499965974055387552e-14
1.105441052715649446e-14
8.308627400253450707e-15
6.335630529605283062e-15
