# bin_14_1
1.031459363062857318e-39
1.171921936827287342e-39
1.311069862818411669e-39
1.438779443615162926e-39
1.541494020515877000e-39
1.602143337529623045e-39
1.606210156547971762e-39
1.532173509288832925e-39
1.379677555562665505e-39
1.174311527437451617e-39
9.627351187243436527e-40
7.998829796997893644e-40
6.921028903096902771e-40
5.706737283518872276e-40
4.036522163584628887e-40
3.013080502562216454e-40
2.335457034059059986e-40
1.575396322701737073e-40
1.142360961882014186e-40
8.006281698984074738e-41
5.473868089650665588e-41
3.742633663626590936e-41
2.564291087374795075e-41
1.769917920309709237e-41
1.235171997672139107e-41
8.773919311763915227e-42
6.354099250983861909e-42
4.698794227611296579e-42
3.540887661808613789e-42
2.705943794571576366e-42
2.082524389955573960e-42
