# bin_8_2
2.558776224353784970e-19
2.835389506728115766e-19
3.076436235422703061e-19
3.250766372573075122e-19
3.322449251713947332e-19
3.261121557739350867e-19
3.028486953575613820e-19
2.658882617407487050e-19
2.213102205761203570e-19
1.811908634160322927e-19
1.535682158212066109e-19
1.321531549432685993e-19
1.019741830237803599e-19
7.103114560068484741e-20
5.690707525004059319e-20
3.997918144808835590e-20
2.953071100556342119e-20
2.042387474723792025e-20
1.463266538836534260e-20
1.040828827229183006e-20
7.440439122084860417e-21
5.386872132996428169e-21
3.959338102849785132e-21
2.966318721703331151e-21
2.261403752117908711e-21
1.746855068838841096e-21
1.359876660473658790e-21
1.059275584039296457e-21
8.198722774803460152e-22
6.265774523274082202e-22
4.704536513367746867e-22
