# bin_1_8
6.695522410349584127e-07
6.585271654613267481e-07
6.172494477925772030e-07
5.488906024896733999e-07
4.657704907907827053e-07
3.857832538887169197e-07
3.223677299817721340e-07
2.711443100754509905e-07
2.169277117643671431e-07
1.614827990971546555e-07
1.209002902583623308e-07
9.145378359796200900e-08
6.667678244276700342e-08
4.915702726170705508e-08
3.619467988871977410e-08
2.697212956436891374e-08
2.039494530391325822e-08
1.569603075348007732e-08
1.228463895514191057e-08
9.740087943065851409e-09
7.777766032212787146e-09
6.210126653291042815e-09
4.922647840663872049e-09
3.848962503631091159e-09
2.952192275637392105e-09
2.211978538728187222e-09
1.614903696599760579e-09
1.147857074861325758e-09
7.950525874846790201e-10
5.378112484479156378e-10
3.563432922283604701e-10
