# bin_5_1
3.657532994775832105e-15
3.930959676077088139e-15
4.106014392079060108e-15
4.142287810394330372e-15
3.992392460411340994e-15
3.635905252255234621e-15
3.131937040597388100e-15
2.580444727158695893e-15
2.127474600083257362e-15
1.823903447835794507e-15
1.533320278233575348e-15
1.128913531952940140e-15
8.164898458550984089e-16
6.504718546334488367e-16
4.490066812961701346e-16
3.371401445244071644e-16
2.398507443466428728e-16
1.730487924660008268e-16
1.262777930058503314e-16
9.329265321591065923e-17
7.009828464314913881e-17
5.357908107384851745e-17
4.162225581548317314e-17
3.267697115385884530e-17
2.575675512491781643e-17
2.024353386273845262e-17
1.575498449612342850e-17
1.206969331995214565e-17
9.056534461821779596e-18
6.630827701897932228e-18
4.727184235885784030e-18
