# bin_6_9
8.624290019083575006e-08
9.577117380310971958e-08
1.041884426471343578e-07
1.104585082230736560e-07
1.133594885161769807e-07
1.118658556211216178e-07
1.046108031224611875e-07
9.245663081358413217e-08
7.741282075736285178e-08
6.338835381973070128e-08
5.341765355743480542e-08
4.603463084867088676e-08
3.620453767278594857e-08
2.532005564485466175e-08
1.988577902025402276e-08
1.440044565714903138e-08
1.036811342627020774e-08
7.279243660192433591e-09
5.213372254320876833e-09
3.687055962931155941e-09
2.621351445454365322e-09
1.887031416979923842e-09
1.378823809387008931e-09
1.026327146358268111e-09
7.779346076371347803e-10
5.981805753272033614e-10
4.642939864679429167e-10
3.612820520949413485e-10
2.798436852458813639e-10
2.143755226778989143e-10
1.615552927564899176e-10
