# bin_1_9
6.925102103104072070e-07
6.813111532851664045e-07
6.388305440213610840e-07
5.682796111493255250e-07
4.823486517848004884e-07
3.995300239133153489e-07
3.338140037057402927e-07
2.808056916383372349e-07
2.247760450521931693e-07
1.673690130432834255e-07
1.252741047753871889e-07
9.478361159090258708e-08
6.910628275331583307e-08
5.094463721036575833e-08
3.750768325016800687e-08
2.794665566324418959e-08
2.112795104492087027e-08
1.625702243334040310e-08
1.272149757113297656e-08
1.008513261094520578e-08
8.052715669091148771e-09
6.429618311527576866e-09
5.096920053644213081e-09
3.985670086958634047e-09
3.057532044163680487e-09
2.291344705281584936e-09
1.673196275192428498e-09
1.189540840334314173e-09
8.240865101140538950e-10
5.575481605938309720e-10
3.694748605646858109e-10
