# bin_7_9
5.148942668229359751e-08
5.755076849336640618e-08
6.310908821785353994e-08
6.757236069398412585e-08
7.019864893421307130e-08
7.034235488159473288e-08
6.710072663532905137e-08
6.043989410891431856e-08
5.147770248708811984e-08
4.222220885941857994e-08
3.505587183655124039e-08
3.026485034548674488e-08
2.495746677555977717e-08
1.778411418809873278e-08
1.323488015259962492e-08
1.028269816389558780e-08
7.010246230921523684e-09
5.132800296692351634e-09
3.627026950180521721e-09
2.532707271358405590e-09
1.781923242704512449e-09
1.263757620267946686e-09
9.081922578252397859e-10
6.634154050294695229e-10
4.942261764710328542e-10
3.746328912410606169e-10
2.879471468221932485e-10
2.231251865534495996e-10
1.730617771059323225e-10
1.334135610682251221e-10
1.015859793874241734e-10
