# bin_12_7
8.669361817688609102e-14
9.833357632280648526e-14
1.097744782656219723e-13
1.201536157048960496e-13
1.283146506592857118e-13
1.328132202513770705e-13
1.325033997983701663e-13
1.255539282016736711e-13
1.123300149970040230e-13
9.498993804808701017e-14
7.774739333001017075e-14
6.489522195069138005e-14
5.621144628120819353e-14
4.567466432807138079e-14
3.192404572111123534e-14
2.435506259758067297e-14
1.841336267985911674e-14
1.265720943511185864e-14
8.967933728489015705e-15
6.350351999618415330e-15
4.357813632843326704e-15
2.983398992255582203e-15
2.054742114207274415e-15
1.426901039215061690e-15
1.003812728271003991e-15
7.193819533466335379e-16
5.257791484645636894e-16
3.921621455123099423e-16
2.975591790217257493e-16
2.283960563799210463e-16
1.760542811730980568e-16
