# bin_6_7
3.846326731765186144e-08
4.264491241864041012e-08
4.630224156076347269e-08
4.896871414038084304e-08
5.010559588358421763e-08
4.925146905767860536e-08
4.583160036165655363e-08
4.031636961844022542e-08
3.362485339613428846e-08
2.753820071572686167e-08
2.329607976772485634e-08
2.004117119033827789e-08
1.555861389012765719e-08
1.086916525263831422e-08
8.633090499262101301e-09
6.138724177591058650e-09
4.485167505582875799e-09
3.124239830090008651e-09
2.238455370403061119e-09
1.588673568422158395e-09
1.133336024125359601e-09
8.190345953869365930e-10
6.009256824729970621e-10
4.493003445467480127e-10
3.419059223045798666e-10
2.637187444261366654e-10
2.050891535867216982e-10
1.596824758294378320e-10
1.236056950337531855e-10
9.452102201450180315e-11
7.104148832842824993e-11
