# bin_10_10
9.310707785114061956e-09
1.053927455797764906e-08
1.173578490705293822e-08
1.280569309921848019e-08
1.362290062183530868e-08
1.403287030142566631e-08
1.391649798880936162e-08
1.308438210959259612e-08
1.162160721916835755e-08
9.762080340745480113e-09
7.986181994372590657e-09
6.707747308367907235e-09
5.805775892954976052e-09
4.624482169462621379e-09
3.209529602956214528e-09
2.506673354119779888e-09
1.833499649031574181e-09
1.296453304171863316e-09
8.973182647529770729e-10
6.376762359441123049e-10
4.400405040314442305e-10
3.028601843380052088e-10
2.100083222793149122e-10
1.469155799303637253e-10
1.043408547050271941e-10
7.553557276762661481e-11
5.576547259951612737e-11
4.196428514333835580e-11
3.204947095300104529e-11
2.468645084094468155e-11
1.903495513612809422e-11
