# bin_13_1
-6.238803297289988920e-35
-7.068786501793599543e-35
-7.880559202198110906e-35
-8.611393440899920135e-35
-9.177356042706727125e-35
-9.474473633917698420e-35
-9.422358647181255879e-35
-8.890805894933726139e-35
-7.923302379166683750e-35
-6.675383470169439035e-35
-5.461488004304986707e-35
-4.573943977121509843e-35
-3.961433395542979431e-35
-3.185252577608247084e-35
-2.215701531442139115e-35
-1.713052923007061643e-35
-1.272398903266247861e-35
-8.879377615366939494e-36
-6.203515365264164187e-36
-4.407649884797470761e-36
-3.033473735710008282e-36
-2.081877348228934461e-36
-1.439158616405408990e-36
-1.003399048308358060e-36
-7.095390745892077211e-37
-5.113144256490430032e-37
-3.757936107121845167e-37
-2.816919641440579688e-37
-2.145391313969425193e-37
-1.650202554497532198e-37
-1.272472420774219799e-37
