# bin_12_4
-1.425423090799681623e-19
-1.612714646667961304e-19
-1.794698470445021197e-19
-1.956831699318153391e-19
-2.079735768129358052e-19
-2.139749364589961619e-19
-2.118842775138959147e-19
-1.988208679594140815e-19
-1.762643607904564554e-19
-1.477973461143506032e-19
-1.208887827009035418e-19
-1.017026195441317888e-19
-8.802061408239369414e-20
-6.974496745938574367e-20
-4.829696601201821721e-20
-3.797033920953969530e-20
-2.752340023086048702e-20
-1.961586025836036949e-20
-1.348225764760896717e-20
-9.593650124085374638e-21
-6.630294992321913306e-21
-4.569847992934903371e-21
-3.174593180146688396e-21
-2.225130176979289775e-21
-1.584230543959924873e-21
-1.149870022209518705e-21
-8.511005156612990955e-22
-6.419140525581847011e-22
-4.910683619824212497e-22
-3.785985329916656356e-22
-2.919639168907865857e-22
