# bin_5_12
-1.422174622094540828e-16
-1.610630540004466387e-16
-1.794557942052608031e-16
-1.959595324325567496e-16
-2.086539642745294420e-16
-2.151684911921496046e-16
-2.136911888679509364e-16
-2.012686242458528851e-16
-1.790594715597840172e-16
-1.506110684261734866e-16
-1.232007043097183153e-16
-1.033314214833022209e-16
-8.949031091479647854e-17
-7.162282862635458437e-17
-4.971383460349423106e-17
-3.866534429217880162e-17
-2.849317754370303868e-17
-2.001854008642446146e-17
-1.389773607263488608e-17
-9.889795119196551980e-18
-6.815295858881965234e-18
-4.682464230411742140e-18
-3.242212303772162959e-18
-2.264482764742763876e-18
-1.604927863623951571e-18
-1.159347771458202281e-18
-8.541201326728058496e-19
-6.416103579708050956e-19
-4.894362564091817894e-19
-3.768047860059283498e-19
-2.905987789816990168e-19
