# bin_6_9
-3.023643740915140235e-10
-3.400968543906403355e-10
-3.758123459959924807e-10
-4.062226555509807231e-10
-4.270886183432054941e-10
-4.338672336124377746e-10
-4.220820191693131830e-10
-3.878397464601765211e-10
-3.369964358733524544e-10
-2.785336585823986875e-10
-2.286534420905679955e-10
-1.955463596542132023e-10
-1.668945374926185282e-10
-1.247106771777127734e-10
-8.768354625244558995e-11
-7.103093854353059440e-11
-4.780306765513611068e-11
-3.600316138076615188e-11
-2.461654286395299008e-11
-1.715500449242387587e-11
-1.202234532231740328e-11
-8.430326848666907854e-12
-5.957011323751247916e-12
-4.261821435885482517e-12
-3.108937073978061778e-12
-2.312013369727881860e-12
-1.749912209852015153e-12
-1.343071443582479242e-12
-1.038497543978903719e-12
-8.031441889447604462e-13
-6.168050309458346558e-13
