# bin_13_6
-9.860438716671719694e-16
-1.120300412882291072e-15
-1.253298728567878745e-15
-1.375358514617327716e-15
-1.473524281847014812e-15
-1.531487716540474540e-15
-1.535349599658730947e-15
-1.464581200340696213e-15
-1.318623427723639790e-15
-1.122152872526634091e-15
-9.196079744115544712e-16
-7.637108328240857407e-16
-6.608287573752526510e-16
-5.451529910665517250e-16
-3.854723325400110293e-16
-2.874932218342992888e-16
-2.230769716085566293e-16
-1.502651597189077900e-16
-1.090674332427576519e-16
-7.641644931787358057e-17
-5.222844307325767344e-17
-3.570038851145438840e-17
-2.445104505028920624e-17
-1.687168623840028602e-17
-1.177024338960178240e-17
-8.358055319371265635e-18
-6.050954709279679294e-18
-4.473373720471410716e-18
-3.370367727929559420e-18
-2.575413596294370358e-18
-1.982122615118457478e-18
