# bin_11_8
-6.762600887027324253e-10
-7.670187240779656677e-10
-8.562034766983642060e-10
-9.370817898425523187e-10
-1.000629452004267638e-09
-1.035577381951002428e-09
-1.033003884443370611e-09
-9.786207620454889786e-10
-8.753751005173405924e-10
-7.401001028675657183e-10
-6.057361971781476288e-10
-5.056862278933402374e-10
-4.380296246818055598e-10
-3.557461054307331138e-10
-2.485613130515669509e-10
-1.897651064591083363e-10
-1.433479225806629060e-10
-9.860380930551659602e-11
-6.980859310582238992e-11
-4.944824907897217232e-11
-3.393748210541238341e-11
-2.323546173931741256e-11
-1.600577064331281135e-11
-1.111734256339567972e-11
-7.823012016993141846e-12
-5.607958290036647988e-12
-4.099918730314344462e-12
-3.058820423471283722e-12
-2.321414367807601568e-12
-1.782066867817361441e-12
-1.373723438332157320e-12
