# bin_13_14
-8.102679307008868593e-09
-9.277342280843042174e-09
-1.048155853573081007e-08
-1.164059381975000687e-08
-1.265683628009916394e-08
-1.340161782651937447e-08
-1.372252576777465393e-08
-1.350003218418640653e-08
-1.256173260603333070e-08
-1.104842700789274518e-08
-9.201174923402978004e-09
-7.529870868699135362e-09
-6.382750752425501943e-09
-5.509640573250694352e-09
-4.256380578189506198e-09
-2.939630748981532984e-09
-2.361954336103696414e-09
-1.637528420738518662e-09
-1.202616156866541184e-09
-8.035971615028879740e-10
-5.593925832209401661e-10
-3.810339389691321081e-10
-2.570850790657918234e-10
-1.728371629427950500e-10
-1.161079968607194843e-10
-7.868878061126502603e-11
-5.402635231016056079e-11
-3.775011537835414474e-11
-2.696559838890647766e-11
-1.971390409909022147e-11
-1.472218604012026668e-11
