# bin_11_13
-3.977071126424389862e-09
-4.539704156977833047e-09
-5.109384891391036608e-09
-5.648279742878628588e-09
-6.106651008878761593e-09
-6.420397524017857351e-09
-6.521060096827741103e-09
-6.340460222586588802e-09
-5.820489639430778223e-09
-5.052424828923593613e-09
-4.172493200150411336e-09
-3.426447236475773013e-09
-2.934849420796840821e-09
-2.503554865710815908e-09
-1.861279754003645290e-09
-1.307738563562692407e-09
-1.061788845588183768e-09
-7.048337694933975531e-10
-5.309091218242460165e-10
-3.588140468393760424e-10
-2.446315950980053244e-10
-1.675248315813103881e-10
-1.138220000383351607e-10
-7.722283741948546300e-11
-5.258903179260706637e-11
-3.630392331257847003e-11
-2.547711478077148612e-11
-1.824590806158298410e-11
-1.336236891354459171e-11
-9.990947503756270908e-12
-7.591461406704651110e-12
