# bin_6_8
-2.500642694715089499e-09
-2.803704683560534746e-09
-3.086143895521601003e-09
-3.319923671369066900e-09
-3.469432029321206726e-09
-3.500526085515409561e-09
-3.371410792923137219e-09
-3.065165086322821444e-09
-2.634979923776594405e-09
-2.166855349572149377e-09
-1.787587134821202826e-09
-1.538851014658796671e-09
-1.293607587992601046e-09
-9.394421440466333529e-10
-6.783810346110683070e-10
-5.426139847478876736e-10
-3.629891672463982302e-10
-2.720605592400378439e-10
-1.893464267688217690e-10
-1.316154657608201185e-10
-9.240898752828992046e-11
-6.512770712923975879e-11
-4.642507033622256454e-11
-3.358431981324481062e-11
-2.478398229693186321e-11
-1.863082996531862285e-11
-1.422901930007151870e-11
-1.098685906626619671e-11
-8.516989395994179670e-12
-6.580589201133030519e-12
-5.033666201893943230e-12
