# bin_7_1
-3.020781525740351859e-19
-3.320104508532071469e-19
-3.566232201920590379e-19
-3.720892378368310630e-19
-3.748095431150398125e-19
-3.602918927386171689e-19
-3.270591626214822295e-19
-2.807569392427946734e-19
-2.308437225262472944e-19
-1.906074512132981686e-19
-1.639619243009079861e-19
-1.373305347385785893e-19
-9.980459762887151285e-20
-7.256906571622264730e-20
-5.773863552115157829e-20
-3.925140734850178907e-20
-2.941333799229470196e-20
-2.078222693120232711e-20
-1.474460268384666944e-20
-1.058628936247284909e-20
-7.674869695532173134e-21
-5.650184171329688824e-21
-4.231107205014413494e-21
-3.227340658464092227e-21
-2.496702766768914891e-21
-1.948246998460066293e-21
-1.523498944449301939e-21
-1.185295752375640080e-21
-9.116246801785240901e-22
-6.893492921826760605e-22
-5.103250482778058096e-22
