# bin_9_9
-1.394854110979109107e-08
-1.578626436809971825e-08
-1.757442355993321585e-08
-1.917118050109370784e-08
-2.038730498314779028e-08
-2.099088232489011579e-08
-2.080526128813851020e-08
-1.954578966275573227e-08
-1.734757154741997649e-08
-1.456018740045830888e-08
-1.190941174972197205e-08
-1.000951817847905199e-08
-8.665118764898253203e-09
-6.888136283770597905e-09
-4.772838855979507369e-09
-3.739817735025544121e-09
-2.725207499259192730e-09
-1.933369716856135378e-09
-1.332817764042408187e-09
-9.486103316071289191e-10
-6.549843412724446411e-10
-4.509582516038336443e-10
-3.129487140419421509e-10
-2.191042013852095972e-10
-1.557711011817727113e-10
-1.128919908207648663e-10
-8.343707189966597848e-11
-6.285101432843080718e-11
-4.803919427146249491e-11
-3.702102408745527454e-11
-2.855069245677368994e-11
