# bin_12_2
-1.600019470186363978e-27
-1.807601328409559675e-27
-2.007998506194646201e-27
-2.184623214622561169e-27
-2.315530571863176439e-27
-2.374514954675589645e-27
-2.341071143459134081e-27
-2.184865002679508220e-27
-1.927171403904848035e-27
-1.609125304117179882e-27
-1.316523925365954039e-27
-1.112489949805318389e-27
-9.610184308234956311e-28
-7.501825153885349458e-28
-5.191927809663736195e-28
-4.135515003107807807e-28
-2.928299922185644099e-28
-2.128538815945775017e-28
-1.449638852808731512e-28
-1.027561954067735851e-28
-7.132495575695597111e-29
-4.941606118666225408e-29
-3.448494713485631114e-29
-2.429572149411227168e-29
-1.740999934368438617e-29
-1.272092133868877182e-29
-9.475679230913286085e-30
-7.184486077681729447e-30
-5.515721253529729358e-30
-4.258873535083264402e-30
-3.282576414029657261e-30
