# bin_13_15
-4.333451067218456476e-09
-4.966717569713434567e-09
-5.618209143016971789e-09
-6.248628215339769989e-09
-6.806399361688582960e-09
-7.223087793836351600e-09
-7.415898630772808687e-09
-7.322318884064780808e-09
-6.843836989099690259e-09
-6.044533133294132739e-09
-5.050594962223001366e-09
-4.131231222418079370e-09
-3.488898480591614121e-09
-3.017694422363646257e-09
-2.361171346961712300e-09
-1.628702389813251845e-09
-1.296591970618479071e-09
-9.172641460667342401e-10
-6.629553879315143091e-10
-4.449722885030374738e-10
-3.121928907670347441e-10
-2.120122810360087149e-10
-1.424441670388045511e-10
-9.549828335420047404e-11
-6.390970151435697429e-11
-4.306413125416437911e-11
-2.935785844342732523e-11
-2.034162889542487474e-11
-1.439927894763830950e-11
-1.043476574023148926e-11
-7.734493023940378630e-12
