# bin_3_9
-1.172523074476443971e-16
-1.310685624031842749e-16
-1.437445002241733872e-16
-1.539319273020786117e-16
-1.599368556827806009e-16
-1.603028107367527706e-16
-1.529304100737049283e-16
-1.377363254100755777e-16
-1.172776365747001640e-16
-9.613888202130135405e-17
-7.979706819881818461e-17
-6.895870020435069776e-17
-5.692506538694313581e-17
-4.044263136699661855e-17
-3.011596130905627504e-17
-2.345361643419732954e-17
-1.592678193610212819e-17
-1.167711844707610484e-17
-8.270282502302717227e-18
-5.770477039148007329e-18
-4.056557786004091529e-18
-2.875833718280971344e-18
-2.066963799430405882e-18
-1.510232462117147685e-18
-1.125431389001268887e-18
-8.534045256463200821e-19
-6.562066339821271949e-19
-5.086964105839830441e-19
-3.947109245909120249e-19
-3.043799729328981157e-19
-2.318187183278475205e-19
