# bin_4_3
-1.359169314293626883e-08
-1.469705081401767943e-08
-1.546959115290075044e-08
-1.574544419053019384e-08
-1.536785763845322121e-08
-1.418941908441711349e-08
-1.238922673537552911e-08
-1.028391059344121802e-08
-8.436128342376325242e-09
-7.170205548208407055e-09
-6.125712527362800384e-09
-4.670267323130289146e-09
-3.298273727792756936e-09
-2.634794594290416816e-09
-1.853973436595392200e-09
-1.378163376892085867e-09
-9.724441881572110184e-10
-7.039507714769768419e-10
-5.105062072293158346e-10
-3.740236884176991976e-10
-2.784994059289450311e-10
-2.109271651614900062e-10
-1.625550091388668614e-10
-1.269049341180845699e-10
-9.974026939379300785e-11
-7.839208228801551349e-11
-6.118122388478384575e-11
-4.711563079500632286e-11
-3.561189290161431818e-11
-2.630764766063446170e-11
-1.894105647718263041e-11
