# bin_9_1
-8.048920895657469679e-25
-8.968587221275859296e-25
-9.797456843520943056e-25
-1.044075587988908253e-24
-1.078143060914776873e-24
-1.072640686746689392e-24
-1.013106207230415302e-24
-9.038020912221043974e-25
-7.624515913871337568e-25
-6.239603448141542289e-25
-5.217933079091241692e-25
-4.514158242898718616e-25
-3.641956424747252393e-25
-2.548348168728172401e-25
-1.959806557165658080e-25
-1.470537964021413328e-25
-1.028435439794417985e-25
-7.322695802259150396e-26
-5.251942654594892291e-26
-3.688802998030399027e-26
-2.603853597080230764e-26
-1.860308432753692328e-26
-1.348487497371871910e-26
-9.949992034918587745e-27
-7.483316316718788205e-27
-5.718928613525137867e-27
-4.422087142247250846e-27
-3.437299771451727844e-27
-2.666520968787794419e-27
-2.050381807647275194e-27
-1.553757151104793341e-27
