# bin_4_1
-1.459000699603038834e-11
-1.549168707690139917e-11
-1.593955498381335852e-11
-1.578866644045005643e-11
-1.484774614663851754e-11
-1.319766095217202187e-11
-1.111157737972909445e-11
-9.102690202890138339e-12
-7.626110239180584871e-12
-6.565164099522906428e-12
-5.252245737619286799e-12
-3.720321377230954611e-12
-2.869556998671941360e-12
-2.149717045860307745e-12
-1.537145763430216445e-12
-1.117131381519238703e-12
-8.142612576594842842e-13
-5.922794401250972104e-13
-4.366556448799053805e-13
-3.273866191104297634e-13
-2.498551125046812278e-13
-1.938821006848845985e-13
-1.523618845695535176e-13
-1.204513522799904548e-13
-9.513268375209268905e-14
-7.454379050363301316e-14
-5.757854144764345944e-14
-4.360598110990341426e-14
-3.224403684744870453e-14
-2.321580861578723498e-14
-1.626593960169464862e-14
