# bin_12_11
-9.317116257264296648e-09
-1.062205460492924036e-08
-1.193596327796677882e-08
-1.316946238550324005e-08
-1.420436637548353992e-08
-1.488957566208091747e-08
-1.507249784612370421e-08
-1.458174981988231748e-08
-1.331428683086080145e-08
-1.149498002087847866e-08
-9.467792760852315248e-09
-7.793344495149563105e-09
-6.699134829860555975e-09
-5.672917170958785355e-09
-4.154709074719983783e-09
-2.958076671868248251e-09
-2.388589141163869400e-09
-1.577668451747709089e-09
-1.186009120787449815e-09
-8.088885256247933299e-10
-5.503225605699285249e-10
-3.767347918864505662e-10
-2.561980510827369804e-10
-1.745340833325608069e-10
-1.196028144719209263e-10
-8.320011085252386888e-11
-5.889921244946592648e-11
-4.257580689094704734e-11
-3.145486796690441090e-11
-2.368922535823003165e-11
-1.808756233019110426e-11
