# bin_9_15
-1.118763118286598067e-12
-1.278256502667217881e-12
-1.440417170717234837e-12
-1.594679966847970488e-12
-1.727214076251856470e-12
-1.820071235245031985e-12
-1.853323524735249736e-12
-1.808833300756247012e-12
-1.667504724830691936e-12
-1.453527939340125663e-12
-1.203207165243905774e-12
-9.866551681172738746e-13
-8.425236106909566000e-13
-7.220843855029266967e-13
-5.432619434477946934e-13
-3.787627929562200266e-13
-3.075430100261841448e-13
-2.060778794776285965e-13
-1.546890984448592314e-13
-1.039096170949828622e-13
-7.115202645085059841e-14
-4.869466663327854330e-14
-3.304953589472665433e-14
-2.235551453561682241e-14
-1.515451299239969639e-14
-1.040024878556267906e-14
-7.248781493726409263e-15
-5.152493763681282076e-15
-3.745816723604873055e-15
-2.783009567917762506e-15
-2.104944049567881622e-15
