# bin_6_14
-2.218178672931072995e-17
-2.524979551723491071e-17
-2.831672016228497306e-17
-3.116762037875778933e-17
-3.351648661657501420e-17
-3.500058816081979541e-17
-3.527980687919132388e-17
-3.391659192959024254e-17
-3.076933839827873642e-17
-2.639018721230297244e-17
-2.167793782010528796e-17
-1.790861929763099682e-17
-1.545055084004825876e-17
-1.294358626514181722e-17
-9.317429758183567466e-18
-6.767746377585968575e-18
-5.386334167578016332e-18
-3.571689749756081000e-18
-2.654434720607155426e-18
-1.832170193599055341e-18
-1.247754733247960665e-18
-8.533031616718983623e-19
-5.815353060458322800e-19
-3.983618571578318399e-19
-2.751788385868520394e-19
-1.932313486088167074e-19
-1.382257792325951424e-19
-1.009931218679861039e-19
-7.533539234365338714e-20
-5.716064620229862484e-20
-4.383943567363348759e-20
