# bin_4_15
-1.398185650290462862e-25
-1.592842664582105337e-25
-1.788167714616132836e-25
-1.970683073060801628e-25
-2.122511448047284831e-25
-2.220889807002041625e-25
-2.243621081398210457e-25
-2.164047519903262658e-25
-1.969820176008250122e-25
-1.695283359038988579e-25
-1.394439055957117429e-25
-1.149731674552699098e-25
-9.901233383831884793e-26
-8.342814844989063050e-26
-6.058962513381119484e-26
-4.354118753574578330e-26
-3.494002119514622689e-26
-2.310067812717373847e-26
-1.728530220879262093e-26
-1.185568746181073486e-26
-8.067871224332145783e-27
-5.520318000261231249e-27
-3.757304207851679497e-27
-2.566282039175094626e-27
-1.765295206975331207e-27
-1.233546163140398025e-27
-8.776593108700164998e-28
-6.377417162252981088e-28
-4.734026726758812944e-28
-3.578589404123140533e-28
-2.738654843972246096e-28
