# bin_13_3
6.302486187228269276e-28
7.144591233934866761e-28
7.970121027048571964e-28
8.716024301993747025e-28
9.297841274245305166e-28
9.610485387176442195e-28
9.571957653037586074e-28
9.049652879130939110e-28
8.079583879015450729e-28
6.818629676118906406e-28
5.579495835738783387e-28
4.665444899425715010e-28
4.041236251245826486e-28
3.265661309157094766e-28
2.276032546683360588e-28
1.749081595916429960e-28
1.310055415392258735e-28
9.076708290787730273e-29
6.380923931117071234e-29
4.528659977766367228e-29
3.112419042126490419e-29
2.133265589844921520e-29
1.472148732659769371e-29
1.024505046125675668e-29
7.227298263370635304e-30
5.194908810077859838e-30
3.808297636231354055e-30
2.848224162413033707e-30
2.165605256942172775e-30
1.664230608813795831e-30
1.283156300773534115e-30
