# bin_13_6
2.876720852061553336e-18
3.268246132347110434e-18
3.656012068873583602e-18
4.011766665356011574e-18
4.297695608184941272e-18
4.466206877118867761e-18
4.476835748416522558e-18
4.269641938441537683e-18
3.843416557992409500e-18
3.270135170640092351e-18
2.679770114435751105e-18
2.225803962857042513e-18
1.926044468247334599e-18
1.588220188903034974e-18
1.122587466841581192e-18
8.378135649392445924e-19
6.496124759040897272e-19
4.378203159625178347e-19
3.175579648077378816e-19
2.225726142200481282e-19
1.521391769824839365e-19
1.039954541527679797e-19
7.123741806196130546e-20
4.916445099173132148e-20
3.430723283209753673e-20
2.436828591634332347e-20
1.764692358982862798e-20
1.304966962019309650e-20
9.834192295892839941e-21
7.515750962232484257e-21
5.784706072659769240e-21
