# bin_8_6
8.535121241809698631e-12
9.568748922553306156e-12
1.053164662192558245e-11
1.132805131784354024e-11
1.183636395011687574e-11
1.194034977300064668e-11
1.149698434107818323e-11
1.044989581614681570e-11
8.980883107185351414e-12
7.384558319396798116e-12
6.092917207079480860e-12
5.245849467942027713e-12
4.407893764698635025e-12
3.198921625549185720e-12
2.311780713657445879e-12
1.848118843199190552e-12
1.236496974586381121e-12
9.263982420314631774e-13
6.450618021072511013e-13
4.484004150116102100e-13
3.148355923767249660e-13
2.219184361660164781e-13
1.582258456497295784e-13
1.144938803606415161e-13
8.451591684131121216e-14
6.354926901156822579e-14
4.854484135618185004e-14
3.748850563484816147e-14
2.906230896675143657e-14
2.245391383439757350e-14
1.717370723840657282e-14
