# bin_4_1
6.106562882492393100e-14
6.483172228297885145e-14
6.669615938143329358e-14
6.605230578526805555e-14
6.210092393864314922e-14
5.518651316385956125e-14
4.645398715651214484e-14
3.805485186606504027e-14
3.188744681052803911e-14
2.745027039637146483e-14
2.194833226774949916e-14
1.554369547311644682e-14
1.199617679903244770e-14
8.980256254124552530e-15
6.424757971763959512e-15
4.667545867713411566e-15
3.402627318522668158e-15
2.475336503424791446e-15
1.825154240629486264e-15
1.368631272214548002e-15
1.044667001807551525e-15
8.107494111773160500e-16
6.371879435109051161e-16
5.037620716040143940e-16
3.978738911181016520e-16
3.117515724946242582e-16
2.407804747412431244e-16
1.823284672172493513e-16
1.348011283792697741e-16
9.704134005182551183e-17
6.797987102332380989e-17
