# bin_14_2
1.280388395775689563e-34
1.454699292607606490e-34
1.627368133378248449e-34
1.785821799698721304e-34
1.913236099376064985e-34
1.988435245988106084e-34
1.993368503691917466e-34
1.901421662182651535e-34
1.711905372403239150e-34
1.456838145148744243e-34
1.193937605179082327e-34
9.915857910947173938e-35
8.579297051046677562e-35
7.076376044720551058e-35
5.004762042935961580e-35
3.732787237533228126e-35
2.895523421539975459e-35
1.951325959508794038e-35
1.415923853934491132e-35
9.919288592843314353e-36
6.779987118981389755e-36
4.634974630308905688e-36
3.174789821960536301e-36
2.190722584299286584e-36
1.528353207437565080e-36
1.085303124960499618e-36
7.857306242902438298e-37
5.808731974683310923e-37
4.376337999350595491e-37
3.343939021997348650e-37
2.573427678944400585e-37
