# bin_7_3
4.922757485134650672e-15
5.445399960156269895e-15
5.895646903255382860e-15
6.213031776573464704e-15
6.330281757514816451e-15
6.186142442288905486e-15
5.715670580443472298e-15
4.993483722605557240e-15
4.142561678129178993e-15
3.395378920925694510e-15
2.888825481604908789e-15
2.476056004937004897e-15
1.884189599660940511e-15
1.319254083448877538e-15
1.062506535192833908e-15
7.352856326867519332e-16
5.490604038790472096e-16
3.799849505440856591e-16
2.712010684614140757e-16
1.934987949482892394e-16
1.388350332916663765e-16
1.008940924150579119e-16
7.446434849578889487e-17
5.602526029818688131e-17
4.286521300103391658e-17
3.319955501850562503e-17
2.588116971749889794e-17
2.016167957590206656e-17
1.558736025345249955e-17
1.188682030366845564e-17
8.898388797619503099e-18
