# bin_15_9
3.329587096103544092e-15
3.804453117261705191e-15
4.287362901432153096e-15
4.746886837734792109e-15
5.141888156855249343e-15
5.418963409110391479e-15
5.518707464782000417e-15
5.387290426022432309e-15
4.967485556490423106e-15
4.331007056021631553e-15
3.585619158498930451e-15
2.940094041700779061e-15
2.510175622993546187e-15
2.151812369219069238e-15
1.619956228552157716e-15
1.129061214655409609e-15
9.166525428957556907e-16
6.146346296196320235e-16
4.612097783346188755e-16
3.097244742977208831e-16
2.121514391581649827e-16
1.451811461574931069e-16
9.852738728899192056e-17
6.663603750521590653e-17
4.516109081266443586e-17
3.098356371467472789e-17
2.158709282701282145e-17
1.533805624445754826e-17
1.114612366200473839e-17
8.278216727036817081e-18
6.259595371597280783e-18
