# bin_13_5
6.453868347818071114e-21
7.326048602232287597e-21
8.186406702948394821e-21
8.971138852379097475e-21
9.594742195872721259e-21
9.949985343358053912e-21
9.949182877159478151e-21
9.456377816129246474e-21
8.484868533763794230e-21
7.195661965041090417e-21
5.892433293234666321e-21
4.906703840376392518e-21
4.248752491156824251e-21
3.477211736293019705e-21
2.442261662129816981e-21
1.844061744477321715e-21
1.411446832805133988e-21
9.606385550335471606e-22
6.882821534660774375e-22
4.852447879309411014e-22
3.323470490997198346e-22
2.273003110905638900e-22
1.561341702333785147e-22
1.081081326656704580e-22
7.576244178805975879e-23
5.406903744716237142e-23
3.934902284080689437e-23
2.923363489689242139e-23
2.211305524481628261e-23
1.694097257233199898e-23
1.305107642107439160e-23
