# bin_13_7
3.998423373277425855e-16
4.546759857293118245e-16
5.092203722286574386e-16
5.595742170937772296e-16
6.005279624221711705e-16
6.255025403304752742e-16
6.286424845898204734e-16
6.017887379095674049e-16
5.436632046029473320e-16
4.642792254107200993e-16
3.808381654148764718e-16
3.154915219226728830e-16
2.726888278648238754e-16
2.265967291830218943e-16
1.614457295180970216e-16
1.189629145557650430e-16
9.344960330771181386e-17
6.242568927803911951e-17
4.584324310068218349e-17
3.190467669398016869e-17
2.176637706718035500e-17
1.487836837151552815e-17
1.016447081003956731e-17
6.990257911229085766e-18
4.854887519966391725e-18
3.430216739965835620e-18
2.470189582043573204e-18
1.816803728164066611e-18
1.362980967729463961e-18
1.038438646222835883e-18
7.981474084215450715e-19
