# bin_8_5
6.900644628110911387e-13
7.716278133025710444e-13
8.465900692449686114e-13
9.070373281123667274e-13
9.430140619370849736e-13
9.458639948108963484e-13
9.032903413578215149e-13
8.143540065854146186e-13
6.940896167991595588e-13
5.691344944854375669e-13
4.720534250319364731e-13
4.078189605850469733e-13
3.373728114795636756e-13
2.401835478602708827e-13
1.782435194945855555e-13
1.392870697120313274e-13
9.435949953196443554e-14
6.938580316237578373e-14
4.905510540606024929e-14
3.420774713468579618e-14
2.404243331158161865e-14
1.703207663461905303e-14
1.223068048604279059e-14
8.927018560009971121e-15
6.645767671305676361e-15
5.035015826324322610e-15
3.869014122545927263e-15
2.998218653182096748e-15
2.326297312047687712e-15
1.794365935545531187e-15
1.367279048679825672e-15
