# bin_13_8
1.949764767321788476e-14
2.219267576071898273e-14
2.488574886282960023e-14
2.738783930167159454e-14
2.944734513906073649e-14
3.074528228954886356e-14
3.098371444554418812e-14
2.977693478528004798e-14
2.700517681455797099e-14
2.315412556162735992e-14
1.901751267320195996e-14
1.571395202890550924e-14
1.355920687069377818e-14
1.135239396814957364e-14
8.165408335799858212e-15
5.937332704593082755e-15
4.721036817090063771e-15
3.131996743915067178e-15
2.325743612386326664e-15
1.606295012346619803e-15
1.094055746709260668e-15
7.481584219805526469e-16
5.099620716925896510e-16
3.494352608249448622e-16
2.414801933881994928e-16
1.696478085850738423e-16
1.214178180467808739e-16
8.875825376182272543e-17
6.623860323011809216e-17
5.027517682253501816e-17
3.856560850152011687e-17
