# bin_12_3
1.036829109040133818e-25
1.171994565267127533e-25
1.302800779079138663e-25
1.418564671202590451e-25
1.505110684473293949e-25
1.545351114819358993e-25
1.526110775919108390e-25
1.427176586876071629e-25
1.261253684748476011e-25
1.054719444807374183e-25
8.627875085760957620e-26
7.278707618435170128e-26
6.293052538896843473e-26
4.940229503015942468e-26
3.418298943939290915e-26
2.710683023168934987e-26
1.935946439325489432e-26
1.397295954289347960e-26
9.540485634862508218e-27
6.775653538222858154e-27
4.695482410203223218e-27
3.246761253903103285e-27
2.261959040892595745e-27
1.590546615026229365e-27
1.137033260968174030e-27
8.287572315435489885e-28
6.159012774122925311e-28
4.660934856961656592e-28
3.573870551822083626e-28
2.758162538545048271e-28
2.126442549381112407e-28
