# bin_12_2
4.871424403565813435e-25
5.503841520151679957e-25
6.114573005583134321e-25
6.653157279197559478e-25
7.052809767129580768e-25
7.233679906469494012e-25
7.133402281662310782e-25
6.659277449271513442e-25
5.875384438812334519e-25
4.906792456719380169e-25
4.014463678258768818e-25
3.391536731499786265e-25
2.930091283764877741e-25
2.289036807473183142e-25
1.584188793344736614e-25
1.261061332729650721e-25
8.940014333159090476e-26
6.491981032176274015e-26
4.423026430058980804e-26
3.135990563471279155e-26
2.176262103374508668e-26
1.507373200207523832e-26
1.051675500607818273e-26
7.407418273874695138e-27
5.306312684055259510e-27
3.875847321640868950e-27
2.886160430603549578e-27
2.187726496989971200e-27
1.679288354988545739e-27
1.296546489270208756e-27
9.993618292707952712e-28
