# bin_12_12
4.666260496818838147e-06
5.326565581463474765e-06
5.995236143043385167e-06
6.627893332967179121e-06
7.166203523233056313e-06
7.534969146315723437e-06
7.653773027740866665e-06
7.442773874507025464e-06
6.833415120807658072e-06
5.932559839761286390e-06
4.899766075563524187e-06
4.023495623899363914e-06
3.445856242672423663e-06
2.939922480725171403e-06
2.186640077019311040e-06
1.535951428277677495e-06
1.247023079431008961e-06
8.281251958583161456e-07
6.236671097974271712e-07
4.214120654285154365e-07
2.873614075250369413e-07
1.967809855075483811e-07
1.336951903372212150e-07
9.069639514058266424e-08
6.175466465654063546e-08
4.262244510655186341e-08
2.990411567047250404e-08
2.141077543334596675e-08
1.567614387964969472e-08
1.171834156983042596e-08
8.902548653593351594e-09
