# bin_6_1
4.092939655201840974e-14
4.458182389936183126e-14
4.735405653623683688e-14
4.872101341503887607e-14
4.825321224869380115e-14
4.533459525785461740e-14
4.024894109988915894e-14
3.382445697411477928e-14
2.768335804583147104e-14
2.322772663974897330e-14
2.004580343150751657e-14
1.598047449169240946e-14
1.121023349339004700e-14
8.718313223320888730e-15
6.459408938331439250e-15
4.615459166304686415e-15
3.300362024384379142e-15
2.393056564103542516e-15
1.717185406161840299e-15
1.244279869568918872e-15
9.156635497340981861e-16
6.853804458505878166e-16
5.223046987264209169e-16
4.042913898638787518e-16
3.160940199746518686e-16
2.480582112985740691e-16
1.940215419547095516e-16
1.502324846961773950e-16
1.144941430202041982e-16
8.548019716262855880e-17
6.229716283611340701e-17
