# bin_12_9
3.039809693504405266e-07
3.458401992970285795e-07
3.875779068728304553e-07
4.262380806709681037e-07
4.578797996566559198e-07
4.775163822363646583e-07
4.805960151549300014e-07
4.610091208360987123e-07
4.173177010744313848e-07
3.571201624074264108e-07
2.931277633695837319e-07
2.425003090060755194e-07
2.094272632504424575e-07
1.747231383169651485e-07
1.250898617000220570e-07
9.153405888732473248e-08
7.237524072134349670e-08
4.815916979780257072e-08
3.558148485723573195e-08
2.466447178355286336e-08
1.681148188845412091e-08
1.149361043030465520e-08
7.842264442229710935e-09
5.382954564416126577e-09
3.728856780025539214e-09
2.626841225196397055e-09
1.885650480181163789e-09
1.382539570499281888e-09
1.034421775090476786e-09
7.866073138065546360e-10
6.040050858534826714e-10
