# bin_8_6
7.041350134501878662e-07
7.895357892794603483e-07
8.691577686300956188e-07
9.351120753827942232e-07
9.773750987237780465e-07
9.863079449321940653e-07
9.501728504920426098e-07
8.640909809024922294e-07
7.430186637902583003e-07
6.110828401631643490e-07
5.040507320021957994e-07
4.338519337463563660e-07
3.648694197982318001e-07
2.651564428475311986e-07
1.913231648268250023e-07
1.531138774908131165e-07
1.024149702729963147e-07
7.678866283380724747e-08
5.341661893877395929e-08
3.712901217131001641e-08
2.606812717914382843e-08
1.836976662399371049e-08
1.309160536603767696e-08
9.467941445210954638e-09
6.985021178458394061e-09
5.249490686584778674e-09
4.008385130729709856e-09
3.094645752840145881e-09
2.398852904457388811e-09
1.853526545723581952e-09
1.417966941013359976e-09
