# bin_14_13
3.983605335581022931e-06
4.561788395449646205e-06
5.154829787526884905e-06
5.726069918798977852e-06
6.227603900750417463e-06
6.596221717617926155e-06
6.756796726275226021e-06
6.650803881301968007e-06
6.192572209909785485e-06
5.449885652815534495e-06
4.540820380085763384e-06
3.715707036535377298e-06
3.147950373417651668e-06
2.718246732970467017e-06
2.103850546412818717e-06
1.452589456263632809e-06
1.165708907234474528e-06
8.105105749377442871e-07
5.939388703876450655e-07
3.970240274170282947e-07
2.767147941691414884e-07
1.884028386768116355e-07
1.270402362331277801e-07
8.537365155990251458e-08
5.731923216531643919e-08
3.881346141514466757e-08
2.662097701960253929e-08
1.857836899380103685e-08
1.325366557766177915e-08
9.677417269995992211e-09
7.219525094427817204e-09
