# bin_15_2
-2.398150691758140141e-09
-2.486123075444700405e-09
-2.485592304851026557e-09
-2.371503690811311594e-09
-2.142462503536392781e-09
-1.835645958273920105e-09
-1.517286612526763217e-09
-1.260131856811205384e-09
-1.072544496296865930e-09
-8.809405944799657385e-10
-6.544388922146279050e-10
-4.841212271419406212e-10
-3.720736172050600916e-10
-2.677217487274236469e-10
-1.969570665794317831e-10
-1.430008118873331934e-10
-1.049524193823105399e-10
-7.785167239977110744e-11
-5.867724716372537578e-11
-4.501463952501814330e-11
-3.508948735471889883e-11
-2.768686739358693137e-11
-2.196869328411900269e-11
-1.740494448509615752e-11
-1.367392694817370308e-11
-1.058558622799261806e-11
-8.032251568882115977e-12
-5.950482783666575944e-12
-4.293600181838258807e-12
-3.016146479412288634e-12
-2.065299895175229200e-12
