# bin_10_10
-2.848431242033803795e-11
-3.226764228281625470e-11
-3.596507205207357046e-11
-3.928957250621865620e-11
-4.185751515657083842e-11
-4.319512554952653179e-11
-4.293436101074160366e-11
-4.048607295534963901e-11
-3.605899246811046138e-11
-3.036555297730460606e-11
-2.484510834529029410e-11
-2.081829768518846694e-11
-1.802567325234196453e-11
-1.446847260256642310e-11
-1.006590222228143964e-11
-7.793001181698680949e-12
-5.772988855014707908e-12
-4.037942688134176914e-12
-2.818763482544737373e-12
-2.001223267004219866e-12
-1.377989740788220163e-12
-9.463789068832483876e-13
-6.545417302442185983e-13
-4.566171688255587974e-13
-3.231294181136336829e-13
-2.330366711695267986e-13
-1.713998427229158165e-13
-1.285597905676130473e-13
-9.795241780354466310e-14
-7.535505168458996008e-14
-5.810027485254867630e-14
