# bin_1_4
-3.835758035938239006e-15
-4.060468047251829335e-15
-4.162618608664954717e-15
-4.103537227966222044e-15
-3.836326485079317994e-15
-3.390749836160779788e-15
-2.841724225160952064e-15
-2.328264405615521034e-15
-1.958929043400702683e-15
-1.683028714262376884e-15
-1.327688809042074273e-15
-9.388740296486396505e-16
-7.327493434328200775e-16
-5.396151463532652121e-16
-3.908042995128828035e-16
-2.820543595747106122e-16
-2.060386828580185135e-16
-1.503634988144479914e-16
-1.112046386190993702e-16
-8.367757174952492263e-17
-6.408362512066161121e-17
-4.988370539398119139e-17
-3.928612218469587827e-17
-3.109129502738348640e-17
-2.455417627395639561e-17
-1.921728075376804646e-17
-1.481163054268114398e-17
-1.118383841629447109e-17
-8.240022589345977695e-18
-5.909721833440950284e-18
-4.124611805948778372e-18
