# bin_2_8
-7.286818411313074298e-22
-8.080864057548620757e-22
-8.776281377074903122e-22
-9.284737696757785715e-22
-9.503023595249459773e-22
-9.345871400651772453e-22
-8.699695830945874077e-22
-7.655214692022550073e-22
-6.382738773639590719e-22
-5.224171754465430076e-22
-4.419470826756502708e-22
-3.808015992310358166e-22
-2.957565814143812211e-22
-2.058294647645011172e-22
-1.641861450915082206e-22
-1.163550506695160525e-22
-8.534825438606064514e-23
-5.914002032623230483e-23
-4.243134641401082485e-23
-3.012976965560725597e-23
-2.149737430330182064e-23
-1.553592421924892758e-23
-1.139687935687878236e-23
-8.521011441843227385e-24
-6.484559668751419615e-24
-5.002325603248525947e-24
-3.891114130070501014e-24
-3.030509515250336903e-24
-2.346595031602126871e-24
-1.795021522637572959e-24
-1.349556624377589209e-24
