# bin_10_12
-1.858132422314288001e-12
-2.113784417138271930e-12
-2.368571987460759620e-12
-2.604411921903552883e-12
-2.797190836128366723e-12
-2.916407102907617030e-12
-2.934355503259343904e-12
-2.813629962245982423e-12
-2.546025184044390241e-12
-2.177945614562340108e-12
-1.787546652399176052e-12
-1.479249393584151131e-12
-1.277595356481834001e-12
-1.064970094980507001e-12
-7.619239943183291538e-13
-5.582707002575437776e-13
-4.407531719121705487e-13
-2.936283757762214127e-13
-2.166204349474552182e-13
-1.502614487311557424e-13
-1.024443945389321956e-13
-7.004143790451617863e-14
-4.780651979558758115e-14
-3.282679747804594078e-14
-2.275075817124418990e-14
-1.603587209918831775e-14
-1.151790874172851303e-14
-8.449557186991573719e-15
-6.324900958264046607e-15
-4.811100569285972331e-15
-3.694662698638515490e-15
