# bin_9_9
-3.341513942929498730e-11
-3.770505273677071340e-11
-4.182479140892714395e-11
-4.542326713172854048e-11
-4.803930614033876774e-11
-4.913635503653457120e-11
-4.827119970626219947e-11
-4.486015997973633294e-11
-3.941028913055830554e-11
-3.281109973067692283e-11
-2.686340970544709941e-11
-2.277556906893551881e-11
-1.962162119466512574e-11
-1.513908782334082576e-11
-1.050699329564379763e-11
-8.422257052921421800e-12
-5.872959809888547530e-12
-4.318429668510853743e-12
-2.938105235161504232e-12
-2.072872776204109024e-12
-1.443027380165611115e-12
-1.003374752233678975e-12
-7.025669569923948665e-13
-4.970033383528762338e-13
-3.578914478906878039e-13
-2.627895546593006127e-13
-1.966421417402982696e-13
-1.496294450126974368e-13
-1.151274001762844102e-13
-8.895091748532762051e-14
-6.850186181949039039e-14
