# bin_7_1
-3.089722064725555487e-09
-3.025014903201079773e-09
-2.821016896333818984e-09
-2.496796155254409981e-09
-2.112310738355119616e-09
-1.749884125033661734e-09
-1.464276998007320983e-09
-1.227795555243565802e-09
-9.752629418028834348e-10
-7.249938946791984479e-10
-5.442344197549736282e-10
-4.102673766022573370e-10
-2.993569829511624399e-10
-2.207994853376301646e-10
-1.628275422816482885e-10
-1.215803187524641516e-10
-9.216370075884745315e-11
-7.111079783813465699e-11
-5.577827994191876618e-11
-4.429406014491235059e-11
-3.539528322241220630e-11
-2.825589470743847312e-11
-2.237501816538504509e-11
-1.746427974740119303e-11
-1.336440980262299849e-11
-9.986841135409981300e-12
-7.270721721530532414e-12
-5.153906269461256848e-12
-3.560980201733690343e-12
-2.403668587202807888e-12
-1.589800160500119056e-12
