# bin_7_2
-1.817135893872647545e-09
-1.881538426830488670e-09
-1.878340141115873007e-09
-1.788710601105046818e-09
-1.612731711805632955e-09
-1.379327125788078282e-09
-1.139378128826524352e-09
-9.471173835830571538e-10
-8.063556053055040218e-10
-6.602973482411105125e-10
-4.890717093271225014e-10
-3.627441965135704876e-10
-2.783668620131151573e-10
-2.001812926604119504e-10
-1.473345492403668784e-10
-1.070157198803909181e-10
-7.858666312487103301e-11
-5.835310068125612026e-11
-4.403219342036995746e-11
-3.381895152121354911e-11
-2.638953589797471523e-11
-2.083793217211994642e-11
-1.654055264930601743e-11
-1.310443997507106022e-11
-1.029152534666640156e-11
-7.961568746185031764e-12
-6.035308236389333778e-12
-4.465870987208640167e-12
-3.218260362768798427e-12
-2.257870439406678576e-12
-1.544247295795132435e-12
