# bin_10_8
-1.499188926898808232e-10
-1.686543966663236958e-10
-1.864015605536199572e-10
-2.015338819603915480e-10
-2.119509561958395449e-10
-2.154015074178183864e-10
-2.096705094553223837e-10
-1.928364879020170621e-10
-1.677023527513863508e-10
-1.387440324765826739e-10
-1.139217325470578084e-10
-9.732283372898980849e-11
-8.303250087301574230e-11
-6.225922195673459280e-11
-4.382960232085774555e-11
-3.532244040215355879e-11
-2.397832742133286985e-11
-1.792610367864503945e-11
-1.227501013694958955e-11
-8.580426173791480073e-12
-6.004596957788745105e-12
-4.205243035228875562e-12
-2.969172921040969025e-12
-2.122336679005941317e-12
-1.546386694148279334e-12
-1.148614534458030457e-12
-8.683567747739887545e-13
-6.658085412377474007e-13
-5.144422581647201266e-13
-3.976875532317958590e-13
-3.053925202597966852e-13
