# bin_7_11
-7.953873483823593201e-15
-9.000991459193669854e-15
-1.001946154598980057e-14
-1.092832697799925506e-14
-1.161961836828114739e-14
-1.196115489982529632e-14
-1.185223532225593979e-14
-1.113099569277631353e-14
-9.876039421754967365e-15
-8.286879117518176175e-15
-6.778187428640902580e-15
-5.698437426991970845e-15
-4.932704854780220767e-15
-3.917587220594955277e-15
-2.714062762691081896e-15
-2.128623245301511387e-15
-1.548842517304252133e-15
-1.100210003258310673e-15
-7.578290256653387061e-16
-5.393413862904808416e-16
-3.724946661511812307e-16
-2.565389598627553734e-16
-1.780806737748049951e-16
-1.247190505606427617e-16
-8.870456190676355460e-17
-6.431422677551771956e-17
-4.755354203657273478e-17
-3.583353310032968775e-17
-2.739560816705709392e-17
-2.111473261737940362e-17
-1.628352346517596467e-17
