# bin_13_11
-8.343183576186128331e-11
-9.489346879109127174e-11
-1.063071303646095980e-10
-1.168595636486721257e-10
-1.254663452752299353e-10
-1.307565654169718437e-10
-1.314939143590261649e-10
-1.260013317437660172e-10
-1.139548801620004836e-10
-9.742889391557513027e-11
-7.996630716695733700e-11
-6.621152902383519049e-11
-5.717849551339758325e-11
-4.758534271390834125e-11
-3.403041324174708539e-11
-2.498617308604775732e-11
-1.966438728521034269e-11
-1.314138189475964661e-11
-9.664004617020323798e-12
-6.708958673212294840e-12
-4.576884068531024035e-12
-3.130052671539467598e-12
-2.138070853935564283e-12
-1.469014710809737917e-12
-1.018863472681639076e-12
-7.187271557819327845e-13
-5.166635974887538762e-13
-3.793123395841292260e-13
-2.840917789432513339e-13
-2.161561545422608487e-13
-1.659888817677421530e-13
