# bin_7_12
-3.483578974341332092e-16
-3.951434011274971258e-16
-4.411359620386927229e-16
-4.828699691364945127e-16
-5.157002885143994187e-16
-5.338237484418592753e-16
-5.326302898952547395e-16
-5.047621047303074459e-16
-4.516546766878131667e-16
-3.819813135310592552e-16
-3.126507602540380836e-16
-2.609404808466511476e-16
-2.260205173858610252e-16
-1.837108031898718382e-16
-1.284305899172307325e-16
-9.793645550398008884e-17
-7.408367314715227878e-17
-5.090229015679479412e-17
-3.608312922674878724e-17
-2.554624914545621924e-17
-1.752915819859802821e-17
-1.200007551016454076e-17
-8.263797234185043763e-18
-5.738002086928492398e-18
-4.035965914537232709e-18
-2.891852688128457790e-18
-2.113198027703749081e-18
-1.575902361647189911e-18
-1.195583525756238435e-18
-9.176143979243255871e-19
-7.073067139897414794e-19
