# bin_1_5
-1.118243024912994282e-17
-1.202221198955769660e-17
-1.256263001456202148e-17
-1.267951402158730994e-17
-1.222885919028387191e-17
-1.114500131723661964e-17
-9.607156698366001470e-18
-7.918427305545919983e-18
-6.526462470086580623e-18
-5.592726614506091340e-18
-4.706133204924340237e-18
-3.471430955682739743e-18
-2.506990928983841237e-18
-1.998074107322414339e-18
-1.380279681554740045e-18
-1.036118356769855796e-18
-7.366519654277359841e-19
-5.315702216773246093e-19
-3.877813468971215593e-19
-2.863637897721527931e-19
-2.150643231024895944e-19
-1.643026245080507427e-19
-1.275836027966190563e-19
-1.001351869550898274e-19
-7.891774329322120742e-20
-6.202617970222827500e-20
-4.828086363053387826e-20
-3.699789904648412538e-20
-2.777244193883390599e-20
-2.034366861148891736e-20
-1.451092436084359263e-20
