# bin_8_11
-1.780687032223758806e-13
-2.017533943947559994e-13
-2.249153591495444992e-13
-2.457640192238239914e-13
-2.619030833171792165e-13
-2.703637858314712232e-13
-2.688564703262449201e-13
-2.536597339801709010e-13
-2.260304544117678520e-13
-1.904058743437811565e-13
-1.557748231225561912e-13
-1.304715897017020078e-13
-1.130059408335880832e-13
-9.084193913031187506e-14
-6.316815092692614410e-14
-4.886273550465918536e-14
-3.627670587135973046e-14
-2.532379490130186460e-14
-1.768147610973011592e-14
-1.256808693663139436e-14
-8.650274029624665610e-15
-5.936432169941084427e-15
-4.104175143934429221e-15
-2.861829085314256910e-15
-2.024013259802022470e-15
-1.458808177267876166e-15
-1.072346525788346563e-15
-8.039558557704823287e-16
-6.123841518829280967e-16
-4.710821967816159809e-16
-3.632697366107466663e-16
