# bin_10_13
-2.851199135065535478e-13
-3.248996636229184984e-13
-3.648649138825612381e-13
-4.022719736967799141e-13
-4.334856056247494946e-13
-4.538702778294630919e-13
-4.588484329594134794e-13
-4.430535364895353566e-13
-4.037413352991848232e-13
-3.478697223173288771e-13
-2.862782394613231444e-13
-2.358993738036504847e-13
-2.030140909218998796e-13
-1.713664509423173495e-13
-1.248391352572586096e-13
-8.941151792203515920e-14
-7.190689630389230289e-14
-4.752897021893994100e-14
-3.562132493768187411e-14
-2.438193236512124569e-14
-1.659098240251193035e-14
-1.135419151577446787e-14
-7.725789106143503404e-15
-5.271871186842492714e-15
-3.621427200384758890e-15
-2.526451343741837476e-15
-1.794293767111244540e-15
-1.301358974324054176e-15
-9.643667711617484731e-16
-7.280168003358233423e-16
-5.566811862701447355e-16
