# bin_9_7
-1.903479676795646390e-10
-2.129375355892050112e-10
-2.337470662405142338e-10
-2.506031163487768358e-10
-2.607711744662308273e-10
-2.618073305250082731e-10
-2.504194787500910198e-10
-2.261680028762456605e-10
-1.931499989348269623e-10
-1.585540072526821227e-10
-1.314086425612144834e-10
-1.133442092371454821e-10
-9.397259355208214848e-11
-6.735371384526881324e-11
-4.969850925302191455e-11
-3.891311769884869179e-11
-2.641078461004326158e-11
-1.945195974720470801e-11
-1.368519774915446006e-11
-9.546670425923687706e-12
-6.712192423299345019e-12
-4.751881914306452635e-12
-3.406866970736328908e-12
-2.481633085197649761e-12
-1.843679609547668654e-12
-1.394170596813499391e-12
-1.069588335188948184e-12
-8.279280948509027728e-13
-6.420239827214937260e-13
-4.952245895691783748e-13
-3.775528899639294060e-13
