# bin_11_11
8.006870696635342248e-09
9.098088943477324394e-09
1.017974924571419805e-08
1.117327749232136772e-08
1.197360968134473118e-08
1.244847590783611970e-08
1.248413006389496215e-08
1.191521128986722511e-08
1.073393961823702729e-08
9.140446755452389552e-09
7.492755120588748137e-09
6.220520141290931300e-09
5.380246833186624439e-09
4.442483224035003592e-09
3.147449194929112436e-09
2.342400071050119228e-09
1.820297999848603401e-09
1.225640337451593621e-09
8.909919672711971565e-10
6.232401875216952604e-10
4.258906823352941281e-10
2.912120065881472871e-10
1.994022929960328190e-10
1.375155814447272543e-10
9.586260625085986340e-11
6.801317342243870494e-11
4.919310842953361588e-11
3.633324029699847029e-11
2.735145217729670917e-11
2.088645950201999763e-11
1.606824950298926275e-11
