# bin_2_3
1.609278530929424301e-07
1.649691363963904454e-07
1.626244024078893676e-07
1.524173611963965202e-07
1.351957660488811993e-07
1.140289666371799032e-07
9.386784881236101183e-08
7.867626654418576135e-08
6.694521277963700692e-08
5.329325330095306014e-08
3.871570753256512642e-08
2.940360476514237361e-08
2.214005780391563839e-08
1.595715385749958881e-08
1.173966013699221886e-08
8.576461016246636092e-09
6.328990140702094653e-09
4.739333974911880900e-09
3.610861033975960574e-09
2.799415180130697298e-09
2.202115399521694415e-09
1.748493492588537509e-09
1.391310389944191682e-09
1.101574241250278966e-09
8.620134816522582187e-10
6.627254858305887969e-10
4.982021870861153937e-10
3.650326337300374454e-10
2.602926669219226887e-10
1.807330278499704482e-10
1.224440570337668587e-10
