# bin_4_14
2.669883150405011577e-07
2.906114034483600957e-07
3.084279850343806034e-07
3.170995211715488517e-07
3.136422666277785308e-07
2.944677366796379638e-07
2.613306887433337533e-07
2.198582920656437923e-07
1.802951065277254298e-07
1.513212588748086052e-07
1.300202385322736896e-07
1.034380798282282317e-07
7.340007911643376189e-08
5.656821808876891792e-08
4.202246863003460164e-08
2.998824096739575400e-08
2.161771361697035484e-08
1.556966495906958347e-08
1.117692395184757358e-08
8.107742516587908946e-09
5.966998583867563660e-09
4.465737281886295440e-09
3.401695612534203915e-09
2.631538169134478852e-09
2.056004770808634276e-09
1.612159348926633628e-09
1.259921441563744139e-09
9.747999592814788792e-10
7.423893311733941329e-10
5.539478566146397987e-10
4.035930008245452916e-10
