# bin_13_13
6.879349122040125215e-09
7.855371915555966170e-09
8.845127541732302566e-09
9.783367607124890797e-09
1.058443454368544654e-08
1.113763659076532438e-08
1.132311897377018029e-08
1.102523310463616137e-08
1.013770209774625429e-08
8.814261792545628103e-09
7.286424938493498792e-09
5.980820803069198943e-09
5.116279715411196972e-09
4.371329825548706522e-09
3.265540618126115118e-09
2.288747816279854239e-09
1.856434461745039849e-09
1.238631561934191270e-09
9.305378214263430805e-10
6.275503272866321008e-10
4.288815464310220750e-10
2.935574642457705095e-10
1.993428903946771392e-10
1.350900026158501671e-10
9.183647912048560887e-11
6.325310174932916637e-11
4.427148651966106333e-11
3.161324452018841891e-11
2.308532702281884513e-11
1.721719924461935829e-11
1.305758423484252699e-11
