# bin_7_9
5.259778962099212141e-08
5.875282088622226885e-08
6.437796038627486650e-08
6.886550692546079729e-08
7.145643765514800764e-08
7.150095876753581414e-08
6.807272388207430774e-08
6.119932262647698390e-08
5.202775106339196343e-08
4.265409938349813844e-08
3.546288093647865317e-08
3.062891886487688363e-08
2.515276266164656232e-08
1.786097041769788068e-08
1.337358237109641721e-08
1.032472210727176187e-08
7.069981475038406902e-09
5.151704252062629053e-09
3.650266158576611079e-09
2.551516911185438307e-09
1.796291090894504123e-09
1.275690162650332235e-09
9.182996846206889537e-10
6.721190244303732905e-10
5.016520170171627460e-10
3.808801133449890529e-10
2.931024087472382546e-10
2.272646650810381321e-10
1.762810949924826114e-10
1.358278248535238806e-10
1.033264751259279935e-10
