# bin_3_10
3.224136031395926512e-07
3.434959954384858248e-07
3.549947395398663119e-07
3.534804496660776462e-07
3.350560516681658525e-07
3.003299112286375236e-07
2.551411287117048847e-07
2.098173915821003851e-07
1.748729669592412176e-07
1.498117604767829293e-07
1.217483345628363535e-07
8.821547130661454561e-08
6.621476255907843022e-08
5.060535465985367679e-08
3.589696922171101338e-08
2.637718900497771410e-08
1.902137874424671683e-08
1.381285000825056033e-08
1.014672740798878356e-08
7.565839070656634372e-09
5.740209276391807221e-09
4.428423711408414869e-09
3.463892091794991569e-09
2.730024890933575184e-09
2.153271455611005974e-09
1.687994026934887247e-09
1.306591917724203008e-09
9.931481971589678185e-10
7.380699925767502982e-10
5.346809862415063878e-10
3.771511985524471168e-10
