# bin_10_8
4.090923193595370328e-10
4.617871564592244668e-10
5.124737978079572743e-10
5.568721825350654415e-10
5.893461415152418607e-10
6.032678614865803624e-10
5.933055828540351732e-10
5.520629466226140768e-10
4.855732454914046234e-10
4.045491914272081998e-10
3.310970168301262112e-10
2.804617262869965251e-10
2.419143035298191640e-10
1.872634387541729429e-10
1.297250968604153470e-10
1.039418610340514975e-10
7.270220571596313361e-11
5.336948925824076725e-11
3.625159073783008570e-11
2.561469878745133812e-11
1.782119338700652119e-11
1.238232384446445149e-11
8.662217479701090752e-12
6.120364491521743000e-12
4.401232574392999367e-12
3.227325647884149193e-12
2.412032811203367511e-12
1.833719712517153720e-12
1.410214725429171036e-12
1.089541998948708941e-12
8.393888467249677552e-13
