# bin_7_7
1.320700189956952464e-08
1.471888447561782298e-08
1.608307049002026125e-08
1.714432906847711487e-08
1.771115900467190283e-08
1.762884041695144271e-08
1.666236394513985725e-08
1.487524998661539164e-08
1.255919556273837841e-08
1.028095734469728922e-08
8.592861842936235955e-09
7.430671798256510994e-09
6.004315048500418202e-09
4.210998316671056704e-09
3.227725616873066525e-09
2.429177210363378231e-09
1.694954783224807477e-09
1.211130617896047299e-09
8.667164873377106777e-10
6.084524349595168436e-10
4.294751235283446157e-10
3.066431071379645794e-10
2.221237757330079020e-10
1.637645653084406096e-10
1.230714080166747525e-10
9.399079988053411664e-11
7.263921750153227263e-11
5.644523814868280742e-11
4.378430156936853707e-11
3.367169953542188414e-11
2.552402915343776965e-11
