# bin_9_7
3.783162462543155514e-10
4.250899072846964968e-10
4.691491517755302768e-10
5.063374844729852360e-10
5.313246747536825944e-10
5.385881535746406767e-10
5.222876455348094029e-10
4.782590543776536980e-10
4.141295871246908047e-10
3.416695681077575202e-10
2.808701917360991823e-10
2.407601085755423329e-10
2.045898525849587159e-10
1.514356853716565980e-10
1.072730498629437961e-10
8.672335814051044213e-11
5.809483578827900225e-11
4.379457916937898069e-11
3.009897440298626484e-11
2.093756569690875290e-11
1.468649460472277376e-11
1.031590953262992320e-11
7.309793606309701961e-12
5.248341011100403547e-12
3.843212497180110160e-12
2.868413493285161745e-12
2.177750176841760230e-12
1.675016847949896127e-12
1.296464258600377513e-12
1.002487077824573426e-12
7.689794989900594605e-13
