# bin_8_6
3.366872451218054297e-10
3.766930579361078599e-10
4.135725149727124853e-10
4.434842225454917228e-10
4.615870556032905493e-10
4.635719812304986418e-10
4.435303263051374280e-10
4.005747562848658795e-10
3.420236070245698427e-10
2.805392943969143590e-10
2.323047631963995138e-10
2.005144727082719106e-10
1.665478012439238010e-10
1.191119893369012485e-10
8.775364240774484345e-11
6.900528272603685084e-11
4.656002838638950776e-11
3.441778565363683731e-11
2.423137708746125380e-11
1.687931258600229274e-11
1.185913177481315451e-11
8.388910996883462361e-12
6.012356834609739894e-12
4.378185691770859803e-12
3.252073418638313300e-12
2.458984144795143773e-12
1.886625464321817049e-12
1.460677686824952634e-12
1.133060559862292826e-12
8.743237661384954956e-13
6.668425045810937922e-13
