# bin_8_5
1.450963356864832351e-11
1.619873036643190590e-11
1.773778061102286336e-11
1.895838756768479814e-11
1.965015520839034539e-11
1.963863528668464440e-11
1.866187088956512389e-11
1.674345883941355508e-11
1.420146858679427768e-11
1.162832917907943054e-11
9.675264053019115964e-12
8.366808999247338948e-12
6.850713015119692430e-12
4.833726500471595783e-12
3.642565677083303068e-12
2.800141644477647683e-12
1.919613636991884736e-12
1.392295764143018402e-12
9.913950379030861216e-13
6.932077224093342696e-13
4.878280350717721646e-13
3.467549307550041263e-13
2.499922601283506734e-13
1.833165606402485567e-13
1.370773858022668630e-13
1.042510533663438904e-13
8.033451605303040245e-14
6.234373698128273376e-14
4.837378718707561177e-14
3.726535864967393815e-14
2.832946519069436887e-14
