# bin_1_4
5.186106724621916396e-07
5.057086148021297140e-07
4.694097280993156572e-07
4.135684437617567739e-07
3.487297425216987000e-07
2.887666781987945870e-07
2.419236244389087056e-07
2.023893131100920457e-07
1.596789549922970350e-07
1.184054582358580456e-07
8.912517625721418269e-08
6.698059365487816503e-08
4.887752944509677017e-08
3.607274822468365574e-08
2.663385687807344491e-08
1.992252086917555480e-08
1.513670706577179177e-08
1.170640009601110436e-08
9.201093631080966611e-09
7.317452392018856597e-09
5.851514364839134563e-09
4.670759727300943519e-09
3.695450261475238586e-09
2.879976541257312989e-09
2.199311793524945229e-09
1.639461271558314507e-09
1.190443469202778035e-09
8.416548071573113209e-10
5.801174473633288885e-10
3.907487120833585068e-10
2.579822903557287519e-10
