# bin_5_8
1.114713997739548332e-07
1.227113435922626086e-07
1.320703656041377177e-07
1.381503879929318087e-07
1.395685270270003948e-07
1.347619123337404551e-07
1.229627604302237473e-07
1.061075358789345575e-07
8.751605015732716874e-08
7.212055659977781467e-08
6.176501684178137209e-08
5.201283499296131598e-08
3.843847305497677110e-08
2.766252212049914608e-08
2.197302027907319653e-08
1.512842664281786806e-08
1.125790245775550659e-08
7.909987041238626398e-09
5.630934410824578832e-09
4.033165940805104557e-09
2.913719121406638368e-09
2.135923136332957106e-09
1.591924083631764394e-09
1.208731045828551069e-09
9.315848003770379008e-10
7.249983388395584794e-10
5.661736978096542352e-10
4.404951120209158820e-10
3.392150848828446705e-10
2.571026964923839399e-10
1.909523591705846968e-10
