# bin_3_4
1.004692315179110979e-07
1.067252209039514984e-07
1.098958143677863053e-07
1.089333399955650837e-07
1.026307355668402642e-07
9.141593660150250983e-08
7.719970144702001373e-08
6.335815243338872148e-08
5.298367264144866858e-08
4.543759494522529717e-08
3.650300373403467938e-08
2.617537776814914163e-08
1.991427191549343152e-08
1.504692878360392316e-08
1.071416652933011324e-08
7.843033058109398410e-09
5.680572120991641792e-09
4.130465614640454898e-09
3.042941576848320525e-09
2.277576048502828206e-09
1.734817383180249022e-09
1.343399426519352276e-09
1.053856852983544669e-09
8.320510042527285150e-10
6.566274521294799652e-10
5.143907930573607936e-10
3.974432899126678725e-10
3.012553822837368428e-10
2.230755203263629142e-10
1.609286939736517280e-10
1.130146721918709940e-10
