# bin_5_6
5.055630079166645590e-08
5.554354897844849348e-08
5.963268069652258347e-08
6.218432428343230552e-08
6.259519600689369208e-08
6.012819033380302716e-08
5.456049796939401967e-08
4.682327068573836107e-08
3.851526179914873042e-08
3.181863223543772815e-08
2.733550531590486689e-08
2.284188514804658910e-08
1.664610417699610957e-08
1.212355706110088640e-08
9.584582269411665291e-09
6.570570114225982060e-09
4.892656342925955550e-09
3.455638547086191177e-09
2.457194971560446326e-09
1.764086688560318815e-09
1.279033308551396993e-09
9.415350426561303707e-10
7.049518307090296647e-10
5.375504988931484062e-10
4.157035259390937637e-10
3.242468214524625073e-10
2.534396989659650527e-10
1.970910220157214690e-10
1.515231142495820640e-10
1.145378045606166696e-10
8.476957474472986769e-11
