# bin_5_1
2.115823579196348275e-08
1.801129821824802853e-08
1.497995473997989514e-08
1.223069850820130252e-08
9.846158390699201201e-09
7.821756277352695364e-09
6.108553786104285881e-09
4.677759624483175557e-09
3.537243165493220931e-09
2.675388781320790040e-09
2.030462173697738033e-09
1.545241735766103360e-09
1.186579101029943026e-09
9.203282344084651126e-10
7.204144260174886718e-10
5.678022464197407665e-10
4.488746568604881993e-10
3.543240240309031257e-10
2.779831236494586147e-10
2.158331000314367395e-10
1.652276424525724884e-10
1.243382840780624548e-10
9.177289992645426391e-11
6.634255067526881458e-11
4.694456554879027625e-11
3.252446860158400791e-11
2.208612123305031630e-11
1.472442291197983955e-11
9.657734538564365041e-12
6.246226299543828893e-12
3.992532884503291252e-12
