# bin_14_13
9.313597929299239982e-08
8.981272574924919400e-08
8.460140488825728714e-08
7.768136041884301055e-08
6.941906770922586087e-08
6.034766047519084647e-08
5.109977120588717098e-08
4.229392867450763373e-08
3.438638343067866063e-08
2.756739490426424156e-08
2.178296679758606520e-08
1.687730288566319159e-08
1.278197166685554038e-08
9.540206865869647315e-09
7.113677452759691865e-09
5.293556321507361939e-09
3.923050313577030836e-09
2.926134242597740834e-09
2.192777987677842519e-09
1.655582076241345421e-09
1.257740948334617146e-09
9.597774601021874377e-10
7.335489527015613252e-10
5.596034811368809671e-10
4.246231390034490450e-10
3.194058888416837155e-10
2.375032509241946386e-10
1.741795753864681203e-10
1.257722846950010758e-10
8.932099403432923634e-11
6.235512332675344202e-11
