# bin_7_7
6.151694856510446707e-08
5.721661437934955339e-08
5.184700521479296322e-08
4.571860137649031861e-08
3.923906785748404643e-08
3.285219080386223522e-08
2.694768399179079095e-08
2.176183064670133577e-08
1.734389626989997750e-08
1.360694815901387965e-08
1.045504908200509515e-08
7.880084424380290462e-09
5.902736649040222744e-09
4.433793039234590492e-09
3.322014385509838333e-09
2.497560863203816419e-09
1.893432965883980644e-09
1.445899985608759205e-09
1.112525326040952457e-09
8.606185261313053697e-10
6.671256158201305099e-10
5.162199397470125414e-10
3.971758352745559003e-10
3.027153562812881928e-10
2.278108879568573177e-10
1.688380336722447246e-10
1.229894107065916269e-10
8.794335681498254913e-11
6.168804537501942827e-11
4.244950467791367776e-11
2.867423307278393593e-11
