# bin_13_6
6.821545306298263813e-08
6.390867039713771111e-08
5.833569880562303185e-08
5.180264757745798253e-08
4.474080410951270493e-08
3.764913991295880182e-08
3.100002529497196886e-08
2.511116176274120205e-08
2.008201554544164745e-08
1.582443051960242015e-08
1.220719296739416652e-08
9.209989320608478017e-09
6.888995358095092077e-09
5.171227789017907088e-09
3.866865195995784118e-09
2.896708327320024796e-09
2.188405373894718441e-09
1.664903771731605576e-09
1.276898022279914780e-09
9.854827796805492268e-10
7.630303450924497243e-10
5.904919938055832383e-10
4.549318078363021035e-10
3.475916041411460741e-10
2.624731184976760359e-10
1.953309046742063448e-10
1.429483310944353921e-10
1.027187596522609252e-10
7.241275608965517252e-11
5.007242634950865597e-11
3.397801359116341591e-11
