# bin_6_4
4.617126141372727163e-08
4.186788644812609425e-08
3.694822977072151689e-08
3.173569934432989168e-08
2.658687821860031015e-08
2.181931579886132611e-08
1.762952077879962145e-08
1.406198453368328305e-08
1.104634610936732703e-08
8.501408273599398119e-09
6.419931028544967398e-09
4.822013649683955282e-09
3.635663498214528699e-09
2.737034916433713778e-09
2.070328743162943857e-09
1.580349061656044721e-09
1.216164853095343520e-09
9.432552953819239063e-10
7.354038712635492365e-10
5.742307109458779803e-10
4.472042004739037787e-10
3.459224191490680922e-10
2.647473043328057131e-10
1.998130125436053269e-10
1.483247987668072606e-10
1.080834751176027098e-10
7.722031966026581676e-11
5.406570481338887068e-11
3.710491994560817315e-11
2.498407586145245082e-11
1.652981901270251079e-11
