# bin_14_3
4.621291121499930884e-08
4.171387474437549720e-08
3.661271223649069811e-08
3.126207865762700068e-08
2.604596875184533694e-08
2.128650107982623490e-08
1.715631662759724654e-08
1.365613603973759814e-08
1.068104069495869438e-08
8.163073691775707500e-09
6.137776661243211810e-09
4.618587146328377485e-09
3.482479003676230364e-09
2.620811136025247728e-09
1.990326416624397379e-09
1.523759402638179999e-09
1.177654424217839236e-09
9.170764721805099191e-10
7.174994261394515058e-10
5.617122846200043537e-10
4.381023881466826715e-10
3.389655526266214041e-10
2.591583842097438041e-10
1.951612565446385170e-10
1.443902786648607611e-10
1.047638592371351494e-10
7.446743431310151777e-11
5.184391508262642215e-11
3.537008754740981659e-11
2.367705286134168906e-11
1.557959133884515059e-11
