# bin_9_6
6.236504662456054871e-08
5.803758311839475420e-08
5.261424987173410929e-08
4.640830160588149031e-08
3.983448760077420247e-08
3.334785899219655011e-08
2.735085124288310106e-08
2.208741185118379235e-08
1.760723656736258912e-08
1.381595160468680094e-08
1.061185448524521970e-08
7.991966686210701330e-09
5.985523784270198018e-09
4.496869396161661325e-09
3.367055256547892958e-09
2.531644924138958827e-09
1.918914054458586626e-09
1.465582819011019519e-09
1.127824166394195328e-09
8.726783495112612871e-10
6.767024929176944026e-10
5.238302931841685807e-10
4.031931375210515891e-10
3.074199742914923549e-10
2.314309179010062773e-10
1.715687326376603253e-10
1.250023058067437591e-10
8.939023615978565972e-11
6.270100961660229219e-11
4.314018207468652606e-11
2.913337414901487137e-11
