# bin_5_2
1.408527092471275653e-13
1.526636290215445102e-13
1.611613849314670348e-13
1.645982966103911388e-13
1.614325686562570392e-13
1.498741411354966696e-13
1.315532010823484481e-13
1.095538290180447413e-13
8.971293778842205723e-14
7.592806073237618642e-14
6.518649531287232396e-14
5.043066931804137080e-14
3.538011033371140801e-14
2.814665320055434375e-14
2.006517410064079907e-14
1.477742798684324881e-14
1.042440445320231017e-14
7.558862000387006837e-15
5.464732571216139807e-15
3.989194176668254329e-15
2.959047972230003877e-15
2.232468615808258619e-15
1.714433386078533110e-15
1.334964148738866357e-15
1.047635641857046014e-15
8.231593608612117422e-16
6.430065467643953907e-16
4.961292145072575411e-16
3.760456024028094470e-16
2.787758395591277533e-16
2.015105329860253363e-16
