# bin_12_11
2.787174415749414984e-11
3.177279996204713564e-11
3.569975262790366116e-11
3.938512605434251885e-11
4.247563705173848006e-11
4.451984256637151962e-11
4.506158589580806686e-11
4.359082034881720124e-11
3.979755038916155141e-11
3.435519091251698514e-11
2.828975020975244126e-11
2.327796322350253707e-11
2.000364284993598055e-11
1.694153251189263521e-11
1.241130291242686025e-11
8.829566782032353188e-12
7.130495961940676112e-12
4.709502496663195723e-12
3.540220599593674966e-12
2.413186152249098773e-12
1.641653093905850992e-12
1.123795138218090654e-12
7.641855467808883663e-13
5.205008789466924182e-13
3.565920183503157109e-13
2.479923531568674883e-13
1.755114699917376620e-13
1.268341864522213594e-13
9.368085721044282236e-14
7.053787014560781978e-14
5.385038998464707998e-14
