# bin_14_5
9.368301075415563563e-23
1.065564599846448037e-22
1.193790127077412277e-22
1.312384265431222172e-22
1.409190682917607367e-22
1.468846922983915692e-22
1.477445124863576730e-22
1.416127024364347796e-22
1.280887769212455946e-22
1.095202850855339502e-22
8.985149418978689892e-23
7.433864047021520554e-23
6.420301201540321006e-23
5.350283453200168996e-23
3.824841385652308681e-23
2.802891729418334294e-23
2.212367736722303606e-23
1.473235168736695475e-23
1.086702700755246702e-23
7.538879498354107772e-24
5.139220649387416484e-24
3.513086413215390058e-24
2.397704812870958581e-24
1.646502822032187222e-24
1.141257580188995153e-24
8.045670553292347467e-25
5.780210929563792737e-25
4.241409325685097579e-25
3.175635796384633546e-25
2.416029275943888350e-25
1.855603851448582455e-25
