# bin_10_2
3.189316494305586825e-25
3.574977215676428965e-25
3.933995548794837113e-25
4.230591190879465376e-25
4.419366620175469717e-25
4.457024357828739827e-25
4.290229726567542704e-25
3.898203533620109196e-25
3.349023185370450686e-25
2.752836027043709214e-25
2.270795717987587419e-25
1.954781130318604453e-25
1.642149608670660580e-25
1.191392463884316477e-25
8.608863669932300175e-26
6.880071844894227730e-26
4.603233294297585700e-26
3.447613328604138378e-26
2.400407049591099986e-26
1.668537591205332606e-26
1.171459451542406476e-26
8.257268773456274979e-27
5.887433210439739122e-27
4.260305404056644805e-27
3.144953418794477674e-27
2.364852783610564007e-27
1.806529978193089680e-27
1.395075960518466815e-27
1.081467596236841963e-27
8.355002449193827265e-28
6.389676202944620987e-28
