# bin_14_12
1.278707927828737414e-11
1.462652974069060943e-11
1.650546969167399272e-11
1.830451223303703910e-11
1.986799909455565558e-11
2.099218306833894483e-11
2.144137598565301290e-11
2.102162167451086363e-11
1.948080990387729200e-11
1.706704727416328874e-11
1.417169404327248362e-11
1.160155852816306561e-11
9.862584180601016182e-12
8.492050075286144303e-12
6.488402325766055912e-12
4.491572023281508016e-12
3.629682837764247412e-12
2.476796063375067683e-12
1.838955702886603473e-12
1.228897935223121917e-12
8.489989828611754045e-13
5.796361572865821566e-13
3.922441528697780033e-13
2.643318404114398260e-13
1.781873922232903594e-13
1.213681720154110026e-13
8.384074038221836049e-14
5.899957913670372054e-14
4.245927339255292700e-14
3.125854973865505834e-14
2.347671392259660796e-14
