# bin_14_11
3.452517115403836386e-12
3.945558367113789966e-12
4.447342986018238833e-12
4.925334579520537395e-12
5.337031396606645754e-12
5.627182904219234964e-12
5.733752638454294389e-12
5.601981583981201981e-12
5.170413387642497930e-12
4.512073133276440806e-12
3.737039913019113135e-12
3.062233578777386115e-12
2.611486427789285912e-12
2.241109147443566251e-12
1.692796691552075823e-12
1.177225273817259479e-12
9.550832470037295404e-13
6.425770398936266151e-13
4.812193504986643699e-13
3.226276869330748616e-13
2.213298197163974708e-13
1.513989870028295019e-13
1.026901976712170165e-13
6.938919734857177918e-14
4.696388028374664573e-14
3.216463162226528144e-14
2.236516301383868728e-14
1.585564788332312940e-14
1.149693074766270956e-14
8.522154272356581404e-15
6.434664259026558602e-15
