# bin_14_13
2.647922893379682210e-11
3.031642822060668270e-11
3.424959643489415949e-11
3.803452282303404957e-11
4.135248263832948466e-11
4.378347799134939767e-11
4.482968623348862200e-11
4.410279204743030133e-11
4.103789917158527018e-11
3.609307572728565420e-11
3.005476078223134368e-11
2.458702375189018699e-11
2.083192870096516077e-11
1.798302585392722655e-11
1.390142450287380167e-11
9.596137894864954384e-12
7.705227378807044218e-12
5.347982802783724485e-12
3.922924888425174862e-12
2.621448697335183090e-12
1.825643544429175978e-12
1.243134437256278697e-12
8.384315616629905453e-13
5.635323066750895925e-13
3.784517239980867264e-13
2.563785359118831768e-13
1.759443929616621335e-13
1.228744338669636771e-13
8.772421452678385907e-14
6.410042070082574437e-14
4.784959998532291661e-14
