# bin_12_5
4.543254632782361016e-19
5.144372411047905170e-19
5.730630417461611846e-19
6.256117901079207767e-19
6.659503275330536515e-19
6.865163456991040151e-19
6.815488770107154629e-19
6.416384992377708546e-19
5.705701843756992296e-19
4.796888820657854098e-19
3.922587561571251710e-19
3.289673595693272122e-19
2.848621442380826033e-19
2.278428829747060816e-19
1.580698681170435291e-19
1.229839766564730565e-19
9.055209749078182886e-20
6.364408943191211075e-20
4.415722179705452841e-20
3.142359872665009179e-20
2.165449665260077362e-20
1.487865318392030778e-20
1.030343359481108237e-20
7.197637604069617867e-21
5.102502913465607134e-21
3.686968213075064016e-21
2.717099414807576364e-21
2.041611973892476479e-21
1.557695983209814166e-21
1.199350644452697629e-21
9.249596365935570740e-22
