# bin_10_6
7.003841696255746656e-14
7.899638035114536402e-14
8.758277921844794356e-14
9.505934679206046696e-14
1.004584683722025422e-13
1.026586863591758277e-13
1.007352604439819015e-13
9.347863693353650812e-14
8.200515286939339045e-14
6.818001532270672369e-14
5.580248257386021101e-14
4.735154042349496168e-14
4.078263005368029704e-14
3.134676357217107846e-14
2.173366251614949672e-14
1.748790402985989209e-14
1.211108642229085680e-14
8.956683059172080687e-15
6.075976837930394576e-15
4.280083752626102214e-15
2.983211503591949094e-15
2.077365442991892347e-15
1.456112757095216937e-15
1.031270975427944926e-15
7.437376424205334680e-16
5.469583300408879645e-16
4.098897287767983840e-16
3.122803581142791857e-16
2.404778088883335784e-16
1.858732675242139911e-16
1.431324539344582584e-16
