# bin_13_7
4.176241090731168545e-16
4.748441234796285624e-16
5.317412543174786387e-16
5.842392756896620763e-16
6.268999769627026907e-16
6.528604976597011742e-16
6.560190425181297327e-16
6.278761930259596511e-16
5.671016729674329027e-16
4.841754320758045876e-16
3.970366390454191916e-16
3.288071825979251270e-16
2.841468925417574742e-16
2.361205635693998371e-16
1.682128339506541505e-16
1.238827574956654311e-16
9.733138481595573638e-17
6.499027812618064983e-17
4.773435885635653732e-17
3.321010212571777726e-17
2.265371242092933984e-17
1.548354211152567616e-17
1.057694524532862860e-17
7.273108171662541873e-18
5.050686098873407197e-18
3.568188017537181897e-18
2.569311272958438646e-18
1.889541036153052181e-18
1.417449061765046924e-18
1.079876212588832756e-18
8.299644315601080548e-19
