# bin_8_3
5.631174414324301090e-17
6.262971885065523270e-17
6.826344225890751200e-17
7.254262846515096654e-17
7.465170410565833756e-17
7.395248283663107788e-17
6.946107544987512456e-17
6.164083770486146903e-17
5.174683966877575020e-17
4.231876639778209895e-17
3.552914773340190369e-17
3.071747376099905233e-17
2.445133733610584660e-17
1.702187849962143846e-17
1.329397974402908154e-17
9.764849587545584947e-18
6.950775252322955175e-18
4.881857003267159498e-18
3.511645688069263867e-18
2.476060989978975538e-18
1.753751554939256752e-18
1.258345019949232710e-18
9.162269705471218846e-19
6.794639005285856738e-19
5.133761683883247920e-19
3.938107067921493644e-19
3.052746370047407524e-19
2.375268833245567891e-19
1.841745594504684871e-19
1.413634096958712579e-19
1.068175656034530970e-19
