# bin_7_3
5.140690866117668544e-15
5.685703387187986436e-15
6.154893401222323693e-15
6.485166815577190007e-15
6.606364162852890584e-15
6.454766792946021118e-15
5.962604433893584998e-15
5.207999487895814031e-15
4.319293836283084750e-15
3.539110864717520621e-15
3.010357279330823462e-15
2.580092271715740587e-15
1.963366869754881948e-15
1.374107648917162571e-15
1.106516316551036179e-15
7.657717269139660819e-16
5.716591814645032647e-16
3.955768411761932738e-16
2.823188928942328651e-16
2.014157848616011549e-16
1.445056309265521914e-16
1.050106639419585119e-16
7.749973868006598912e-17
5.830728170902451718e-17
4.461029661106226620e-17
3.455030664613091223e-17
2.693337248316338855e-17
2.098064057128296299e-17
1.621986344694554151e-17
1.236862102846045397e-17
9.258652667540846670e-18
