# bin_6_3
-6.740380744622427622e-11
-7.408591167902361882e-11
-7.958243712237491191e-11
-8.303952277095169241e-11
-8.365419145020752322e-11
-8.042192510297770319e-11
-7.301323543201845724e-11
-6.268311020395604539e-11
-5.154138840548258283e-11
-4.255486468839058288e-11
-3.660376205617666780e-11
-3.066581179635934709e-11
-2.229167681183426619e-11
-1.620239247790101147e-11
-1.289548392007123639e-11
-8.764549388133764439e-12
-6.569698460607399942e-12
-4.640733668904270855e-12
-3.292297905673348302e-12
-2.363755919247349496e-12
-1.713561648987263111e-12
-1.261379790877862412e-12
-9.444794390245446678e-13
-7.203431105940550204e-13
-5.572220883316701434e-13
-4.347952610895134872e-13
-3.399973435436292380e-13
-2.645243780467683441e-13
-2.034567117915585229e-13
-1.538584642651118019e-13
-1.139102268601272441e-13
