# bin_3_15
-1.302301353231586022e-29
-1.483231542695546665e-29
-1.664559152328415339e-29
-1.833715058066198320e-29
-1.974002754877821480e-29
-2.064186225945942772e-29
-2.083853654377953145e-29
-2.007804138125062058e-29
-1.825699766441028380e-29
-1.569528732000918368e-29
-1.290480145508244402e-29
-1.064690915606286458e-29
-9.173836971919658317e-30
-7.715850790422958269e-30
-5.588225966349165875e-30
-4.029505191383633356e-30
-3.224804577974341782e-30
-2.134344562450442811e-30
-1.593450545896712399e-30
-1.095080355610272167e-30
-7.454204254103670046e-31
-5.099542774996608570e-31
-3.472396970318125445e-31
-2.373853541034941650e-31
-1.635100702767964567e-31
-1.144317557445781650e-31
-8.155554280407714171e-32
-5.936417102604210807e-32
-4.413458141216719158e-32
-3.340169766747070757e-32
-2.557918618105361496e-32
