# bin_5_7
-2.177909097320549516e-09
-2.425544320327087990e-09
-2.648091051627551915e-09
-2.819817367465831234e-09
-2.909061610047257055e-09
-2.890801095161884626e-09
-2.726075535907634911e-09
-2.428433424028543284e-09
-2.045784251604656823e-09
-1.673921035591684055e-09
-1.401543210341368889e-09
-1.212443143170893409e-09
-9.744715460382692496e-10
-6.806485019858317899e-10
-5.259640355009746954e-10
-3.922461797730159606e-10
-2.757288613399120583e-10
-1.954945417194733661e-10
-1.403971843136174166e-10
-9.872974218024390682e-11
-6.975971477633256955e-11
-4.990751327854174054e-11
-3.622908935792598636e-11
-2.677585576223213742e-11
-2.016819517588014529e-11
-1.543234545733654311e-11
-1.194327620360892661e-11
-9.287247184246417968e-12
-7.204206894269765562e-12
-5.536892286648750325e-12
-4.192350219026389324e-12
