# bin_5_1
-6.824356540388405126e-14
-7.349136523829748489e-14
-7.695665455177440597e-14
-7.786283504019200540e-14
-7.535366000660738478e-14
-6.892467333012398453e-14
-5.962665542255989160e-14
-4.922726075470665792e-14
-4.050552731319100054e-14
-3.464255008143116370e-14
-2.930324395263096801e-14
-2.180277261956636178e-14
-1.561970566259424476e-14
-1.249511947325285087e-14
-8.646027545704698367e-15
-6.492901316531252396e-15
-4.599593341975182723e-15
-3.320366248177027091e-15
-2.418864800385527711e-15
-1.782506454350979772e-15
-1.335535199139565430e-15
-1.017880127915569028e-15
-7.888199966618179996e-16
-6.182722398209734187e-16
-4.869603515098678062e-16
-3.827823600904069099e-16
-2.982093768863939933e-16
-2.288569297661027868e-16
-1.721346966138935888e-16
-1.263938002453649786e-16
-9.038988690517247139e-17
