# bin_14_9
-1.461585567176626645e-11
-1.667732638748641364e-11
-1.876108788302690287e-11
-2.072780131894965420e-11
-2.239387331845942037e-11
-2.352328699792570962e-11
-2.386850240104573290e-11
-2.317216937501900763e-11
-2.123738477099738536e-11
-1.840469232003193965e-11
-1.518669236234002894e-11
-1.247964697775201769e-11
-1.070096293015889137e-11
-9.109537923994034062e-12
-6.741615520786149247e-12
-4.754253753921866451e-12
-3.855692041538475148e-12
-2.553876396431415570e-12
-1.923689328748299747e-12
-1.303595025735176131e-12
-8.879324605071013180e-13
-6.080412186828455953e-13
-4.132320264275632402e-13
-2.806923336787779950e-13
-1.915075231900159244e-13
-1.325059793460734872e-13
-9.323371360922529074e-14
-6.696039551477726513e-14
-4.917099998218501226e-14
-3.684809511865278753e-14
-2.804210592008311040e-14
