# bin_4_3
-1.362706161448077102e-08
-1.473468807510220512e-08
-1.550841831064783112e-08
-1.578419729456083677e-08
-1.540423332892553996e-08
-1.422168186842024209e-08
-1.241629266127256257e-08
-1.030574607668462393e-08
-8.454240833147318970e-09
-7.186055284098806042e-09
-6.138850354565591814e-09
-4.679117997078847703e-09
-3.304812443524258832e-09
-2.640222993085393291e-09
-1.857371950038775920e-09
-1.380915295402433143e-09
-9.743763022599785732e-10
-7.053300473847828790e-10
-5.115327626769299442e-10
-3.747981260963265312e-10
-2.790920285702643342e-10
-2.113902538343092716e-10
-1.629207218556236968e-10
-1.271953286050244588e-10
-9.997074818837903376e-11
-7.857333707464109533e-11
-6.132153510467081633e-11
-4.722198213499793729e-11
-3.569044345005329247e-11
-2.636398203750776944e-11
-1.898023451941208879e-11
