# bin_10_4
-1.051683966274321606e-15
-1.182356880290144143e-15
-1.305769164742741285e-15
-1.410427739739101943e-15
-1.481554074121483318e-15
-1.503575950728791128e-15
-1.460539119037159791e-15
-1.339875468256694924e-15
-1.162334632568309684e-15
-9.598510801649318925e-16
-7.884400445053094090e-16
-6.750330316893404935e-16
-5.750227517967346653e-16
-4.277420870285062615e-16
-3.017371423695047260e-16
-2.442964079334234051e-16
-1.639641092880320103e-16
-1.236039042496725970e-16
-8.470918514903132979e-17
-5.897057235757462245e-17
-4.134676998711810962e-17
-2.901639439867463113e-17
-2.052988879835891391e-17
-1.471227570241513269e-17
-1.075156312636075381e-17
-8.009198899858723591e-18
-6.070882075178374275e-18
-4.664232303204757115e-18
-3.608290324632473208e-18
-2.790402241455437559e-18
-2.141832761752499295e-18
