# bin_1_9
-8.071639005798639413e-25
-8.993553818266925682e-25
-9.824276579229118274e-25
-1.046874321183329174e-24
-1.080958249758026972e-24
-1.075347485748023088e-24
-1.015532650488991938e-24
-9.058874729747875256e-25
-7.641219376640175481e-25
-6.253197482467450043e-25
-5.229812556678001527e-25
-4.524382766953435295e-25
-3.649226888820704152e-25
-2.553043076068150362e-25
-1.964137799673806735e-25
-1.473143117297162228e-25
-1.030668486490119124e-25
-7.336508167104563274e-26
-5.262568995086463581e-26
-3.696848340509355006e-26
-2.609938581921860771e-26
-1.865030585191836225e-26
-1.352217404816720482e-26
-9.980013174788493813e-27
-7.507625881339614235e-27
-5.738674098611019461e-27
-4.438028867314115087e-27
-3.449996281310689147e-27
-2.676440701820845163e-27
-2.057947542308389071e-27
-1.559370745899930523e-27
