# bin_7_4
-1.209135467868653457e-10
-1.342153377026805916e-10
-1.459337680858571965e-10
-1.546107207619549900e-10
-1.585181014656526354e-10
-1.562589511025211598e-10
-1.458648740939925428e-10
-1.286984637125148491e-10
-1.075278243641745882e-10
-8.798337108367414342e-11
-7.426516571899808032e-11
-6.408035835081509123e-11
-5.015238945655992092e-11
-3.487596791673626342e-11
-2.766868780514973413e-11
-1.981539546911288245e-11
-1.441228881312319930e-11
-1.001382899082805474e-11
-7.196194209056921955e-12
-5.099775009609567856e-12
-3.630755290666895585e-12
-2.618578194211054543e-12
-1.916843987178443653e-12
-1.429854093915982748e-12
-1.085958867807135778e-12
-8.364634937452928350e-13
-6.500884334613376288e-13
-5.062349441453116353e-13
-3.921975773978792623e-13
-3.003431557418616118e-13
-2.261633437911621605e-13
