# bin_1_14
-3.410799976398702304e-37
-3.875102748674531754e-37
-4.335003988899425799e-37
-4.757015326811347503e-37
-5.096315452588213830e-37
-5.296483890278134976e-37
-5.309498839215886704e-37
-5.064333932323841460e-37
-4.559566767247234414e-37
-3.880069825393034246e-37
-3.179937129721373459e-37
-2.641119288938444176e-37
-2.285014234477071218e-37
-1.884557040272496099e-37
-1.332891988779762972e-37
-9.942244529519024659e-38
-7.710692845574835523e-38
-5.197523710156983118e-38
-3.770780112076261386e-38
-2.641555492933746045e-38
-1.805618058358820568e-38
-1.234427566124525572e-38
-8.455789449353503585e-39
-5.834923574028517361e-39
-4.070863004446057364e-39
-2.890830216130981578e-39
-2.092935451549302396e-39
-1.547286411765407445e-39
-1.165739451973938336e-39
-8.907260209645708089e-40
-6.854675711277932283e-40
