# bin_12_3
-3.318454391284238078e-23
-3.751198816946260228e-23
-4.170061619443706524e-23
-4.540863908366247722e-23
-4.818248412400880363e-23
-4.947533452583914808e-23
-4.886467611592334544e-23
-4.570311263778375066e-23
-4.039580100689719282e-23
-3.378446932768163699e-23
-2.763630487349106963e-23
-2.331209882087653796e-23
-2.015628155258261322e-23
-1.582970990405136740e-23
-1.095307953768183292e-23
-8.682616234484074753e-24
-6.205058492995990176e-24
-4.476181482738830208e-24
-3.057078854975969418e-24
-2.171339668851945539e-24
-1.504564995159719172e-24
-1.040220673937368998e-24
-7.246197370678668234e-25
-5.094758617785717522e-25
-3.641532848058754231e-25
-2.653807680560203202e-25
-1.971923433921809247e-25
-1.492106111804711370e-25
-1.144013275944010513e-25
-8.828749774735789933e-26
-6.806772746906749679e-26
