# bin_12_2
-1.604491294848716821e-27
-1.812588647838771227e-27
-2.013455543355957315e-27
-2.190450910545455220e-27
-2.321565473315879264e-27
-2.380546320723990500e-27
-2.346765042245746759e-27
-2.189895131616911763e-27
-1.931410846042276758e-27
-1.612506625485805556e-27
-1.319298993274288404e-27
-1.114950566180949440e-27
-9.631001766252425104e-28
-7.515542576072734302e-28
-5.201380592617901767e-28
-4.144176689728549400e-28
-2.932940288380212720e-28
-2.132825392768370103e-28
-1.452338879781659859e-28
-1.029357659512530071e-28
-7.145734900044249530e-29
-4.951424723276581758e-29
-3.455722531960749622e-29
-2.435015222466183777e-29
-1.745187243339781713e-29
-1.275364290838949612e-29
-9.501605772979854655e-30
-7.205109372826771994e-30
-5.532055526268042995e-30
-4.271660477018490129e-30
-3.292402013606442929e-30
