# bin_3_13
-2.097535287103508346e-25
-2.377879908528832069e-25
-2.652750027512107392e-25
-2.901170813800859970e-25
-3.095041704633431415e-25
-3.199390832646308023e-25
-3.186899060582255480e-25
-3.013384120801222335e-25
-2.690786177175875112e-25
-2.271099618436816568e-25
-1.858412862604588237e-25
-1.553807314589578420e-25
-1.345901071766854530e-25
-1.087990571365473387e-25
-7.584054253717732671e-26
-5.825557806324599585e-26
-4.365900864492021805e-26
-3.023431926652637711e-26
-2.126526341030900716e-26
-1.508997752937442538e-26
-1.036999898639995136e-26
-7.107144851286022235e-27
-4.903959906951564524e-27
-3.412335930429157114e-27
-2.406797756610558329e-27
-1.729648650489380135e-27
-1.267736996319356871e-27
-9.479785181774152416e-28
-7.206871898403330073e-28
-5.537935173054489398e-28
-4.269786478403734483e-28
