# bin_4_8
-3.931176640531325225e-12
-4.384460661614517350e-12
-4.795179653074519639e-12
-5.117347433628354420e-12
-5.293791159097821558e-12
-5.278417001863398737e-12
-4.999878480977530047e-12
-4.472730435922623033e-12
-3.782834374643374538e-12
-3.096645872512527927e-12
-2.583795918730408808e-12
-2.235433549500583977e-12
-1.816307139590417003e-12
-1.274993811826721210e-12
-9.718772590682975726e-13
-7.376227871850755537e-13
-5.109702382143776214e-13
-3.668002139306327333e-13
-2.624561940673736595e-13
-1.839671897938599283e-13
-1.296549313019139916e-13
-9.242459928155498134e-14
-6.684166377171163023e-14
-4.919030363778608273e-14
-3.690596613353786717e-14
-2.814807746724157676e-14
-2.173545646652827347e-14
-1.688546399009908934e-14
-1.310196833321995162e-14
-1.008390139906167774e-14
-7.652879641838662688e-15
