# bin_11_6
-1.122552219659120937e-12
-1.269589806003068346e-12
-1.412231691891070607e-12
-1.538981206550567325e-12
-1.634541909203152836e-12
-1.680326607568157977e-12
-1.662118282276937670e-12
-1.557512488726136644e-12
-1.379080938942886880e-12
-1.155062017398010530e-12
-9.447670964540790302e-13
-7.957156874660337958e-13
-6.884501357818321086e-13
-5.434964419468559462e-13
-3.761198491850786959e-13
-2.968090037678476283e-13
-2.138547248023543650e-13
-1.532104302447924714e-13
-1.049642237295794520e-13
-7.466109427451396397e-14
-5.165557913271787517e-14
-3.564750696264089081e-14
-2.479305896551089629e-14
-1.740076644177118008e-14
-1.240948498430861995e-14
-9.022640111326790085e-15
-6.689501408916206167e-15
-5.052507619125403491e-15
-3.869037319031903529e-15
-2.984318788529142974e-15
-2.301286585771867847e-15
