# bin_7_12
-2.991687108381249320e-12
-3.395535660486799312e-12
-3.793654598666165129e-12
-4.156442539960183229e-12
-4.444216846587594841e-12
-4.607232640397380089e-12
-4.605088927864075213e-12
-4.374568088557383316e-12
-3.923243285132720998e-12
-3.325371834865798352e-12
-2.722828500069261799e-12
-2.268287425964650870e-12
-1.964284041222368186e-12
-1.605659519826999428e-12
-1.126631982243415794e-12
-8.522591864427485523e-13
-6.509589119469474295e-13
-4.437620387175940937e-13
-3.173246934957311606e-13
-2.239158768705303034e-13
-1.534114280402347032e-13
-1.049327930779319313e-13
-7.211085978340345015e-14
-4.995534443826039891e-14
-3.503237295096050480e-14
-2.501952055547005918e-14
-1.822185506405613102e-14
-1.354714658361487530e-14
-1.025314659733345489e-14
-7.857813540434794823e-15
-6.054301195406662105e-15
