# bin_13_13
-1.284349480977787553e-08
-1.469142624651037816e-08
-1.657905630010635112e-08
-1.838648610696978523e-08
-1.995717077296693967e-08
-2.108621038593540032e-08
-2.153723281293052140e-08
-2.111308694220573082e-08
-1.956299320099604030e-08
-1.713755071112733125e-08
-1.423114030292322509e-08
-1.165474164954253141e-08
-9.913052235371251415e-09
-8.533998868124135348e-09
-6.514089895190670342e-09
-4.512731545049904782e-09
-3.648970320257533422e-09
-2.486588975591801692e-09
-1.848433183897511778e-09
-1.235649932702874966e-09
-8.531529292848281406e-10
-5.826466657578493124e-10
-3.944274875664490493e-10
-2.658846077836419552e-10
-1.793156513905453494e-10
-1.222061973842079518e-10
-8.447395803318639945e-11
-5.948852556752061900e-11
-4.284262445851215259e-11
-3.156206785928858740e-11
-2.371732930192982800e-11
