# bin_11_13
-4.382327444058939153e-09
-5.002638697148467723e-09
-5.630895145374639868e-09
-6.225446649062113268e-09
-6.731530833038288977e-09
-7.078538172205697532e-09
-7.190953984125831535e-09
-6.993602666239742842e-09
-6.422042797961712765e-09
-5.576254632541219816e-09
-4.605882408808821459e-09
-3.781942037632768175e-09
-3.238597697024676888e-09
-2.763710717951031917e-09
-2.056452386848008386e-09
-1.444012123827789445e-09
-1.172481458752156023e-09
-7.787912851751937437e-10
-5.865061406016959795e-10
-3.962018652008015283e-10
-2.701957723705619446e-10
-1.850242607698840360e-10
-1.257036368934258580e-10
-8.526341742955061372e-11
-5.804519155060306703e-11
-4.005243581232305619e-11
-2.809321355872238251e-11
-2.010826139593084026e-11
-1.471828629872700919e-11
-1.099966521045038476e-11
-8.355160745507579410e-12
