# bin_14_12
-4.853613032672793654e-09
-5.552501781578890584e-09
-6.266678509035492408e-09
-6.950883775946866465e-09
-7.546030408217008688e-09
-7.974722628089334249e-09
-8.147412359776273969e-09
-7.989921274420234118e-09
-7.406541098180418428e-09
-6.490989352742108630e-09
-5.391706173913786752e-09
-4.415196415780449529e-09
-3.754083614479973056e-09
-3.232870903871732699e-09
-2.470746028579713382e-09
-1.710943837250850378e-09
-1.382716069995282203e-09
-9.438182204059745424e-10
-7.008343497578930126e-10
-4.683921176741596163e-10
-3.236652299457549734e-10
-2.209887249787118461e-10
-1.495557785495960962e-10
-1.007873338902845544e-10
-6.794367645783548886e-11
-4.627750967903084324e-11
-3.196644441230279596e-11
-2.249342543469576887e-11
-1.618596569000659059e-11
-1.191506422632794067e-11
-8.948157804917207517e-12
