# bin_6_5
-1.089008817938945689e-08
-1.207357538178122931e-08
-1.310834218124298366e-08
-1.386219933425096272e-08
-1.418162862008666001e-08
-1.393787797862861060e-08
-1.296439460058109227e-08
-1.139978834017012544e-08
-9.500217287646804149e-09
-7.776967702279820992e-09
-6.582740428771044126e-09
-5.668802397068633258e-09
-4.394003963677124485e-09
-3.060080380006756909e-09
-2.442923616671638290e-09
-1.727510995970760297e-09
-1.269173953330174232e-09
-8.795368005318539294e-10
-6.307320767770162821e-10
-4.481020943043888842e-10
-3.199152722083726671e-10
-2.313487764015462970e-10
-1.698379307255827603e-10
-1.270765700060412227e-10
-9.676937188054663288e-11
-7.468746908361837834e-11
-5.811363139678547540e-11
-4.526378424772795382e-11
-3.504412926033751523e-11
-2.679863951804099042e-11
-2.013903310139581744e-11
