# bin_3_3
3.176436796890354505e-08
2.794777591851784378e-08
2.394495340220182447e-08
2.002174091048060403e-08
1.640831957517813265e-08
1.324190547918548389e-08
1.054878611356160993e-08
8.276328988275207599e-09
6.367966412871621413e-09
4.816834373893016395e-09
3.628448030674188522e-09
2.744761891224263996e-09
2.077298719300663395e-09
1.581539355899893119e-09
1.215966255281877774e-09
9.429278517150166289e-10
7.367880839484985993e-10
5.782766860969799526e-10
4.540510877286452674e-10
3.550967511957537772e-10
2.754334550688898599e-10
2.110827049536663186e-10
1.593148072380324977e-10
1.181250197617146281e-10
8.589004775767152205e-11
6.118193800009189113e-11
4.268637651102023217e-11
2.918608907426927959e-11
1.958029124335777551e-11
1.291208460719181387e-11
8.387439181611005556e-12
