# bin_7_4
4.877836107323252411e-08
4.439276052898601402e-08
3.931680163305443199e-08
3.388151175709654886e-08
2.846247825506214826e-08
2.340662573638592207e-08
1.894144201008292067e-08
1.513252182152567841e-08
1.191261348627500378e-08
9.188630106413379414e-09
6.945311042555154665e-09
5.212257967379683523e-09
3.926753023748056811e-09
2.953527147710992883e-09
2.229249329276903982e-09
1.698292274464303397e-09
1.304080028091717527e-09
1.009604261717624062e-09
7.860897359819262321e-10
6.133909153725242325e-10
4.777091880493277983e-10
3.697727678901522256e-10
2.833678477969069176e-10
2.142530614334855377e-10
1.593955657573958359e-10
1.164415007769136486e-10
8.341464344471387933e-11
5.856257586422361770e-11
4.029886182702123243e-11
2.720303242893699404e-11
1.803880835241667784e-11
