# bin_9_7
6.782288929944432391e-08
6.357363860068696157e-08
5.808008571508714949e-08
5.164017478011892638e-08
4.467194672868916389e-08
3.765749035156331605e-08
3.105379414109311213e-08
2.517813652945713679e-08
2.014252354197016068e-08
1.588192871342952703e-08
1.227582851059551045e-08
9.286195859934864293e-09
6.948466976207293226e-09
5.209605653538440456e-09
3.899553391874753001e-09
2.917769117186674938e-09
2.202065934138012675e-09
1.672400744265673145e-09
1.280566667898371369e-09
9.865590105427854623e-10
7.626077695771037139e-10
5.893528142262687635e-10
4.535813175401242830e-10
3.463394395472422292e-10
2.614732464315840721e-10
1.946305852046930539e-10
1.425299411538457027e-10
1.025286135714072045e-10
7.238450471675071021e-11
5.014263552938340085e-11
3.409516861733024164e-11
