# bin_15_5
6.357225276526554418e-08
5.909552211830690003e-08
5.348631023532602151e-08
4.707513313458725111e-08
4.030125000189819254e-08
3.364868380496339556e-08
2.753821069008093729e-08
2.221040952388250906e-08
1.769158802278320259e-08
1.385766077733539860e-08
1.060509383956238090e-08
7.961846546313135552e-09
5.966248876559950761e-09
4.482606503504568848e-09
3.351736845703523889e-09
2.524874814940631420e-09
1.915133545560958484e-09
1.465553678104686879e-09
1.129963183044024235e-09
8.759594966763940770e-10
6.803591633172050807e-10
5.273206965295262178e-10
4.061940163001067227e-10
3.097750514554481347e-10
2.331222479252851412e-10
1.726637717661412625e-10
1.256147539673108925e-10
8.965001815507514833e-11
6.273076826414645767e-11
4.304149738097805046e-11
2.898067261330761407e-11
