# bin_4_4
4.053418979758978278e-08
3.636951282695544477e-08
3.176069951235264293e-08
2.701514617561330701e-08
2.244665805964393344e-08
1.830493805590889364e-08
1.471537724881920636e-08
1.167493205747643656e-08
9.107939453602961465e-09
6.961216186885093270e-09
5.242725977573549250e-09
3.946091181296819697e-09
2.979403736487265841e-09
2.248354218006091243e-09
1.710488433361373934e-09
1.312324479831215424e-09
1.015585538656044907e-09
7.912711515065606479e-10
6.188102045941997080e-10
4.837968643939386388e-10
3.765194068731780475e-10
2.905071433899279508e-10
2.213999183378198097e-10
1.661608099647410260e-10
1.225166775567045416e-10
8.860742169645834812e-11
6.280138597259921989e-11
4.361453456672225797e-11
2.969649844857846230e-11
1.984856710983134657e-11
1.304550350312060682e-11
