# bin_14_4
5.542386858909196429e-08
5.086366998575159432e-08
4.541487984838300974e-08
3.942711634385577468e-08
3.332521869830313909e-08
2.753371996663499534e-08
2.236220849724668693e-08
1.793197595908117536e-08
1.418364400506874656e-08
1.099311274585861764e-08
8.326240481377641654e-09
6.240049805952393459e-09
4.695292608409669658e-09
3.525788216387074035e-09
2.650313602873071683e-09
2.011407216170649460e-09
1.538035490460428545e-09
1.186571857062092880e-09
9.215894163939045896e-10
7.183010449436711646e-10
5.595831435404993607e-10
4.338833250853003951e-10
3.334772445704495032e-10
2.531407809057035002e-10
1.892201431088370440e-10
1.389580730125128095e-10
1.000972721529652608e-10
7.066715067884547606e-11
4.889018622473895217e-11
3.316695565219031507e-11
2.209115503342663602e-11
