# bin_7_7
6.266173141580538924e-08
5.834743034318031969e-08
5.293491871870784372e-08
4.673411893713948965e-08
4.015597706385770967e-08
3.365172929038150801e-08
2.762257763857383040e-08
2.231763973784028804e-08
1.779523153672400103e-08
1.397073257914906205e-08
1.074354834361204899e-08
8.100829535332268248e-09
6.065759097749750758e-09
4.554227186385463493e-09
3.411164265451796032e-09
2.562104082675267590e-09
1.940697126147052640e-09
1.480469459768291232e-09
1.138104786813136832e-09
8.797477527204848413e-10
6.815981090769487005e-10
5.272814856442601261e-10
4.056881620861510505e-10
3.092830744566067430e-10
2.328662049475133669e-10
1.727015095847940433e-10
1.259087273202704810e-10
9.011665786594423206e-11
6.327778220147272345e-11
4.359003543239852807e-11
2.947600448675727317e-11
