# bin_14_9
8.300314356113407019e-08
7.916542087227469720e-08
7.367959454664409944e-08
6.678480510446533391e-08
5.888656967590751760e-08
5.052013558396111545e-08
4.227036994460153672e-08
3.465097430813113957e-08
2.796845341225594303e-08
2.227952691331925037e-08
1.745979274503022753e-08
1.338177212403782439e-08
1.004807812478584679e-08
7.498398047664188233e-09
5.606841806924776621e-09
4.170264683798871417e-09
3.111473497381451502e-09
2.337141529774037054e-09
1.767608216435578849e-09
1.346451817372810143e-09
1.031560409427252564e-09
7.925875224739549013e-10
6.086038518515344421e-10
4.653278228903221329e-10
3.529811086623063512e-10
2.647999831052394001e-10
1.959416018887321147e-10
1.427243285882070383e-10
1.021929806337911614e-10
7.187121943727198861e-11
4.963830708749459091e-11
