# bin_15_3
4.660175219608029524e-08
4.206936101903692352e-08
3.692757398014539028e-08
3.153182878521474120e-08
2.626993030330780818e-08
2.146792752510806407e-08
1.730106749930561882e-08
1.377068927818486985e-08
1.077040306599602705e-08
8.230716683234989622e-09
6.187441380580190099e-09
4.654832676098735082e-09
3.509042708655969218e-09
2.640081384710053461e-09
2.004366624933055794e-09
1.534077492743804959e-09
1.185318787261246128e-09
9.228403500227415709e-10
7.218843737248992679e-10
5.650757538632256275e-10
4.406913091833901343e-10
3.409544194723599840e-10
2.606749356970256063e-10
1.963035260324053076e-10
1.452368490458088399e-10
1.053794536363722400e-10
7.490579627731976384e-11
5.214930991974920976e-11
3.557824178835121075e-11
2.381599342105389747e-11
1.567057249724974742e-11
