# bin_8_5
5.655698814076152761e-08
5.214991894889343112e-08
4.681922189825446377e-08
4.089179521620281455e-08
3.477262332276136062e-08
2.887827593394321666e-08
2.354000247017212866e-08
1.892064098925279223e-08
1.500884749885008490e-08
1.169669551018477147e-08
8.916548489299328267e-09
6.693065858841949718e-09
5.024064730194837737e-09
3.777436188461377805e-09
2.833176414619251439e-09
2.142751187541380573e-09
1.632056167714351640e-09
1.253955135293081279e-09
9.700496775827962669e-10
7.536327388326931801e-10
5.858217725485241063e-10
4.537722971391207689e-10
3.488565634783232227e-10
2.652156983063040254e-10
1.987751579183904325e-10
1.465182520905198486e-10
1.060315486874063175e-10
7.525676997865208744e-11
5.236910108819075326e-11
3.574167804507670027e-11
2.394773522481046171e-11
