# bin_7_5
5.453943246864395543e-08
5.015249596605247852e-08
4.490198330556384540e-08
3.911374660687898353e-08
3.318290253855114662e-08
2.750662064640458510e-08
2.239040822084513183e-08
1.797475929650260247e-08
1.423751232046271116e-08
1.107539304676998574e-08
8.431081158885974248e-09
6.328289900413789906e-09
4.753188308018312572e-09
3.574698523401196791e-09
2.684088959334022726e-09
2.032888770123436956e-09
1.550668355487285476e-09
1.193117039714675172e-09
9.240710106248809236e-10
7.184604266513824955e-10
5.586392898327943183e-10
4.326246523830536139e-10
3.323700974334379456e-10
2.524034384787301167e-10
1.888993616546012955e-10
1.390007618205283272e-10
1.004009919441788677e-10
7.111851437562107870e-11
4.939004675173511443e-11
3.364297554864582774e-11
2.250079615012020837e-11
