# bin_15_6
7.004187487926521673e-08
6.571810909629498520e-08
6.007915407916925225e-08
5.343031107005026584e-08
4.620867228134654132e-08
3.892649968052433300e-08
3.207635366105448793e-08
2.599716137290834233e-08
2.080241579169831292e-08
1.640559906671356167e-08
1.266679280484756327e-08
9.559646024948785260e-09
7.147081764932486758e-09
5.362771367059980262e-09
4.008284044849827701e-09
2.999414265674845749e-09
2.263813285002761455e-09
1.720323853936594409e-09
1.318080815085085735e-09
1.016435042133011032e-09
7.865564724333268371e-10
6.085383315417429161e-10
4.688504185733005915e-10
3.583361953971001321e-10
2.707328586216918753e-10
2.016248181971392671e-10
1.476831767926205660e-10
1.062237763375227558e-10
7.495970732856765296e-11
5.188638860430014103e-11
3.524339598350474062e-11
