# bin_11_2
3.465164437318326512e-08
3.050882035475398919e-08
2.613353673691672051e-08
2.183617039094378761e-08
1.788630878285976684e-08
1.443932524429325257e-08
1.151211407112255812e-08
9.028463400596832643e-09
6.927645468884245066e-09
5.226355781759988418e-09
3.937749483172600919e-09
2.976793612510040865e-09
2.249238059221635474e-09
1.713139668968063771e-09
1.317158892093338580e-09
1.022330719972139137e-09
7.998077030090972038e-10
6.286917341386434922e-10
4.944461038456413340e-10
3.873062618473082544e-10
3.008416890069426861e-10
2.308078159396159526e-10
1.743232941476626481e-10
1.292823236203198489e-10
9.397687028029999676e-11
6.689192620659131917e-11
4.661612153543589717e-11
3.182708355063904202e-11
2.131862313180210942e-11
1.403662326989548530e-11
9.104934688289867354e-12
