# bin_12_1
2.312405171940443368e-08
1.973538432082689519e-08
1.644630637241271153e-08
1.344857030076369833e-08
1.084223429810365270e-08
8.626857722791816358e-09
6.747525940426121133e-09
5.170945372074045441e-09
3.908825229708043794e-09
2.953779992207625802e-09
2.239402005376539728e-09
1.701685752128560537e-09
1.304471220948530904e-09
1.010211529924444662e-09
7.898205636959104757e-10
6.220915490053942546e-10
4.917694398472635152e-10
3.884029439865456142e-10
3.050574790673460758e-10
2.372209017509228893e-10
1.819399986179569923e-10
1.371981296659246741e-10
1.014833092205790181e-10
7.351984985136030893e-11
5.213001880765878427e-11
3.618520528570212613e-11
2.461310846368019957e-11
1.643270114094553107e-11
1.079110670160350069e-11
6.986032761804752524e-12
4.468849242755616675e-12
