# bin_3_2
2.625396717434657240e-08
2.275644834080582320e-08
1.922738799684815267e-08
1.589045396958834526e-08
1.290747291390613155e-08
1.034372601582640383e-08
8.176735595405489267e-09
6.349806459794805405e-09
4.837483829778033143e-09
3.648615632692938114e-09
2.758832212146295665e-09
2.091523703784672839e-09
1.590206270671001429e-09
1.221051601965108094e-09
9.460755160964391533e-10
7.393846919412426512e-10
5.812134288405157884e-10
4.578002242458747698e-10
3.597214628295378223e-10
2.807248956710720139e-10
2.166970718053268185e-10
1.648764854771102652e-10
1.233053092412123661e-10
9.045472839699309277e-11
6.500572629967173391e-11
4.574441930191247740e-11
3.153083566616289842e-11
2.131116571480491364e-11
1.414762425413104932e-11
9.244192051934411931e-12
5.958594667039954765e-12
