# bin_8_3
4.264455157573773884e-08
3.830110558450600771e-08
3.346115741902008334e-08
2.845650716927630485e-08
2.363328648140227753e-08
1.926739414465823187e-08
1.549423086601453887e-08
1.230031888043530085e-08
9.591945322600900265e-09
7.316159894761309322e-09
5.501326566980253395e-09
4.142797579353131296e-09
3.125291278072189805e-09
2.356233560780769553e-09
1.793067287912312784e-09
1.375664465459728497e-09
1.065181353726649512e-09
8.305935150169524118e-10
6.502123250588295900e-10
5.089072273336941577e-10
3.964977137509806753e-10
3.062289077556237068e-10
2.335729927911172143e-10
1.753971475963615987e-10
1.293623003768448911e-10
9.355275201245524777e-11
6.628024702911538422e-11
4.599842649899994098e-11
3.129053398668778239e-11
2.089180895535314842e-11
1.371626515820625500e-11
