# bin_12_10
8.325197006639481686e-08
7.945682343154927208e-08
7.401220415662631823e-08
6.715289206765686040e-08
5.927901384038165260e-08
5.092033992692343474e-08
4.265734623533479724e-08
3.500334881571433839e-08
2.827238015913821617e-08
2.253254049446834358e-08
1.767123743703827201e-08
1.356215518790899589e-08
1.019686931299084334e-08
7.609221365305641265e-09
5.687352318694819221e-09
4.232248699188190202e-09
3.154838547310947279e-09
2.368484635990479448e-09
1.789327549808710252e-09
1.361662804715634553e-09
1.042181553226126906e-09
8.000434155088151036e-10
6.139053098828715321e-10
4.691621384816489613e-10
3.558146933141336493e-10
2.669372020368800398e-10
1.975806031383943703e-10
1.439947551662718562e-10
1.031806292838921673e-10
7.263547726704817852e-11
5.022305130791721958e-11
