# bin_13_2
3.405672188578323443e-08
2.993432519620922283e-08
2.559934069179863083e-08
2.136058432833058856e-08
1.748039807520899126e-08
1.410345882187927591e-08
1.123677532178606573e-08
8.801470349313148008e-09
6.743540815349588521e-09
5.085405006138928131e-09
3.834172462508293690e-09
2.899167256793034231e-09
2.191935024964300795e-09
1.671552211978808349e-09
1.286680041086725610e-09
9.999280898138145178e-10
7.831270887400277649e-10
6.160751179094265078e-10
4.847436506003397179e-10
3.797362610043314848e-10
2.948768296618326029e-10
2.260904728131756491e-10
1.706047528347553001e-10
1.263794597521982525e-10
9.174528736030351844e-11
6.521026568598118382e-11
4.537797437994360016e-11
3.093806779527790498e-11
2.069632094508448663e-11
1.361145783620548234e-11
8.820783991041207643e-12
