# bin_4_1
1.879918488392262595e-08
1.589821890457366668e-08
1.315282709021489824e-08
1.069603897419793993e-08
8.580721134522255125e-09
6.788084590599264197e-09
5.275031793832382003e-09
4.024900141223830499e-09
3.043202560326517786e-09
2.305613167064412231e-09
1.752386426342053273e-09
1.337718379166359550e-09
1.031280528168224936e-09
8.028726495158575532e-10
6.305226212148880218e-10
4.980352413501586905e-10
3.940462558936051435e-10
3.108551163068380967e-10
2.433980193274616060e-10
1.883792900094981696e-10
1.436094703075918412e-10
1.075386635579592839e-10
7.894368603253304838e-11
5.674609123368339885e-11
3.992839532673168475e-11
2.751544585835579270e-11
1.859336939058346681e-11
1.234268561277010525e-11
8.066136823834923766e-12
5.201306022220769982e-12
3.316755085575126973e-12
