# bin_14_3
4.518056262456956268e-08
4.069856041432018866e-08
3.564763979486538915e-08
3.037921433897960662e-08
2.527014413647837574e-08
2.062862415101793583e-08
1.661183261088274849e-08
1.320914293578115183e-08
1.031535056310119273e-08
7.871442067060645727e-09
5.916771391461692889e-09
4.454948922338884567e-09
3.359060625406647751e-09
2.529799632180129110e-09
1.923346845857950376e-09
1.474162963087250174e-09
1.140636096120356974e-09
8.891230018555727555e-10
6.960981742999509911e-10
5.451202602935396149e-10
4.251196841756661493e-10
3.287610980159366794e-10
2.511467847733027831e-10
1.889142896281289405e-10
1.395770853269337943e-10
1.011152538340969817e-10
7.175558637641415121e-11
4.987229557385189524e-11
3.396971215809213051e-11
2.270543624739286130e-11
1.492037183135678527e-11
