# bin_10_2
3.305722306528270637e-08
2.901475578349562621e-08
2.478288192558800974e-08
2.065965604461772576e-08
1.689456125476301847e-08
1.362198701941009282e-08
1.084498380405366175e-08
8.487470147222114402e-09
6.499316083447738591e-09
4.901371451490493901e-09
3.696528857171218641e-09
2.795810202004509412e-09
2.114986932583999868e-09
1.613990772672268639e-09
1.243202650816583421e-09
9.667034554014559458e-10
7.574037284520860220e-10
5.959277507423247393e-10
4.688388751865523472e-10
3.671452412245845569e-10
2.849363711275893065e-10
2.183067385072863573e-10
1.645889928746684669e-10
1.218087984952804742e-10
8.834178516831762404e-11
6.273142973943895786e-11
4.361382374640805603e-11
2.971106334566037295e-11
1.986135195923939731e-11
1.305446690342506375e-11
8.455671296972728580e-12
