# bin_10_10
7.856801677911593738e-08
7.464991674486150029e-08
6.919893752979374340e-08
6.246815461503131458e-08
5.486365794099545094e-08
4.690303683315965740e-08
3.913337432294797108e-08
3.201333492486702724e-08
2.579700457710797917e-08
2.051019013996951848e-08
1.603165684220301360e-08
1.225842950809405253e-08
9.200543943824294540e-09
6.873351204472606951e-09
5.141798516083761151e-09
3.829799371315378097e-09
2.864529048154047139e-09
2.156884664728265067e-09
1.635673767469200840e-09
1.249044409012167326e-09
9.588359205143528906e-10
7.376938971561162090e-10
5.667883344188331284e-10
4.332841104440700342e-10
3.283848956647950767e-10
2.459796044705071736e-10
1.816489889397379202e-10
1.319942266320468946e-10
9.425526473699442776e-11
6.609916204403656659e-11
4.551907103855866398e-11
