# bin_13_9
8.116468084792574952e-08
7.730479123061137630e-08
7.184134256573988094e-08
6.501862499194050564e-08
5.724244798447206746e-08
4.904166251875394800e-08
4.098735747378382883e-08
3.357235066290912414e-08
2.708206178000833211e-08
2.155956630352022745e-08
1.687950448913673510e-08
1.292397585543500861e-08
9.701337590456081477e-09
7.243572285599611422e-09
5.418202756469890988e-09
4.031969326480715208e-09
3.011922662210095837e-09
2.264769544814420548e-09
1.715098003391130510e-09
1.308017520012414650e-09
1.003134985103281364e-09
7.713363400670096714e-10
5.925601016380259588e-10
4.531285932680060779e-10
3.436737076616143787e-10
2.577078771997330116e-10
1.905678830780565820e-10
1.386917972623753942e-10
9.920630520450901205e-11
6.969378505029521908e-11
4.807863716096125501e-11
