# bin_13_6
6.778902503253784134e-08
6.347127675139226847e-08
5.789916137128230382e-08
5.138051361423855678e-08
4.434690060947141462e-08
3.729562856441535442e-08
3.069474247493696697e-08
2.485559167640087948e-08
1.987185501466936753e-08
1.565235551829147066e-08
1.206763158933046954e-08
9.101048931834332679e-09
6.808148281729876298e-09
5.111245703038915138e-09
3.821910374992194108e-09
2.864235461302376504e-09
2.164547510642774145e-09
1.647516619330749830e-09
1.264080225385962589e-09
9.759383416153607871e-10
7.558378304094687741e-10
5.850080466793526329e-10
4.507124506813769426e-10
3.443278261244661385e-10
2.599480363770611267e-10
1.933868397887734096e-10
1.414658025288253775e-10
1.016035306886212027e-10
7.158790192307682914e-11
4.947400597282366967e-11
3.355278758353707328e-11
