# bin_6_4
4.663685842117365036e-08
4.233228348820787286e-08
3.739631154006173798e-08
3.215259439722553683e-08
2.696034012181099128e-08
2.214216172790478670e-08
1.790089999556241805e-08
1.428619454719926040e-08
1.122971631985681061e-08
8.648827349760531820e-09
6.534386495564964372e-09
4.907984741203935185e-09
3.700238298842842059e-09
2.785608015067213189e-09
2.106287957093330117e-09
1.607271881851823581e-09
1.236389836464338293e-09
9.586351760092718335e-10
7.472324586830361430e-10
5.834235479409158778e-10
4.544018160483305774e-10
3.515745303773861860e-10
2.691773669112904434e-10
2.032614088667274096e-10
1.509785086691569297e-10
1.100946879045966423e-10
7.871693846300853547e-11
5.515685047095825846e-11
3.788337655012361353e-11
2.552737350273159000e-11
1.690097604763333679e-11
