# bin_12_6
6.733030975138453494e-08
6.303558444937641186e-08
5.749996119128754442e-08
5.102917503551814891e-08
4.405053402966064424e-08
3.705517895217188503e-08
3.050448620593788544e-08
2.470594342423157924e-08
1.975337746033018252e-08
1.555984729451831477e-08
1.199948913363137122e-08
9.053781506932871408e-09
6.774233036738545113e-09
5.085913969771809377e-09
3.804307751262626038e-09
2.851265893817406175e-09
2.155067621816384638e-09
1.640342076257548606e-09
1.258594509082995973e-09
9.716640715372056369e-10
7.524676165953946342e-10
5.823383759667269912e-10
4.486016169491212872e-10
3.426738468919981506e-10
2.586709916071306207e-10
1.924197240076513062e-10
1.407501637540996730e-10
1.010874325248544746e-10
7.122570233750373550e-11
4.922670433046306016e-11
3.338835190857667619e-11
