# bin_6_1
2.133430555185200936e-08
1.816082735459191121e-08
1.510449491388318240e-08
1.233344979087644081e-08
9.930190285281319929e-09
7.888760805482520228e-09
6.159777371771176572e-09
4.715931734763044026e-09
3.566221381775501062e-09
2.697725564562997114e-09
2.047443710749009457e-09
1.558397798056676294e-09
1.196963040515975484e-09
9.286269618935825100e-10
7.271295477512294873e-10
5.732670602279170653e-10
4.533195810596897426e-10
3.579147536902463474e-10
2.808479313503160488e-10
2.180797314066410759e-10
1.669530973424637340e-10
1.256327330385759339e-10
9.272004213546074091e-11
6.701827229664511645e-11
4.741505488155667175e-11
3.284481626529045265e-11
2.229999463586914923e-11
1.486485662289397131e-11
9.748690497124945182e-12
6.304485941111400686e-12
4.029519396608306686e-12
