# bin_14_5
6.283737541779006029e-08
5.840076217256215598e-08
5.284863898644916660e-08
4.650889924710165996e-08
3.981581515782736574e-08
3.324634904302310705e-08
2.721351113930457143e-08
2.195219515208821958e-08
1.748723450697723206e-08
1.369754640669688961e-08
1.048347704518234229e-08
7.873217982790171949e-09
5.902298463534978209e-09
4.435932296889336759e-09
3.318390174567377724e-09
2.500992554312784936e-09
1.897953099068450496e-09
1.453085231260889651e-09
1.120815149999219521e-09
8.691581110034824581e-10
6.752402690502840569e-10
5.234325102414579858e-10
4.032259967471969539e-10
3.075102882175072111e-10
2.314039441697306365e-10
1.713735384242062765e-10
1.246597939442330952e-10
8.895547424183105391e-11
6.223544595709169023e-11
4.269550635280065019e-11
2.874400779647945707e-11
