# bin_9_8
7.109961041238276435e-08
6.697564552051679382e-08
6.151476585340970225e-08
5.499937167369784959e-08
4.784287900459660111e-08
4.053860525586894634e-08
3.357329915409681134e-08
2.731101463562181197e-08
2.190936574753265371e-08
1.733164405337597138e-08
1.345421875144561093e-08
1.021708925669801652e-08
7.651199845966755180e-09
5.729905842534540741e-09
4.290003122357833373e-09
3.203748182839530288e-09
2.411187446156892650e-09
1.825669047331436008e-09
1.393674091196182810e-09
1.070691370634714558e-09
8.259123330594062152e-10
6.375128621895513472e-10
4.905405570671155980e-10
3.748517948352172845e-10
2.834824994926153821e-10
2.115474315621151662e-10
1.554200248513227373e-10
1.122271938708171798e-10
7.956742730582437339e-11
5.536681066572885632e-11
3.782095864246696396e-11
