# bin_14_13
-1.019657864865579919e-08
-1.167933037719576970e-08
-1.320075179179839886e-08
-1.466687030411247724e-08
-1.595480187559599576e-08
-1.690231268478003240e-08
-1.731662415597167553e-08
-1.704694965242058694e-08
-1.587364830792482946e-08
-1.397111601018646993e-08
-1.164222259563255827e-08
-9.529714070435876517e-09
-8.077310879039691583e-09
-6.975888254288126474e-09
-5.397278025141179040e-09
-3.727887020763800791e-09
-2.993647178266526546e-09
-2.080021506040196167e-09
-1.525745935771713206e-09
-1.020043144333291987e-09
-7.108451900616388709e-10
-4.841946728194098383e-10
-3.266611960637948362e-10
-2.196288141293834512e-10
-1.475412001928504226e-10
-9.997599709178194088e-11
-6.862381005732654409e-11
-4.793179217768487410e-11
-3.422312699557657543e-11
-2.500811628339266350e-11
-1.866840042406021473e-11
