# bin_14_5
-3.135983938648089961e-20
-3.568548178082286848e-20
-3.999938510916637723e-20
-4.399612377176905916e-20
-4.726802206197889415e-20
-4.929894796415378328e-20
-4.961917825709007234e-20
-4.759404712641465918e-20
-4.308122425698171310e-20
-3.686458302993464987e-20
-3.026437136305214105e-20
-2.505034935799032367e-20
-2.164263344519002060e-20
-1.804853896386420848e-20
-1.291486220613667233e-20
-9.464193414070545787e-21
-7.476337894383360257e-21
-4.979925062080238366e-21
-3.676175777870461779e-21
-2.550661727012676726e-21
-1.739338355366346476e-21
-1.189459549744939783e-21
-8.120228251654192480e-22
-5.577339953709831654e-22
-3.866467696235763627e-22
-2.726006390778370523e-22
-1.958464544376221105e-22
-1.437054280144235036e-22
-1.075916081023311968e-22
-8.185473140202821276e-23
-6.286961538394828549e-23
