# bin_14_14
-1.309405144495132498e-08
-1.501204822403935207e-08
-1.698637283043487690e-08
-1.889823100851739512e-08
-2.059156190265369235e-08
-2.185909518709086845e-08
-2.244981216901776376e-08
-2.217382765448898615e-08
-2.073187179769198953e-08
-1.831667329278648669e-08
-1.530976217319502340e-08
-1.252650810220348240e-08
-1.058144996328887086e-08
-9.154947297257442641e-09
-7.166112357697074940e-09
-4.944534901394698887e-09
-3.936803557880528382e-09
-2.786427592367809549e-09
-2.014023075524010840e-09
-1.352340298589644232e-09
-9.491041226806439117e-10
-6.447100466540701958e-10
-4.332770361390402692e-10
-2.905722514924197383e-10
-1.945253181644426764e-10
-1.311238397879848222e-10
-8.942387013669368792e-11
-6.198367104335783013e-11
-4.389202626125384533e-11
-3.181719984935702589e-11
-2.358952957966609364e-11
