# bin_6_3
-6.692826659978213765e-11
-7.358756501801958476e-11
-7.907399021864394107e-11
-8.253813315885055792e-11
-8.317814741518134985e-11
-7.999673891197369428e-11
-7.265444545868814441e-11
-6.240005688979638101e-11
-5.132494923725849365e-11
-4.238514060229494275e-11
-3.646607077948756022e-11
-3.056275584013708788e-11
-2.222837830568807322e-11
-1.615568749352320566e-11
-1.286361677225659676e-11
-8.744768935005703808e-12
-6.556990528851893157e-12
-4.632088029144140514e-12
-3.286881008942860030e-12
-2.360324263922293261e-12
-1.711331555757094896e-12
-1.259893566080346907e-12
-9.434494818925045509e-13
-7.196230252000785987e-13
-5.567169234981512270e-13
-4.344487107088156048e-13
-3.397742161273272730e-13
-2.643979253835206229e-13
-2.034036160242969683e-13
-1.538569388278602155e-13
-1.139402663047408878e-13
