# bin_12_11
-9.742724849446689720e-09
-1.111135570067977067e-08
-1.249068409107521522e-08
-1.378721411223727861e-08
-1.487724955852427235e-08
-1.560243139892262196e-08
-1.580207192290341975e-08
-1.529689881363654763e-08
-1.397608316395424221e-08
-1.207400017336779970e-08
-9.949221540952065790e-09
-8.190689270061824541e-09
-7.041061918486092755e-09
-5.966934820309697411e-09
-4.375446156511949837e-09
-3.113318984522873212e-09
-2.515577947993702666e-09
-1.662424083175177565e-09
-1.250265478003655832e-09
-8.524370592353386687e-10
-5.801689989797170359e-10
-3.972987292786080243e-10
-2.702551557005614206e-10
-1.841233098951265694e-10
-1.261677390578349263e-10
-8.775541609406601577e-11
-6.211137240746590915e-11
-4.488593503675032157e-11
-3.315259350460151952e-11
-2.496205706102148078e-11
-1.905671586647790232e-11
