# bin_13_10
-1.152122654017184824e-09
-1.314418667206633784e-09
-1.478238977085785689e-09
-1.632552559322558457e-09
-1.762788089708765879e-09
-1.850251430156159144e-09
-1.875671925205193101e-09
-1.818241903664425319e-09
-1.663695463153752431e-09
-1.439420517146371043e-09
-1.186944028704450079e-09
-9.764703891719555214e-10
-8.386178140663766815e-10
-7.122026454467848335e-10
-5.243902141719673004e-10
-3.716634701140926461e-10
-3.009087929474558000e-10
-1.990053547977531060e-10
-1.498327089293437776e-10
-1.018944682765728305e-10
-6.937128104612347282e-11
-4.751298979659479445e-11
-3.231108455712904024e-11
-2.198786404665912362e-11
-1.504058408088496278e-11
-1.043936036938604138e-11
-7.371136968510004632e-12
-5.313492365185572682e-12
-3.915340974905927505e-12
-2.942437888864913163e-12
-2.243550901949579665e-12
