# bin_9_11
-3.879107446203152347e-09
-4.407059860406151550e-09
-4.929545251352446854e-09
-5.408343861422785177e-09
-5.792225842708248099e-09
-6.016734544064089025e-09
-6.027734801817222446e-09
-5.743662892843554379e-09
-5.165987602707458019e-09
-4.391682711655928063e-09
-3.598913510142928182e-09
-2.992671425751253503e-09
-2.591050058981556536e-09
-2.131714050550104392e-09
-1.503695108645802581e-09
-1.127070449123320957e-09
-8.703009180650199721e-10
-5.886028682338833437e-10
-4.252601635718945396e-10
-2.987675009422678253e-10
-2.044150743180728044e-10
-1.397873783122965744e-10
-9.587326705403592871e-11
-6.626224759477836193e-11
-4.632150546296859216e-11
-3.296619047228040703e-11
-2.392115014724534295e-11
-1.772255455181973681e-11
-1.337598761775870873e-11
-1.023299074019915781e-11
-7.879693598337209024e-12
