# bin_14_12
-4.816718521153564899e-09
-5.512046459932895546e-09
-6.223062093942918330e-09
-6.904816838133582889e-09
-7.498599924858552232e-09
-7.927417473516630999e-09
-8.101951667779988189e-09
-7.948585560183427117e-09
-7.371306393850060567e-09
-6.462707743762092877e-09
-5.370212452210263161e-09
-4.398769079751684244e-09
-3.740808992873976874e-09
-3.222555273398876356e-09
-2.464389625623914513e-09
-1.706850296159927792e-09
-1.379544392124759905e-09
-9.423428000979916804e-10
-6.996983480466087074e-10
-4.677399684321620227e-10
-3.233790479361968632e-10
-2.208435982440774559e-10
-1.494917219972644275e-10
-1.007721520251538706e-10
-6.795019630441505923e-11
-4.629310323989520907e-11
-3.198426620913979931e-11
-2.251002870667865830e-11
-1.620023597847764596e-11
-1.192680423934257395e-11
-8.957621976736612667e-12
