# bin_2_5
-3.338780222787312869e-11
-3.620728961001933773e-11
-3.824524468292709738e-11
-3.908543387271940409e-11
-3.836017100312592107e-11
-3.564059424591148345e-11
-3.130789916255868604e-11
-2.609178942676049430e-11
-2.137825776075021912e-11
-1.809934803999064375e-11
-1.554626293574480243e-11
-1.203835121117549864e-11
-8.449820791164921534e-12
-6.722490284873381395e-12
-4.796882813002052246e-12
-3.532526283867002526e-12
-2.493041757743593798e-12
-1.808304903855421869e-12
-1.307513665852747849e-12
-9.545685964862456489e-13
-7.081138274063371508e-13
-5.342672864787631931e-13
-4.103134673863549238e-13
-3.195211920206316264e-13
-2.507835552565582561e-13
-1.970883290328220794e-13
-1.539964577596903694e-13
-1.188601789059122289e-13
-9.012597223728214959e-14
-6.684143469156578269e-14
-4.833639566988443452e-14
