# bin_11_7
-4.649678353397006100e-11
-5.267849526587035977e-11
-5.871813693815077092e-11
-6.414608737268587849e-11
-6.833365574885337604e-11
-7.050333252728431670e-11
-7.005920516678270939e-11
-6.602924293154785706e-11
-5.877976988764914898e-11
-4.947019311367899192e-11
-4.047901708619315041e-11
-3.395034779024139829e-11
-2.941205712319669067e-11
-2.356811928959139162e-11
-1.636766560451949247e-11
-1.271972918899080070e-11
-9.390464010236588526e-12
-6.590173062254909101e-12
-4.581221881634888812e-12
-3.260692421279279101e-12
-2.247067559504666964e-12
-1.543882497171630692e-12
-1.069015392629746418e-12
-7.466360468358769190e-13
-5.291144878851960794e-13
-3.821592957201293516e-13
-2.814982275191462916e-13
-2.114269593013427325e-13
-1.612664014000722989e-13
-1.241547991209235735e-13
-9.576101607588342767e-14
