# bin_1_5
-6.779238339536498221e-14
-7.302965861261255801e-14
-7.649929131586847395e-14
-7.742617582035991166e-14
-7.496000567947098575e-14
-6.858984326814669367e-14
-5.935941187874273002e-14
-4.902255500397292094e-14
-4.034659948610548029e-14
-3.451410901481962424e-14
-2.920456998723612522e-14
-2.173994289221052382e-14
-1.557592959215077002e-14
-1.246318837007030800e-14
-8.626950497732389549e-15
-6.479560242478647384e-15
-4.590851450507660172e-15
-3.314813389280942339e-15
-2.415209693377787726e-15
-1.780056020232608165e-15
-1.333865412648527871e-15
-1.016713263470349511e-15
-7.880039916451356514e-16
-6.177091979744467635e-16
-4.865873533102974783e-16
-3.825562088946030755e-16
-2.980951183966588897e-16
-2.288232938889573922e-16
-1.721536607832867436e-16
-1.264414326290030431e-16
-9.044800456713235871e-17
