# bin_9_12
-8.950384840829538816e-10
-1.018527807920885214e-09
-1.141699910352614387e-09
-1.255839591636253116e-09
-1.349314908832948162e-09
-1.407398071905133027e-09
-1.416664816884199553e-09
-1.359012077640456969e-09
-1.230291404292110672e-09
-1.052881885760638698e-09
-8.643958816833608156e-10
-7.154118253280283736e-10
-6.180745155740245387e-10
-5.155661233649913007e-10
-3.690021975723055997e-10
-2.702990006982599428e-10
-2.136246676233943489e-10
-1.422426363131786590e-10
-1.050517672167562372e-10
-7.287227075530155895e-11
-4.968889108731974263e-11
-3.398007448793945100e-11
-2.319520978209674714e-11
-1.592969022460458977e-11
-1.104153616250136762e-11
-7.783391982252362916e-12
-5.590876661385938969e-12
-4.101684172374291582e-12
-3.070474847666525021e-12
-2.335769251072159182e-12
-1.793952901283705251e-12
