# bin_2_11
-3.966143330902798288e-25
-4.465894871155333985e-25
-4.940999651658592883e-25
-5.348619562801201196e-25
-5.633230719606973865e-25
-5.733844608859556525e-25
-5.593319525351957184e-25
-5.155066605587718748e-25
-4.492623490546449888e-25
-3.720156617436460914e-25
-3.052136920907993514e-25
-2.605784592763251993e-25
-2.230975944043787442e-25
-1.680312626117739112e-25
-1.176271892412397533e-25
-9.526875347253965117e-26
-6.453162833008217005e-26
-4.845711562172997180e-26
-3.303712723233107915e-26
-2.308468243944701481e-26
-1.616377772892388802e-26
-1.131939346877624837e-26
-7.983151089361719153e-27
-5.697033324589933117e-27
-4.144190044592094122e-27
-3.073473873482036438e-27
-2.320674521285366259e-27
-1.778091726401059945e-27
-1.373711250129528385e-27
-1.062478397109723363e-27
-8.167351987885642405e-28
