# bin_10_8
-3.192051665757959479e-09
-3.614482512967655128e-09
-4.026209482043562996e-09
-4.394813281724527830e-09
-4.676966991192307919e-09
-4.819384913236812447e-09
-4.781394232807346973e-09
-4.497123738296394634e-09
-3.995719287727044030e-09
-3.357048214749208054e-09
-2.746692454900215580e-09
-2.307537593118694964e-09
-1.998477227835488962e-09
-1.592735189912623361e-09
-1.104460972553927078e-09
-8.635237513131425927e-10
-6.317991281055532021e-10
-4.468698601008872648e-10
-3.088298591782780086e-10
-2.198819339442400257e-10
-1.517640117772480324e-10
-1.044441810209349525e-10
-7.244972661163328372e-11
-5.069972185775524742e-11
-3.601907395851293471e-11
-2.608379916145915871e-11
-1.926311723903710518e-11
-1.450060881708968803e-11
-1.107825227573445447e-11
-8.535910252532456934e-12
-6.583817732100615324e-12
