# bin_8_12
-8.213194220252018180e-11
-9.335616600975877773e-11
-1.044901255860379803e-10
-1.147276034499559255e-10
-1.229889797039513730e-10
-1.279132869207171859e-10
-1.283300332309877796e-10
-1.225268765620687565e-10
-1.104138198397643020e-10
-9.404700841375029383e-11
-7.710563416824728853e-11
-6.402364663416860219e-11
-5.540466939378905428e-11
-4.577864387096360652e-11
-3.241971258011362658e-11
-2.413417501682061234e-11
-1.877319935876424400e-11
-1.262905051326185928e-11
-9.188508481769874254e-12
-6.432066582740966722e-12
-4.395890628506040690e-12
-3.005565331295339854e-12
-2.058160746051740330e-12
-1.419774222921155305e-12
-9.900160526353225067e-13
-7.026082657372663225e-13
-5.083369462905429643e-13
-3.755623133412058670e-13
-2.828069548793718158e-13
-2.160268575174834577e-13
-1.662431902288179284e-13
