# bin_5_3
-1.581312120821323890e-09
-1.725639248721468098e-09
-1.837077589359662164e-09
-1.895234634490175448e-09
-1.883348710706411785e-09
-1.776969964862570213e-09
-1.584044823628767943e-09
-1.336094542780594765e-09
-1.094109320546119457e-09
-9.154828573593638767e-10
-7.906526140481499522e-10
-6.365769136700931291e-10
-4.481530639684133937e-10
-3.448632775482648066e-10
-2.592449021552019084e-10
-1.831695253452442267e-10
-1.320754285664117645e-10
-9.556346916863823878e-11
-6.840626297210314713e-11
-4.946708800271045505e-11
-3.630890168948799277e-11
-2.710628618390587219e-11
-2.060147665443446646e-11
-1.591265811065500019e-11
-1.242383821664486420e-11
-9.744416221758469046e-12
-7.624488508559109116e-12
-5.910710522397724795e-12
-4.513219455432610974e-12
-3.377957728972604540e-12
-2.469100764692685851e-12
