# bin_3_15
-1.292421444646464288e-29
-1.472445689742058042e-29
-1.653000332580823036e-29
-1.821597178321549160e-29
-1.961641380570773054e-29
-2.052008098073479041e-29
-2.072299049968348177e-29
-1.997522819021958964e-29
-1.817064327368696900e-29
-1.562769517360010569e-29
-1.285342830500322945e-29
-1.060672148569849231e-29
-9.141312681115590122e-30
-7.691907660029804962e-30
-5.574234499452391530e-30
-4.018966567224237515e-30
-3.218069544556406967e-30
-2.130317679054674684e-30
-1.591182523984046474e-30
-1.093579453528861113e-30
-7.445897608212405685e-31
-5.095475442640475829e-31
-3.470572455074080500e-31
-2.373170618346308125e-31
-1.634933041929172718e-31
-1.144404439471795536e-31
-8.157314357561815084e-32
-5.938292653207491708e-32
-4.415176290004579503e-32
-3.341655602172532092e-32
-2.559197371708224588e-32
