# bin_2_8
-8.090198315109288079e-18
-8.980335041075885401e-18
-9.763932279388201971e-18
-1.034309214279777926e-17
-1.060210187479598359e-17
-1.044693107685776402e-17
-9.746728825527720267e-18
-8.595186676766967066e-18
-7.178886678439947754e-18
-5.876148718642190800e-18
-4.964613793146884703e-18
-4.283223088391946090e-18
-3.345454989240770841e-18
-2.327408892437967271e-18
-1.850062431063259422e-18
-1.320982467676857562e-18
-9.635352121835162506e-19
-6.689885979628817122e-19
-4.806206067382548567e-19
-3.408717553464916157e-19
-2.428807639604655010e-19
-1.753008405290361852e-19
-1.284174015184147722e-19
-9.586559268673963689e-20
-7.285741483351587900e-20
-5.614774718017168906e-20
-4.365201414117068849e-20
-3.399748613873401417e-20
-2.633836848005089188e-20
-2.016654951442965297e-20
-1.518168862557550003e-20
