# bin_3_8
-1.483098167401123143e-14
-1.650335346034311151e-14
-1.799768147173948715e-14
-1.913710426465263705e-14
-1.970593499191500107e-14
-1.953464946101899581e-14
-1.836219408354024006e-14
-1.630749148687715604e-14
-1.370062889536593417e-14
-1.121121487787393241e-14
-9.415763377287916686e-15
-8.143980308002877330e-15
-6.488692268325968250e-15
-4.520406393922420227e-15
-3.529905066294859466e-15
-2.595720169289965499e-15
-1.847321598794491477e-15
-1.298441176338078724e-15
-9.341981433660219676e-16
-6.588138183882618693e-16
-4.666804798722756636e-16
-3.348667466258060386e-16
-2.438216698221054376e-16
-1.808062698358848641e-16
-1.366012248230303143e-16
-1.047828254427830239e-16
-8.122767248794670140e-17
-6.320806090102524078e-17
-4.902036883338299306e-17
-3.763661295853655591e-17
-2.844964823177032112e-17
