# bin_1_4
-1.453287404812663985e-11
-1.543548148396943970e-11
-1.588631137356527176e-11
-1.574045540621964204e-11
-1.480664048805513501e-11
-1.316485529663614505e-11
-1.108707662058343767e-11
-9.085140944363060528e-12
-7.613456172233871648e-12
-6.555912449193604201e-12
-5.246106905496457223e-12
-3.716920555031550434e-12
-2.867567260441242475e-12
-2.148681483105921003e-12
-1.536747521533183741e-12
-1.117074222513690181e-12
-8.143779468853641284e-13
-5.924806550098245169e-13
-4.368856184085812674e-13
-3.276167202555311124e-13
-2.500726173683396452e-13
-1.940821353749384873e-13
-1.525433069763453213e-13
-1.206145045626416237e-13
-9.527804032820533819e-14
-7.467153700138344099e-14
-5.768857627133693367e-14
-4.369818632544650796e-14
-3.231877622971080599e-14
-2.327421485661405112e-14
-1.630997266045475993e-14
