# bin_2_14
-4.381274313441441560e-32
-4.979505969077557279e-32
-5.572648910869120712e-32
-6.117657024521292026e-32
-6.556885124129026465e-32
-6.817697879371003042e-32
-6.837887203299898576e-32
-6.526098531676638109e-32
-5.878827049379152337e-32
-5.005645165307797330e-32
-4.103771639274781044e-32
-3.408573566423062351e-32
-2.949722098685616696e-32
-2.434989961135796330e-32
-1.723552177450714928e-32
-1.284686127928051312e-32
-9.977127952809337322e-33
-6.721095244379908943e-33
-4.882544642168345878e-33
-3.419719231894132272e-33
-2.337758642919822705e-33
-1.598597904014558273e-33
-1.095100236877602886e-33
-7.557060567188483146e-34
-5.272065041372330186e-34
-3.743494642076937731e-34
-2.709874190675473118e-34
-2.003067275426712244e-34
-1.508938727324023618e-34
-1.152891301286636382e-34
-8.872499799631772615e-35
