# bin_7_9
-2.833885959985943944e-09
-3.195200604258038011e-09
-3.540752583524606369e-09
-3.840369620275510709e-09
-4.054631582625219072e-09
-4.138624005873079912e-09
-4.053587924513066917e-09
-3.753263963594315846e-09
-3.285719763116444594e-09
-2.728451726360544763e-09
-2.235712342695634386e-09
-1.902171644543889762e-09
-1.635519290676120574e-09
-1.247861477175235745e-09
-8.679998632382841932e-10
-7.010319305166374920e-10
-4.810363887649617246e-10
-3.583463235402137047e-10
-2.433676387489982949e-10
-1.709022734583613659e-10
-1.193796489207744019e-10
-8.334569558886137819e-11
-5.856735797639135839e-11
-4.160426633575463750e-11
-3.010752476756860621e-11
-2.221601446408825273e-11
-1.669920729357102540e-11
-1.275228620217859442e-11
-9.834103609516104203e-12
-7.604366575147780462e-12
-5.852906517848406815e-12
