# bin_1_2
-2.293810120411097431e-08
-2.335454910142872940e-08
-2.281683427944507816e-08
-2.113412002242880483e-08
-1.852218332111881031e-08
-1.545912067446903077e-08
-1.271109017953114056e-08
-1.074627031548754171e-08
-9.133359073006785581e-09
-7.074590304880297539e-09
-5.082707804622103531e-09
-3.961933352031256579e-09
-2.899139448950261698e-09
-2.123943573562532884e-09
-1.547908634472428447e-09
-1.139624210166932056e-09
-8.452897831339424294e-10
-6.371401162446130999e-10
-4.891257861276022567e-10
-3.819214300893736819e-10
-3.022545858221744318e-10
-2.409384672475319089e-10
-1.920295818629915283e-10
-1.519355363549475718e-10
-1.185499167559933944e-10
-9.069953345426044032e-11
-6.773969816004768412e-11
-4.925366495799750730e-11
-3.483674343439922342e-11
-2.399904421943635847e-11
-1.614445769781243034e-11
