# bin_6_2
-3.478677163052968880e-13
-3.807169554872614497e-13
-4.067622533483094461e-13
-4.215179304408977292e-13
-4.211916438335412891e-13
-4.003038038490534903e-13
-3.593306781315522482e-13
-3.050506422991323906e-13
-2.500355268983356371e-13
-2.080914823284446215e-13
-1.797059033428270450e-13
-1.471296589658776306e-13
-1.044788024936419305e-13
-7.872965389717243080e-14
-6.068154882956225196e-14
-4.205393105514919686e-14
-3.081222924541672868e-14
-2.215021215429767661e-14
-1.578541969793453110e-14
-1.137572476723814839e-14
-8.308682605083689734e-15
-6.170862328262598372e-15
-4.664993145582768159e-15
-3.587481708926887422e-15
-2.792351257167076514e-15
-2.186825797254418968e-15
-1.711370528309320154e-15
-1.328950123184072179e-15
-1.017814245560229778e-15
-7.649403673532799517e-16
-5.619275614992121914e-16
