# bin_6_4
7.852935061456031663e-12
8.663927037157666503e-12
9.350020457308954195e-12
9.813490693316590698e-12
9.952427405089757769e-12
9.660765930723612344e-12
8.859759207918607019e-12
7.683703510687960372e-12
6.346949372117934901e-12
5.214617098246736762e-12
4.459863799662435704e-12
3.792912060385965684e-12
2.828516334313758092e-12
2.004667224006743687e-12
1.616557010446358352e-12
1.101812125659505026e-12
8.300175104505890569e-13
5.778479751115402860e-13
4.105551661307243180e-13
2.939343689191239912e-13
2.118923960003492360e-13
1.548285222527499573e-13
1.149660574508294995e-13
8.701647930394266765e-14
6.690519079010949890e-14
5.199786685660094506e-14
4.060087322294612017e-14
3.161921316341614472e-14
2.439643870492779272e-14
1.854068911811832189e-14
1.381545649458147745e-14
