# bin_8_5
7.769374768656083061e-13
8.681046454248114901e-13
9.515465002266993064e-13
1.018297695876264629e-12
1.057110616653911484e-12
1.058473831629630284e-12
1.008351135203869697e-12
9.069275223866147804e-13
7.711216800893966464e-13
6.318818351006883971e-13
5.249925138534989190e-13
4.538820309470928028e-13
3.735883283033760371e-13
2.646135521135537500e-13
1.979932899537424066e-13
1.534826873191554220e-13
1.045530746159586201e-13
7.635547010689528231e-14
5.421735779667607847e-14
3.785980997974792599e-14
2.662328861820859373e-14
1.889379206280463177e-14
1.359737033037222742e-14
9.949910606987530994e-15
7.425619945631174082e-15
5.637862013226031784e-15
4.339169209394486153e-15
3.365437874705600367e-15
2.611437044198643369e-15
2.013015827718000214e-15
1.531987310109893612e-15
