# bin_10_7
1.443166891573846159e-12
1.629333181911557389e-12
1.808529520688309241e-12
1.965685563228179999e-12
2.080933407584944146e-12
2.130813310860350088e-12
2.096624130256100659e-12
1.951922151637470318e-12
1.717732005423939332e-12
1.431532142973650490e-12
1.171424516724798978e-12
9.918814288840338616e-13
8.560055614966334186e-13
6.635912835647076620e-13
4.592997435621375341e-13
3.679387040793001114e-13
2.577400097707951448e-13
1.890429664794583783e-13
1.282954103395248496e-13
9.073754677592863523e-14
6.311273106004612561e-14
4.383590113804028217e-14
3.065589419161630154e-14
2.164924503704661976e-14
1.555981678174614387e-14
1.140352540375389103e-14
8.518446190105281475e-15
6.473609937274943015e-15
4.977459843172224522e-15
3.845500726514951889e-15
2.962984951024809374e-15
