# bin_10_6
7.109135623865162712e-14
8.012421507501137802e-14
8.875296800920209025e-14
9.622083492457267991e-14
1.015406236892094937e-13
1.035913151394024254e-13
1.014007059655761813e-13
9.382362524957910181e-14
8.208181669800759618e-14
6.811935854045204536e-14
5.580286898191338892e-14
4.748085241883067264e-14
4.080887282572744838e-14
3.109093240345473043e-14
2.162070116179621760e-14
1.747576986127089239e-14
1.196398018913067841e-14
8.925778896080338561e-15
6.057489520075747049e-15
4.250014354925054875e-15
2.969207359806623829e-15
2.073444882553061479e-15
1.457165448177765428e-15
1.035218580313400580e-15
7.493368243344925290e-16
5.530740695860764876e-16
4.158315269788966451e-16
3.176056224691165857e-16
2.449437928566695545e-16
1.893939370031077452e-16
1.457409882871736031e-16
