# bin_6_1
1.107112447906641950e-18
1.205204486413103760e-18
1.279213788526331235e-18
1.314960699580433867e-18
1.300831226298685082e-18
1.220324686398374768e-18
1.081902891660337430e-18
9.080510281503182925e-19
7.431261859105476793e-19
6.242412700539937083e-19
5.386112695360294463e-19
4.278026100789467986e-19
2.997488830740682134e-19
2.340663497883785864e-19
1.724775237797539329e-19
1.237852349696938998e-19
8.824800891439968284e-20
6.403946884249816331e-20
4.599955009078656592e-20
3.335995130728462629e-20
2.457494759013950015e-20
1.841313727564330473e-20
1.404628840364068414e-20
1.088131154592859583e-20
8.511820858990307905e-21
6.680941240406016407e-21
5.224724217366644486e-21
4.043640731317940084e-21
3.079424696695527524e-21
2.296840346730593087e-21
1.671998375457946502e-21
