# bin_3_2
7.585178007326074551e-11
8.020848644239045256e-11
8.212245781567446532e-11
8.081769947768547674e-11
7.540631378302626614e-11
6.652374493578305159e-11
5.568064091753893048e-11
4.563592230709555388e-11
3.844786321291549584e-11
3.298742303655016376e-11
2.590263371006170620e-11
1.833821107170624787e-11
1.434162130176238218e-11
1.051509985485644989e-11
7.639668633320329391e-12
5.509417425185674070e-12
4.024827217346090461e-12
2.940293295215483204e-12
2.176954227940865320e-12
1.639970671556271530e-12
1.257299581683001449e-12
9.795873859682064799e-13
7.719168051963506045e-13
6.110109026846457307e-13
4.824441372660799240e-13
3.773687092563603167e-13
2.905971184332783257e-13
2.191704554324871870e-13
1.612669281964700127e-13
1.155007949007969694e-13
8.050517318238285574e-14
