# bin_3_3
1.432329615518680498e-10
1.532353052196278034e-10
1.591434884865920744e-10
1.594641246065274057e-10
1.522660308108128832e-10
1.373851537516643123e-10
1.172802624985627874e-10
9.634173898969600744e-11
7.987562234652217185e-11
6.868703070180819662e-11
5.676990313751923928e-11
4.105002627094250420e-11
3.042020361777865554e-11
2.376698411286730144e-11
1.654189788109694111e-11
1.229593390197403172e-11
8.838384146724566441e-12
6.388485784738741430e-12
4.678313589099848625e-12
3.475209348681590143e-12
2.626870697578995923e-12
2.019716231097540522e-12
1.576324595167390255e-12
1.241167261854132780e-12
9.793050371263976537e-13
7.689511650878469003e-13
5.968109281939647589e-13
4.552444482104812099e-13
3.396973590929349925e-13
2.471123214248844207e-13
1.749787688901378947e-13
