# bin_10_1
9.548903807419740430e-30
1.068588958952471626e-29
1.173517709935670211e-29
1.258794676981512232e-29
1.310690380683365207e-29
1.316951108194885175e-29
1.260751613214452717e-29
1.139364802320129560e-29
9.734499536721679186e-30
7.987649596058777050e-30
6.614150796344485447e-30
5.709460685219893713e-30
4.746790028769329883e-30
3.396963718495892230e-30
2.500587527032841772e-30
1.969220257317619471e-30
1.327291805654226789e-30
9.824510718670683674e-31
6.915772805793370204e-31
4.816752006056802456e-31
3.384048568732133725e-31
2.393432993968725194e-31
1.715148020807983724e-31
1.248713516388566819e-31
9.273796085616338323e-32
7.011092378804458549e-32
5.378615159031402541e-32
4.164159128755090127e-32
3.230321946277141420e-32
2.492937896454642955e-32
1.901639372763170694e-32
