# bin_6_6
6.976690033964908603e-11
7.759345713074353343e-11
8.457054629713382608e-11
8.986647728299509344e-11
9.247074598477936870e-11
9.158841377199815192e-11
8.600443081563677568e-11
7.630852079999076382e-11
6.405402663053464116e-11
5.240022935029068249e-11
4.402131394498996516e-11
3.805889140453944644e-11
3.026014800885546173e-11
2.106777414007880621e-11
1.647821196516681963e-11
1.208063483006913480e-11
8.615862933636909911e-12
6.046068061353570481e-12
4.349506023217437735e-12
3.068466531688556749e-12
2.174367132788537273e-12
1.560886279873697780e-12
1.137022029827643648e-12
8.436220260477520303e-13
6.376880181966474210e-13
4.893329943577463250e-13
3.794029799124012728e-13
2.952258491444713087e-13
2.288991830539904895e-13
1.756597315628934886e-13
1.326953564570486238e-13
