# bin_9_2
1.471297220711593731e-22
1.640382209429378096e-22
1.793286912218532025e-22
1.912755990458959243e-22
1.977375726783275500e-22
1.970031129597838751e-22
1.864023741930263055e-22
1.665737944092312375e-22
1.407363828948453114e-22
1.151861910239612893e-22
9.619009108334746126e-23
8.323079078344332255e-23
6.745161025004790785e-23
4.726920343165579266e-23
3.616291058640706257e-23
2.733026684036478708e-23
1.899736848721160195e-23
1.359084133242624000e-23
9.738636109984691139e-24
6.831442882893099986e-24
4.816870031153535781e-24
3.436716337856353204e-24
2.487742195240880188e-24
1.832700030087663800e-24
1.376386035724740866e-24
1.050610406709095833e-24
8.117123335722264646e-25
6.307375180110791337e-25
4.893661456005365888e-25
3.764954335073297872e-25
2.855521838037073048e-25
