# bin_10_2
4.400356957283207485e-25
4.929030745219656414e-25
5.419371760979465426e-25
5.821634715304728854e-25
6.072847998464688317e-25
6.114804303356951710e-25
5.871616588558122649e-25
5.322158974419015197e-25
4.560999151108708789e-25
3.746215369119318173e-25
3.095966380029856433e-25
2.669278608372841850e-25
2.232159215421906323e-25
1.608524787925367666e-25
1.172442102230470222e-25
9.313734381046841509e-26
6.245893514205202156e-26
4.657029920919525900e-26
3.259855999442144927e-26
2.267478191487874369e-26
1.592458960833673699e-26
1.124161201775312390e-26
8.034617968653796991e-27
5.831021586774704201e-27
4.317069357180489996e-27
3.254741458222401365e-27
2.491534226165266743e-27
1.926552923607319825e-27
1.494086489329068345e-27
1.153761542485851213e-27
8.813322467941923846e-28
