# bin_14
0.000000000000000000e+00
0.000000000000000000e+00
0.000000000000000000e+00
0.000000000000000000e+00
0.000000000000000000e+00
0.000000000000000000e+00
0.000000000000000000e+00
0.000000000000000000e+00
6.265439140514725513e-318
7.732811155179655951e-285
1.240993489216993357e-255
8.958190947634784200e-230
8.219665349017456932e-207
2.298305818525542723e-186
4.103822042449933476e-168
8.778153211206576905e-152
3.849720249658848171e-137
5.488866405709379891e-124
3.784675762278294332e-112
1.779086587824075914e-101
7.680805508020830887e-92
3.947805144903556789e-83
3.030400415212748420e-75
4.237589131474041508e-68
1.285410868340504706e-61
9.865092761447714744e-56
2.194595685337185217e-50
1.596330833077336638e-45
4.225429757999203815e-41
4.476698419588394336e-37
2.066714733873950196e-33
4.485643128517464024e-30
4.899366445381117025e-27
2.862526211049274618e-24
9.451603219815889529e-22
1.853092518210197964e-19
2.255894838001972250e-17
1.775435007918559760e-15
9.369864712690728963e-14
3.427731852458711000e-12
8.957963869230846494e-11
1.718877458312896506e-09
2.482904771988520074e-08
2.762171492733691392e-07
2.416330582345878101e-06
1.694117406075397879e-05
9.686737588620119937e-05
4.589722950503691561e-04
1.828590646270761245e-03
6.208414918893603342e-03
1.818454607286611874e-02
4.646798418406020842e-02
1.046625205556042937e-01
2.097432271065980403e-01
3.771947792849768555e-01
6.135131981694628145e-01
9.090104562024544643e-01
1.234926437351670181e+00
1.547539083341992416e+00
1.798692301683737726e+00
1.948863287575052006e+00
1.977600652200861342e+00
1.887554699554143678e+00
1.701371439039330635e+00
1.453618564100902288e+00
1.181291476631419313e+00
9.160591831385058725e-01
6.799303633330641139e-01
4.844088920351984906e-01
3.321415800147303754e-01
2.197276342617298650e-01
1.405783264279101552e-01
8.717377545138228767e-02
5.250397884890455752e-02
3.077440274320180497e-02
1.758654973114172348e-02
9.815696734042939769e-03
5.359485264966730618e-03
2.867194471776845013e-03
1.505064354580273531e-03
7.762683696298366010e-04
5.540530303582882465e-04
