# bin_4
0.000000000000000000e+00
8.019272288248116074e-83
1.670351645191684572e-67
3.143653213305039740e-55
3.673162699418103751e-45
7.559941078594108568e-37
5.830433933674150621e-30
3.018226370036489033e-24
1.664783997302560917e-19
1.419088919987894089e-15
2.529587911412441606e-12
1.208453174792625487e-09
1.899442522088033997e-07
1.165230212995925275e-05
3.219599544335276253e-04
4.522627929754297407e-03
3.581166800167163294e-02
1.746955897697516358e-01
5.669618905342800330e-01
1.308071680363146694e+00
2.268613070944485610e+00
3.092958264988917794e+00
3.428013030340844480e+00
3.163110648022231963e+00
2.471657014515341810e+00
1.657572842255397472e+00
9.655151167053621641e-01
4.941917598217674956e-01
2.248568457018088051e-01
9.199046824410767043e-02
3.421303107017154704e-02
1.168934526321951245e-02
3.704886440556301192e-03
1.099141270967860006e-03
3.077509950681288332e-04
8.193313027868608979e-05
2.088190062682546947e-05
5.125984226624540986e-06
1.218597656869174217e-06
2.819382185058656948e-07
6.376329385832844002e-08
1.415214890078679046e-08
3.093422317901302010e-09
6.680180958504576070e-10
1.429188629267443733e-10
3.036905846480925862e-11
6.423668985380981428e-12
1.355215005063682749e-12
2.856762253473043235e-13
6.026465803802309025e-14
1.274027589703967991e-14
2.032735760803225064e-14
4.862138656279847936e-15
1.172269122427997091e-15
2.851246733985412987e-16
7.000984765664681478e-17
1.736479540362205609e-17
4.353111698323805583e-18
1.103444886715842546e-18
2.829399333888177906e-19
7.341361460903760803e-20
1.928058919271805700e-20
5.126569682633468822e-21
1.380317353335958554e-21
3.763936159120209764e-22
1.039602362897846188e-22
2.908645761311060244e-23
8.243992990438754509e-24
2.367125632809230943e-24
6.885664263193682129e-25
2.029113829245866963e-25
1.106869829448014304e-25
