# bin_15_9
-2.494044978109007587e-10
-2.820602077344042706e-10
-3.137426833870529805e-10
-3.418932997660208098e-10
-3.631171626741527538e-10
-3.733207381422975634e-10
-3.692588200955959616e-10
-3.460953405840815854e-10
-3.065104165304259919e-10
-2.568926491575285878e-10
-2.102314892363456449e-10
-1.770160063749429624e-10
-1.529813673685418614e-10
-1.208275204915548975e-10
-8.394190076014086276e-11
-6.595305346826026319e-11
-4.765469889639363456e-11
-3.403534241147803494e-11
-2.348668647500210223e-11
-1.663703862255772256e-11
-1.150719410198340292e-11
-7.943469899367664266e-12
-5.521839333911815557e-12
-3.874121597274446920e-12
-2.761412187198769028e-12
-2.006546814990684390e-12
-1.486643955813031821e-12
-1.121973926041317961e-12
-8.585031281195113613e-13
-6.617195397759904515e-13
-5.099695351073094291e-13
