# bin_1_4
-3.685336152175959161e-15
-3.901234006183132559e-15
-3.999378663227113371e-15
-3.942614199418531826e-15
-3.685882309193849067e-15
-3.257779254350551714e-15
-2.730284059468369599e-15
-2.236959919120795964e-15
-1.882108296600674153e-15
-1.617027588212872507e-15
-1.275622581236500359e-15
-9.020554402506545784e-16
-7.040140750629039966e-16
-5.184537680649013078e-16
-3.754786407084558017e-16
-2.709934042972715333e-16
-1.979587345106452709e-16
-1.444668910178024916e-16
-1.068436723987425351e-16
-8.039609834758277170e-17
-6.157054178259644128e-17
-4.792748165304077740e-17
-3.774548994215881582e-17
-2.987202855572144134e-17
-2.359126740046793264e-17
-1.846366190067905464e-17
-1.423078228610541598e-17
-1.074525651761625297e-17
-7.916884448587312930e-18
-5.677968036051108583e-18
-3.962862323362551422e-18
