# bin_10_13
-2.739387404278648180e-13
-3.121585003435884780e-13
-3.505564858871665481e-13
-3.864966021792590985e-13
-4.164861701100541448e-13
-4.360714434047777104e-13
-4.408543767649268950e-13
-4.256788879997495415e-13
-3.879083417580398947e-13
-3.342277724225310693e-13
-2.750516418353892598e-13
-2.266484179682134424e-13
-1.950527540230016526e-13
-1.646461979641873059e-13
-1.199434828942287494e-13
-8.590518388587693746e-14
-6.908701801746524731e-14
-4.566508903388358595e-14
-3.422441023424335959e-14
-2.342577815472434176e-14
-1.594035564162913517e-14
-1.090892910339113447e-14
-7.422816984333920500e-15
-5.065131140299648145e-15
-3.479410447428495862e-15
-2.427374820457847137e-15
-1.723929305655903051e-15
-1.250325289056443674e-15
-9.265484664103055274e-16
-6.994671218912815269e-16
-5.348505515144510275e-16
