# bin_8_10
-1.407719034389873834e-12
-1.591155951440378670e-12
-1.768642015171607561e-12
-1.925663602815192240e-12
-2.042970881313006315e-12
-2.097395999513365003e-12
-2.070992013321241506e-12
-1.936446567607679863e-12
-1.711076350330986678e-12
-1.430785157087247372e-12
-1.170486004798432028e-12
-9.875574367569547423e-13
-8.536768541232243920e-13
-6.699035406236006261e-13
-4.636809167388092191e-13
-3.676720467755681927e-13
-2.625015796550340146e-13
-1.894879163848086012e-13
-1.294419037196809529e-13
-9.189461116491150787e-14
-6.368728075356060576e-14
-4.404218453481953354e-14
-3.068614951448025068e-14
-2.158060905773273370e-14
-1.542970450051633453e-14
-1.124807602361997410e-14
-8.360280948391307575e-15
-6.327379277603397194e-15
-4.851854325787117673e-15
-3.744400038800230774e-15
-2.886605839036967029e-15
