# bin_14_9
-2.249335535522599448e-10
-2.543655160730738519e-10
-2.829102517652611078e-10
-3.082583797923543491e-10
-3.273465026168246757e-10
-3.364844405621679596e-10
-3.327461752754004631e-10
-3.117806622329645264e-10
-2.760429926919602403e-10
-2.313001780418100554e-10
-1.892867644896921563e-10
-1.594185064222619580e-10
-1.377642011552664922e-10
-1.087232492347311316e-10
-7.551969441798390758e-11
-5.938352987143743229e-11
-4.285435434105079832e-11
-3.063833047343982452e-11
-2.112798299258176462e-11
-1.496651126458622355e-11
-1.035401663874840378e-11
-7.148977681730568684e-12
-4.970821825249361291e-12
-3.488530831546790783e-12
-2.487470103591809020e-12
-1.808171620584466358e-12
-1.340158403660986182e-12
-1.011736819175123246e-12
-7.743239855214332058e-13
-5.969014858688798657e-13
-4.600144538598537677e-13
