# bin_14_2
-2.271351418774614369e-09
-2.354545140710207103e-09
-2.353884722782426384e-09
-2.245649034985279016e-09
-2.028581191501878509e-09
-1.737935283553704978e-09
-1.436480955028401247e-09
-1.193068974548799219e-09
-1.015477617295430664e-09
-8.339552929319595594e-10
-6.194523300998113397e-10
-4.582934082670611328e-10
-3.521999022815404253e-10
-2.534152674368313192e-10
-1.864358867183687460e-10
-1.353642750127457199e-10
-9.935027788421618568e-11
-7.369944556629556108e-11
-5.555057474906884218e-11
-4.261821144855596605e-11
-3.322297596688607467e-11
-2.621500442172225341e-11
-2.080116858617379350e-11
-1.647995990515684137e-11
-1.294701411289250137e-11
-1.002253813117840622e-11
-7.604685112512982442e-12
-5.633436665603109470e-12
-4.064602281974189934e-12
-2.855119034385082479e-12
-1.954933826816769150e-12
