# bin_13_10
-1.277360085006311221e-10
-1.449217640741359971e-10
-1.618368884169308432e-10
-1.772113022270606031e-10
-1.893462600305636615e-10
-1.961224198179003676e-10
-1.958137517927068208e-10
-1.857694304011699979e-10
-1.664077469562948480e-10
-1.409190604666440842e-10
-1.154016451616698624e-10
-9.624277911766028051e-11
-8.329894947120937487e-11
-6.784099501592914081e-11
-4.761833537075455911e-11
-3.613725393125766775e-11
-2.743919866592600447e-11
-1.881509207184945720e-11
-1.340600749066581883e-11
-9.451028878350888189e-12
-6.481974743206990873e-12
-4.440559185209687687e-12
-3.055468333274802987e-12
-2.119124221256895422e-12
-1.488283840743336599e-12
-1.064582705652996166e-12
-7.765375181812815448e-13
-5.780694670086319113e-13
-4.378855728232784442e-13
-3.356862434828662611e-13
-2.585689858275106241e-13
