# bin_12_10
-9.246179959056493383e-11
-1.048686832639650218e-10
-1.170619867859691854e-10
-1.281199689937932188e-10
-1.368095886204313018e-10
-1.415952929337892822e-10
-1.412414093360008431e-10
-1.338252397089887455e-10
-1.197308548369139159e-10
-1.012682672383775981e-10
-8.291021703234342473e-11
-6.921225328862627096e-11
-5.991604817223100230e-11
-4.865459221197730652e-11
-3.407498601967849197e-11
-2.597118358277537260e-11
-1.962255048507564682e-11
-1.350600187009337007e-11
-9.581839400422703379e-12
-6.767565069959876643e-12
-4.645096696240382308e-12
-3.183277845669927308e-12
-2.192595967708909656e-12
-1.522554736335874876e-12
-1.071037962324268229e-12
-7.674761139102907961e-13
-5.608349348239727402e-13
-4.181986699489668082e-13
-3.172064269933579797e-13
-2.433788409229225031e-13
-1.875240086036898083e-13
