# bin_8_2
-1.870540401123161302e-09
-1.937474570316189189e-09
-1.934974034890964642e-09
-1.843611349596037685e-09
-1.663148345964050839e-09
-1.423145359422080134e-09
-1.175782113960064252e-09
-9.771370814444360395e-10
-8.318482644620062811e-10
-6.817453687031382748e-10
-5.053742751962486015e-10
-3.745620019660231968e-10
-2.875566025263497352e-10
-2.068227641186130298e-10
-1.522039342549171458e-10
-1.105401117354509547e-10
-8.116196504666050639e-11
-6.024842928474397837e-11
-4.544773812397728255e-11
-3.489490684446713973e-11
-2.722134623055576340e-11
-2.149029148593960512e-11
-1.705658563964161022e-11
-1.351327264978663037e-11
-1.061367680563358368e-11
-8.212369328184144615e-12
-6.227101089041945253e-12
-4.609282646061083296e-12
-3.322783015334331366e-12
-2.332025054143755301e-12
-1.595487579670875171e-12
