# bin_1_10
-7.792315088533731829e-32
-8.725842560577361866e-32
-9.590327788242744027e-32
-1.029746368897726689e-31
-1.073558805375540759e-31
-1.080243581314604909e-31
-1.036328247487126666e-31
-9.385006941406673372e-32
-8.035665976767515778e-32
-6.598585199288172471e-32
-5.456699944859462422e-32
-4.705984941918702928e-32
-3.927832250627652254e-32
-2.825334812751069444e-32
-2.065665704902601344e-32
-1.635887222811283204e-32
-1.099474007351602879e-32
-8.175388809257886576e-33
-5.731861338263057557e-33
-3.989121683646427550e-33
-2.801869643226905369e-33
-1.979122535691987786e-33
-1.415581011641804006e-33
-1.028310641708597524e-33
-7.619906215434354178e-34
-5.749407471881450783e-34
-4.403968115706289728e-34
-3.406542849111501307e-34
-2.642072221719237436e-34
-2.039902873454985094e-34
-1.557639359073739249e-34
