# bin_14_10
-1.584670500476229461e-10
-1.798207215599996997e-10
-2.008566156492024246e-10
-2.200014595934977841e-10
-2.351512980632648121e-10
-2.436785183256051883e-10
-2.434274375540352799e-10
-2.311151064790881001e-10
-2.071777201134616289e-10
-1.755717582828951115e-10
-1.438026007508554542e-10
-1.198614906103973384e-10
-1.037259075027517128e-10
-8.462066805108624691e-11
-5.947882167926391265e-11
-4.502307597019151442e-11
-3.428353845425171063e-11
-2.345910457150906183e-11
-1.675634924254061101e-11
-1.179952198000139098e-11
-8.089211250400058084e-12
-5.540661900667553563e-12
-3.810218701890750251e-12
-2.640664654190481269e-12
-1.852791150983983928e-12
-1.323926758148619965e-12
-9.646638555175522227e-13
-7.173869587842383475e-13
-5.429771390870597407e-13
-4.160312083404526060e-13
-3.203915035882360572e-13
