# bin_7_11
-7.641956876614826480e-15
-8.648011401970369070e-15
-9.626541485362747589e-15
-1.049976513572478796e-14
-1.116394705972108485e-14
-1.149209000179292715e-14
-1.138744178020669022e-14
-1.069448605776546459e-14
-9.488743758156742632e-15
-7.961903465850780599e-15
-6.512376156929493259e-15
-5.474969292600140792e-15
-4.739265448710418536e-15
-3.763956349199068336e-15
-2.607628928860059633e-15
-2.045147823917140209e-15
-1.488103595057023999e-15
-1.057064512934453744e-15
-7.281102403451297705e-16
-5.181907436908542754e-16
-3.578870321844676931e-16
-2.464786084955882833e-16
-1.710971179404986829e-16
-1.198281074014019145e-16
-8.522595163591014665e-17
-6.179210023530139955e-17
-4.568869725082473981e-17
-3.442829650815998006e-17
-2.632127059187841553e-17
-2.028670388728615452e-17
-1.564495391752202593e-17
