# bin_5_15
-1.778873816191055823e-26
-2.027050648877971832e-26
-2.276378570513232338e-26
-2.509739085544534742e-26
-2.704450162901407639e-26
-2.831590510600561418e-26
-2.862607671975402430e-26
-2.763997369509758919e-26
-2.518662634866364223e-26
-2.170043287716249562e-26
-1.785782278752890749e-26
-1.471529964711644025e-26
-1.266441493280912094e-26
-1.068995389628777584e-26
-7.786490275498959767e-27
-5.577162858455337091e-27
-4.485532637381677176e-27
-2.964380833678518357e-27
-2.221916185310084087e-27
-1.520934572902019708e-27
-1.034900200854277031e-27
-7.082353452025042027e-28
-4.818942043913727238e-28
-3.288374481929245636e-28
-2.258974309480536308e-28
-1.576019584013711197e-28
-1.119351498912818133e-28
-8.118856278419287286e-29
-6.016791583946388003e-29
-4.542418044626658326e-29
-3.473529108362401194e-29
