# bin_4_11
-9.605005418928036335e-22
-1.082939185844168963e-21
-1.200094163652032879e-21
-1.301783097376839429e-21
-1.374692440709850219e-21
-1.403564539886033745e-21
-1.375450689410332816e-21
-1.274387700329412537e-21
-1.116340946769008594e-21
-9.273105365357187958e-22
-7.594693703103720075e-22
-6.455142657108552372e-22
-5.552946490286821832e-22
-4.246976880848085196e-22
-2.950386332916460514e-22
-2.379908104125886698e-22
-1.637731475589805942e-22
-1.217111632196079545e-22
-8.260315271357186773e-23
-5.805816316724352511e-23
-4.052008436875622806e-23
-2.826075713681913140e-23
-1.983829089393471793e-23
-1.407524744764390830e-23
-1.017196840243496646e-23
-7.495921925885786804e-24
-5.627856515375911275e-24
-4.293782186017534718e-24
-3.309323917835876973e-24
-2.558440243954439804e-24
-1.969389304199223889e-24
