# bin_15_4
-1.107691550359470780e-09
-1.205592870315213442e-09
-1.279363499206748572e-09
-1.315161222727323969e-09
-1.300598163908813973e-09
-1.220836957987033022e-09
-1.083243328775583704e-09
-9.112043288524880825e-10
-7.472497442360110033e-10
-6.272530832823160013e-10
-5.388987614141615492e-10
-4.285183170097271415e-10
-3.040879881180552513e-10
-2.344260701596842750e-10
-1.740560149163625514e-10
-1.242578093778753756e-10
-8.955856755307591709e-11
-6.450523804598789088e-11
-4.631114978152261165e-11
-3.359788102212743397e-11
-2.473006880400243534e-11
-1.851066169378137569e-11
-1.410203597566226638e-11
-1.091040047425716304e-11
-8.524780691968716380e-12
-6.684613516823585150e-12
-5.223984062946943743e-12
-4.041541233694880800e-12
-3.077669610187885118e-12
-2.296182755490248130e-12
-1.672710750356944668e-12
