# bin_13_11
-8.015999906531775198e-11
-9.117215628947990507e-11
-1.021382232914875239e-10
-1.122768356624498303e-10
-1.205460964409072820e-10
-1.256288569692473532e-10
-1.263372902665151372e-10
-1.210601030479324359e-10
-1.094860613321180395e-10
-9.360815297770927948e-11
-7.683037355256679187e-11
-6.361499847388079048e-11
-5.493620157169572548e-11
-4.571925084277461328e-11
-3.269588723226691815e-11
-2.400632316110473982e-11
-1.889323484265307897e-11
-1.262603358516123014e-11
-9.285024043803851219e-12
-6.445862254654959955e-12
-4.397398418784700307e-12
-3.007305507949680128e-12
-2.054224938094950189e-12
-1.411406290777988549e-12
-9.789080423803997374e-13
-6.905417771238175437e-13
-4.964022799401744335e-13
-3.644373458749469630e-13
-2.729509248670458041e-13
-2.076794425994269944e-13
-1.594795138552816794e-13
