# bin_14_11
-1.090776159092809244e-10
-1.240948242901406834e-10
-1.390678252899624210e-10
-1.529352780991061557e-10
-1.642832051327262045e-10
-1.713218606302742974e-10
-1.724162849890361913e-10
-1.653938085250857594e-10
-1.497448791986143856e-10
-1.281723973637982623e-10
-1.052420746731732294e-10
-8.708041074992747726e-11
-7.516102300782673578e-11
-6.267725777970742163e-11
-4.494827306615779109e-11
-3.288468358272171853e-11
-2.595744655960446624e-11
-1.732393118896000726e-11
-1.277230119687547579e-11
-8.848351433008046552e-12
-6.034728495899352297e-12
-4.127396994691414380e-12
-2.817822979775877823e-12
-1.934127834817955643e-12
-1.339583913086057938e-12
-9.434588459612997905e-13
-6.770394638630412831e-13
-4.961949914184490538e-13
-3.710746755587855714e-13
-2.820246640918915794e-13
-2.164368303444228179e-13
