# bin_6_14
-1.161356594415976978e-21
-1.321607828559509114e-21
-1.481583936171499684e-21
-1.630010133026081935e-21
-1.751868182116173649e-21
-1.828134517701341521e-21
-1.841225399862441927e-21
-1.767999350110888423e-21
-1.602071105736341499e-21
-1.372414152934700527e-21
-1.126893551002910426e-21
-9.316490154557904867e-22
-8.042099381506340862e-22
-6.722422325390645464e-22
-4.825084909940970485e-22
-3.518545808059705303e-22
-2.790613723795187215e-22
-1.853881540152093520e-22
-1.373481196815531772e-22
-9.501723811031397005e-23
-6.473866490201630201e-23
-4.426595344217109050e-23
-3.018661021695934008e-23
-2.070057474694471385e-23
-1.432081151140153954e-23
-1.007334465307395169e-23
-7.219283264201894797e-24
-5.284525223661863837e-24
-3.948354845355660909e-24
-2.999371283189734460e-24
-2.301836327171883966e-24
