# bin_2_5
-8.926839429485253097e-15
-9.655189948143152204e-15
-1.016580599606257606e-14
-1.035059811494442332e-14
-1.010728059075374823e-14
-9.336713476975582602e-15
-8.155983770395475461e-15
-6.771204238306044354e-15
-5.553150882914173430e-15
-4.718726701949187599e-15
-4.034431667420677334e-15
-3.079074097048044833e-15
-2.171772225640791891e-15
-1.736326737235571803e-15
-1.221589915506408875e-15
-9.084722942065561378e-16
-6.404778260013134764e-16
-4.636960511792872403e-16
-3.362382046884746324e-16
-2.462904208379375473e-16
-1.833369940953084401e-16
-1.388123274854549643e-16
-1.069521428941121608e-16
-8.348278234959003060e-17
-6.560842041484572531e-17
-5.156748035746850104e-17
-4.025102968435409693e-17
-3.100368920674202685e-17
-2.344014346381229878e-17
-1.732141502519756521e-17
-1.247519625750884376e-17
