# bin_9_6
-3.211816897176966494e-10
-3.569447206477630646e-10
-3.886887962813864561e-10
-4.125734968412650219e-10
-4.240270156861362085e-10
-4.192361055499715661e-10
-3.929877154072181825e-10
-3.481263652360511931e-10
-2.920502480187369624e-10
-2.391393411561001632e-10
-2.011502292626201973e-10
-1.734660036282307727e-10
-1.372650875576847253e-10
-9.609747585113929732e-11
-7.503735858982432184e-11
-5.481746920050403473e-11
-3.919300196998773890e-11
-2.763246848506665237e-11
-1.977813429395701014e-11
-1.396448361080252113e-11
-9.912889228060724310e-12
-7.122649910931089297e-12
-5.193957945783047618e-12
-3.857603885970431030e-12
-2.918226737420083681e-12
-2.240403916231992812e-12
-1.737197077471878241e-12
-1.351296771067384109e-12
-1.046988875123800949e-12
-8.027227086118257039e-13
-6.057196968332383798e-13
