# bin_11_8
-1.925633062903287246e-10
-2.167112211501093650e-10
-2.396263504383710900e-10
-2.592278187088940564e-10
-2.728229318699623033e-10
-2.774954107282787607e-10
-2.704350494590121673e-10
-2.490626258380640610e-10
-2.168908216709580307e-10
-1.795917973134306964e-10
-1.474064312813732912e-10
-1.258012168199308902e-10
-1.074655869428417779e-10
-8.089188657114010929e-11
-5.684166070359055189e-11
-4.577115926332350414e-11
-3.118729349077538125e-11
-2.326028023590951874e-11
-1.591721256671995686e-11
-1.113944298732234534e-11
-7.789734857483965203e-12
-5.450038164879642939e-12
-3.843728606418424175e-12
-2.743658669958106052e-12
-1.995980629652961729e-12
-1.480321023027322755e-12
-1.117632599021688927e-12
-8.560912282528494298e-13
-6.611022480817604517e-13
-5.110209215978925809e-13
-3.925614343638641774e-13
