# bin_5_8
-5.320749512932299581e-14
-5.941536779217401559e-14
-6.507879152002961255e-14
-6.958104279245575733e-14
-7.215079624664345440e-14
-7.214503040308569482e-14
-6.860343021098875682e-14
-6.159542675815215377e-14
-5.228465370611826380e-14
-4.283088697878144364e-14
-3.563419861186808114e-14
-3.081369077459361262e-14
-2.525674174545572175e-14
-1.784143984980869560e-14
-1.342791055554674136e-14
-1.033847475091059484e-14
-7.081286529562456890e-15
-5.142873211535870472e-15
-3.660173951307886960e-15
-2.558900842070081529e-15
-1.800673520329633702e-15
-1.279645771453884029e-15
-9.222846718983841220e-16
-6.760587407770901289e-16
-5.053545741588963694e-16
-3.842210291728965690e-16
-2.960136061791929727e-16
-2.297010916319503930e-16
-1.782359036813969442e-16
-1.373266670599339327e-16
-1.044222018969357952e-16
