# bin_8_14
-3.524014496997353090e-17
-4.015894402528766956e-17
-4.510189899573802263e-17
-4.973001380047644238e-17
-5.359422389553830097e-17
-5.612176922300583286e-17
-5.674561903268883305e-17
-5.480377907337747537e-17
-4.995122562575825984e-17
-4.304770320015469096e-17
-3.542834739926786000e-17
-2.918981727269206133e-17
-2.511834339868759175e-17
-2.121092481507099596e-17
-1.545947489132182082e-17
-1.106457297573092665e-17
-8.904196834379343864e-18
-5.883195937492547786e-18
-4.411860931856706041e-18
-3.018658682019150827e-18
-2.053857866416487943e-18
-1.405625486854499230e-18
-9.563295378921638962e-19
-6.524518328025318065e-19
-4.480743878630088984e-19
-3.125002352043098920e-19
-2.218647809858076754e-19
-1.608589472869497268e-19
-1.191684874239892748e-19
-8.994261323084784956e-20
-6.876705515580587428e-20
