# bin_1_15
-8.124163743556756438e-44
-9.251202012708369883e-44
-1.037979619684110990e-43
-1.143141008922702582e-43
-1.230169611922986991e-43
-1.285806139699366327e-43
-1.297391864648009767e-43
-1.249162956893410771e-43
-1.135031939234991941e-43
-9.750673911905189468e-44
-8.014948405575094782e-44
-6.615516435491700622e-44
-5.702299013316627911e-44
-4.789589325382677256e-44
-3.462715006112232219e-44
-2.502768736612288728e-44
-1.998889111577826804e-44
-1.324332901381939189e-44
-9.869373245943967647e-45
-6.791888035492644697e-45
-4.624426764139643730e-45
-3.163329503837000713e-45
-2.154744114717266118e-45
-1.474030715047808887e-45
-1.016223144670202878e-45
-7.119572669850940073e-46
-5.080028222314243181e-46
-3.702091955470458035e-46
-2.755187880550959037e-46
-2.086774515962982931e-46
-1.598740406112394839e-46
