# bin_15_8
-3.350856474741303668e-10
-3.773116354689792578e-10
-4.174836114070532395e-10
-4.520009930986369852e-10
-4.761911626052761503e-10
-4.849215606165217375e-10
-4.733819875217786168e-10
-4.368206990391304702e-10
-3.811208841198044886e-10
-3.159727571894890910e-10
-2.592199159290136743e-10
-2.209043304671291963e-10
-1.890269201827473306e-10
-1.430673172713569091e-10
-1.002995246177802818e-10
-8.064065291279736716e-11
-5.525512819106581973e-11
-4.105734696894962215e-11
-2.808290109990375226e-11
-1.968430987421068965e-11
-1.375022026830942202e-11
-9.606477255111785653e-12
-6.764173612595140624e-12
-4.818797801037826485e-12
-3.497789016192867891e-12
-2.588487019523971761e-12
-1.950493414650432963e-12
-1.491871389879166298e-12
-1.151114736716959891e-12
-8.896510116059118957e-13
-6.837411295129355764e-13
