# bin_7_2
-1.745875662740387822e-09
-1.807752606170468850e-09
-1.804679743425051648e-09
-1.718565087336221213e-09
-1.549487330950505476e-09
-1.325235865953246610e-09
-1.094696633578426379e-09
-9.099755254033301805e-10
-7.747338168621513811e-10
-6.344033345845972060e-10
-4.698924266084125470e-10
-3.485189339051948855e-10
-2.674505144831896100e-10
-1.923310458894152766e-10
-1.415567237799604147e-10
-1.028190249831207329e-10
-7.550483319840533403e-11
-5.606474379179512749e-11
-4.230544073721817288e-11
-3.249271812822475093e-11
-2.535465213726983622e-11
-2.002075836144859878e-11
-1.589190352580382789e-11
-1.259054036820553643e-11
-9.887936117385362372e-12
-7.649350363981695474e-12
-5.798629482021112272e-12
-4.290738791631827803e-12
-3.092054074032766023e-12
-2.169326500606414272e-12
-1.483688578312971139e-12
