# bin_5_1
-2.596041573970284780e-09
-2.538037865674270028e-09
-2.362942406337986118e-09
-2.087978063435926391e-09
-1.764405326955125615e-09
-1.461528422364047047e-09
-1.223638498738922276e-09
-1.025249732831650155e-09
-8.123394939777161565e-10
-6.032842257923054493e-10
-4.533836291456833438e-10
-3.414018322730896494e-10
-2.491094774256868485e-10
-1.837900530523431791e-10
-1.355971000892325305e-10
-1.013171945976913726e-10
-7.687075071693762062e-11
-5.936498343675497251e-11
-4.660231930071742781e-11
-3.702923001370970614e-11
-2.959898483006004265e-11
-2.362863629503711793e-11
-1.870530462098379793e-11
-1.459188081132955830e-11
-1.115776789982727195e-11
-8.330239808600610157e-12
-6.058649513349216372e-12
-4.290460189333124310e-12
-2.961660945770912564e-12
-1.997496683138869578e-12
-1.320247221246925826e-12
