# bin_12_6
-4.923749826643761347e-10
-5.475219343324079882e-10
-5.966456262150249776e-10
-6.338809820199979161e-10
-6.522023292969826303e-10
-6.457510843417648680e-10
-6.064314030935724371e-10
-5.381530153968232903e-10
-4.521722154397773387e-10
-3.702869961139416667e-10
-3.110270688560597090e-10
-2.683033890197048947e-10
-2.132832722261429216e-10
-1.495280428312623290e-10
-1.161945283821862309e-10
-8.545382556918245357e-11
-6.077907660820493294e-11
-4.300776632197925042e-11
-3.075328747494256494e-11
-2.168699744300960824e-11
-1.537831387673175385e-11
-1.103399532274274504e-11
-8.033650833121149672e-12
-5.956341642600894650e-12
-4.498835827106655200e-12
-3.449496297737744306e-12
-2.672457961040762664e-12
-2.078100266534852481e-12
-1.610373410749379755e-12
-1.235408383851551849e-12
-9.331122389621987764e-13
