# bin_4_1
-2.305124181005173343e-09
-2.250374143417170990e-09
-2.091603026227280665e-09
-1.845176572853589122e-09
-1.557399012303205372e-09
-1.289928241496991901e-09
-1.080556240033898937e-09
-9.046734984590078262e-10
-7.149724563937768329e-10
-5.304386640568455935e-10
-3.991015052487580061e-10
-3.001861372585512356e-10
-2.190368177595342392e-10
-1.616497848910921379e-10
-1.193182544471133983e-10
-8.921623318110599285e-11
-6.775032236355291387e-11
-5.236991617530516833e-11
-4.114460114899055011e-11
-3.271229184486402185e-11
-2.615636307481200543e-11
-2.088032738525669290e-11
-1.652468551967124532e-11
-1.288353144777044589e-11
-9.843781928187222004e-12
-7.342369257977077711e-12
-5.334752187764256451e-12
-3.773994320862927888e-12
-2.602680883048953322e-12
-1.753911697193513423e-12
-1.158429463487375806e-12
