# bin_12_5
-6.963214772654604295e-10
-7.673164535405278216e-10
-8.268778775678625675e-10
-8.663075948081059041e-10
-8.768154299528713729e-10
-8.488011247254837273e-10
-7.766906753614293734e-10
-6.721499594923221671e-10
-5.553346436496547364e-10
-4.573165156393789369e-10
-3.910896530931188399e-10
-3.304108708753041688e-10
-2.458429173375966529e-10
-1.761547759952994667e-10
-1.400636836936418335e-10
-9.676564302185698527e-11
-7.190932515831823824e-11
-5.045408722161690314e-11
-3.593924764840915500e-11
-2.571363263784902303e-11
-1.854688986414107208e-11
-1.357052494340677502e-11
-1.009359219436387087e-11
-7.648957954371431617e-12
-5.885856966636832821e-12
-4.575744053310928498e-12
-3.571762443276038551e-12
-2.779427253424757583e-12
-2.141981348961601664e-12
-1.625470128257388392e-12
-1.209198997898907895e-12
