# bin_4_8
-6.620172142664530016e-16
-7.375508817013987953e-16
-8.055695927427079149e-16
-8.582699783630049018e-16
-8.860221397801980667e-16
-8.811952323791414523e-16
-8.318953522741704391e-16
-7.418080562357571884e-16
-6.255178020241700051e-16
-5.118601683321117508e-16
-4.282028916601765189e-16
-3.704636338027754802e-16
-2.985518890649824416e-16
-2.087534180700779170e-16
-1.607911471305037999e-16
-1.204293822017338653e-16
-8.434662238470663188e-17
-5.997141799778728690e-17
-4.303789772636035966e-17
-3.023837092154212339e-17
-2.134909549526692218e-17
-1.525847404982947732e-17
-1.106495081449471135e-17
-8.168205765764449264e-18
-6.145885615559355711e-18
-4.698519792392217996e-18
-3.633992357644164668e-18
-2.825049698893374669e-18
-2.191530480821110431e-18
-1.684915650993754980e-18
-1.276510053437522689e-18
