# bin_8_15
-1.472870017714504570e-18
-1.681140253604582665e-18
-1.891965322113167720e-18
-2.091328754718533776e-18
-2.260798657762992336e-18
-2.376629008841881040e-18
-2.413524789582064428e-18
-2.346149389296070654e-18
-2.153231133779006381e-18
-1.868644350080825709e-18
-1.543026876080806048e-18
-1.267271850755555356e-18
-1.085621911491241321e-18
-9.257688117644608027e-19
-6.878202257138942151e-19
-4.835624168631190885e-19
-3.924981071323868571e-19
-2.605132937016054741e-19
-1.961963150935620417e-19
-1.326540838377177694e-19
-9.043670127198551944e-20
-6.192940875329912689e-20
-4.207801147507327732e-20
-2.855311831682648560e-20
-1.945018816466464399e-20
-1.343166449979078370e-20
-9.429656439972782084e-21
-6.756046114054944477e-21
-4.949738908162730476e-21
-3.702090250772436221e-21
-2.813582567202355592e-21
