# bin_9_14
-1.563445987872182728e-15
-1.782994803243974849e-15
-2.004380146338140035e-15
-2.212636024943125814e-15
-2.388002633386641467e-15
-2.505165884349005940e-15
-2.538176031340378889e-15
-2.458783335790348974e-15
-2.248220655356057454e-15
-1.943783118105336393e-15
-1.602078490152083772e-15
-1.317879561930369761e-15
-1.131803054089128358e-15
-9.603473683386027229e-16
-7.061188287005059181e-16
-5.008901020549876100e-16
-4.051748017178992461e-16
-2.678634265290582657e-16
-2.015454260887119412e-16
-1.371223079864313816e-16
-9.332477631758152515e-17
-6.389658544785733835e-17
-4.344252223103389187e-17
-2.956248843628709112e-17
-2.022457216416911347e-17
-1.404061132797271607e-17
-9.917008313789391192e-18
-7.151347320235759500e-18
-5.271540033378018916e-18
-3.962843137849052852e-18
-3.022130649453289990e-18
