# bin_5_4
-2.803144223860959788e-10
-3.039362331054174767e-10
-3.210095922654530979e-10
-3.280949768743634903e-10
-3.220313669937625339e-10
-2.994458413270652566e-10
-2.632628088368673075e-10
-2.197684495919370998e-10
-1.802183798153727648e-10
-1.523110216558562856e-10
-1.304785876929519886e-10
-1.014162588282517552e-10
-7.166299690009702178e-11
-5.635306004389221975e-11
-4.068876123242296563e-11
-2.963700745602565866e-11
-2.110488481404964249e-11
-1.527204367503732382e-11
-1.102157179932855279e-11
-8.037377857426633325e-12
-5.954440965971583701e-12
-4.487129837923601285e-12
-3.441300190427764576e-12
-2.676519763331691588e-12
-2.098564765778754742e-12
-1.647940667944020461e-12
-1.286994551100966645e-12
-9.931388028691311481e-13
-7.531053792889565832e-13
-5.587442209927454496e-13
-4.043434523018760721e-13
