# bin_13_14
-6.410130751072153604e-12
-7.329935078564218822e-12
-8.268215075759067931e-12
-9.164919820834474732e-12
-9.941591708819165049e-12
-1.049579226459015429e-11
-1.071062449506852976e-11
-1.048626855187706373e-11
-9.702098618552901034e-12
-8.487021181551328402e-12
-7.041416535552533828e-12
-5.768915172661404970e-12
-4.912302937976532026e-12
-4.223213538882777956e-12
-3.210434981322091467e-12
-2.228422083813931632e-12
-1.803673401213397694e-12
-1.223585909750506880e-12
-9.118197600262924578e-13
-6.104669552019627523e-13
-4.205692243205697293e-13
-2.873737912620613311e-13
-1.946681289443837611e-13
-1.313569723189160647e-13
-8.871965063725952185e-14
-6.058554854319881876e-14
-4.197973712115472649e-14
-2.964318746559100833e-14
-2.140721143075099475e-14
-1.580974145754657961e-14
-1.190277738255210090e-14
