# bin_5_11
-6.785047939785477670e-19
-7.659072191242240715e-19
-8.499798336477629610e-19
-9.236245986741369105e-19
-9.774932921454689640e-19
-1.000584767619345855e-18
-9.840737463105542977e-19
-9.156622507140036734e-19
-8.053782862162453503e-19
-6.709621594713974459e-19
-5.491169842007647717e-19
-4.651496489867194177e-19
-4.012580938437670574e-19
-3.105959985320480454e-19
-2.151043241957070590e-19
-1.724142321857134618e-19
-1.205526699023801465e-19
-8.853144715184115414e-20
-6.010565057383552384e-20
-4.247311744736393394e-20
-2.955224557536781443e-20
-2.053443171753461798e-20
-1.436549560186638597e-20
-1.015012844889020643e-20
-7.299256245285431197e-21
-5.352533160679108148e-21
-4.000505150969856761e-21
-3.041463604389269156e-21
-2.339128339817545023e-21
-1.807304674067754173e-21
-1.392408447737360518e-21
