# bin_3_10
-5.048841242115186493e-23
-5.665082285970921644e-23
-6.241600466779043309e-23
-6.722180118426607421e-23
-7.035195728951532138e-23
-7.110023855047587026e-23
-6.864400609231297781e-23
-6.256435447938578021e-23
-5.392006157313933025e-23
-4.438727687778058836e-23
-3.656869260380669982e-23
-3.143737517623290538e-23
-2.653500346222895571e-23
-1.939489703563244392e-23
-1.390447932189070055e-23
-1.117515741678161248e-23
-7.468802904535948328e-24
-5.616279524267996933e-24
-3.891042646300778084e-24
-2.704138017881495698e-24
-1.898134669847396746e-24
-1.336099181928770215e-24
-9.504089675703139455e-25
-6.857293622244951596e-25
-5.046971617015707042e-25
-3.784714667793964624e-25
-2.884791337889040007e-25
-2.224672942189092511e-25
-1.723789766367695006e-25
-1.332337618856282230e-25
-1.020191149825276224e-25
