# bin_4_4
-1.076188445322034863e-10
-1.163034207708604163e-10
-1.223297560949085779e-10
-1.244154271873015291e-10
-1.213001940123721463e-10
-1.119012833826662044e-10
-9.762487178980769621e-11
-8.104481757376755764e-11
-6.654342792384661067e-11
-5.655991819860756519e-11
-4.819876366913199709e-11
-3.670942885388114432e-11
-2.604144726784694345e-11
-2.069559595553942426e-11
-1.462460285884082211e-11
-1.082420678519418087e-11
-7.666331904501545970e-12
-5.548769425192812312e-12
-4.023305777203637963e-12
-2.948493860688704174e-12
-2.196317906526514482e-12
-1.664172063222308152e-12
-1.282871480614093809e-12
-1.001634676007381704e-12
-7.871773004046748306e-13
-6.185397289415653492e-13
-4.825520546664995113e-13
-3.714255881481235668e-13
-2.805767564877877664e-13
-2.071476181111839675e-13
-1.490631336731707382e-13
