# bin_5_9
-1.626169362592707990e-15
-1.823357023030638583e-15
-2.007180447741035982e-15
-2.159416895407766994e-15
-2.256914631349545154e-15
-2.277429196009305875e-15
-2.193832802924857885e-15
-1.994932370012966332e-15
-1.715282377092389164e-15
-1.410661130413243527e-15
-1.163629272753737376e-15
-1.001611322709748725e-15
-8.422510368223233594e-16
-6.119604926261761309e-16
-4.416556038242973997e-16
-3.533990067227566146e-16
-2.363908128972955787e-16
-1.772220168800493311e-16
-1.232982798057167881e-16
-8.570334508755692319e-17
-6.017239157384181105e-17
-4.240407090518340377e-17
-3.022207617013332766e-17
-2.185853698012310576e-17
-1.612752255174892301e-17
-1.212127967510102727e-17
-9.256059391105878043e-18
-7.146338556073412530e-18
-5.539641847054077371e-18
-4.280278764550870111e-18
-3.274355259105501310e-18
