# bin_13_4
-1.038987475497514985e-09
-1.130706130314252164e-09
-1.199748309048661477e-09
-1.233135520207191830e-09
-1.219247900601008191e-09
-1.144199970997605988e-09
-1.015005038567224563e-09
-8.536342596939057759e-10
-7.000314225870131858e-10
-5.877171090565950956e-10
-5.049035367596978305e-10
-4.012615070245635320e-10
-2.847023364250419636e-10
-2.195953276948947291e-10
-1.629333436791247412e-10
-1.163722529593012497e-10
-8.384968181616971737e-11
-6.040167268427347962e-11
-4.337025156606097760e-11
-3.146827586768247891e-11
-2.316632271638636648e-11
-1.734317364263440254e-11
-1.321488360959344403e-11
-1.022544885435373061e-11
-7.990342398370761389e-12
-6.265797826329002752e-12
-4.896616796115407131e-12
-3.788036427990608132e-12
-2.884319793287496637e-12
-2.151625917734956955e-12
-1.567142473838892006e-12
