# bin_10_5
-5.890664331202624099e-10
-6.489735545478979217e-10
-6.991456943644561072e-10
-7.322167704949624048e-10
-7.407816652488242758e-10
-7.166817739990811609e-10
-6.553637419505003757e-10
-5.667852708682316071e-10
-4.681168345977427886e-10
-3.855893670770151287e-10
-3.298812781833915028e-10
-2.784744210217205303e-10
-2.068530462145450623e-10
-1.483903525623161530e-10
-1.179623624382024504e-10
-8.142629731249577985e-11
-6.053532279364454496e-11
-4.248969741799658721e-11
-3.026172758400136686e-11
-2.165819930793280459e-11
-1.562855734227628614e-11
-1.144093352632711579e-11
-8.514268099697161366e-12
-6.455511167972901673e-12
-4.969605353580504603e-12
-3.864560978516851676e-12
-3.017011128712803540e-12
-2.347655829139861785e-12
-1.808904424070762775e-12
-1.372289770163444538e-12
-1.020438854722620680e-12
