# bin_6_1
-2.807723185590307436e-09
-2.747352196504253986e-09
-2.560378821494757883e-09
-2.264649567299603935e-09
-1.915031192675862156e-09
-1.586391592204505597e-09
-1.327750924555675980e-09
-1.112985821179963105e-09
-8.831876839774055712e-10
-6.562897583958615433e-10
-4.928817032736524552e-10
-3.713921533406767056e-10
-2.709916593280900431e-10
-1.999002991803905146e-10
-1.474422997280333995e-10
-1.101223815582980594e-10
-8.350716520873626436e-11
-6.445488747010811119e-11
-5.057357849158681769e-11
-4.017040719400378499e-11
-3.210397194873945883e-11
-2.562841279151816861e-11
-2.029200752304249311e-11
-1.583494210515844206e-11
-1.211387553199194397e-11
-9.049053669031107715e-12
-6.585386546332429900e-12
-4.666262193358123392e-12
-3.222870136778763995e-12
-2.174739779150999465e-12
-1.437993084408192115e-12
