# bin_13_2
-2.228565918260046582e-09
-2.310023967019162799e-09
-2.309167101262485346e-09
-2.202732560667512970e-09
-1.989572184278901062e-09
-1.704332291225943203e-09
-1.408652047962676405e-09
-1.170018806793381759e-09
-9.958756352225620141e-10
-8.177072738743551709e-10
-6.072748271730276646e-10
-4.493552672907081037e-10
-3.452994091557756875e-10
-2.484416274929912304e-10
-1.827817272084184010e-10
-1.327143531322223898e-10
-9.740872009997047739e-11
-7.226358374613192926e-11
-5.447212309110863045e-11
-4.179376878696781757e-11
-3.258231759894048410e-11
-2.571065360661248198e-11
-2.040144408983444333e-11
-1.616327373965220661e-11
-1.269793640047202272e-11
-9.829307295646474831e-12
-7.457631584321743590e-12
-5.524110880390415031e-12
-3.985415004891813803e-12
-2.799280114159874646e-12
-1.916563874455563574e-12
