# bin_3_4
-1.724789028172277763e-11
-1.854355885845707433e-11
-1.937808352615452419e-11
-1.955924340654773324e-11
-1.886737602127610564e-11
-1.720224076652002351e-11
-1.483593721933591014e-11
-1.223640284660927910e-11
-1.008783847832938368e-11
-8.636969584694962149e-12
-7.263269232011900562e-12
-5.371946167021039802e-12
-3.881096526800727871e-12
-3.083236430683072559e-12
-2.140394986401756968e-12
-1.600928718390806505e-12
-1.138617178712128332e-12
-8.224516348184973775e-13
-5.997715446868020978e-13
-4.427599565088889006e-13
-3.324022371231673368e-13
-2.538516081348821256e-13
-1.970414505676364289e-13
-1.545976221333527624e-13
-1.218082185306055085e-13
-9.571987377077761214e-14
-7.450282400475860546e-14
-5.709375445395834356e-14
-4.286333466171366683e-14
-3.140617365136974162e-14
-2.241024387681284689e-14
