# bin_14_12
-6.701104539519618643e-11
-7.640668190470069780e-11
-8.587242268062732916e-11
-9.476608712285583325e-11
-1.022391971883229134e-10
-1.072054905085365057e-10
-1.085619025479955337e-10
-1.050887941022190099e-10
-9.602624387737385407e-11
-8.296736942019000430e-11
-6.837391090752411031e-11
-5.627547217198953388e-11
-4.833934964864018839e-11
-4.095331257537874046e-11
-3.007179953734108569e-11
-2.139316920428688993e-11
-1.724702969215829841e-11
-1.143628296385896799e-11
-8.575733500774766375e-12
-5.842405455796161324e-12
-3.980815466754370635e-12
-2.724654287416844678e-12
-1.853086736515782165e-12
-1.261823857761991823e-12
-8.640175560162269558e-13
-6.004209205139779089e-13
-4.245412821930083236e-13
-3.064755884873488104e-13
-2.261217780127826216e-13
-1.700903284542831362e-13
-1.297440135890042331e-13
