# bin_14_6
-5.699485405084598486e-10
-6.338794926230346898e-10
-6.908791751718890022e-10
-7.341651113359651297e-10
-7.555997124129803595e-10
-7.483974534625648448e-10
-7.031563005492316302e-10
-6.242678956608557746e-10
-5.247365821147474704e-10
-4.297211636672320800e-10
-3.608210020164464680e-10
-3.112814220204411227e-10
-2.477342337406939564e-10
-1.737436013450215736e-10
-1.348464721568647322e-10
-9.933852896451777766e-11
-7.056193454608633086e-11
-4.997607544960354081e-11
-3.572724169159808389e-11
-2.518684450445982820e-11
-1.785522739044001977e-11
-1.280657938181269768e-11
-9.320548709803878673e-12
-6.907431618212945018e-12
-5.215109409094534217e-12
-3.997402425355078282e-12
-3.096270165423492348e-12
-2.407447587507519777e-12
-1.865667651441414242e-12
-1.431477862388556853e-12
-1.081469818913134448e-12
