# bin_10_2
3.429184822065922113e-08
3.018223397970970330e-08
2.584745851039844316e-08
2.159408665738734490e-08
1.768713680901437816e-08
1.427831775925473665e-08
1.138315962158714223e-08
8.926531800643037740e-09
6.849534672890245515e-09
5.168771425275045172e-09
3.895890491486553355e-09
2.946290002015481156e-09
2.227334711830882904e-09
1.697444461903076959e-09
1.305834057551474580e-09
1.014074776752332152e-09
7.936902033568383449e-10
6.240737712690667400e-10
4.908980162551090386e-10
3.845429687532804049e-10
2.986737925795469638e-10
2.291069685928076508e-10
1.729982941295415062e-10
1.282636584784567598e-10
9.320779461532980916e-11
6.632376678382696466e-11
4.620632629541717077e-11
3.153875359697658978e-11
2.112061494495909838e-11
1.390366839753975943e-11
9.017423847955559262e-12
