# bin_11_2
3.466781637181999224e-08
3.052941429551271689e-08
2.615683831490240350e-08
2.186052787071386536e-08
1.791032152872767610e-08
1.446196413224008654e-08
1.153275581566011521e-08
9.046701425743097120e-09
6.943330204688898026e-09
5.239598210458527792e-09
3.948830264226088726e-09
2.986051590430450618e-09
2.256944672239001092e-09
1.719560549151341617e-09
1.322516547314585682e-09
1.026798717058974114e-09
8.035230562600995389e-10
6.317628179960589588e-10
4.969611753872040414e-10
3.893405347342529529e-10
3.024620726298486793e-10
2.320757203858381635e-10
1.752958393483071317e-10
1.300124340280343092e-10
9.451278703681882193e-11
6.727644894176579784e-11
4.688598138580090125e-11
3.201259161574053411e-11
2.144377095987506609e-11
1.411966156669343910e-11
9.159245144077043705e-12
