# bin_2_2
2.250764469592326650e-08
1.931209398022994793e-08
1.617264835374815209e-08
1.327228178119505313e-08
1.072341067355484361e-08
8.551632706648892447e-09
6.719228108380781777e-09
5.181659845634644093e-09
3.930421500862769047e-09
2.967855896753436101e-09
2.250706105983074271e-09
1.710182227235900492e-09
1.307437308262681861e-09
1.009876077319610708e-09
7.869941365224304705e-10
6.180243272370221153e-10
4.873832296641209776e-10
3.843612594692893281e-10
3.017517392309396964e-10
2.348134026156784146e-10
1.804214137644527316e-10
1.364432338017579351e-10
1.013078190016576811e-10
7.372603351572685039e-11
5.254006879796118843e-11
3.666176390660468793e-11
2.506643678353222194e-11
1.681624663053151875e-11
1.109049545400629001e-11
7.206277076343765198e-12
4.623753938403653030e-12
