# bin_13_9
8.174600384521256148e-08
7.788849027234946126e-08
7.241438421764672295e-08
6.556686910307970960e-08
5.775197833970028662e-08
4.950050295827408308e-08
4.138723638417071565e-08
3.391046248939541958e-08
2.736140833633599497e-08
2.178723561294038121e-08
1.706369198761805672e-08
1.307071413846072863e-08
9.814407277485651049e-09
7.328043637557916684e-09
5.481689598559225284e-09
4.079734785784580034e-09
3.047169347111706297e-09
2.291157210624685512e-09
1.734801995268795795e-09
1.322855500792348588e-09
1.014383626133868458e-09
7.799078986198378785e-10
5.991101274759946100e-10
4.581321121714840826e-10
3.474820850007761604e-10
2.605860262159529168e-10
1.927212816900378061e-10
1.402829522848643855e-10
1.003651231322611075e-10
7.052439567230417739e-11
4.866407175381698259e-11
