# bin_14_6
6.940021224564924345e-08
6.508702079585398459e-08
5.947560641490753794e-08
5.287135109394384860e-08
4.570909642594129739e-08
3.849618857881838603e-08
3.171785284393405637e-08
2.570543584838503410e-08
2.056771361320660086e-08
1.621811251110391157e-08
1.252029721467101701e-08
9.450184221755675044e-09
7.068058543016043411e-09
5.305418552222704223e-09
3.967170185826386476e-09
2.970611737908037316e-09
2.243494126260530347e-09
1.706046906098033545e-09
1.307953727146556401e-09
1.009153154496007608e-09
7.812280386363651072e-10
6.045649409020647687e-10
4.658363311418669025e-10
3.560209832959014600e-10
2.689442803731826815e-10
2.002449776696156260e-10
1.466272413671878962e-10
1.054268034539254820e-10
7.436900629768202896e-11
5.145767767269226987e-11
3.493922910181653572e-11
