# bin_9_6
6.350476904990941236e-08
5.917405800298465589e-08
5.371688654003958729e-08
4.744543770664924957e-08
4.077748634575507500e-08
3.417559026874792651e-08
2.805421654056570699e-08
2.267064793214599909e-08
1.808419476187282778e-08
1.420301219991041182e-08
1.092065292984650376e-08
8.229727269272133496e-09
6.162759789539343966e-09
4.629518929928198184e-09
3.466398572964881649e-09
2.604686835612943824e-09
1.973331597127757538e-09
1.506134820719556572e-09
1.158380058736206725e-09
8.959290686417370915e-10
6.945561830477869515e-10
5.376316611652335972e-10
4.138928704545197402e-10
3.157043541864720223e-10
2.378077867511327602e-10
1.764286512789370205e-10
1.286566577683167348e-10
9.209370262207801959e-11
6.466463795001811703e-11
4.453865270999010239e-11
3.010943909047897270e-11
