# bin_13_1
2.329136277431458921e-08
1.988719661082322269e-08
1.657961737729211610e-08
1.356262013917169717e-08
1.093807997889440306e-08
8.706350132638365964e-09
6.812350586437541857e-09
5.222444714745839269e-09
3.948801272560287285e-09
2.984666307410312254e-09
2.263353005919345999e-09
1.720247590594123040e-09
1.318946193983949431e-09
1.021613571518134847e-09
7.988853071406008312e-10
6.293541064565448990e-10
4.976124376547030948e-10
3.931023573527921195e-10
3.088179091072215560e-10
2.402010792833866148e-10
1.842696788956514269e-10
1.389884180432695408e-10
1.028322222262250944e-10
7.451456397916516314e-11
5.284726860733271424e-11
3.669091322165880855e-11
2.496206196142333506e-11
1.666872368015006828e-11
1.094790857671325456e-11
7.088588583785403068e-12
4.535040193327002474e-12
