# bin_11_9
7.854152351617524038e-08
7.459342539286119136e-08
6.911335708222745996e-08
6.235718532078709012e-08
5.473404671200699539e-08
4.676412688468985646e-08
3.899593672212384406e-08
3.188708344255825363e-08
2.568756218435022675e-08
2.041813643087219867e-08
1.595375913350449685e-08
1.219218297225398297e-08
9.147413684811594446e-09
6.835051757103127747e-09
5.114401374547911532e-09
3.809614809862636074e-09
2.851230959613098699e-09
2.147851726148981078e-09
1.629934080896898035e-09
1.245427521466447322e-09
9.565858878229720853e-10
7.362878049807896518e-10
5.658772303025541098e-10
4.326500056782862118e-10
3.278990135626885701e-10
2.455749268695253049e-10
1.812951357712712419e-10
1.316808987177600941e-10
9.398143490406594747e-11
6.586627096857542184e-11
4.532760042121901587e-11
