# bin_14_13
9.332922245922930117e-08
8.999203941448084093e-08
8.476320612957846057e-08
7.782300526236419350e-08
6.953928494103644807e-08
6.044678546270275839e-08
5.117964432775403686e-08
4.235745321627279886e-08
3.443665308694775120e-08
2.760697720118494581e-08
2.181370537825517669e-08
1.690067297340938114e-08
1.279968012180220395e-08
9.554099512047886622e-09
7.124921977630959245e-09
5.302625135651622549e-09
3.930521246481870341e-09
2.932370130112463722e-09
2.197978816095348522e-09
1.659907801345798280e-09
1.261306465328315772e-09
9.626742649715228813e-10
7.358606243750736014e-10
5.614101215958267662e-10
4.260026586860382146e-10
3.204332470009808996e-10
2.382484510733080502e-10
1.747055263617732562e-10
1.261332421137717969e-10
8.956179106260052992e-11
6.251131971837609688e-11
