# bin_12_8
7.675034311344884922e-08
7.271806382207931027e-08
6.719690581819067034e-08
6.045331716657039613e-08
5.290321635293816468e-08
4.506664898123786926e-08
3.748319330002508933e-08
3.058903427257624242e-08
2.460582443876509385e-08
1.952995907180789012e-08
1.522671362457099907e-08
1.160502315136189857e-08
8.694132016264320362e-09
6.501452705182336328e-09
4.866083984535978230e-09
3.625348067645016778e-09
2.719192690505247900e-09
2.051551273137258337e-09
1.560369454349702047e-09
1.194788348993143204e-09
9.193430940467392630e-10
7.085894447491639306e-10
5.450404217367545365e-10
4.168212700865108244e-10
3.157936039544967836e-10
2.362984481988623198e-10
1.742051670591480090e-10
1.263006758742317328e-10
8.994428377430674861e-11
6.288078635228024312e-11
4.315727170119264713e-11
