# bin_9_9
7.424988837405379659e-08
7.018124314809900544e-08
6.469412410861654026e-08
5.806133754185091817e-08
5.069608224097010605e-08
4.310419498973079026e-08
3.579883370761593469e-08
2.918289301395651519e-08
2.345112690263851932e-08
1.858907117355094765e-08
1.447098904959881740e-08
1.101885105133766580e-08
8.257155951156522576e-09
6.177287889978993527e-09
4.624173833788992683e-09
3.449196757617222785e-09
2.589798131776599116e-09
1.956613782718817163e-09
1.489949906964775535e-09
1.142051613101040081e-09
8.793911339421650263e-10
6.780063187691849899e-10
5.214582813373395675e-10
3.985798969618905164e-10
3.017095053750830871e-10
2.254964092782227013e-10
1.660105043745658223e-10
1.201740663977064142e-10
8.544281801191078295e-11
5.963674640909149956e-11
4.086664757869097477e-11
