# bin_12_6
1.199152651085294517e-11
1.359569537549542875e-11
1.516927481570847890e-11
1.659248493707745411e-11
1.770480236985991099e-11
1.830624912528884252e-11
1.824041410947360239e-11
1.725411713382509257e-11
1.541260987453170271e-11
1.301299330544301782e-11
1.064855634842468332e-11
8.900349638448745395e-12
7.709831858917591779e-12
6.238822571679047291e-12
4.350199504696194635e-12
3.337602475111946911e-12
2.505585311298157208e-12
1.732529569314230522e-12
1.220045549902668239e-12
8.656565301737799487e-13
5.947181128648896794e-13
4.074664354822811044e-13
2.810550284185239332e-13
1.954950719194408970e-13
1.378207854607265919e-13
9.899427924318598429e-14
7.252019683385103662e-14
5.420415767860116781e-14
4.119438565228887993e-14
3.164933778669126854e-14
2.440173953161292993e-14
