# bin_10_6
6.273881251697279322e-09
7.077912613687801808e-09
7.849330153488422341e-09
8.522067273956210232e-09
9.009428828500975373e-09
9.210724519660771667e-09
9.042733978105096520e-09
8.396414842601246880e-09
7.370444054066768222e-09
6.131294203844818955e-09
5.019462113553357854e-09
4.259058963696644404e-09
3.669428234636293141e-09
2.823600424157166836e-09
1.957931512095047885e-09
1.574790595310443325e-09
1.092176827138445794e-09
8.070887770773365922e-10
5.476000782417356832e-10
3.859465991509541582e-10
2.689595928422600551e-10
1.872462068962545818e-10
1.312152647557497344e-10
9.290236638358734687e-11
6.697259404923005540e-11
4.923170034157171632e-11
3.687967987020086263e-11
2.808867722056517276e-11
2.162632396502268534e-11
1.671505153672179271e-11
1.287275609521501496e-11
