# bin_13_12
3.687343054607331461e-06
4.213778708318810974e-06
4.749412413526047093e-06
5.259489239792073036e-06
5.698523210059175277e-06
6.007412377544531831e-06
6.120174002322750683e-06
5.977354876852871484e-06
5.514716473882675930e-06
4.810817658039119432e-06
3.984205883052124040e-06
3.266374637442445944e-06
2.787530929866196494e-06
2.390961206648610977e-06
1.802895438892812007e-06
1.255482844031159705e-06
1.019011746276440159e-06
6.843850183485820456e-07
5.131288581668812430e-07
3.443458654126562590e-07
2.360522609190104374e-07
1.615086573170791543e-07
1.095845150637911224e-07
7.408374204975181092e-08
5.017889150974999015e-08
3.439842000341923668e-08
2.394372206662403152e-08
1.699472705121904667e-08
1.233716889541376737e-08
9.154384086433796699e-09
6.917363287949447551e-09
