# bin_11_9
1.284561596759219958e-06
1.459011885830281966e-06
1.631570363608319301e-06
1.789599776236362445e-06
1.916173038812658862e-06
1.990004419293461812e-06
1.993242862122569564e-06
1.898950617766884422e-06
1.707705872530727437e-06
1.451471842126447326e-06
1.189158234733820947e-06
9.884895169445794027e-07
8.555609663832173753e-07
7.038972582730156093e-07
4.964953489679500686e-07
3.718922678221591315e-07
2.872259626415001131e-07
1.941398986228460014e-07
1.402892830840043476e-07
9.851204578462617366e-08
6.737796932797188801e-08
4.606141222059736009e-08
3.157827582100151870e-08
2.181544129644905642e-08
1.524312620336513296e-08
1.084290229747867426e-08
7.864202854038632696e-09
5.823940064409370121e-09
4.394092538136465700e-09
3.360788848309264312e-09
2.587526228373633891e-09
