# bin_15_15
6.395080767543584437e-06
7.342010482579183215e-06
8.321441965642816839e-06
9.277453297921811555e-06
1.013539374214094791e-05
1.079539638804215856e-05
1.113365652480513030e-05
1.105765847173707943e-05
1.041129087348791638e-05
9.258775868931310503e-06
7.782330907330638041e-06
6.364963128509076242e-06
5.342626625363951227e-06
4.629081938878911653e-06
3.697392320483709224e-06
2.556755720414262763e-06
1.994816916590264122e-06
1.460640985788946136e-06
1.024684988264571035e-06
7.008389048936350215e-07
4.948146074863286828e-07
3.346010051496301018e-07
2.234078166489217400e-07
1.490825758812824391e-07
9.920153216774854914e-08
6.623566999474633672e-08
4.463627711737141899e-08
3.049493312669428265e-08
2.124753828554294701e-08
1.515177706060772929e-08
1.106893825953081213e-08
