# bin_7_4
3.171242394036704335e-08
3.520431889351863576e-08
3.828228982408925440e-08
4.056410938017544229e-08
4.159620055585042442e-08
4.101255433552132579e-08
3.829500752842776958e-08
3.379700834590053259e-08
2.824343472067720065e-08
2.310943781302231358e-08
1.950196971391831979e-08
1.682931126500860208e-08
1.318124036194483916e-08
9.166231735921694756e-09
7.267541548622991181e-09
5.210359634652544349e-09
3.786274047087861482e-09
2.631744189909739400e-09
1.891424668375198476e-09
1.340129002025599155e-09
9.538855812709142681e-10
6.878153184458004685e-10
5.033798099802586670e-10
3.754008098444099179e-10
2.850519997412988804e-10
2.195258194783801458e-10
1.705954112530123235e-10
1.328420457505610322e-10
1.029217390983862780e-10
7.882517829378674854e-11
5.936570021861575490e-11
