# bin_2_2
1.073876137397251152e-05
1.115900445719454799e-05
1.119077728923535971e-05
1.070747755103362717e-05
9.689079260483394774e-06
8.300501688174766364e-06
6.837506714823980705e-06
5.663383102322174663e-06
4.848611854307093972e-06
4.016413444943556007e-06
2.949353316739197753e-06
2.173308823769742397e-06
1.696159248200994077e-06
1.199195204393027799e-06
8.917593481935498904e-07
6.447907614787352924e-07
4.723982038960793456e-07
3.503622792931904794e-07
2.639797125308345682e-07
2.025069439267168900e-07
1.578971106203787391e-07
1.246826932913883107e-07
9.903670988705739003e-08
7.856461749806363428e-08
6.181206474483679934e-08
4.791993041924497827e-08
3.640703295911628419e-08
2.699486327153938423e-08
1.948425841121000521e-08
1.368372511072765113e-08
9.363419987939532045e-09
