# bin_9_8
2.983737238298015938e-06
3.369880948014768915e-06
3.742193187268585565e-06
4.069646200521527346e-06
4.311249707524579692e-06
4.418291385919382367e-06
4.352354026018352583e-06
4.057673390959940274e-06
3.575567428874417650e-06
2.983062561312367438e-06
2.440801567422087806e-06
2.064311369355985002e-06
1.782515602863946644e-06
1.387355676553672392e-06
9.601810340790617952e-07
7.666733193784151370e-07
5.404016763368991887e-07
3.942977762217990806e-07
2.681194679337877229e-07
1.898815638297785243e-07
1.319093613843340061e-07
9.148124222842602023e-08
6.389302319552689435e-08
4.505955728914548519e-08
3.232796545160065382e-08
2.365003043750352172e-08
1.763757160274860001e-08
1.338595198984007254e-08
1.028355257131312750e-08
7.942614476982663747e-09
6.121434192375268440e-09
