# bin_13_5
7.207577245570881447e-16
8.181564244806220846e-16
9.142332019644234803e-16
1.001862682646351826e-15
1.071495634929976716e-15
1.111155949860121190e-15
1.111054850549704009e-15
1.055998474046858299e-15
9.475067641394906832e-16
8.035243226210470573e-16
6.579970257232021250e-16
5.479336956291891832e-16
4.744575607346981770e-16
3.882845598746236126e-16
2.727098924450113832e-16
2.059246741632475196e-16
1.576032635092373257e-16
1.072715767901694262e-16
7.685296037099348480e-17
5.418158342186945279e-17
3.710869811817044976e-17
2.537885230742652900e-17
1.743232955136729367e-17
1.206965456895813858e-17
8.458184051929612050e-18
6.035884321733577257e-18
4.392450379238547031e-18
3.263176126617002693e-18
2.468284696633342059e-18
1.890957948974332208e-18
1.456785639245519770e-18
