# bin_12_2
4.931247573034065919e-25
5.570611544637786200e-25
6.187659846053840692e-25
6.731230912398768840e-25
7.133664085551841880e-25
7.314279894386532067e-25
7.209739835926564803e-25
6.726941510708047192e-25
5.932143154665836065e-25
4.952190367655878176e-25
4.051779577671686391e-25
3.424559642149987263e-25
2.957966901280404142e-25
2.307375555891051910e-25
1.596957175926712149e-25
1.272717721965206187e-25
9.002228425784283142e-26
6.549296808697453983e-26
4.459011629489385731e-26
3.159863376532144357e-26
2.193707702393157809e-26
1.520190529610549731e-26
1.061027439201735284e-26
7.476998971504311581e-27
5.359274256869681717e-27
3.916855550487148784e-27
2.918407411157483307e-27
2.213244222160910831e-27
1.699439796541990602e-27
1.312309586113549126e-27
1.011492521918537669e-27
