# bin_8_5
5.522842537242234421e-08
6.175602813676756075e-08
6.775534335930415035e-08
7.259298559823673116e-08
7.547213576325579285e-08
7.570030602379787488e-08
7.229236921892277062e-08
6.517515800443512111e-08
5.554963805444211777e-08
4.554943314828801543e-08
3.778011678565016569e-08
3.263893559708044084e-08
2.700081540976319169e-08
1.922251472077057992e-08
1.426541767268481517e-08
1.114732510570178067e-08
7.551795256192855216e-09
5.552935890230768243e-09
3.925775375350198324e-09
2.737512903993013489e-09
1.923966449343857623e-09
1.362925401293707117e-09
9.786657535153025180e-10
7.143057149716753985e-10
5.317434057265680868e-10
4.028560792302916938e-10
3.095629062972084488e-10
2.398926360047490843e-10
1.861367201066362824e-10
1.435817088418961174e-10
1.094142211326996618e-10
