# bin_12_11
3.493737654633561701e-06
3.983121933203142931e-06
4.475903785976972317e-06
4.938574590576676096e-06
5.326826378754654844e-06
5.584000668497029313e-06
5.652879838852571312e-06
5.469150326598660539e-06
4.994165270105489470e-06
4.312054205404006317e-06
3.551776659969996041e-06
2.923556728480778440e-06
2.512918542656305940e-06
2.128172491174483349e-06
1.558980488143303123e-06
1.109797237136535128e-06
8.961263194347488246e-07
5.919958997362116631e-07
4.449967505886681426e-07
3.034555249084420499e-07
2.064614160027400046e-07
1.413318922434359355e-07
9.610756145814823467e-08
6.546271649698637513e-08
4.485353615903643471e-08
3.119425003406580718e-08
2.207762668034843462e-08
1.595504506327981719e-08
1.178475436160699795e-08
8.873617358323893888e-09
6.774482449214817740e-09
