# bin_7_2
5.164702878904340796e-13
5.693672973964181064e-13
6.138713903938916575e-13
6.435313639602683878e-13
6.517537839238159789e-13
6.314113297284852672e-13
5.778356768931192722e-13
5.000782378859669148e-13
4.126375466851952641e-13
3.393204832552764312e-13
2.905983130589049261e-13
2.464579787832741948e-13
1.827715159817675867e-13
1.301374779667719932e-13
1.047843241767716123e-13
7.126462863052916668e-14
5.370236754923320732e-14
3.748980627611733072e-14
2.661525747020399763e-14
1.906764806343594212e-14
1.376143834447575315e-14
1.007062081575641288e-14
7.491457435845370288e-15
5.679616516419626608e-15
4.372970757843640433e-15
3.401978339473641254e-15
2.657589841875051265e-15
2.069621387520931674e-15
1.596100705157457143e-15
1.211975645686926882e-15
9.020604077251225953e-16
