# bin_12_10
1.511996423149227652e-06
1.721977935769579717e-06
1.932381040789946907e-06
2.128603654508715874e-06
2.291251426400435849e-06
2.395666496819482147e-06
2.418171310689829874e-06
2.329494578361949374e-06
2.117733761368441580e-06
1.820194596910296400e-06
1.496391987736992808e-06
1.234678371299903882e-06
1.064043568185125367e-06
8.946738115414310409e-07
6.475290338493159276e-07
4.671737551717088610e-07
3.738232696354644935e-07
2.473332511058888254e-07
1.846542663289206471e-07
1.269494307356589198e-07
8.640304849079539893e-08
5.910551618704102585e-08
4.024375166992425043e-08
2.751422334921755494e-08
1.895541825167223013e-08
1.326843599771550593e-08
9.458695464228823632e-09
6.886817110587740936e-09
5.121347649115822483e-09
3.876778824121990756e-09
2.969365126576247407e-09
