# bin_14_6
7.799257155474814754e-15
8.877793564183044199e-15
9.955841158145615465e-15
1.095782227060122464e-14
1.178315490160714917e-14
1.230427164236718024e-14
1.240177211193024874e-14
1.192150982885531466e-14
1.081454665504193544e-14
9.274622720014493274e-15
7.618450992366574425e-15
6.294180698989565347e-15
5.430339977040272578e-15
4.548491643817011939e-15
3.273722313067941052e-15
2.378556802252525187e-15
1.892428845883611854e-15
1.255178285909653781e-15
9.325216419420940153e-16
6.437398524886665448e-16
4.384159705021628873e-16
2.998047491578323053e-16
2.043222288068528633e-16
1.399610971269875499e-16
9.668555674063545251e-17
6.789139109738104121e-17
4.856540470604299023e-17
3.548410550464676995e-17
2.646925445082730118e-17
2.008349841186403564e-17
1.540301872887434512e-17
