# bin_4_3
3.267919680345320834e-06
3.533302219569207640e-06
3.718526376363725287e-06
3.784257466430323653e-06
3.692683104225309003e-06
3.408671911898398229e-06
2.975498686979541756e-06
2.469479037433953516e-06
2.025896233980899036e-06
1.722189749316201615e-06
1.471003108191146565e-06
1.120761458643330715e-06
7.917188405841730264e-07
6.325694199594575285e-07
4.448417419415577684e-07
3.308079824926587880e-07
2.334156025978613075e-07
1.689548637486784452e-07
1.225416841688039569e-07
8.979442776360081443e-08
6.687210881704872162e-08
5.065737508693020259e-08
3.904704512797770835e-08
3.048822678527190454e-08
2.396505101785898120e-08
1.883716050677303268e-08
1.470210141315155710e-08
1.132218443180264572e-08
8.557604963354076834e-09
6.321518583440292336e-09
4.551139665791891556e-09
