# bin_15_8
8.805938376623124059e-12
1.005440969433942495e-11
1.132001149492606241e-11
1.251914836372701408e-11
1.354204957136411206e-11
1.424696858111497450e-11
1.448088588111281116e-11
1.409493699711250312e-11
1.295446443008055851e-11
1.125834327050153267e-11
9.303657343870272629e-12
7.636878711041194019e-12
6.535620376861657401e-12
5.582975946921277978e-12
4.164687738774590413e-12
2.919251006409135011e-12
2.370798342819744129e-12
1.577478116262939300e-12
1.187388162907278007e-12
8.010231666439062389e-13
5.466854747610674655e-13
3.743166454184897321e-13
2.542451899782288246e-13
1.723271141724082250e-13
1.171956381334666931e-13
8.075795133519916379e-14
5.655652015128982959e-14
4.041360618188542714e-14
2.953281297827112279e-14
2.204073363780050477e-14
1.672540156752149812e-14
