# bin_13_7
4.739477418177620339e-11
5.389394117192095461e-11
6.035859877722411601e-11
6.632632797467601279e-11
7.117957865584142745e-11
7.413840658888145805e-11
7.450936606423642190e-11
7.132399608740060018e-11
6.443387663321591505e-11
5.502352060548148452e-11
4.513450816410247609e-11
3.739109279939001606e-11
3.231829903097287165e-11
2.685410165883164644e-11
1.913183365320524385e-11
1.409893223523551842e-11
1.107398497120727115e-11
7.398069110960398465e-12
5.432269471064890119e-12
3.780721890604406364e-12
2.579289969755329983e-12
1.762993251895923209e-12
1.204383224234073573e-12
8.282204033682410919e-13
5.752031624140060538e-13
4.063757852722803537e-13
2.926243856739452082e-13
2.152119983820364810e-13
1.614467442535663141e-13
1.230011964733141124e-13
9.453874300663283027e-14
