# bin_6_4
4.813203976923273910e-07
5.313597075830184527e-07
5.738826526393314550e-07
6.029181905914239210e-07
6.121366112169199125e-07
5.951681282456494417e-07
5.468057647705178642e-07
4.750716563058631242e-07
3.928263743028508929e-07
3.225464567242180883e-07
2.755168149497603140e-07
2.347762366740825505e-07
1.759493814026224887e-07
1.243071039295578377e-07
1.002343452240284125e-07
6.855402459448609100e-08
5.154533074440981883e-08
3.582617454736363762e-08
2.548065318169135998e-08
1.822788968587223068e-08
1.312530432216373157e-08
9.577641486483469767e-09
7.101785919328512729e-09
5.367631965955980459e-09
4.122419561733395874e-09
3.201545570679014663e-09
2.499134548611233271e-09
1.946663766393020229e-09
1.502928905821294273e-09
1.143317818974004816e-09
8.530333773853576282e-10
