# bin_8_6
7.130920425861903528e-07
7.994480943860104865e-07
8.798956601710658912e-07
9.464340114191758300e-07
9.889032620621560670e-07
9.975980351196967189e-07
9.605517252856615099e-07
8.730792925305648212e-07
7.503437600102534017e-07
6.169773003413586281e-07
5.090639198954416301e-07
4.382869086494264038e-07
3.682796982569252920e-07
2.672730603741737536e-07
1.931510769794961067e-07
1.544086890374703023e-07
1.033091121862401101e-07
7.739786120962489299e-08
5.389123802575678868e-08
3.746018132094913565e-08
2.630065836721103237e-08
1.853749778497080228e-08
1.321592215159381642e-08
9.562792825097521172e-09
7.058340988228446218e-09
5.306993366658690782e-09
4.053830437539774757e-09
3.130498108173126900e-09
2.426889612349967389e-09
1.875117284299326981e-09
1.434258779697068377e-09
