# bin_14_12
1.861191036533428903e-06
2.129116362331884378e-06
2.402869114426944295e-06
2.665083319434239337e-06
2.893092911260555910e-06
3.057212923826406960e-06
3.123113296331625850e-06
3.062374925616294916e-06
2.838356254531611142e-06
2.487129872508429220e-06
2.065717663188744554e-06
1.691645728287694421e-06
1.438522510032208632e-06
1.238654503828695657e-06
9.462417490178521456e-07
6.553480632643698519e-07
5.297282093232958869e-07
3.613685660673628879e-07
2.684381735377118974e-07
1.794176046295113313e-07
1.239419354407944517e-07
8.462858659831423260e-08
5.727625969967733460e-08
3.859974213689092560e-08
2.602362025707353658e-08
1.772659581163274423e-08
1.224607831422910407e-08
8.618285457512041375e-09
6.202518540372410682e-09
4.566526840640014800e-09
3.429831262247049123e-09
