# bin_8_7
2.978973312702617585e-06
3.345301282441380997e-06
3.689389564197536591e-06
3.978317928938772028e-06
4.169995894217137345e-06
4.221686139510081940e-06
4.086281678525336589e-06
3.734263164335162650e-06
3.226976735670325115e-06
2.659586674840557023e-06
2.188156125852943172e-06
1.878207833699646259e-06
1.591835850920485500e-06
1.171653957397366337e-06
8.338386882419931964e-07
6.730958876171600320e-07
4.498295506961381114e-07
3.391584558715410860e-07
2.338552155117802293e-07
1.625279597830833574e-07
1.140545833068939936e-07
8.018648606877975384e-08
5.691333063916564972e-08
4.094912489140626185e-08
3.005257604774252405e-08
2.247690702243234759e-08
1.709510864690092576e-08
1.316466533190001513e-08
1.019512242912922543e-08
7.882460817567496764e-09
6.042156104886213519e-09
