# bin_15_2
6.807172998045542791e-32
7.751672146751166907e-32
8.697568409754723273e-32
9.579066264316005429e-32
1.030875117472986050e-31
1.077554077698065644e-31
1.087327420370259978e-31
1.046992327756479511e-31
9.514020724146609751e-32
8.173779234245941661e-32
6.718841236883225077e-32
5.545375388799163898e-32
4.779811405826783934e-32
4.015449694027898224e-32
2.903423830134225010e-32
2.097926147081296848e-32
1.676138131177810375e-32
1.110167615175175131e-32
8.276267786572116469e-33
5.694729032543095636e-33
3.877095932113914999e-33
2.652143739262058656e-33
1.806418994343479263e-33
1.235657029587730276e-33
8.518040669649435011e-34
5.967043623418407503e-34
4.257187639154947068e-34
3.102107273235679859e-34
2.308460735857654983e-34
1.748326236244242868e-34
1.339422457118730429e-34
