# bin_13_13
4.844135181235964275e-06
5.541543930007831790e-06
6.254157905398405611e-06
6.936781445774221726e-06
7.530429437931806429e-06
7.957844587288282075e-06
8.129617572192403383e-06
7.971931782025691517e-06
7.389209728279491275e-06
6.475191151651622494e-06
5.378269794067106335e-06
4.404303621198200440e-06
3.745099972481164526e-06
3.224846669062267736e-06
2.463972879672278213e-06
1.706442950011228725e-06
1.379216970025910319e-06
9.411071794417624883e-07
6.989693990687443024e-07
4.671800820094735455e-07
3.227746966349758790e-07
2.203919080064676421e-07
1.491601511560415068e-07
1.005281507598448285e-07
6.777431126006402135e-08
4.616824124389132596e-08
3.189593021395719462e-08
2.244764640146533724e-08
1.615587144219844813e-08
1.189481332890451296e-08
8.934046011896675914e-09
