# bin_8_2
3.027403133201517512e-15
3.356957666635218775e-15
3.645388793915265056e-15
3.855974350300640635e-15
3.945841829548284741e-15
3.879589485642913444e-15
3.610122910647442449e-15
3.175664170582230283e-15
2.646994711517343566e-15
2.166486925266040568e-15
1.833308469049688538e-15
1.579597749360643501e-15
1.225640261910080038e-15
8.527482204294989952e-16
6.809773694506244012e-16
4.817908231106055910e-16
3.539208463688526295e-16
2.450183289026911189e-16
1.757914601425692056e-16
1.248662521745266203e-16
8.911912319051227689e-17
6.442419691509096215e-17
4.727407338879271595e-17
3.535639063632814067e-17
2.691419469119079884e-17
2.076690911495778796e-17
1.615616695242549315e-17
1.258357273880469136e-17
9.743425723790635148e-18
7.452360864642119334e-18
5.601930403172892093e-18
