# bin_6_4
5.087130645462806159e-07
5.612454143733655722e-07
6.056861749623246239e-07
6.357048758423918522e-07
6.446929070016926313e-07
6.258010305719167878e-07
5.739048739912219022e-07
4.977204835769057671e-07
4.111280719621320656e-07
3.377816918957622142e-07
2.888957752216266200e-07
2.456843919898199452e-07
1.832120246301270206e-07
1.298522974116304928e-07
1.047105310858657116e-07
7.136843932817494655e-08
5.376224036999792009e-08
3.742917184179344175e-08
2.659282937910390946e-08
1.903893134889991570e-08
1.372487828302675153e-08
1.002868154731256984e-08
7.447061583444606443e-09
5.636713651373018066e-09
4.334110002227252908e-09
3.368584718186043684e-09
2.630389710481831676e-09
2.048618457982016453e-09
1.580756778082589504e-09
1.201423616463654371e-09
8.953030689608667905e-10
