# bin_7_2
6.970635137472762506e-13
7.680181449766788912e-13
8.274635352977283650e-13
8.666686086205724938e-13
8.768414391521212636e-13
8.482154483777704739e-13
7.749902699792230718e-13
6.696235562458169030e-13
5.520717088283295068e-13
4.542769733913342732e-13
3.894571170697223756e-13
3.296202434590723415e-13
2.433859723922332330e-13
1.738961115706400127e-13
1.398886134806834071e-13
9.495574868814847428e-14
7.159428826308786225e-14
5.008056314875647205e-14
3.553110771429548533e-14
2.546976945107743235e-14
1.839908930083899054e-14
1.348063339781055372e-14
1.004112759279576838e-14
7.622159801618702370e-15
5.874398665454244654e-15
4.572949857837656836e-15
3.573176664886628877e-15
2.782151997677817622e-15
2.144439455896058714e-15
1.626961240526033246e-15
1.209586698377319824e-15
