# bin_12_11
3.453789401859500276e-06
3.938031511058170717e-06
4.425893020659919913e-06
4.884269993080766148e-06
5.269415896992528604e-06
5.525355537261034838e-06
5.595217365458480738e-06
5.415925683742708335e-06
4.947967977230316817e-06
4.274316283640775109e-06
3.521487043641620877e-06
2.897920372024675788e-06
2.490119726555867779e-06
2.110376849022190496e-06
1.548059319186343620e-06
1.100535685961249885e-06
8.893059175673314177e-07
5.875961698526488490e-07
4.418896764583059540e-07
3.010803303291182245e-07
2.048664039332341493e-07
1.402544155746237134e-07
9.537129791082833832e-08
6.494251231092593387e-08
4.447321151560827961e-08
3.091207478154585512e-08
2.186326713485701654e-08
1.578876605087151650e-08
1.165418783397903602e-08
8.770559021297523092e-09
6.693412301444067778e-09
