# bin_4_1
4.312897952304262178e-09
4.579555430508182922e-09
4.712057857292336287e-09
4.667640773749891103e-09
4.389568900092462902e-09
3.901775339289013103e-09
3.284930317981421149e-09
2.690867197590898268e-09
2.254334503834452595e-09
1.940974115780324137e-09
1.552940502970165046e-09
1.099596711834480665e-09
8.483378000211721122e-10
6.355351918316156250e-10
4.544004939792489757e-10
3.301917395550471105e-10
2.407188368694123158e-10
1.750883496015195988e-10
1.290789598016123905e-10
9.677773087579332795e-11
7.385946400256394151e-11
5.731423621071346535e-11
4.504116419874815938e-11
3.560854615954125328e-11
2.812432385813305835e-11
2.203805811004236282e-11
1.702279913849023256e-11
1.289207865287249753e-11
9.533003568972400626e-12
6.863767503527282829e-12
4.808961824467227813e-12
