# bin_9_13
-1.129974235020095834e-10
-1.287371052641328725e-10
-1.445354563451707209e-10
-1.593036896766634795e-10
-1.715979450035388889e-10
-1.795792421038885378e-10
-1.814488495347630173e-10
-1.750578037801846490e-10
-1.593858675083776601e-10
-1.372070984559731043e-10
-1.128684217110709954e-10
-9.304668351121408060e-11
-8.011992922051370581e-11
-6.754051000234061473e-11
-4.908183053269112149e-11
-3.524149002085357859e-11
-2.830090058335017728e-11
-1.870373752933953390e-11
-1.400445780441771460e-11
-9.600890273119599207e-12
-6.532675002504842169e-12
-4.470104136339786367e-12
-3.042149624518511517e-12
-2.077357637199377398e-12
-1.428519912787336217e-12
-9.978491938070271696e-13
-7.096750313179060763e-13
-5.154655146881444067e-13
-3.824966807420530322e-13
-2.890619852524689091e-13
-2.211830010261158209e-13
