# bin_3_3
-3.311455090605696701e-08
-3.541729996501632343e-08
-3.677047423784858860e-08
-3.682928143032291806e-08
-3.514845791757567907e-08
-3.169695535178207199e-08
-2.704612420589001499e-08
-2.221571768777318153e-08
-1.842537021686780098e-08
-1.584482321906526291e-08
-1.308084014624555389e-08
-9.452934604228872546e-09
-7.014621343210573016e-09
-5.472070404201794853e-09
-3.812605849422217703e-09
-2.831434159455343272e-09
-2.036190172264208723e-09
-1.472124094487978119e-09
-1.078265527565471574e-09
-8.012158063894189732e-10
-6.058273352443437598e-10
-4.659623615138323167e-10
-3.637629718798426352e-10
-2.864726868993062190e-10
-2.260541455670850871e-10
-1.774981674101008605e-10
-1.377519880479102492e-10
-1.050612854240795854e-10
-7.838002300965097348e-11
-5.700476263905974623e-11
-4.035586245361096433e-11
