# bin_3_9
-1.090803971242710896e-16
-1.219068829059274220e-16
-1.336607489250218325e-16
-1.430855582873113212e-16
-1.486039214204127628e-16
-1.488697958530280135e-16
-1.419240120271437957e-16
-1.277368959911678568e-16
-1.086891112652283650e-16
-8.908220424205038239e-17
-7.397608929889385296e-17
-6.394091433457930236e-17
-5.270583217908561128e-17
-3.739224637462867527e-17
-2.790954530025215983e-17
-2.168478538851108995e-17
-1.474962476381448935e-17
-1.079258556297283322e-17
-7.653007992768111465e-18
-5.341860939206661435e-18
-3.755816308971817588e-18
-2.663949645189611793e-18
-1.915836084177233676e-18
-1.400810461549398157e-18
-1.044603725879828358e-18
-7.925847837427741616e-19
-6.097130432675775794e-19
-4.727685454706630373e-19
-3.668441153465197601e-19
-2.828424934449122593e-19
-2.153436705469421285e-19
