# bin_9_5
-9.461227320398519194e-12
-1.061713943897524574e-11
-1.169910453792176305e-11
-1.260187501832159210e-11
-1.319130124447954044e-11
-1.333459650204771282e-11
-1.287813613519813779e-11
-1.174137503443801220e-11
-1.012246511220045135e-11
-8.333893218962175649e-12
-6.864605187474063180e-12
-5.900399525360535141e-12
-4.983129224742013706e-12
-3.645184208651075328e-12
-2.610628527440789976e-12
-2.099836184331482530e-12
-1.402921551828575771e-12
-1.055608884493229519e-12
-7.308855195355549765e-13
-5.078835890117703162e-13
-3.565003198679262451e-13
-2.509016198095325332e-13
-1.784248178629225960e-13
-1.286908406690933467e-13
-9.468381910620927299e-14
-7.098085907892046674e-14
-5.408943145099894989e-14
-4.170579655452481229e-14
-3.231423312595712881e-14
-2.497749415968216909e-14
-1.912844524247394542e-14
