# bin_10_3
-6.765904980924664821e-19
-7.593739708257249493e-19
-8.369228362486583089e-19
-9.017219773844589325e-19
-9.441856295214425968e-19
-9.547710477757980425e-19
-9.225569921630312979e-19
-8.415741735386614100e-19
-7.259321293046788930e-19
-5.978161589045147968e-19
-4.922931712049200617e-19
-4.230059514514280166e-19
-3.575272088458567522e-19
-2.619141557565379428e-19
-1.873161480884143958e-19
-1.507729228478402756e-19
-1.007562256181362049e-19
-7.583706383030554577e-20
-5.245948671950491397e-20
-3.645715954265764677e-20
-2.558836543582678140e-20
-1.800430625202903452e-20
-1.279777396315358832e-20
-9.225335163302166230e-21
-6.783558544932469033e-21
-5.082632985429424915e-21
-3.871376174487599015e-21
-2.984151210138649200e-21
-2.311880363133600648e-21
-1.787075641430967953e-21
-1.368869724791003161e-21
