# bin_8_3
-1.418982366145039732e-14
-1.578158901482357472e-14
-1.720057213798205256e-14
-1.827760657631975940e-14
-1.880704213889709675e-14
-1.862755069536858599e-14
-1.749172534706847612e-14
-1.551931229461967568e-14
-1.302677454284612262e-14
-1.065656805410744242e-14
-8.952693544187067091e-15
-7.740411089394502404e-15
-6.153946898972107442e-15
-4.284029085250668919e-15
-3.351333889343987667e-15
-2.456514918046658575e-15
-1.752237615001641507e-15
-1.229225353280837901e-15
-8.843601957272251335e-16
-6.238628444918792342e-16
-4.420459147915112614e-16
-3.173004695717291036e-16
-2.311178823757454669e-16
-1.714653525386885020e-16
-1.295985320908877056e-16
-9.944337307943664276e-17
-7.710156306625958054e-17
-5.999564363391235983e-17
-4.651846837474120974e-17
-3.570100989020451140e-17
-2.697124482002739472e-17
