# bin_2_8
-7.534488440148076644e-18
-8.358982002271384284e-18
-9.082949742278042056e-18
-9.615261462682311935e-18
-9.848697294817948289e-18
-9.695783839768125007e-18
-9.036535450142773631e-18
-7.960943478722706628e-18
-6.643510558355514388e-18
-5.436752542895162511e-18
-4.594867998327156826e-18
-3.961849692728812256e-18
-3.087353202555931021e-18
-2.147506767173381066e-18
-1.709325532669475209e-18
-1.216704183195496329e-18
-8.893524492982480661e-19
-6.167956514486656195e-19
-4.428695248121191191e-19
-3.142001871886829932e-19
-2.239606958839559250e-19
-1.617033867253779447e-19
-1.185044855963767301e-19
-8.850729706147828888e-20
-6.729278099969028418e-20
-5.187465706530244894e-20
-4.033493357435776727e-20
-3.141157922828898053e-20
-2.432826705970743644e-20
-1.861893772237059771e-20
-1.400812080928257280e-20
