# bin_3_2
-1.684526523701758125e-08
-1.780080005114239433e-08
-1.821098726952516838e-08
-1.790258505626597170e-08
-1.668316030482625580e-08
-1.470029323544759937e-08
-1.229388940919670845e-08
-1.007800505055347492e-08
-8.497882476425208606e-09
-7.285081255669226070e-09
-5.703367532588308398e-09
-4.040080668928001903e-09
-3.164361148596840265e-09
-2.313102957608302134e-09
-1.684215222174824515e-09
-1.213672177118561004e-09
-8.867376490173881757e-10
-6.482218023432390136e-10
-4.802665354097330687e-10
-3.620714804964717337e-10
-2.777902716532099887e-10
-2.165719419489530346e-10
-1.707347945625539311e-10
-1.351766363673400682e-10
-1.067340742025220048e-10
-8.347030097461321595e-11
-6.425223696939500553e-11
-4.843343861285878320e-11
-3.561480042156212904e-11
-2.549050507490713179e-11
-1.775577891682773089e-11
