# bin_11_5
-6.475765378954484732e-15
-7.313394848828843114e-15
-8.120786272397663685e-15
-8.830551431004262951e-15
-9.353692700218833418e-15
-9.584503033480439018e-15
-9.439687081048429171e-15
-8.798442930293870122e-15
-7.751250344073394335e-15
-6.465509987951196903e-15
-5.290238613943443885e-15
-4.475135505261205652e-15
-3.863981738382382938e-15
-3.005286113758166366e-15
-2.079805856459623144e-15
-1.661788968184431024e-15
-1.169959955194248707e-15
-8.545373636001860047e-16
-5.807775423226642571e-16
-4.112345043486076784e-16
-2.857524904683898644e-16
-1.982344314323697116e-16
-1.384897263152874184e-16
-9.769160883798943156e-17
-7.011302380898376318e-17
-5.131033832780986758e-17
-3.827771341405898740e-17
-2.905791338600993085e-17
-2.232676877800965578e-17
-1.724508833950837915e-17
-1.329005176584344691e-17
