# bin_9_15
-6.618078279482537878e-17
-7.558116801813169349e-17
-8.512013626504857273e-17
-9.417044284062494128e-17
-1.019093759313989027e-16
-1.072728540951114798e-16
-1.091004993729008255e-16
-1.062907131164064252e-16
-9.778944350176763176e-17
-8.507194084856521731e-17
-7.034086779234934115e-17
-5.771847491497591352e-17
-4.935944544614014687e-17
-4.221296474296658717e-17
-3.157976488695537470e-17
-2.209344422227449608e-17
-1.794457474434010368e-17
-1.196565032692194650e-17
-9.000295115967726032e-18
-6.062571147733009192e-18
-4.141782530776880375e-18
-2.835646389987891167e-18
-1.925699832173175513e-18
-1.304426225140309922e-18
-8.861613906628405269e-19
-6.098559608569816257e-19
-4.264479952530069362e-19
-3.042159038311176197e-19
-2.219471915138689976e-19
-1.654087105748552622e-19
-1.253907705647653094e-19
