# bin_8_8
-3.912586984043209585e-11
-4.393892941812344454e-11
-4.845761464600099958e-11
-5.224809076109974135e-11
-5.475547056825217102e-11
-5.542109778784506047e-11
-5.362002488649187843e-11
-4.898503271425077309e-11
-4.231656287418534627e-11
-3.488528192194512957e-11
-2.872666137514654979e-11
-2.466549487140102938e-11
-2.087525548529437446e-11
-1.535539865151394470e-11
-1.096241391373793453e-11
-8.818498528849711489e-12
-5.916919155218484685e-12
-4.445040047196458963e-12
-3.070284375283466295e-12
-2.137069517780592210e-12
-1.499708685018466975e-12
-1.054960260756342174e-12
-7.493519682767227947e-13
-5.396309049538175847e-13
-3.963464166981079349e-13
-2.966350563903624221e-13
-2.257214975069815403e-13
-1.738692323002184554e-13
-1.346532663870368362e-13
-1.040910191931533381e-13
-7.976515050181009770e-14
