# bin_8_2
-1.914124538379865402e-09
-1.981811868302348340e-09
-1.978112377093430596e-09
-1.883184838208800930e-09
-1.697407445338387725e-09
-1.451437150014332585e-09
-1.199117944050228881e-09
-9.973319900551312587e-10
-8.493252167938106283e-10
-6.949784843366675154e-10
-5.145273081788189770e-10
-3.820242135337465217e-10
-2.930360097599098586e-10
-2.107874153720114432e-10
-1.551701035350628458e-10
-1.127500277405292762e-10
-8.282647620988094517e-11
-6.152971194660299205e-11
-4.645236779901234821e-11
-3.569515619782247185e-11
-2.786590359387151284e-11
-2.201156586066447543e-11
-1.747660802395181985e-11
-1.384819644725742156e-11
-1.087630884385049767e-11
-8.413790872088030144e-12
-6.377553748482944058e-12
-4.718468937139976484e-12
-3.399740926930002544e-12
-2.384816830880604402e-12
-1.630854281830820852e-12
