# bin_7_9
-1.317780177185662771e-12
-1.482978272140218742e-12
-1.639616668787794571e-12
-1.773377725927789445e-12
-1.865762203958242172e-12
-1.896803319875188436e-12
-1.847066427515743899e-12
-1.699047511764655513e-12
-1.477881803456640548e-12
-1.222457792530435038e-12
-1.003619338818343275e-12
-8.580113285859750281e-13
-7.329983474333245595e-13
-5.491407474756766572e-13
-3.857904987684303051e-13
-3.123912290205927475e-13
-2.108222913978314424e-13
-1.585651582043183325e-13
-1.083649614731693999e-13
-7.561200391517690253e-14
-5.297983248504252871e-14
-3.714094524826181623e-14
-2.623458429241707181e-14
-1.875868149280599035e-14
-1.367499253707765424e-14
-1.016280820508949261e-14
-7.687376943243411521e-15
-5.897581633396612184e-15
-4.559264881257176626e-15
-3.526234218092183426e-15
-2.708972010559987854e-15
