# bin_4_3
-4.340949324128640683e-10
-4.612336782078490686e-10
-4.750405831147140042e-10
-4.709695679018561958e-10
-4.437922168135194270e-10
-3.953849935583817221e-10
-3.340062004134198512e-10
-2.742816712700128421e-10
-2.295359489560851596e-10
-1.968922152419350235e-10
-1.581069281738390573e-10
-1.134060152592745214e-10
-8.637801593361523552e-11
-6.522500248026638943e-11
-4.648782182994894846e-11
-3.402689954140095315e-11
-2.465834603632591161e-11
-1.793669727483776813e-11
-1.321958538019928531e-11
-9.898986048811535887e-12
-7.543299365234558952e-12
-5.843786287939705020e-12
-4.585914284041008000e-12
-3.621785240774768601e-12
-2.858862949508065718e-12
-2.239969776497614203e-12
-1.730908153923334695e-12
-1.312076843191913393e-12
-9.715821166686037517e-13
-7.008851323479690427e-13
-4.921819287694880316e-13
