# bin_9_2
-2.016806812961192694e-09
-2.088618578469739910e-09
-2.085332517530130023e-09
-1.986006107805155748e-09
-1.790788247040751470e-09
-1.531817651193079061e-09
-1.265676717280348625e-09
-1.052501781791228704e-09
-8.962662703656829807e-10
-7.338359733562768141e-10
-5.436040182363334577e-10
-4.034004990214987163e-10
-3.095326621388631665e-10
-2.226733884225627177e-10
-1.639080069211164887e-10
-1.190886725691010192e-10
-8.747300500582406785e-11
-6.496853935317092719e-11
-4.903731540157429988e-11
-3.767288924740632653e-11
-2.940391678820155694e-11
-2.322307843331321114e-11
-1.843718069067395946e-11
-1.460937039491861678e-11
-1.147498147091874345e-11
-8.878149245052403809e-12
-6.730825924898382778e-12
-4.980990148272630240e-12
-3.589794580526944598e-12
-2.518763999013220331e-12
-1.722852945714655290e-12
