# bin_1_1
-4.618463901075192207e-10
-4.379637566326709292e-10
-3.940644450909318431e-10
-3.373993046714592141e-10
-2.799570888161286599e-10
-2.330458564559719628e-10
-1.967717997947670692e-10
-1.601929835527994150e-10
-1.204305509700101075e-10
-8.958985017457295436e-11
-6.826877965798968466e-11
-5.004895932649964336e-11
-3.693864353111406210e-11
-2.730622159321257641e-11
-2.041522402520856647e-11
-1.549284236068548421e-11
-1.197334408940548192e-11
-9.414674759696001342e-12
-7.501320814819144083e-12
-6.019911268852657303e-12
-4.830214277475797939e-12
-3.846744156018186673e-12
-3.020743337610381173e-12
-2.325973834522929141e-12
-1.748740384427239806e-12
-1.280480748357557811e-12
-9.125433604934508665e-13
-6.335824190129996071e-13
-4.295643472964402163e-13
-2.852489383456659221e-13
-1.861125379499590935e-13
