# bin_2_8
-6.528712695237177709e-22
-7.240450732651509151e-22
-7.863430559742971173e-22
-8.318252306186985612e-22
-8.512435853474848370e-22
-8.368901575096315636e-22
-7.786690635151449638e-22
-6.848891539651795265e-22
-5.708956901670436613e-22
-4.674420820763374120e-22
-3.957818064515551397e-22
-3.409754388601659930e-22
-2.643498300178391781e-22
-1.840706441686756339e-22
-1.470659623926183779e-22
-1.039621690499450911e-22
-7.644315462665497817e-23
-5.295009303120444003e-23
-3.798214841225866697e-23
-2.699125324128569952e-23
-1.927395660961690273e-23
-1.394000953305292358e-23
-1.023439755073909309e-23
-7.658189228354179479e-24
-5.832145330632440238e-24
-4.501619946855749037e-24
-3.502991776701774889e-24
-2.728753856064438604e-24
-2.112982195618295861e-24
-1.616126879268304400e-24
-1.214777238465031983e-24
