# bin_9_7
-1.867546101584436934e-10
-2.089321276050887599e-10
-2.293549790435319307e-10
-2.458834093528999405e-10
-2.558257663003372690e-10
-2.567894240235464487e-10
-2.455191892329515471e-10
-2.216523638425934226e-10
-1.892166535931947600e-10
-1.553357435719690094e-10
-1.288360504708043977e-10
-1.111817132016637230e-10
-9.207624067212508434e-11
-6.591338045411196638e-11
-4.875428799015167801e-11
-3.810753758946135552e-11
-2.589980263840675017e-11
-1.905177853755717663e-11
-1.342200053780100556e-11
-9.367774684730915215e-12
-6.589242815275158956e-12
-4.668149738234505996e-12
-3.349678038176955645e-12
-2.442302832815300795e-12
-1.816113026163102125e-12
-1.374425558615867708e-12
-1.055107646998601190e-12
-8.170539809728931954e-13
-6.337092687738071049e-13
-4.888035731101903167e-13
-3.725926854409106377e-13
