# bin_1_9
-4.047821611049780094e-29
-4.508954317421131655e-29
-4.923513107567502216e-29
-5.243557765174226664e-29
-5.410091259893767492e-29
-5.376462256760646242e-29
-5.070128721289135657e-29
-4.516518681094140882e-29
-3.805043563071911066e-29
-3.114244153311072909e-29
-2.608814302189223204e-29
-2.257334943264610367e-29
-1.813343200181904831e-29
-1.266689959358462712e-29
-9.798793056739137623e-30
-7.300289747837395219e-30
-5.138386078847029990e-30
-3.641150256734663543e-30
-2.615688833584049420e-30
-1.840138893904092413e-30
-1.300678605197593367e-30
-9.308762363348626266e-31
-6.759717950635467953e-31
-4.997593333256798221e-31
-3.765428535245943067e-31
-2.881933687720680817e-31
-2.230768724325152404e-31
-1.734888089268439669e-31
-1.345872614317772745e-31
-1.034437169233532239e-31
-7.832654126510897293e-32
