# bin_3_9
-1.308158880530109457e-20
-1.462316972187793109e-20
-1.603758583393324056e-20
-1.717443339243899586e-20
-1.784472817782680059e-20
-1.788591972887828149e-20
-1.706384098101970562e-20
-1.536894846851130938e-20
-1.308652048739263902e-20
-1.072784375138908894e-20
-8.904134809552797038e-21
-7.694639771821025412e-21
-6.352253842819326214e-21
-4.513318578204528117e-21
-3.360530896759314761e-21
-2.617344556017712532e-21
-1.777275339984255955e-21
-1.303164063461072637e-21
-9.229021755633432045e-22
-6.439326944800519395e-22
-4.526741318507891783e-22
-3.209097400485007474e-22
-2.306429105514711519e-22
-1.685143598455990175e-22
-1.255736270784697930e-22
-9.521869410179645383e-23
-7.321472668633557727e-23
-5.675588817605375281e-23
-4.403823344595886863e-23
-3.396012313066750096e-23
-2.586469975817213269e-23
