# bin_13_9
-1.896005204103087899e-10
-2.144625574805425616e-10
-2.386015283158095820e-10
-2.600760131292299496e-10
-2.763077461618694534e-10
-2.841785274199021377e-10
-2.812278341350686141e-10
-2.637467947307623639e-10
-2.337134280343126422e-10
-1.959672346541034502e-10
-1.603631504223325957e-10
-1.349614723394382060e-10
-1.166693321950710037e-10
-9.229872465107630999e-11
-6.411491061142862121e-11
-5.031351153464225277e-11
-3.644057557485544300e-11
-2.597599128048241799e-11
-1.793819867383083482e-11
-1.271249461750862135e-11
-8.788886697569562251e-12
-6.063783779637661205e-12
-4.213097658662827232e-12
-2.954217982020486988e-12
-2.104224108346949545e-12
-1.527890367589654499e-12
-1.131219896916872930e-12
-8.532458320525719299e-13
-6.526342385411821320e-13
-5.029666022052856090e-13
-3.876558729487902204e-13
