# bin_3_1
-1.812571186248959679e-09
-1.778806355088616871e-09
-1.662658260362345049e-09
-1.474136997760571977e-09
-1.247743370722645036e-09
-1.032727645734247454e-09
-8.640845545714273874e-10
-7.266405979551239851e-10
-5.785829484766879562e-10
-4.292583756223093506e-10
-3.223397167254712205e-10
-2.433285162433097207e-10
-1.773029155609266122e-10
-1.308067674897032656e-10
-9.636938385048608864e-11
-7.189834141059231671e-11
-5.445105887881487437e-11
-4.197663974631078801e-11
-3.290489528494795210e-11
-2.612174074871185134e-11
-2.087497045211448662e-11
-1.667105729992784657e-11
-1.321051514317141459e-11
-1.032061772183471422e-11
-7.906014309719657967e-12
-5.914194043018702845e-12
-4.309922785716559290e-12
-3.057656142869900139e-12
-2.114015645100827161e-12
-1.427680196104710111e-12
-9.446265198573260414e-13
