# bin_15_12
-9.018040187395335722e-11
-1.028469025654927659e-10
-1.156203878942172755e-10
-1.276379939549608204e-10
-1.377606988874747639e-10
-1.445282554704941785e-10
-1.464435661182141560e-10
-1.418835625887471000e-10
-1.297716429402867943e-10
-1.122314741291705543e-10
-9.253567294822032993e-11
-7.613100793699270925e-11
-6.535293511785296526e-11
-5.543739455878984871e-11
-4.081694801959154999e-11
-2.897241427872523675e-11
-2.337621790547000840e-11
-1.551837421379534369e-11
-1.163810795782966153e-11
-7.916565091342845304e-12
-5.397132399591345532e-12
-3.693932440369714502e-12
-2.511634957875926998e-12
-1.708987029824588549e-12
-1.168915521153943238e-12
-8.111950757022548338e-13
-5.726883231355389370e-13
-4.127446368113429762e-13
-3.040584672948434892e-13
-2.284233096384470711e-13
-1.740894354610177855e-13
