# bin_15_7
-4.431569102210685013e-10
-4.965947808201874541e-10
-5.462591284186344503e-10
-5.871635145485617457e-10
-6.129855047854348333e-10
-6.177530425301436194e-10
-5.940824735924284652e-10
-5.395080016327492855e-10
-4.632978918981619596e-10
-3.811036040495038587e-10
-3.148398283456697302e-10
-2.708918003555405671e-10
-2.268051634325349098e-10
-1.646972592211935613e-10
-1.196020333335577482e-10
-9.478935464971335975e-11
-6.406560730598444387e-11
-4.757058991056880096e-11
-3.317602977445172327e-11
-2.312866827185363078e-11
-1.623937858341422437e-11
-1.145707234160519106e-11
-8.175175234859584539e-12
-5.920675141167906841e-12
-4.373334742101362414e-12
-3.289953771032170798e-12
-2.513630375788279575e-12
-1.940812286447716194e-12
-1.503854843521304218e-12
-1.161053449076463709e-12
-8.872513381923792992e-13
