# bin_6_10
-3.749979629628685849e-15
-4.228347315563663065e-15
-4.686238255389595246e-15
-5.083934751058938176e-15
-5.369479398643151299e-15
-5.483224143891433519e-15
-5.374728956401875112e-15
-4.981305172170715418e-15
-4.364784695264186994e-15
-3.626463606841828798e-15
-2.969945831683396466e-15
-2.523703466825813176e-15
-2.171372441316329963e-15
-1.662134094397325360e-15
-1.154475385855079486e-15
-9.307700589349057670e-16
-6.412959411629464666e-16
-4.761440214600450116e-16
-3.231675858449536728e-16
-2.272383310218639657e-16
-1.585567912278463381e-16
-1.105540305892599105e-16
-7.758715615952264748e-17
-5.503194756833636225e-17
-3.975688986409065845e-17
-2.928744904398170662e-17
-2.198169403852348665e-17
-1.676679269629801587e-17
-1.292060492800899087e-17
-9.988467399190062963e-18
-7.689172511204764036e-18
