# bin_2_5
-9.851887846362438935e-15
-1.067356699499286648e-14
-1.126160446009429787e-14
-1.149440760144773665e-14
-1.126254524640621638e-14
-1.044475644670817297e-14
-9.158624223189799046e-15
-7.622873222312643726e-15
-6.246126960872664110e-15
-5.292648480186366815e-15
-4.539425031554452577e-15
-3.500126667051662489e-15
-2.459549260456114283e-15
-1.959334013241889659e-15
-1.392194617587612277e-15
-1.028005966542503363e-15
-7.251387523699662522e-16
-5.256105738618851979e-16
-3.803031746995996543e-16
-2.778694501374422666e-16
-2.063042736605818662e-16
-1.557917061179913522e-16
-1.197441742316696306e-16
-9.330086687607444009e-17
-7.324891469059194548e-17
-5.756140415348689501e-17
-4.495740700271712250e-17
-3.467498612586601292e-17
-2.626685107420465795e-17
-1.945781661270775017e-17
-1.405271762315958291e-17
