# bin_1_8
-5.275779118724245921e-26
-5.844329967084194478e-26
-6.338810320842430342e-26
-6.694897092673739802e-26
-6.838908312961814783e-26
-6.707590034475301102e-26
-6.223812444481802786e-26
-5.459773065681310066e-26
-4.542118431208895625e-26
-3.719580437859702151e-26
-3.154474027630252174e-26
-2.712467685167470244e-26
-2.088312736359818649e-26
-1.456334222631714809e-26
-1.167290129604901145e-26
-8.183321040888819741e-27
-6.052935653518346982e-27
-4.188938073367659511e-27
-2.998857809712237072e-27
-2.134038418517575756e-27
-1.526395564572662725e-27
-1.105763902247821023e-27
-8.132827536648324585e-28
-6.097231362089210842e-28
-4.650956037351044537e-28
-3.594190891935803155e-28
-2.798551068453028474e-28
-2.179900859827329711e-28
-1.686871427401382078e-28
-1.288685479116845146e-28
-9.670921472900189372e-29
