# bin_13_7
-3.818825067066671856e-10
-4.278770434639517041e-10
-4.705958794899270970e-10
-5.057371632184560736e-10
-5.278496010272674020e-10
-5.318056002511972679e-10
-5.112216980076437218e-10
-4.640647015469042567e-10
-3.983437736122513446e-10
-3.276153356753549236e-10
-2.707125227337221636e-10
-2.329740135844201966e-10
-1.949245966637853782e-10
-1.413987228810898309e-10
-1.027992435265149152e-10
-8.141235794173158568e-11
-5.502865184695004780e-11
-4.084323998227951729e-11
-2.850252219558344407e-11
-1.987014218608292817e-11
-1.395297839268297323e-11
-9.846524173612513897e-12
-7.028496383285042750e-12
-5.092457475540825516e-12
-3.763249194254759790e-12
-2.832153721607268971e-12
-2.164569972416408713e-12
-1.671647803459815989e-12
-1.295388883143283699e-12
-1.000052076738300621e-12
-7.640894134397973278e-13
