# bin_13_4
-1.023987494619802360e-09
-1.116018994034380381e-09
-1.186329051637449811e-09
-1.222037853835902426e-09
-1.211724920964548042e-09
-1.141174434495212521e-09
-1.015798169462172608e-09
-8.567134609741093324e-10
-7.025905297263840947e-10
-5.884092924274969366e-10
-5.060125889303718726e-10
-4.054395727410558948e-10
-2.881511957991501303e-10
-2.206851212931670105e-10
-1.653408610084222178e-10
-1.172938066525991322e-10
-8.486341122180654533e-11
-6.102447488572593344e-11
-4.373970037678196164e-11
-3.167784728157618887e-11
-2.326581282614417477e-11
-1.737441198321216391e-11
-1.320590662272293686e-11
-1.019826000754666095e-11
-7.958574899801947279e-12
-6.237392156691649192e-12
-4.875565926797865414e-12
-3.775330020266861472e-12
-2.879145990466223644e-12
-2.152214793867757234e-12
-1.571398121308208993e-12
