# bin_7_13
-1.855933103744593738e-17
-2.109720259143699237e-17
-2.361750448503965759e-17
-2.593871089495180723e-17
-2.781818731972728221e-17
-2.894991392106439886e-17
-2.906625098181478551e-17
-2.778515796383943999e-17
-2.506701987628575169e-17
-2.137663789379388821e-17
-1.752784293899966868e-17
-1.453459555978703264e-17
-1.256867780519191028e-17
-1.041423613309782659e-17
-7.396827327578735365e-18
-5.476872766372622743e-18
-4.281540713755979499e-18
-2.869253554419968398e-18
-2.097465692372639261e-18
-1.463700234617317729e-18
-9.992875005914337180e-19
-6.830330570182483102e-19
-4.670844592509502134e-19
-3.216503157538152886e-19
-2.237943841021908748e-19
-1.584415748040274498e-19
-1.143439058670685350e-19
-8.427528873401868141e-20
-6.333515567259675042e-20
-4.831320473507691864e-20
-3.715488893432106952e-20
