# bin_1_13
-7.987415220176477743e-39
-9.048728907534608849e-39
-1.008607728158061854e-38
-1.101903976197998347e-38
-1.174003973027950763e-38
-1.211597395560808819e-38
-1.204422612707202188e-38
-1.135843934141881543e-38
-1.011713481858302810e-38
-8.519514812167584544e-39
-6.969950808418918630e-39
-5.839883621181782257e-39
-5.057691144611939679e-39
-4.060941224047533763e-39
-2.823177908671290948e-39
-2.186552157594919884e-39
-1.620213373141825125e-39
-1.132978053562799065e-39
-7.901119802908094202e-40
-5.615873992297492122e-40
-3.866546548967420109e-40
-2.654564614256779225e-40
-1.835948972413216446e-40
-1.280723285851340292e-40
-9.062640054972875124e-41
-6.535549149158671978e-41
-4.806820318661511426e-41
-3.605464076911267521e-41
-2.747257338861035432e-41
-2.113699515488160215e-41
-1.629929491227277810e-41
