# bin_8_7
-1.105951438584831227e-10
-1.236946789475220153e-10
-1.357488063047086955e-10
-1.454923267739189101e-10
-1.513344447291182885e-10
-1.518662436594490613e-10
-1.451592795884489434e-10
-1.310035144080105459e-10
-1.117905811407982655e-10
-9.173346827475305660e-11
-7.605709479023545290e-11
-6.563374881359786984e-11
-5.435392079724965026e-11
-3.886983444525080424e-11
-2.874544875293748854e-11
-2.247982180341729966e-11
-1.525537884015121979e-11
-1.122671496668843829e-11
-7.910698631754319282e-12
-5.518034622009050119e-12
-3.879948768426150044e-12
-2.747858530450035292e-12
-1.971374620353068303e-12
-1.437155230464470820e-12
-1.068579131767266955e-12
-8.086495083376493860e-13
-6.207626298443976696e-13
-4.807007844436453986e-13
-3.728251739000740280e-13
-2.875593137139554495e-13
-2.191724426735568212e-13
