# bin_10_7
-2.466354864101404778e-10
-2.762021185714210537e-10
-3.035924354207176809e-10
-3.260157542794480746e-10
-3.399436773016293303e-10
-3.421121985780263261e-10
-3.283459451505843410e-10
-2.975649630764372854e-10
-2.549978682789875821e-10
-2.095757314349613052e-10
-1.733301106543238363e-10
-1.492930336316734974e-10
-1.245693588992112615e-10
-8.998768936485913957e-11
-6.572022670859635685e-11
-5.189242925889716721e-11
-3.508805617873099012e-11
-2.599801454430679050e-11
-1.818947246895322637e-11
-1.267969187540837917e-11
-8.907579683944689393e-12
-6.292434825547064497e-12
-4.497979701384716515e-12
-3.264665036584064710e-12
-2.416800870169788735e-12
-1.821760324736649089e-12
-1.394147551886666167e-12
-1.077552456080300941e-12
-8.352602722174495149e-13
-6.446869652393082761e-13
-4.922461618108993323e-13
