# bin_12_8
-2.332899579888007675e-10
-2.627320256480546569e-10
-2.907631440333857770e-10
-3.148808441383314286e-10
-3.318345930669398897e-10
-3.380349927675167027e-10
-3.301565589861183175e-10
-3.048201437100852084e-10
-2.660917354832086010e-10
-2.206650402189307249e-10
-1.809917110765683860e-10
-1.541857075620359545e-10
-1.320252276874031927e-10
-1.000639482771658304e-10
-7.007175083845110246e-11
-5.635732667507590860e-11
-3.864147671038256866e-11
-2.870921253486036817e-11
-1.962069109519134455e-11
-1.375772885358697858e-11
-9.608798089180657449e-12
-6.711165495461361151e-12
-4.723544814889221369e-12
-3.363245465795549395e-12
-2.439835557117586337e-12
-1.804555654329085531e-12
-1.359125023088709975e-12
-1.039203878397068076e-12
-8.017162364068848492e-13
-6.196342635300893629e-13
-4.763136195111597310e-13
