# bin_8_13
-1.123034408511096653e-15
-1.277691348148154364e-15
-1.431906134009192415e-15
-1.574758526780292854e-15
-1.691690503157648085e-15
-1.764279977660923236e-15
-1.775703317670824314e-15
-1.703401487780469001e-15
-1.542030878046043575e-15
-1.319654913416580798e-15
-1.083210064832555095e-15
-8.961051893786767418e-16
-7.738659311789346108e-16
-6.456693892828888628e-16
-4.623201082792903134e-16
-3.382535040052229634e-16
-2.674757627087506737e-16
-1.779819026001323457e-16
-1.315058433360347136e-16
-9.114946272954448187e-17
-6.212785329775393431e-17
-4.247599249051337690e-17
-2.898183036473808725e-17
-1.989247683613239699e-17
-1.377906893188704605e-17
-9.706218789234247982e-18
-6.967013410898355215e-18
-5.107769764380073434e-18
-3.821400467723719168e-18
-2.905760270155871570e-18
-2.231142043578580305e-18
