# bin_12_14
-1.735976694107105291e-12
-1.983861328474534952e-12
-2.236098653521995867e-12
-2.476326998222503263e-12
-2.683138523395519798e-12
-2.828709519087220185e-12
-2.881937046333296207e-12
-2.814952507733361696e-12
-2.597387385129225450e-12
-2.266106389919532634e-12
-1.876938318240912658e-12
-1.538794121753720101e-12
-1.313059149611813766e-12
-1.126216645101224676e-12
-8.495546069986196421e-13
-5.916788487776858532e-13
-4.799828091306010937e-13
-3.226892474730188478e-13
-2.417442376902634159e-13
-1.622437322356499260e-13
-1.112795988950500806e-13
-7.612436465228601463e-14
-5.164091759893293648e-14
-3.490962227498691343e-14
-2.364289765352192128e-14
-1.620535842077485132e-14
-1.127814719601571696e-14
-8.003329905747297249e-15
-5.808657957075693784e-15
-4.309171565862731696e-15
-3.255510681569048873e-15
