# bin_8_10
-1.445763599063234869e-12
-1.634807081782262966e-12
-1.818040079698122982e-12
-1.980620964673534438e-12
-2.102827264570233419e-12
-2.160780286981478291e-12
-2.136107576651222630e-12
-2.000275948818449356e-12
-1.769922315108920096e-12
-1.481697993818924068e-12
-1.212052067991496232e-12
-1.021398423502311518e-12
-8.833730891236132358e-13
-6.960274665355409352e-13
-4.818574999175439661e-13
-3.807164612229437969e-13
-2.735496450187952739e-13
-1.964076901296203153e-13
-1.345157107345080291e-13
-9.558805232230574263e-14
-6.616940178442790863e-14
-4.569493418134359146e-14
-3.179813486622188378e-14
-2.233132054072851311e-14
-1.593836755618054053e-14
-1.159784191757851373e-14
-8.605330815506694430e-15
-6.503479320951586192e-15
-4.982047272307931170e-15
-3.843272531088711046e-15
-2.963234476564789043e-15
