# bin_3_4
-1.726209680816132167e-11
-1.859425284073000810e-11
-1.947757802925830031e-11
-1.971454581767917234e-11
-1.909165730929403891e-11
-1.747889739694347462e-11
-1.513572898471422775e-11
-1.250785136958400288e-11
-1.029269668322487418e-11
-8.793036620771616219e-12
-7.437084299645880375e-12
-5.554108088421355363e-12
-3.979140940897439270e-12
-3.171927428163594181e-12
-2.207879082682197551e-12
-1.650545784811152950e-12
-1.170099796690741092e-12
-8.455518519408774491e-13
-6.155404409519376566e-13
-4.532802910674940480e-13
-3.393815688033819884e-13
-2.584774352806942683e-13
-2.001720262102943337e-13
-1.568079760219963715e-13
-1.234583897384279971e-13
-9.702956786923556996e-14
-7.559434868457863945e-14
-5.802702058358889730e-14
-4.366286545384531854e-14
-3.207936759472029369e-14
-2.295848872376376098e-14
