# bin_7_15
-1.602849905084893482e-20
-1.828483722752348217e-20
-2.056317492682163800e-20
-2.271039171680697641e-20
-2.452460241575920035e-20
-2.574667951201056563e-20
-2.610730475233005163e-20
-2.532169640830152284e-20
-2.318340366948786876e-20
-2.007047048229022978e-20
-1.655266609040617268e-20
-1.360822687036638792e-20
-1.167686506082925170e-20
-9.926116516679663815e-21
-7.324931019843216118e-21
-5.178665551956024074e-21
-4.195582496049018816e-21
-2.776321754176814104e-21
-2.090482504312129388e-21
-1.419094195113565857e-21
-9.662125410779874824e-22
-6.616084231641485982e-22
-4.497141790856506356e-22
-3.057196348789341767e-22
-2.088321674249998856e-22
-1.447087078059740333e-22
-1.019928093457407748e-22
-7.338389062269775251e-23
-5.398032940058476725e-23
-4.050945451045561147e-23
-3.085791004780615559e-23
