# bin_6_1
-2.725901426124825742e-09
-2.688120722195366628e-09
-2.527276761704593861e-09
-2.253981721776171756e-09
-1.916639916440734640e-09
-1.587933767486234264e-09
-1.325813035652694690e-09
-1.116527873858498628e-09
-8.969297262891365194e-10
-6.690693534789453078e-10
-5.000738945730435838e-10
-3.787776754764925241e-10
-2.763129060582290795e-10
-2.035454310246077605e-10
-1.497767209427606648e-10
-1.114768618226865950e-10
-8.416180017862979738e-11
-6.466666438131050832e-11
-5.053854641802356934e-11
-4.002688709757400129e-11
-3.194425532286553956e-11
-2.550525199949035348e-11
-2.022775561024976715e-11
-1.583122609758544238e-11
-1.215910784652880143e-11
-9.125128400536553248e-12
-6.673655225184896405e-12
-4.751873419352305203e-12
-3.296721784201131757e-12
-2.233280448877743110e-12
-1.481532040681259304e-12
