# bin_8_2
-1.828011615485388380e-09
-1.900676391745542113e-09
-1.907234782562205216e-09
-1.828050036163378619e-09
-1.659250889852664314e-09
-1.427356520230961367e-09
-1.181262316874342657e-09
-9.789344676954966383e-10
-8.330013705561921290e-10
-6.892269692182362074e-10
-5.150580931561252554e-10
-3.787411068746051850e-10
-2.922750923806822519e-10
-2.104109573518684705e-10
-1.547002410358347273e-10
-1.121977799129690406e-10
-8.223492103310763311e-11
-6.085984664071485633e-11
-4.574900775210577028e-11
-3.500393520613522974e-11
-2.722248090402094258e-11
-2.144382836727137344e-11
-1.700144597637442008e-11
-1.347073162331236699e-11
-1.059294872417260702e-11
-8.214281547444882404e-12
-6.247207299802862474e-12
-4.640627385290213140e-12
-3.358195751909233362e-12
-2.365773997299639620e-12
-1.624179190030933353e-12
