# bin_8_1
-3.012470374171539900e-09
-2.973440259268387226e-09
-2.798585131898654511e-09
-2.498704053926483797e-09
-2.126559138524051335e-09
-1.762182086195732063e-09
-1.470724352447863184e-09
-1.238889078559788273e-09
-9.968419030434617873e-10
-7.443423805745703963e-10
-5.558646200929752931e-10
-4.212921026898157286e-10
-3.073921926389272652e-10
-2.263778308346503367e-10
-1.665410362208038230e-10
-1.239000048636141015e-10
-9.348732936011789522e-11
-7.178825981897799388e-11
-5.607288967198636939e-11
-4.439086809764824309e-11
-3.541812780679470450e-11
-2.827763623521477876e-11
-2.242992388123620756e-11
-1.756059141760395197e-11
-1.349385894828655495e-11
-1.013284769476786520e-11
-7.415517339358089559e-12
-5.283630951723444456e-12
-3.667951389198546655e-12
-2.486155783748116316e-12
-1.650072584542162007e-12
