# bin_15_8
-3.321413796985022808e-10
-3.741760480035090945e-10
-4.142542046131252575e-10
-4.488246881835902806e-10
-4.732671814524485169e-10
-4.824405374977202969e-10
-4.716519022651562549e-10
-4.359485258979747870e-10
-3.809774441342411353e-10
-3.161741242371396354e-10
-2.592656620567089858e-10
-2.206771460240095647e-10
-1.891276639432254693e-10
-1.437979570979485376e-10
-1.005864745059379700e-10
-8.080289483487401094e-11
-5.559882407068003744e-11
-4.120569734021454876e-11
-2.816210158372702227e-11
-1.976478427611723481e-11
-1.379503120481596298e-11
-9.626746596322098933e-12
-6.769276523488994288e-12
-4.814396383066698141e-12
-3.488005184984810174e-12
-2.576497444827924296e-12
-1.938281036495815954e-12
-1.480726556875721869e-12
-1.141745565586636896e-12
-8.823277972230795386e-13
-6.784134491071529462e-13
