# bin_9_2
-2.805684740045419757e-20
-3.130717748043532250e-20
-3.426031384039776551e-20
-3.658922373286294915e-20
-3.788628166909148506e-20
-3.781879427596773425e-20
-3.587845003853588193e-20
-3.214172520716270477e-20
-2.722312324931728394e-20
-2.229071258755020870e-20
-1.857742463638391285e-20
-1.607024957194098671e-20
-1.310320056533658538e-20
-9.219909141328825961e-21
-6.992917007445419055e-21
-5.338022725052346067e-21
-3.680769466640817041e-21
-2.654307381569214546e-21
-1.895444950496338796e-21
-1.327152095929550825e-21
-9.346740087818610339e-22
-6.654232552154151702e-22
-4.805549551004549734e-22
-3.530771851479543305e-22
-2.645020318579910227e-22
-2.014750608427119113e-22
-1.554310303169509106e-22
-1.206927720557860467e-22
-9.364996019814200290e-23
-7.210876602674606951e-23
-5.476764143514737537e-23
