# bin_11_4
-1.463889106517597739e-17
-1.651264460659145260e-17
-1.830924757941028119e-17
-1.987431161836561022e-17
-2.100539504087116862e-17
-2.146793835301928830e-17
-2.106758851866795933e-17
-1.955197750879641833e-17
-1.715444308725390868e-17
-1.426547566035606154e-17
-1.167970708453247416e-17
-9.914319259965593466e-18
-8.538751889128360691e-18
-6.561117233349518405e-18
-4.551439315105553332e-18
-3.663462576859290004e-18
-2.535937495630190057e-18
-1.876607358159709931e-18
-1.273273538377653586e-18
-8.968009114993850560e-19
-6.251904202272606059e-19
-4.354389370113861517e-19
-3.052630117104033764e-19
-2.162328936769951625e-19
-1.559705427211313145e-19
-1.147202005052523120e-19
-8.598217710498339031e-20
-6.551308263103056113e-20
-5.045267047365535671e-20
-3.899735596482739765e-20
-3.002967277557387375e-20
