# bin_13_13
-1.306628913154015738e-08
-1.494669293634017958e-08
-1.686772412679056583e-08
-1.870740257620763462e-08
-2.030652768319281933e-08
-2.145665974750793119e-08
-2.191692211338674722e-08
-2.148778779231818749e-08
-1.991268993186206392e-08
-1.744585994712831052e-08
-1.448833183484478841e-08
-1.186511998834287540e-08
-1.009102940010952726e-08
-8.687854693841633504e-09
-6.633840623264483371e-09
-4.595218955470905007e-09
-3.715120907326465002e-09
-2.532818603106681844e-09
-1.882235762997543348e-09
-1.258171911407600259e-09
-8.689042943941718567e-10
-5.933669213742589683e-10
-4.016511982232411425e-10
-2.707363241311986108e-10
-1.825642551508443929e-10
-1.244007237712249093e-10
-8.597453375232923371e-11
-6.053169447835382307e-11
-4.358385885258844462e-11
-3.210127238760141117e-11
-2.411835792851959963e-11
