# bin_15_13
-5.878093749516406093e-09
-6.737722847638706910e-09
-7.622369513429736185e-09
-8.478824465853487671e-09
-9.237205867246082682e-09
-9.804737602917259077e-09
-1.006898872639857464e-08
-9.945255778654173692e-09
-9.299229585065124823e-09
-8.216328673150626696e-09
-6.867478000184255858e-09
-5.617236236261045334e-09
-4.742212221386291706e-09
-4.102318304799643365e-09
-3.213623465336862627e-09
-2.216720195850037177e-09
-1.762942426903766377e-09
-1.249601869888571496e-09
-9.016894879791984029e-10
-6.056515109145011872e-10
-4.251781854584581900e-10
-2.886634279843626187e-10
-1.938667512269779629e-10
-1.299396997375692998e-10
-8.692932487308652707e-11
-5.854451981115763624e-11
-3.988502623418618117e-11
-2.761398577824614747e-11
-1.953028425181280538e-11
-1.414095018205384320e-11
-1.047376406983598366e-11
