# bin_1_5
-6.943063737588600454e-14
-7.477281862088026177e-14
-7.830257412153072019e-14
-7.922838247331313036e-14
-7.668273471008824147e-14
-7.014611902692884083e-14
-6.068905101703149922e-14
-5.010657116863642336e-14
-4.122739148351469176e-14
-3.525830619566583559e-14
-2.982692167280507383e-14
-2.219768805268623621e-14
-1.589988061119847043e-14
-1.271981892123043790e-14
-8.802426065961416787e-15
-6.610076504842289504e-15
-4.682282853138376921e-15
-3.380137392244986328e-15
-2.462327147110022706e-15
-1.814446515498151429e-15
-1.359399721035361807e-15
-1.036006476291650366e-15
-8.028331055498282656e-16
-6.292374251234153315e-16
-4.955900587860936622e-16
-3.895681997238356397e-16
-3.035031043901893042e-16
-2.329285990976611341e-16
-1.752063583772093639e-16
-1.286573466940366283e-16
-9.201502008722998191e-17
