# bin_3_9
-1.195973535966030822e-16
-1.336899336512546036e-16
-1.466193902286642909e-16
-1.570105658481283536e-16
-1.631355927964452301e-16
-1.635088669514968777e-16
-1.559890182751885168e-16
-1.404910519182859802e-16
-1.196231893062021604e-16
-9.806165966173449074e-17
-8.139300956280013713e-17
-7.033787420844239903e-17
-5.806356669468606880e-17
-4.125148399433990579e-17
-3.071828053523995312e-17
-2.392268876288306494e-17
-1.624531757482563015e-17
-1.191066081601859011e-17
-8.435688152349495906e-18
-5.885886579931459157e-18
-4.137688941724515250e-18
-2.933350392646813717e-18
-2.108303075419165347e-18
-1.540437111359597975e-18
-1.147940016781365809e-18
-8.704726161592964905e-19
-6.693307666618056092e-19
-5.188703387956895409e-19
-4.026051430827495931e-19
-3.104675723915712341e-19
-2.364550926944152937e-19
