# bin_13_14
-1.045314882716988094e-08
-1.196973975107960262e-08
-1.352503345010597863e-08
-1.502276045473198148e-08
-1.633714222342554813e-08
-1.730227048464709791e-08
-1.772117634193218601e-08
-1.744008497047414203e-08
-1.623497732665085655e-08
-1.428498524666511677e-08
-1.190031800558724883e-08
-9.738178023574764663e-09
-8.251672920370098476e-09
-7.124518410625381911e-09
-5.510772742499735046e-09
-3.805218504866372360e-09
-3.054965984395054746e-09
-2.122056584065771461e-09
-1.556184195126806240e-09
-1.040101666621005611e-09
-7.246263744073069876e-10
-4.934386147946442828e-10
-3.327927332742880144e-10
-2.236739627734325758e-10
-1.502014858007706290e-10
-1.017369412893660932e-10
-6.980238775947153236e-11
-4.873376304374531447e-11
-3.478132905715907194e-11
-2.540678393277450897e-11
-1.896049606864432020e-11
