# bin_8_4
-3.998504811005746618e-12
-4.459723250010859333e-12
-4.877716669097658030e-12
-5.205723227420301796e-12
-5.385594113768753118e-12
-5.370402456404246790e-12
-5.087667458174406024e-12
-4.551657459633447354e-12
-3.850052691940064881e-12
-3.151720466530835866e-12
-2.629493867637680323e-12
-2.274978620415313973e-12
-1.848909583940239754e-12
-1.298121675226227116e-12
-9.891279352705356660e-13
-7.510369850339798919e-13
-5.200674351782996675e-13
-3.734473273406059525e-13
-2.671675624546289294e-13
-1.872427843816847287e-13
-1.319464319371561792e-13
-9.404077389922899769e-14
-6.799632852786210225e-14
-5.002829622639037594e-14
-3.752658421706566316e-14
-2.861591781841061741e-14
-2.209351207869883938e-14
-1.716216813637126243e-14
-1.331633330772932164e-14
-1.024918253351333341e-14
-7.778889055134218220e-15
