# bin_3_1
-1.185092464272402637e-09
-1.235473919766239548e-09
-1.243890308454362638e-09
-1.196319088449552657e-09
-1.087993819052717044e-09
-9.363248437838200261e-10
-7.721717315507463952e-10
-6.376086558956834084e-10
-5.455241619952621216e-10
-4.562143813327045886e-10
-3.373438072737286717e-10
-2.458588535925255979e-10
-1.938249264867791139e-10
-1.363690548001868656e-10
-1.018182741744071313e-10
-7.334841278413219317e-11
-5.365987463905592460e-11
-3.971063638823423795e-11
-2.983658835849316787e-11
-2.282490937561379666e-11
-1.775253070017281662e-11
-1.399431438320006928e-11
-1.110724072088656355e-11
-8.812845124052280400e-12
-6.941296030917793936e-12
-5.391516539242964520e-12
-4.106675238996261992e-12
-3.054091331318744572e-12
-2.211309691998246558e-12
-1.557674278176779680e-12
-1.068729112239888375e-12
