# bin_3_15
-1.324785693333756990e-29
-1.508879482219599217e-29
-1.693406603406333815e-29
-1.865577756543302610e-29
-2.008413551259557411e-29
-2.100318194877576174e-29
-2.120465020241192701e-29
-2.043353323972159508e-29
-1.858213510248875996e-29
-1.597695939774377133e-29
-1.313691941077290033e-29
-1.083757852693002383e-29
-9.337690359402576091e-30
-7.855029472028436343e-30
-5.690898925616318090e-30
-4.101974881503723812e-30
-3.283732524691711029e-30
-2.173185687305175611e-30
-1.622804068621809993e-30
-1.115011415204774018e-30
-7.589688751131849252e-31
-5.192353674869153593e-31
-3.535457223745152088e-31
-2.416751544162547675e-31
-1.664395895681385228e-31
-1.164638066182328077e-31
-8.298893901740735026e-32
-6.039638780417601614e-32
-4.489466882672578154e-32
-3.397269714032407572e-32
-2.601455494500821271e-32
