# bin_12_11
-9.986924288533810334e-09
-1.138655253771422729e-08
-1.279630123176563072e-08
-1.412041409274259163e-08
-1.523231983452117820e-08
-1.597011835794429942e-08
-1.616971928135110396e-08
-1.564821431284718963e-08
-1.429289950136868652e-08
-1.234411844764062291e-08
-1.016887515986862603e-08
-8.369134086557731152e-09
-7.192461929296453433e-09
-6.093587495554556724e-09
-4.467103822859631277e-09
-3.177675036519316587e-09
-2.566942823574107611e-09
-1.695903274434281579e-09
-1.275130901779365377e-09
-8.691538829987475362e-10
-5.913803323780271123e-10
-4.048565405632438528e-10
-2.753093198376483036e-10
-1.875039872644137949e-10
-1.284391574941179634e-10
-8.930358008280728350e-11
-6.318527073074875000e-11
-4.564754871664835618e-11
-3.370603259124072257e-11
-2.537343184839050112e-11
-1.936785692575097627e-11
