# bin_6_4
-1.902779783592556420e-09
-2.100801107440564845e-09
-2.269188283829361393e-09
-2.384347631055455093e-09
-2.421196234617751312e-09
-2.354663287254928126e-09
-2.163899888326994195e-09
-1.880521268253854511e-09
-1.555191881990848975e-09
-1.276835805995522139e-09
-1.090468527260782433e-09
-9.294915891931217218e-10
-6.970983938441809303e-10
-4.922641922104812295e-10
-3.969428883275040056e-10
-2.716161393051383093e-10
-2.041777683732405042e-10
-1.418781101944794290e-10
-1.009240569646643515e-10
-7.218960749897460096e-11
-5.197309569287796472e-11
-3.791831780835175333e-11
-2.810892285497678120e-11
-2.124034523861954225e-11
-1.630954308597558020e-11
-1.266409104630898057e-11
-9.884491465924426012e-12
-7.698936276634145968e-12
-5.943942022457658946e-12
-4.521859448712873813e-12
-3.373994319752347532e-12
