# bin_5_5
-2.095623227150544318e-08
-2.311917382641862931e-08
-2.494836785688518516e-08
-2.618297286456120679e-08
-2.655126976192549907e-08
-2.577068089909820982e-08
-2.363273804260405635e-08
-2.049474216991973230e-08
-1.693086982002496338e-08
-1.391245563201878715e-08
-1.189775095321105815e-08
-1.011409245237607065e-08
-7.543688027922695274e-09
-5.350674964731139605e-09
-4.309005370114539332e-09
-2.941686791557917314e-09
-2.212566999403284951e-09
-1.541315219633815430e-09
-1.095562041247627293e-09
-7.842081155190205787e-10
-5.652721028443009653e-10
-4.130432303732696131e-10
-3.067217538626231553e-10
-2.321545543219371172e-10
-1.784994212073301832e-10
-1.387277998282036779e-10
-1.083202005064343568e-10
-8.435711742129242064e-11
-6.508738204684842657e-11
-4.946533038459151608e-11
-3.685957865858901370e-11
