# bin_8_2
-8.288967283776474570e-18
-9.198299603863530723e-18
-9.998001571817042000e-18
-1.058795655409108281e-17
-1.084993573397034508e-17
-1.068803338729584333e-17
-9.968791844483229025e-18
-8.788495864655833513e-18
-7.338252239732520308e-18
-6.004906110993832993e-18
-5.072012966793067619e-18
-4.374750543196800891e-18
-3.416073530173221366e-18
-2.375902286320542232e-18
-1.888175919520696124e-18
-1.347865721310057302e-18
-9.829176318241832493e-19
-6.822737692455244511e-19
-4.900539618857564753e-19
-3.474808053646367449e-19
-2.475326100582177501e-19
-1.786190033468573441e-19
-1.308211092074720521e-19
-9.764182901964577006e-20
-7.419506411986409335e-20
-5.717004648436425014e-20
-4.444053471081298954e-20
-3.460667749853537318e-20
-2.680620405338375449e-20
-2.052124847406092011e-20
-1.544580571749565200e-20
