# bin_10_8
2.247320649706673825e-07
2.544753064022390645e-07
2.834783589335187374e-07
3.094710542384849747e-07
3.294124111405888285e-07
3.395384732136767677e-07
3.370470031016129821e-07
3.172031912761165310e-07
2.819822786329933258e-07
2.369547745993011888e-07
1.937641885993430244e-07
1.626218545710564163e-07
1.409077757560038629e-07
1.125800543568455081e-07
7.790350345146701674e-08
6.085006214342192697e-08
4.468305400481091669e-08
3.148394749884023391e-08
2.172046571674721762e-08
1.552302746714174895e-08
1.070167563973903177e-08
7.349275961888199677e-09
5.093715692689827255e-09
3.560774642126274268e-09
2.526470914305156607e-09
1.827248754179678792e-09
1.347872251057355936e-09
1.013738606696061619e-09
7.740921799163611356e-10
5.963933242745261761e-10
4.601348848332954356e-10
