# bin_10_2
1.147088579069288561e-42
1.285466161877921987e-42
1.414102204561273353e-42
1.520070439860388530e-42
1.587004875448413573e-42
1.599509882688910776e-42
1.537842564370131539e-42
1.395311538356538500e-42
1.196965177507296142e-42
9.830450952530413898e-43
8.115124454798065731e-43
6.998421868591452722e-43
5.870364651039981577e-43
4.233399189288824864e-43
3.072079125704516496e-43
2.457178345690731250e-43
1.636020572809507932e-43
1.228605382289554876e-43
8.583675245022950731e-44
5.960162593364080593e-44
4.184952411273329977e-44
2.949959470973524841e-44
2.106287905352463928e-44
1.527086179268355619e-44
1.129550919097105959e-44
8.509752362930470822e-45
6.511463569689121291e-45
5.034591014786227120e-45
3.905599499226524448e-45
3.017806892180589485e-45
2.307139591718198366e-45
