# bin_8_2
2.871205590946993693e-29
3.184366816574412496e-29
3.458747068046250889e-29
3.659518576409618675e-29
3.745426807357234904e-29
3.684130948945392271e-29
3.428835619871454529e-29
3.016770235192477329e-29
2.513211940839013665e-29
2.055538526312821577e-29
1.739649668779133487e-29
1.501629733101734140e-29
1.165102109569513778e-29
8.068201217097676434e-30
6.479370429702069136e-30
4.563807551208125523e-30
3.372056015749185556e-30
2.314138188729895861e-30
1.664521325960935744e-30
1.183251795824413183e-30
8.450913043817160317e-31
6.110892767932391492e-31
4.483955309194399940e-31
3.354091183732471618e-31
2.553767634969206700e-31
1.971029510589586526e-31
1.533950862377038298e-31
1.195188258002889611e-31
9.257560958107047857e-32
7.082891022942527358e-32
5.325567971210673654e-32
