# bin_12_5
3.439478270296216586e-14
3.895115097725015562e-14
4.339731872963837821e-14
4.738583760569359305e-14
5.045216642534390806e-14
5.202301192061725772e-14
5.166043865973033342e-14
4.865061580949069331e-14
4.327670278181599884e-14
3.639671635457803216e-14
2.977244858669920866e-14
2.497364301473662254e-14
2.162819864585083395e-14
1.730380095027197547e-14
1.200911073304906403e-14
9.344162034449407030e-15
6.881762345191392249e-15
4.837447550876933471e-15
3.356899280060769021e-15
2.388972279508456657e-15
1.646463943940670260e-15
1.131317221862205877e-15
7.834376233429378136e-16
5.472535107113946925e-16
3.879251861859254174e-16
2.802743276886069063e-16
2.065213209283319424e-16
1.551616021593284689e-16
1.183744743600183202e-16
9.113907518587583818e-17
7.028850959605640389e-17
