# bin_6_5
2.237364405076564059e-06
2.481609177641558243e-06
2.695730967053358072e-06
2.852608567870095393e-06
2.920146644139705811e-06
2.873010764417755737e-06
2.674831026048096536e-06
2.354117019878266915e-06
1.961907011904968234e-06
1.604777640728508543e-06
1.357718602190203229e-06
1.171755223825159633e-06
9.101365093785704285e-07
6.307324573699470954e-07
5.055937846529134087e-07
3.569715813168751486e-07
2.631005758750818492e-07
1.809463301413241555e-07
1.301413524779252183e-07
9.247034957222915045e-08
6.600690230077104186e-08
4.771435972026813869e-08
3.500157177363875031e-08
2.617304544389225480e-08
1.992174367518394040e-08
1.537192385133842454e-08
1.196100346110646870e-08
9.318673330166399153e-09
7.217986035836799511e-09
5.522923098138696742e-09
4.153305107382027474e-09
