# bin_6_4
4.456091700776027876e-08
4.921285974440466527e-08
5.317630675241606902e-08
5.589954122840128961e-08
5.678671839194496858e-08
5.526144186469950609e-08
5.079722561198597343e-08
4.415880007490744571e-08
3.649685703440123391e-08
2.993602919537733116e-08
2.557908788264632333e-08
2.185844184212112350e-08
1.638149797455998698e-08
1.150649591361334464e-08
9.357193603264179949e-09
6.336781475941785003e-09
4.812540331603918956e-09
3.328661088651526502e-09
2.360229459083660794e-09
1.691094945173081757e-09
1.218879568395388292e-09
8.892435848086570640e-10
6.590890458083162741e-10
4.980859961093313289e-10
3.825298205476541523e-10
2.971118526687389015e-10
2.319861941136147355e-10
1.807658501767426815e-10
1.396180542075538647e-10
1.062563305443404236e-10
7.931222235974352242e-11
