# bin_1_9
7.134684716029817989e-07
6.992648622894635943e-07
6.529123465985245198e-07
5.785688009510232483e-07
4.898982680615731839e-07
4.058771110990277148e-07
3.394954020078841159e-07
2.848169103123593802e-07
2.266548547345433589e-07
1.686204868050826346e-07
1.264709318412396216e-07
9.541663629043906422e-08
6.962307938984234414e-08
5.134148477333136483e-08
3.784904285448541159e-08
2.824699491685810776e-08
2.139872535788741484e-08
1.649956523407373587e-08
1.293432862674446882e-08
1.026673674906862756e-08
8.202234113486274724e-09
6.547791695567191947e-09
5.186111870062947461e-09
4.049537512367708892e-09
3.100626005524235807e-09
2.318574974410906909e-09
1.689229283628917929e-09
1.198300923019351771e-09
8.285060609474003454e-10
5.595805191202884404e-10
3.702979776027044920e-10
