# bin_6_6
1.572853454725758636e-08
1.742401433875599314e-08
1.889897667376688359e-08
1.996175242691969720e-08
2.039389139359523875e-08
2.000454743758289235e-08
1.856840258756147720e-08
1.629429557221846923e-08
1.356425005780501424e-08
1.111189657237876742e-08
9.418866586292447943e-09
8.092369827927165324e-09
6.239186834893679895e-09
4.361396718885296910e-09
3.480868747201097303e-09
2.452663077608463846e-09
1.805132750652162221e-09
1.254046516226619836e-09
8.977610435735127771e-10
6.383059797089625211e-10
4.562392098488661557e-10
3.303674787481969327e-10
2.428988841871517443e-10
1.820156175035251356e-10
1.387772818295506000e-10
1.072003274531226541e-10
8.344064268163243927e-11
6.497982509264325980e-11
5.027736614420399680e-11
3.840946765545756418e-11
2.882736449703643102e-11
