# bin_8_4
1.811194805553323111e-13
2.018022223317351702e-13
2.204366141369720864e-13
2.348890522785444540e-13
2.425249075775687066e-13
2.412536938250027428e-13
2.278188077660630791e-13
2.032005238027147876e-13
1.713874012284491925e-13
1.402500990580222183e-13
1.173028445507984187e-13
1.014861661787932677e-13
8.184128006267122946e-14
5.724310924517791214e-14
4.405372269268546178e-14
3.303128926188670650e-14
2.311354878591471230e-14
1.644673644164520980e-14
1.180007225382538577e-14
8.289060739609567990e-15
5.851390181153324679e-15
4.181139375562507573e-15
3.031328256969680578e-15
2.237157014165263278e-15
1.682867130603929420e-15
1.286293476187054429e-15
9.947264596079481014e-16
7.732504125720049721e-16
5.998590171091623437e-16
4.612297005750416925e-16
3.494820159236684510e-16
