# bin_4_7
1.476198913768001674e-07
1.605019606643644198e-07
1.701045619595317829e-07
1.745902094262602457e-07
1.723086023093722957e-07
1.613270758219187976e-07
1.427852618350814033e-07
1.198510537671496796e-07
9.827272145347973771e-08
8.264179232460117670e-08
7.096265272044268857e-08
5.609043788920423450e-08
3.973131637713852963e-08
3.080464563795717070e-08
2.270390867726389037e-08
1.629047115208179466e-08
1.170242318131087520e-08
8.441916868195954712e-09
6.068601600649971234e-09
4.408584647319737041e-09
3.250671807978475534e-09
2.437672025601488254e-09
1.860551103230465261e-09
1.441614182379524368e-09
1.127533661917228162e-09
8.845438230973525597e-10
6.911754215013432070e-10
5.343775753998752605e-10
4.064791550520880656e-10
3.028108998666036733e-10
2.201951224185397815e-10
