# bin_9_14
7.087787831615250840e-08
8.016243176352896035e-08
8.917234250844574998e-08
9.718088799925163896e-08
1.032235848774489986e-07
1.061364931665811058e-07
1.049978387313692678e-07
9.842999451171407706e-08
8.718747056161605969e-08
7.308415207045233925e-08
5.980866849982429852e-08
5.035158819662414117e-08
4.351820213294751656e-08
3.438899544678827983e-08
2.389106770606804351e-08
1.876324773320784253e-08
1.356780475499918772e-08
9.684172128937884217e-09
6.684702834426661057e-09
4.735646828989143541e-09
3.275008994519133042e-09
2.260392391087279269e-09
1.571045694855183651e-09
1.102047352688180568e-09
7.853457038836690758e-10
5.705297910676021970e-10
4.226098665209527811e-10
3.188859110651415541e-10
2.439723033667240397e-10
1.880398395478856072e-10
1.449201077097949134e-10
