# bin_2_5
3.148358986511968403e-07
3.256579960874352429e-07
3.246871761185187599e-07
3.086824754975008974e-07
2.778270634120386284e-07
2.372460939042581480e-07
1.958595770102760539e-07
1.629356514914119631e-07
1.387588835300521528e-07
1.133255319069558277e-07
8.371201528084811061e-08
6.223211898204779103e-08
4.769678980872712211e-08
3.427916063276297004e-08
2.524121590867703049e-08
1.833977175112433696e-08
1.347461411171615407e-08
1.001433198835603278e-08
7.564414480158323239e-09
5.815852134121741842e-09
4.542367370402744696e-09
3.589179211544561481e-09
2.849960943257158078e-09
2.257931790320127365e-09
1.772700579493175673e-09
1.370537152342574901e-09
1.038059532423918788e-09
7.673282934307994288e-10
5.523380051574639442e-10
3.870703925266138944e-10
2.644528678180461953e-10
