# bin_2_4
2.490709615223092993e-07
2.572103203519170510e-07
2.559193760134313925e-07
2.426620642253859910e-07
2.177974854608123803e-07
1.855206739484386091e-07
1.530192305416072288e-07
1.274587401599600676e-07
1.085905434655407752e-07
8.830415736936873596e-08
6.494995437260418304e-08
4.847047993922807014e-08
3.706740782122375180e-08
2.661795547662594837e-08
1.961273274992798401e-08
1.425869976219665066e-08
1.048453394107754064e-08
7.803435569192085256e-09
5.904157398167029809e-09
4.546864094154233358e-09
3.556415008912717314e-09
2.813082345533693593e-09
2.234891116412883657e-09
1.770627722840053178e-09
1.389400509270221949e-09
1.073140472690428417e-09
8.116948677428884934e-10
5.990062837683884284e-10
4.303933611911142073e-10
3.010644724341391159e-10
2.053435957495621451e-10
