# bin_6_13
1.448092312499502649e-07
1.610709841098456364e-07
1.755796024239183115e-07
1.866130943188371526e-07
1.921026965631014339e-07
1.903242308255393453e-07
1.788817469101815349e-07
1.588658757391822119e-07
1.335753516725234403e-07
1.093894095336226329e-07
9.182570767183577628e-08
7.922459130135160661e-08
6.310615492995761726e-08
4.426733149009401592e-08
3.432712221376949614e-08
2.531972252220744724e-08
1.796736054773319389e-08
1.273367470618387382e-08
9.101917866021574094e-09
6.415138011279103154e-09
4.546800143070880994e-09
3.260295809751614360e-09
2.372128552011745963e-09
1.757406665604579657e-09
1.326452425136523113e-09
1.016490528674572269e-09
7.872213611151672198e-10
6.120539682586652570e-10
4.743324650009486467e-10
3.639863255992931483e-10
2.750400985935806775e-10
