# bin_1_4
5.139754139163082094e-07
5.019348189394649966e-07
4.667025863224081366e-07
4.118722835497956573e-07
3.477282581218347159e-07
2.880126045897601551e-07
2.412332250909933573e-07
2.020055826950420251e-07
1.597428917614361963e-07
1.185376814258169555e-07
8.916306944450617628e-08
6.708369723129775801e-08
4.894755831773136994e-08
3.612151630369612136e-08
2.665921117053344945e-08
1.993036340465098230e-08
1.513190202713792445e-08
1.169425542379792241e-08
9.185936312556538711e-09
7.302354228956872040e-09
5.838480644114768021e-09
4.660810896887816113e-09
3.688827575241585565e-09
2.876385739011832129e-09
2.198125962395260626e-09
1.639910611766850348e-09
1.191787854037989501e-09
8.433082279055287799e-10
5.817002590524815525e-10
3.920740289379274256e-10
2.589995082260759426e-10
