# bin_6_2
1.437080957463851848e-14
1.570217648008162001e-14
1.674352540828241096e-14
1.730972690865478184e-14
1.724737597024019845e-14
1.633170132743739133e-14
1.460823615518500051e-14
1.235977138486753903e-14
1.012234683488088819e-14
8.442898691942923614e-15
7.291182203842082234e-15
5.922574816455056539e-15
4.185053735244948167e-15
3.184971085910394753e-15
2.426294564860880627e-15
1.695777388828982916e-15
1.232610015615240038e-15
8.890543760408381867e-16
6.347174968357592428e-16
4.579947273868107959e-16
3.352172170345086711e-16
2.495304638054946383e-16
1.890887230101387117e-16
1.456988475502331995e-16
1.135595576224325399e-16
8.898899822849042833e-17
6.962799795975099523e-17
5.401875810272746384e-17
4.130646436381414493e-17
3.097833664552178994e-17
2.269914954126682325e-17
