# bin_12_13
1.517836845812861568e-08
1.730156988307607183e-08
1.943781724932914054e-08
2.144136291883963544e-08
2.311939717787092774e-08
2.422551810871313834e-08
2.451275443046141607e-08
2.370070285768284726e-08
2.162955820861643330e-08
1.866428266159767686e-08
1.537174035459755195e-08
1.265892058886529917e-08
1.088275009211214993e-08
9.203849638594784195e-09
6.734419822500680749e-09
4.805936458114435590e-09
3.869310517655833000e-09
2.562708665081317109e-09
1.920738937443343504e-09
1.311336225620202837e-09
8.929948960325930544e-10
6.111906674212315830e-10
4.158121072763856946e-10
2.834197678109936864e-10
1.943554115105163403e-10
1.353049948387646450e-10
9.586582622171040399e-11
6.935451392724846324e-11
5.127362165781950264e-11
3.863174120355009462e-11
2.950035307820394775e-11
