# bin_3_2
5.009452547728167360e-09
5.253888951139229966e-09
5.327404432614677915e-09
5.174389302337812320e-09
4.756942082594991392e-09
4.137201257533724992e-09
3.431640198115875725e-09
2.822608225225139009e-09
2.400220463741714890e-09
2.032944898109991276e-09
1.542065305602604285e-09
1.105738507377048669e-09
8.730367109342418154e-10
6.225058226816278791e-10
4.611122710991875862e-10
3.312984850561637091e-10
2.423178439178285687e-10
1.783736425066421241e-10
1.331752327471164437e-10
1.012169668445869939e-10
7.824988835800934083e-11
6.139170981888240629e-11
4.858997172120394477e-11
3.852418207096370548e-11
3.038248867720699438e-11
2.367484263028952318e-11
1.812065596217061545e-11
1.355931075755606461e-11
9.886542673307387656e-12
7.014270592666447821e-12
4.845188050460296892e-12
