# bin_11_6
3.995081604263168508e-14
4.515684134883925991e-14
5.019387313351590918e-14
5.465007413751290639e-14
5.797906123728563183e-14
5.952256481903277816e-14
5.877305562580734209e-14
5.495281734560715657e-14
4.855559402187002147e-14
4.059816283313147140e-14
3.321024823268268790e-14
2.802134149407095772e-14
2.422589515935193376e-14
1.900835946238696806e-14
1.315105168284469028e-14
1.043428397659859871e-14
7.445806491306342647e-15
5.378046212030429151e-15
3.670216611951240870e-15
2.606550759094745808e-15
1.806589638084024989e-15
1.249398771508823067e-15
8.705771691192251191e-16
6.122747812427369719e-16
4.377954720357665602e-16
3.191735252136782347e-16
2.372511823595712156e-16
1.795779977600012001e-16
1.377136247811388115e-16
1.062884575509555375e-16
8.194410272258257193e-17
