# bin_1_11
7.469139192536489770e-07
7.323476857470681667e-07
6.841308423422013199e-07
6.065158716462980086e-07
5.137334256512384939e-07
4.256374005611417881e-07
3.559693126347818130e-07
2.987004429463101419e-07
2.378728194082055396e-07
1.770170079175304953e-07
1.327257035024892478e-07
1.001667335693721826e-07
7.308938969531156711e-08
5.389315715107484961e-08
3.972505021061608841e-08
2.964130197531926401e-08
2.244937586329308320e-08
1.730518855191165228e-08
1.356275656449758405e-08
1.076372315908018978e-08
8.598523377191010818e-09
6.864148742074078346e-09
5.437135299560885644e-09
4.246219324688058235e-09
3.251932403688528527e-09
2.432354787703535501e-09
1.772626639210629227e-09
1.257816402419880274e-09
8.698837378381902613e-10
5.876634614643341832e-10
3.889574941116594900e-10
