# bin_14_3
1.770374279533088630e-29
2.011770035446521405e-29
2.251104504719142843e-29
2.471017859351165604e-29
2.648288863161342221e-29
2.753668033084816537e-29
2.761999359488620606e-29
2.636598531074753361e-29
2.375520734849036746e-29
2.023060378377539066e-29
1.658265231398846273e-29
1.376457053186584899e-29
1.190710886614257061e-29
9.837216392196957139e-30
6.967609358935859695e-30
5.183424480353748066e-30
4.031949688725856617e-30
2.711672704585051352e-30
1.972832488636031657e-30
1.380219205216722371e-30
9.430038911371880048e-31
6.446120828627843601e-31
4.412753805496683962e-31
3.042763784550138786e-31
2.120749535876065221e-31
1.504368721281705906e-31
1.087904196096338500e-31
8.034047396879823728e-32
6.047619029347735732e-32
4.618272719399335493e-32
3.553283876057493596e-32
