# bin_13_7
3.888967962593329084e-15
4.420641739269815028e-15
4.948567634225355449e-15
5.434700955467216640e-15
5.828186314737116462e-15
6.064889301815947505e-15
6.088793598736835908e-15
5.819798523142290049e-15
5.249918920377172659e-15
4.476545414646526195e-15
3.670455878522891916e-15
3.043882587033983180e-15
2.632257356684162796e-15
2.180562414491734193e-15
1.548417876140596443e-15
1.146926955769385939e-15
8.962667010735612694e-16
6.007878380675423703e-16
4.390243471850188735e-16
3.064320824477597094e-16
2.092171632361058260e-16
1.430043498436342714e-16
9.779968280355213765e-17
6.735510704703279425e-17
4.687000956315630749e-17
3.318803369962585037e-17
2.395498648875614103e-17
1.765839543034373907e-17
1.327248863618922198e-17
1.012539415050262742e-17
7.787160823379856769e-18
