# bin_15_4
1.712609779428951692e-27
1.950905248793218938e-27
2.189939995952898612e-27
2.413197911005571292e-27
2.598765567567515636e-27
2.718749841795969226e-27
2.746042747642613650e-27
2.647900186552306030e-27
2.409565989084342908e-27
2.073142426583109676e-27
1.705065003255813311e-27
1.406088787220245462e-27
1.211065066550971534e-27
1.019930025258605868e-27
7.401958062231030104e-28
5.324152760367946218e-28
4.269081367761403299e-28
2.823557998622673415e-28
2.111326938325956253e-28
1.448888774957347104e-28
9.860750458271966559e-29
6.746750329810060285e-29
4.592645914613803584e-29
3.137611708937396138e-29
2.159064142450098097e-29
1.509321492105104892e-29
1.074357773012869244e-29
7.810301506727119988e-30
5.800036972687502926e-30
4.385761737650090497e-30
3.356949991687692274e-30
