# bin_10_1
2.215522528726992945e-29
2.481158439095818894e-29
2.727258360469937136e-29
2.928733203286036952e-29
3.053848489039185977e-29
3.073447539832482378e-29
2.949310364782501120e-29
2.671634214328476790e-29
2.288157567444829580e-29
1.879134936726785699e-29
1.553685849072254322e-29
1.339768150010073960e-29
1.118800339857691670e-29
8.053039505267550426e-30
5.882589484103997996e-30
4.662001944559961959e-30
3.132225500998965678e-30
2.330374590197301949e-30
1.633008830638068939e-30
1.136401153317023109e-30
7.981583767030470401e-31
5.636940917387865259e-31
4.030895287978003535e-31
2.927281734998622113e-31
2.168526991715615307e-31
1.635785347674705844e-31
1.252734701252202916e-31
9.688933190737098116e-32
7.514366708221383489e-32
5.802024587357091501e-32
4.430883598108410800e-32
