# bin_15_14
2.515737459577646436e-11
2.885960456930197579e-11
3.267947263027812861e-11
3.639297720334758327e-11
3.970379266950971341e-11
4.221686189998242099e-11
4.344737209263636800e-11
4.303392214146526968e-11
4.037984153406773341e-11
3.579425143603314917e-11
3.000169628930432200e-11
2.453682300466978490e-11
2.065411701837754874e-11
1.788445249827395075e-11
1.414937910156362614e-11
9.767438508679889070e-12
7.697110457399249288e-12
5.546262738377595213e-12
3.946272526494578193e-12
2.671618844276700206e-12
1.882710788237959624e-12
1.275480628677758994e-12
8.539354764207766157e-13
5.710957178303779276e-13
3.810032176938208996e-13
2.554694864564712958e-13
1.730883808148939830e-13
1.190371870065646591e-13
8.356639377519219568e-14
6.005565970314896292e-14
4.418610623159127872e-14
