# bin_9_4
2.627163602246384196e-16
2.942008516310869913e-16
3.233610749013673369e-16
3.472189837134260767e-16
3.620075092799018261e-16
3.642884631255847231e-16
3.494832839501854468e-16
3.165192874330401985e-16
2.710352635976619634e-16
2.226160301560066427e-16
1.841562459270720025e-16
1.588631666509208340e-16
1.325701768879179132e-16
9.531235477540194204e-17
6.974755786718183651e-17
5.522683840864899812e-17
3.711506511040434463e-17
2.759973126677933659e-17
1.936322022052428630e-17
1.347611036853043117e-17
9.466077342042251989e-18
6.687473521703010147e-18
4.784489954634771497e-18
3.476672906608910086e-18
2.577053873368864764e-18
1.945000592146227388e-18
1.490203724250866952e-18
1.152897662499453624e-18
8.942619088532476245e-19
6.904616360932917292e-19
5.272021275203351897e-19
