# bin_10_6
6.825369249651531787e-14
7.698450168038493987e-14
8.535304886568856493e-14
9.263850887025949940e-14
9.789628699942007759e-14
1.000362435718341978e-13
9.814276520858431451e-14
9.105427204887763394e-14
7.987159945332439764e-14
6.641869769299279500e-14
5.440203637543197455e-14
4.620768746930273621e-14
3.978256186372886166e-14
3.052553389061285473e-14
2.119280806656978674e-14
1.707306528577913230e-14
1.179491553510320390e-14
8.743693831727682683e-15
5.933390188951452323e-15
4.176137046567446693e-15
2.912936321399578312e-15
2.030115752850534601e-15
1.424001833473506946e-15
1.009352659572316533e-15
7.286014341095061847e-16
5.362992654760517130e-16
4.022240734183419828e-16
3.066316312176675665e-16
2.362204095708363920e-16
1.826076795126688713e-16
1.406033493607752063e-16
