# bin_7_6
3.779817068601155703e-11
4.222301274622926468e-11
4.626733893980479461e-11
4.949399284852983313e-11
5.135522193905728632e-11
5.139123192624156177e-11
4.891821675320755164e-11
4.396864313758799794e-11
3.736261819487378076e-11
3.062272731129756250e-11
2.546853315104505721e-11
2.202172023960389848e-11
1.808440311570153849e-11
1.279566617255401113e-11
9.607619934622055456e-12
7.418481493495367680e-12
5.071354273082488548e-12
3.691831384383000916e-12
2.625107988656577785e-12
1.834548936377592130e-12
1.290684317726066702e-12
9.167554163711497316e-13
6.603428737139952012e-13
4.837075017895183534e-13
3.613271712944207086e-13
2.745586416212044151e-13
2.114402431058771683e-13
1.640429967917126604e-13
1.272939889207986310e-13
9.810166656188698949e-14
7.462712446050551157e-14
