# bin_6_4
7.333394075623480163e-12
8.094466576807562893e-12
8.740410945666426677e-12
9.180129935427820826e-12
9.317743587684000722e-12
9.055008123453574873e-12
8.315157750880334839e-12
7.221199616131550834e-12
5.970712977411753534e-12
4.905263325320480731e-12
4.192770298660232654e-12
3.569778864168148556e-12
2.670433703270906076e-12
1.889984225507102111e-12
1.523812253584140710e-12
1.041067803468741982e-12
7.833589221122815751e-13
5.449815955264649554e-13
3.874621032258392431e-13
2.772998400634652794e-13
1.997880557281880130e-13
1.458813314718669064e-13
1.082422594029095887e-13
8.186525128015871148e-14
6.290686014535757168e-14
4.887181278120319228e-14
3.815523468512768867e-14
2.971878670507855958e-14
2.293887922492177681e-14
1.744313715105007582e-14
1.300732857362371397e-14
