# bin_13_7
3.897666514065366201e-15
4.430406837973974768e-15
4.959308231538713468e-15
5.446245645874721012e-15
5.840235122630076169e-15
6.076973757951807001e-15
6.100471747375003005e-15
5.830169582785786466e-15
5.258799848484327825e-15
4.483513017809014966e-15
3.676076428849153132e-15
3.048835654010259265e-15
2.636595751930761386e-15
2.183673172798756281e-15
1.550192513736562141e-15
1.148719707489019954e-15
8.973000710400833178e-16
6.016402827019308383e-16
4.394786578789035393e-16
3.068163657459121500e-16
2.094925971144899410e-16
1.431915114866314648e-16
9.793508570651826517e-17
6.745497260829473494e-17
4.694639030691776780e-17
3.324703046973847610e-17
2.400149713648986597e-17
1.769548603682516435e-17
1.330209665085485588e-17
1.014888415459887874e-17
7.805530506918506128e-18
