# bin_15_15
5.196969210486632930e-09
5.955491244348879550e-09
6.735413108237365390e-09
7.489497806478081468e-09
8.155774487137557824e-09
8.652105251655544044e-09
8.879513852331486792e-09
8.762534993575133785e-09
8.184380555036804069e-09
7.224063988980690727e-09
6.033220424396538353e-09
4.935365416795243768e-09
4.170309779370274945e-09
3.605876580711800112e-09
2.816154731294127602e-09
1.942948828387360271e-09
1.548725431500540784e-09
1.092552483771728527e-09
7.913214128114847327e-10
5.308802973750693226e-10
3.720674539149456493e-10
2.527790606596735193e-10
1.699237996334970173e-10
1.139678246660716585e-10
7.631463751404737283e-11
5.146693622395787103e-11
3.512337613203813764e-11
2.436729510307745901e-11
1.727256364535764647e-11
1.253365363894236923e-11
9.300792449049091055e-12
