# bin_11_3
9.245151030625531784e-23
1.041311869241152294e-22
1.152564706719435793e-22
1.248363291210909203e-22
1.315830637377588925e-22
1.340611406650039900e-22
1.309706418796186057e-22
1.209179397421321867e-22
1.055585189659962331e-22
8.748809361626691374e-23
7.171441794767624875e-23
6.111883657199100514e-23
5.242034290544890578e-23
3.969441406160735730e-23
2.769247141467016814e-23
2.240722367634959626e-23
1.525074236566695836e-23
1.141660371643558666e-23
7.765313384298310138e-24
5.435278819840683943e-24
3.801232343049409374e-24
2.657998594830099815e-24
1.871072206264188657e-24
1.332212535465915965e-24
9.666558828957119439e-25
7.151733329969029150e-25
5.388572443525467974e-25
4.122222436683792713e-25
3.181912796457219644e-25
2.460584447016589552e-25
1.892354420721117328e-25
