# bin_1_10
7.330114820773925002e-07
7.185630730264418014e-07
6.710854917390134936e-07
5.948074227541881134e-07
5.037259488090935378e-07
4.173371789891788241e-07
3.490565884523651332e-07
2.928715879502778868e-07
2.331454892100300659e-07
1.734691120401632177e-07
1.300883213088541725e-07
9.816130650056625616e-08
7.162560144802092914e-08
5.281671853252070537e-08
3.893444010610182626e-08
2.905471215973160239e-08
2.200832321873747529e-08
1.696777162685673481e-08
1.330013129594394350e-08
1.055641507644305785e-08
8.433418002407801378e-09
6.732418842571328988e-09
5.332602160884717720e-09
4.164258468010442297e-09
3.188802456737392237e-09
2.384803186348809700e-09
1.737704581470391954e-09
1.232843210736928264e-09
8.524864737540678186e-10
5.758344373542393340e-10
3.810853736797254938e-10
