# bin_4_1
8.607055154747052724e-13
9.112045308037259473e-13
9.342287092030935629e-13
9.210875815344726666e-13
8.612459005265394830e-13
7.613456535481889104e-13
6.381477592290841900e-13
5.228416472958032598e-13
4.398509722572306942e-13
3.779245402309556879e-13
2.982548466528075314e-13
2.109164748943218290e-13
1.645575301630545810e-13
1.212441879660746136e-13
8.777700669492322435e-14
6.336388903485075898e-14
4.628429320099799382e-14
3.377476764981935953e-14
2.497694611877429201e-14
1.879254477005654457e-14
1.439087060838916356e-14
1.120121058812401967e-14
8.821064301174293432e-15
6.980866575520625320e-15
5.513112360116417462e-15
4.314955307153456428e-15
3.325912509745948512e-15
2.511489992293734285e-15
1.850582211901079627e-15
1.327363141499510752e-15
9.265059045891465376e-16
