# bin_11_15
4.586770032850885882e-08
5.219393235825538641e-08
5.850790955993132597e-08
6.436416695980461079e-08
6.916943995708119474e-08
7.217189686961769041e-08
7.267860353666207694e-08
6.977988445570078374e-08
6.323613758576002830e-08
5.417577850198199628e-08
4.449911460904625937e-08
3.679985949991759149e-08
3.174824020761478775e-08
2.651937903282704557e-08
1.906168657132716537e-08
1.390545169754207698e-08
1.100209826121066360e-08
7.335550361325363286e-09
5.419032004658529699e-09
3.747772468262473846e-09
2.555587978968430874e-09
1.747962355408279265e-09
1.192825109210756618e-09
8.180606697611170141e-10
5.659395857113259275e-10
3.980495867218089612e-10
2.852291545641780421e-10
2.087359108972813766e-10
1.559013234708888428e-10
1.183751575608415595e-10
9.079693564165920765e-11
