# bin_8_1
8.750868401774942990e-24
9.686159879496709811e-24
1.049536766550178868e-23
1.107136008056202700e-23
1.129348474946938481e-23
1.105426051715626458e-23
1.023299252161576187e-23
8.956576921713115783e-24
7.439644890620950854e-24
6.095286257229168143e-24
5.178420964178896664e-24
4.445092552665125599e-24
3.400403732877818039e-24
2.376408489228884674e-24
1.909921374411603933e-24
1.329406838632056961e-24
9.885408206791231008e-25
6.841016155764800101e-25
4.889424296059656017e-25
3.484626817833218090e-25
2.496878655909529267e-25
1.812080832128397239e-25
1.335441970505434683e-25
1.003242014572896613e-25
7.666123812210500343e-26
5.932033506667014839e-26
4.622210340240461530e-26
3.600759573576634129e-26
2.785032877527727336e-26
2.125561107820946069e-26
1.592941050339953246e-26
