# bin_9_7
3.901792364661125419e-10
4.390722045250842958e-10
4.854512084613809124e-10
5.250936650916122001e-10
5.525411721013000181e-10
5.618722550532812465e-10
5.473909565478375503e-10
5.038112542568732909e-10
4.384736045548040200e-10
3.627678619647911072e-10
2.976604633696372875e-10
2.542463288963474141e-10
2.173477157183319257e-10
1.631775697322729444e-10
1.144387375007320735e-10
9.263343638350740222e-11
6.261875666758143042e-11
4.703993160639871297e-11
3.210755899041121166e-11
2.241409750988013297e-11
1.569535225177053027e-11
1.099460286656879769e-11
7.758610116026782548e-12
5.541505059209750435e-12
4.034890030431248515e-12
2.995203200844692194e-12
2.263415651675066161e-12
1.735176141774831718e-12
1.340844253723937229e-12
1.036906763484286587e-12
7.966942962409443182e-13
