# bin_3_15
3.716595781926388357e-07
3.971474101858026667e-07
4.119519793135554622e-07
4.120683381049416279e-07
3.929020468975955084e-07
3.542967683622329168e-07
3.025983947379938342e-07
2.491918919405028747e-07
2.069735805099961514e-07
1.772234243106304085e-07
1.456403994922860370e-07
1.064022097576576894e-07
7.893199974133311329e-08
6.094778899516622099e-08
4.308130006088148250e-08
3.174493380876376628e-08
2.281214321938822223e-08
1.654137042354239202e-08
1.211580643689200908e-08
9.000590125404957307e-09
6.802503684051735663e-09
5.228761828835312874e-09
4.078287831331390662e-09
3.208716033817222587e-09
2.529528410868526616e-09
1.984346280703593678e-09
1.538768244258379632e-09
1.172860956997960508e-09
8.746970986256750789e-10
6.362076939557186884e-10
4.506472284745038011e-10
