# bin_5_12
1.800361945432045590e-07
1.984240500634632553e-07
2.138690335955879956e-07
2.241237501031377182e-07
2.269111136753581615e-07
2.197491691256936498e-07
2.011716973734297039e-07
1.741704408815692187e-07
1.439341071597527578e-07
1.185086430682700032e-07
1.013192374568395389e-07
8.564940064902845752e-08
6.379811765106507300e-08
4.567543771176362593e-08
3.632525547648945217e-08
2.510854569228126253e-08
1.865518940080967891e-08
1.308532359982187985e-08
9.321841569118108321e-09
6.668309095537600297e-09
4.808463969131321662e-09
3.517178871867203254e-09
2.615163491358642016e-09
1.981134523694281297e-09
1.524085786896713148e-09
1.184645387922183903e-09
9.246590912262250194e-10
7.195697835022471241e-10
5.546167370936924895e-10
4.209690307157334995e-10
3.132497652499757558e-10
