# bin_7_4
8.718501475460164555e-12
9.662611565728807690e-12
1.048623866009940594e-11
1.108335376204655051e-11
1.133157021010157939e-11
1.112708024889760010e-11
1.033914014176309661e-11
9.082294233924902056e-12
7.563299440314029238e-12
6.192309450938614505e-12
5.245684523645196606e-12
4.514600917220854951e-12
3.489400730781660549e-12
2.431386612817253922e-12
1.944372448538255459e-12
1.369965455267837396e-12
1.009382471243998315e-12
6.990422787756495671e-13
5.009775545529024106e-13
3.561746084727281305e-13
2.544927539885072741e-13
1.841826525495957636e-13
1.353261483427179336e-13
1.013440513699783235e-13
7.723311033204931189e-14
5.964374335393213883e-14
4.642351924586712773e-14
3.616050153531957022e-14
2.799059511212310966e-14
2.139579482043821740e-14
1.606929052720978749e-14
