# bin_12_4
2.435542592811753833e-21
2.754660561004541363e-21
3.064290767138616079e-21
3.339497988167880125e-21
3.547103527069036143e-21
3.646780995477525819e-21
3.607657633223065137e-21
3.381101041368590514e-21
2.994167957400244601e-21
2.508125887726589132e-21
2.051515462844223688e-21
1.727647107132049880e-21
1.494758536324779105e-21
1.180501662129934118e-21
8.170906289837615260e-22
6.444683739249351228e-22
4.646685960555047543e-22
3.326939940274799439e-22
2.280541901477838336e-22
1.621986463775631671e-22
1.122070818724639714e-22
7.742531244700682410e-23
5.384232454853872845e-23
3.778330872536827171e-23
2.694049608911330106e-23
1.958402497018878767e-23
1.451710901913342734e-23
1.096280820992393638e-23
8.393926887139138060e-24
6.474087152297591071e-24
4.992290955742927737e-24
