# bin_5_8
1.108474102185397198e-07
1.220703101923626581e-07
1.314408878226128344e-07
1.375704160566018722e-07
1.390769140195956847e-07
1.344082147717703148e-07
1.227658886139106267e-07
1.060496914772663430e-07
8.753146571209432286e-08
7.213081610031598476e-08
6.175435559212416770e-08
5.206003235196354532e-08
3.855270823477829019e-08
2.771149384586614359e-08
2.202498398070053815e-08
1.517629961013954943e-08
1.129341682044789263e-08
7.931369313262598972e-09
5.647271725818971892e-09
4.044090588957897787e-09
2.920556466902723821e-09
2.139946326902025206e-09
1.594128245863893880e-09
1.209819879198296497e-09
9.320741094922614183e-10
7.252124390876119605e-10
5.663074152353022214e-10
4.406483639006681557e-10
3.394222743330312479e-10
2.573590361402448697e-10
1.912352170309386505e-10
