# bin_1_8
6.913849905240339100e-07
6.773894196083047740e-07
6.322340355883461899e-07
5.600288389273212279e-07
4.740656656842736148e-07
3.927480134210029678e-07
3.285565323191279660e-07
2.755949465573039941e-07
2.191867072974040527e-07
1.630218298212765586e-07
1.223055976992495777e-07
9.225087281375153605e-08
6.731263136053001854e-08
4.964169596019199701e-08
3.660010154998001394e-08
2.731969501072445736e-08
2.070087839222692637e-08
1.596519384152102891e-08
1.251803226355998950e-08
9.937874042887057141e-09
7.940189139326101284e-09
6.338669169320501542e-09
5.020168309867905216e-09
3.919462821438042098e-09
3.000486313916672643e-09
2.243197026067865512e-09
1.633915220857445585e-09
1.158778291371854269e-09
8.009955361333210757e-10
5.408889870209304574e-10
3.578668958812123071e-10
