# bin_13_9
7.395018461976759440e-12
8.420091708707500585e-12
9.446076426699676456e-12
1.040146992114518533e-11
1.119118474973246634e-11
1.169444956251149315e-11
1.179674197372259363e-11
1.135324386593963954e-11
1.031148388240923670e-11
8.854018386441682737e-12
7.276354584887447790e-12
6.007244801194570481e-12
5.179468647645359674e-12
4.347684307855457171e-12
3.138988426243849861e-12
2.271744109606059475e-12
1.813168524324494741e-12
1.201012146774757944e-12
8.946991272944784704e-13
6.162218580662792398e-13
4.195425641202275167e-13
2.869645756553144902e-13
1.954816905801669094e-13
1.337730589584107788e-13
9.227622674928338455e-14
6.468873354456596247e-14
4.619004809432344920e-14
3.368594705945994619e-14
2.508673208276230229e-14
1.901086323459559761e-14
1.456988839474720802e-14
