# bin_6_2
1.439378428658118824e-14
1.572664008156824786e-14
1.676878130095020117e-14
1.733479787348463485e-14
1.727109479888932516e-14
1.635230620108136654e-14
1.462554944430300873e-14
1.237312903811973281e-14
1.013315195825362035e-14
8.452615329746989164e-15
7.299568147915984050e-15
5.928128406204076109e-15
4.188301121475863729e-15
3.188433541935122912e-15
2.428104242479949697e-15
1.697477481662656871e-15
1.233560025932026604e-15
8.898266472677513795e-16
6.353056370805350068e-16
4.584356228163358951e-16
3.355589436043109656e-16
2.498000512135445949e-16
1.893055724321147197e-16
1.458726293097350097e-16
1.136986749385735910e-16
8.909906689784297486e-17
6.971334096687703736e-17
5.408329598223165519e-17
4.135380972503825512e-17
3.101188460045824354e-17
2.272203273005265238e-17
