# bin_13_12
2.488797433667545392e-09
2.840097447942963281e-09
3.195342169734740754e-09
3.530822854038841785e-09
3.815315134191112025e-09
4.008647268586431305e-09
4.068524562253519962e-09
3.951379786965700252e-09
3.623145747662206575e-09
3.141344251208772617e-09
2.592877843731883379e-09
2.130461895985718015e-09
1.826113855940109091e-09
1.555150796685853931e-09
1.152566111497261969e-09
8.123175640005502902e-10
6.584155722554491825e-10
4.369121954184971939e-10
3.287551428822711105e-10
2.226351934480909017e-10
1.517693337550566727e-10
1.039137851724815562e-10
7.061449445641026573e-11
4.795057936425211502e-11
3.269911305502322647e-11
2.261019306006995779e-11
1.589699337232187840e-11
1.140775578880955600e-11
8.370190528147331961e-12
6.267954077158973402e-12
4.767383036022419918e-12
