# bin_13_2
9.163910638353935711e-32
1.038326844852609178e-31
1.157597715136015012e-31
1.264993365267896723e-31
1.348186867189869861e-31
1.391902631963001597e-31
1.384335177740467334e-31
1.306320439223135728e-31
1.164270365265468025e-31
9.809314479244015799e-32
8.025421282882652479e-32
6.720877754680223282e-32
5.821078072985026618e-32
4.681592603543412210e-32
3.256257610962937330e-32
2.517246120726104608e-32
1.870340716882256355e-32
1.304817502605998163e-32
9.116526444208489652e-33
6.478435403714919561e-33
4.458401612128006050e-33
3.059463506211612336e-33
2.114820051398607755e-33
1.474393914519164511e-33
1.042516071670378423e-33
7.512016150403965941e-34
5.520575406784256471e-34
4.137923939998157110e-34
3.151360109364537608e-34
2.423959512072861160e-34
1.869156144785742739e-34
