# bin_4_7
1.478590616036721861e-07
1.607554824349274507e-07
1.703648026141508472e-07
1.748478769122487984e-07
1.725488062727100691e-07
1.615353760966101272e-07
1.429578553076488305e-07
1.199858678422633251e-07
9.838348053037489024e-08
8.274088535675951009e-08
7.104570685722237505e-08
5.614365541787372762e-08
3.976679075018781961e-08
3.083832595139499223e-08
2.272250953550344739e-08
1.630701113790901607e-08
1.171292838801459206e-08
8.449852520870298427e-09
6.074619287478412901e-09
4.413170275009445221e-09
3.254242534838213755e-09
2.440509952144573961e-09
1.862834731609427581e-09
1.443448126941737042e-09
1.129001526351941304e-09
8.857030273553444591e-10
6.920720082084213289e-10
5.350535010684554527e-10
4.069733383760428132e-10
3.031599118707760522e-10
2.204327122843691818e-10
