# bin_13_2
3.495528703670715860e-08
3.076738272168556022e-08
2.633979761462499787e-08
2.199213823833365430e-08
1.800264565553485028e-08
1.452970814639364028e-08
1.158617788601467784e-08
9.085542199737203806e-09
6.962853466567907026e-09
5.244801478977935532e-09
3.952886093698108769e-09
2.989795617619949175e-09
2.257522381900392171e-09
1.720992545436582343e-09
1.323754344778341366e-09
1.028390967557875988e-09
8.052559702643363245e-10
6.335361063052780667e-10
4.986550620648026922e-10
3.908572569513606374e-10
3.037412560758043604e-10
2.330898661781019960e-10
1.760496812726605651e-10
1.305334854843375674e-10
9.484213516648505574e-11
6.746084824333495573e-11
4.697075510125653913e-11
3.203637573046438826e-11
2.143573053784299267e-11
1.409897949696456127e-11
9.136713804479811403e-12
