# bin_13_11
8.709416270331525665e-08
8.349175985764035746e-08
7.814282574932657262e-08
7.125988458328588642e-08
6.323015898653793212e-08
5.458615362976221574e-08
4.593121899941090494e-08
3.782321938304220955e-08
3.063356854394892450e-08
2.447710386077214706e-08
1.926029709382827524e-08
1.484137057623937689e-08
1.118949470320352560e-08
8.348179666411331084e-09
6.235010413403375824e-09
4.639770771040615454e-09
3.449488457393245364e-09
2.583389966348522628e-09
1.945180878667197265e-09
1.475737669346309638e-09
1.126339633501979000e-09
8.627909549580151968e-10
6.611932647983401241e-10
5.051094053942350685e-10
3.832922429295140896e-10
2.879621408318221567e-10
2.136124168212790392e-10
1.561258630912547246e-10
1.122559291898554289e-10
7.932753387583787374e-11
5.507633932891678863e-11
