# bin_5_4
4.416352574559851022e-08
3.991297087297584439e-08
3.510563995572188990e-08
3.005928207992095524e-08
2.511566261988429003e-08
2.056937379670240855e-08
1.659250529697343668e-08
1.321301973337033394e-08
1.035787434779340604e-08
7.954359567773903705e-09
6.000451930719258782e-09
4.509225551179356044e-09
3.402170458045027723e-09
2.562985307486611762e-09
1.942226919422387381e-09
1.485136799876719602e-09
1.145082166620944749e-09
8.895179305921916566e-10
6.943056256554297988e-10
5.424525624345155368e-10
4.224383036725881558e-10
3.265570079890102200e-10
2.496319384947310011e-10
1.880980302127560384e-10
1.393509404006768686e-10
1.013156457897385199e-10
7.221034733809332685e-11
5.043295282602699795e-11
3.452767489552845027e-11
2.319544204959958192e-11
1.531461424789080853e-11
