# bin_10_7
6.984833776346922557e-08
6.565331977630436417e-08
6.015271136980080054e-08
5.363762891805542322e-08
4.652737648503685815e-08
3.931574939686166583e-08
3.248297846069059243e-08
2.637579388033769802e-08
2.113009706616784059e-08
1.669031810189779027e-08
1.292735330485894231e-08
9.792007318145462342e-09
7.325687828680120642e-09
5.490677700472135666e-09
4.109987671375025592e-09
3.071142943982769258e-09
2.315341234350239506e-09
1.755762381776605903e-09
1.342684976021991670e-09
1.033319645016378047e-09
7.982151803561573925e-10
6.167489261165463135e-10
4.748066003731720789e-10
3.628277739002411878e-10
2.742497772745067398e-10
2.044582397460396572e-10
1.500016672170194012e-10
1.081229657427766243e-10
7.649827204605955402e-11
5.310796902003536312e-11
3.618844835897313009e-11
