# bin_11_1
2.243572491034372798e-08
1.908927061866579702e-08
1.586311355650965016e-08
1.294383074046305069e-08
1.042123765949504409e-08
8.282445084959443333e-09
6.464499318035340198e-09
4.938344472621703030e-09
3.726358113289972334e-09
2.818869694298600257e-09
2.138449548806985583e-09
1.625784851089682698e-09
1.249060113173026263e-09
9.691590623541855345e-10
7.593986103975563358e-10
5.992395078607213871e-10
4.743563921531375385e-10
3.749299189815359617e-10
2.944952768375920806e-10
2.288688553578674380e-10
1.753164624046870850e-10
1.319641773663077609e-10
9.738726478116862299e-11
7.036227249610512301e-11
4.974311203772938878e-11
3.442183277654983732e-11
2.334244283060990101e-11
1.553999963560188769e-11
1.017898162612307867e-11
6.575456217929856049e-12
4.198701632814400289e-12
