# bin_6_5
5.204400742573971503e-08
4.770090582601798466e-08
4.256432211007277183e-08
3.695779062803949234e-08
3.126393285392946244e-08
2.585678661192711658e-08
2.101197975176174828e-08
1.684407422976491542e-08
1.331865691359112986e-08
1.033768045472633751e-08
7.855597435541035981e-09
5.896032098307619698e-09
4.433010098112339730e-09
3.335854414523881183e-09
2.508498460786039479e-09
1.903997038927061224e-09
1.455343209970145285e-09
1.122099721571736507e-09
8.705759493249870758e-10
6.776731804235877126e-10
5.272220884064713634e-10
4.082603554761319579e-10
3.134321114986346135e-10
2.377244333308304215e-10
1.776098453820723231e-10
1.304226632091598489e-10
9.398485587854617569e-11
6.640737118048727573e-11
4.600047768683556654e-11
3.125558264591958741e-11
2.085472410348815376e-11
