# bin_12_7
7.254050200883069660e-08
6.838085906015185952e-08
6.283945140973482993e-08
5.620098629980556166e-08
4.888828576916174975e-08
4.141107273286525659e-08
3.427859081178553108e-08
2.787326165267749666e-08
2.235922649615330539e-08
1.769143274035461831e-08
1.373041530513744961e-08
1.041358091368066262e-08
7.788596964291140742e-09
5.834377850215418517e-09
4.366252271645117350e-09
3.257734324591648862e-09
2.452499579928940791e-09
1.856465882961883914e-09
1.417438317120186807e-09
1.089365652198222336e-09
8.407217714603857108e-10
6.493194019262337815e-10
4.999396394325251292e-10
3.822770937202239291e-10
2.892678602330135269e-10
2.159739225931636246e-10
1.587330654840205052e-10
1.146457115637371313e-10
8.128603055771831470e-11
5.655437817146329816e-11
3.861894730990883655e-11
