# bin_14_14
3.323105888165553653e-11
3.808577543369034123e-11
4.307963180008811625e-11
4.791101197289818512e-11
5.218423904165815863e-11
5.537441109257936469e-11
5.684692898302669390e-11
5.612213592074306389e-11
5.244622815537530327e-11
4.631389018829018849e-11
3.869340606984183112e-11
3.165041630320523424e-11
2.673297174386092635e-11
2.312106134611925025e-11
1.808254950035385442e-11
1.247332061308872516e-11
9.933608651867399558e-12
7.022245683562438355e-12
5.078556086269802982e-12
3.407994181281778288e-12
2.390545841269384672e-12
1.623732608437196482e-12
1.091228838983138394e-12
7.317829653724301474e-13
4.899035417421059903e-13
3.302765596684595033e-13
2.252976872060237385e-13
1.562196040127304079e-13
1.106711456327947959e-13
8.026257536797174274e-14
5.953250865584573161e-14
