# bin_11_3
1.885039551099221734e-23
2.123723698334622960e-23
2.351334862956057453e-23
2.547722768224763691e-23
2.686662740926070625e-23
2.738681673038298753e-23
2.677647165356790583e-23
2.474299436500534320e-23
2.161855244808330893e-23
1.792732406882243413e-23
1.469162813137532834e-23
1.251273013093973856e-23
1.074031247771534282e-23
8.153081575423210680e-24
5.681227730104684924e-24
4.594384047519055879e-24
3.134983640122768611e-24
2.343280491444743613e-24
1.592848491475427888e-24
1.116120002117396594e-24
7.803442028057579838e-25
5.454490713055840377e-25
3.838030935705754805e-25
2.731126521321009073e-25
1.980415023038306591e-25
1.464262433947560363e-25
1.102636757964315853e-25
8.431569286978358122e-26
6.506835769712708125e-26
5.031727581286956459e-26
3.870473510256557929e-26
