# bin_8_5
7.206721162070831270e-13
8.058524557388085899e-13
8.841386124886446578e-13
9.472656004992024355e-13
9.848363300643286548e-13
9.878106640886924420e-13
9.433466838488971953e-13
8.504640537672386082e-13
7.248646200922615408e-13
5.943672431641849196e-13
4.929804163570089224e-13
4.258967230861671614e-13
3.523272467844437161e-13
2.508322593993684502e-13
1.861489143838316463e-13
1.454680401174933568e-13
9.855310930401660114e-14
7.247489887312728697e-14
5.124484039662786319e-14
3.574053416495982038e-14
2.512491113830657483e-14
1.780340883554787941e-14
1.278828287601147655e-14
9.336925364893259319e-15
6.953038111595817707e-15
5.269219957713535640e-15
4.049797542477603948e-15
3.138687889915062275e-15
2.435366216031562503e-15
1.878407931700828747e-15
1.431156389007664875e-15
