# bin_10_1
5.585236893208559364e-30
6.255498930420686726e-30
6.876778321525954441e-30
7.385878330180323187e-30
7.702836004075039563e-30
7.753922119449509022e-30
7.443013713038069446e-30
6.744298825823074866e-30
5.778023255983923069e-30
4.745646503122876277e-30
3.922966467431216599e-30
3.382388870484310550e-30
2.826165833479305640e-30
2.035727644067159896e-30
1.485613036418120932e-30
1.178375360506627304e-30
7.913920443053152729e-31
5.892396427848673143e-31
4.127186294298113011e-31
2.872181399178851001e-31
2.017603249624229765e-31
1.424987747692618230e-31
1.018995765763350019e-31
7.399892499216368909e-32
5.481716787583458258e-32
4.134953108976720735e-32
3.166626637126314765e-32
2.449136531387610053e-32
1.899479610272112103e-32
1.466673309968543759e-32
1.120109812574998843e-32
