# bin_10_9
3.022156430426678014e-11
3.426552911029821363e-11
3.823298766579072047e-11
4.182210444711952025e-11
4.462842866894963623e-11
4.614805391963909141e-11
4.598627064500090658e-11
4.350578033670070869e-11
3.886613099979370879e-11
3.281940971264739894e-11
2.685664602842364563e-11
2.244491118300776204e-11
1.944251881431897740e-11
1.573755036196805777e-11
1.097619228861959543e-11
8.417419027365113476e-12
6.322535063596881695e-12
4.370057116685077102e-12
3.079161758079551437e-12
2.184491123264740226e-12
1.500845682213702312e-12
1.028446863721736406e-12
7.094750965216061866e-13
4.935797370583409403e-13
3.480305546045204150e-13
2.500374233883426210e-13
1.832068729718428004e-13
1.369594380210376120e-13
1.041014004548140502e-13
7.998691393906060432e-14
6.167179570575635508e-14
