# bin_8_1
1.873096705656869310e-24
2.073970328790778647e-24
2.248135469788051550e-24
2.372698890228705180e-24
2.421678529433729079e-24
2.372350703554728100e-24
2.198183281120964968e-24
1.925745399491364594e-24
1.600576915113484106e-24
1.311074003154600427e-24
1.113061822077304046e-24
9.561347284749672858e-25
7.333278683258961757e-25
5.120187175211560743e-25
4.111122551199011686e-25
2.869703084890066032e-25
2.129704906552815495e-25
1.473839217002552828e-25
1.054230038844684180e-25
7.510232932724361555e-26
5.378716576927773340e-26
3.901672318777806574e-26
2.873824671052676045e-26
2.157722696745166803e-26
1.648006727656847079e-26
1.274775182060286037e-26
9.931162268786077876e-27
7.736490370415729243e-27
5.984823006910194572e-27
4.569055650694737171e-27
3.425574156683502549e-27
