# bin_14_12
1.278511227249887435e-11
1.462574300587950645e-11
1.650652186159373770e-11
1.830813717048726524e-11
1.987490951659397847e-11
2.100293356942276995e-11
2.145622132124313144e-11
2.103997743590141158e-11
1.950191524826002826e-11
1.708951630533077308e-11
1.419438380189096933e-11
1.162384849179164882e-11
9.884136111397563836e-12
8.511136581462299324e-12
6.502900986531856838e-12
4.503568028989345515e-12
3.640131629647965716e-12
2.483722157367801388e-12
1.844833203529983727e-12
1.233053890610697415e-12
8.519481036913531932e-13
5.817745539022656919e-13
3.938023219352228033e-13
2.654584029338049046e-13
1.790128145100783422e-13
1.219836965075987137e-13
8.430629508293144557e-14
5.935813140054741993e-14
4.273941464065972199e-14
3.147955820678942231e-14
2.365142555304950221e-14
