# bin_9_9
4.496544325412849616e-11
5.088616848280168701e-11
5.664542998229208387e-11
6.178566881827551653e-11
6.569658505593921621e-11
6.763078819330613078e-11
6.701908397692363143e-11
6.294562223890280765e-11
5.585282669073402590e-11
4.686824807123630847e-11
3.833528515614498335e-11
3.222643543814298989e-11
2.789663619117446309e-11
2.216038327151607359e-11
1.535273479292869073e-11
1.203887687832862639e-11
8.762901995572207694e-12
6.223183988948875934e-12
4.287479011467268700e-12
3.051816493702830118e-12
2.107922361776709233e-12
1.451931652814281093e-12
1.008080036384069844e-12
7.061842388672231748e-13
5.023994195593900978e-13
3.643638685409467470e-13
2.694832749002547622e-13
2.031151478173887595e-13
1.553141088434873284e-13
1.197182546859092232e-13
9.232823733037766531e-14
