# bin_14_11
3.452009044797312037e-12
3.945377902144190983e-12
4.447666965046817246e-12
4.926360045364120431e-12
5.338947122984117167e-12
5.630132084020119781e-12
5.737796000285139174e-12
5.606948861042387201e-12
5.176098083897698139e-12
4.518089251883691151e-12
3.743102290638292732e-12
3.068183789377398405e-12
2.617223578633329119e-12
2.246144323716705648e-12
1.696589927527072214e-12
1.180417671717250540e-12
9.578075315915449386e-13
6.444073029718537860e-13
4.827384318214996345e-13
3.237311565483879232e-13
2.221242424083632738e-13
1.519678880422330979e-13
1.031024746978735181e-13
6.968823074443065053e-14
4.718432182716049239e-14
3.232983438646029848e-14
2.249075714270548364e-14
1.595280756596335952e-14
1.157306915090980697e-14
8.582295515237555073e-15
6.482172995404813863e-15
