# bin_5_1
2.904636740942008385e-16
3.127772174809945010e-16
3.274954703035358519e-16
3.313127206595537414e-16
3.205919599792288891e-16
2.931892498567804531e-16
2.535975470157857052e-16
2.093492012317754994e-16
1.722678615229399097e-16
1.473475865637514379e-16
1.246090890940988922e-16
9.267859634181791501e-17
6.641870802675866571e-17
5.312881327504068274e-17
3.675945200081138147e-17
2.760886322791251185e-17
1.956345270870743365e-17
1.412434037966141121e-17
1.029227730956074348e-17
7.587106956335041963e-18
5.686695970822050768e-18
4.335662692263928297e-18
3.361035786107918485e-18
2.634967976167647371e-18
2.075614762416129151e-18
1.631617260998840797e-18
1.271038028415455584e-18
9.752898833892185801e-19
7.333932161462749026e-19
5.383506750343381821e-19
3.848697443918680848e-19
