# bin_12_12
3.588168054384051483e-11
4.095488547914499074e-11
4.609007046409705714e-11
5.094568355875627577e-11
5.507261479001836700e-11
5.789233578980843457e-11
5.878888360826548582e-11
5.714459514186670856e-11
5.244228572538714218e-11
4.550817091812074888e-11
3.757658824696031252e-11
3.086167774808826740e-11
2.643936431919039896e-11
2.254510676179017361e-11
1.674713063256507148e-11
1.177474491506676283e-11
9.558185114424299273e-12
6.342522644414020883e-12
4.777510417400181338e-12
3.230624447588817755e-12
2.202370539393857419e-12
1.508360529333633103e-12
1.025052253169721620e-12
6.957592817132649103e-13
4.741122824432095386e-13
3.275473626867718640e-13
2.300668512344346843e-13
1.649216347140200573e-13
1.208885986714415372e-13
9.045550836209196561e-14
6.876700421866259029e-14
