# bin_14_8
1.259611152733977092e-14
1.435502798774837211e-14
1.612303787288002287e-14
1.777900347778504004e-14
1.916250704401875760e-14
2.006888177752572761e-14
2.029498541415916312e-14
1.960483929660352408e-14
1.787306724216296554e-14
1.540653565429901551e-14
1.268090138234556389e-14
1.044666574918161655e-14
8.988268189423138308e-15
7.592814549527190284e-15
5.537511052558922914e-15
3.960606779483703226e-15
3.188692797332652666e-15
2.106827635270103599e-15
1.580461247029233273e-15
1.080982001167429239e-15
7.355515662696347529e-16
5.034809596914081387e-16
3.425887584458880449e-16
2.337396788784850163e-16
1.605235781058332831e-16
1.119547955907834533e-16
7.948452507752135923e-17
5.762836238573517239e-17
4.269221756118045717e-17
3.222172346434364906e-17
2.463550160220006687e-17
