# bin_5_5
1.977053496626279963e-08
2.167864913524678206e-08
2.321835701602314806e-08
2.413773605388306725e-08
2.421036259975530295e-08
2.313776865103797436e-08
2.088643582274543116e-08
1.783310449910740942e-08
1.464316225541913359e-08
1.213775094889227620e-08
1.045371707142700582e-08
8.653734326358554191e-09
6.229160798967561002e-09
4.605956969422017505e-09
3.603962131437200060e-09
2.477864068359712940e-09
1.835352095598834924e-09
1.306359057073045572e-09
9.294000760724800297e-10
6.686833608664998020e-10
4.866251827801623497e-10
3.598179364185035026e-10
2.707108229861118491e-10
2.073172842426087880e-10
1.608576786723056394e-10
1.257297952413287866e-10
9.833760376851812578e-11
7.641847951945607384e-11
5.863663636381552774e-11
4.419318457198479614e-11
3.258310185332246567e-11
