# bin_11_11
8.030830508792228278e-09
9.125306753658166549e-09
1.021019668877070714e-08
1.120668849998987266e-08
1.200940352991683621e-08
1.248567651790107640e-08
1.252142226011830968e-08
1.195078750159819967e-08
1.076597216037295454e-08
9.167708435054277661e-09
7.515089673729098043e-09
6.239053059949975282e-09
5.396271229488257185e-09
4.455714760118387971e-09
3.156831035373939305e-09
2.349397815439475331e-09
1.825760114752884451e-09
1.229354492951683425e-09
8.937328121080177619e-10
6.252031773835980188e-10
4.272806750986829108e-10
2.922088012808366496e-10
2.001269162899699616e-10
1.380519061505937163e-10
9.626715455561859323e-11
6.832451782841266541e-11
4.943657720367354239e-11
3.652568411803738600e-11
2.750414216103561083e-11
2.100710518111863296e-11
1.616245844702873623e-11
