# bin_3_5
1.614273026807351710e-07
1.720168186688993237e-07
1.778124516966944715e-07
1.771052655962007680e-07
1.679152641908302330e-07
1.505320279541684335e-07
1.278744192159898367e-07
1.051196411070155048e-07
8.759128995342597257e-08
7.508886196181797218e-08
6.107140801523748985e-08
4.418533733089178616e-08
3.316913521901418981e-08
2.538346998232725708e-08
1.797689773936966614e-08
1.322224017681021786e-08
9.535680509176625136e-09
6.923684303356049533e-09
5.087030296761314159e-09
3.793970791810790885e-09
2.879229815045587470e-09
2.221846328318650480e-09
1.738394587794229432e-09
1.370427471517475130e-09
1.081123335088844940e-09
8.476405283583545721e-10
6.561726230353293391e-10
4.987694432088731813e-10
3.706443812808934638e-10
2.684661660803227803e-10
1.893260052142318119e-10
