# bin_12_12
7.402230290440849047e-09
8.433160725903751571e-09
9.467863138997764339e-09
1.043499827023719114e-08
1.123998099815384434e-08
1.176231031802615915e-08
1.188421705400214592e-08
1.146529044411252499e-08
1.043927604383994415e-08
8.987006257065388858e-09
7.393815463906609065e-09
6.095992928748805138e-09
5.248096572113559711e-09
4.422909714326512909e-09
3.215759578497013508e-09
2.309717592836647558e-09
1.852628809149608818e-09
1.226526262731024256e-09
9.170547362683348020e-10
6.287157012783354141e-10
4.280440626293469612e-10
2.929360912269498973e-10
1.994507865136426302e-10
1.362352045627113349e-10
9.371131571405786881e-11
6.547915379016933234e-11
4.658367367145943197e-11
3.384481486149882049e-11
2.511898121976742545e-11
1.898430866078389502e-11
1.452539323960255500e-11
