# bin_11_8
5.538230688717105307e-11
6.275288428428750145e-11
6.996301428715698220e-11
7.645616346849483479e-11
8.148743848692767615e-11
8.413348412628587674e-11
8.368114956530572523e-11
7.897196644965889378e-11
7.038743291028258199e-11
5.930741218855157362e-11
4.852155431705274175e-11
4.063121613048551568e-11
3.519248605104477007e-11
2.830920755610151048e-11
1.969090012718322095e-11
1.521892614265503587e-11
1.131192736985836925e-11
7.889165753598453332e-12
5.513528785409339716e-12
3.918677611888536474e-12
2.696995047620125737e-12
1.850921611168622992e-12
1.279661075103614506e-12
8.923542402311798897e-13
6.311328891377973256e-13
4.549061902915835582e-13
3.344053121064707481e-13
2.507157305933021251e-13
1.909782368204933941e-13
1.469151035882815958e-13
1.132943454182734859e-13
