# bin_15_12
1.380903950232790727e-10
1.580267685397574683e-10
1.784252291626717141e-10
1.980029641375837555e-10
2.150857634566115506e-10
2.274750782729069317e-10
2.326020724232273326e-10
2.283905758055493499e-10
2.120286552406964745e-10
1.860795284803402445e-10
1.547228829631108726e-10
1.266680097725821117e-10
1.075716223693641408e-10
9.272337027233051237e-11
7.116595947743501244e-11
4.922791759503730483e-11
3.969534965669404138e-11
2.726231781657873354e-11
2.015698175456379354e-11
1.346935160194196024e-11
9.335730173431184058e-12
6.368720199649024260e-12
4.305474149650001428e-12
2.899324390077245097e-12
1.952291088279241473e-12
1.327545489400201235e-12
9.151803252702591819e-13
6.424809712549881051e-13
4.612028426644035188e-13
3.387396291580864011e-13
2.539254605600830577e-13
