# bin_11_14
3.780604160309364346e-08
4.301504593640208607e-08
4.821108082764953106e-08
5.302651243578313090e-08
5.697173236943387273e-08
5.942674647952415007e-08
5.982255988979575709e-08
5.740843534301257964e-08
5.199684992828915588e-08
4.452376145269419979e-08
3.656321989224319340e-08
3.024585388103027006e-08
2.610139579012380134e-08
2.178231252906753845e-08
1.563576337364582968e-08
1.142469389427014282e-08
9.028347656202879170e-09
6.022138547869787000e-09
4.444473866512696008e-09
3.076986543415741872e-09
2.098511732593954109e-09
1.435493108346355498e-09
9.800118646357486856e-10
6.725977312507358125e-10
4.657539851018806701e-10
3.279541185326113097e-10
2.352866220153006677e-10
1.723950746165972892e-10
1.288953972713207349e-10
9.794725691665895047e-11
7.516212206746231668e-11
