# bin_1_8
6.927356775134672264e-07
6.787339655735248706e-07
6.335137883018521446e-07
5.611816658386388552e-07
4.750557480334696613e-07
3.935686133605465564e-07
3.292341149165789962e-07
2.761625669718501838e-07
2.196529343000757289e-07
1.633812750902704624e-07
1.225747214123575205e-07
9.246102499960252442e-08
6.747341572312377438e-08
4.976613598156495069e-08
3.669823990527887228e-08
2.739857751249649745e-08
2.076542567272773546e-08
1.601873844401610221e-08
1.256270043292968152e-08
9.975024133180101392e-09
7.970766193799722754e-09
6.363385856046778171e-09
5.039667712579055434e-09
3.934401395374008566e-09
3.011559264539645682e-09
2.251124999575961078e-09
1.639404006412595874e-09
1.162466047675578846e-09
8.034116988998136415e-10
5.424411185301158358e-10
3.588491308247117972e-10
