# bin_4_5
6.860727550474937361e-08
7.440234941407089378e-08
7.859979932990335961e-08
8.035654051301465820e-08
7.890035051995681025e-08
7.339863735026961824e-08
6.455670583823911959e-08
5.390766893726689936e-08
4.420356952529818419e-08
3.734665641281353045e-08
3.200157409934147409e-08
2.490097064336786488e-08
1.759355250447063977e-08
1.382637260838186302e-08
9.995532893594373524e-09
7.274680897956393868e-09
5.182824015037720981e-09
3.750750312143100512e-09
2.706664123176854546e-09
1.973730936202576366e-09
1.462151839615700665e-09
1.101791552465691873e-09
8.449475314889961590e-10
6.571495376332790706e-10
5.152444355282034992e-10
4.046139238879160731e-10
3.160066776557710995e-10
2.438703918979956803e-10
1.849446151885984381e-10
1.372272515147842449e-10
9.931632772818247871e-11
