# bin_6_1
4.647775051206940351e-18
5.057230681597354330e-18
5.364703227305532556e-18
5.510828084597066943e-18
5.446670502491480261e-18
5.104007337330067552e-18
4.520309627184346462e-18
3.790882692269147451e-18
3.102627238410706299e-18
2.608425216947386279e-18
2.249502038697907237e-18
1.781723577534152806e-18
1.248595187246157989e-18
9.770619475149920782e-19
7.173846089731911262e-19
5.164071606692485037e-19
3.677437063499118612e-19
2.668627307459733052e-19
1.918606851713414890e-19
1.392757345793402081e-19
1.027024626632917755e-19
7.703129589467521344e-20
5.882200680096594654e-20
4.560462236003695967e-20
3.569388853095483317e-20
2.802362603378682158e-20
2.191466513865798281e-20
1.695565265055631867e-20
1.290574112696959632e-20
9.619061920787477558e-21
6.996270628306088402e-21
