# bin_1_15
7.912970076014042920e-07
7.762270740422489811e-07
7.255132811617920609e-07
6.435407555617867572e-07
5.452972733299919132e-07
4.518012851608501390e-07
3.777813157974221656e-07
3.170758640309315880e-07
2.527117050903285285e-07
1.881261412106271386e-07
1.410081830113727572e-07
1.064608337725561916e-07
7.769054176490964201e-08
5.728824394077954084e-08
4.222951603480238634e-08
3.151049986387180260e-08
2.386466697923879433e-08
1.839582857529035788e-08
1.441742419549333694e-08
1.144212552348265285e-08
9.140784392133346631e-09
7.297481967775825690e-09
5.780859722069439862e-09
4.515103711148911720e-09
3.458236541955505153e-09
2.586962221393297122e-09
1.885514459493468146e-09
1.338063240384177819e-09
9.254697839139420311e-10
6.252666457414053935e-10
4.138733560478612259e-10
