# bin_15_7
3.303003507245104526e-18
3.767939964624782554e-18
4.237399684119109658e-18
4.679824091708094087e-18
5.053607677992560376e-18
5.305350386548729189e-18
5.379568136115825743e-18
5.217556699479067135e-18
4.776835569669548420e-18
4.135320663749480915e-18
3.410471663896478919e-18
2.803840578711196753e-18
2.405937564761913718e-18
2.045128259851131359e-18
1.509094551533166122e-18
1.067000665306724565e-18
8.644131250513397511e-19
5.720189595920512094e-19
4.307081908639219236e-19
2.924083383087511138e-19
1.991081484505720043e-19
1.363537193959093476e-19
9.269954086203705254e-20
6.303340755152415962e-20
4.307076822728959027e-20
2.985686451042834764e-20
2.105253005074295851e-20
1.515400155935206559e-20
1.115171278108838629e-20
8.371606227114882117e-21
6.378477333851618056e-21
