# bin_14_5
4.744009008355049563e-22
5.395638837479394332e-22
6.044440101973433851e-22
6.644183473352217261e-22
7.133179477600609408e-22
7.433461102287236578e-22
7.474941398264798694e-22
7.161407892434866693e-22
6.474847592820107659e-22
5.533952773812402009e-22
4.540575664796958959e-22
3.759458495591736862e-22
3.248306377120681817e-22
2.703483702344321754e-22
1.929955262196699685e-22
1.418186977563806477e-22
1.116899035547853451e-22
7.450200701186645722e-23
5.484281300161205551e-23
3.810973722782653144e-23
2.599326167642889121e-23
1.777172013182449592e-23
1.213766370572435316e-23
8.343027178941255713e-24
5.790188745687091300e-24
4.087664099789114270e-24
2.940996718670685541e-24
2.161144324437374949e-24
1.620065184658209436e-24
1.233624692095744161e-24
9.478967890272820884e-25
