# bin_8_3
4.671600354371709126e-16
5.192801120811965149e-16
5.655906930386378349e-16
6.005039515242890806e-16
6.172702534563238715e-16
6.105684372140805842e-16
5.723859618152395025e-16
5.070483170855065789e-16
4.250455952341859111e-16
3.477166718236043963e-16
2.925057015448919137e-16
2.527771270148591833e-16
2.000939562190618277e-16
1.392197157354961898e-16
1.093665623033744402e-16
7.964139012589401070e-17
5.713044692615942618e-17
3.995937778620321803e-17
2.874956145622114972e-17
2.031125984516623511e-17
1.441430705654342045e-17
1.036351554085117403e-17
7.561644758048560610e-18
5.620457906184938671e-18
4.255257642363452603e-18
3.269538248913127650e-18
2.537180092182025234e-18
1.974900800758634222e-18
1.530943550166468369e-18
1.174146066480865344e-18
8.861129340950197884e-19
