# bin_10_11
1.833545416093198928e-08
2.078708196822406104e-08
2.319175206911191345e-08
2.536603119643481217e-08
2.706452397266859098e-08
2.798238780316912073e-08
2.787798843831787745e-08
2.636962401055757066e-08
2.355452999670299098e-08
1.989077244561917239e-08
1.628026410815127004e-08
1.360818197013267887e-08
1.178264698381653755e-08
9.530137105683848163e-09
6.656176682222606761e-09
5.102139687578733972e-09
3.828972893743709969e-09
2.649647951742432814e-09
1.868928271292609939e-09
1.323153034657662103e-09
9.092795209449905904e-10
6.235949440429571173e-10
4.302355662390832096e-10
2.993366406537458566e-10
2.110896683601757455e-10
1.516672793754607869e-10
1.111337941287441364e-10
8.307601822958292011e-11
6.313628186928253520e-11
4.849988220598452611e-11
3.738341320816907131e-11
