# bin_12_1
5.131983380257864004e-35
5.795323851029736599e-35
6.434508325229792134e-35
6.996078716266495156e-35
7.409484323082682178e-35
7.591149009189442249e-35
7.474708770342687952e-35
6.965220366032183757e-35
6.134770500369226349e-35
5.116580873467428475e-35
4.186919435373247282e-35
3.542433740500364767e-35
3.057744233015109050e-35
2.376673268767010810e-35
1.645701444753010839e-35
1.314785073187131579e-35
9.251608464974517835e-36
6.758644867699579424e-36
4.597151429410579759e-36
3.253175202032937935e-36
2.260792967819140891e-36
1.568631258664851944e-36
1.096040164959412641e-36
7.733337287726847913e-37
5.551630270361466764e-37
4.063841644624199818e-37
3.032316353346297696e-37
2.302288640524044173e-37
1.769091508500307997e-37
1.366403130785178189e-37
1.052915470097664980e-37
