# bin_12_5
4.633050715594024781e-19
5.246654602902672511e-19
5.845341402802193156e-19
6.382295649241205606e-19
6.794929807265522646e-19
7.006025553153332237e-19
6.956614333595337636e-19
6.550601004726669193e-19
5.826437117926324553e-19
4.899716468170019885e-19
4.007938243053169803e-19
3.362223660454609430e-19
2.911784417260951077e-19
2.328931762529026792e-19
1.616173163479414102e-19
1.257938068996227154e-19
9.260031881389362697e-20
6.511908405954814192e-20
4.517412868092014369e-20
3.214960282114000047e-20
2.215908779914779350e-20
1.522721746923366545e-20
1.054586221145000136e-20
7.367341254875685121e-21
5.223091884458518551e-21
3.774188824645947428e-21
2.781409756780586263e-21
2.089952287819361851e-21
1.594585538222874813e-21
1.227761126945003745e-21
9.468782837309226664e-22
