# bin_9_7
9.814538461487691098e-12
1.106184428352203401e-11
1.225349970172263156e-11
1.328506647347517134e-11
1.402027635713835222e-11
1.430429642150647488e-11
1.400319302039609604e-11
1.295859907738890044e-11
1.133824639113834344e-11
9.410948120809955512e-12
7.709646990613705178e-12
6.558979674905556211e-12
5.636897440985054575e-12
4.296535788333383436e-12
2.988609858744815747e-12
2.413849254028995048e-12
1.654452520688113178e-12
1.232941488953018321e-12
8.371940916184288995e-13
5.875677527399372315e-13
4.103879358052604582e-13
2.864932039914780078e-13
2.013041624301969072e-13
1.429957267817596133e-13
1.034840876281227024e-13
7.636380837414265234e-14
5.740399342927296917e-14
4.383762542372945115e-14
3.380512918218009568e-14
2.613773213290418120e-14
2.011399493565363119e-14
