# bin_3_3
1.428804273579348768e-10
1.528711669697888755e-10
1.587832116282622017e-10
1.591228361943853738e-10
1.519725854154230081e-10
1.371501688419849543e-10
1.171093100128899288e-10
9.621458735236389798e-11
7.976224342728689224e-11
6.857727314226705849e-11
5.669430280941097849e-11
4.102639533789131771e-11
3.038450726365744195e-11
2.374221573875452618e-11
1.652911093066494619e-11
1.228588773030811550e-11
8.828242486252502358e-12
6.381512783521023289e-12
4.672796513795925496e-12
3.470631649807094724e-12
2.623014560071973231e-12
2.016505177938584874e-12
1.573651495900640430e-12
1.239009630392811248e-12
9.776210098960524028e-13
7.676887944510673193e-13
5.959133952304547534e-13
4.546474786154529190e-13
3.393338748680762987e-13
2.469179903117878119e-13
1.748955694947816384e-13
