# bin_14_11
3.533965349112414884e-12
4.039059143068382645e-12
4.553282589954835416e-12
5.043353321218106625e-12
5.465752539792591713e-12
5.763871385795661141e-12
5.874113588160265369e-12
5.740185947192899669e-12
5.299126421210836081e-12
4.625503104342593004e-12
3.832106005285640119e-12
3.141137826720969903e-12
2.679445650575402032e-12
2.299551929657920805e-12
1.736951062797483100e-12
1.208488516476027774e-12
9.805736515109879823e-13
6.597255321950361816e-13
4.941982396367625650e-13
3.314009094678679384e-13
2.273732040376263157e-13
1.555429509440587220e-13
1.055122709248656164e-13
7.130243169869577681e-14
4.826424466802697867e-14
3.305877332071432298e-14
2.298890159186378388e-14
1.629926079553590987e-14
1.181945640570719450e-14
8.761778231352794373e-15
6.615890805747691991e-15
