# bin_15_15
3.808608550222833406e-11
4.372350715600000842e-11
4.955350478495471555e-11
5.524268733186843042e-11
6.034621526251058473e-11
6.426910243971972691e-11
6.627407381737167207e-11
6.581098476390653286e-11
6.195165646791986768e-11
5.508157330359751735e-11
4.629036912661495533e-11
3.785943835128987784e-11
3.178365792310623129e-11
2.753805871796831125e-11
2.198263250064905146e-11
1.519926843108896698e-11
1.186621795559165322e-11
8.680127568564472942e-12
6.094628842522633801e-12
4.165507843017478512e-12
2.940893179856094465e-12
1.988878243142485821e-12
1.328144800113691873e-12
8.864187486918488577e-13
5.899306368188404501e-13
3.939965234865084316e-13
2.656084754082279649e-13
1.815385499950670298e-13
1.265509626859164675e-13
9.029127398638704749e-14
6.599302734129097313e-14
