# bin_12_6
1.200903758954524578e-16
1.361429291151894197e-16
1.518827251500572124e-16
1.661090496102330956e-16
1.772130727258114225e-16
1.831917986996088190e-16
1.824830191581424160e-16
1.725549781884492210e-16
1.540817882601300780e-16
1.300512365079894771e-16
1.064161991571650522e-16
8.897030066207242134e-17
7.707097433308944478e-17
6.230923130822349248e-17
4.342684535227685537e-17
3.335827329061751766e-17
2.500402985150787810e-17
1.731171528897547182e-17
1.217496792686970418e-17
8.642016938003524793e-18
5.938615343562403927e-18
4.069532510562628848e-18
2.807933404435500717e-18
1.953814352010041045e-18
1.378029667843226706e-18
9.903057283274702041e-19
7.258266728696529473e-19
5.427510630231160092e-19
4.126240914064388488e-19
3.170792925285431039e-19
2.444803608164517812e-19
