# bin_15_14
2.925839680364730062e-11
3.356324132968857061e-11
3.800451495834996987e-11
4.232151018473680678e-11
4.616950032303993304e-11
4.908892482403416078e-11
5.051592068346158135e-11
5.003057819576621662e-11
4.693912783987678324e-11
4.160376597536959206e-11
3.486706383644057880e-11
2.851560611069842656e-11
2.400582473460756619e-11
2.078665416738783656e-11
1.644007024780985877e-11
1.134687222344512155e-11
8.945638622284224536e-12
6.442173975606126768e-12
4.585976632685358784e-12
3.103085141475411322e-12
2.187007592114239850e-12
1.481718141417549804e-12
9.920468274668343235e-13
6.635173306355790442e-13
4.427023148519863341e-13
2.968837194605381186e-13
2.011858035330059280e-13
1.383929968122722722e-13
9.718076087447051191e-14
6.985940733331420920e-14
5.141287524811651906e-14
