# bin_15_13
1.488638192086021723e-11
1.706261929926376750e-11
1.930184759970794145e-11
2.146919408208076828e-11
2.338758586520266537e-11
2.482200099265309774e-11
2.548785770874964014e-11
2.517053392689932546e-11
2.353072949407646548e-11
2.078663452000483888e-11
1.737141467040358076e-11
1.420908371471107559e-11
1.199770024822301026e-11
1.037807323142207101e-11
8.125148215859927420e-12
5.604607211387378556e-12
4.459500666192480647e-12
3.157964945190109564e-12
2.280543183914759428e-12
1.531249119940322251e-12
1.074656080635053361e-12
7.297051949494746739e-13
4.901658248964358500e-13
3.285765409734085060e-13
2.198531419754520315e-13
1.481032412296594329e-13
1.009317089630551009e-13
6.990597607841218781e-14
4.946269064080305387e-14
3.582862309974949785e-14
2.654689858948711674e-14
