# bin_5_4
4.863222708683850371e-11
5.335821693533870535e-11
5.719043657155920901e-11
5.950859208588325305e-11
5.975448947362202199e-11
5.718532819763241806e-11
5.168177567564367683e-11
4.417036791861464969e-11
3.626481898377815696e-11
3.002692299910420820e-11
2.587251761537247590e-11
2.149028868131601930e-11
1.547022984310434890e-11
1.139791188225860491e-11
8.969613971890261398e-12
6.131977197646672661e-12
4.560246314236058612e-12
3.243765924990007685e-12
2.304187310803386489e-12
1.656389491380473769e-12
1.204072098306348845e-12
8.893588202057544569e-13
6.683935230666171406e-13
5.114343191821664703e-13
3.965938282493689254e-13
3.099136173002780361e-13
2.424247247045825641e-13
1.884721575544809021e-13
1.447188814056434417e-13
1.091717519497221493e-13
8.057693960860693104e-14
