# bin_15_8
6.747752370523702827e-17
7.704507499000976828e-17
8.674436430250748759e-17
9.593479649725163774e-17
1.037753058215827219e-16
1.091797951494612416e-16
1.109745860101031283e-16
1.080218118637035214e-16
9.928548463109036277e-17
8.628996594546334048e-17
7.130957784047410095e-17
5.853312813874581781e-17
5.009120943114025574e-17
4.279172303922747328e-17
3.192494114824561509e-17
2.237573036477604131e-17
1.817253021239827362e-17
1.209239017833312789e-17
9.102175472611252821e-18
6.140058984057141290e-18
4.190705621546004227e-18
2.869498906355995700e-18
1.949132136290328468e-18
1.321215365650923174e-18
8.985230948735627981e-19
6.192054743923172477e-19
4.336710137362166418e-19
3.099043962364006397e-19
2.264789966224956981e-19
1.690313531568483343e-19
1.282709317592527154e-19
