# bin_11_3
1.526522007536072757e-23
1.719630897180808846e-23
1.903694430365158200e-23
2.062376036890839890e-23
2.174427975627390698e-23
2.216036227512977859e-23
2.165955850248442634e-23
2.000726753132196037e-23
1.747455465457738555e-23
1.448749494599545798e-23
1.187375216050581337e-23
1.011568495880300814e-23
8.680102557625488850e-24
6.582204453912640433e-24
4.588600112843929040e-24
3.711981569853180834e-24
2.529803797315081126e-24
1.892319441878433956e-24
1.286475304242048492e-24
9.009317994384836575e-25
6.299268793526565343e-25
4.403340939987200654e-25
3.098480916596649679e-25
2.204988549765058798e-25
1.599038340571551778e-25
1.182383024578350360e-25
8.904432031621534368e-26
6.809367949510016180e-26
5.255075633421010959e-26
4.063696498776030820e-26
3.125710399590532577e-26
