# bin_8_7
3.514736059447867699e-11
3.946357435195612273e-11
4.351480918117753504e-11
4.691210254558625782e-11
4.915849009219750795e-11
4.975201321738742856e-11
4.813363092214023718e-11
4.396513208328307614e-11
3.797346617389209574e-11
3.128916817642097170e-11
2.574885093462451766e-11
2.210853753669800115e-11
1.872436398437949535e-11
1.376314208906304446e-11
9.807281950969044617e-12
7.912085177956853334e-12
5.286007469069712136e-12
3.984645408034088797e-12
2.749829200815035587e-12
1.910883269345694543e-12
1.341073952007683990e-12
9.430566017182781724e-13
6.696210043711180091e-13
4.820440901144594937e-13
3.539647819735498075e-13
2.648715174410152357e-13
2.015370646177879649e-13
1.552444641342515870e-13
1.202406036556378224e-13
9.296122325506949285e-14
7.124445583801915172e-14
