# bin_8_6
9.117309716420169561e-12
1.021141650288913642e-11
1.122555324410563841e-11
1.205654212242058898e-11
1.257384805274259474e-11
1.265718658328709135e-11
1.214921731567859162e-11
1.100776757590505744e-11
9.429735500266252791e-12
7.743954208005320215e-12
6.401260773225752690e-12
5.520208209474400451e-12
4.612882420670783673e-12
3.320784647231460186e-12
2.423478480814128547e-12
1.923389491535210841e-12
1.290297988847088381e-12
9.613711347674993419e-13
6.734430993628479555e-13
4.684609681230988362e-13
3.290084015322742477e-13
2.323008927547952364e-13
1.660812592601058853e-13
1.205833319227379361e-13
8.931039149485127116e-14
6.735873185707296075e-14
5.158022460865183845e-14
3.989240452771753699e-14
3.094063944473292907e-14
2.389279036514195848e-14
1.824936733551006075e-14
