# bin_13_5
4.894777740244422295e-21
5.555715375853368794e-21
6.207391359713747973e-21
6.801376984265330078e-21
7.272766791222544110e-21
7.540196750080821075e-21
7.537423580925054615e-21
7.161235517493035175e-21
6.423107250732259943e-21
5.445108606963289112e-21
4.458588500614588030e-21
3.713841808689918252e-21
3.216054341332043191e-21
2.629679999741707913e-21
1.845685670245904294e-21
1.395502417528300517e-21
1.066469188958737027e-21
7.267170010601196116e-22
5.199256911680333646e-22
3.667921093427712631e-22
2.512782294018064442e-22
1.718700481685320065e-22
1.180980179748069131e-22
8.180290678801206148e-23
5.735626331831227184e-23
4.095557513922468013e-23
2.982248889700915885e-23
2.216776566925515014e-23
1.677530310995665326e-23
1.285512036594038553e-23
9.904330205283262780e-24
