# bin_15_7
3.088443035921268359e-19
3.523615375837022904e-19
3.963262942303086242e-19
4.377904955457872335e-19
4.728693046375651643e-19
4.965726521541933815e-19
5.036867046268042817e-19
4.887605920485155034e-19
4.477117685922004301e-19
3.877917996492964061e-19
3.199006653263334151e-19
2.629362190138010298e-19
2.255442377034960566e-19
1.918616833610322384e-19
1.417808326369306644e-19
1.001106665167321553e-19
8.115278610607820824e-20
5.372159752565545491e-20
4.046096622326124374e-20
2.744285850545332275e-20
1.868788018275506920e-20
1.279696532397139348e-20
8.697746350438367671e-21
5.910525590984327445e-21
4.035021720613597522e-21
2.794038016280240330e-21
1.967672636734815019e-21
1.414511803040595555e-21
1.039647469184709128e-21
7.796774303459449477e-22
5.936498708114713183e-22
