# bin_9_7
9.792702933202468092e-12
1.102579292772253744e-11
1.219836338542138849e-11
1.320502334232609695e-11
1.390912810203482658e-11
1.415962408615760960e-11
1.381758854788754658e-11
1.274002110104412357e-11
1.110730948907021252e-11
9.197886071110609538e-12
7.541888309342486531e-12
6.434301541930295589e-12
5.512456154066775239e-12
4.158264815184376829e-12
2.905395515222081309e-12
2.354092326107929113e-12
1.595103674430413689e-12
1.197713034118297732e-12
8.152489571233087433e-13
5.696714583060791546e-13
3.987445333617805078e-13
2.791082844975267122e-13
1.966890143028094271e-13
1.402289944418053402e-13
1.019068762342990589e-13
7.550839960752326796e-14
5.696919352320614770e-14
4.362513496042529508e-14
3.369341496888456493e-14
2.605818200060723729e-14
2.003405936800271196e-14
