# bin_4_1
7.868148813846796827e-14
8.352650604496901868e-14
8.591843824302560837e-14
8.507715776134198114e-14
7.997101598252667327e-14
7.105181673868473094e-14
5.979520157790158339e-14
4.898006546407553388e-14
4.104828266886919709e-14
3.533988319713744435e-14
2.824369767669613518e-14
1.999131700921912212e-14
1.544095256598544476e-14
1.155085427875507765e-14
8.267563994809415795e-15
6.003353820276873731e-15
4.377897708649894558e-15
3.185117721064216345e-15
2.348698696062931617e-15
1.761465922517332605e-15
1.344713608677829141e-15
1.043762170133672508e-15
8.204098064455030912e-16
6.486631657589674110e-16
5.123309260986557687e-16
4.014260161118100331e-16
3.100214271592156843e-16
2.347371479108201867e-16
1.735254616926758891e-16
1.248985304514020972e-16
8.747949295160723768e-17
