# bin_3_1
5.697301009899716695e-12
5.941157077564527307e-12
5.983615973270097962e-12
5.757294560113839000e-12
5.238163929055917980e-12
4.509668640365337213e-12
3.719350264482117457e-12
3.070347072892514310e-12
2.626771616938148968e-12
2.198571341005175378e-12
1.626655493033237984e-12
1.184258201848136579e-12
9.345827210798588009e-13
6.571458285142203829e-13
4.909165115416642049e-13
3.534896037674730240e-13
2.585761346401356553e-13
1.913280074183906602e-13
1.437228519713186926e-13
1.099231543927401448e-13
8.547775640696961041e-14
6.737303581615542671e-14
5.347065998753825011e-14
4.242622917849118922e-14
3.341954155008696405e-14
2.596216176796346514e-14
1.977939665122217758e-14
1.471335434067571928e-14
1.065590837751839064e-14
7.507963162172078064e-15
5.152335508553195613e-15
