# bin_8
0.000000000000000000e+00
5.506101275200918441e-270
9.348353520237596273e-232
1.103320894380606416e-199
1.712882117933525610e-172
2.648924139416862167e-149
1.962824466366111940e-129
2.437231070550278403e-112
1.394582880185924189e-97
8.393133013732493919e-85
1.047187635568589166e-73
4.750279923718564935e-64
1.250975732498223159e-55
2.830636608591606239e-48
7.656379008293639758e-42
3.273594733494595343e-36
2.805846195626227647e-31
5.905192316441114485e-27
3.631258726525446717e-23
7.577496030118915972e-20
6.106256141397894609e-17
2.125494264930574494e-14
3.522845821227734190e-12
3.026876305065228129e-10
1.452374021543620580e-08
4.154528859594058579e-07
7.504513846309402010e-06
9.006840485136509802e-05
7.513707291921088325e-04
4.534949454311511946e-03
2.052211019812113374e-02
7.187856676361323305e-02
2.004293019876681459e-01
4.561852252289222975e-01
8.662486457672995410e-01
1.398703770716068329e+00
1.952139622406654063e+00
2.388384166516078544e+00
2.592661236422876936e+00
2.523282846247110633e+00
2.221946042895429851e+00
1.784773441697958596e+00
1.317390506639908088e+00
8.996315344057536079e-01
5.719470402238328033e-01
3.405075401814027236e-01
1.908762974359119180e-01
1.012638163962063381e-01
5.108727631930984336e-02
2.461895275294518487e-02
1.137983375979819724e-02
5.065212917085805226e-03
2.178821362899800110e-03
9.087853000075272374e-04
3.686918811969587019e-04
1.459065978846225433e-04
5.647389453117071398e-05
2.143119844640167104e-05
7.991965765567112380e-06
2.934779854704575795e-06
1.063280288155051831e-06
3.807503118220417510e-07
1.349777633368477646e-07
4.744239289991347369e-08
1.655595644779779672e-08
5.743520140004035232e-09
1.983109201530899497e-09
6.822241682065321351e-10
2.340717655957219356e-10
8.016907582199273797e-11
2.743233381053015043e-11
1.604519098800920760e-11
