# bin_8_8
6.862686215572021657e-08
6.444034394616678510e-08
5.898548935167560133e-08
5.255354277015582159e-08
4.555829924477760875e-08
3.848215445025008037e-08
3.178837237872874557e-08
2.580796087782703424e-08
2.066856525824315180e-08
1.631721827753734292e-08
1.263461900320139705e-08
9.574334088100069721e-09
7.167486848419899181e-09
5.371364478505424892e-09
4.021848480298686207e-09
3.007347902569520472e-09
2.267409811660892138e-09
1.720082080532216568e-09
1.315580467483529164e-09
1.012421026780769540e-09
7.819314374024951038e-10
6.039660764061387202e-10
4.647492387311436095e-10
3.549401097055731161e-10
2.681176631005416342e-10
1.997539234786169433e-10
1.464543036449986368e-10
1.055015855399188947e-10
7.460383026330180634e-11
5.177051395687750955e-11
3.526616154611757018e-11
