# bin_9_2
3.378930546748713873e-08
2.972537144802057990e-08
2.544589545148850384e-08
2.125206511764456968e-08
1.740283879705600328e-08
1.404552123884237340e-08
1.119434439276732276e-08
8.775775492001242759e-09
6.732563845365827893e-09
5.080352626546866775e-09
3.829194564724225072e-09
2.895720922346739489e-09
2.189191317609736770e-09
1.668419182445237688e-09
1.283518452215725126e-09
9.967177003666802094e-10
7.800450580217762929e-10
6.132630545200636789e-10
4.823047970571782665e-10
3.777248580503719019e-10
2.933014103822031811e-10
2.249223312803833040e-10
1.697888517033503614e-10
1.258475344084703121e-10
9.142644423031665770e-11
6.503923828267866235e-11
4.530067408523753320e-11
3.091404484355275416e-11
2.069840290225436039e-11
1.362349341566624594e-11
8.834439237238668312e-12
