# bin_3_3
3.176421359938442642e-08
2.795930506875793295e-08
2.396481212858094422e-08
2.004633938100534436e-08
1.643439062360767733e-08
1.326715871867811700e-08
1.057211511841128410e-08
8.297331290730120569e-09
6.386329039197122858e-09
4.832048627018620189e-09
3.640403705952794011e-09
2.754102129115409753e-09
2.084595321864905425e-09
1.587099958483254184e-09
1.220242837462607292e-09
9.462215182077248275e-10
7.393540673411632379e-10
5.802984580710540169e-10
4.556615725931913889e-10
3.563894800724909619e-10
2.764739514600337470e-10
2.119175396186770838e-10
1.599784323088089334e-10
1.186449552884848618e-10
8.628981138929445508e-11
6.148259166064760354e-11
4.290710564451344513e-11
2.934414772415099101e-11
1.969071022483597988e-11
1.298743670381140790e-11
8.437774291356731578e-12
