# bin_6_6
5.592049978896150399e-08
5.158377385555109205e-08
4.633968748304387742e-08
4.050773193340869342e-08
3.448247143861121477e-08
2.866840425638470573e-08
2.338950641817611389e-08
1.880951085894644944e-08
1.492606609756431740e-08
1.164188360812796297e-08
8.889000382306860990e-09
6.680621916782254499e-09
5.013457663098021446e-09
3.770517478053075607e-09
2.829532588709421649e-09
2.138669164645724252e-09
1.628633136299798937e-09
1.250550394197873644e-09
9.667707558715699314e-10
7.506089691099925576e-10
5.831465072037369925e-10
4.515093362095936647e-10
3.470303841664779610e-10
2.638153209615571495e-10
1.977581263916150009e-10
1.458241217033917037e-10
1.055920530824166669e-10
7.500444737949394832e-11
5.224412040862059116e-11
3.569564092943561395e-11
2.394500007060635777e-11
