# bin_13_6
6.845825818402678789e-08
6.415920513019894457e-08
5.858749163596693634e-08
5.204804503302110469e-08
4.497162659016073695e-08
3.785785623796486810e-08
3.118132355872644394e-08
2.526348286039042928e-08
2.020748847879846632e-08
1.592736035550378766e-08
1.229115879183240541e-08
9.276017163971275252e-09
6.938106315245371099e-09
5.207543727881358696e-09
3.894149004000862034e-09
2.916362165784407595e-09
2.202777735785578038e-09
1.675299061720000431e-09
1.284491879815186424e-09
9.910694963285338465e-10
7.671820276412421410e-10
5.936098454965327534e-10
4.572938350635484629e-10
3.493914692761471224e-10
2.638460510212321240e-10
1.963746968938061717e-10
1.437358566213097804e-10
1.033060157066083851e-10
7.284410880417501078e-11
5.038368275420015780e-11
3.419824607729357652e-11
