# bin_2_1
1.669199814398111962e-08
1.404921931682106785e-08
1.157888208294755533e-08
9.387006591679061398e-09
7.508459553759832224e-09
5.920617657400190454e-09
4.586452779972555382e-09
3.493262334585484649e-09
2.642093447615068501e-09
2.004500712418631355e-09
1.525930794518116885e-09
1.167748531685789841e-09
9.028237503171744928e-10
7.046329611450604643e-10
5.544353028254065582e-10
4.383586943843219238e-10
3.467906427543243999e-10
2.732514171787756995e-10
2.134939298388872255e-10
1.647460195615997324e-10
1.251431964333655099e-10
9.333474212554188631e-11
6.822508313122309716e-11
4.882959963317161877e-11
3.421344382045695349e-11
2.348397516088088392e-11
1.581233530717990728e-11
1.046369754443085197e-11
6.820016621715465640e-12
4.388126885630913133e-12
2.793278029948589495e-12
