# bin_6_4
4.674199756619762342e-08
4.242882277715830608e-08
3.748217151762249844e-08
3.222630319424002133e-08
2.702124150347958499e-08
2.219075690142637064e-08
1.793880454267383578e-08
1.431566947860650984e-08
1.125291975109559408e-08
8.666957151969422268e-09
6.547822937968451141e-09
4.917282613646846635e-09
3.706721240644264860e-09
2.790169914785281104e-09
2.109274555338237276e-09
1.609239472559170705e-09
1.237632137867447540e-09
9.594056980270941815e-10
7.476981157078300221e-10
5.837006557439554715e-10
4.545669791180180016e-10
3.516761896450879785e-10
2.692443487092376287e-10
2.033094056843755111e-10
1.510157160488290608e-10
1.101249621111751536e-10
7.874185338790187094e-11
5.517702704967788254e-11
3.789918219121083050e-11
2.553924392702493691e-11
1.690949413701852802e-11
