# bin_8_4
1.028325070015778124e-09
1.146776363917722556e-09
1.254040045413452826e-09
1.338077505335403691e-09
1.383930529068780622e-09
1.379567281765610302e-09
1.306350986331024891e-09
1.168223363212217770e-09
9.877424002052355900e-10
8.085277228003231586e-10
6.747890185638670957e-10
5.838322079674212557e-10
4.739899699715441646e-10
3.325736148725524002e-10
2.537788754911170643e-10
1.923605250125869307e-10
1.333893529373971608e-10
9.565451284219097532e-11
6.846869850852127095e-11
4.800075478358680295e-11
3.383211425732004935e-11
2.412140526633591721e-11
1.744767560756245767e-11
1.284274728330157132e-11
9.637360384418264578e-12
7.351488945377720402e-12
5.677243885840787947e-12
4.410564474321958576e-12
3.422157664919165527e-12
2.633583917793566977e-12
1.998374830310014911e-12
