# bin_4_3
3.244816045206460378e-06
3.507713568077228210e-06
3.690788181086485131e-06
3.755053187521221689e-06
3.662886917146016183e-06
3.379791900730712528e-06
2.949117462840246822e-06
2.446974063251152967e-06
2.007651928555377865e-06
1.707165968248795538e-06
1.457622059113216015e-06
1.109400839856395302e-06
7.840841960584988397e-07
6.266208104885614660e-07
4.402713951673035016e-07
3.276113898731285131e-07
2.311729240668535217e-07
1.673143337945492263e-07
1.213787967851439479e-07
8.896535574439607929e-08
6.627288533508207188e-08
5.021520810850068219e-08
3.871475682645160295e-08
3.023299742950803315e-08
2.376535504842926631e-08
1.867912973830880016e-08
1.457653600980874220e-08
1.122280588814545955e-08
8.479839984742718898e-09
6.261736010652085646e-09
4.506243378981835072e-09
