# bin_4_4
6.110809803004020962e-06
6.657154066472582978e-06
7.072513446313449108e-06
7.278669203284722993e-06
7.210979601544462703e-06
6.778117067427912287e-06
6.020641756677635531e-06
5.062519723477623132e-06
4.144226912399176414e-06
3.475834838619732705e-06
2.998724944747604027e-06
2.393346367339795503e-06
1.681492950317536940e-06
1.304570889215143546e-06
9.688069915941046688e-07
6.909256031708686129e-07
4.951716723855240647e-07
3.586426989562990663e-07
2.572503232057254674e-07
1.863691078603838910e-07
1.370951233334970353e-07
1.025758647526916893e-07
7.813605682430986932e-08
6.045956260094201606e-08
4.725733586458087769e-08
3.707964929760457846e-08
2.900106431328679545e-08
2.245738850941441415e-08
1.711808828141362041e-08
1.278362049467942242e-08
9.319888645435475254e-09
