# bin_11_8
1.924491974668411549e-07
2.182695022435799164e-07
2.436378944858298952e-07
2.666378427541921187e-07
2.847004763488032256e-07
2.946185208304596940e-07
2.938560452738701161e-07
2.783469679399382311e-07
2.489484546099657028e-07
2.104504334991677564e-07
1.722401198870224520e-07
1.438068613860173827e-07
1.245678325726460276e-07
1.011339828905966310e-07
7.064819463313388829e-08
5.396188908667566860e-08
4.073918897359749573e-08
2.803633766314654987e-08
1.983869995246493137e-08
1.405514308194750451e-08
9.647253096487188840e-09
6.605405967421121628e-09
4.550704348801812911e-09
3.161267291507319436e-09
2.224895921587598301e-09
1.595225744633026749e-09
1.166475767178656569e-09
8.704227482410877227e-10
6.606743120439312644e-10
5.072169868046709465e-10
3.910014284901872997e-10
