# bin_10_2
2.191260250451046999e-20
2.456404444201507779e-20
2.703290999286559553e-20
2.907315020164560929e-20
3.037243049776579315e-20
3.063321638393017913e-20
2.948733440946197584e-20
2.679419545180560141e-20
2.302090622146809457e-20
1.892711494192609076e-20
1.561930798602293148e-20
1.344959111579721314e-20
1.129529603081661160e-20
8.191684441483264770e-21
5.925396255776708514e-21
4.733319778110002998e-21
3.168163110968065705e-21
2.372094465413768164e-21
1.652629121032950913e-21
1.148931912699072633e-21
8.067064418114555164e-22
5.687119399460235911e-22
4.055863250737336680e-22
2.935752783920786604e-22
2.167731952093018029e-22
1.630402265307844730e-22
1.245719167884349151e-22
9.621235309234400756e-23
7.458952929954783933e-23
5.762564593385726658e-23
4.406878704759594557e-23
