# bin_8_4
1.080152410539287246e-09
1.202906593799196552e-09
1.313187938315328826e-09
1.398227501575987587e-09
1.442303916107462533e-09
1.433069125599428865e-09
1.351144522219498281e-09
1.203346468496368844e-09
1.013494241724770269e-09
8.291920887540629371e-10
6.943729523291844347e-10
6.007794597002474694e-10
4.826403763500048912e-10
3.368676793208633145e-10
2.605784622276494595e-10
1.941543159442280515e-10
1.365711488238932839e-10
9.671355556821291481e-11
6.950679460890453988e-11
4.888156967701725351e-11
3.453458654819758859e-11
2.470861773652910816e-11
1.793778702066043556e-11
1.325850161748272621e-11
9.987515260097327016e-12
7.642830700930316120e-12
5.915216332921630251e-12
4.599875467325023062e-12
3.568144031228414832e-12
2.742233451353072088e-12
2.076181303120786134e-12
