# bin_11_6
2.864557894116390173e-10
3.239775820055031442e-10
3.603772772290132233e-10
3.927211635830858641e-10
4.171056599636436253e-10
4.287856706604716866e-10
4.241403064323457000e-10
3.974487896376766364e-10
3.519085312047263112e-10
2.947452610131819643e-10
2.410831539106200403e-10
2.030479867517847282e-10
1.756764892307853460e-10
1.386849374514835855e-10
9.597636087289032240e-11
7.573946247505410509e-11
5.456936348952644874e-11
3.909555507953817119e-11
2.678333174598069319e-11
1.905130363814846264e-11
1.318086217812986492e-11
9.096032652414713360e-12
6.326329299787962836e-12
4.439984813728930463e-12
3.166363986540681859e-12
2.302161932397927631e-12
1.706824016535856098e-12
1.289127865323133664e-12
9.871596791522645382e-13
7.614236329705741219e-13
5.871512725184182838e-13
