# bin_10_2
2.256146347733868876e-20
2.525787877188914159e-20
2.775154018414356945e-20
2.978618802695665180e-20
3.103809392705530206e-20
3.121375111681561544e-20
2.991976666737849456e-20
2.707189973337275385e-20
2.315884745391514947e-20
1.901010901488224200e-20
1.572801433877001356e-20
1.357081337701572346e-20
1.131040762294382427e-20
8.116472957032879483e-21
5.950088833908540144e-21
4.703587454142320820e-21
3.162672963936303711e-21
2.348554638966765958e-21
1.649432503422378263e-21
1.148078143155919043e-21
8.064269449787758687e-22
5.698751893432012717e-22
4.079147442572598728e-22
2.965948420434390476e-22
2.199848588792690659e-22
1.661238311124513288e-22
1.273349774226152922e-22
9.853783581581904509e-23
7.643626447161903196e-23
5.900824236495583772e-23
4.504200275059819349e-23
