# bin_14_10
6.293867600332612096e-08
7.187707957652200155e-08
8.094647503391259679e-08
8.955024012393820652e-08
9.690576969030198432e-08
1.020010122147760615e-07
1.037331636182681439e-07
1.010534517441989188e-07
9.296239136075073447e-08
8.086520890087902026e-08
6.685874791729001442e-08
5.486259122512701570e-08
4.692054272580387130e-08
4.012369892843197192e-08
3.000863941255265946e-08
2.099699815367827160e-08
1.705518075472902472e-08
1.136914384946449100e-08
8.553015272571874223e-09
5.761947721823932546e-09
3.935825214293976458e-09
2.694726994720321356e-09
1.830068456433051857e-09
1.239727418609377975e-09
8.422904558880478234e-10
5.797387772129991285e-10
4.054493916710858894e-10
2.892843642737728662e-10
2.110884719804433451e-10
1.573390821812942828e-10
1.192865450625446755e-10
