# bin_7_7
4.694977298185874991e-06
5.253830561490464051e-06
5.769495739575841256e-06
6.188454812057138409e-06
6.443202205332267993e-06
6.473479745368701209e-06
6.196687578205455403e-06
5.599380118424993912e-06
4.783533770604311762e-06
3.924938296852788012e-06
3.250204296492991115e-06
2.805837777785005168e-06
2.332282630974258972e-06
1.668607840175013799e-06
1.228683961497020441e-06
9.673839910800411154e-07
6.520577617753882085e-07
4.825705078217079315e-07
3.397579206535462617e-07
2.366308765494997039e-07
1.662445438446412709e-07
1.175819847164398908e-07
8.426365691599845143e-08
6.135452147426018461e-08
4.556928473586889960e-08
3.445397680427357030e-08
2.643400196776325379e-08
2.046687408723965227e-08
1.587799592995024326e-08
1.225408582679475335e-08
9.347851765845288464e-09
