# bin_15_9
3.162220223058590904e-10
3.613234188401232440e-10
4.071897589606348766e-10
4.508361767098212420e-10
4.883560113642665719e-10
5.146774803907683603e-10
5.241576931047573149e-10
5.116857904445496915e-10
4.718227497676346035e-10
4.113773223866259993e-10
3.405812737337201438e-10
2.792638516914083310e-10
2.384245128410673814e-10
2.043908314075657426e-10
1.538813991117204636e-10
1.072466720414865548e-10
8.707044060791932890e-11
5.838534997429392360e-11
4.381044659401993113e-11
2.941987446436560417e-11
2.015213143569081312e-11
1.379062306703166598e-11
9.358981311413630867e-12
6.329571320844753933e-12
4.289627094126387684e-12
2.942886839876638520e-12
2.050317925979735362e-12
1.456735280811688598e-12
1.058565398687472750e-12
7.861696902511954399e-13
5.944500135583490823e-13
