# bin_10_7
1.259952831145286534e-07
1.421863400761674420e-07
1.577413392758823847e-07
1.713381863466707678e-07
1.812383222262921325e-07
1.854057919329463300e-07
1.821937077856396214e-07
1.693536420818438643e-07
1.488113201809898884e-07
1.238790577251118342e-07
1.013930873327965431e-07
8.596143398762733412e-08
7.411900151746128872e-08
5.720377951982801701e-08
3.962583476598109936e-08
3.183172433938639666e-08
2.215761336019473366e-08
1.633172069381831607e-08
1.107583876386749943e-08
7.817575002268115450e-09
5.444035480401903771e-09
3.786758061278027861e-09
2.651417591477131314e-09
1.875255124521534841e-09
1.350196076912603642e-09
9.913166669119808129e-10
7.417663627003537863e-10
5.644645892717524716e-10
4.343775048320800651e-10
3.356921096295558443e-10
2.585913762609907877e-10
