# bin_7_5
6.040130406634132870e-07
6.716469897832568112e-07
7.318738540199395321e-07
7.774844163760035129e-07
7.997303191466744693e-07
7.917494490659218136e-07
7.430521886561576948e-07
6.589114653505196334e-07
5.528212597389813588e-07
4.522273858379042189e-07
3.800918617280952660e-07
3.285904312727686780e-07
2.608623763169101354e-07
1.815271237436025789e-07
1.422305128901326850e-07
1.040175002500164368e-07
7.433813448334606025e-08
5.208104937204295709e-08
3.747703206884149333e-08
2.644910742624538399e-08
1.874815687331709127e-08
1.346358513376722892e-08
9.811344862929388064e-09
7.282822296179821222e-09
5.507176234782435245e-09
4.227370054218698122e-09
3.278430189136069860e-09
2.551305853855476709e-09
1.978074201709827066e-09
1.517797759888569280e-09
1.146314355053290084e-09
