# bin_4_4
4.030824095778468532e-08
3.617417343694850613e-08
3.159673444456775986e-08
2.688146943124284504e-08
2.234040889980263786e-08
1.822211006854107690e-08
1.465167020327616151e-08
1.162643941652271150e-08
9.071479891847405238e-09
6.934281851914733627e-09
5.223004132176980398e-09
3.931541274017224899e-09
2.968531480770521079e-09
2.240171544722458866e-09
1.704248413660131246e-09
1.307515088693389946e-09
1.011854877588766860e-09
7.883755390380857339e-10
6.165754762261925427e-10
4.820931204028309394e-10
3.752440361911330229e-10
2.895749595788660475e-10
2.207380792416321630e-10
1.657065616049586323e-10
1.222166804099222920e-10
8.841765143981676347e-11
6.268697290707530176e-11
4.354917733556470888e-11
2.966141700255472282e-11
1.983111478936986786e-11
1.303767958642766495e-11
