# bin_7_2
3.231026860487638760e-08
2.836122430093444808e-08
2.423086316068045576e-08
2.020566951382388999e-08
1.652625854887922064e-08
1.332436696730196423e-08
1.060706048965501428e-08
8.303802977266391255e-09
6.363451279836409211e-09
4.800962993883798487e-09
3.620012425239674901e-09
2.738238685127881793e-09
2.071526821760453012e-09
1.580296907852921301e-09
1.216865218178255845e-09
9.457805973196725994e-10
7.406406361578583401e-10
5.824532174378404807e-10
4.580407930824429087e-10
3.585698015493597679e-10
2.782229907570413097e-10
2.131491356375541167e-10
1.607139396004210021e-10
1.189687949859169266e-10
8.631448862247246493e-11
6.132222596117165760e-11
4.265884647886309998e-11
2.907859392496198507e-11
1.945057208595954492e-11
1.279183527966367241e-11
8.289776987382497259e-12
