# bin_15_1
2.337618562355911957e-08
1.996663738514551003e-08
1.665034009988909270e-08
1.362320854874717881e-08
1.098876890764697452e-08
8.748191925058022122e-09
6.846126095597589489e-09
5.248496768685167574e-09
3.967772516628234286e-09
2.998078916870242003e-09
2.272693883068131027e-09
1.726502046603657633e-09
1.323013927482917206e-09
1.024221988816796074e-09
8.005557430988791582e-10
6.304578292728638462e-10
4.983946859791418149e-10
3.937135600610718465e-10
3.093408870656736329e-10
2.406739489667088038e-10
1.847037043949227383e-10
1.393813455518385615e-10
1.031774111852528473e-10
7.480649463288143473e-11
5.308420544222571903e-11
3.687543942243365227e-11
2.510020992858931449e-11
1.676847677530171838e-11
1.101767415439464683e-11
7.136065497802698234e-12
4.566620919052122578e-12
