# bin_8_6
6.116682459928403355e-08
5.685616114100548017e-08
5.148275309028595902e-08
4.535924622671828959e-08
3.889520016821721898e-08
3.253552701730343297e-08
2.666867296213143707e-08
2.152580960321604762e-08
1.714937786708423673e-08
1.344644749943719340e-08
1.032120152740101783e-08
7.771895844622741134e-09
5.821688452172586473e-09
4.373659922295570570e-09
3.275644723721968243e-09
2.464002883081557332e-09
1.868461623667549013e-09
1.427708933948909802e-09
1.099121868801918096e-09
8.507069670018781805e-10
6.597502693349166831e-10
5.106920425577219774e-10
3.930078426297329655e-10
2.995585033938865208e-10
2.254171055714783133e-10
1.670267760998037262e-10
1.216264495134961819e-10
8.692698557073055859e-11
6.093941141911177656e-11
4.190643666220327622e-11
2.828716112967127819e-11
