# bin_12_4
5.392940912371284857e-08
4.943628772645070894e-08
4.409286550632335073e-08
3.824310077333516403e-08
3.230047315713157983e-08
2.667351234348764713e-08
2.165595051029545843e-08
1.735902798059062295e-08
1.372274653571641489e-08
1.062967219695219641e-08
8.049519059792025786e-09
6.034570347786050558e-09
4.541847858203320248e-09
3.411543295014576457e-09
2.566073675791836368e-09
1.948596953933157302e-09
1.490951712666801626e-09
1.150863600338077820e-09
8.942150439499799206e-10
6.971248523478171967e-10
5.431111703231894327e-10
4.210585390834500720e-10
3.235315533208335597e-10
2.454954383876483151e-10
1.834189208266783283e-10
1.346278124565030745e-10
9.692594355743137862e-11
6.839228157959232457e-11
4.729320180333706540e-11
3.206966756071603679e-11
2.135250387694814076e-11
