# bin_6_4
4.650620590726645490e-08
4.220646439937440332e-08
3.727801787309272997e-08
3.204419576052667497e-08
2.686355553989679083e-08
2.205795712295194517e-08
1.782936667369041531e-08
1.422671624691383743e-08
1.118113553145395259e-08
8.609800643704967754e-09
6.503482645712873826e-09
4.883709008569732567e-09
3.681172723488895349e-09
2.770621854724257052e-09
2.094468656179637734e-09
1.597895305565005413e-09
1.228919689156384545e-09
9.526680246276268323e-10
7.424695327755033155e-10
5.796404432137819391e-10
4.514237020819323510e-10
3.492597390878638248e-10
2.674066912390474358e-10
2.019319798174807367e-10
1.500008317191749361e-10
1.093913947951770592e-10
7.822236334575789292e-11
5.481675908682191208e-11
3.765445903553219845e-11
2.537627399217570016e-11
1.680293721593392066e-11
