# bin_13_6
6.815452371137104595e-08
6.386457358490687165e-08
5.830830528287161220e-08
5.179030594023192667e-08
4.474036813866323129e-08
3.765648899302369457e-08
3.101097515884150203e-08
2.512277325882584249e-08
2.009293767868510574e-08
1.583478076970620293e-08
1.221706467658537750e-08
9.218262234237519491e-09
6.894452570552881298e-09
5.174484455219804425e-09
3.868858860992013829e-09
2.897362688398069826e-09
2.188310931782913851e-09
1.664297959912422193e-09
1.276064675174076311e-09
9.845936667642080173e-10
7.622000799450758888e-10
5.897849302281344941e-10
4.543736606266234578e-10
3.471822270915051586e-10
2.621957297633059258e-10
1.951605243253555643e-10
1.428577983026003946e-10
1.026827206483251980e-10
7.241010957034575325e-11
5.008730009826623641e-11
3.399962262830462853e-11
