# bin_12_3
4.519484290761788338e-08
4.075089519307420708e-08
3.573180365722442314e-08
3.048395950745119219e-08
2.538087707794865159e-08
2.073251789153111109e-08
1.670206065954770236e-08
1.328696061155323407e-08
1.038542509440136521e-08
7.933559285816074546e-09
5.965136905791246755e-09
4.489148376217194877e-09
3.384933596860821579e-09
2.548149825842960821e-09
1.935772584084376061e-09
1.482507983960294872e-09
1.146112799596144522e-09
8.926954255994021808e-10
6.984730218073225120e-10
5.467757301328592183e-10
4.263611073821487197e-10
3.297697392713426156e-10
2.520178734966822848e-10
1.896882433573722879e-10
1.402644745198136868e-10
1.017134833341362652e-10
7.225973470367601306e-11
5.028122851646611713e-11
3.428823474781892739e-11
2.294377770060846575e-11
1.509213371305831617e-11
