# bin_10_4
5.237255422070216884e-08
4.791998699315027694e-08
4.266359371088413706e-08
3.694300653766629694e-08
3.116018678007135533e-08
2.570548743900123244e-08
2.085339513864769146e-08
1.670208218567934896e-08
1.318968915429385849e-08
1.020603986495810968e-08
7.725264168501721163e-09
5.793195560410838569e-09
4.361334922974234464e-09
3.277120489069098654e-09
2.467161909301966701e-09
1.875042989346110470e-09
1.435994768856531031e-09
1.109295438153483519e-09
8.623890717423136337e-10
6.724846092459891988e-10
5.238814157768527217e-10
4.060000929614355109e-10
3.117604350214595372e-10
2.363588396715178427e-10
1.764101176792697567e-10
1.293349539719690053e-10
9.300321810078016877e-11
6.554506465270165111e-11
4.527164731493565081e-11
3.066584353090284459e-11
2.039830755467925647e-11
