# bin_10_8
7.307799702165046986e-08
6.900105005233946910e-08
6.353188052051875708e-08
5.694592028838010946e-08
4.965639176053866123e-08
4.216573960607612291e-08
3.498003484467360032e-08
2.849065568224660095e-08
2.287964318506539878e-08
1.812315104986041714e-08
1.409313602962682976e-08
1.071720587340829107e-08
8.025534319416045547e-09
6.005217210741807560e-09
4.494483468965521643e-09
3.352120931022559027e-09
2.518468362186347158e-09
1.903449255745717558e-09
1.450388188519977424e-09
1.112424157733060756e-09
8.570291330894799230e-10
6.610266219391924724e-10
5.085157581962319139e-10
3.887052244864158854e-10
2.941929817234386988e-10
2.198088778837935575e-10
1.617456124812311242e-10
1.170132453614318099e-10
8.313273867775506709e-11
5.797470951630887630e-11
3.969080139301428976e-11
