# bin_8
0.000000000000000000e+00
1.252069524102617040e-264
1.020070325442746134e-226
4.635523327181935829e-195
2.902438001723309004e-168
1.966124178793077727e-145
6.943038114948199160e-126
4.440255437767333055e-109
1.402086589629265953e-94
4.947053426860474774e-82
3.814393044217611989e-71
1.119405482485443973e-61
1.984533524547269657e-53
3.129272439182861859e-46
6.078310525678595866e-40
1.915773131034246632e-34
1.238342442806405685e-29
2.004942593562721200e-25
9.650571789900494474e-22
1.600422106903133858e-18
1.038613275066288703e-15
2.945402817087724076e-13
4.017828015990346634e-11
2.866577665898805851e-09
1.151061678532590849e-07
2.774313339406283649e-06
4.247849600257846216e-05
4.344250534127876498e-04
3.102410321097363432e-03
1.609468869243500452e-02
6.282586609045169579e-02
1.903943803857957584e-01
4.605518165974707423e-01
9.112374544780784680e-01
1.506585683076957949e+00
2.120306935290074524e+00
2.580746139855437438e+00
2.753832366277292110e+00
2.606412725449556156e+00
2.210325256255887716e+00
1.694512324304002560e+00
1.183788285280472863e+00
7.590996609661989636e-01
4.498085545850204481e-01
2.478367264667808434e-01
1.277144541302270009e-01
6.188949694356748327e-02
2.834728471755596640e-02
1.233090825757958940e-02
5.116838684583987010e-03
2.033919274202767181e-03
2.744910651480705899e-03
1.136713291952901658e-03
4.569565756174632067e-04
1.788641481450764341e-04
6.836273250746303194e-05
2.557957503966643752e-05
9.392647163291374841e-06
3.392074548724967976e-06
1.207291372940732903e-06
4.242725469099761750e-07
1.474741811550618837e-07
5.078290255489342189e-08
1.734947690640501849e-08
5.888549113924267935e-09
1.988024440717470671e-09
6.683769163303126315e-10
2.240071999531559312e-10
7.491359356374890955e-11
2.502075243358845007e-11
8.352807026855462775e-12
4.826389028355421641e-12
