# bin_6_6
-1.785291775055468800e-08
-1.987352908425975574e-08
-2.168304684893787913e-08
-2.306911108961349703e-08
-2.377199463698747802e-08
-2.358674055731707482e-08
-2.219745882570236859e-08
-1.973574571902572204e-08
-1.659817420330245911e-08
-1.358350878204036042e-08
-1.139729295919036306e-08
-9.858799789264997096e-09
-7.878861954834685832e-09
-5.495251064978402428e-09
-4.275490025810639994e-09
-3.159570186559994781e-09
-2.239124485199213671e-09
-1.579055740746000457e-09
-1.135245807116759748e-09
-7.998616078938489609e-10
-5.661477684641420619e-10
-4.058409525683824218e-10
-2.952045153076977731e-10
-2.186635774931521963e-10
-1.650345151433086015e-10
-1.264879578046356733e-10
-9.799871678911220292e-11
-7.624134908294694137e-11
-5.913394062054012276e-11
-4.541908527540798683e-11
-3.435372883063498637e-11
