# bin_1_9
-6.931849764850489611e-25
-7.724250369840071240e-25
-8.438066146231431380e-25
-8.991396036960719041e-25
-9.283171822560012207e-25
-9.233176305466337478e-25
-8.716613973100129500e-25
-7.772836422419430025e-25
-6.554643371343476016e-25
-5.365142876232228673e-25
-4.490550769663795953e-25
-3.885842046567092761e-25
-3.130023698396819080e-25
-2.188815879036351035e-25
-1.687676489507035866e-25
-1.262841711155784924e-25
-8.856176395920412339e-26
-6.293953406416697962e-26
-4.518084246001337912e-26
-3.175913267592881652e-26
-2.243345658561005154e-26
-1.604118761892125855e-26
-1.163797668108285877e-26
-8.595318276554262670e-27
-6.470024551163968474e-27
-4.948107150402352390e-27
-3.828083949526172514e-27
-2.976485618349551973e-27
-2.309257295788198200e-27
-1.775518987780462624e-27
-1.345169916695117684e-27
