# bin_1_1
-8.177243777436302240e-08
-8.042534974695107050e-08
-7.521259939547423141e-08
-6.659889026460795527e-08
-5.613549404864971919e-08
-4.625648849538132716e-08
-3.880507776687572844e-08
-3.294021414711562494e-08
-2.614695232248784346e-08
-1.906999330095234384e-08
-1.449663491841926096e-08
-1.091894575105428316e-08
-7.917277133768531491e-09
-5.851894707686736721e-09
-4.311184385537654978e-09
-3.215791693544210015e-09
-2.438222233875496773e-09
-1.882653202392735824e-09
-1.478590401581819638e-09
-1.176221179187565103e-09
-9.418783455045779280e-10
-7.535230605490192969e-10
-5.979453723931662132e-10
-4.675667142298845272e-10
-3.582741342460083376e-10
-2.678824490967393624e-10
-1.949779858599671844e-10
-1.380729971272820154e-10
-9.525863337875250436e-11
-6.419334868264780351e-11
-4.238971615866881510e-11
