# bin_2_5
-3.295345943414763135e-11
-3.572401627847294986e-11
-3.771859505034472269e-11
-3.852768594559826043e-11
-3.778647241203279484e-11
-3.507864122115490581e-11
-3.078979502162588331e-11
-2.564516820986762094e-11
-2.101496155255690255e-11
-1.780279061768762673e-11
-1.528362403821408605e-11
-1.180932420821013110e-11
-8.292669686025915545e-12
-6.605441293994426129e-12
-4.701659694024073862e-12
-3.468998768673467373e-12
-2.446960873674575553e-12
-1.774556582816738553e-12
-1.283764837254308315e-12
-9.377394641408069474e-13
-6.960196774335387161e-13
-5.254359681886685175e-13
-4.037443458359445147e-13
-3.145309540090419273e-13
-2.469262645629702746e-13
-1.940696386623718701e-13
-1.516211853492754956e-13
-1.169960879291561546e-13
-8.867739772538607925e-14
-6.573380510495601627e-14
-4.750777526789366162e-14
