# bin_8_9
-9.715875612482199283e-09
-1.097517536857840491e-08
-1.218954872285694126e-08
-1.325769538965128813e-08
-1.404576191868895054e-08
-1.439483217794628487e-08
-1.417907211711046483e-08
-1.321710435111002792e-08
-1.164517265695147267e-08
-9.715052585431091076e-09
-7.951643808468884829e-09
-6.729373393413084831e-09
-5.811103783546451064e-09
-4.518443712375839886e-09
-3.128357859600282464e-09
-2.500831545838920470e-09
-1.759921369795761621e-09
-1.286394761096728839e-09
-8.745775600744752901e-10
-6.192680288059781090e-10
-4.304885850632797129e-10
-2.987804683515701780e-10
-2.088298057827928874e-10
-1.473849056522357583e-10
-1.058344270634076988e-10
-7.749195939175278531e-11
-5.783609455195838240e-11
-4.392180095174644591e-11
-3.375656644229877582e-11
-2.607765485511067123e-11
-2.009842218923085882e-11
