# bin_7_5
-2.159270739162317624e-09
-2.404996782024006316e-09
-2.625765510626401314e-09
-2.795984303280541463e-09
-2.884182099925107594e-09
-2.865515464700639415e-09
-2.701319590619187669e-09
-2.405572876297398963e-09
-2.026000004105194224e-09
-1.658114773428964449e-09
-1.389379806101820575e-09
-1.202191037387814334e-09
-9.649275824911384462e-10
-6.737491320704065276e-10
-5.217559878313960865e-10
-3.881960784471248146e-10
-2.735341488805320315e-10
-1.936455355059903995e-10
-1.391559295933623055e-10
-9.792021919882480263e-11
-6.922583654791548408e-11
-4.955756441195638931e-11
-3.599765113769629065e-11
-2.662262848309024034e-11
-2.006490082624039684e-11
-1.536088800296800608e-11
-1.189221770323917897e-11
-9.249399698086819673e-12
-7.175269546499517982e-12
-5.514333655980480768e-12
-4.174668085622957280e-12
