# bin_2_1
-2.313882746019237560e-08
-2.354044701018354087e-08
-2.297443153623443301e-08
-2.125459990072635450e-08
-1.860624809001886417e-08
-1.551736748381823519e-08
-1.276186099550650254e-08
-1.079683328655081794e-08
-9.167830031029320083e-09
-7.082569702958594872e-09
-5.091408789772870768e-09
-3.972705323911413960e-09
-2.900832784721115332e-09
-2.128222242081581781e-09
-1.550319195634370923e-09
-1.141821251914035220e-09
-8.474154462471789128e-10
-6.391472581147454782e-10
-4.909923623144747681e-10
-3.836055703034057604e-10
-3.037249202608742141e-10
-2.421686982231106836e-10
-1.930142064798852901e-10
-1.526855627267125497e-10
-1.190893881292536477e-10
-9.106251057792220234e-11
-6.796558880502603857e-11
-4.938197899507676337e-11
-3.490229271259015972e-11
-2.402821086087505615e-11
-1.615479007097387660e-11
