# bin_9_10
-9.635911113120572624e-09
-1.092730644602903684e-08
-1.219445212644567065e-08
-1.334090932389382438e-08
-1.423734694212376086e-08
-1.472260679375576339e-08
-1.467064254753767078e-08
-1.387747448824042140e-08
-1.239619406630347223e-08
-1.046661143325736288e-08
-8.567013970709469374e-09
-7.164152882126988990e-09
-6.207570883537638988e-09
-5.020737048023746883e-09
-3.500684631368320205e-09
-2.689034907004493958e-09
-2.016672288141254328e-09
-1.396306524829352266e-09
-9.825553284677989240e-10
-6.975135806690413885e-10
-4.794337544907047371e-10
-3.286364700334685611e-10
-2.268128131929355401e-10
-1.578615400439517461e-10
-1.113667529013657611e-10
-8.004982775565921101e-11
-5.868195061876391317e-11
-4.388710705240068362e-11
-3.336892978902222714e-11
-2.564472442682726856e-11
-1.977488556043137217e-11
