# bin_4_5
-1.189692304870761967e-08
-1.305399212637465359e-08
-1.399182726248121991e-08
-1.455823218864032530e-08
-1.461680024924339061e-08
-1.398453586335342736e-08
-1.263522210846486013e-08
-1.079588402083364448e-08
-8.864552519477365386e-09
-7.344417908355970419e-09
-6.331217007806591742e-09
-5.254503182707812650e-09
-3.779006387746750922e-09
-2.789669706460603031e-09
-2.192625565520235910e-09
-1.500506760359958669e-09
-1.114996663907337329e-09
-7.939652394901083878e-10
-5.642044320635187340e-10
-4.057303447161994400e-10
-2.950923389357895348e-10
-2.180916029860789844e-10
-1.640059090777274687e-10
-1.255596004123638356e-10
-9.740768663167894161e-11
-7.614179915426842772e-11
-5.957153426123644683e-11
-4.631689929254125898e-11
-3.556368874616057291e-11
-2.682546259949058656e-11
-1.979575087865837997e-11
