# bin_13_13
-1.276965983015093875e-08
-1.460737604648256463e-08
-1.648479783429974566e-08
-1.828271443699662296e-08
-1.984553953309204691e-08
-2.096956550227549840e-08
-2.141938392367684037e-08
-2.099999731932300883e-08
-1.946066262387758383e-08
-1.704983682233269010e-08
-1.415944943979617105e-08
-1.159578399933028716e-08
-9.861961793068175478e-09
-8.490640053031784005e-09
-6.483259087857692464e-09
-4.490913044419974309e-09
-3.630788164707933305e-09
-2.475328472569849138e-09
-1.839509837899666933e-09
-1.229613264859217399e-09
-8.491815760733708043e-10
-5.798983269677530933e-10
-3.925341946877514797e-10
-2.645908706338361519e-10
-1.784201740265451303e-10
-1.215768632095873663e-10
-8.402289404577810202e-11
-5.915757732097987205e-11
-4.259444364106587715e-11
-3.137250816612138756e-11
-2.357080837340137782e-11
