# bin_4_10
-9.743016290918883502e-16
-1.095497585811567274e-15
-1.209953597939926439e-15
-1.306989211303579539e-15
-1.372870919851421000e-15
-1.393169123903298428e-15
-1.352999892197314776e-15
-1.240862567125327104e-15
-1.076141876481609588e-15
-8.886508065422311623e-16
-7.303179649517589610e-16
-6.256950462886820856e-16
-5.327509418543786406e-16
-3.957742470007192778e-16
-2.795931352983626273e-16
-2.263684551271308517e-16
-1.518354641790651159e-16
-1.145182163356312810e-16
-7.856872211303216760e-17
-5.469065299938233226e-17
-3.836234894230634066e-17
-2.693658447301424044e-17
-1.907224308857739918e-17
-1.367896952709359538e-17
-1.000506028179758156e-17
-7.459064356979188400e-18
-5.657739056853962497e-18
-4.348993232474741964e-18
-3.365416632234373338e-18
-2.602839286963298976e-18
-1.997736368819713080e-18
