# bin_13_12
2.684769164463812805e-11
3.067759947185209528e-11
3.457278636915587858e-11
3.827997771537934192e-11
4.146757866062001328e-11
4.370505645465129913e-11
4.451353603474649296e-11
4.345774365051344556e-11
4.007627922075064285e-11
3.494560498093927281e-11
2.893339395207745767e-11
2.372348520134535633e-11
2.025251021761778001e-11
1.736387010359738916e-11
1.307657600705935091e-11
9.112028939283451576e-12
7.397592363048442492e-12
4.961754145425878125e-12
3.722730837407897306e-12
2.499530377732926961e-12
1.712342545080248401e-12
1.171765702755942755e-12
7.951931024445773450e-13
5.377483654414784613e-13
3.644003763469839151e-13
2.499558301067396540e-13
1.741128957229214912e-13
1.236812636949547416e-13
8.985759736003559209e-14
6.672341644857801243e-14
5.044552333542281793e-14
