# bin_15_7
5.037825322610391440e-19
5.748072665589952855e-19
6.465827745655628244e-19
7.143045935400176359e-19
7.716407286139941884e-19
8.104539086307984469e-19
8.222302017148230763e-19
7.980716285598421082e-19
7.312691857506602400e-19
6.335850398926654967e-19
5.227464550834987627e-19
4.296100139826611768e-19
3.684346321144740449e-19
3.135432260477036981e-19
2.318942267669388445e-19
1.636273961545776709e-19
1.326688138942730936e-19
8.785846837129794096e-20
6.617198260686020573e-20
4.485916282135633102e-20
3.055314738913428140e-20
2.092186288922471402e-20
1.421920895747043395e-20
9.660238978994307962e-21
6.592632168304323418e-21
4.562997888198755195e-21
3.211810044781384788e-21
2.307639854245295480e-21
1.695206600073594171e-21
1.270760385149182216e-21
9.672747777117867003e-22
