# bin_10_4
3.640480183694218705e-18
4.092499136102108126e-18
4.519247571935855894e-18
4.880910530330609652e-18
5.126312190823059179e-18
5.201663799953492275e-18
5.051563577037036243e-18
4.633009123138433376e-18
4.018056012219016433e-18
3.317626414720409603e-18
2.725434282146631156e-18
2.333836773541390536e-18
1.987432515712136924e-18
1.477311348311837427e-18
1.042689816175289198e-18
8.441075145008084166e-19
5.663017073938715660e-19
4.269605967119265153e-19
2.927194836781055119e-19
2.037445302707828721e-19
1.428648479961250960e-19
1.002729208795742831e-19
7.096084639037860869e-20
5.086623163219732172e-20
3.718326966311886430e-20
2.770671427198265124e-20
2.100635603721620813e-20
1.614176958016842313e-20
1.248841238491813204e-20
9.657595987749439189e-21
7.412248861407498579e-21
