# bin_11_5
2.635437062176366544e-17
2.976314273928539102e-17
3.304886963558670540e-17
3.593728053547774819e-17
3.806620044137861740e-17
3.900574473604817031e-17
3.841589575948634129e-17
3.580588228719257270e-17
3.154450153957943694e-17
2.631188087608084275e-17
2.152898918506559814e-17
1.821198100612824425e-17
1.572486035129755022e-17
1.223022826948412972e-17
8.463853077782922390e-18
6.762700416236169865e-18
4.761210494828191713e-18
3.477579972525616745e-18
2.363557693423402111e-18
1.673555618933484565e-18
1.162908373640406650e-18
8.067531256828565442e-19
5.636154285573563593e-19
3.975905798846975947e-19
2.853562028393501801e-19
2.088349525531210821e-19
1.557958471602494278e-19
1.182725087777613340e-19
9.087665616842784454e-20
7.019344274523859138e-20
5.409531890065074167e-20
