# bin_13_1
1.977625742268314950e-37
2.240488002229045157e-37
2.497461738625498764e-37
2.728644724752685136e-37
2.907410630741792937e-37
3.000806706695715425e-37
2.983391125275810972e-37
2.813930112507708562e-37
2.506838640024399335e-37
2.111244615666701444e-37
1.727266472817097899e-37
1.447048853375438417e-37
1.253234281059342880e-37
1.006668947446845773e-37
6.999381611196385634e-38
5.418370521023680196e-38
4.017712905703731287e-38
2.807872655535897450e-38
1.959159203286391994e-38
1.392354424162027524e-38
9.585408259123876984e-39
6.580187936271475596e-39
4.550357680812420493e-39
3.173796875023645189e-39
2.245424910663119834e-39
1.618965446314674663e-39
1.190496598751269292e-39
8.928033721999897352e-40
6.802017601916775395e-40
5.233005278582766077e-40
4.035276464856179333e-40
