# bin_13_5
6.732824928047649827e-21
7.642477469990406067e-21
8.539662034433031724e-21
9.357815395500790788e-21
1.000771508824796575e-20
1.037746367476462459e-20
1.037576357267575340e-20
9.860491771751385280e-21
8.846688269671202610e-21
7.501525163740208336e-21
6.142792682151763227e-21
5.115716046855758010e-21
4.429759104703531139e-21
3.624416034845192471e-21
2.545055761331483118e-21
1.922485399195523410e-21
1.470783163924704805e-21
1.001391102030778948e-21
7.171671432731842973e-22
5.057027133686280534e-22
3.463854860452709874e-22
2.369072074644007159e-22
1.627486694234085890e-22
1.127001625455028060e-22
7.899228927718931661e-23
5.638252128332688119e-23
4.103929802969698386e-23
3.049396684328536446e-23
2.306910374362331501e-23
1.767470215130121659e-23
1.361664265043751941e-23
