# bin_14_14
3.319132677185783636e-11
3.803920542218796843e-11
4.302550265192919754e-11
4.784890973175223472e-11
5.211408220739836729e-11
5.529667812779769279e-11
5.676340728812993117e-11
5.603381726927659525e-11
5.235696262426103791e-11
4.623054439670114792e-11
3.861995197483831888e-11
3.159047279353885911e-11
2.668519904741573882e-11
2.307883564466999160e-11
1.804334703056741883e-11
1.244599994127801946e-11
9.914681619124713870e-12
7.004920591592944540e-12
5.068309510145371781e-12
3.400346579506269333e-12
2.384617604559992483e-12
1.619717608531321236e-12
1.088529815419989467e-12
7.298990834971834802e-13
4.885835373667312741e-13
3.293383963990174571e-13
2.246170373385152880e-13
1.557173493201576795e-13
1.102926057782461891e-13
7.997228015977644815e-14
5.930721548358370493e-14
