# bin_15_8
6.586820003834787421e-17
7.520548019047172888e-17
8.466994440042612187e-17
9.363640836819701378e-17
1.012835635145946765e-16
1.065510776925143959e-16
1.082961478376007237e-16
1.054009288366022371e-16
9.686469083224287233e-17
8.417507154352987383e-17
6.955738004425064084e-17
5.709753976372431867e-17
4.886652692122434870e-17
4.174046015811455761e-17
3.112933985036437857e-17
2.182355463153783801e-17
1.772345232333368718e-17
1.179059818670498487e-17
8.875653436692830809e-18
5.988386679447377882e-18
4.086723106464929239e-18
2.798303476085142586e-18
1.900814383995441031e-18
1.288552996462937647e-18
8.764338803147327572e-19
6.040763636244902604e-19
4.231528179348946292e-19
3.024497986877620165e-19
2.210745291389105095e-19
1.650254864010316878e-19
1.252460637715994001e-19
