# bin_11_6
3.635512346876206419e-15
4.111433375223266586e-15
4.572988274170842993e-15
4.982916819009181928e-15
5.291658529344984289e-15
5.439045070865577627e-15
5.379025405648205626e-15
5.039220887450758618e-15
4.460860411397079367e-15
3.735472440923329631e-15
3.055391143748287508e-15
2.573890904562653478e-15
2.226771034750455985e-15
1.756701572301822207e-15
1.215597374639141841e-15
9.599159015637804442e-16
6.908554962352212538e-16
4.954233750194321642e-16
3.392260104244292754e-16
2.412646087904431811e-16
1.669571023052443526e-16
1.152446706666546141e-16
8.017081526671117790e-17
5.628064779676048072e-17
4.014921141604206569e-17
2.920076778112146966e-17
2.165642404426428156e-17
1.636105828120243698e-17
1.253095570647720209e-17
9.666333367259519245e-18
7.453846524176938910e-18
