# bin_11_10
3.010820283641056770e-11
3.423913668906687472e-11
3.834929099724030559e-11
4.214511418544139659e-11
4.523453786690531879e-11
4.712221719565262458e-11
4.736681688383014549e-11
4.535307481698527003e-11
4.098269381527811104e-11
3.500609070097302202e-11
2.871703976133820428e-11
2.378621394690498392e-11
2.055686735999689202e-11
1.709027249454585687e-11
1.218287839271916854e-11
8.970073820742207908e-12
7.051587920890323429e-12
4.708368761900750209e-12
3.460102794187297801e-12
2.406950733665314252e-12
1.641923826082277905e-12
1.122351508479716454e-12
7.666401360321632890e-13
5.271067523745091947e-13
3.659778047965553289e-13
2.584890850593494507e-13
1.860748398535428316e-13
1.368059992278783575e-13
1.026005150917442092e-13
7.815238315844860119e-14
6.006120991581092930e-14
