# bin_10_2
3.185946283938034052e-25
3.571506083349917074e-25
3.930551577453119187e-25
4.227314168891438301e-25
4.416380538268383390e-25
4.454535394299680720e-25
4.288080112152725842e-25
3.896735091421773520e-25
3.348137098089773121e-25
2.752827547700442999e-25
2.271673365523882936e-25
1.956014631359348967e-25
1.642912894839045674e-25
1.191655011380136483e-25
8.618310346155221691e-26
6.885270539460386373e-26
4.608359709042805740e-26
3.450724677418743791e-26
2.403836612089511031e-26
1.671180543414826677e-26
1.173387348060856057e-26
8.271901407887234033e-27
5.898905986268710875e-27
4.269572493413602117e-27
3.152389120480571547e-27
2.370841017645071830e-27
1.811366249056006418e-27
1.398949243985282054e-27
1.084531691038917828e-27
8.378795493950760363e-28
6.407744057937163949e-28
