# bin_11_8
2.111843850532630217e-12
2.395049312964962731e-12
2.673224162779293993e-12
2.925329977492804098e-12
3.123164268276836567e-12
3.231525369572521276e-12
3.222640437971023155e-12
3.051843674080676951e-12
2.729020216642418462e-12
2.306498703595394224e-12
1.887670525082727021e-12
1.576347792452205501e-12
1.365458383670510807e-12
1.108012603861049411e-12
7.737526832000036163e-13
5.914387620882255578e-13
4.461099252249048869e-13
3.072417864387136763e-13
2.172342098037620889e-13
1.539439966658536459e-13
1.056809530631396659e-13
7.236583118689359170e-14
4.986491901839014582e-14
3.464719918811839356e-14
2.439133147188736787e-14
1.749330274028972178e-14
1.279539962549238379e-14
9.550470321819256721e-15
7.250543880826969758e-15
5.567101373914043653e-15
4.291663515815418069e-15
