# bin_10_10
4.093481360332718638e-11
4.648492834979263028e-11
5.196981688887086345e-11
5.698615165336146978e-11
6.099354785558829521e-11
6.331303116656655271e-11
6.338022006913792969e-11
6.033461726189434797e-11
5.421794876281833459e-11
4.604811195340082635e-11
3.772000154112792824e-11
3.137313017002654317e-11
2.715843305884826212e-11
2.230549572588105255e-11
1.571032718378960720e-11
1.179907219809038064e-11
9.085878828341119196e-12
6.155057838176452181e-12
4.435278776609762699e-12
3.118687276632390810e-12
2.134016794678048377e-12
1.459049121788898824e-12
1.000915011433138038e-12
6.919878666554271716e-13
4.839895378845876659e-13
3.446514523237868016e-13
2.502546034783749510e-13
1.855278681832273954e-13
1.400994713245571213e-13
1.072141771910157803e-13
8.256350116612614039e-14
