# bin_1_3
-1.331707654580856564e-09
-1.388945830258370361e-09
-1.399158106541269599e-09
-1.346609798631598322e-09
-1.225552458676943398e-09
-1.055411788653230735e-09
-8.705674880659319001e-10
-7.185632182596491325e-10
-6.146646262380531663e-10
-5.146839176749899064e-10
-3.810478804300095920e-10
-2.772565065646587863e-10
-2.188564831702238695e-10
-1.539112788894279854e-10
-1.149728704440819873e-10
-8.277252828922998356e-11
-6.054669223148984547e-11
-4.479380531708674424e-11
-3.364236701575222259e-11
-2.572585839959214007e-11
-2.000130421462899166e-11
-1.576286609956086002e-11
-1.250928545466359916e-11
-9.925317694418897544e-12
-7.818597083178962123e-12
-6.074503045242364643e-12
-4.628544890909931694e-12
-3.443660114716538246e-12
-2.494513895163841969e-12
-1.757946627600694688e-12
-1.206618842641868685e-12
