# bin_7_5
-2.307996243091837030e-09
-2.568256140398570930e-09
-2.800989397623991599e-09
-2.978771309011586466e-09
-3.068082221757623125e-09
-3.042659002674737736e-09
-2.861727488193930529e-09
-2.542878064373679287e-09
-2.137284887865353261e-09
-1.748438307620664115e-09
-1.466992895959593710e-09
-1.268791916290831135e-09
-1.012980092624295570e-09
-7.057649388844209374e-10
-5.497241786566392969e-10
-4.055902176614845561e-10
-2.877005730485402382e-10
-2.025377371640221461e-10
-1.456949705928128957e-10
-1.026554951328239207e-10
-7.265282372872380872e-11
-5.208672684387068248e-11
-3.789233217796017972e-11
-2.807320303374999054e-11
-2.119233857098854898e-11
-1.624525920857798789e-11
-1.258761194362967191e-11
-9.793009299563146543e-12
-7.594801865482893034e-12
-5.832071818295691898e-12
-4.409809773029474067e-12
