# bin_5_1
-9.782812000789797025e-14
-1.053178587446489310e-13
-1.102399893195987295e-13
-1.114855115923673735e-13
-1.078223689756754150e-13
-9.854991708168068031e-14
-8.519330852798399668e-14
-7.030536531864909191e-14
-5.786402600903432537e-14
-4.951304686200871671e-14
-4.184619372454179744e-14
-3.107425632583450761e-14
-2.229022972504351137e-14
-1.783065773236165207e-14
-1.232285776895363876e-14
-9.260272348975133672e-15
-6.562919406212098059e-15
-4.736459130941147164e-15
-3.451596668227465564e-15
-2.544643989914707905e-15
-1.907469933575871205e-15
-1.454456060841424375e-15
-1.127622420336685763e-15
-8.840830610409602434e-16
-6.964219333018478546e-16
-5.474342224255360981e-16
-4.264225787710398710e-16
-3.271652318110581594e-16
-2.459851114334555419e-16
-1.805365197736752210e-16
-1.290432532189868392e-16
