# bin_6_9
-3.187039368531966247e-10
-3.581290120265986195e-10
-3.952766908889764776e-10
-4.266469137667092020e-10
-4.477507932397004663e-10
-4.539279207189213251e-10
-4.402625706758124644e-10
-4.032053611784370238e-10
-3.491891250804109936e-10
-2.880922451429774006e-10
-2.367937589541783000e-10
-2.029746270379362737e-10
-1.725499056739640202e-10
-1.277470741490938794e-10
-9.042677826380147412e-11
-7.317254730198759678e-11
-4.896963929428512076e-11
-3.695267515167575205e-11
-2.538634075280985002e-11
-1.765278119467583393e-11
-1.238355937030166485e-11
-8.697916253389544232e-12
-6.162471864443154250e-12
-4.423781002530292310e-12
-3.238918177806797749e-12
-2.417066982529401216e-12
-1.834897527252048465e-12
-1.411250283623913877e-12
-1.092323280040599755e-12
-8.446901044527142124e-13
-6.480045579608210177e-13
