# bin_7_3
-1.573216798323502814e-12
-1.739072018567948911e-12
-1.881301872583545668e-12
-1.980516604056121112e-12
-2.015462738999358102e-12
-1.966176927583154444e-12
-1.813044645620916112e-12
-1.580904166243378032e-12
-1.309844853125035821e-12
-1.074107933169904550e-12
-9.152213982585463219e-13
-7.831366013650339945e-13
-5.926672581006035341e-13
-4.159316981002990930e-13
-3.355614542492215711e-13
-2.309171136171832880e-13
-1.731127280967204257e-13
-1.198759790039659012e-13
-8.543018491093998301e-14
-6.102410292887671848e-14
-4.384692000035507867e-14
-3.191176705082925256e-14
-2.359080127037504305e-14
-1.777867215830563429e-14
-1.362159359047709191e-14
-1.056083991994930293e-14
-8.237261700926260511e-15
-6.417058126619499620e-15
-4.958950326814670963e-15
-3.778500420208805258e-15
-2.825278046310462427e-15
