# bin_9_4
-8.744870441428728273e-14
-9.785966059888505889e-14
-1.074668043121149279e-13
-1.152733878959429796e-13
-1.200219969675210342e-13
-1.205906714605638614e-13
-1.154380176374412463e-13
-1.043129452043744916e-13
-8.911451962138844767e-14
-7.311690794602204413e-14
-6.054472934157168597e-14
-5.227025187592553950e-14
-4.345447050930776367e-14
-3.108424528149705392e-14
-2.288709420876710679e-14
-1.802546607762907119e-14
-1.214466653557500941e-14
-8.990728876240430391e-15
-6.330394000831298440e-15
-4.408555663370882307e-15
-3.097038750574716093e-15
-2.190332964250371608e-15
-1.569651402189556136e-15
-1.142884475564452389e-15
-8.488431281344601509e-16
-6.417938416047082695e-16
-4.924067956234247763e-16
-3.812605120499349971e-16
-2.957861844685691753e-16
-2.282844908068246130e-16
-1.741488762125818226e-16
