# bin_2_2
-4.794222326503887405e-08
-4.984598373524736190e-08
-5.002172069039870104e-08
-4.790367061485339198e-08
-4.338386988970557494e-08
-3.719435434877729308e-08
-3.064320560365693028e-08
-2.536743460249727250e-08
-2.171719920331973303e-08
-1.801967796344264875e-08
-1.324577030404155934e-08
-9.742339008420643397e-09
-7.617398868111799687e-09
-5.380120893156408578e-09
-4.003901501958103456e-09
-2.893105360480090830e-09
-2.119015100568168937e-09
-1.571002358232720371e-09
-1.183090768211284598e-09
-9.071502445910932636e-10
-7.070103114891776587e-10
-5.581287670172826804e-10
-4.432721716346089892e-10
-3.516562236906653620e-10
-2.767264175993704998e-10
-2.146047350473935335e-10
-1.631180829163768607e-10
-1.210103836636282635e-10
-8.738975893475491875e-11
-6.140518726865425731e-11
-4.203716507641713192e-11
