# bin_1_10
-2.653839071459302163e-27
-2.969691168788534810e-27
-3.261109377614866370e-27
-3.497839233980516670e-27
-3.641718815087039574e-27
-3.658713593679030828e-27
-3.502100245603467684e-27
-3.164420147459856083e-27
-2.703241685789387916e-27
-2.218040627040001586e-27
-1.836814230102533628e-27
-1.585674964429835022e-27
-1.317908341357437689e-27
-9.428437940911831436e-28
-6.943825465104249361e-28
-5.465808748190132807e-28
-3.685063020411516397e-28
-2.726570812410733255e-28
-1.919801786975888470e-28
-1.337169628402464601e-28
-9.394301612284976216e-29
-6.644704074386792213e-29
-4.762025214953863275e-29
-3.467469165145592599e-29
-2.575459579195893113e-29
-1.947305481252383244e-29
-1.494049907362130318e-29
-1.156793227262092914e-29
-8.974211358666787612e-30
-6.925851474515636293e-30
-5.283144270203714647e-30
