# bin_7_6
-1.075907887627474538e-08
-1.200999769020419857e-08
-1.314888931238738563e-08
-1.405068628230299239e-08
-1.455917785102087106e-08
-1.454580032307452336e-08
-1.381539218570358361e-08
-1.238999811314360032e-08
-1.050490393355106561e-08
-8.602957934789291703e-09
-7.163544056828708386e-09
-6.196345113500115028e-09
-5.065967913432582022e-09
-3.570163861381300462e-09
-2.697905461328130997e-09
-2.068591646371479492e-09
-1.421165675693023737e-09
-1.028451108343459446e-09
-7.334613776691508387e-10
-5.131513402654765910e-10
-3.612137289359895199e-10
-2.569302122034566566e-10
-1.853774562168301357e-10
-1.360560080973776816e-10
-1.018231764149372423e-10
-7.749555134249691253e-11
-5.975018196197401823e-11
-4.638412417356508645e-11
-3.599335694282174995e-11
-2.772403203035618118e-11
-2.106919559982705686e-11
