# bin_5_15
-2.753209220576998253e-22
-3.137726446753094891e-22
-3.524261313750058623e-22
-3.886341656379933618e-22
-4.188911198095979848e-22
-4.387238476485665374e-22
-4.436887954140576138e-22
-4.286329130744016739e-22
-3.908016774453703653e-22
-3.368976965740176409e-22
-2.773072025516044372e-22
-2.284408554687943294e-22
-1.965391344352429462e-22
-1.660440558071792012e-22
-1.211251217166404930e-22
-8.661476707336618642e-23
-6.973868189258697424e-23
-4.608039479509764553e-23
-3.456763244471101888e-23
-2.363843962953696440e-23
-1.608382421878361054e-23
-1.100793293198481422e-23
-7.488811026546074033e-24
-5.107919045658758534e-24
-3.506571087890324473e-24
-2.444489682589084495e-24
-1.734635359946475531e-24
-1.257007452058022384e-24
-9.307770278644074937e-25
-7.022369462964958584e-25
-5.367758486111191654e-25
