# bin_7_9
-2.979733863823292316e-09
-3.355297356524489411e-09
-3.712597773065922165e-09
-4.019602382169849336e-09
-4.234753519108310102e-09
-4.311987878718877332e-09
-4.209169668008018216e-09
-3.882338047487927603e-09
-3.386005943032566634e-09
-2.804550283667591248e-09
-2.299379519030345289e-09
-1.961157142163121097e-09
-1.680772298787748290e-09
-1.269182279604863037e-09
-8.863095050359602092e-10
-7.179881774041260625e-10
-4.869906004158958402e-10
-3.654446334019016361e-10
-2.486587913618475521e-10
-1.738236960131331869e-10
-1.216454586423128443e-10
-8.512708792131854800e-11
-5.997170554331274698e-11
-4.274005011167666801e-11
-3.104674929709576843e-11
-2.299471055523743600e-11
-1.734253165551543773e-11
-1.327673859274115674e-11
-1.025263164959300356e-11
-7.929154173788058407e-12
-6.096723026684720961e-12
