# bin_5_5
-2.131376325632197560e-08
-2.349424081937971593e-08
-2.532728600904695138e-08
-2.654653313624719123e-08
-2.688049872443045677e-08
-2.603456486017795347e-08
-2.381929167383185189e-08
-2.060872328307118521e-08
-1.700381599469507451e-08
-1.398488995609588733e-08
-1.197804384840853399e-08
-1.015364969831530140e-08
-7.525901070676158366e-09
-5.362868351403277169e-09
-4.315068572825414166e-09
-2.936014676375339058e-09
-2.211232939326326211e-09
-1.544315653994967986e-09
-1.096511980775679212e-09
-7.855881310893469431e-10
-5.670480492399331207e-10
-4.150471359769717879e-10
-3.087973368561052795e-10
-2.341525973937290604e-10
-1.803025775861083308e-10
-1.402718423034013323e-10
-1.095747627883827644e-10
-8.532309806099446374e-11
-6.579026068571784624e-11
-4.994575226074540068e-11
-3.716425906180446720e-11
