# bin_2_5
-4.010140553561425107e-11
-4.345433714689533951e-11
-4.585922819913196850e-11
-4.681950613255924625e-11
-4.589229487877022150e-11
-4.257599552296306549e-11
-3.734692666278852929e-11
-3.108883114693465442e-11
-2.546906901014373450e-11
-2.157657541320035370e-11
-1.851642085410523403e-11
-1.428961220820095354e-11
-1.003110152864503116e-11
-7.995299279627881309e-12
-5.681666025492266664e-12
-4.195902727633527270e-12
-2.957384539381913704e-12
-2.144243697542575521e-12
-1.551267635041134505e-12
-1.133173376592564448e-12
-8.411192194048895618e-13
-6.350049885200969349e-13
-4.879673983581571552e-13
-3.801504669379793505e-13
-2.984273873979545468e-13
-2.345171544661428206e-13
-1.831831014565882226e-13
-1.413094197193357947e-13
-1.070674633703197592e-13
-7.933338216995240618e-14
-5.731136473833792807e-14
