# bin_5_4
-1.240114504399484453e-08
-1.359762662234016029e-08
-1.456270501383059686e-08
-1.513781058802287353e-08
-1.518264372547442153e-08
-1.450577584385695957e-08
-1.308804435263652194e-08
-1.116718674851016415e-08
-9.163364904803976720e-09
-7.595127467232507732e-09
-6.548514388859102533e-09
-5.422263138562131977e-09
-3.888897341609388885e-09
-2.879750527022404350e-09
-2.256804937182258859e-09
-1.546057423386006368e-09
-1.146430719706715713e-09
-8.176004868663186459e-10
-5.810255612338239248e-10
-4.178551281986189613e-10
-3.040467275981069817e-10
-2.248504327395086392e-10
-1.692088766187509767e-10
-1.296232331102314448e-10
-1.006042253857682638e-10
-7.865659580204136128e-11
-6.153476360549297351e-11
-4.782715115248486640e-11
-3.670206665470823674e-11
-2.766259404448222173e-11
-2.039435199581666832e-11
