# bin_15_13
1.439273503866284215e-11
1.649859813249612288e-11
1.866618035582663977e-11
2.076535214777183089e-11
2.262512325270858786e-11
2.401841918781665396e-11
2.466987099369810547e-11
2.437181852483772498e-11
2.279461177092060387e-11
2.014542430200561376e-11
1.684162484328082749e-11
1.377528811192023372e-11
1.162687639707769628e-11
1.005891446793649609e-11
7.885905497884099152e-12
5.439570023919561593e-12
4.323246939644708915e-12
3.068272732907085077e-12
2.211694539890646920e-12
1.486309853805835854e-12
1.043812958483350558e-12
7.085701058360103808e-13
4.757778977266554610e-13
3.188628740332482193e-13
2.132839347820903956e-13
1.436090708365531478e-13
9.781100491488218985e-14
6.769432603264152795e-14
4.785877071034644831e-14
3.463871186977310272e-14
2.564690128938699281e-14
