# bin_13_2
2.375174509471675004e-32
2.691791812829286509e-32
3.001781330814612969e-32
3.281319959646052760e-32
3.498508873690972133e-32
3.613751816423182958e-32
3.596319071194608265e-32
3.396403689578141545e-32
3.029353315440101247e-32
2.554146085211741440e-32
2.089801419107361980e-32
1.748955879311414686e-32
1.514859337863818913e-32
1.220832061176965694e-32
8.498959735975325098e-33
6.553279030580337862e-33
4.886087411471915729e-33
3.398639454807137029e-33
2.380940328800554670e-33
1.691024665526275085e-33
1.163110597749771497e-33
7.977758351128720960e-34
5.510845956445554595e-34
3.839199629603004775e-34
2.712037223934330064e-34
1.952271847709444730e-34
1.433260203433302768e-34
1.073315086601767115e-34
8.168563893541129588e-35
6.280610877911328313e-35
4.842684023831394988e-35
