# bin_15_9
3.445928613198327501e-15
3.937835352000558509e-15
4.438294254214396111e-15
4.914819076590990281e-15
5.324891430108973416e-15
5.613273907670594607e-15
5.718331688574006577e-15
5.584482950862857477e-15
5.151820085291134785e-15
4.493869368811146292e-15
3.721535254612036815e-15
3.051108368564495897e-15
2.603983459435912320e-15
2.233318719342416598e-15
1.683640660937188410e-15
1.172601966708937585e-15
9.517638283967461232e-16
6.390899994714591481e-16
4.792149141261735031e-16
3.216306061005281162e-16
2.204638773378967546e-16
1.508505401620157865e-16
1.023600453908305895e-16
6.921057726202436923e-17
4.688303167021316318e-17
3.214644745907398343e-17
2.238179231718417266e-17
1.589009264919262200e-17
1.153815538444967464e-17
8.563323160228267939e-18
6.471681726660413878e-18
