# bin_9_9
4.453417965282874542e-11
5.040514370899511897e-11
5.611947105178042789e-11
6.122464802807129588e-11
6.511679799485263946e-11
6.705541958746307415e-11
6.647566442359719218e-11
6.246708411740776918e-11
5.545594554575823281e-11
4.655497799563520183e-11
3.807945820145434827e-11
3.199808786445962016e-11
2.770161940086624522e-11
2.203627232817674342e-11
1.527117869029025470e-11
1.195714777173398613e-11
8.723238869582950530e-12
6.182548314645366004e-12
4.265069191118803761e-12
3.035670775976931173e-12
2.095681296514644354e-12
1.442613254440101871e-12
1.000945354570537434e-12
7.006415810594010426e-13
4.979869871628550958e-13
3.608110836124178053e-13
2.665955871689032614e-13
2.007696498337626085e-13
1.534267751512083684e-13
1.182242481122647444e-13
9.117211988645223348e-14
