# bin_12_4
4.570054809949424019e-22
5.170901210039496507e-22
5.754896343370573732e-22
6.275449497457298573e-22
6.670460053547729616e-22
6.864058315741982003e-22
6.798357751167897718e-22
6.380820266555034556e-22
5.658361558357770443e-22
4.745496788151375789e-22
3.881503878029463162e-22
3.264793286810479174e-22
2.825745403600049407e-22
2.240639669836425509e-22
1.551755227076500478e-22
1.219101481621498055e-22
8.847122635411588957e-23
6.299123907576980076e-23
4.332235285746380089e-23
3.082968388608619317e-23
2.130311157622894910e-23
1.467996212808820435e-23
1.019612909946342778e-23
7.145101699741036594e-24
5.085769111738186159e-24
3.690384319415357642e-24
2.730741771757391018e-24
2.059061243900238359e-24
1.574908196201263125e-24
1.214077532055435847e-24
9.362362407527504232e-25
