# bin_9_6
1.035825554290218994e-12
1.165179422641993589e-12
1.287662552897109871e-12
1.392018799341742021e-12
1.463731002897423285e-12
1.487222353419960412e-12
1.447150726119562668e-12
1.330101280211288837e-12
1.156031693321252095e-12
9.556224776942673430e-13
7.844156654757855091e-13
6.707090100072491301e-13
5.726173644755570420e-13
4.281965027319030468e-13
3.009129775207260133e-13
2.437730490883155208e-13
1.641401647249419583e-13
1.235977713412983630e-13
8.447888602564643160e-14
5.888505172190132193e-14
4.126381642572048786e-14
2.893165281177015985e-14
2.044006812005751702e-14
1.461914071741959674e-14
1.066157416343615134e-14
7.926478287296659351e-15
5.997827854323245963e-15
4.602483076254069569e-15
3.558330004530727531e-15
2.751788493238869574e-15
2.113392366470128855e-15
