# bin_7_4
4.570521130961036533e-13
5.073990728894502927e-13
5.517875555247588132e-13
5.847097558939797278e-13
5.996257979098914378e-13
5.912654285127042082e-13
5.521478901155473358e-13
4.873428269275613882e-13
4.072954891961625343e-13
3.332558415437129212e-13
2.812089058546065010e-13
2.426818729531181016e-13
1.901318366365030780e-13
1.322165895392255491e-13
1.048057296297096338e-13
7.516981879847807057e-14
5.460610015894169769e-14
3.795997170179712484e-14
2.728292331085847373e-14
1.932891893751903277e-14
1.375654725272037851e-14
9.918378807696136728e-15
7.257648921028628181e-15
5.411670540106451787e-15
4.108680427794788505e-15
3.163764120978916831e-15
2.458317401631868979e-15
1.914130310313236301e-15
1.482925074427286508e-15
1.135697548741877240e-15
8.553154382948800083e-16
