# bin_15_14
2.827774538711307749e-11
3.244177848920546978e-11
3.673922535561646033e-11
4.091868493633240862e-11
4.464738519172686759e-11
4.748150069384311131e-11
4.887580961837172795e-11
4.842377625825772440e-11
4.545232845243023116e-11
4.030398364015600441e-11
3.379032824909801212e-11
2.763489475308007720e-11
2.325553362716981918e-11
2.013890102985063793e-11
1.594857990203320816e-11
1.100967757770925542e-11
8.668431293391471519e-12
6.256246687823513882e-12
4.445182312048598058e-12
3.011746844740507143e-12
2.123338476164756379e-12
1.438252213687891864e-12
9.626205338246720506e-13
6.436913907317440146e-13
4.293477899811678477e-13
2.877953241652635619e-13
1.949159184941546958e-13
1.339821277909872730e-13
9.400588933873669301e-14
6.752019419817707063e-14
4.965309946296309632e-14
