# bin_6_5
4.144497340640741494e-11
4.595490059579108406e-11
4.990117163208410123e-11
5.278103680410427149e-11
5.400934513795500417e-11
5.309748756749025742e-11
4.940723600839300861e-11
4.345979209708917459e-11
3.622766526368907834e-11
2.965491877547670395e-11
2.509383219130880641e-11
2.161424620427280685e-11
1.677060900511792800e-11
1.167767871170573782e-11
9.316467238142333014e-12
6.596849862226332089e-12
4.841509756574454423e-12
3.356077496094437803e-12
2.407206859515631310e-12
1.709727261408571392e-12
1.220251764534877619e-12
8.821721165230661902e-13
6.473793529860112855e-13
4.842067514483334311e-13
3.686056413576480547e-13
2.844131442183021586e-13
2.212569740610620602e-13
1.723175225162226460e-13
1.334109699584903902e-13
1.020280341510020465e-13
7.668354178769588493e-14
