# bin_11_2
3.470767226592150402e-08
3.057478036181658552e-08
2.620382752545341007e-08
2.190536015836714508e-08
1.795032689730887896e-08
1.449615702748119814e-08
1.156169668806178579e-08
9.071265099421080210e-09
6.963447386160467204e-09
5.254688474769528567e-09
3.959484638829128377e-09
2.993679064850079943e-09
2.262125253925902646e-09
1.722912748106386964e-09
1.324632351094701296e-09
1.028087640200116648e-09
8.042990880525395085e-10
6.322431488616399880e-10
4.972866321893544799e-10
3.895950194334287642e-10
3.026895659631130555e-10
2.322939634009986269e-10
1.755070782832132290e-10
1.302114815070497252e-10
9.469243905199140724e-11
6.743084604676683102e-11
4.701223483521548130e-11
3.211101522060418764e-11
2.151719769734787309e-11
1.417234497736434090e-11
9.195802103636356710e-12
