# bin_14_7
7.437003512903333789e-08
7.023042013945684357e-08
6.465729083434022571e-08
5.793161456814698036e-08
5.047927336717314156e-08
4.282142334994183783e-08
3.548706575075018566e-08
2.888173926031107160e-08
2.318758489825087095e-08
1.836544525426769923e-08
1.426962209774728448e-08
1.083067086772453133e-08
8.100627333993091024e-09
6.066272804442186996e-09
4.538461328200389986e-09
3.383892059915264922e-09
2.544928635284040627e-09
1.924583909229840082e-09
1.467984325230690814e-09
1.127263843489697819e-09
8.694677872185762140e-10
6.713373441200008462e-10
5.169170523416850350e-10
3.954000165739431024e-10
2.993869636362609401e-10
2.237211846614180792e-10
1.645977756209991957e-10
1.190202021454586962e-10
8.449260472320323524e-11
5.886013406305614998e-11
4.024391329323723163e-11
