# bin_9_4
5.208114383975588625e-08
4.764107089780929554e-08
4.240771064833387250e-08
3.671842186904085194e-08
3.097094335341592588e-08
2.555032424839580773e-08
2.072742096826334251e-08
1.659964181695313089e-08
1.310791321735817946e-08
1.014447599982006430e-08
7.681615737996015832e-09
5.761572626914739895e-09
4.337734585198566904e-09
3.260635075439956382e-09
2.455193823978810437e-09
1.866355164138379748e-09
1.429525443754526973e-09
1.104392478398503715e-09
8.585782211792399286e-10
6.694654485042520660e-10
5.214610764001577743e-10
4.040528092507723940e-10
3.102020450212577502e-10
2.351273900350963935e-10
1.754548132042000599e-10
1.286106757036183285e-10
9.246813795222847411e-11
6.516047093333338328e-11
4.500273863152982168e-11
3.048267821880188893e-11
2.027645069953734401e-11
