# bin_6_3
4.064678633572954013e-08
3.642629509542332664e-08
3.176104507319256044e-08
2.696843258525106786e-08
2.237220704858046286e-08
1.822423564449210352e-08
1.464319425060450926e-08
1.161215753132626676e-08
9.045668140276162351e-09
6.897121098264156729e-09
5.188897805920888372e-09
3.909717468020692988e-09
2.951428168239125961e-09
2.227849754943203048e-09
1.697400530685529277e-09
1.303849987187790187e-09
1.010592214600585879e-09
7.885726970811859127e-10
6.175027793367007876e-10
4.832548030472998147e-10
3.763298388265283333e-10
2.904198629059118199e-10
2.212838022075631077e-10
1.659682220693836167e-10
1.222494143471226756e-10
8.829262662978775335e-11
6.247420730284950865e-11
4.330634506959824678e-11
2.942888000832510284e-11
1.963172519632086063e-11
1.287986833111195593e-11
