# bin_4_4
4.105492029255931064e-08
3.689118025072144838e-08
3.226395109836465025e-08
2.748156556005292169e-08
2.286184895352491818e-08
1.866167817398368605e-08
1.501435976621100227e-08
1.192232988357928703e-08
9.310839798245733570e-09
7.123797304106827370e-09
5.367643199184061673e-09
4.039515595675954261e-09
3.049955245525239315e-09
2.301142764403510537e-09
1.749587879265153444e-09
1.341628750350077583e-09
1.037661854815265345e-09
8.081084442824604351e-10
6.318161108689584412e-10
4.939542079933184327e-10
3.845116567125968382e-10
2.968127181456594869e-10
2.263615249150101928e-10
1.700335414571770913e-10
1.255010707491206284e-10
9.086905052618043109e-11
6.448171282506438672e-11
4.483605095167435606e-11
3.056445280426816864e-11
2.045140207124035129e-11
1.345517829969114321e-11
