# bin_6_7
-1.125719851043466056e-11
-1.253954974708902508e-11
-1.369332826910651544e-11
-1.458580710993884120e-11
-1.505369846432461612e-11
-1.496642851861224962e-11
-1.412401964752726234e-11
-1.258969256431376970e-11
-1.061285726286252050e-11
-8.682882279916323692e-12
-7.262903890075382311e-12
-6.280991563241229732e-12
-5.059030137017205394e-12
-3.539942083349538834e-12
-2.724568360404546163e-12
-2.039991602075143508e-12
-1.428931806116550366e-12
-1.016984399509175026e-12
-7.287892167387121792e-13
-5.120452143749387372e-13
-3.616203794503649738e-13
-2.584467156492862093e-13
-1.874085857053960158e-13
-1.383384523850683728e-13
-1.040815256695243435e-13
-7.956341748182606851e-14
-6.152981883309224661e-14
-4.782646890651217743e-14
-3.709589603537974411e-14
-2.851634656329643775e-14
-2.160138503997837955e-14
