# bin_11_4
-9.590740657142988841e-10
-1.043426489949923584e-09
-1.106734755426556516e-09
-1.137031419159271688e-09
-1.123601350632148737e-09
-1.053699455790290573e-09
-9.340241200900162725e-10
-7.849548227660641849e-10
-6.434793421599205650e-10
-5.403059419461127663e-10
-4.641086362143192154e-10
-3.684024095998502130e-10
-2.612155567351527343e-10
-2.016526369824374693e-10
-1.494158525569523088e-10
-1.067897107432692150e-10
-7.689302541677210851e-11
-5.539774830520396098e-11
-3.978175417936141256e-11
-2.886816722704830658e-11
-2.125638886625119805e-11
-1.591678470809753299e-11
-1.213070882633733521e-11
-9.388123564614811458e-12
-7.336725142434432046e-12
-5.753286643612967006e-12
-4.495723939023473225e-12
-3.477339334161442326e-12
-2.647141775276158551e-12
-1.974147014618324646e-12
-1.437425519879800988e-12
