# bin_8_7
-1.134948422206056870e-10
-1.268447366203903372e-10
-1.390816817988857693e-10
-1.489003666788047692e-10
-1.546652622120757312e-10
-1.549564928306716166e-10
-1.477812279589135937e-10
-1.330696106285635680e-10
-1.132930681020434990e-10
-9.288305417661745769e-11
-7.709600000900262208e-11
-6.656368222673679114e-11
-5.489311711247145077e-11
-3.908774062893754892e-11
-2.908318566780021280e-11
-2.260423076628250361e-11
-1.539686677824338625e-11
-1.127626672936257933e-11
-7.968652785225426962e-12
-5.563009951826908872e-12
-3.913279554178442083e-12
-2.774915723306413137e-12
-1.994035649484286983e-12
-1.456514541229704486e-12
-1.085027505946514023e-12
-8.224556695963047568e-13
-6.321448098307691665e-13
-4.898395685425283343e-13
-3.799347355527275629e-13
-2.928935133307023250e-13
-2.230196991822086966e-13
