# bin_12_1
-3.476738447815787461e-09
-3.407408990205958224e-09
-3.181349970054862393e-09
-2.818763659299203137e-09
-2.386245766575604697e-09
-1.976372838352157068e-09
-1.652727716206809773e-09
-1.386572191004012322e-09
-1.103573802712517255e-09
-8.208601523344800257e-10
-6.155080605002592088e-10
-4.643999757513479110e-10
-3.388131966097535010e-10
-2.498250799765880567e-10
-1.841499238967616170e-10
-1.374167808168379901e-10
-1.040873614654744164e-10
-8.024619798116338812e-11
-6.289870290443787066e-11
-4.992107804183354395e-11
-3.987956986091098180e-11
-3.183423468120245633e-11
-2.521374950491711597e-11
-1.968844358051968182e-11
-1.507573513532754438e-11
-1.127413278668797697e-11
-8.214653010924541286e-12
-5.827827314469146949e-12
-4.029717693051778784e-12
-2.721922925907421827e-12
-1.801334808357660954e-12
