# bin_8_12
-1.346584793211805334e-14
-1.528862406291284876e-14
-1.708848434517929581e-14
-1.873251773593187641e-14
-2.004274871914829485e-14
-2.079580523198541761e-14
-2.080693651755811683e-14
-1.979361018702816075e-14
-1.777354342127234336e-14
-1.508367490469621984e-14
-1.235004656948620090e-14
-1.027290617832135824e-14
-8.893264094975948150e-15
-7.295846255429738585e-15
-5.132766966360922061e-15
-3.860021922660825867e-15
-2.967223517605942325e-15
-2.012207080216030097e-15
-1.447589992787162253e-15
-1.018425974190263665e-15
-6.969601923879668163e-16
-4.765244997540525746e-16
-3.269818311680676796e-16
-2.261341605717800204e-16
-1.582329732535677532e-16
-1.127383684366014694e-16
-8.190582835259134640e-17
-6.075322883119716856e-17
-4.589634013585359785e-17
-3.513214682184346349e-17
-2.705649556030326620e-17
