# bin_1_14
-1.163458288548059204e-41
-1.321608204409339867e-41
-1.478144438784797293e-41
-1.621626072436396284e-41
-1.736748159927935547e-41
-1.804263369979886755e-41
-1.807860793182013292e-41
-1.723347708509521073e-41
-1.550518817880055563e-41
-1.318512445146796111e-41
-1.080091579475402299e-41
-8.970873739312233672e-42
-7.761895104343887852e-42
-6.395805271469758827e-42
-4.518490338807357040e-42
-3.373999169490983473e-42
-2.613219666471933041e-42
-1.762601813076337178e-42
-1.277100758637374658e-42
-8.951085259331134214e-43
-6.118710690401030640e-43
-4.182804705802253479e-43
-2.865627463386835960e-43
-1.977906894029301797e-43
-1.380392623663427446e-43
-9.806617426794604068e-44
-7.103038789961120136e-44
-5.253443006058741956e-44
-3.959372555815633307e-44
-3.025979915539485621e-44
-2.328853148823623023e-44
