# bin_8_3
-1.176840464422608850e-09
-1.256083929709138689e-09
-1.301038903401819093e-09
-1.299116377263895977e-09
-1.235843418571092930e-09
-1.111704545355785765e-09
-9.473072192144318788e-10
-7.793477079678898284e-10
-6.479102609995763322e-10
-5.549720524805697242e-10
-4.543151934197894032e-10
-3.306657618951467180e-10
-2.462851197753515078e-10
-1.895476558507518262e-10
-1.340482416786035207e-10
-9.869812474350069069e-11
-7.100345013621030791e-11
-5.150450103492691647e-11
-3.776130861448252371e-11
-2.808781436068808161e-11
-2.125681097342761158e-11
-1.636001790362287619e-11
-1.277325470522170344e-11
-1.005589225872115499e-11
-7.928794077940453921e-12
-6.218338696169096760e-12
-4.818891864013300821e-12
-3.669358867288274499e-12
-2.733086068947467129e-12
-1.985027565150532132e-12
-1.403932335823504618e-12
