# bin_6_6
-6.077346054959398007e-11
-6.730862488902685708e-11
-7.298541454103526442e-11
-7.706263435721099269e-11
-7.869816148725437343e-11
-7.715343216684734786e-11
-7.156676499904092764e-11
-6.275742624984654240e-11
-5.220891093117671642e-11
-4.275864759888720700e-11
-3.624934497725320601e-11
-3.113541467604828217e-11
-2.397458155328828113e-11
-1.675649729097121981e-11
-1.338096976969915194e-11
-9.414706920865236148e-12
-6.935007500881560591e-12
-4.816036654492440353e-12
-3.446909795784242289e-12
-2.451147402687493478e-12
-1.752374247500118990e-12
-1.269227070505061134e-12
-9.334369392267437274e-13
-6.996758014297604865e-13
-5.336028347225405489e-13
-4.122651276813471856e-13
-3.209206001707416125e-13
-2.499152380839818250e-13
-1.933476746853737709e-13
-1.476799974062213630e-13
-1.108096388899537826e-13
