# bin_13_14
-6.547519079911007067e-12
-7.486500023593652071e-12
-8.444096905536206915e-12
-9.358928813097690204e-12
-1.015083130782959268e-11
-1.071517866849981364e-11
-1.093264366918173582e-11
-1.070141797191597290e-11
-9.898508720512720132e-12
-8.656040923419137154e-12
-7.178944691926576252e-12
-5.879646752179748177e-12
-5.005869274989708650e-12
-4.303674512774246075e-12
-3.270863819123300837e-12
-2.269349855543545687e-12
-1.836908979936494655e-12
-1.245832341639869622e-12
-9.283490819792758830e-13
-6.213332821809996705e-13
-4.280725614117316487e-13
-2.924534254993507089e-13
-1.980835249121264137e-13
-1.336453142679716713e-13
-9.025379793804342436e-14
-6.162554971700808225e-14
-4.269524250466271570e-14
-3.014484208145099662e-14
-2.176713403646617769e-14
-1.607404108462512559e-14
-1.210089043968437598e-14
