# bin_11_13
-1.658694390625390451e-12
-1.891283993380296389e-12
-2.125643639187771464e-12
-2.345875034620818204e-12
-2.530986308384542793e-12
-2.654109758317865852e-12
-2.687860726546346537e-12
-2.602144312239223762e-12
-2.377650206271574944e-12
-2.054127097326062126e-12
-1.692105381814263502e-12
-1.391842372960595906e-12
-1.195479807492468457e-12
-1.013662226218142214e-12
-7.443071951225817069e-13
-5.284454485168702445e-13
-4.271051927437209382e-13
-2.823377673607486072e-13
-2.122793973648054126e-13
-1.445035129505665250e-13
-9.835084577012564608e-14
-6.732219948825856486e-14
-4.577100861186935114e-14
-3.115417259688244524e-14
-2.132135498500261816e-14
-1.480899397184935673e-14
-1.046545476041150892e-14
-7.551222634982597711e-15
-5.569270251148761168e-15
-4.188380144205664011e-15
-3.194883854476881540e-15
