# bin_10_12
-1.823553335151348027e-12
-2.074285744604774241e-12
-2.324095630951214391e-12
-2.555226067959511149e-12
-2.744007477786869927e-12
-2.860510875296888366e-12
-2.877586695796422590e-12
-2.758547234277239119e-12
-2.495447266732858758e-12
-2.133920541145885152e-12
-1.750760762232548173e-12
-1.448421310143025537e-12
-1.250895424931322235e-12
-1.042648637050205220e-12
-7.456914721431599666e-13
-5.462229647300756625e-13
-4.312792313349386015e-13
-2.872028015333702871e-13
-2.118839656911709594e-13
-1.469526702010349098e-13
-1.001716063449203102e-13
-6.847976057880084720e-14
-4.673330295523662927e-14
-3.208593429905043426e-14
-2.223402082671217979e-14
-1.566950055603880380e-14
-1.125325299445325928e-14
-8.254367725258589862e-15
-6.178129187525823183e-15
-4.699054814795904749e-15
-3.608405582056815777e-15
