# bin_12_7
-3.536364407875772659e-10
-3.959105946853315968e-10
-4.350134948922747568e-10
-4.669360489332432990e-10
-4.866166029374580170e-10
-4.894050682505654566e-10
-4.693065753960292099e-10
-4.249356272277400100e-10
-3.638103601624703791e-10
-2.988594042174723820e-10
-2.472159636442401879e-10
-2.129425292522838277e-10
-1.774319890245008112e-10
-1.280030010136042949e-10
-9.364218459739814233e-11
-7.378388563445524879e-11
-4.995606929307756174e-11
-3.694778611941476645e-11
-2.586978762155735145e-11
-1.803914493271904897e-11
-1.267289398597758743e-11
-8.954783537284040792e-12
-6.403726465784725928e-12
-4.650225577817710722e-12
-3.444227055026989911e-12
-2.597342703633248125e-12
-1.988295469434405451e-12
-1.536986754061334668e-12
-1.191336138675251633e-12
-9.193263494864300884e-13
-7.017032241939053972e-13
