# bin_13_8
-2.828465528097861265e-10
-3.184106775766767564e-10
-3.522068597183961198e-10
-3.811896067052549104e-10
-4.014115906485033577e-10
-4.085579047174873264e-10
-3.985531352402085354e-10
-3.674609101969536284e-10
-3.203212182635388681e-10
-2.653695396037672030e-10
-2.176669668411955881e-10
-1.855483460795089462e-10
-1.586932253161555297e-10
-1.198882809921220049e-10
-8.407013116944183987e-11
-6.762722920247335399e-11
-4.624966501102184795e-11
-3.440159211238386659e-11
-2.352753522227268192e-11
-1.648309925098751944e-11
-1.151616059159166184e-11
-8.048062816551585517e-12
-5.668978785360715904e-12
-4.040484759420866707e-12
-2.934503389795456495e-12
-2.172864906919254443e-12
-1.638143501002672883e-12
-1.253442205571231079e-12
-9.673476581323708275e-13
-7.476423382299763583e-13
-5.745139576775689447e-13
