# bin_6_10
-3.508008269846019772e-15
-3.953335659013589840e-15
-4.378563094853288568e-15
-4.746330502661233963e-15
-5.007923041440529213e-15
-5.108087225099536347e-15
-4.998928221354182772e-15
-4.624176465463408429e-15
-4.044139549952902993e-15
-3.355204826378886746e-15
-2.747867093497243592e-15
-2.337631334706020965e-15
-2.008722215584402777e-15
-1.530203976757273426e-15
-1.064151856844982567e-15
-8.595549670127545669e-16
-5.888297954824057814e-16
-4.388430510834450267e-16
-2.979520918561361249e-16
-2.090852340074977154e-16
-1.460233082219710721e-16
-1.019345561000890568e-16
-7.162459887449621965e-17
-5.088009775601415854e-17
-3.682363490367855980e-17
-2.717526170053581617e-17
-2.042954349158259543e-17
-1.560216834096915984e-17
-1.203172789294723555e-17
-9.302616838068042430e-18
-7.158350273142010036e-18
