# bin_11_11
-2.423700199349502881e-11
-2.753585500395237328e-11
-3.080362339919825268e-11
-3.380218936247885420e-11
-3.621323503371639556e-11
-3.763630369318991976e-11
-3.772870268970665425e-11
-3.598951991308108657e-11
-3.240217845042991570e-11
-2.757365547228718290e-11
-2.259302730667832584e-11
-1.875630014848126413e-11
-1.622334973806904067e-11
-1.338578591562769765e-11
-9.474076890353405342e-12
-7.056686229270176263e-12
-5.477964414037832902e-12
-3.689978322875114610e-12
-2.679701131990789139e-12
-1.875133871284951048e-12
-1.281379735526201240e-12
-8.760993496749043891e-13
-5.999454136976715582e-13
-4.138180269210708498e-13
-2.885486659969934859e-13
-2.047861068303465177e-13
-1.481705747628669149e-13
-1.094732501386673281e-13
-8.243357955450581846e-14
-6.296008840256673937e-14
-4.843896001917440432e-14
