# bin_4_8
-6.762005006795001631e-16
-7.532742558128060228e-16
-8.226420688097285190e-16
-8.763315384142123843e-16
-9.045088392253070278e-16
-8.993923988826447612e-16
-8.488444339654777451e-16
-7.566747580887488420e-16
-6.378092066173683320e-16
-5.217301455518328285e-16
-4.363737324557520497e-16
-3.775235342810516693e-16
-3.041910215967882161e-16
-2.126022112233208619e-16
-1.637465459186504438e-16
-1.226265099385574434e-16
-8.586998640155685005e-17
-6.104595264390158062e-17
-4.380401490434999520e-17
-3.077421218501048907e-17
-2.172603431810753618e-17
-1.552711417971817788e-17
-1.125926181187052686e-17
-8.311368207072546131e-18
-6.253472708148932655e-18
-4.780675826646726462e-18
-3.697452727249802428e-18
-2.874309796338105618e-18
-2.229673938227384913e-18
-1.714180354472529465e-18
-1.298631178846093273e-18
