# bin_4_10
-9.154816056175725342e-20
-1.028552463682787275e-19
-1.135007166689606879e-19
-1.224781340538677719e-19
-1.284975979701616830e-19
-1.302249261263383521e-19
-1.262459188941067995e-19
-1.155599980099873741e-19
-1.000212730722203027e-19
-8.248417265207822803e-20
-6.778714394883353231e-20
-5.810577592608553973e-20
-4.937205025893219927e-20
-3.652276858055053168e-20
-2.586539768700616541e-20
-2.091510390604540266e-20
-1.400045632558002181e-20
-1.055663895084909833e-20
-7.254828025770075906e-21
-5.045688958168174638e-21
-3.538804229307790338e-21
-2.485381097620289307e-21
-1.761046068013848511e-21
-1.264372683505373968e-21
-9.258607620865575749e-22
-6.910269655657035843e-22
-5.246426403610788486e-22
-4.035289693122591108e-22
-3.123278071098163612e-22
-2.414998633732579105e-22
-1.852397653949719836e-22
