# bin_9_2
-2.012551273195289224e-09
-2.084662098632489670e-09
-2.082102711322227066e-09
-1.983968135905889112e-09
-1.789855578627348799e-09
-1.531511821739280268e-09
-1.265015111910164734e-09
-1.050876965930817057e-09
-8.945004285502846183e-10
-7.334061938697444027e-10
-5.438023854050124424e-10
-4.027701946827841305e-10
-3.092798815197399835e-10
-2.224339541531439303e-10
-1.636680417834160005e-10
-1.188476704592499986e-10
-8.724969624730132321e-11
-6.475373401753588615e-11
-4.883498565547255102e-11
-3.748704543794399453e-11
-2.923721888180505844e-11
-2.307786060182495947e-11
-1.831460776809158864e-11
-1.450925517837307205e-11
-1.139611928273777430e-11
-8.818454324081652133e-12
-6.687535951883903120e-12
-4.950947190046815611e-12
-3.569794106794951703e-12
-2.505896429009785092e-12
-1.714775239317326678e-12
