# bin_3
0.000000000000000000e+00
8.663585595768724439e-54
1.303082728152031771e-42
7.171453244205725747e-34
7.767838454565978273e-27
3.868511545853580885e-21
1.612775168184223369e-16
8.891869176929883944e-13
9.292994960863766345e-10
2.456649921698507993e-07
2.076009731074375365e-05
6.795929386489284619e-04
1.010732673556366881e-02
7.808247507943595622e-02
3.511604513621575663e-01
1.013917178424168508e+00
2.042651534413375547e+00
3.071531493651655342e+00
3.622265250970395201e+00
3.459827548920274776e+00
2.729997273634029664e+00
1.804301482533203549e+00
1.011482872312637893e+00
4.873808362743578537e-01
2.047124849512623190e-01
7.603321230886235516e-02
2.532338558100446016e-02
7.663996932533547086e-03
2.133721124081757771e-03
5.526340864060029934e-04
1.345100643977210268e-04
3.104820331396325174e-05
6.851845885560817645e-06
1.456145759762013492e-06
2.999250792087003976e-07
6.021417340911989596e-08
1.184256805877147055e-08
2.291837226850197644e-09
4.381430016243708858e-10
8.303184557285280041e-11
1.564566402563999798e-11
2.939198169323429015e-12
5.517894303579339643e-13
1.037352579122731044e-13
1.956480621109794764e-14
3.707743502499231192e-15
7.070169169218711191e-16
1.358184878176702015e-16
2.631179782830916012e-17
5.145132783959140272e-18
1.016328468070338411e-18
1.567573021855530364e-18
3.553854118489522162e-19
8.173366777027204187e-20
1.907611931424584475e-20
4.519545399610376155e-21
1.087217676449136620e-21
2.656029798727532294e-22
6.590232126786135463e-23
1.660954839095135487e-23
4.252318578512915101e-24
1.105889001055062482e-24
2.921521469951397034e-25
7.839729452269793542e-26
2.136781711623500581e-26
5.914937712341388511e-27
1.662751204614353790e-27
4.746143442831237467e-28
1.375417364791915404e-28
4.046193900858515759e-29
1.208124086727836070e-29
6.638074019050633052e-30
