# bin_8_4
5.036576599935629533e-08
4.594692941154392261e-08
4.078881560801744770e-08
3.522658164909156200e-08
2.964747762905620539e-08
2.441710273243056967e-08
1.978292542980919235e-08
1.582417956516498683e-08
1.247591687484744795e-08
9.637992959542230061e-09
7.290906777405989031e-09
5.471123092894511279e-09
4.121599202076623763e-09
3.099660358584901157e-09
2.337721439679493437e-09
1.779682113205703196e-09
1.365467315138599253e-09
1.056452468904068249e-09
8.222406753361984134e-10
6.415537843158242632e-10
4.997822132373327579e-10
3.870980322002216403e-10
2.969188299226092442e-10
2.247624914323101576e-10
1.674424142964582001e-10
1.225026814460811919e-10
8.789359907317974755e-11
6.180364739754889705e-11
4.259335424888020514e-11
2.879221333435439375e-11
1.911660981918404905e-11
