# bin_7_4
4.878954136066738141e-08
4.441177542231933019e-08
3.934178510264113988e-08
3.391034634365627674e-08
2.849304581177796383e-08
2.343707893891329615e-08
1.897042842683776384e-08
1.515909806079541765e-08
1.193625354728805104e-08
9.209099250083853928e-09
6.962606366329524968e-09
5.226713405847671331e-09
3.938791566072309843e-09
2.963501944444383850e-09
2.237505351784656468e-09
1.705133781854385667e-09
1.309745846894528101e-09
1.014288547021284122e-09
7.899453429036137128e-10
6.165409696326715293e-10
4.802559716497088425e-10
3.718043785008648196e-10
2.849627132696118431e-10
2.154823498387276864e-10
1.603241926632470232e-10
1.171281469699868470e-10
8.391130679826487476e-11
5.891403678503805788e-11
4.054236034446697306e-11
2.736842255911342088e-11
1.814915898972919804e-11
