# bin_12_2
3.501161739268219442e-08
3.084689067124621072e-08
2.643974841529072451e-08
2.210417317211568486e-08
1.811441128245878116e-08
1.462989834384624525e-08
1.166955308823257270e-08
9.156589785210120305e-09
7.029100951442154188e-09
5.304365330591308444e-09
3.997240709658688530e-09
3.022411325356414463e-09
2.284021310885578304e-09
1.739784459671449836e-09
1.337771737736234882e-09
1.038434036795098960e-09
8.125146400520375290e-10
6.387940129326201759e-10
5.025055890364471400e-10
3.937276360380342290e-10
3.059262399236973428e-10
2.347904761195892892e-10
1.773968150773158280e-10
1.316115911635543827e-10
9.570612966458385825e-11
6.814762370812473609e-11
4.750748822505123283e-11
3.244589024385812512e-11
2.173927928153283885e-11
1.431717540946330644e-11
9.288932911092893226e-12
