# bin_14_14
9.509966028463508089e-08
9.185047262804280617e-08
8.666938840204299527e-08
7.972653688074957760e-08
7.138292730213576347e-08
6.217239858163792097e-08
5.273643677592184123e-08
4.371115682218145409e-08
3.557750013049718682e-08
2.854847310759714326e-08
2.258302694449889715e-08
1.752311666246960457e-08
1.328948501806773042e-08
9.922908396625706446e-09
7.396494639361778412e-09
5.504572881736323403e-09
4.077415283487709687e-09
3.038240349131480781e-09
2.274482111151022110e-09
1.715263960915927983e-09
1.301576853172903318e-09
9.922620447101705488e-10
7.578277547947233291e-10
5.778787427261918213e-10
4.384442002806961748e-10
3.298712851012202878e-10
2.454069147697735005e-10
1.801119707152608256e-10
1.301833047186793097e-10
9.256118787079619998e-11
6.470159074432839978e-11
