# bin_5_5
4.862475298172844483e-08
4.430750015074228616e-08
3.930154934163033304e-08
3.392911225914637673e-08
2.855588064563735705e-08
2.352173825375289915e-08
1.905652502892071308e-08
1.523564275132250234e-08
1.200612879727069090e-08
9.279831148126435242e-09
7.030592101085408268e-09
5.278789354226833711e-09
3.975224694983600914e-09
2.993080580127273593e-09
2.257699909303566432e-09
1.719208607643264324e-09
1.318898264427678997e-09
1.020190272743050576e-09
7.936175068263973662e-10
6.188034965492469705e-10
4.816849657067085041e-10
3.727745659038424331e-10
2.857056114711221341e-10
2.161221411791525485e-10
1.609148459223587945e-10
1.176827151813524971e-10
8.442203973780030803e-11
5.936699755926509936e-11
4.092624068067047485e-11
2.767860307141320004e-11
1.838834325657649203e-11
