# bin_12_4
5.425022751676506913e-08
4.973017598734947605e-08
4.435489009099941682e-08
3.847032373721204863e-08
3.249247035549312539e-08
2.683228333797764628e-08
2.178525183343853180e-08
1.746321390185247028e-08
1.380586929331354776e-08
1.069496351420390783e-08
8.099974294828941431e-09
6.073449639928881079e-09
4.572112925919304074e-09
3.435210992502667860e-09
2.584695401927735484e-09
1.963400077091817435e-09
1.502788078345243244e-09
1.160361799206277879e-09
9.018297070686277579e-10
7.031956682649052818e-10
5.479029059082256553e-10
4.247878771235055326e-10
3.263836061511108946e-10
2.476325636991649665e-10
1.849846281146276649e-10
1.357477355618090659e-10
9.770759868382832606e-11
6.892483260906981321e-11
4.764784504944047688e-11
3.230101909589370531e-11
2.150080711403926225e-11
