# bin_10_9
7.665701994866257968e-08
7.265575410228881696e-08
6.717230462110230590e-08
6.046999103029055195e-08
5.295976259840011310e-08
4.515554928685026456e-08
3.759038600977604240e-08
3.069792844240209711e-08
2.470391809430144962e-08
1.961361020847667324e-08
1.530153556812086733e-08
1.167597356638700261e-08
8.755573231262980620e-09
6.545473326835700687e-09
4.898637330953971114e-09
3.650943161687887086e-09
2.736140473331712125e-09
2.063669349852589351e-09
1.568327444929212772e-09
1.199938169480274574e-09
9.226254532322486150e-10
7.106546217933570631e-10
5.463457931655848861e-10
4.176722882652469855e-10
3.163876527895975006e-10
2.367505724751294199e-10
1.745780075534271270e-10
1.266239572533828194e-10
9.022869754667803057e-11
6.312805551427436960e-11
4.336643649947613855e-11
