# bin_15_2
3.574403813937963992e-08
3.152333808771450246e-08
2.704262170430724810e-08
2.262343181763132050e-08
1.854940440082598226e-08
1.498785278655763444e-08
1.196115400649779801e-08
9.390845223329052376e-09
7.211949842465658532e-09
5.442440699035596629e-09
4.100441119573399779e-09
3.099920958576188403e-09
2.341738975964812201e-09
1.782891947136134698e-09
1.370286585085998471e-09
1.063232314879789287e-09
8.316777447116729121e-10
6.537789663152105890e-10
5.143221055173593978e-10
4.030780093456025740e-10
3.133099583989016111e-10
2.405772544156262976e-10
1.818755892143713548e-10
1.350208621862324345e-10
9.825041934716372181e-11
7.000515215350526233e-11
4.883275104942754992e-11
3.336987771770407623e-11
2.236946380966969941e-11
1.473839781276668763e-11
9.565516081991058689e-12
