# bin_7_5
5.454778949807547882e-08
5.017003750265189700e-08
4.492685622135462675e-08
3.914372696052455093e-08
3.321565001033470065e-08
2.753998389267540528e-08
2.242271166243532039e-08
1.800478102576098947e-08
1.426453325487379776e-08
1.109904315853855898e-08
8.451226049163838652e-09
6.345170453795123322e-09
4.767244650564281111e-09
3.586354077335945832e-09
2.693714877421643311e-09
2.040846022917429306e-09
1.557243204607055087e-09
1.198545174784952350e-09
9.285377896527760068e-10
7.221143820533033742e-10
5.616018115674056235e-10
4.349982169783626566e-10
3.342442176946270637e-10
2.538582319142438110e-10
1.900073787382537823e-10
1.398275342948676659e-10
1.010048472414388214e-10
7.155011281293665398e-11
4.969201928066301592e-11
3.384998269260173968e-11
2.264005875749376082e-11
