# bin_8_5
5.656450377753674705e-08
5.216708815299078798e-08
4.684418323834025611e-08
4.092227645157371480e-08
3.480620004592554904e-08
2.891269081262464517e-08
2.357347319266104914e-08
1.895185601732284649e-08
1.503702494998601876e-08
1.172142017205022171e-08
8.937645994706062290e-09
6.710755143007543050e-09
5.038794255673208552e-09
3.789650470728418001e-09
2.843258991236570714e-09
2.151081028477455193e-09
1.638935678728496340e-09
1.259633306748729154e-09
9.747224387087088525e-10
7.574567852014667008e-10
5.889246442844327092e-10
4.562611450416680004e-10
3.508245667999382422e-10
2.667459986535370616e-10
1.999429378440914338e-10
1.473914368128428030e-10
1.066706875382638285e-10
7.571458189685133837e-11
5.269008786971969346e-11
3.596214780624183719e-11
2.409631081583092426e-11
