# bin_9_5
5.819091006551300810e-08
5.377764556918511316e-08
4.839045700715698036e-08
4.235664228140463258e-08
3.608896131471635936e-08
3.001977716365146234e-08
2.450157144511958129e-08
1.971568596487672848e-08
1.566005323112447680e-08
1.222337918758426694e-08
9.329956199978310432e-09
7.005614108456316444e-09
5.257812766485725026e-09
3.953617678154661224e-09
2.963873481640468949e-09
2.239991078409548082e-09
1.704824185168606543e-09
1.308903187607489310e-09
1.011971829019480632e-09
7.859612528848970540e-10
6.109609131093663888e-10
4.734098568004984973e-10
3.641966482848048737e-10
2.771399562487304566e-10
2.079559284760655261e-10
1.534916973873082662e-10
1.112401804577645386e-10
7.907323821574633272e-11
5.510805665545482178e-11
3.766564357976086456e-11
2.527081498161057207e-11
