# bin_13_2
3.530677939400999369e-08
3.111945434932757893e-08
2.668263729207787948e-08
2.231335286193100848e-08
1.828963156480342724e-08
1.477407789448152459e-08
1.178700038072027121e-08
9.250934701821829185e-09
7.102739750778388272e-09
5.359971442390480682e-09
4.038803631875920302e-09
3.053628051595808552e-09
2.307267961541846098e-09
1.757147649710540089e-09
1.350869011470077218e-09
1.048423464518923349e-09
8.202342943307598823e-10
6.448305885423973086e-10
5.072657046891835169e-10
3.974941569768042313e-10
3.089003893112275578e-10
2.371212283327257651e-10
1.792006131068670538e-10
1.329845564173391234e-10
9.673068408692632227e-11
6.889558053285905901e-11
4.804109137084514005e-11
3.281790559092201160e-11
2.199299312821174013e-11
1.448675467376025146e-11
9.400278964603363802e-12
