# bin_13_4
5.489250823686636059e-08
5.035572625021666572e-08
4.494453569889394935e-08
3.900667555712888550e-08
3.296289144274248413e-08
2.723163614213536617e-08
2.211633941224203481e-08
1.773423110901196177e-08
1.402577983940430882e-08
1.086973655586189180e-08
8.233756011687154924e-09
6.173046019975168401e-09
4.646606595894426855e-09
3.490695164355137254e-09
2.625533088644980180e-09
1.993778181272047315e-09
1.525494264763913086e-09
1.177543317133716558e-09
9.149898152016663894e-10
7.133881931172482913e-10
5.558596942809244153e-10
4.310199245820342737e-10
3.312556406378590993e-10
2.514141655367249369e-10
1.878852684753043055e-10
1.379378385204683712e-10
9.933037312310481527e-11
7.010234554983576661e-11
4.848362512035377324e-11
3.288121544397328738e-11
2.189504536980420094e-11
