# bin_13_8
7.807791735312924944e-08
7.407403628216396312e-08
6.854499324291061019e-08
6.175289695059474605e-08
5.411373300470368144e-08
4.615353377866126592e-08
3.842437160100712200e-08
3.137987397406239527e-08
2.525746659903562218e-08
2.006195653090154427e-08
1.565621431476582098e-08
1.194171572715027200e-08
8.947288439265492675e-09
6.688721354151258072e-09
5.005857365452356195e-09
3.727571874369845496e-09
2.793785065640959887e-09
2.106179998725769067e-09
1.600621529322025598e-09
1.224711228435455392e-09
9.418457263016655686e-10
7.256963817672695075e-10
5.581560044022289888e-10
4.269258642955336769e-10
3.235802070955326969e-10
2.422710934924158736e-10
1.787453632111702101e-10
1.297079122784331757e-10
9.246088825378687529e-11
6.470611333842996219e-11
4.445559120069155721e-11
