# bin_2_15
5.304109314286175031e-07
5.498850801588630435e-07
5.497887013045965430e-07
5.245770880866653682e-07
4.739370957480341364e-07
4.060822265608877696e-07
3.356578078224339608e-07
2.787619536461515465e-07
2.372634335272948254e-07
1.948941769331773903e-07
1.447919436216832153e-07
1.071000261387432303e-07
8.231765419618939923e-08
5.922916104104232853e-08
4.357421005542725301e-08
3.163637432270225454e-08
2.321886317781429837e-08
1.722334184609139828e-08
1.298146072415291141e-08
9.959052249860442376e-09
7.763580835494319704e-09
6.126065237214858076e-09
4.861190456700440874e-09
3.851676515730998084e-09
3.026322183764786145e-09
2.343084279707092634e-09
1.778146193776996728e-09
1.317481621691416501e-09
9.507796079579886648e-10
6.680030827260069392e-10
4.574851114749895097e-10
