# bin_2_14
5.230168864673596013e-07
5.421899717359703186e-07
5.420582693853266089e-07
5.171563667903338386e-07
4.671904385764155462e-07
4.002693482601478402e-07
3.308434333479682574e-07
2.747747322183069970e-07
2.338728200233533350e-07
1.920826985976603892e-07
1.426840978465351468e-07
1.055534436233055240e-07
8.112338112400155730e-08
5.836837001902252938e-08
4.294177544561969190e-08
3.117778987751167943e-08
2.288288162821388245e-08
1.697489094779462294e-08
1.279487097309484050e-08
9.816422424548889866e-09
7.652751510226204917e-09
6.038817852294484222e-09
4.792040165785147573e-09
3.796886710621657800e-09
2.983223522614462243e-09
2.309642982215948140e-09
1.752690971236702485e-09
1.298552450809977720e-09
9.370651215793131205e-10
6.583297158485156814e-10
4.508362924334676333e-10
