# bin_12_8
4.435832712762777714e-12
5.036358576833857140e-12
5.629344268305878897e-12
6.171012928721989284e-12
6.602712029063154993e-12
6.850815295953091350e-12
6.854542568673448292e-12
6.520611407333036527e-12
5.855566315336271206e-12
4.969940615411648367e-12
4.070538743951653166e-12
3.387406251952562520e-12
2.932706380154928043e-12
2.404796594725660204e-12
1.691699301200045149e-12
1.273563600012429859e-12
9.780340626026115392e-13
6.639499903595259223e-13
4.772152811403732874e-13
3.359333087550707474e-13
2.299583431354931722e-13
1.572440282438487715e-13
1.079290484005091323e-13
7.466364542340608437e-14
5.226502240039412218e-14
3.725167078129325657e-14
2.707465732725652255e-14
2.009011930242907320e-14
1.518188307289500428e-14
1.162379384396980878e-14
8.952931351179064512e-15
