# bin_1_8
6.939619972848097922e-07
6.797275439186783756e-07
6.342099760244198324e-07
5.615949296004033974e-07
4.752750539194688817e-07
3.937338741778225930e-07
3.294166716349230746e-07
2.762836681910464293e-07
2.196242524755313071e-07
1.633043734613353507e-07
1.225465723568927279e-07
9.241332362291701801e-08
6.742799326388939680e-08
4.973024208207245043e-08
3.666839301827353549e-08
2.737472836867714982e-08
2.074676229836438840e-08
1.600411393654585241e-08
1.255125595133624978e-08
9.966112973397341436e-09
7.963834578002747517e-09
6.358078172228850925e-09
5.035715141772852283e-09
3.931565560943092989e-09
3.009623077519676872e-09
2.249883853997130773e-09
1.638668244482374803e-09
1.162072066966156510e-09
8.032323167841112251e-10
5.423843825856524573e-10
3.588547732384635975e-10
