# bin_14_2
5.027909130784739549e-34
5.711559575320410345e-34
6.388300077008629353e-34
7.008706725337382220e-34
7.506621562134511498e-34
7.798818335481035287e-34
7.814881591222853605e-34
7.449938150740984237e-34
6.703671189671554498e-34
5.701517710651135009e-34
4.671993065803887369e-34
3.881875598012440705e-34
3.359115276521256868e-34
2.767150975790584107e-34
1.954748572130528423e-34
1.460910259873163142e-34
1.130767829788420167e-34
7.632270604019125885e-35
5.526706927325009806e-35
3.875790016960521602e-35
2.649948500007591804e-35
1.811592651986524053e-35
1.241372579945733145e-35
8.570097508575575436e-36
5.983028017268066790e-36
4.251686782176735576e-36
3.080527060917869313e-36
2.279088340803135371e-36
1.718144477340955561e-36
1.313378426795642708e-36
1.010937978386712217e-36
