# bin_9_8
2.755358917012849010e-09
3.105018646618535369e-09
3.438841965125209143e-09
3.727460122250953647e-09
3.932588828581061328e-09
4.011007679811651587e-09
3.924687928264757573e-09
3.630180642832801942e-09
3.174752050175155344e-09
2.634624448861560752e-09
2.158874942966832670e-09
1.837176045127359261e-09
1.577716829287417558e-09
1.201156757374245486e-09
8.366667999296738076e-10
6.751680937232467750e-10
4.628094111462248835e-10
3.446551730397385846e-10
2.343498673172583300e-10
1.644492731141768501e-10
1.148506875090814566e-10
8.017655621697908128e-11
5.635116620716553518e-11
4.004761138467782094e-11
2.899437357969203361e-11
2.140464021247185615e-11
1.609614154732387220e-11
1.229506000301853909e-11
9.482144866371199818e-12
7.331104373416712325e-12
5.640589666073313726e-12
