# bin_2_7
4.015787836662881394e-07
4.158213627573960475e-07
4.151268518848680008e-07
3.953315391330964091e-07
3.564514449709553921e-07
3.048724933155629651e-07
2.518377349071935644e-07
2.093375803611110334e-07
1.782254162260799722e-07
1.459527303059631865e-07
1.081082419721132885e-07
8.017777272523797237e-08
6.153143502863303548e-08
4.424741092018613124e-08
3.256694041342515846e-08
2.365438975972257066e-08
1.737060553520942798e-08
1.289834815950450878e-08
9.733036870682535717e-09
7.475709335936228309e-09
5.833753778626913195e-09
4.606765976310648412e-09
3.656990138866038371e-09
2.897553374525353868e-09
2.275814753335036810e-09
1.760781437325047823e-09
1.334938312208392182e-09
9.879325725394988593e-10
7.120410725813971827e-10
4.996287824889212237e-10
3.417669324626749057e-10
