# bin_6_11
1.209386726650627646e-07
1.344671263902950633e-07
1.465091481012265379e-07
1.556229958303994155e-07
1.600842107829661943e-07
1.584534590884429123e-07
1.487479833352992834e-07
1.319529449426730776e-07
1.108347476940430027e-07
9.076180682340569118e-08
7.625884165187646397e-08
6.577914365615829338e-08
5.224059362243136529e-08
3.661418321688636115e-08
2.848002465483770262e-08
2.091660837060267819e-08
1.489272899446142631e-08
1.053050698705680235e-08
7.531391130985322504e-09
5.312429322123920120e-09
3.767928442393143438e-09
2.704316656528023979e-09
1.969671924970166569e-09
1.460942854811520614e-09
1.103846051388946316e-09
8.466466282758906455e-10
6.560834169403882720e-10
5.102363375369045170e-10
3.954085938964693869e-10
3.033243486734336331e-10
2.290749693125538743e-10
