# bin_13_13
6.903913443007805741e-09
7.882447595729027721e-09
8.874221764565468678e-09
9.813698208484734802e-09
1.061479010029931896e-08
1.116634212440132884e-08
1.134865960391028154e-08
1.104467560698797860e-08
1.015012552249567657e-08
8.820325962634610861e-09
7.289269063158675554e-09
5.984287760976143196e-09
5.121214267811892353e-09
4.372936771034070769e-09
3.261756104877232370e-09
2.288397356648951032e-09
1.856050453155479130e-09
1.236935842776278231e-09
9.296431536168897024e-10
6.274060816988242707e-10
4.285381687812546433e-10
2.933367186012325809e-10
1.992147418968977141e-10
1.350416855850432015e-10
9.185373138755116465e-11
6.330436820301274543e-11
4.434026576850280126e-11
3.168868670462323246e-11
2.315911476421582440e-11
1.728432489908574208e-11
1.311520052117514431e-11
