# bin_14_8
1.266946783794091600e-14
1.443697683046626051e-14
1.621266092639411688e-14
1.787460915477673789e-14
1.926127188698581726e-14
2.016665258980947664e-14
2.038755857542997393e-14
1.968487386501598234e-14
1.793740522318446482e-14
1.545423529815532224e-14
1.271750292380076964e-14
1.047958200907591672e-14
9.019181954297939433e-15
7.613099643749491244e-15
5.544876781241920361e-15
3.971606752778351202e-15
3.194497747936635845e-15
2.110797429052876215e-15
1.582295461036730984e-15
1.083117298971603482e-15
7.369291899593826107e-16
5.043001637329546883e-16
3.431085885518174091e-16
2.341104772936096160e-16
1.608184862667130236e-16
1.121861349415283581e-16
7.967159893869013367e-17
5.778263597829364205e-17
4.281907359721661747e-17
3.232516656535945538e-17
2.471839669007474582e-17
