# bin_11_13
2.780594178925606762e-08
3.162486988471319622e-08
3.542728135371052018e-08
3.894210236975889069e-08
4.180781467809454847e-08
4.356741907646169080e-08
4.380962946684373493e-08
4.197433680071632254e-08
3.795719555604936933e-08
3.244840070603376720e-08
2.663160969986080487e-08
2.205267474262856382e-08
1.904492172214600661e-08
1.584602781534545504e-08
1.132892618404236551e-08
8.321414781646579839e-09
6.546611651924592971e-09
4.375841668033020186e-09
3.216857808301654231e-09
2.233667116964250660e-09
1.523841354303305599e-09
1.042081234922652413e-09
7.118323796891420779e-10
4.890939870847810194e-10
3.392539462782941457e-10
2.393301641228539567e-10
1.720599523609254967e-10
1.263313843203986286e-10
9.462570020486563781e-11
7.200241825533339752e-11
5.529399091388859236e-11
