# bin_4_5
6.888454356862275421e-08
7.468648773546075260e-08
7.887823940121659095e-08
8.061499902439419873e-08
7.911905789979749183e-08
7.356337650372166186e-08
6.466905474554037980e-08
5.398111135300328802e-08
4.426685643147994887e-08
3.741443326927844012e-08
3.205007797080250714e-08
2.490567645168568001e-08
1.759869642266653562e-08
1.384111178293738541e-08
9.991033853251360751e-09
7.278649944748378636e-09
5.182640013106263426e-09
3.750357482047276778e-09
2.706698341437483793e-09
1.973939599460570486e-09
1.462475877436249385e-09
1.102198104446975285e-09
8.453859771297218358e-10
6.575682228792770211e-10
5.156234192250708961e-10
4.049368415601990533e-10
3.162667216467122896e-10
2.440704460967886386e-10
1.850918322340152648e-10
1.373311366775965427e-10
9.938702280818092524e-11
