# bin_12_14
2.438736134388780080e-08
2.780582350749198255e-08
3.124929539268734847e-08
3.448404149450499083e-08
3.720117307967003531e-08
3.900528354543629014e-08
3.949569429748048586e-08
3.822706954956741791e-08
3.492597189048354564e-08
3.017208410822442766e-08
2.486350402886677122e-08
2.046539111866973001e-08
1.758070455305899135e-08
1.489172614577089006e-08
1.093084500518738425e-08
7.778933495292917163e-09
6.270205789742839126e-09
4.157305288065582196e-09
3.117141184540762618e-09
2.124067349966675861e-09
1.447158242015551307e-09
9.904571307529839026e-10
6.736146467959045720e-10
4.586870483728585856e-10
3.141140623440172764e-10
2.182961879221820871e-10
1.543652505596169883e-10
1.114483771905338038e-10
8.223645069027843205e-11
6.186423397466470660e-11
4.719278348254402205e-11
