# bin_14_7
1.171614509426208657e-16
1.334102193303932363e-16
1.496787567859230350e-16
1.648343413195498877e-16
1.773715177735745547e-16
1.853778043544525821e-16
1.870317320583922265e-16
1.800494242649740858e-16
1.635687993490923363e-16
1.404875980873595311e-16
1.154643956240788857e-16
9.530935262735773051e-17
8.216758504539923155e-17
6.900438968056377833e-17
4.985226325334396361e-17
3.604781786483067203e-17
2.879333309840048478e-17
1.906426778817464270e-17
1.421163018531924692e-17
9.783287580104897674e-18
6.659868763268600114e-18
4.555282289871684601e-18
3.102476876643244046e-18
2.122427017474785412e-18
1.463479442298072234e-18
1.025445429199708029e-18
7.318266955647337073e-19
5.334426701642370968e-19
3.970912045706774288e-19
3.008210191286287310e-19
2.305107141564027273e-19
