# bin_3_6
2.095876147715926326e-07
2.235318408390585503e-07
2.313151247164448754e-07
2.307052281404492131e-07
2.191268256513346416e-07
1.968099304375834254e-07
1.674771891091400187e-07
1.377552042408433668e-07
1.146673068034392868e-07
9.826118185964557589e-08
8.018306355981803861e-08
5.819805202573837933e-08
4.351805866746229159e-08
3.339823016802284819e-08
2.363755911919682356e-08
1.739461891727205781e-08
1.252843542432374676e-08
9.091769567684378469e-09
6.672325939922968768e-09
4.969195333781990782e-09
3.765560079456751942e-09
2.901817752904061063e-09
2.267946332781875608e-09
1.786714878853536719e-09
1.409251801760496587e-09
1.105196845318215530e-09
8.561437755379409535e-10
6.514677692476349971e-10
4.847864591105694829e-10
3.517063098266708898e-10
2.484515209016839988e-10
