# bin_14_10
1.188198229060373144e-11
1.355980961641810812e-11
1.525691614951246688e-11
1.686010558172047494e-11
1.822039056582076988e-11
1.914603858039228526e-11
1.943447231027310924e-11
1.887885134859764255e-11
1.731371966976497310e-11
1.501422176089626686e-11
1.239332394725406390e-11
1.018167059123134481e-11
8.726575876386014022e-12
7.434523796040405439e-12
5.512246949272314029e-12
3.881942099414992988e-12
3.149049158938408797e-12
2.088213442145168449e-12
1.572540222505855180e-12
1.064512309360533321e-12
7.254249752437242408e-13
4.967307456821891704e-13
3.375292975040695176e-13
2.291420826558758570e-13
1.562148889074435885e-13
1.079755867619524406e-13
7.588522660958930493e-14
5.443308161069995972e-14
3.992426288028085766e-14
2.988879232842080208e-14
2.273016696551137009e-14
