# bin_4_12
2.467153504993193000e-07
2.684779141198664740e-07
2.848497993413406443e-07
2.927505278004900520e-07
2.894191308038640463e-07
2.715637151803348571e-07
2.408672379550301194e-07
2.025478902874189714e-07
1.661007974654261726e-07
1.394658787242463568e-07
1.198095336676368868e-07
9.518347968156571271e-08
6.752790738820487547e-08
5.210118388822614462e-08
3.864152412544728348e-08
2.760646480048220504e-08
1.988757296596067276e-08
1.432719029077548956e-08
1.028805677290904493e-08
7.465315099417245171e-09
5.496386109369836150e-09
4.115348993824515584e-09
3.136200395848391372e-09
2.427028479412166884e-09
1.896739348060045577e-09
1.487506593683783173e-09
1.162540160714637612e-09
8.993877059743105516e-10
6.848415394282284824e-10
5.108831412936931340e-10
3.721064836935036636e-10
