# bin_1_10
7.357823050740546994e-07
7.210815541418934452e-07
6.732186440073548338e-07
5.965020869217826231e-07
5.050365289584466646e-07
4.184047362804289601e-07
3.499871821007072619e-07
2.936190243648142429e-07
2.336236372136978974e-07
1.737778358237413078e-07
1.303507795548052498e-07
9.833923240031320958e-08
7.175160589158000081e-08
5.291345275118876438e-08
3.900885100432898447e-08
2.911454178544847937e-08
2.205807905961482081e-08
1.700988467270815450e-08
1.333602215849893409e-08
1.058688894757088250e-08
8.458921514189247414e-09
6.753350297801488910e-09
5.349371955246580708e-09
4.177319400521539051e-09
3.198669080629085864e-09
2.392029639775879248e-09
1.742845056336792350e-09
1.236407819228761903e-09
8.549083510536934655e-10
5.774540521271601426e-10
3.821554299307267905e-10
