# bin_9_9
9.924173724845128230e-09
1.119766438208232591e-08
1.242036676483973433e-08
1.348795290221964780e-08
1.426341838598964932e-08
1.458758680998651213e-08
1.432848501853770159e-08
1.331350434753376693e-08
1.169409579689409673e-08
9.734665215665975244e-09
7.970269801797400151e-09
6.758425046102905501e-09
5.821920676739143826e-09
4.489576675004621763e-09
3.116189059480249458e-09
2.498662075308846879e-09
1.741120834814498108e-09
1.280941541672721283e-09
8.714086852606043142e-10
6.146571002749994321e-10
4.279365551087339572e-10
2.975923739460588192e-10
2.083932616682875976e-10
1.474437860890881128e-10
1.061906717492508188e-10
7.798540318662612075e-11
5.836562012355543117e-11
4.441812237028167083e-11
3.417959644089674473e-11
2.640978469526853746e-11
2.033875610066703739e-11
