# bin_7_11
8.569074933761581731e-08
9.592712837447213811e-08
1.053917100404578953e-07
1.131119205358260957e-07
1.178602414182782882e-07
1.185142496309110101e-07
1.136132181482226624e-07
1.028469137814383152e-07
8.803547352044947066e-08
7.233035623647872876e-08
5.986639629662459401e-08
5.158274988336096163e-08
4.294285721903225818e-08
3.094982974967652642e-08
2.268315238093992331e-08
1.785155146907994332e-08
1.209453887040558405e-08
8.938693442201201120e-09
6.264915723092135415e-09
4.369068033345864309e-09
3.070059636897516934e-09
2.170245587041781301e-09
1.552775064077787840e-09
1.128325858316576337e-09
8.362076707828386776e-10
6.309520991738847187e-10
4.832278788866774113e-10
3.736608589123569477e-10
2.896730402040701522e-10
2.235331758699019645e-10
1.705951031681278018e-10
