# bin_14_11
1.043171486228105103e-10
1.191239516588307828e-10
1.341432097871723413e-10
1.483857480480283734e-10
1.605534719629598781e-10
1.689683836004480183e-10
1.718085952514807124e-10
1.673250691096008583e-10
1.538854261996591507e-10
1.338229646262648667e-10
1.106298016197979980e-10
9.079167317650779962e-11
7.766201076123647215e-11
6.638667323712989700e-11
4.961368414259571192e-11
3.473921989013132152e-11
2.820760992921705194e-11
1.880062892316861184e-11
1.414080985970757328e-11
9.530818871712406331e-12
6.509811307333319283e-12
4.456671987254439811e-12
3.026536392752578392e-12
2.050452648069711767e-12
1.393496643614918287e-12
9.593771629983204554e-13
6.711691394676665487e-13
4.790462302733734466e-13
3.496750608053880952e-13
2.607111386706163267e-13
1.976956806020439774e-13
