# bin_6_13
1.460040698397067745e-07
1.623709570842790319e-07
1.769581443562767037e-07
1.880274799144854207e-07
1.934952702117002679e-07
1.916225030694276032e-07
1.800043084442650558e-07
1.597816540637255807e-07
1.342850324645326392e-07
1.099689965272472871e-07
9.235034024060340678e-08
7.966792955615679361e-08
6.337451140450277732e-08
4.444051224479988431e-08
3.450767083633844928e-08
2.540411682371868066e-08
1.805426423743917283e-08
1.278262786204525919e-08
9.138882022350610815e-09
6.443494915096868353e-09
4.568398514584026757e-09
3.277155700409604699e-09
2.385553317438972931e-09
1.768304004156623128e-09
1.335320807042425218e-09
1.023714856605088548e-09
7.930526664655065317e-10
6.166809912140801265e-10
4.779244645748425824e-10
3.667024780828848739e-10
2.770347957666354193e-10
