# bin_4_3
3.523374911339803709e-08
3.124987299529803520e-08
2.697877554305759885e-08
2.270827130569399970e-08
1.870697245819622036e-08
1.515750946344436413e-08
1.212116004278189993e-08
9.556587564344189486e-09
7.393658275114896786e-09
5.610530887948253863e-09
4.222033068260086767e-09
3.188284204479490491e-09
2.409920939312992522e-09
1.827189631729077741e-09
1.399256287748177180e-09
1.080457218035092666e-09
8.413299089259952495e-10
6.587498453273320745e-10
5.167396958669534232e-10
4.043508040210141393e-10
3.142752158898528917e-10
2.416602672150822634e-10
1.832119841339495326e-10
1.365744938976711370e-10
9.990301163639070493e-11
7.161919715486261110e-11
5.029308477909441754e-11
3.460438717276330253e-11
2.335205595900146166e-11
1.548047717259539512e-11
1.010137946383004706e-11
