# bin_9_4
5.126002144699299149e-08
4.681373846189046821e-08
4.160035878669198462e-08
3.595837733094830711e-08
3.028283914386141799e-08
2.495104206479804333e-08
2.022195706712961452e-08
1.618165951199004045e-08
1.276469387346196528e-08
9.865537382659066942e-09
7.462646843370826816e-09
5.597362122269090142e-09
4.215134947123988992e-09
3.168210722972832180e-09
2.387400124979147485e-09
1.816038732063733319e-09
1.392221095925314626e-09
1.076416791631647529e-09
8.373746786739716139e-10
6.532071623199383799e-10
5.088709874880531606e-10
3.942424665979730417e-10
3.025445509910791349e-10
2.291712674794128512e-10
1.708611494293294622e-10
1.251130144672843735e-10
8.984863650600561875e-11
6.323620233921404912e-11
4.361887131023138877e-11
2.950925772506264653e-11
1.960670444718766649e-11
