# bin_10_9
7.622639245919229996e-08
7.221777827431852255e-08
6.673708522620978482e-08
6.004884098544167698e-08
5.256408668068293675e-08
4.479548897777914162e-08
3.727327647284104935e-08
3.042682280585124554e-08
2.447749221443538974e-08
1.942741917271021688e-08
1.515032503228137956e-08
1.155557355543228857e-08
8.662478925790734334e-09
6.474869086890799175e-09
4.844843478669270485e-09
3.610180623635255211e-09
2.705447766956274984e-09
2.040362699850723477e-09
1.550587506438430554e-09
1.186350842677709748e-09
9.121667992025828741e-10
7.025851089921899040e-10
5.401241523461807320e-10
4.128952968010216097e-10
3.127474210122726300e-10
2.340061856116007137e-10
1.725363797947243360e-10
1.251283151468155131e-10
8.915139407922658413e-11
6.236582690159885456e-11
4.283687020972638417e-11
