# bin_1_1
1.311793871300364059e-08
1.090426960310861867e-08
8.898796081851131602e-09
7.157746256610379603e-09
5.680848217994987621e-09
4.437485659502316288e-09
3.405204127584129045e-09
2.581932970770915985e-09
1.957037417180335452e-09
1.490027847169684085e-09
1.138937529675202318e-09
8.782322492023990245e-10
6.841972836301707882e-10
5.377522866079832487e-10
4.253201499212387384e-10
3.371566236781692187e-10
2.666519255642679735e-10
2.094437500922451487e-10
1.626986641970343917e-10
1.245488009086387269e-10
9.368956969885786596e-11
6.910887917557522434e-11
4.992427723305908198e-11
3.530455149797850378e-11
2.444863165634475029e-11
1.659857713538004848e-11
1.106676049503565241e-11
7.261219760524211552e-12
4.699073468290170653e-12
3.006016110670966266e-12
1.904776035474378490e-12
