# bin_2_1
1.648061539783961299e-08
1.385829715175553237e-08
1.141255090610221904e-08
9.246332252514944789e-09
7.391776504604830933e-09
5.824906964849617658e-09
4.509112047697772086e-09
3.432577607274391133e-09
2.595976020353613112e-09
1.969731232840941350e-09
1.499609145767086532e-09
1.147977098788886718e-09
8.878957686995703137e-10
6.932534050451191140e-10
5.456623450603652201e-10
4.315135134092757807e-10
3.413967480004943327e-10
2.689766824394212654e-10
2.101044046931309144e-10
1.620717817451544649e-10
1.230548555328692034e-10
9.172796941183704526e-11
6.701155501113968898e-11
4.793239288184835303e-11
3.356518846206842922e-11
2.302649768330665631e-11
1.549683776577865754e-11
1.025075245903955405e-11
6.679044262596949183e-12
4.296356657191044740e-12
2.734378221442741777e-12
