# bin_9_1
2.224703617308312820e-08
1.895615690165675991e-08
1.577644889436210994e-08
1.288824548753328124e-08
1.038198088791752214e-08
8.252962676570844552e-09
6.448109566662298027e-09
4.937490012168492357e-09
3.732224272968059652e-09
2.821603929036685092e-09
2.140100211789294222e-09
1.627454853804981285e-09
1.248801292962765767e-09
9.680055599607417199e-10
7.574487409766352715e-10
5.969345851490852216e-10
4.720016755874769473e-10
3.727589465540158083e-10
2.926538708037512291e-10
2.274236192483363995e-10
1.742723041202063212e-10
1.312804209363267274e-10
9.699695259553584162e-11
7.018839586637574156e-11
4.971134586731310534e-11
3.446962406219746255e-11
2.342380235449607979e-11
1.562584704694125777e-11
1.025431201781251993e-11
6.634953869311859329e-12
4.242534928305330640e-12
