# bin_9_7
6.741340993157241808e-08
6.317336857913023413e-08
5.769741566109667563e-08
5.128365228285311948e-08
4.434928988175490407e-08
3.737456628403595140e-08
3.081353415055811868e-08
2.497958073755241463e-08
1.998159706273478761e-08
1.575295433687154520e-08
1.217370079798040307e-08
9.207491293615932960e-09
6.889922380012142576e-09
5.166523968485291848e-09
3.867632559411546650e-09
2.894589733909774079e-09
2.185162100839080616e-09
1.660075725821465624e-09
1.271511779924471540e-09
9.798621686230779591e-10
7.576164098264275728e-10
5.856088538139385734e-10
4.507628816808277068e-10
3.442170702842258791e-10
2.598805610273409487e-10
1.934438584686767842e-10
1.416547978523586140e-10
1.018916952698182888e-10
7.192805939247585047e-11
4.982104569016660126e-11
3.387263650998591999e-11
