# bin_9_9
7.382536513119794057e-08
6.975055926249923141e-08
6.426737569672783696e-08
5.764971446532896952e-08
5.031072334454468098e-08
4.275482695760689018e-08
3.549225193458658234e-08
2.892158188639050647e-08
2.323335300963679345e-08
1.841024382073416122e-08
1.432599767492051874e-08
1.090373285405220192e-08
8.168408025934370516e-09
6.109992531624419160e-09
4.572857403600778277e-09
3.410355669528035706e-09
2.560500798602853735e-09
1.934349880498433320e-09
1.472970232245330201e-09
1.129025746052447687e-09
8.693498941208780793e-10
6.702498405167535293e-10
5.154737232486204440e-10
3.939839315038201954e-10
2.982083012858043095e-10
2.228589443374477665e-10
1.640508534802064564e-10
1.187408182073876105e-10
8.441247205391033444e-11
5.890934732563997655e-11
4.036247969285515326e-11
