# bin_8_7
6.511343296395660852e-08
6.084451067791858006e-08
5.540483234911080811e-08
4.909780599390864695e-08
4.233743391374665143e-08
3.559014091768304690e-08
2.928508251699585043e-08
2.370531911497752475e-08
1.893588294418182651e-08
1.490151783039024034e-08
1.149112716135563484e-08
8.679438337756624567e-09
6.496573485067746246e-09
4.874449599584681436e-09
3.650008078042476688e-09
2.736033934781570515e-09
2.068657802806169583e-09
1.574494938714911734e-09
1.207982804736933595e-09
9.322261316210046731e-10
7.214834389871349123e-10
5.579206994248061973e-10
4.293978366422633555e-10
3.276855755156145752e-10
2.471179927037080859e-10
1.836602176504878849e-10
1.342389548384758643e-10
9.635358184578919200e-11
6.786440795002020660e-11
4.689681454902842364e-11
3.181097492153999167e-11
