# bin_11_7
1.485978864589188924e-13
1.682939806066874244e-13
1.875192678779878286e-13
2.047736578688286935e-13
2.180510856140401300e-13
2.248741787516011469e-13
2.233496667682372282e-13
2.103884816439179651e-13
1.871917818883121671e-13
1.574649837535569289e-13
1.288070769090328502e-13
1.080240535375977757e-13
9.355683698259037237e-14
7.489952245097287125e-14
5.199014488737956054e-14
4.042391211011832025e-14
2.980334758274549140e-14
2.093009931673020623e-14
1.453436300616587807e-14
1.034332668848043675e-14
7.127228429488511204e-15
4.896244697718615842e-15
3.389921185911867447e-15
2.367409326926991622e-15
1.677656415086966180e-15
1.211717980113569213e-15
8.925825728109633787e-16
6.704261173172273760e-16
5.113765145024245791e-16
3.936812230709193902e-16
3.036160972023667778e-16
