# bin_4_1
6.358353688559343989e-14
6.750491699602129577e-14
6.944623009312088400e-14
6.877582859773874426e-14
6.466152013602994071e-14
5.746200870872507625e-14
4.836941603135376036e-14
3.962396071018850712e-14
3.320225615423577834e-14
2.858212244520144534e-14
2.285332389394991930e-14
1.618460586538572150e-14
1.249081299357814308e-14
9.350537540737769866e-15
6.689668858563057423e-15
4.860001944724502686e-15
3.542927237112316152e-15
2.577401607064547734e-15
1.900410496282264174e-15
1.425063798640730768e-15
1.087741567896242973e-15
8.441788954366056632e-16
6.634609990742453546e-16
5.245336022532428375e-16
4.142793535173874182e-16
3.246059688615436493e-16
2.507085326335309818e-16
1.898463840246244990e-16
1.403593589954912399e-16
1.010426281255992569e-16
7.078287278563496109e-17
