# bin_11_2
1.363642941849204993e-27
1.534899676204801177e-27
1.697532958541954179e-27
1.836822381423973953e-27
1.933713782672785405e-27
1.967346733675255200e-27
1.918104028998593360e-27
1.766815633427577748e-27
1.538914774607168991e-27
1.273737832844547136e-27
1.044806302285405700e-27
8.919477275293139240e-28
7.632416971071527102e-28
5.742570270573747458e-28
4.020621623825693429e-28
3.255960216656121993e-28
2.203341463251688511e-28
1.654778612052119379e-28
1.128209709632236874e-28
7.879210918134837942e-29
5.516251281267255678e-29
3.862635638130790128e-29
2.724057891872663974e-29
1.944021101232392600e-29
1.414247357418960257e-29
1.048953964976723034e-29
7.921002275429443942e-30
6.069331866746490557e-30
4.688921375164003855e-30
3.626193337690056662e-30
2.786929709177994897e-30
