# bin_10_9
3.013117818314362808e-11
3.416306605501091707e-11
3.811868624205242532e-11
4.169710670773636414e-11
4.449508708996205899e-11
4.601022606915772036e-11
4.584898995427503306e-11
4.337597510585311338e-11
3.875024139984127733e-11
3.272161823146901511e-11
2.677668114256193581e-11
2.237813088029088851e-11
1.938470711163671390e-11
1.569076307235635806e-11
1.094352090363215968e-11
8.392301886518749702e-12
6.303558800603668541e-12
4.356780402415322323e-12
3.069617655184679482e-12
2.177528541440547353e-12
1.495857578236985599e-12
1.024835050535848725e-12
7.068114564003506048e-13
4.915784793720787178e-13
3.464972843925257229e-13
2.488408199858627106e-13
1.822606107317160501e-13
1.362057959661456814e-13
1.035014241098547470e-13
7.951320621443094535e-14
6.130350756031873228e-14
