# bin_12_6
1.173572915121913991e-16
1.330443127890066138e-16
1.484255926403301535e-16
1.623277271188709324e-16
1.731784817046463631e-16
1.790204416068544118e-16
1.783270162750296448e-16
1.686240935557931630e-16
1.505709036646295805e-16
1.270872340634378228e-16
1.039907936353313215e-16
8.694292302453580759e-17
7.531475307104170915e-17
6.088850232793305569e-17
4.243633619651374466e-17
3.259804290042997114e-17
2.443358723085198810e-17
1.691711889585493677e-17
1.189720913479055551e-17
8.444910085037621854e-18
5.803190807807458612e-18
3.976742717531177822e-18
2.743923811484194946e-18
1.909285969250575756e-18
1.346633511491293511e-18
9.677508022609088144e-19
7.093010448280921854e-19
5.303974700191079250e-19
4.032345008119148257e-19
3.098648662528764180e-19
2.389179170548718262e-19
