# bin_10_2
3.179752806153648031e-25
3.564696654225222611e-25
3.923230907810973408e-25
4.219668239731571272e-25
4.408697745755292047e-25
4.447069985457592962e-25
4.281449040448040435e-25
3.891092373303458296e-25
3.343722727830046547e-25
2.749306363082448647e-25
2.268600998937760084e-25
1.953284261272833733e-25
1.640896751629241019e-25
1.190559567658167199e-25
8.607350619439102807e-26
6.878221175644543601e-26
4.603343859159282648e-26
3.447563138398979775e-26
2.401128092454658621e-26
1.669257666521059744e-26
1.172026226564876774e-26
8.261804887470429863e-27
5.891166631416802337e-27
4.263413170785929102e-27
3.147480230943243395e-27
2.366894616154052654e-27
1.808194418307501179e-27
1.396428536664016222e-27
1.082562875503101521e-27
8.363774877835399745e-28
6.396602903271260203e-28
