# bin_6_4
7.329106757178662915e-12
8.091053630436505246e-12
8.738530218197522767e-12
9.180614878916793483e-12
9.320880591377297341e-12
9.062479335314914357e-12
8.325970770280616291e-12
7.233640707859657188e-12
5.981281752736596129e-12
4.911182287411160670e-12
4.195149609479924133e-12
3.574768274537862449e-12
2.678979140217626644e-12
1.892703746640197882e-12
1.526213531430379127e-12
1.043795059922807965e-12
7.848581910063550168e-13
5.455127718646259613e-13
3.879851858392065615e-13
2.775544694947023332e-13
1.998605307553097160e-13
1.458430759295447390e-13
1.081384291117527425e-13
8.173230789779096250e-14
6.277014764736458987e-14
4.874620829433046776e-14
3.804931958588009232e-14
2.963593603918840101e-14
2.287865889386076682e-14
1.740276562127709419e-14
1.298290525266436138e-14
