# bin_15_10
8.033034434684801442e-14
9.185757875423611504e-14
1.036170455450949463e-13
1.148558677827961380e-13
1.245909076383051447e-13
1.315384677685199741e-13
1.342317076928437613e-13
1.314231996843116879e-13
1.215943230856105179e-13
1.063663469945264289e-13
8.824306387255497875e-14
7.229162003277079570e-14
6.156042923988612326e-14
5.293418588690686096e-14
4.023557964801485972e-14
2.791718096599312342e-14
2.261049824288818348e-14
1.532461211247375653e-14
1.143071243504337973e-14
7.649055075761570845e-15
5.267138411686120886e-15
3.599841387744244632e-15
2.439189423230822640e-15
1.645890992498384045e-15
1.111605805457086418e-15
7.590992804334937407e-16
5.259821399866539810e-16
3.714196699900978125e-16
2.682376742283093631e-16
1.981145984356848695e-16
1.491710446606711615e-16
