# bin_10_10
4.085686785652407824e-11
4.639775939352857354e-11
5.187438417669087281e-11
5.688417346703558308e-11
6.088792011359605166e-11
6.320816536826900418e-11
6.328034443610990266e-11
6.024772584981821679e-11
5.414464240863436122e-11
4.599194616884298203e-11
3.767473437321445417e-11
3.133226982407018198e-11
2.712280556559965849e-11
2.228172918307446876e-11
1.569750388863275956e-11
1.178448028918387684e-11
9.078751913467039322e-12
6.148143420998719422e-12
4.432191712777017555e-12
3.115892738941862170e-12
2.131949731687243779e-12
1.457617913997175310e-12
9.998437657956041450e-13
6.911755510345545955e-13
4.833505017254617418e-13
3.441456020400748654e-13
2.498472633861496698e-13
1.851979841330346319e-13
1.398337035656014469e-13
1.070026390176225813e-13
8.239843751226770998e-14
