# bin_11_10
3.005126199584700450e-11
3.417531587518830947e-11
3.827927759397913879e-11
4.207010222352898197e-11
4.515657954515837008e-11
4.704449637932742936e-11
4.729209038257777705e-11
4.528767941393190983e-11
4.092738289476632415e-11
3.496359938903842692e-11
2.868299184152086053e-11
2.375581799108954915e-11
2.053004443912786819e-11
1.707156452297798910e-11
1.217312379909928786e-11
8.959180999591743929e-12
7.045756248812059099e-12
4.703402692439052492e-12
3.457682540298829939e-12
2.404732221222488352e-12
1.640318013859591583e-12
1.121271381383194574e-12
7.658513852129333593e-13
5.265150054732465140e-13
3.655137738551281955e-13
2.581235814579187558e-13
1.857813728666353934e-13
1.365683007680560262e-13
1.024085597557091991e-13
7.799887436884497636e-14
5.994061807905413417e-14
