# bin_10_3
1.460605975247003119e-20
1.639013026157424754e-20
1.805986150867152030e-20
1.945274479933404640e-20
2.036165293664459678e-20
2.058176579556608672e-20
1.987578363711749386e-20
1.812022673114888046e-20
1.562081742872526579e-20
1.286068175717612745e-20
1.059393446725894505e-20
9.105965710514823287e-21
7.689080310146649309e-21
5.624060518367377320e-21
4.029056792927077473e-21
3.239520005614795848e-21
2.165170288254817394e-21
1.628511762597447790e-21
1.127725987021631472e-21
7.837456147610296732e-22
5.501220379165510319e-22
3.871832126045750343e-22
2.753544534328330042e-22
1.986154972675375283e-22
1.461392864992965461e-22
1.095606254317441473e-22
8.349127960583777429e-23
6.437706854874418444e-23
4.987985313180028465e-23
3.855388834834435501e-23
2.952437187002257512e-23
