# bin_11_15
4.576425556548976093e-08
5.207763109257196250e-08
5.837975626059651439e-08
6.422609270358933218e-08
6.902489347427507518e-08
7.202626342957613444e-08
7.253692224823999010e-08
6.965316945117870292e-08
6.312743365044196277e-08
5.408986254039682846e-08
4.443005664767104370e-08
3.673967291058819645e-08
3.169518376458004936e-08
2.648017401314432883e-08
1.903928686390394879e-08
1.388374644828208800e-08
1.098849386055877684e-08
7.325431551138976916e-09
5.413032802572986586e-09
3.742838669900444204e-09
2.552140808348049932e-09
1.745628413664843193e-09
1.191170361660066790e-09
8.168536492769131939e-10
5.650228966209266380e-10
3.973464705383522206e-10
2.846781064029608010e-10
2.082979521903830636e-10
1.555520747738349500e-10
1.180976886828292668e-10
9.057915659012091408e-11
