# bin_10_13
4.213457542550205777e-08
4.780855795351984743e-08
5.339598648255440468e-08
5.847830489009645324e-08
6.249568712040245987e-08
6.474921857522010391e-08
6.466763475536124770e-08
6.137669748635826519e-08
5.500202992446016718e-08
4.659585708506209910e-08
3.816106795904145901e-08
3.181528592800071306e-08
2.753511071311899711e-08
2.244760052678623602e-08
1.576675544378529657e-08
1.194857406118573747e-08
9.087741118335694323e-09
6.223376109699913256e-09
4.440464036002883362e-09
3.128778807039389374e-09
2.145305136310734939e-09
1.469455577668015072e-09
1.010756510629338962e-09
7.007263640639259795e-10
4.918651042358825922e-10
3.516307779314381283e-10
2.563365701700219999e-10
1.907167031904998549e-10
1.444046751155946949e-10
1.106719095333759086e-10
8.523995447894779204e-11
