# bin_15_3
1.437382028973447022e-31
1.636960352812972294e-31
1.836915043194128651e-31
2.023360805782335395e-31
2.177855882217929430e-31
2.276956158483801686e-31
2.298161498380813852e-31
2.213685822969717400e-31
2.012279571116323079e-31
1.729428508778933389e-31
1.421771301272395665e-31
1.173201146927714647e-31
1.011061722987181961e-31
8.499186087474636008e-32
6.150860528413717200e-32
4.439324539358398102e-32
3.550248054846789993e-32
2.350366031971186236e-32
1.753676814637763710e-32
1.205868453990493074e-32
8.208832276007731523e-33
5.615565697824603889e-33
3.824213933276966593e-33
2.615074958403469489e-33
1.801906178906025055e-33
1.261616145578754857e-33
8.995892056341527086e-34
6.551316250697238586e-34
4.872750158086627756e-34
3.689005950327622890e-34
2.825612451501594072e-34
