# bin_10_12
3.034297601395027671e-08
3.441799425884278231e-08
3.842473754664701331e-08
4.206099074109888952e-08
4.492245143351476287e-08
4.650528026597277427e-08
4.640278085519935537e-08
4.398384099329862365e-08
3.936630630406397801e-08
3.330816317522343458e-08
2.727158683894265235e-08
2.275892667834807131e-08
1.970154898443101678e-08
1.601371220789926175e-08
1.122156218226546992e-08
8.541768084758042653e-09
6.464042293813521423e-09
4.443454298087590395e-09
3.156564414395961312e-09
2.228443699313552743e-09
1.529159846311317176e-09
1.047762611602239286e-09
7.214439151419146313e-10
5.007853889715444481e-10
3.521016181907963374e-10
2.521705075930299070e-10
1.841731336374098330e-10
1.372638302495660005e-10
1.040750616365406356e-10
7.983356506317476274e-11
6.150794773502575189e-11
