# bin_9_10
2.203386016851130111e-08
2.488803343834112666e-08
2.764156822597243060e-08
3.006551465701580614e-08
3.185752765015117447e-08
3.265921481731937247e-08
3.218346584283839747e-08
3.002226246835804042e-08
2.646963316164870759e-08
2.209937831703712942e-08
1.808646933397733007e-08
1.528757007161023287e-08
1.319447983869595207e-08
1.028835776317678691e-08
7.134201045385552229e-09
5.674901073643623817e-09
4.018478508116880471e-09
2.918492808001886734e-09
1.993830963294509074e-09
1.411188935340840056e-09
9.795819096679056693e-10
6.787957221743006264e-10
4.737976634882445034e-10
3.339466688249494319e-10
2.394033938752882567e-10
1.749942305100378924e-10
1.303931316877834179e-10
9.888085719997918073e-11
7.591269028446765957e-11
5.860387315172021718e-11
4.515488566567851217e-11
