# bin_3_6
2.082144864325689830e-07
2.221220809524492757e-07
2.299254700182126114e-07
2.294047515168690387e-07
2.179990897532169518e-07
1.958933386284574198e-07
1.667724881475327075e-07
1.371922195431391538e-07
1.141655479157349451e-07
9.782605320542816007e-08
7.990204953217034174e-08
5.803668480377286103e-08
4.335349061180621525e-08
3.330143405198892445e-08
2.356213833760942644e-08
1.734367459226456607e-08
1.248796311120254231e-08
9.061368746766933270e-09
6.648383734598957549e-09
4.949764999131212222e-09
3.749530114855700174e-09
2.888429231162699757e-09
2.256843089377648485e-09
1.777596987599980508e-09
1.401890961993171448e-09
1.099394391710992469e-09
8.516956771048878673e-10
6.481637362967077202e-10
4.824144519004423534e-10
3.500608140711117307e-10
2.473448414073505649e-10
