# bin_2_2
5.744313048378993725e-08
5.859359765130195919e-08
5.739141830891200441e-08
5.335863472603383812e-08
4.694986318763589608e-08
3.933815504701867090e-08
3.236501952491091164e-08
2.726115785636716312e-08
2.314952964551604113e-08
1.812061791028591769e-08
1.308715671401962974e-08
1.007658025248831235e-08
7.470811980686807548e-09
5.427154838947401371e-09
3.975248654772875026e-09
2.917232464371827448e-09
2.159308996125796362e-09
1.623742379654407117e-09
1.243053582980491586e-09
9.680402656645744204e-10
7.643391573316888971e-10
6.083144440704177278e-10
4.844419479875922356e-10
3.832907472430575365e-10
2.992980299186079641e-10
2.293261889147690821e-10
1.716387705247735545e-10
1.251237566558766001e-10
8.874959566631746369e-11
6.130957537930715926e-11
4.134725673934129253e-11
