# bin_10_8
4.401214406234106968e-10
4.975112241240458708e-10
5.530583144361201699e-10
6.022288624635982080e-10
6.390072434673769924e-10
6.561449301539073036e-10
6.480346212996339071e-10
6.061081680721745235e-10
5.357119168236496872e-10
4.480576349309916948e-10
3.665383488744136704e-10
3.091815233722857072e-10
2.672933192217375749e-10
2.099191787563822120e-10
1.453025802666401403e-10
1.151363075747078190e-10
8.230450929736390933e-11
5.934978990856811009e-11
4.056272078864128539e-11
2.880222880710412827e-11
1.995671477395090801e-11
1.379706175265114979e-11
9.610691857611816137e-12
6.757046874611726736e-12
4.829493990106035885e-12
3.519401872148609474e-12
2.614960885347684633e-12
1.978549630817092800e-12
1.516872875851746444e-12
1.170546901859506382e-12
9.024143112110557608e-13
