# bin_7_6
-1.021452012427424708e-08
-1.141203992009060013e-08
-1.250753587171521196e-08
-1.338306610730091051e-08
-1.389077033764581654e-08
-1.390568736532724416e-08
-1.324373818535761137e-08
-1.190897705030022464e-08
-1.012375416475194441e-08
-8.295941817218497281e-09
-6.894135586922327228e-09
-5.959760858671012553e-09
-4.902046145494446110e-09
-3.472150907247508090e-09
-2.599821044076567230e-09
-2.012956433307679029e-09
-1.372897140682634485e-09
-1.001726461380467623e-09
-7.113078604394743155e-10
-4.968243497292407153e-10
-3.494484535324604234e-10
-2.480558253768217997e-10
-1.785538681524255829e-10
-1.306852109544654631e-10
-9.754908332405668623e-11
-7.407486662062370066e-11
-5.701673758704536719e-11
-4.422264481405407509e-11
-3.431308914970015699e-11
-2.644715985905997685e-11
-2.012426037947067083e-11
