# bin_15_10
-2.118088115097619709e-11
-2.421915504466051677e-11
-2.731806151645882753e-11
-3.027898830053461579e-11
-3.284255930717029292e-11
-3.467022309686671521e-11
-3.537570032747180004e-11
-3.462935856150741412e-11
-3.203280582473493861e-11
-2.801549451844886525e-11
-2.323893584112534719e-11
-1.903899497724021703e-11
-1.621546075774968561e-11
-1.394094118691724161e-11
-1.059028104639097684e-11
-7.349628866921060054e-12
-5.953902704178587934e-12
-4.032281185961796399e-12
-3.009135095198463970e-12
-2.013913486560429294e-12
-1.386258024563644115e-12
-9.475418863137441393e-13
-6.421202111200238493e-13
-4.333431586655535384e-13
-2.927325115496162697e-13
-1.999592964811016927e-13
-1.385991612842914636e-13
-9.790857714388526936e-14
-7.073676924418599060e-14
-5.226325272473865362e-14
-3.936273780008368387e-14
