# bin_6_10
-2.016562298770275817e-11
-2.274816849975355020e-11
-2.522502184353172564e-11
-2.738363713480548157e-11
-2.894523264107506062e-11
-2.958655875119378680e-11
-2.903967217301430087e-11
-2.695599465653880417e-11
-2.365533850177923601e-11
-1.967413105489174914e-11
-1.610722718372641236e-11
-1.367041077965897702e-11
-1.177565972313867214e-11
-9.053569459208607000e-12
-6.279080386532716641e-12
-5.052882202441238826e-12
-3.500243990286006823e-12
-2.588947042088005024e-12
-1.756429135523669956e-12
-1.237479375647964276e-12
-8.625922741419572945e-13
-6.007072108495739195e-13
-4.210790098593892651e-13
-2.982122668017887144e-13
-2.150623073050231936e-13
-1.581530107976473146e-13
-1.185113909526247754e-13
-9.028404108156660782e-14
-6.952179269696371765e-14
-5.373407421866521927e-14
-4.137764078332338407e-14
