# bin_6
0.000000000000000000e+00
9.602568836685794824e-160
1.057670365689202609e-134
5.829055522019624122e-114
1.454216353467955015e-96
6.912155096887171265e-82
1.878087646980392128e-69
6.958096467520844341e-59
7.070714773946012843e-50
3.477227372556985818e-42
1.317708521110919167e-35
5.648095176502288154e-30
3.765975341269154484e-25
5.097113736077208878e-21
1.750989924637738463e-17
1.843496995121247909e-14
6.979594945536322762e-12
1.088892350534773171e-09
7.865122641519193298e-08
2.907235351507349762e-06
5.995968303338662496e-05
7.437427326499550630e-04
5.923485881753534806e-03
3.207775466589716379e-02
1.242100430370553787e-01
3.594275618520010873e-01
8.077323751845127964e-01
1.456943988692046776e+00
2.168410470009762836e+00
2.723912036201532327e+00
2.941195206779250615e+00
2.770395514263250369e+00
2.304392740007490392e+00
1.710595330231408306e+00
1.144009802852071100e+00
6.953728833411885191e-01
3.873507602338760458e-01
1.992933314103637610e-01
9.541156550295837313e-02
4.280144666559176914e-02
1.810925011895098830e-02
7.270538348137924739e-03
2.785492487918400217e-03
1.023676661030174231e-03
3.625964955518231779e-04
1.243331673148838075e-04
4.143755215166321416e-05
1.347210482669295562e-05
4.287085064387738680e-06
1.339356694497358552e-06
4.119472667589318476e-07
1.250527305477772143e-07
3.755313872762183875e-08
1.117905252417936503e-08
3.305143559831086990e-09
9.721808094831721113e-10
2.849380909893477912e-10
8.333217614249346746e-11
2.434937751751724378e-11
7.116678818631314374e-12
2.082737567969963512e-12
6.108981872546338308e-13
1.797420080292049853e-13
5.308962115338519584e-14
1.575246085457396643e-14
4.698237357417907663e-15
1.409322818261173344e-15
4.253934973457745448e-16
1.292613603166827680e-16
3.955629696857955873e-17
1.219505499098604190e-17
6.790761586199390814e-18
