# bin_8_8
6.825714795702400453e-08
6.406142833035373957e-08
5.860726735358333482e-08
5.218729722294796036e-08
4.521563504422677861e-08
3.817329373948295497e-08
3.152022565589491618e-08
2.558235476458585786e-08
2.048256911598432778e-08
1.616517178082358568e-08
1.251140191367578805e-08
9.477403155607379347e-09
7.094660399211647356e-09
5.317601268140258920e-09
3.981652354534868528e-09
2.978057170384344053e-09
2.246097927472222913e-09
1.704564150645933589e-09
1.304215639583626940e-09
1.004041965195206502e-09
7.756890665957709967e-10
5.992681289226626853e-10
4.611842031816637844e-10
3.522202708591095907e-10
2.660408674652231877e-10
1.981737540243971571e-10
1.452611888169250579e-10
1.046110931935556286e-10
7.394899006575042758e-11
5.129724310354806341e-11
3.493055939073501714e-11
