# bin_7_4
4.839615226435330593e-08
4.403420000481975643e-08
3.898951641726739373e-08
3.359180841521153294e-08
2.821432257437038178e-08
2.320061838325320362e-08
1.877461782384587829e-08
1.499927551562030099e-08
1.180674631778517856e-08
9.105560013669332645e-09
6.882268804292829654e-09
5.166228190476975354e-09
3.893134953083298055e-09
2.928812485883084526e-09
2.211520116844747623e-09
1.685413625554765626e-09
1.294733801298087614e-09
1.002744506824053090e-09
7.810017883350091974e-10
6.095741911617751155e-10
4.748184084475361250e-10
3.675698256826147216e-10
2.816860571832724925e-10
2.129732520000801386e-10
1.584291356115390091e-10
1.157201441119209308e-10
8.288423705448832457e-11
5.817942493377768818e-11
4.002748149822935513e-11
2.701477249518135086e-11
1.791091921774207753e-11
