# bin_7_7
6.221644262818257769e-08
5.792286242140088074e-08
5.253991090269216090e-08
4.637671511402264944e-08
3.984236170658986820e-08
3.338522417237667353e-08
2.740284922375653009e-08
2.214055109995623259e-08
1.765437792382393999e-08
1.385947617807455198e-08
1.065689400411303155e-08
8.035594466566959147e-09
6.018371782136189217e-09
4.519807883506681241e-09
3.386084586892890344e-09
2.544272272426554514e-09
1.927882550972130523e-09
1.471295033283339032e-09
1.131471723301237947e-09
8.749118554305781382e-10
6.780375910325413151e-10
5.246360008814301432e-10
4.037095005086150475e-10
3.077981669981846435e-10
2.317527869401538324e-10
1.718706003164719425e-10
1.252938586159694058e-10
8.966703357030745276e-11
6.295379736308104338e-11
4.336048560921779241e-11
2.931631502818811240e-11
