# bin_11_9
7.814511481631232542e-08
7.420296869102554140e-08
6.873743371526901589e-08
6.200444689526621317e-08
5.441228596470978471e-08
4.647926376658109282e-08
3.875115089528125638e-08
3.168219280143329951e-08
2.551937829550039379e-08
2.028175023663619562e-08
1.584417234865876698e-08
1.210563385738419096e-08
9.080976934756486197e-09
6.785059739478111297e-09
5.076502946949683919e-09
3.780911444170319701e-09
2.829684385951532830e-09
2.131481736917851069e-09
1.617480433659120640e-09
1.235888030967553857e-09
9.492453511023740599e-10
7.306297043256023535e-10
5.615226923693076250e-10
4.293155428893853657e-10
3.253667708156999852e-10
2.436735625722827079e-10
1.798868457876799140e-10
1.306537749913460597e-10
9.324468437691458685e-11
6.534690820574045701e-11
4.496783692062705013e-11
