# bin_6_2
3.126494313214324841e-08
2.738650189714413978e-08
2.335482245777924671e-08
1.944614911358713683e-08
1.588721746405521400e-08
1.279716359899087563e-08
1.017656428568668091e-08
7.956541788630353743e-09
6.091190499984532641e-09
4.595307491043135666e-09
3.466956795033243645e-09
2.623667531805252883e-09
1.986662053170348860e-09
1.517439825932354177e-09
1.169849898572714760e-09
9.102374876003108254e-10
7.133809889762230990e-10
5.612503919971444375e-10
4.413621652735476891e-10
3.453644266619227403e-10
2.677598980620356966e-10
2.049025814196951788e-10
1.542846543368948639e-10
1.140336758342515604e-10
8.259851749734401827e-11
5.858476847697269017e-11
4.068878000192856253e-11
2.769398619599900558e-11
1.849948429456028935e-11
1.215222875745685257e-11
7.867666784692675321e-12
