# bin_13_3
-2.081679502787865030e-25
-2.360666652257553545e-25
-2.634421394660463694e-25
-2.882107892323850756e-25
-3.075788417532377040e-25
-3.180657140077070400e-25
-3.169452326040150582e-25
-2.998163576797241930e-25
-2.678209946297665362e-25
-2.261415758721582092e-25
-1.851038845848723041e-25
-1.547908266579401881e-25
-1.341162846013669321e-25
-1.084759428505495951e-25
-7.564983134311471096e-26
-5.810025180922756238e-26
-4.357555338991605060e-26
-3.017141322699401204e-26
-2.123560428342070370e-26
-1.507115551973831149e-26
-1.035908543642895200e-26
-7.101357092700596291e-27
-4.900984407789136709e-27
-3.410960043734123905e-27
-2.406227805406029187e-27
-1.729495502149193502e-27
-1.267765650180050732e-27
-9.480803527870002896e-28
-7.208174701706164738e-28
-5.539351093172496958e-28
-4.271274022330904494e-28
