# bin_12_7
-2.969047802363181600e-12
-3.370921835163709734e-12
-3.767403447789430752e-12
-4.129085368661793063e-12
-4.416518112780459027e-12
-4.580207144317866454e-12
-4.579800049371271207e-12
-4.352404159205234095e-12
-3.904841772322929270e-12
-3.311162078441174529e-12
-2.712014405402940185e-12
-2.259676851302191623e-12
-1.957351639217234294e-12
-1.600835006198689172e-12
-1.123813349871269361e-12
-8.499898321025352328e-13
-6.496925194847296196e-13
-4.428524853945895646e-13
-3.168948891814785723e-13
-2.236307164529890740e-13
-1.532476225573888600e-13
-1.048493075049244274e-13
-7.206897184427498057e-14
-4.993690579059685522e-14
-3.502548431966726058e-14
-2.501853280670976311e-14
-1.822329540016847876e-14
-1.354941002305698610e-14
-1.025559893709822943e-14
-7.860230680095125783e-15
-6.056657860275756270e-15
