# bin_8_1
-4.803498668687320567e-22
-5.320688945552570003e-22
-5.769864214805571781e-22
-6.092231742961975348e-22
-6.220880264072655261e-22
-6.097407304760565717e-22
-5.652999790632531393e-22
-4.955157467698044910e-22
-4.120438644903549206e-22
-3.375942955726432329e-22
-2.866244355348721560e-22
-2.463273419555016383e-22
-1.891199851062043324e-22
-1.320485083187981409e-22
-1.060076987045340364e-22
-7.407820145108130281e-23
-5.494666919482165261e-23
-3.803170269412292777e-23
-2.721117694001753391e-23
-1.938179266732209580e-23
-1.387746246499162123e-23
-1.006353728714498516e-23
-7.409727823338249751e-24
-5.561219564498359869e-24
-4.246088410532678362e-24
-3.283701451096323578e-24
-2.557956463354951311e-24
-1.992834769181977490e-24
-1.541994022425800693e-24
-1.177672875933451621e-24
-8.833862579876189262e-25
