# bin_4_3
-1.353576847671268058e-08
-1.464081920570625299e-08
-1.541487345776566382e-08
-1.569429575371825519e-08
-1.532235232525469889e-08
-1.415145562418646674e-08
-1.235958781490727575e-08
-1.026220064473402903e-08
-8.420655269104940509e-09
-7.158960640470036921e-09
-6.117631008509535772e-09
-4.665260899717589325e-09
-3.295584842129248055e-09
-2.633196665349411738e-09
-1.853292303382911480e-09
-1.377934268804367928e-09
-9.725021200154077234e-10
-7.041346920097132944e-10
-5.107391324775172814e-10
-3.742638113069566616e-10
-2.787263286598805192e-10
-2.111331831133077506e-10
-1.627383358375520617e-10
-1.270667496421973440e-10
-9.988253937287248971e-11
-7.851659406228339368e-11
-6.128926027533199292e-11
-4.720793446096784554e-11
-3.568893975516063631e-11
-2.636999828585032351e-11
-1.898975914345804055e-11
