# bin_9_13
-1.347067018387682704e-10
-1.535293711535187674e-10
-1.724416439696776463e-10
-1.901451950307511202e-10
-2.049174031574490040e-10
-2.145612135132956354e-10
-2.169152538994366796e-10
-2.094175164710030254e-10
-1.908016376588733828e-10
-1.643663980580135353e-10
-1.352724234758257452e-10
-1.115237898175197015e-10
-9.603383076327407727e-11
-8.103009287089499318e-11
-5.896524177304037833e-11
-4.229812426928290480e-11
-3.400379096451829101e-11
-2.247595740277323488e-11
-1.684330884170184909e-11
-1.154172128268041293e-11
-7.855225746093878071e-12
-5.377011070294883727e-12
-3.660085328164369876e-12
-2.499303869569598334e-12
-1.718419100734140311e-12
-1.200062994111328435e-12
-8.532192327123327746e-13
-6.194973046704972024e-13
-4.595286057718028338e-13
-3.471789035200603941e-13
-2.656116954751601251e-13
