# bin_15_15
-1.527285254831495599e-08
-1.753925919703613146e-08
-1.988459044399457448e-08
-2.217520682610002469e-08
-2.423254190369700489e-08
-2.581750872018247624e-08
-2.663346777411050205e-08
-2.645852708465032902e-08
-2.491832122330777749e-08
-2.216489153834027843e-08
-1.863529064232278647e-08
-1.524571831566973981e-08
-1.280095782464624147e-08
-1.109431875729130574e-08
-8.862576006874999353e-09
-6.130243475886308713e-09
-4.784770220200172289e-09
-3.503643593295296252e-09
-2.459027139920431858e-09
-1.682082419590235686e-09
-1.187904375805713158e-09
-8.035229384638838287e-10
-5.366889503181014148e-10
-3.582759362827813689e-10
-2.385018374968233886e-10
-1.593234713442368399e-10
-1.074284215797255488e-10
-7.343809363541271860e-11
-5.120065605614024307e-11
-3.653380517179187597e-11
-2.670366040747637701e-11
