# bin_7_8
-9.852274038448574932e-09
-1.107761451240159752e-08
-1.223470426266933407e-08
-1.321552689596701186e-08
-1.388119182950126448e-08
-1.408588803656229486e-08
-1.367900552274563848e-08
-1.254474918752611335e-08
-1.087899267298997087e-08
-8.983631592646443370e-09
-7.383354992718962365e-09
-6.325645791743307575e-09
-5.385279272516582132e-09
-4.000427541151462927e-09
-2.826805457014129992e-09
-2.287898304893049813e-09
-1.535167774167141514e-09
-1.157427705212162951e-09
-7.941971432673890475e-10
-5.529110936593462198e-10
-3.878176842827373569e-10
-2.723113897126081441e-10
-1.928151288243014212e-10
-1.382971475466946699e-10
-1.011572012852943567e-10
-7.541817271460888029e-11
-5.720634209345300154e-11
-4.397365053616082897e-11
-3.402812723090848481e-11
-2.631696545815372013e-11
-2.019815012532720768e-11
