# bin_4_8
-3.902312327305240375e-12
-4.353701045265923901e-12
-4.763146191479685254e-12
-5.084932843403118547e-12
-5.262165565240041278e-12
-5.248849573229286161e-12
-4.973954406303650967e-12
-4.451205459995427745e-12
-3.766161175618333715e-12
-3.083916372642671345e-12
-2.573636553915790983e-12
-2.227238427366154594e-12
-1.810574267971668754e-12
-1.271547387462875702e-12
-9.691181837558101522e-13
-7.360157027259119829e-13
-5.097977937399978469e-13
-3.661621350200605712e-13
-2.620186308605203584e-13
-1.836812054025195810e-13
-1.294700207606070621e-13
-9.229906985080310184e-14
-6.675312408025750821e-14
-4.912461754003990527e-14
-3.685607960827421610e-14
-2.810954617627507698e-14
-2.170589759861710789e-14
-1.686345437834004094e-14
-1.308638863974186054e-14
-1.007370239230261788e-14
-7.646958516065817533e-15
