# bin_13_15
-5.733689929217142388e-09
-6.574106725210532714e-09
-7.439447875055024606e-09
-8.277777663775163649e-09
-9.020827401554935522e-09
-9.577881691572598038e-09
-9.838911362048110935e-09
-9.720858633074932020e-09
-9.092069527934007016e-09
-8.035633935277978331e-09
-6.718395545730953646e-09
-5.496877210977174023e-09
-4.641916813010801865e-09
-4.016656916294622933e-09
-3.147378858843651787e-09
-2.171633814001087606e-09
-1.727530187322380321e-09
-1.224829494779732476e-09
-8.840409966573701631e-10
-5.939641001989695575e-10
-4.170856181170032967e-10
-2.832505685083325194e-10
-1.902911870610714068e-10
-1.275872800149496376e-10
-8.538828439475791761e-11
-5.753075727221218077e-11
-3.921195944491684402e-11
-2.716056020352441631e-11
-1.921827348107749493e-11
-1.392072708969401956e-11
-1.031413679876340829e-11
