# bin_13_4
-1.341565009529779787e-21
-1.522271558612130450e-21
-1.700076322601524134e-21
-1.861624701420315950e-21
-1.989001210517639510e-21
-2.059798678639551089e-21
-2.056142331469818876e-21
-1.949583481308748301e-21
-1.745354404898409940e-21
-1.476865210958931695e-21
-1.209207397958499339e-21
-1.009315502795870050e-21
-8.744522473364804892e-22
-7.113320711249869451e-22
-4.976236881190937214e-22
-3.792629256084553968e-22
-2.872301777888386065e-22
-1.972625013313781859e-22
-1.399892835377386917e-22
-9.909966761641677423e-23
-6.800901955142346116e-23
-4.656864031336476585e-23
-3.207294140371957043e-23
-2.227209589536165747e-23
-1.566605845814815510e-23
-1.122490065397723765e-23
-8.202095439017218510e-24
-6.116238076442570796e-24
-4.639938266676630790e-24
-3.561132637471090643e-24
-2.745106510625374510e-24
