# bin_6_11
-1.114088573814478260e-12
-1.260428245541686846e-12
-1.402507673799890904e-12
-1.528907304517203287e-12
-1.624416625029887483e-12
-1.670522328806160077e-12
-1.653072392200196456e-12
-1.549690171561983256e-12
-1.372684133122694422e-12
-1.150157716854643777e-12
-9.410236922419621731e-13
-7.926978083109086728e-13
-6.860427739480924888e-13
-5.419162261994583555e-13
-3.751545919970818489e-13
-2.960215110088540704e-13
-2.134559592932940245e-13
-1.528916823579224550e-13
-1.048028036696334896e-13
-7.457028188574699463e-14
-5.160200062093389636e-14
-3.561705010131630117e-14
-2.477706589885226188e-14
-1.739288015154538749e-14
-1.240585989125901256e-14
-9.021261859713327004e-15
-6.689194674735315948e-15
-5.052724834734353958e-15
-3.869532925879313130e-15
-2.984983933989716017e-15
-2.302073297116790849e-15
