# bin_10_1
-1.546814475461392447e-27
-1.733096338143498256e-27
-1.905981000667189739e-27
-2.047951909397671121e-27
-2.136819152260110869e-27
-2.152029267418110764e-27
-2.066909721233657309e-27
-1.873939360817663579e-27
-1.606371531191717717e-27
-1.319869247030719374e-27
-1.091189183176452244e-27
-9.409606450040866705e-28
-7.868221653948065503e-28
-5.672897570860269029e-28
-4.137321867908412541e-28
-3.284648334180391257e-28
-2.205723173596084071e-28
-1.643465383317609943e-28
-1.150693931079384425e-28
-8.008067977996876300e-29
-5.625560417829487747e-29
-3.972628841965859010e-29
-2.840007990281593461e-29
-2.061633055554128283e-29
-1.526626251353904949e-29
-1.151147382020741590e-29
-8.813324095945565396e-30
-6.815535201542337180e-30
-5.286135074666601536e-30
-4.082514484219908313e-30
-3.118983301479510061e-30
