# bin_7_15
-1.793432949017979054e-16
-2.047032093194707913e-16
-2.303557213986544195e-16
-2.545892347261535445e-16
-2.751478302500848719e-16
-2.891283863275321303e-16
-2.934742041064288500e-16
-2.850320753249951525e-16
-2.613395364024989982e-16
-2.265765568459721417e-16
-1.870260645390688418e-16
-1.537250280306810223e-16
-1.318419452123645934e-16
-1.122780882762096435e-16
-8.314544956789709892e-17
-5.863648593928219103e-17
-4.756723667058473559e-17
-3.152389929574933169e-17
-2.374900364382401048e-17
-1.609498484331928108e-17
-1.096731022604653770e-17
-7.512429902298510092e-18
-5.107045772885461400e-18
-3.469952014877092721e-18
-2.367962412798400957e-18
-1.638773207417325370e-18
-1.153285886033991827e-18
-8.284076996622552652e-19
-6.083895703071060713e-19
-4.559529370945119933e-19
-3.470081583046526285e-19
