# bin_14_3
-1.477289129145572340e-27
-1.679420758432395972e-27
-1.880068960514940363e-27
-2.064746610043074744e-27
-2.214062938898787151e-27
-2.303560684516165081e-27
-2.312042860022532623e-27
-2.208843212733115981e-27
-1.991676940237379512e-27
-1.697511509952165909e-27
-1.391997788245871593e-27
-1.155345628426303805e-27
-9.995643411895061117e-28
-8.269067907130826149e-28
-5.864742056591878206e-28
-4.356506795994494851e-28
-3.395693025897624387e-28
-2.281513214817662359e-28
-1.663146450717330016e-28
-1.162762876565178497e-28
-7.944415786536165424e-29
-5.432087730131306733e-29
-3.718331394826007545e-29
-2.563498785278517657e-29
-1.786126763523358048e-29
-1.266476088276444374e-29
-9.154289426403543223e-30
-6.757015362171815821e-30
-5.084232441510208356e-30
-3.881539639479055285e-30
-2.986212137291354986e-30
