# bin_9_15
-1.275084832997194697e-12
-1.457434272829229701e-12
-1.643016200508775680e-12
-1.819790308514416458e-12
-1.971986466102378776e-12
-2.079106375655306720e-12
-2.118282769808279366e-12
-2.068855235477109424e-12
-1.908626562950656471e-12
-1.664926134520752561e-12
-1.378969292964834272e-12
-1.130961943047069519e-12
-9.656923523297760474e-13
-8.282336329829357819e-13
-6.240897584709849733e-13
-4.349470468422451232e-13
-3.531697998308032797e-13
-2.370273406003591462e-13
-1.778451619269129278e-13
-1.194321891480690207e-13
-8.185598075623084981e-14
-5.602893224564942921e-14
-3.803274123369369622e-14
-2.572706353731060253e-14
-1.743821951145885278e-14
-1.196463702242600607e-14
-8.336252814384110266e-15
-5.922851080425393435e-15
-4.303799731236302309e-15
-3.196150687719003913e-15
-2.416617299470692776e-15
