# bin_3_8
2.689700476100933383e-07
2.871057144990293004e-07
2.974073824689798489e-07
2.970013810942252216e-07
2.825625490403046257e-07
2.542065084808450232e-07
2.166403878693521204e-07
1.782598598100357930e-07
1.482391986735979866e-07
1.270160231324214332e-07
1.039722098108871827e-07
7.563414773136987506e-08
5.637190889197766746e-08
4.338985807331927232e-08
3.067668284345900610e-08
2.259337753407149543e-08
1.625740170087706482e-08
1.179278784628705207e-08
8.647497961444911009e-09
6.433466675902243830e-09
4.869813728745882965e-09
3.748768702044232200e-09
2.927455781974045811e-09
2.305046154138482243e-09
1.817692696435656809e-09
1.425683011611166216e-09
1.104868406124221128e-09
8.412930700373336841e-10
6.265884324736815956e-10
4.550358412183894171e-10
3.217789329621767760e-10
