# bin_8_8
1.110713314358513665e-08
1.246090558774216723e-08
1.372643613090335189e-08
1.477991750641017909e-08
1.546365117886443357e-08
1.562296094953871806e-08
1.507668026917440536e-08
1.373651039104802340e-08
1.183445953973514888e-08
9.742365066828567915e-09
8.029287896633999680e-09
6.902332155816972657e-09
5.819839977703531500e-09
4.252383508510353879e-09
3.053565901469967125e-09
2.448455487652870059e-09
1.640397606726566465e-09
1.230571005076720641e-09
8.531424411022418701e-10
5.933370746021920295e-10
4.164714125617569380e-10
2.932468265149085173e-10
2.086619532201559452e-10
1.506062654715061515e-10
1.108820265938730178e-10
8.317250205330374366e-11
6.340692394154394631e-11
4.890002940149329169e-11
3.788729718439435395e-11
2.927810728064905064e-11
2.241280653975551970e-11
