# bin_7_7
1.298042427965533139e-08
1.447614158262073072e-08
1.583092411710521353e-08
1.689292744525590610e-08
1.747393167098160867e-08
1.742025648113956125e-08
1.649978836633610908e-08
1.475942249529357792e-08
1.248478172899949530e-08
1.022265133802664218e-08
8.530479547608130285e-09
7.376618732681655065e-09
5.990432701216598214e-09
4.212052575626723877e-09
3.207950274807024094e-09
2.433558291354729165e-09
1.687148910166256287e-09
1.212354691890507912e-09
8.658949885201517504e-10
6.069980417463207844e-10
4.279960109836061848e-10
3.050873438372872096e-10
2.206070757338408796e-10
1.623188136191644581e-10
1.217576026115132753e-10
9.284300796991773271e-11
7.167450855949439490e-11
5.566859928868165789e-11
4.318653489424448513e-11
3.323336074710353106e-11
2.521887135798464271e-11
