# bin_7_11
8.604603677457510189e-08
9.632243495282268374e-08
1.058225899307717216e-07
1.135696536652651055e-07
1.183308873037189393e-07
1.189797293325411980e-07
1.140498807918227908e-07
1.032316633834698835e-07
8.835674116118175577e-08
7.259108102380473006e-08
6.008493212038789599e-08
5.177394147571825586e-08
4.309512068561000891e-08
3.105196859068253068e-08
2.276412997754032878e-08
1.791230281280068525e-08
1.213607429493521858e-08
8.968516091345072312e-09
6.286983581982052506e-09
4.384561408350078128e-09
3.081104870543169412e-09
2.178258976366752146e-09
1.558719176277971626e-09
1.132774181483441739e-09
8.396326051645083856e-10
6.336100688410703811e-10
4.853022450893117675e-10
3.752798296086370586e-10
2.909254166596368216e-10
2.244866216841817120e-10
1.713055317755467704e-10
