# bin_14_3
1.149824969221474629e-29
1.306468084011669326e-29
1.461694617412385517e-29
1.604220995815182679e-29
1.718950012777617757e-29
1.786872976749096867e-29
1.791727715120454169e-29
1.709634056638350160e-29
1.539698583103686652e-29
1.310686438795567628e-29
1.074223866549212712e-29
8.919452722365149368e-30
7.716812276656579188e-30
6.369546623836280566e-30
4.507326273729872306e-30
3.358169839147954860e-30
2.608138586268824594e-30
1.755963482180013032e-30
1.275649611543776665e-30
8.931935876539148477e-31
6.103941758256414474e-31
4.172534917653052331e-31
2.857258882854517157e-31
1.971007827167928597e-31
1.374514763724540128e-31
9.756237117658062443e-32
7.059951006178107216e-32
5.216959335524804843e-32
3.929095312776328348e-32
3.001518195136929614e-32
2.309720170610082769e-32
