# bin_3_14
3.638605218753189915e-07
3.888380933310081382e-07
4.033614517266815854e-07
4.035114689421290942e-07
3.847879414698472058e-07
3.470083697853626965e-07
2.963936156747919804e-07
2.440756231769306808e-07
2.027080385074042575e-07
1.735836667825945523e-07
1.426817706726830665e-07
1.042352110500405668e-07
7.731137034277272909e-08
5.971506519386913910e-08
4.219827153635355288e-08
3.109937842643655434e-08
2.234676514308240296e-08
1.620295779622321510e-08
1.186745306794117788e-08
8.815648174622123310e-09
6.662405254684736249e-09
5.120833036776430711e-09
3.994014191556801678e-09
3.142392538835707807e-09
2.477275799502678187e-09
1.943418750825336734e-09
1.507103106968813701e-09
1.148794161544622733e-09
8.568056707504071949e-10
6.232360212815645338e-10
4.414856961037390880e-10
