# bin_15_4
9.422915740266068523e-28
1.073292664759940282e-27
1.204636227694011974e-27
1.327228809513796306e-27
1.429000140780233646e-27
1.494594648827967901e-27
1.509163675444447398e-27
1.454605748502303144e-27
1.323098339115009398e-27
1.137856723410440488e-27
9.356623707707477253e-28
7.717854180665274644e-28
6.649063347055311847e-28
5.595618668135242072e-28
4.056121501105439789e-28
2.921469835177492641e-28
2.340287284480827303e-28
1.548216828795958531e-28
1.156818938606705079e-28
7.945079262681190161e-29
5.407511677453920801e-29
3.699580196147517753e-29
2.518734661397414387e-29
1.721397701622429727e-29
1.185178049857738530e-29
8.290428074796622185e-30
5.905427720821461976e-30
4.296212147185547233e-30
3.192511877208772319e-30
2.415275446082939914e-30
1.849264125472398184e-30
