# bin_15_12
1.241634657130876595e-10
1.420923237657959277e-10
1.604378564146369164e-10
1.780472433264429383e-10
1.934154713246341066e-10
2.045659435381882263e-10
2.091882104570267664e-10
2.054161123213107912e-10
1.907178658081466085e-10
1.673916552964266692e-10
1.391941398773422709e-10
1.139540922093837905e-10
9.676689722373394231e-11
8.341320478827046379e-11
6.403761570198106794e-11
4.429622393226733289e-11
3.571088806164870555e-11
2.453628755947682819e-11
1.813468897469109930e-11
1.211911783423855703e-11
8.400621607959778007e-12
5.729935286012323972e-12
3.872790983038036986e-12
2.607313964613685965e-12
1.755087117391894541e-12
1.192931085856878282e-12
8.219511463824662520e-13
5.766909090435430733e-13
4.137216199437108887e-13
3.036919790106658486e-13
2.275462697206600897e-13
