# bin_13_3
1.926204741340783566e-27
2.183124033146757084e-27
2.434748313554553093e-27
2.661770175707592386e-27
2.838333821667288053e-27
2.932317356591481403e-27
2.918790162077995973e-27
2.757302709654399028e-27
2.459882416934327302e-27
2.074482912869783974e-27
1.697349679300402138e-27
1.420196810591896110e-27
1.230172478741883970e-27
9.920867821792965627e-28
6.907714941324866421e-28
5.322254658828865406e-28
3.972779384697752616e-28
2.760513472228429596e-28
1.935285216870054338e-28
1.374500466600093443e-28
9.451802240876972330e-29
6.481230883158776491e-29
4.475829849152161104e-29
3.117227383559086482e-29
2.201209829923573049e-29
1.583890000724555667e-29
1.162363049142698435e-29
8.701624868944075295e-30
6.620916837952144565e-30
5.090143446811613368e-30
3.924898981506078891e-30
