# bin_4_9
1.967382269299864543e-07
2.139069690681880624e-07
2.267051440564129075e-07
2.326837031861002876e-07
2.296433325639845533e-07
2.150075293070239802e-07
1.902964746929199854e-07
1.597304029530126681e-07
1.309722431480584718e-07
1.101417164862870115e-07
9.457699508433848377e-08
7.475310582769845886e-08
5.295108592195805337e-08
4.105746253557303973e-08
3.025639438145800846e-08
2.171300008318311934e-08
1.559606185401176991e-08
1.125063645645497178e-08
8.087932891014265353e-09
5.875559444205272406e-09
4.332350295162610067e-09
3.248813697777001748e-09
2.479651387413095620e-09
1.921309074894248651e-09
1.502716344416150188e-09
1.178870889285935011e-09
9.211590365608414197e-10
7.121871818757017797e-10
5.417312026785902386e-10
4.035679230313981267e-10
2.934622241138640268e-10
