# bin_5_6
4.975556144862333884e-08
5.463991009075346182e-08
5.863029779858860674e-08
6.109611696688259418e-08
6.144966633386702637e-08
5.895759797014794687e-08
5.343453193228155361e-08
4.580521520490617496e-08
3.766817214960803351e-08
3.115142802100755158e-08
2.678381845530169438e-08
2.232876178592723692e-08
1.621953957633605787e-08
1.186100017457418969e-08
9.355258252810245705e-09
6.415640652352916685e-09
4.772998510715053116e-09
3.378089897727350047e-09
2.402050089589419163e-09
1.725595494790238172e-09
1.252403719200601659e-09
9.230347404154352164e-10
6.920021821753295848e-10
5.282964930642593567e-10
4.089241569524771399e-10
3.191517197098248233e-10
2.495146562064989182e-10
1.940130910677479192e-10
1.490890598168042314e-10
1.126160451394738369e-10
8.326759068004268669e-11
