# bin_6_5
3.269979659691737133e-09
3.609950561579496356e-09
3.898864260425890761e-09
4.096157826417405596e-09
4.158848254451850308e-09
4.043735663808296981e-09
3.715615640044240569e-09
3.228576467879231976e-09
2.670227146478407285e-09
2.192763605857280077e-09
1.872595807831068404e-09
1.595221943777619248e-09
1.196353856141652159e-09
8.457115064202724748e-10
6.808889460446061406e-10
4.667150308598855814e-10
3.502383111630613754e-10
2.435681821685515588e-10
1.733360699329924627e-10
1.239636975114592266e-10
8.924416571843212146e-11
6.511534219251496861e-11
4.827495412212320271e-11
3.648062185535081324e-11
2.801252641573586062e-11
2.175094921362239915e-11
1.697598268108526490e-11
1.322131959188229001e-11
1.020640000241628727e-11
7.763607406547201584e-12
5.792101460761047808e-12
