# bin_14_1
-3.572424982430203918e-09
-3.502911751299056540e-09
-3.272429656712644633e-09
-2.901273214621882303e-09
-2.457480179158539822e-09
-2.036039017161435957e-09
-1.702774177784699801e-09
-1.428899277969388638e-09
-1.137975407844390959e-09
-8.468196828244151283e-10
-6.349367727993581386e-10
-4.791945851219995556e-10
-3.496489421340957991e-10
-2.578178205305868385e-10
-1.900361129278181476e-10
-1.417953094633026629e-10
-1.073892174713851158e-10
-8.277991723188970097e-11
-6.487697998995453900e-11
-5.148749778340937216e-11
-4.113039885310274827e-11
-3.283435676111588652e-11
-2.600862431244255413e-11
-2.031220777840607235e-11
-1.555625177143194138e-11
-1.163588760142564805e-11
-8.480053358453465484e-12
-6.017363397777241761e-12
-4.161563781564832951e-12
-2.811441654858659522e-12
-1.860828827684806516e-12
