# bin_3_14
-5.349733796313477462e-32
-6.078808095415045684e-32
-6.801442129247144833e-32
-7.465154134585109816e-32
-7.999731986765966887e-32
-8.316757575387557536e-32
-8.340420972927182812e-32
-7.959722677981879905e-32
-7.169790377331460383e-32
-6.104463867041978751e-32
-5.003387689707572468e-32
-4.153856649275957748e-32
-3.593582316772436379e-32
-2.967308178855528346e-32
-2.100589500757641645e-32
-1.564059907561759654e-32
-1.215514925233284815e-32
-8.179999619018342745e-33
-5.946128931812767162e-33
-4.161974292640778316e-33
-2.843956105571017657e-33
-1.944065555198140729e-33
-1.331076673419352690e-33
-9.180508444908791412e-34
-6.400705104414623384e-34
-4.542020493658045875e-34
-3.285871323467111495e-34
-2.427465181343508179e-34
-1.827823822759980691e-34
-1.396107304451611619e-34
-1.074258144511232744e-34
