# bin_1_10
-7.951341927075235532e-32
-8.903920980180977631e-32
-9.786048763513010767e-32
-1.050761600916047691e-31
-1.095468168750551996e-31
-1.102289368688372472e-31
-1.057477803558292141e-31
-9.576537695312930895e-32
-8.199659159966866911e-32
-6.733250203355289337e-32
-5.568061168223930433e-32
-4.802025450937446035e-32
-4.007992092477188324e-32
-2.882994706888848348e-32
-2.107822147859800105e-32
-1.669272676338047509e-32
-1.121912252399595062e-32
-8.342233478834583473e-33
-5.848838100268429193e-33
-4.070532330251458332e-33
-2.859050656353986550e-33
-2.019512791522436607e-33
-1.444470420042656116e-33
-1.049296573172037406e-33
-7.775414505545247740e-34
-5.866742318246378979e-34
-4.493845016026822500e-34
-3.476064131746430682e-34
-2.695992062978807313e-34
-2.081533544341819544e-34
-1.589427917422184635e-34
