# bin_13_8
-2.825674202886063369e-10
-3.181255104304501830e-10
-3.519293903778414892e-10
-3.809378563897854263e-10
-4.012074662932572156e-10
-4.084240090138497993e-10
-3.985120474875704980e-10
-3.675280614844355937e-10
-3.204891738510278715e-10
-2.656101816305940011e-10
-2.179330217745349574e-10
-1.857976028667104037e-10
-1.589099987595810179e-10
-1.200849182046803585e-10
-8.424177316089878535e-11
-6.776105220683669986e-11
-4.635539404335415062e-11
-3.448142031555790627e-11
-2.358768980895662475e-11
-1.652616646972198794e-11
-1.154771959916769330e-11
-8.071018761422344178e-12
-5.685647323061152240e-12
-4.052732911836472209e-12
-2.943617449722295187e-12
-2.179745745138041019e-12
-1.643415914563102894e-12
-1.257527297247544244e-12
-9.705310072998584824e-13
-7.501206539667720018e-13
-5.764284691410451141e-13
