# bin_4_1
-2.352167531637929814e-09
-2.296300146344054909e-09
-2.134288802272737989e-09
-1.882833237605707684e-09
-1.589182665615514056e-09
-1.316253307649993259e-09
-1.102608408197855235e-09
-9.231362229173539309e-10
-7.295637310140578577e-10
-5.412639429151470455e-10
-4.072464339273036573e-10
-3.063123849577051441e-10
-2.235069568974837134e-10
-1.649487600929512334e-10
-1.217533208644018241e-10
-9.103697263378171398e-11
-6.913298200362536508e-11
-5.343868997480138209e-11
-4.198428688672500774e-11
-3.337988963761634171e-11
-2.669016640286941795e-11
-2.130645651556805457e-11
-1.686192399966455523e-11
-1.314646066099025612e-11
-1.004467543692575224e-11
-7.492213528548047910e-12
-5.443624681392105690e-12
-3.851014613125444270e-12
-2.655796819437710241e-12
-1.789705813462766401e-12
-1.182070881109565224e-12
