# bin_13_10
-1.303428658169703655e-10
-1.478793510960573351e-10
-1.651396820580926054e-10
-1.808278594153684044e-10
-1.932104694189429179e-10
-2.001249181815306903e-10
-1.998099508088847115e-10
-1.895606432665001503e-10
-1.698038234247908110e-10
-1.437949596598407097e-10
-1.177567807772142424e-10
-9.820691746700047957e-11
-8.499892803184649766e-11
-6.922550511829496963e-11
-4.859013813342297835e-11
-3.687474890944652128e-11
-2.799918231216941005e-11
-1.919907354270352921e-11
-1.367959948027123157e-11
-9.643907018725388495e-12
-6.614259942047939270e-12
-4.531182842050700321e-12
-3.117824829872249405e-12
-2.162371654343773740e-12
-1.518656980350343530e-12
-1.086308883319381935e-12
-7.923852226339615245e-13
-5.898668030700332446e-13
-4.468220130849782104e-13
-3.425369831457807296e-13
-2.638459039056224099e-13
