# bin_5_1
-2.649022014255388556e-09
-2.589834556810474675e-09
-2.411165720753046637e-09
-2.130589860648911587e-09
-1.800413598933804205e-09
-1.491355533024539225e-09
-1.248610712998900454e-09
-1.046173196766988051e-09
-8.289178509976711237e-10
-6.155961487676591239e-10
-4.626363562711043693e-10
-3.483692166051934291e-10
-2.541933443119255128e-10
-1.875408704615750576e-10
-1.383643878461555737e-10
-1.033848924466238312e-10
-7.843954154789530809e-11
-6.057651371097455380e-11
-4.755338704154840034e-11
-3.778492858541809770e-11
-3.020304574495920517e-11
-2.411085336228275757e-11
-1.908704553161609930e-11
-1.488967429727510143e-11
-1.138547744880336108e-11
-8.500244702653699231e-12
-6.182295421784909110e-12
-4.378020601360325883e-12
-3.022103005888689019e-12
-2.038261921570276275e-12
-1.347191042088700671e-12
