# bin_1_15
-8.289963003629342288e-44
-9.440002053784043504e-44
-1.059162877228685834e-43
-1.166470417268066761e-43
-1.255275114207129066e-43
-1.312047081325883654e-43
-1.323869249640823525e-43
-1.274656078462664707e-43
-1.158195856362238080e-43
-9.949667257046118286e-44
-8.178518781199071025e-44
-6.750526974991534620e-44
-5.818672462567979637e-44
-4.887336046308844183e-44
-3.533382659298195725e-44
-2.553845649604366459e-44
-2.039682766916149754e-44
-1.351360103450957487e-44
-1.007078902647342238e-44
-6.930497995400646831e-45
-4.718802820550652765e-45
-3.227887248813259531e-45
-2.198718484405375615e-45
-1.504112974538581754e-45
-1.036962392520613616e-45
-7.264870071276471875e-46
-5.183702267667603227e-46
-3.777644852520876324e-46
-2.811416204643834291e-46
-2.129361750982638391e-46
-1.631367761339176077e-46
