# bin_1_11
-2.194663800836911049e-34
-2.468465077152334608e-34
-2.727593907370390764e-34
-2.948178085468907958e-34
-3.099443683171023393e-34
-3.148461526143407267e-34
-3.062676579154639108e-34
-2.814030304425934957e-34
-2.444960837749138422e-34
-2.020834657688738216e-34
-1.659074871203961895e-34
-1.418856799901802099e-34
-1.210688217173035690e-34
-9.045972544963606864e-35
-6.363145635214613073e-35
-5.151577428486108708e-35
-3.469250879303896059e-35
-2.611042934283906201e-35
-1.785943417935907948e-35
-1.244915760246619964e-35
-8.723415163391316291e-36
-6.116606757098583205e-36
-4.322297497272040830e-36
-3.092521975995695218e-36
-2.256073022869487086e-36
-1.677841267066378639e-36
-1.269954720855494544e-36
-9.747003647727151793e-37
-7.536442075732250245e-37
-5.828190848834219720e-37
-4.475703080611645610e-37
