# bin_14_14
-1.629427574785876936e-11
-1.864155365141351914e-11
-2.104056478222415895e-11
-2.333953618254006949e-11
-2.534022987831871090e-11
-2.678287461048295884e-11
-2.736666995486544418e-11
-2.684315785471430594e-11
-2.489014853965630444e-11
-2.181867773049531662e-11
-1.812840622578537865e-11
-1.484557625441588077e-11
-1.261917174967362316e-11
-1.086644495533265562e-11
-8.312254243930945834e-12
-5.757781728958284116e-12
-4.647803297269334559e-12
-3.179281955611736330e-12
-2.356237796679678449e-12
-1.576002057250966417e-12
-1.090115396750714368e-12
-7.439874712299193806e-13
-5.032211164427655647e-13
-3.390744760056333151e-13
-2.285324587652428751e-13
-1.556039284926371608e-13
-1.074386500477485115e-13
-7.556115329851425243e-14
-5.434207285967461794e-14
-3.998040749561646681e-14
-3.000956779804483531e-14
