# bin_15_13
-5.468174675590068711e-11
-6.248149842089689516e-11
-7.041318847950235570e-11
-7.796124448318284874e-11
-8.445026088182889231e-11
-8.900321485745526490e-11
-9.064669508301917137e-11
-8.849289625406501045e-11
-8.161109914797786591e-11
-7.116457230039957597e-11
-5.893286867533282986e-11
-4.833027750181163348e-11
-4.125201550433536666e-11
-3.534951996286140663e-11
-2.663191335943687758e-11
-1.858003070605427419e-11
-1.505277296359343582e-11
-1.012677838552952822e-11
-7.576266618873836223e-12
-5.092093015293189895e-12
-3.493970472972958948e-12
-2.389409360682848630e-12
-1.620532659410336104e-12
-1.095920731048491308e-12
-7.426983354611090496e-13
-5.094403011900715426e-13
-3.548500506672282231e-13
-2.520443656794793654e-13
-1.830860721604649162e-13
-1.359160799185898468e-13
-1.027245396763973352e-13
