# bin_7_3
-1.054359778218364960e-09
-1.125144141982100049e-09
-1.165134177910267869e-09
-1.163063465725128385e-09
-1.105962321625183638e-09
-9.944964484624759004e-10
-8.472022678191919891e-10
-6.970972804050421011e-10
-5.798846350465745453e-10
-4.968033903362324642e-10
-4.062510095566824971e-10
-2.954467649365459008e-10
-2.203985887975638198e-10
-1.694540830100686025e-10
-1.198888841597233429e-10
-8.825881898707664465e-11
-6.352555934439999675e-11
-4.608910888482534447e-11
-3.380423600483229692e-11
-2.515647129459612487e-11
-1.904772396409614416e-11
-1.466683872382030414e-11
-1.145573057950878060e-11
-9.021046230238213781e-12
-7.113777550393591565e-12
-5.579093262531968910e-12
-4.322904071856418441e-12
-3.290839651430301444e-12
-2.450272824660265284e-12
-1.778852282295929235e-12
-1.257522375408521235e-12
