# bin_4_13
-6.210674199832240375e-26
-7.043198422960200163e-26
-7.860763915062876329e-26
-8.601457869490284797e-26
-9.182308611017919732e-26
-9.499805798261745818e-26
-9.472315447691560635e-26
-8.968779828318046014e-26
-8.018523847948674997e-26
-6.776134412787522773e-26
-5.545636308486743809e-26
-4.631656533454763768e-26
-4.011948716750801269e-26
-3.253936987392103996e-26
-2.272082437958142267e-26
-1.737648103160693980e-26
-1.309635158533387359e-26
-9.026059595489922691e-27
-6.378131651162380307e-27
-4.520152679400402447e-27
-3.103428468198702973e-27
-2.125418728738266607e-27
-1.464803938765159696e-27
-1.017948998380662306e-27
-7.167834769606948854e-28
-5.141973969346100486e-28
-3.761964875124316659e-28
-2.808512696696122673e-28
-2.132499158768269991e-28
-1.637501543816121978e-28
-1.262346560720425962e-28
