# bin_12_10
-9.434877509241314767e-11
-1.070088604734335812e-10
-1.194510069244582522e-10
-1.307346622385647954e-10
-1.396016210412563181e-10
-1.444849927895813386e-10
-1.441238870775517662e-10
-1.365563670499885095e-10
-1.221743416703207455e-10
-1.033349665697730606e-10
-8.460226227790150920e-11
-7.062474825370027306e-11
-6.113882466554188366e-11
-4.964754307344632425e-11
-3.477039389763103658e-11
-2.650120773752586417e-11
-2.002301069905672524e-11
-1.378163456131978404e-11
-9.777387143288485695e-12
-6.905678642816211174e-12
-4.739894588000398765e-12
-3.248242699663193950e-12
-2.237342824192767700e-12
-1.553627281975385457e-12
-1.092895879922723037e-12
-7.831388917451937935e-13
-5.722805457387460311e-13
-4.267333366826190324e-13
-3.236800275442436875e-13
-2.483457560437988486e-13
-1.913510291874386500e-13
