# bin_15_3
-1.598694948510824173e-09
-1.707950093825067064e-09
-1.771124752931881964e-09
-1.771017677019759197e-09
-1.687903625365083660e-09
-1.521340983404733576e-09
-1.298808259425842241e-09
-1.069431136873412804e-09
-8.884682746952329567e-10
-7.608312646437382712e-10
-6.247287535852513973e-10
-4.560801191084324321e-10
-3.386422832762729343e-10
-2.612994918667625122e-10
-1.847298966170671561e-10
-1.360981929015807431e-10
-9.782727163342157506e-11
-7.094209797262673122e-11
-5.197333117342545899e-11
-3.862095472885524896e-11
-2.919786252136670568e-11
-2.244940486806009727e-11
-1.751397111323209581e-11
-1.378165839413208327e-11
-1.086508176677643430e-11
-8.523025643475239917e-12
-6.608382889473806634e-12
-5.035956559716531095e-12
-3.754746152441654334e-12
-2.730179631534935018e-12
-1.933263935987908221e-12
