# bin_10_12
-1.821698453249305312e-12
-2.072337663861047641e-12
-2.322129399471331401e-12
-2.553345021474066480e-12
-2.742343956988590162e-12
-2.859222649909428896e-12
-2.876819120842497500e-12
-2.758460747299981880e-12
-2.496103121612146519e-12
-2.135240798590528013e-12
-1.752496718038408971e-12
-1.450244503513874613e-12
-1.252544467139052617e-12
-1.044088328412261481e-12
-7.469843081552242191e-13
-5.473242159387694825e-13
-4.321109528550696287e-13
-2.878709566433537758e-13
-2.123729754386814434e-13
-1.473151458148587382e-13
-1.004356809205216711e-13
-6.866807637697666378e-14
-4.686913705449762017e-14
-3.218313478239790555e-14
-2.230466487376880324e-14
-1.572144323449833292e-14
-1.129206739385146366e-14
-8.283879595089786664e-15
-6.200883292415743831e-15
-4.716765264005853416e-15
-3.622218331998531203e-15
