# bin_4_7
-3.352179899359807496e-14
-3.714972179565678842e-14
-4.031347067787118052e-14
-4.260523756680793914e-14
-4.355440446080531365e-14
-4.276263966139676370e-14
-3.972778700570492133e-14
-3.489232325551295124e-14
-2.905320678256572277e-14
-2.378743766619809223e-14
-2.015378742339238680e-14
-1.734303085778442928e-14
-1.339827625746693721e-14
-9.336785205456586461e-15
-7.468692031942810493e-15
-5.258996521959163962e-15
-3.876570730375501406e-15
-2.684328289662738976e-15
-1.923468835515038102e-15
-1.367581699097515236e-15
-9.772094545396464697e-16
-7.072559276259607955e-16
-5.196581568799434796e-16
-3.891777952480802851e-16
-2.965932275239976557e-16
-2.290453662746332571e-16
-1.782728370243948901e-16
-1.388553213113631543e-16
-1.074763120101499765e-16
-8.214761076650634988e-17
-6.169133252311404783e-17
