# bin_3_3
-1.616069404294398518e-10
-1.708821096502001811e-10
-1.749716721859724323e-10
-1.721901928791548614e-10
-1.607470568058231137e-10
-1.419026474450499032e-10
-1.189364429358132920e-10
-9.758264630792429323e-11
-8.214538639988686483e-11
-7.032200367095488319e-11
-5.532453307138485529e-11
-3.940024287667672720e-11
-3.058081051133792425e-11
-2.256022102212738102e-11
-1.631554785543706327e-11
-1.182446467346241559e-11
-8.617766612908697911e-12
-6.292394506744241209e-12
-4.657751644299161856e-12
-3.506869353876459973e-12
-2.686992383955372151e-12
-2.092078832439809686e-12
-1.647607304006185492e-12
-1.303598392617259254e-12
-1.029014538020231445e-12
-8.048229326062517477e-13
-6.198267359686255779e-13
-4.676278661333346744e-13
-3.442747627445506459e-13
-2.467692223514101631e-13
-1.721671698892949507e-13
