# bin_13_6
-5.453808018442253138e-10
-6.065174532039680950e-10
-6.610050987010031810e-10
-7.023509443056703124e-10
-7.227701989909489840e-10
-7.157714098188616891e-10
-6.723701935112328533e-10
-5.968229357674478921e-10
-5.015836564974248856e-10
-4.107562970063583952e-10
-3.449485822507734551e-10
-2.975785979859265041e-10
-2.367136458620247234e-10
-1.659893081473157761e-10
-1.288945945855294993e-10
-9.488661056412062377e-11
-6.743684667668841605e-11
-4.774426597155951610e-11
-3.413529546776354973e-11
-2.406767372951707288e-11
-1.706377926474200580e-11
-1.224076979058762454e-11
-8.910238921579546364e-12
-6.604577795069968468e-12
-4.987294411362686808e-12
-3.823304175029792702e-12
-2.961689324538621120e-12
-2.302890747964553803e-12
-1.784610607910183753e-12
-1.369196765486659407e-12
-1.034310238921421023e-12
