# bin_11_7
-3.052139685320550697e-10
-3.416773880742009129e-10
-3.753926565745235844e-10
-4.028958585352079828e-10
-4.198150298283190171e-10
-4.221499272935842361e-10
-4.047040371782692931e-10
-3.663583299822755560e-10
-3.136057009157186028e-10
-2.576605105670244669e-10
-2.132561573475516121e-10
-1.837479158584941845e-10
-1.529770078223486973e-10
-1.102588906144551509e-10
-8.080334741677024189e-11
-6.359650214074829899e-11
-4.308573105189620111e-11
-3.184520721203138500e-11
-2.231935391491162897e-11
-1.556549071618238852e-11
-1.093784327768146715e-11
-7.732214275691631107e-12
-5.532462527165257414e-12
-4.020135099506959836e-12
-2.979429750570593281e-12
-2.248110722231388336e-12
-1.721746957022059879e-12
-1.331337588261147205e-12
-1.032063729774150935e-12
-7.963843146340840264e-13
-6.077491004893897124e-13
