# bin_1_1
-4.600820454153948400e-10
-4.367775052309112586e-10
-3.934519432648681042e-10
-3.371810288121003519e-10
-2.798081692640461431e-10
-2.327463420288895858e-10
-1.964841341129620316e-10
-1.602334031373505283e-10
-1.206348345891769817e-10
-8.962401950760045227e-11
-6.831809863600687224e-11
-5.010194176031154776e-11
-3.695329705129105524e-11
-2.730767450106528168e-11
-2.040159146639017483e-11
-1.546927990502897099e-11
-1.194458895328446350e-11
-9.384496056101319731e-12
-7.472487573640735472e-12
-5.994284403644200629e-12
-4.808850657294506392e-12
-3.829979872171332437e-12
-3.008392783818863169e-12
-2.317479937400288689e-12
-1.743323858983803745e-12
-1.277296236181847374e-12
-9.108270430682660294e-13
-6.327397885145771751e-13
-4.291941849596481207e-13
-2.851105876649442466e-13
-1.860762902082049041e-13
