# bin_4_3
-4.329257621715045206e-10
-4.600866448014724200e-10
-4.740091660593227536e-10
-4.701726280924928369e-10
-4.433468019769175006e-10
-3.952558376474940111e-10
-3.340779325163085284e-10
-2.742912173292826770e-10
-2.293354030977404582e-10
-1.966963223336171789e-10
-1.582401550096228054e-10
-1.135721606798599214e-10
-8.631055105741110229e-11
-6.530956826990414958e-11
-4.647467604275581572e-11
-3.404183864788573231e-11
-2.464826138077185852e-11
-1.791917319313547579e-11
-1.319797639123358532e-11
-9.875153597963644143e-12
-7.519316014450148606e-12
-5.820989324786311776e-12
-4.565423012173797479e-12
-3.604197961509479859e-12
-2.844398955655967069e-12
-2.228583815949354424e-12
-1.722344093209042105e-12
-1.305945017196943011e-12
-9.674171952369233167e-13
-6.982020493472578297e-13
-4.905326608502729383e-13
