# bin_13_5
-7.554201715037866384e-10
-8.325044827664449375e-10
-8.972110246184652819e-10
-9.401066344393888614e-10
-9.516420749579908814e-10
-9.214178083553856235e-10
-8.433189137471021636e-10
-7.299642468659358473e-10
-6.031701656880470834e-10
-4.966685565447783815e-10
-4.246878346303073739e-10
-3.588902536723047414e-10
-2.671780622055815574e-10
-1.913696648431093911e-10
-1.521719138660881534e-10
-1.051602359912570846e-10
-7.813708085638467211e-11
-5.481699828986495036e-11
-3.904884269061114239e-11
-2.793567000399693738e-11
-2.014677057345077525e-11
-1.473874524998132711e-11
-1.096055821421721451e-11
-8.304537112366653904e-12
-6.389443489966946501e-12
-4.966768860299531145e-12
-3.876828455397480386e-12
-3.016853975875714755e-12
-2.325093643175522685e-12
-1.764603305398853832e-12
-1.312875890078825027e-12
