# bin_8_1
-3.158034978916472349e-09
-3.093155120000704627e-09
-2.885924459089057748e-09
-2.555416963994339325e-09
-2.162610948337443621e-09
-1.791603496146266830e-09
-1.498961108053150754e-09
-1.257144789702697536e-09
-9.992805342481260051e-10
-7.430540952469185578e-10
-5.576140543611104801e-10
-4.204844201127462399e-10
-3.068115871813455102e-10
-2.262798249490048987e-10
-1.668475435382457342e-10
-1.245579852725927705e-10
-9.439756951045486595e-11
-7.281577797980706662e-11
-5.710274009049036044e-11
-4.533825320092926152e-11
-3.622657760172314883e-11
-2.891954771163784252e-11
-2.290245654243913397e-11
-1.787875923219802633e-11
-1.368454904840814154e-11
-1.022871592943773445e-11
-7.448895659366411453e-12
-5.281680072131717915e-12
-3.650210779224364230e-12
-2.464463489509892354e-12
-1.630324618658823436e-12
