# bin_2_11
-1.965886049502247518e-29
-2.212313298595907042e-29
-2.446106595099094880e-29
-2.645997686484830124e-29
-2.784489872373743142e-29
-2.831668388962104639e-29
-2.759008088131650647e-29
-2.539559179285802274e-29
-2.210407985248889120e-29
-1.828761276565703710e-29
-1.500421271714329160e-29
-1.281573595866592480e-29
-1.095811028112028628e-29
-8.228185374952722104e-30
-5.767960846027446963e-30
-4.671516392621569461e-30
-3.156088946352576637e-30
-2.372332284471671146e-30
-1.618773057103645094e-30
-1.129803139123798324e-30
-7.912134656979202079e-31
-5.542613692990672986e-31
-3.911087224518871356e-31
-2.793191985907804427e-31
-2.033654260758078830e-31
-1.509550335097876506e-31
-1.140692223603047647e-31
-8.744679346847853640e-32
-6.757524823548889748e-32
-5.225997780632733485e-32
-4.015591737546936854e-32
