# bin_7_8
-1.014953057263770768e-11
-1.137954015290898892e-11
-1.252582189337443952e-11
-1.347460269286973937e-11
-1.408134288421715755e-11
-1.420739877611290722e-11
-1.368377168554760791e-11
-1.244209102245946554e-11
-1.069716398274637145e-11
-8.798303632236830568e-12
-7.258920737971193615e-12
-6.247217049598127976e-12
-5.250498538244701918e-12
-3.816025855863607375e-12
-2.755914861011358531e-12
-2.202055891271489268e-12
-1.475753851842870404e-12
-1.104691189037447738e-12
-7.687352153010721329e-13
-5.346934878665053425e-13
-3.754780727681848486e-13
-2.647110354550838968e-13
-1.887304409802075780e-13
-1.365526104148990893e-13
-1.007844376142215687e-13
-7.577020196197546876e-14
-5.787076993566142343e-14
-4.468364653951617117e-14
-3.463598158358940441e-14
-2.675805945705369295e-14
-2.046503824075878998e-14
