# bin_7_14
-3.383228063989256825e-19
-3.852672634633656520e-19
-4.322826816914719206e-19
-4.760988830458355052e-19
-5.123713260529246417e-19
-5.355797514309454669e-19
-5.404467592460529423e-19
-5.204045962123404933e-19
-4.728858383759196822e-19
-4.062648926129114556e-19
-3.339336229606440142e-19
-2.755998910390806981e-19
-2.375679135838964133e-19
-1.995971079773108674e-19
-1.442961574086882271e-19
-1.042538491756956014e-19
-8.332853300881125647e-20
-5.516034051586678866e-20
-4.114396248232147320e-20
-2.831207918197922069e-20
-1.927428903941739851e-20
-1.318631278017117883e-20
-8.982111629162231127e-21
-6.145436105625588073e-21
-4.237614592142056144e-21
-2.969566141726470634e-21
-2.119457703168585467e-21
-1.545008875061480901e-21
-1.150157461837863189e-21
-8.713453315740366787e-22
-6.676964930003773915e-22
