# bin_6_9
-8.133890080129712032e-14
-9.136961805049882259e-14
-1.008054650363332838e-13
-1.087503652806103016e-13
-1.140567428492694894e-13
-1.155471644673229199e-13
-1.119517223371542643e-13
-1.024189874012404742e-13
-8.860270587021509039e-14
-7.306721778254180183e-14
-6.009027785868362138e-14
-5.153896673496214530e-14
-4.373886581375562070e-14
-3.229452643862078680e-14
-2.292984151593038018e-14
-1.851794656200307257e-14
-1.239835139774212838e-14
-9.343346339886821855e-15
-6.432246846121937032e-15
-4.474015853106273164e-15
-3.139241240265606982e-15
-2.206390525886575773e-15
-1.565024885679141442e-15
-1.125086284949882468e-15
-8.249500669394973780e-16
-6.164655677631480689e-16
-4.685133443216680565e-16
-3.606075572631385005e-16
-2.791956594215665809e-16
-2.158686583875932722e-16
-1.655157631270805705e-16
