# bin_7_10
-1.138815841806446368e-13
-1.285423808691319085e-13
-1.426404369870885577e-13
-1.549834630408952822e-13
-1.640019497061068761e-13
-1.678526396168728674e-13
-1.650490350630960152e-13
-1.535403604046240813e-13
-1.350182739695549264e-13
-1.124699354422755781e-13
-9.205179440725347036e-14
-7.798819470773617983e-14
-6.726041557029246672e-14
-5.203257409867440504e-14
-3.604887783405714018e-14
-2.889599655002226954e-14
-2.019416071988756743e-14
-1.483470178880806816e-14
-1.007629520907794875e-14
-7.118980307631824878e-15
-4.954600182893438906e-15
-3.443885131691996326e-15
-2.410313933167541587e-15
-1.703956704326508409e-15
-1.226099139521045963e-15
-8.996368339646556976e-16
-6.727592362764341863e-16
-5.116945418204141867e-16
-3.936347915311622774e-16
-3.041605497301539022e-16
-2.343126045355844994e-16
