# bin_11_6
-4.537516772275404444e-10
-5.045103482570483061e-10
-5.496915071573893754e-10
-5.838858268423065345e-10
-6.006220093174546056e-10
-5.945036550552404772e-10
-5.580900847435168822e-10
-4.950713578652545512e-10
-4.158374937566843023e-10
-3.405239609539931800e-10
-2.861090913620039951e-10
-2.467914242414531190e-10
-1.959975392821984849e-10
-1.373711707737445154e-10
-1.068563397747128626e-10
-7.848140740423980614e-11
-5.588384790541047208e-11
-3.951871780846748543e-11
-2.826807968131176962e-11
-1.994344594014004738e-11
-1.414866673841027578e-11
-1.015774103154176038e-11
-7.400532803745779737e-12
-5.490789318934248507e-12
-4.149871040224721790e-12
-3.183603077123564527e-12
-2.467345525686201475e-12
-1.918919072581292322e-12
-1.486980108393735949e-12
-1.140523583405660665e-12
-8.611572035641192477e-13
