# bin_5_13
-1.182082671198598758e-22
-1.341453781780896914e-22
-1.498458462057493177e-22
-1.641383066678944864e-22
-1.754527842025836581e-22
-1.818230240786956077e-22
-1.816597213228906236e-22
-1.724684871131336864e-22
-1.545866532459345516e-22
-1.309606029098011843e-22
-1.072209309196262043e-22
-8.936064684890850676e-23
-7.738910131515212265e-23
-6.317293987307767168e-23
-4.428819968764123801e-23
-3.356721781013998829e-23
-2.557954439532677896e-23
-1.747142961506388332e-23
-1.246775820226103464e-23
-8.805563344333495447e-24
-6.035906308890982815e-24
-4.130118565175733951e-24
-2.840358054593310214e-24
-1.969344475536562331e-24
-1.382515056441534119e-24
-9.885258554859837861e-25
-7.208069620721660468e-25
-5.364742782179572744e-25
-4.063792465510920877e-25
-3.116070488131318716e-25
-2.401281302570051299e-25
