# bin_12_11
-5.086065802356150097e-11
-5.782330267596054544e-11
-6.474282671623923000e-11
-7.112199453402274652e-11
-7.629693114558553576e-11
-7.942996677820004031e-11
-7.978130386356944189e-11
-7.631508535388403571e-11
-6.889894432517481917e-11
-5.880184151618677413e-11
-4.823385035804232722e-11
-3.998289747278109463e-11
-3.455413113676334089e-11
-2.865987935592097587e-11
-2.040855489844738513e-11
-1.507325686097708470e-11
-1.180056224430234646e-11
-7.908914494923148541e-12
-5.789039177843098593e-12
-4.032633261216049101e-12
-2.753147027681863471e-12
-1.882901492278557406e-12
-1.287686430277221159e-12
-8.864046054184075955e-13
-6.163549816601434933e-13
-4.360527881528359795e-13
-3.144369233674351286e-13
-2.315522309410048076e-13
-1.738779789373345596e-13
-1.325471896692946292e-13
-1.018842047916570362e-13
