# bin_14_8
-3.170912733418510953e-10
-3.570277586263975812e-10
-3.950107655448038571e-10
-4.276309033478411431e-10
-4.504650962642672058e-10
-4.586625021223798264e-10
-4.476629675636404513e-10
-4.129977354073549282e-10
-3.602586049050795200e-10
-2.986343826591661584e-10
-2.450081157441958823e-10
-2.088264041585892993e-10
-1.786582642742478931e-10
-1.351379824449369841e-10
-9.476521111270982811e-11
-7.620538032379060616e-11
-5.218564008163319426e-11
-3.879454325643372666e-11
-2.653882378792022185e-11
-1.860115539184204798e-11
-1.299732434194247271e-11
-9.083875054949262563e-12
-6.399037134639070369e-12
-4.561073538314850950e-12
-3.312624815371342650e-12
-2.452840942594176064e-12
-1.849201092830752188e-12
-1.414926209710139862e-12
-1.091982255159398963e-12
-8.439932028738493592e-13
-6.485839480900473440e-13
