# bin_4_6
-9.755062194082055350e-13
-1.074254242157836070e-12
-1.156674184407109441e-12
-1.210519415164825795e-12
-1.223627762351180220e-12
-1.182184276140223603e-12
-1.078805926890659216e-12
-9.309990875212260377e-13
-7.672730040808857942e-13
-6.318485625686225248e-13
-5.419412947221979863e-13
-4.576131598385213516e-13
-3.370422142820368461e-13
-2.417304024475507927e-13
-1.938183432350711367e-13
-1.318320258511438212e-13
-9.914717874848616072e-14
-6.950953734823998339e-14
-4.934666738339088045e-14
-3.538617011126921217e-14
-2.558457962234881024e-14
-1.876652208610835817e-14
-1.399575711022384933e-14
-1.063577307750163797e-14
-8.203963171676604259e-15
-6.389759186344968468e-15
-4.993499456159824014e-15
-3.887200253268979333e-15
-2.994595497361568923e-15
-2.270168619965257205e-15
-1.686099531710141985e-15
