# bin_11_9
-1.154925207888444496e-10
-1.305118696823384794e-10
-1.450313604855643501e-10
-1.578566282156036477e-10
-1.674073799936349549e-10
-1.717978681015935483e-10
-1.695267182929837158e-10
-1.584141001126706982e-10
-1.398953990988266182e-10
-1.169581672956455285e-10
-9.571415454638141506e-11
-8.078861829595745865e-11
-6.976648072782156984e-11
-5.465860881983329016e-11
-3.791717281062261433e-11
-3.003208468254763623e-11
-2.142430690990760450e-11
-1.546505093993858899e-11
-1.060111706535397414e-11
-7.509048726725894040e-12
-5.206299054622602723e-12
-3.603055376638680693e-12
-2.511846577721219932e-12
-1.768039577740380671e-12
-1.265315621431668453e-12
-9.232681086019393168e-13
-6.867966358302579203e-13
-5.200883881700610645e-13
-3.989025874327691851e-13
-3.078209768816695410e-13
-2.372076040275788885e-13
