# bin_13_15
-1.901222139889691946e-12
-2.176863215477689366e-12
-2.459446020002491105e-12
-2.731439281331625228e-12
-2.969941298376542643e-12
-3.144763470535658986e-12
-3.220157204819935266e-12
-3.168046310230330609e-12
-2.948007587519415215e-12
-2.592974931905578022e-12
-2.159576839718604390e-12
-1.767338515942356315e-12
-1.498008310608075806e-12
-1.293033699981231027e-12
-9.991042845644819188e-13
-6.901106830696119229e-13
-5.543156803368224273e-13
-3.845083577650284011e-13
-2.822358089432389037e-13
-1.886706602673535437e-13
-1.313675732446465938e-13
-8.948049507171773686e-14
-6.037054813878165003e-14
-4.059287176721495432e-14
-2.727521581112614298e-14
-1.848947910905210414e-14
-1.269824965397054999e-14
-8.875554445884507546e-15
-6.342014783571152620e-15
-4.637833669449950954e-15
-3.464259089357961667e-15
