# bin_5_10
-3.498205607212778779e-17
-3.936567367327836672e-17
-4.352384233696936567e-17
-4.707794758913893304e-17
-4.953861272045202721e-17
-5.037384526178069686e-17
-4.907556574624163901e-17
-4.516567789151502393e-17
-3.930631076406285610e-17
-3.251626741582414389e-17
-2.667868562497458920e-17
-2.279006010537346788e-17
-1.948503839020605072e-17
-1.462459769497455207e-17
-1.025282446881253302e-17
-8.306233078853182369e-18
-5.608307035166754414e-18
-4.217876912479360188e-18
-2.878360071268408111e-18
-2.008688965110456642e-18
-1.407116116112361237e-18
-9.860629216480617692e-19
-6.960690710069361619e-19
-4.973343398179456238e-19
-3.622725479487768498e-19
-2.690362206825068622e-19
-2.033814182432604999e-19
-1.559628533903696550e-19
-1.205431667267572491e-19
-9.322708410183294545e-20
-7.162834405585544096e-20
