# bin_14_14
-1.634319627985009874e-11
-1.869748729301498741e-11
-2.110369007487887152e-11
-2.340954845655890497e-11
-2.541623028049679005e-11
-2.686318535281551935e-11
-2.744871233057424272e-11
-2.692361063080229898e-11
-2.496472810902880816e-11
-2.188403631832268065e-11
-1.818269545380347244e-11
-1.489002427338783957e-11
-1.265695335600358845e-11
-1.089899136466231774e-11
-8.337163858382350848e-12
-5.775049025672694089e-12
-4.661776671116709791e-12
-3.188875605666332522e-12
-2.363396308662831215e-12
-1.580847270295602234e-12
-1.093531244809877260e-12
-7.463869744690845281e-13
-5.049120891612436361e-13
-3.402778825800992849e-13
-2.294011140445205840e-13
-1.562445883147677247e-13
-1.079215413331053551e-13
-7.593243281765385060e-14
-5.463235765786363033e-14
-4.020963403207000674e-14
-3.019099940218338892e-14
