# bin_4_11
-9.830420460971157129e-22
-1.108353490924505583e-21
-1.228256845592253311e-21
-1.332330778295514814e-21
-1.406949287413692466e-21
-1.436496728873316550e-21
-1.407720723935981659e-21
-1.304283906841536887e-21
-1.142526736295475502e-21
-9.490597714428301828e-22
-7.772799436415433265e-22
-6.606506361340970172e-22
-5.683141015001192410e-22
-4.346555274194173154e-22
-3.019591200374830119e-22
-2.435756614722239371e-22
-1.676224454092882224e-22
-1.245774982343778525e-22
-8.455640712576939219e-23
-5.943824853554741865e-23
-4.149015086067021239e-23
-2.894359960575891215e-23
-2.032308828707835333e-23
-1.442378705693416305e-23
-1.042742837872538077e-23
-7.686804042280806865e-24
-5.772940263036097981e-24
-4.405524929224712282e-24
-3.395953012096586283e-24
-2.625550776562698233e-24
-2.020969479494074335e-24
