# bin_7_13
-1.172321691914412720e-17
-1.332515365143237649e-17
-1.491535696228416665e-17
-1.637909090100001706e-17
-1.756296567898181462e-17
-1.827358263152043514e-17
-1.834251975900226806e-17
-1.752797357462361707e-17
-1.580795364027549090e-17
-1.347604322816745694e-17
-1.104866906322376272e-17
-9.164090504108487398e-18
-7.925447323179529155e-18
-6.562254511631365007e-18
-4.657425231457560917e-18
-3.452639632502954810e-18
-2.695892368177567762e-18
-1.808151465255964885e-18
-1.320334072399863710e-18
-9.220603193709758931e-19
-6.296838388691021151e-19
-4.304663893702043570e-19
-2.945024731080857609e-19
-2.029237358653539122e-19
-1.412943355764234572e-19
-1.001178177102617401e-19
-7.231724642206572650e-20
-5.334566619457086882e-20
-4.011915946606117856e-20
-3.061856149959577482e-20
-2.355225922649016875e-20
