# bin_4_2
-1.117403045085366391e-09
-1.153596961478198772e-09
-1.147406628887322706e-09
-1.087486920484632367e-09
-9.756144384532978139e-10
-8.307067380532998842e-10
-6.851012925404486774e-10
-5.707873383508852616e-10
-4.862886132961953110e-10
-3.951391145459250752e-10
-2.904801101808036781e-10
-2.169287646564588622e-10
-1.658140716046254698e-10
-1.190877450788772901e-10
-8.775431152786419121e-11
-6.381865953489109613e-11
-4.694150338142617977e-11
-3.495381042554156209e-11
-2.646011927101374890e-11
-2.038763919198003250e-11
-1.595367375320506311e-11
-1.262323961897466054e-11
-1.003043591627728865e-11
-7.946914111931520995e-12
-6.235071765868266343e-12
-4.814540003158446393e-12
-3.640208160335476793e-12
-2.685127382633675046e-12
-1.928332234064034112e-12
-1.348219521231832653e-12
-9.191469237578176823e-13
