# bin_12_7
-3.543498469812153408e-10
-3.967477328261496443e-10
-4.359832230356200345e-10
-4.680403966586753552e-10
-4.878468808158101711e-10
-4.907367976769431930e-10
-4.706994907528359360e-10
-4.263265028690358737e-10
-3.651334926203991432e-10
-3.000579394968426502e-10
-2.482706665296951050e-10
-2.138632865855054200e-10
-1.782138196925708864e-10
-1.286158978240902859e-10
-9.411469126548236278e-11
-7.415626364125822503e-11
-5.022765332490822077e-11
-3.715252104243586174e-11
-2.602017355342289540e-11
-1.814869790975532669e-11
-1.275383291101918520e-11
-9.015167486354982517e-12
-6.449295427766286423e-12
-4.685190377135327539e-12
-3.471444743859719885e-12
-2.618760649780447780e-12
-2.005239244082158064e-12
-1.550371219438298970e-12
-1.201821328346950251e-12
-9.274219272455229356e-13
-7.078328104880390963e-13
