# bin_12_6
-5.039293996300318399e-10
-5.603698552856740363e-10
-6.106454335828082981e-10
-6.487533919861658717e-10
-6.675032014569309014e-10
-6.608988872154534052e-10
-6.206549014927705958e-10
-5.507730606836483722e-10
-4.627741274836306416e-10
-3.789674683207580975e-10
-3.183169182753400792e-10
-2.745904340708820473e-10
-2.182810597935781243e-10
-1.530344830418218092e-10
-1.189211375273916357e-10
-8.746292682998754344e-11
-6.221247583768884184e-11
-4.402707291513909409e-11
-3.148656393855538889e-11
-2.220852415708237164e-11
-1.575210532667558049e-11
-1.130556713346018542e-11
-8.234132383005783883e-12
-6.107078250009528394e-12
-4.614152575402880938e-12
-3.538846346903740107e-12
-2.742183252348360702e-12
-2.132519139693858873e-12
-1.652554827692782703e-12
-1.267678919027071869e-12
-9.573577372163370069e-13
