# bin_5_6
-1.275315178419444275e-11
-1.408991505527677191e-11
-1.523204337116606928e-11
-1.602194395086512040e-11
-1.628958907332917810e-11
-1.587003706471763327e-11
-1.461477218350597698e-11
-1.272687681357137233e-11
-1.053986815171021343e-11
-8.649395263196944874e-12
-7.374783640835365385e-12
-6.296393057469884144e-12
-4.750917324165036484e-12
-3.347341823224150253e-12
-2.692877873275112457e-12
-1.855194335952937968e-12
-1.387949175936983271e-12
-9.640976471881165954e-13
-6.871282332172124137e-13
-4.909513774474518680e-13
-3.530038316247157464e-13
-2.572067161467476488e-13
-1.903925940362463381e-13
-1.436561744216626232e-13
-1.101707000359378011e-13
-8.546842436736199128e-14
-6.667782003117968393e-14
-5.193420324997787235e-14
-4.011210172691510344e-14
-3.053879458682033455e-14
-2.281089365412703106e-14
