# bin_8_14
-3.606726344653643203e-17
-4.110145534900500832e-17
-4.616039494277054246e-17
-5.089709758741692846e-17
-5.485195702410966771e-17
-5.743877203222200162e-17
-5.807720821796745129e-17
-5.608974327354835066e-17
-5.112326706629599881e-17
-4.405770808137833487e-17
-3.625953717187172847e-17
-2.987461063159717068e-17
-2.570760813061920600e-17
-2.170853571439651984e-17
-1.582217965675534439e-17
-1.132421623806572122e-17
-9.113232872154823794e-18
-6.021432185064561211e-18
-4.515668397349026876e-18
-3.089861231676784618e-18
-2.102492262385258067e-18
-1.439095396316411272e-18
-9.792761526103163452e-19
-6.682635519367104895e-19
-4.590679946217198264e-19
-3.202776953898304806e-19
-2.274728032132817261e-19
-1.649879520593728223e-19
-1.222696394128425464e-19
-9.230814992873385873e-20
-7.058754906184746757e-20
