# bin_5_4
-2.868917958372149464e-10
-3.110673545064863104e-10
-3.285406052289306524e-10
-3.357913200056668825e-10
-3.295843710252570138e-10
-3.064678852484774722e-10
-2.694351372037154366e-10
-2.249200235488201233e-10
-1.844420925061111081e-10
-1.558798437606533214e-10
-1.335349636453257874e-10
-1.037923626390136227e-10
-7.334402342761974632e-11
-5.767581343400950012e-11
-4.164634833924754385e-11
-3.033660144965513983e-11
-2.160564101148023392e-11
-1.563658065816715725e-11
-1.128674105212882022e-11
-8.232586066984810017e-12
-6.100567264183716605e-12
-4.598413735546596554e-12
-3.527463809539488858e-12
-2.744045883884861512e-12
-2.151781452331042600e-12
-1.689828547312646146e-12
-1.319696694046655150e-12
-1.018302825094008216e-12
-7.720910245683857804e-13
-5.727310023633862723e-13
-4.143783984713000839e-13
