# bin_3_6
-1.872408330848055266e-14
-2.054144391307039538e-14
-2.201378649613137459e-14
-2.290215343974377737e-14
-2.299226889547260123e-14
-2.199728025112876205e-14
-1.987410374598554302e-14
-1.698016923709008313e-14
-1.393907397957959038e-14
-1.154323589704186641e-14
-9.947908564066889395e-15
-8.258918298935443268e-15
-5.940392741576251942e-15
-4.380713864172534843e-15
-3.445687844492319670e-15
-2.355878424348121065e-15
-1.751594933669790230e-15
-1.246778709063007931e-15
-8.857813294181049631e-16
-6.369148740877888982e-16
-4.631725475567708931e-16
-3.422768917369546958e-16
-2.573681079780494864e-16
-1.970197843421844799e-16
-1.528339864675929162e-16
-1.194573678242000183e-16
-9.345113721000352671e-17
-7.264903272097925070e-17
-5.577364942116458461e-17
-4.206193873603342289e-17
-3.103307627196931686e-17
