# bin_3_8
-1.769195606598703704e-18
-1.966406174873356913e-18
-2.141540808097536323e-18
-2.273426149281041143e-18
-2.336511891138314204e-18
-2.310643527344739117e-18
-2.165552374409850963e-18
-1.917860150361493719e-18
-1.607334607338919805e-18
-1.314911851605441241e-18
-1.106370822360620375e-18
-9.560348470249281633e-19
-7.562345861364144002e-19
-5.261050241806610699e-19
-4.135871120548874799e-19
-3.008433294917973131e-19
-2.160111374069041674e-19
-1.510040322539206302e-19
-1.086436585989550272e-19
-7.677186745181169815e-20
-5.449417339049241009e-20
-3.918847727297541168e-20
-2.859995083707756292e-20
-2.126320907256525972e-20
-1.610198332320154129e-20
-1.237418218895528753e-20
-9.603510879371021579e-21
-7.475495615906460677e-21
-5.794804057825914443e-21
-4.443849014814206025e-21
-3.353218689367730647e-21
