# bin_2_11
-1.971781932493486114e-29
-2.218946710876727236e-29
-2.453438920098760091e-29
-2.653926422582080041e-29
-2.792830040192915048e-29
-2.840145483847060817e-29
-2.767262539923613810e-29
-2.547151536967234419e-29
-2.217010823148821531e-29
-1.834219203016260775e-29
-1.504895264354396811e-29
-1.285391581580703171e-29
-1.099073144309444961e-29
-8.252697313683166065e-30
-5.785207114395763110e-30
-4.685538433737403335e-30
-3.165698110322674208e-30
-2.379667336891035120e-30
-1.623935726276710649e-30
-1.133552303854864668e-30
-7.939718800912628878e-31
-5.563135385862642442e-31
-3.926601706996284970e-31
-2.805126046318665933e-31
-2.042997342901402263e-31
-1.516955624498261275e-31
-1.146594382579257783e-31
-8.791651447407192525e-32
-6.794565912967360920e-32
-5.254748248671499552e-32
-4.037433505962310647e-32
