# bin_12_1
-3.486047894979087017e-09
-3.417393573563948516e-09
-3.191649105740812492e-09
-2.828888558042195358e-09
-2.395703020435901559e-09
-1.984811328685032866e-09
-1.660059402227120901e-09
-1.392871501572428811e-09
-1.108840367276365623e-09
-8.250318979325571634e-10
-6.187334012691012766e-10
-4.669087203111998004e-10
-3.407207317736806669e-10
-2.512801012528728975e-10
-1.852663081411336709e-10
-1.382841637705949370e-10
-1.047729583537661539e-10
-8.079726402281234122e-11
-6.334732069730303004e-11
-5.028854993994877307e-11
-4.018002154329714059e-11
-3.207757288161606463e-11
-2.540759434493445101e-11
-1.983940694966825981e-11
-1.519015056993909432e-11
-1.135829343193491224e-11
-8.274708722534451727e-12
-5.869471428052470989e-12
-4.057864554569657552e-12
-2.740535435920382848e-12
-1.813419744245672043e-12
