# bin_4_2
2.841880396345426218e-08
2.476046580826136474e-08
2.101664568341445970e-08
1.743394369629292993e-08
1.420256543590050576e-08
1.141134944245628996e-08
9.047950192523142597e-09
7.050397908846533413e-09
5.384519585845456388e-09
4.062004237597750146e-09
3.068315492180683405e-09
2.324297047291898581e-09
1.763774959238724764e-09
1.350931995345415013e-09
1.044236250921741986e-09
8.144067057927556170e-10
6.393061879588641371e-10
5.033129483673616767e-10
3.956688989417149992e-10
3.092067076056598899e-10
2.392099733401498488e-10
1.825320054944418112e-10
1.369757039284726358e-10
1.008628640659163171e-10
7.277351037347823242e-11
5.141506540085486200e-11
3.557596599139811573e-11
2.413095980685722700e-11
1.607047955189820476e-11
1.052929807910113651e-11
6.802379350048540688e-12
