# bin_7_4
4.841807729894972250e-08
4.405591167846790719e-08
3.901036156577143106e-08
3.361114279804326939e-08
2.823158251942739734e-08
2.321546825096622401e-08
1.878703033393196729e-08
1.500947104096360209e-08
1.181508134893511965e-08
9.112298062758621389e-09
6.887527208874287295e-09
5.170162355318943170e-09
3.896059971372441071e-09
2.931007873473917468e-09
2.213122339301098956e-09
1.686596242571522491e-09
1.295604462446977856e-09
1.003391930614846142e-09
7.814878971712037186e-10
6.099431205489885093e-10
4.751010958757996636e-10
3.677880008225097429e-10
2.818550254766271691e-10
2.131039166163233870e-10
1.585296392922725330e-10
1.157967343864604416e-10
8.294184102427393465e-11
5.822202879994929820e-11
4.005837337969128761e-11
2.703668791312631465e-11
1.792611999916504433e-11
