# bin_10_6
-4.084889255470579364e-10
-4.537420616740211387e-10
-4.937859916978067481e-10
-5.237218252987538450e-10
-5.377623694602230045e-10
-5.310304059049332330e-10
-4.970406019230937569e-10
-4.396785943802768769e-10
-3.684498026473200436e-10
-3.017367314335062206e-10
-2.540902804728780163e-10
-2.189664634206682077e-10
-1.726095209005944362e-10
-1.208617746337461451e-10
-9.463692172707586951e-11
-6.879464999100800218e-11
-4.937836253886769497e-11
-3.475410170723810388e-11
-2.487173108859434713e-11
-1.757799793185329077e-11
-1.249057975208936022e-11
-8.984918615899805673e-12
-6.559900137817346980e-12
-4.878474430392893711e-12
-3.694761516939458925e-12
-2.839121800734722936e-12
-2.202637835427782467e-12
-1.713582982607259759e-12
-1.327367915012347282e-12
-1.017106758332632009e-12
-7.668488986735199422e-13
