# bin_4_7
-3.177336131047607658e-14
-3.518104511819260854e-14
-3.813579485971458252e-14
-4.024928717995142926e-14
-4.108087443283005003e-14
-4.024499225858900039e-14
-3.729188238408361421e-14
-3.267123292235738780e-14
-2.715596047262281215e-14
-2.224462421238047671e-14
-1.888421348904353239e-14
-1.622125740095769618e-14
-1.244298298861467461e-14
-8.688568230852650780e-15
-6.974178129132483746e-15
-4.869946072976609740e-15
-3.612528578591399527e-15
-2.500045534337182189e-15
-1.788206180058603509e-15
-1.273549347841331708e-15
-9.118051274767286123e-16
-6.612003816542669625e-16
-4.868451136838877417e-16
-3.654042474852745858e-16
-2.789981793604291277e-16
-2.157591735014206402e-16
-1.680609881256146045e-16
-1.309128446608819318e-16
-1.012742303265907759e-16
-7.732438104696416814e-17
-5.798203992344680287e-17
