# bin_6_12
-1.885473607535160429e-18
-2.136291838521412233e-18
-2.381586943335670024e-18
-2.602404319076297750e-18
-2.773371623838609158e-18
-2.863039685043232417e-18
-2.847197294855532743e-18
-2.686368921156948550e-18
-2.393841706461629147e-18
-2.016566744597413461e-18
-1.649752777090740376e-18
-1.381732239550951234e-18
-1.196835377100755970e-18
-9.622248696448450550e-19
-6.689820136820512923e-19
-5.174999584067832249e-19
-3.842633175100227698e-19
-2.682022752302591408e-19
-1.872286704341800962e-19
-1.331226069208498492e-19
-9.162089115463232795e-20
-6.286976993156826166e-20
-4.346450678434694472e-20
-3.030687655430355237e-20
-2.143363110977084012e-20
-1.544777961873224358e-20
-1.135510308294684792e-20
-8.512989127094115790e-21
-6.484476672420777846e-21
-4.988343315473067622e-21
-3.846837633893688103e-21
