# bin_14_11
-1.113036897033478327e-10
-1.266273717246331652e-10
-1.419059441734311743e-10
-1.560564062235777511e-10
-1.676359236048227616e-10
-1.748182251329328099e-10
-1.759349846826904754e-10
-1.687691923725360930e-10
-1.528008971414432569e-10
-1.307881605753041087e-10
-1.073898721154829509e-10
-8.885756198972193720e-11
-7.669492143655799652e-11
-6.395638548949750960e-11
-4.586558476138551878e-11
-3.355579957420581070e-11
-2.648719036694332037e-11
-1.767748080506117604e-11
-1.303296040497497325e-11
-9.028930033681697135e-12
-6.157886220305464034e-12
-4.211629586419812043e-12
-2.875329571199873079e-12
-1.973599831446893316e-12
-1.366922360291897038e-12
-9.627131081237765576e-13
-6.908565957786115801e-13
-5.063214198147434296e-13
-3.786476281212101871e-13
-2.877802694815221681e-13
-2.208539085147173177e-13
