# bin_9_5
-5.441607937745833480e-10
-5.987222012440488853e-10
-6.439738797095367857e-10
-6.730767243473877973e-10
-6.793491861930509984e-10
-6.550829372357570311e-10
-5.969520981481961794e-10
-5.145080212385416508e-10
-4.242617022436090370e-10
-3.500253320887135168e-10
-2.999964211555949673e-10
-2.519795223325930527e-10
-1.856411254065051050e-10
-1.341611906630218707e-10
-1.062813331167222227e-10
-7.323105948570669028e-11
-5.443379188851915428e-11
-3.832230084985274739e-11
-2.728343256726723782e-11
-1.955506090609781735e-11
-1.414243434587222055e-11
-1.037998211164065585e-11
-7.746734049360641859e-12
-5.889169436928375500e-12
-4.543180600989904545e-12
-3.537862526784617005e-12
-2.763416830853409246e-12
-2.149626850999767121e-12
-1.654529306360914724e-12
-1.253027737603588286e-12
-9.296803220027733703e-13
