# bin_6_6
-6.226669762668696809e-11
-6.890869590319522852e-11
-7.464843010868054046e-11
-7.872304844537171222e-11
-8.028029852428840807e-11
-7.854707250434900818e-11
-7.269251960487111506e-11
-6.360757153315630479e-11
-5.284682312469295218e-11
-4.331878961294143255e-11
-3.679958501762657045e-11
-3.154601250795981588e-11
-2.412881863459935728e-11
-1.691093274186041362e-11
-1.354082026390182456e-11
-9.459658488015991912e-12
-7.006150762055020477e-12
-4.864618313507094578e-12
-3.477165527957897762e-12
-2.476677789885873068e-12
-1.774017282407811523e-12
-1.287444304274463967e-12
-9.488707672616704577e-13
-7.128049391872275936e-13
-5.446281223585373522e-13
-4.213652534969065296e-13
-3.282527028771894165e-13
-2.556472128367059611e-13
-1.976782864162015645e-13
-1.508296959172574058e-13
-1.130063866475295417e-13
