# bin_8_10
-1.426949067257841866e-12
-1.612237148730452824e-12
-1.791192635971552660e-12
-1.949037888530092233e-12
-2.066213826218967081e-12
-2.119336114072424211e-12
-2.090117415619196414e-12
-1.951408779145924309e-12
-1.721872568162887236e-12
-1.438167490361507013e-12
-1.176649438595304784e-12
-9.939675178602293568e-13
-8.587084135856373710e-13
-6.710599907045858062e-13
-4.645020764546538306e-13
-3.695776795041092517e-13
-2.621882482488059510e-13
-1.902636350115239297e-13
-1.296934739057886204e-13
-9.196007555160375501e-14
-6.380846935621298111e-14
-4.418922902601389902e-14
-3.082705005377862387e-14
-2.171064714737611452e-14
-1.555028048720337039e-14
-1.135661369056771862e-14
-8.455524449622923474e-15
-6.408530209507382386e-15
-4.918694349551304857e-15
-3.797424817445886908e-15
-2.926974164924945753e-15
