# bin_7_15
-5.276271829479828621e-21
-6.018303687325128078e-21
-6.767169048113601158e-21
-7.472423403916952758e-21
-8.067520305057954529e-21
-8.467109607385155375e-21
-8.582959351012011276e-21
-8.320695187695155543e-21
-7.614157578470952124e-21
-6.588370801736013829e-21
-5.432243868247943094e-21
-4.466961127962237439e-21
-3.834281585548855764e-21
-3.257091850455934692e-21
-2.400123842878262731e-21
-1.699048764860078166e-21
-1.375743967347626073e-21
-9.099707089941022846e-22
-6.850223220165237576e-22
-4.654233419373349914e-22
-3.168336130773124670e-22
-2.169416628763603646e-22
-1.474741737784610590e-22
-1.002936985840624469e-22
-6.854994718227141095e-23
-4.753588527925406176e-23
-3.353185735332254864e-23
-2.414754778402117801e-23
-1.777744090260946960e-23
-1.335018265651724749e-23
-1.017409737248748558e-23
