# bin_15_4
-1.168537426046759207e-09
-1.269870339579652191e-09
-1.345007100813765187e-09
-1.379478453431845181e-09
-1.360120009518568989e-09
-1.272059288293624201e-09
-1.124719343426965619e-09
-9.434759990578171905e-10
-7.738325959994643271e-10
-6.512135791967695664e-10
-5.586458500364351861e-10
-4.404407147137534371e-10
-3.123439802015756185e-10
-2.423294405838811177e-10
-1.781990204073667469e-10
-1.280822780244106381e-10
-9.197865247905747628e-11
-6.634084095465103910e-11
-4.771881348500072215e-11
-3.468745632591253168e-11
-2.559414696586391233e-11
-1.920609137675852196e-11
-1.466826230179031415e-11
-1.137068414511676121e-11
-8.895679137132672257e-12
-6.978825811700431455e-12
-5.452152377508483071e-12
-4.213680011566688522e-12
-3.203439218464083974e-12
-2.384855716262903522e-12
-1.732934245649118429e-12
