# bin_13_10
-1.363041404135852875e-10
-1.545959058486444463e-10
-1.725745765593595732e-10
-1.888812154439205200e-10
-2.016985732360908231e-10
-2.087643439835610375e-10
-2.082519975004503071e-10
-1.973357521034803373e-10
-1.765711088312102590e-10
-1.493644059730727239e-10
-1.222972550677938156e-10
-1.020864421933630786e-10
-8.836290031817663765e-11
-7.176358031453209805e-11
-5.028794391642676705e-11
-3.830809715018545313e-11
-2.895119247744539971e-11
-1.992646179537753917e-11
-1.414400886356684264e-11
-9.983980605960459503e-12
-6.852664239670124924e-12
-4.696802900850256849e-12
-3.234936386414523640e-12
-2.246118960245221096e-12
-1.579794175494449496e-12
-1.131845230996837842e-12
-8.269454488099190606e-13
-6.165110179216008791e-13
-4.675439747091873664e-13
-3.586722287253729284e-13
-2.763272486228347759e-13
