# bin_12_8
-2.524536693277414791e-10
-2.840432430305944384e-10
-3.139866095695483027e-10
-3.395490898217926849e-10
-3.571963913436220538e-10
-3.631300438807270344e-10
-3.536308239452014640e-10
-3.254280049303725239e-10
-2.831723428434326801e-10
-2.343828693900309014e-10
-1.924399180490363276e-10
-1.643167065858799104e-10
-1.402261756729718243e-10
-1.053352996158004639e-10
-7.414192758595775924e-11
-5.966906861648105462e-11
-4.062075944417422022e-11
-3.029938579921468470e-11
-2.075746213640300695e-11
-1.452079476841302618e-11
-1.015656116997728658e-11
-7.109000736829345266e-12
-5.016870513285467063e-12
-3.583905137357714679e-12
-2.609488152326620121e-12
-1.936913087973881432e-12
-1.463382688884490427e-12
-1.121475297686858581e-12
-8.662345547874194088e-13
-6.695545513049916290e-13
-5.141997365227270211e-13
