# bin_7_6
-1.523804741863682094e-10
-1.689401916713435857e-10
-1.834201367939976154e-10
-1.939718221407973929e-10
-1.984649644554869801e-10
-1.950640837809004594e-10
-1.815095140970098997e-10
-1.596589910690642176e-10
-1.331668968458391791e-10
-1.090734792967841995e-10
-9.227101250822076132e-11
-7.935674300048393771e-11
-6.160227801645962351e-11
-4.306424027395937169e-11
-3.417941229838331283e-11
-2.431741232159947142e-11
-1.775619215979834787e-11
-1.237916019223505530e-11
-8.866905174844244749e-12
-6.292540955067799477e-12
-4.489036167350410438e-12
-3.244114822994514696e-12
-2.380262152886213928e-12
-1.779676137127548336e-12
-1.354271373284289509e-12
-1.044547975238982364e-12
-8.122896833110020661e-13
-6.324146160112273766e-13
-4.895052473755125130e-13
-3.743016942676432546e-13
-2.813073283956708361e-13
