# bin_8_9
-9.307949233738692322e-12
-1.048490257828546219e-11
-1.160648146193017118e-11
-1.257303589302067607e-11
-1.325498048812152365e-11
-1.350753229222879568e-11
-1.320048961128075982e-11
-1.219254770224829232e-11
-1.064814248827551184e-11
-8.828674117466773811e-12
-7.237041241464254135e-12
-6.165258463111041556e-12
-5.287918475659404188e-12
-4.009810782828887156e-12
-2.798052763711193312e-12
-2.260417916172458344e-12
-1.542968690108654100e-12
-1.152207911397955713e-12
-7.841474159564251479e-13
-5.494278145387702532e-13
-3.840367136413672432e-13
-2.683796270639696635e-13
-1.888562078472173237e-13
-1.344093031200863244e-13
-9.747661758213014999e-14
-7.207918638776970439e-14
-5.428178756228434879e-14
-4.150802462213295082e-14
-3.203061588031571453e-14
-2.476604838146006762e-14
-1.904708219935674691e-14
