# bin_6_8
-1.213184490838073076e-12
-1.356799023467115051e-12
-1.488906092579128196e-12
-1.595612445937559001e-12
-1.659434862139479013e-12
-1.665052670111392860e-12
-1.590981926532256414e-12
-1.435151992395680103e-12
-1.223946837331691810e-12
-1.003850770358592700e-12
-8.323391861959418894e-13
-7.188373681431568870e-13
-5.952479950604758964e-13
-4.244765195568689306e-13
-3.143957727569060378e-13
-2.460245920476561117e-13
-1.665819401055730526e-13
-1.226445916308212770e-13
-8.659279800596838398e-14
-6.037387124415668127e-14
-4.243445548224024003e-14
-3.005204782394161223e-14
-2.156927615674938269e-14
-1.573336978406466137e-14
-1.170563127833112593e-14
-8.863632699376722903e-15
-6.808005201177212433e-15
-5.274280297501597967e-15
-4.091886190174937214e-15
-3.156485403265782563e-15
-2.405745882782567260e-15
