# bin_5_3
-7.277561967561244834e-10
-7.734053607157308768e-10
-7.968427294972324607e-10
-7.903893821843560331e-10
-7.454690072419799145e-10
-6.648556595111260418e-10
-5.623196768682589416e-10
-4.619833374498833188e-10
-3.862130860668997195e-10
-3.308743605378641639e-10
-2.662516512425796469e-10
-1.917135038269627691e-10
-1.453572299960130862e-10
-1.100330243512056962e-10
-7.836825886959774854e-11
-5.741565172890390819e-11
-4.153218755628322714e-11
-3.020288644941667644e-11
-2.224218701533712535e-11
-1.663730965206169893e-11
-1.266376352484121057e-11
-9.799626028948697757e-12
-7.682998794186058063e-12
-6.063512456151617492e-12
-4.784163887161391825e-12
-3.747875362025157261e-12
-2.896417507965675448e-12
-2.196333267321110783e-12
-1.627311742584037487e-12
-1.174841126258028533e-12
-8.257617721716789697e-13
