# bin_3_5
-8.237142709152275185e-13
-8.944321813978593459e-13
-9.463764121598445927e-13
-9.691876290339179893e-13
-9.539822349232247730e-13
-8.895695045205929681e-13
-7.841478928909775199e-13
-6.552520792893060360e-13
-5.365495886279426906e-13
-4.527622300138407817e-13
-3.895092719010379706e-13
-3.046689579109671151e-13
-2.136973011041940996e-13
-1.686860400843577734e-13
-1.219460802334425204e-13
-8.884450313558283033e-14
-6.295838296730702761e-14
-4.566859518822860168e-14
-3.292862794475916231e-14
-2.397300820751656859e-14
-1.773218404383583162e-14
-1.334068599973245247e-14
-1.021740548537811575e-14
-7.939535865765114205e-15
-6.222826767377151063e-15
-4.887659386415044038e-15
-3.819995631414502295e-15
-2.951324898315862734e-15
-2.241484738741986380e-15
-1.665986318153702163e-15
-1.207845813490173927e-15
