# bin_5_2
-1.475928470130009733e-09
-1.519973037513085388e-09
-1.507116680542451768e-09
-1.423170681113593438e-09
-1.272258465791389330e-09
-1.080439092951515176e-09
-8.910362574223706322e-10
-7.437850921073912126e-10
-6.327966220269986098e-10
-5.107708590240961290e-10
-3.749085372401862402e-10
-2.811779516936684062e-10
-2.138147578874370066e-10
-1.539046985924043085e-10
-1.132844201723323281e-10
-8.250099879291307282e-11
-6.074426447500532060e-11
-4.530022076084361510e-11
-3.435163043486032546e-11
-2.651088094580506698e-11
-2.077262243988961350e-11
-1.644908789758596278e-11
-1.307285774807222328e-11
-1.035316984772679248e-11
-8.115305211399540142e-12
-6.257640174766887822e-12
-4.723143635846528243e-12
-3.477286898314398416e-12
-2.492431127277599363e-12
-1.739511495482146475e-12
-1.184071265011110459e-12
