# bin_13_11
-8.179591741358943363e-11
-9.303281254028574350e-11
-1.042226768280486450e-10
-1.145681996555611460e-10
-1.230062208580685311e-10
-1.281927111931093400e-10
-1.289156023127706511e-10
-1.235307173958493299e-10
-1.117204707470594102e-10
-9.551852344664218549e-11
-7.839834035976228415e-11
-6.491326374885799695e-11
-5.605734854254669637e-11
-4.665229677834142234e-11
-3.336315023700696623e-11
-2.449624812357626473e-11
-1.927881106393166075e-11
-1.288370773996042949e-11
-9.474514330412108511e-12
-6.577410463933629821e-12
-4.487141243657871864e-12
-3.068679089744572853e-12
-2.096147896015257034e-12
-1.440210500793862223e-12
-9.988857575310183969e-13
-7.046344664528757699e-13
-5.065329387144644578e-13
-3.718748427295381450e-13
-2.785213519051489476e-13
-2.119177985708439089e-13
-1.627341978115119919e-13
