# bin_8_13
-5.317059933094800999e-16
-6.048257315369967563e-16
-6.776768167030814530e-16
-7.450830809061313972e-16
-8.001400844471968517e-16
-8.341168408399947806e-16
-8.391086316020789674e-16
-8.043759173067551231e-16
-7.276692389936874049e-16
-6.222874577436073126e-16
-5.106729288466008876e-16
-4.226585571216734647e-16
-3.651121775780320825e-16
-3.042171107005923189e-16
-2.174603050812059153e-16
-1.594834238040631818e-16
-1.258363990956381210e-16
-8.383833939284350443e-17
-6.182158853728642693e-17
-4.290855918541340786e-17
-2.925540282318829666e-17
-2.000003911953400614e-17
-1.365184156428878396e-17
-9.376436040141311764e-18
-6.500668411690341556e-18
-4.583862819114520574e-18
-3.293872186858670967e-18
-2.417493156603165055e-18
-1.810352954581349020e-18
-1.377507868855428361e-18
-1.058067205248403851e-18
