# bin_6_1
-3.010609556851504826e-09
-2.921517383756874401e-09
-2.698035767605291341e-09
-2.366824553934888355e-09
-1.991625546168341727e-09
-1.650861384204084634e-09
-1.384144330476400192e-09
-1.152781578142575066e-09
-9.037201605904920280e-10
-6.703733888082140318e-10
-5.053351002021540739e-10
-3.786855197699632028e-10
-2.766879593313013136e-10
-2.043238248808657030e-10
-1.511441930582989574e-10
-1.133115491099999416e-10
-8.632160370297761490e-11
-6.693274840161062911e-11
-5.272076738920792020e-11
-4.198644326341396999e-11
-3.359118487301488633e-11
-2.680110592725012994e-11
-2.117768206498587228e-11
-1.647184888961279266e-11
-1.254754386310994218e-11
-9.327474850528099498e-12
-6.753589694842013036e-12
-4.761936762849258790e-12
-3.274260595078876523e-12
-2.200879510492844153e-12
-1.450603066610480234e-12
