# bin_7_7
-4.911854999943525916e-11
-5.478884115550770828e-11
-5.993040654493206848e-11
-6.396952287973641991e-11
-6.619459858451179739e-11
-6.602046904343407895e-11
-6.257141064718522900e-11
-5.600607984852002475e-11
-4.740479159779852273e-11
-3.882208649603941462e-11
-3.238100425932450199e-11
-2.799581925740477112e-11
-2.276622140047624510e-11
-1.602934294362390011e-11
-1.218078730814587504e-11
-9.261192767899240928e-12
-6.410281222463131094e-12
-4.615354944307567337e-12
-3.292585409250270296e-12
-2.307253780752109014e-12
-1.626599080059860199e-12
-1.158936560452432071e-12
-8.375481612732437443e-13
-6.158479687337410188e-13
-4.616686690293898744e-13
-3.518445687378166607e-13
-2.715143517867306291e-13
-2.108359309846180151e-13
-1.635577075410776521e-13
-1.258814904674095897e-13
-9.555249458525025062e-14
