# bin_12_13
-6.912662343596972486e-12
-7.888121815223332984e-12
-8.874405459019193845e-12
-9.805617316391421955e-12
-1.059499870397783164e-11
-1.113095622468689911e-11
-1.129598803093695868e-11
-1.096941073795576504e-11
-1.005663446241645868e-11
-8.718066213832889742e-12
-7.195329091124822247e-12
-5.912448849881290351e-12
-5.068408349597126353e-12
-4.315404182289037965e-12
-3.196955524707495105e-12
-2.253929740534440708e-12
-1.826731643478502775e-12
-1.211940720675451692e-12
-9.119320778334406655e-13
-6.177168568326620249e-13
-4.210552132681195313e-13
-2.882928621786950731e-13
-1.959164754293644416e-13
-1.330543553417314677e-13
-9.074970319905350067e-14
-6.276480755412838959e-14
-4.414104557487813407e-14
-3.168479006743408265e-14
-2.325435154293396088e-14
-1.741782291578499683e-14
-1.325002707736028386e-14
