# bin_13_6
-5.632684558637839787e-10
-6.259137487106622248e-10
-6.814807391603372280e-10
-7.232308884048988501e-10
-7.431667610743051323e-10
-7.345640871387536363e-10
-6.883802767770253268e-10
-6.096459843918852078e-10
-5.113930077893821438e-10
-4.188056460461149634e-10
-3.523454427373802526e-10
-3.037312744405125985e-10
-2.401644676216489272e-10
-1.682745136157500348e-10
-1.313704940571370309e-10
-9.591462702526377319e-11
-6.860961514271204954e-11
-4.839383308663840269e-11
-3.461770948512094498e-11
-2.444604793106791832e-11
-1.735792527088080275e-11
-1.247443425745967856e-11
-9.098283514743411049e-12
-6.758602948298581554e-12
-5.113524046032286142e-12
-3.926143816019811278e-12
-3.044362523139229352e-12
-2.367961651081317803e-12
-1.834495300554333009e-12
-1.406278154820016451e-12
-1.060949667995470370e-12
