# bin_6_13
-3.641219849155910641e-20
-4.135015856750893980e-20
-4.623074650572152692e-20
-5.069518112611177412e-20
-5.426289359790051180e-20
-5.633009541797857634e-20
-5.639377106019309348e-20
-5.369024931925246661e-20
-4.825062537819739364e-20
-4.098464284414013360e-20
-3.357276455755069483e-20
-2.792120638398928840e-20
-2.417020032620565301e-20
-1.985545549933351939e-20
-1.398752456346286172e-20
-1.050145525433390160e-20
-8.089800278519994121e-21
-5.478643204572428515e-21
-3.949263328967553476e-21
-2.776530028942751096e-21
-1.899769746284560514e-21
-1.298866843607322270e-21
-8.909621206143011526e-22
-6.159182278850803030e-22
-4.307314422469853857e-22
-3.066884864874636980e-22
-2.226595447409942747e-22
-1.650494650443941702e-22
-1.246232598297997451e-22
-9.536486031920267085e-23
-7.343721416599367604e-23
