# bin_4_1
-2.482480351906444104e-09
-2.403123604207884919e-09
-2.213157957453484622e-09
-1.936427566817227619e-09
-1.626753836680412880e-09
-1.348564802364731345e-09
-1.131465288364092482e-09
-9.406174870280128414e-10
-7.343926614614401081e-10
-5.443230998050011598e-10
-4.109188041380122634e-10
-3.073384386979175490e-10
-2.246508363454678846e-10
-1.659525084657261364e-10
-1.228731902630592589e-10
-9.222706384456628692e-11
-7.036287391154482863e-11
-5.463890351491764836e-11
-4.309111640067531038e-11
-3.434734021203892138e-11
-2.748999783521019863e-11
-2.193046477752236103e-11
-1.731871140645174445e-11
-1.345684186924752239e-11
-1.023718982258546365e-11
-7.598217153173723869e-12
-5.492446249565688520e-12
-3.866423901239319140e-12
-2.654540286479943608e-12
-1.781984719807398087e-12
-1.173220733027471329e-12
