# bin_13_8
-2.924235866381444057e-10
-3.290614829047803531e-10
-3.638132880036387092e-10
-3.935159846589133709e-10
-4.140786567336478686e-10
-4.210875806557037085e-10
-4.102539019902070561e-10
-3.777261991272080032e-10
-3.288429994686417138e-10
-2.722699746509734918e-10
-2.235157613372512775e-10
-1.907804468585167198e-10
-1.628875230073250890e-10
-1.225317776496242009e-10
-8.618679341292563299e-11
-6.934347225730951322e-11
-4.726920003760826957e-11
-3.522932654657431361e-11
-2.412952760799072981e-11
-1.688623270848950566e-11
-1.180798831688445538e-11
-8.261940107582166394e-12
-5.828060305448074733e-12
-4.161260602722365219e-12
-3.028120912262378987e-12
-2.246390561004044675e-12
-1.696361548296393801e-12
-1.299544960195137732e-12
-1.003573204632105774e-12
-7.756873153940902550e-13
-5.957844485117002870e-13
