# bin_15_10
-1.921077734907656596e-10
-2.179492053279956800e-10
-2.433819071883830816e-10
-2.664950227261070446e-10
-2.847335662691192433e-10
-2.949114863978226517e-10
-2.944297540129266987e-10
-2.793125213336190961e-10
-2.501937776596612810e-10
-2.118716848797045689e-10
-1.735159592704779135e-10
-1.447176450451605166e-10
-1.252400284447355840e-10
-1.019769580197434390e-10
-7.160165654837564194e-11
-5.433739556110055757e-11
-4.124403938815005296e-11
-2.829482556826821796e-11
-2.015867631073202845e-11
-1.420685008835640966e-11
-9.744610273594072226e-12
-6.676851298162790372e-12
-4.594612126415873466e-12
-3.186705381213929007e-12
-2.238135792910338763e-12
-1.601004926916161425e-12
-1.167840319119269684e-12
-8.693581141715028715e-13
-6.585144230500726804e-13
-5.047914830546879321e-13
-3.887935569484168391e-13
