# bin_2_8
-5.297248669502551507e-22
-5.869531843617553202e-22
-6.368034965550223027e-22
-6.728253500493659314e-22
-6.875937408211516104e-22
-6.747985808985276885e-22
-6.265684012525836596e-22
-5.500209860051069889e-22
-4.577859563721606213e-22
-3.748307315664762776e-22
-3.177150976510567995e-22
-2.733406572983108830e-22
-2.108439715058891675e-22
-1.469409053341023156e-22
-1.176842407699250103e-22
-8.267829507615073410e-23
-6.105931618784996684e-23
-4.225486348527416477e-23
-3.026636130092338587e-23
-2.152881190121045546e-23
-1.539084330489136606e-23
-1.114384590735940361e-23
-8.191601077605001401e-24
-6.137713230633729954e-24
-4.679508551813713687e-24
-3.614925238039285602e-24
-2.814139793023892467e-24
-2.192012374706516504e-24
-1.696503487477573066e-24
-1.296425935254994939e-24
-9.732991680290629862e-25
