# bin_15_9
-2.622875980609253185e-10
-2.965135189538520730e-10
-3.296611864003622683e-10
-3.590286226400375576e-10
-3.810367640728635771e-10
-3.913961751287902983e-10
-3.866848038827424535e-10
-3.619011756637668676e-10
-3.200686587235146679e-10
-2.679507688230357334e-10
-2.192945592929043717e-10
-1.848619798849377045e-10
-1.596814494844388049e-10
-1.256289117643810426e-10
-8.725375561632548766e-11
-6.878935611940308737e-11
-4.941298394794919874e-11
-3.546010871534789774e-11
-2.440858653306456539e-11
-1.728179060276156222e-11
-1.196576617434005328e-11
-8.269561884391029181e-12
-5.755547494071367760e-12
-4.043735972509341801e-12
-2.887334993362052930e-12
-2.101826755135918665e-12
-1.559928104464838332e-12
-1.178983192191476935e-12
-9.030150581101215917e-13
-6.963344432799819436e-13
-5.365871704732887558e-13
