# bin_9_4
-8.496213425697824478e-10
-9.227699781845446506e-10
-9.766702118313352804e-10
-1.000834600200572444e-09
-9.856724566144833089e-10
-9.205647618557019297e-10
-8.128270074036574797e-10
-6.810927514616738649e-10
-5.586419002073230309e-10
-4.705864350704694461e-10
-4.034891901078756529e-10
-3.170537939058604478e-10
-2.247424151777683214e-10
-1.748318612094231192e-10
-1.280654784978384616e-10
-9.230063429452397541e-11
-6.618031398039474495e-11
-4.776317717100230197e-11
-3.438129843798692709e-11
-2.501140628227431135e-11
-1.847226025555013920e-11
-1.387554636288659758e-11
-1.060751755960999313e-11
-8.229168248979042597e-12
-6.441201862867350106e-12
-5.054259579626776262e-12
-3.948163654593794079e-12
-3.050138589225362401e-12
-2.317395495930097739e-12
-1.723790321647737936e-12
-1.251350800950339619e-12
