# bin_13_1
6.795775723306348126e-37
7.699347462788978358e-37
8.582826007623757957e-37
9.377840386450577059e-37
9.992916965265628204e-37
1.031480021131194416e-36
1.025605752690425227e-36
9.674973004549965992e-37
8.620049319502689304e-37
7.260726411275317054e-37
5.940246830967775589e-37
4.975933600817823806e-37
4.309551488716058946e-37
3.462891461039307994e-37
2.408126023434064380e-37
1.863365462105263711e-37
1.382510373121050069e-37
9.656926471625641770e-38
6.740893785194111283e-38
4.790419459210938234e-38
3.297511851195081995e-38
2.263443729767668030e-38
1.565032305644156043e-38
1.091429697758077642e-38
7.720352928939058717e-39
5.565403864626422209e-39
4.091717210246936612e-39
3.068045203342713703e-39
2.337176649755590662e-39
1.797946680534577283e-39
1.386425100145131060e-39
