# bin_6_4
7.408489303542827962e-12
8.186833834666697544e-12
8.852830527426838313e-12
9.315024141188356741e-12
9.474021549888108212e-12
9.234818687371829084e-12
8.508234105441505808e-12
7.412532686462499485e-12
6.139032512196732667e-12
5.035999709352089240e-12
4.293382639653690272e-12
3.669607965414669224e-12
2.771045143704565464e-12
1.948418398079660805e-12
1.570850734871843971e-12
1.080154168764459889e-12
8.097799782059789789e-13
5.614721282983247783e-13
3.999907535411951635e-13
2.857860280907637561e-13
2.054288034010500016e-13
1.495987007833470280e-13
1.106672593000053719e-13
8.345541049914108321e-14
6.397463069577920945e-14
4.961682812204394887e-14
3.870529021976758168e-14
3.014996770613950162e-14
2.329278961572409035e-14
1.774044694611448645e-14
1.325759817161894319e-14
