# bin_12_1
1.716630104555175330e-34
1.938552103450242288e-34
2.152410430182363171e-34
2.340327397830306936e-34
2.478706384095613195e-34
2.539583040695059489e-34
2.500770615277140265e-34
2.330471540967151969e-34
2.052745347226438361e-34
1.712131035834233362e-34
1.401029667800107941e-34
1.185307825867213727e-34
1.023170778271553728e-34
7.954226244446959614e-35
5.507598332201124582e-35
4.399650322809205798e-35
3.096653794708455699e-35
2.261774313593834612e-35
1.538463706926717214e-35
1.088785364752655168e-35
7.566133693516544236e-36
5.249374470450115161e-36
3.667666892182051937e-36
2.587630448130189707e-36
1.857470234526040622e-36
1.359577014913680468e-36
1.014401103403133289e-36
7.701402166589153526e-37
5.917588072220065436e-37
4.570550584551551603e-37
3.521995900420323592e-37
