# bin_12_4
9.769857690687287716e-22
1.105383234341809175e-21
1.230155666445085511e-21
1.341338130537798303e-21
1.425650592306568311e-21
1.466872250058420518e-21
1.452647523846587094e-21
1.363211967633709098e-21
1.208657138027185718e-21
1.013529701409334371e-21
8.289995911877957681e-22
6.973775449176453514e-22
6.035769478973417183e-22
4.783768416911340697e-22
3.312715350551779034e-22
2.603812231269810451e-22
1.888166160457755244e-22
1.345233517009089069e-22
9.247552979631381687e-23
6.580743541350839657e-23
4.547703010421106503e-23
3.134166241686150605e-23
2.177083511127162718e-23
1.525826172013171231e-23
1.086226729083358599e-23
7.883181455492166124e-24
5.834264274123767330e-24
4.399894845035773473e-24
3.365737319979691643e-24
2.594808452428830725e-24
2.001055157647662494e-24
