# bin_10_2
4.826766832582345252e-25
5.414072448395446866e-25
5.962597300590167604e-25
6.418434161500603532e-25
6.712991778439513609e-25
6.779466111802349158e-25
6.538310135632497476e-25
5.952733046772237786e-25
5.124587042988080876e-25
4.216656043848594771e-25
3.475964364078298104e-25
2.990005015767438416e-25
2.519260591408553340e-25
1.836197772198947265e-25
1.320562384844634790e-25
1.059117061854195941e-25
7.081518130747743787e-26
5.317333035064990658e-26
3.691276634314823940e-26
2.565568095874650897e-26
1.801046692555115097e-26
1.268438064253023542e-26
9.031102182546785771e-27
6.523530526629182813e-27
4.806925695777783846e-27
3.608562560370825380e-27
2.752922411056332615e-27
2.124154882221023539e-27
1.646227530416401360e-27
1.272193886682590331e-27
9.736970141311153970e-28
