# bin_15_9
4.919264984231220414e-15
5.621273741756160616e-15
6.335399016428872967e-15
7.015235123441771799e-15
7.600060937022729008e-15
8.011004561037155841e-15
8.160083489322613841e-15
7.968099459116716727e-15
7.349625717099151234e-15
6.410017542666334503e-15
5.307861155591106907e-15
4.351854533731527319e-15
3.714574799801688901e-15
3.185308208157447734e-15
2.400258577164723798e-15
1.672067491335463248e-15
1.357302770414757309e-15
9.109531951874688084e-16
6.832432108644738628e-16
4.586417704325291514e-16
3.142976048151533599e-16
2.150621707338250299e-16
1.459343952677798049e-16
9.867579000282084512e-17
6.685205024852941267e-17
4.584400478820825380e-17
3.192354724564758330e-17
2.266871056914968156e-17
1.646346265058880370e-17
1.222095754974513714e-17
9.237271420159455766e-18
