# bin_15_1
2.600649398649291974e-41
2.961517344866235693e-41
3.322934513723880109e-41
3.659765400272260892e-41
3.938617414699647593e-41
4.117053100562860507e-41
4.154497670043987150e-41
4.000549410876391172e-41
3.635482688359202000e-41
3.123513697188170575e-41
2.567614714196872513e-41
2.119144696082615190e-41
1.826499122009618843e-41
1.534486100253035160e-41
1.109733567565562640e-41
8.017698257934654028e-42
6.405574145129690127e-42
4.243330046094984614e-42
3.163144815396135482e-42
2.176301401643419774e-42
1.481739626343077231e-42
1.013600148113643776e-42
6.903913364403378513e-43
4.722368107087403466e-43
3.255191561369474131e-43
2.280158519348139347e-43
1.626647157249579265e-43
1.185193965381856806e-43
8.818981364151822139e-44
6.678614669594799976e-44
5.116313650174812911e-44
