# bin_8_7
3.410214537853333975e-11
3.834967956168318901e-11
4.236618356592097179e-11
4.578000792072308177e-11
4.811255380457740746e-11
4.885443797380102596e-11
4.749627227618325443e-11
4.361202463339674921e-11
3.786794895063258740e-11
3.128684034485272909e-11
2.569103540819282383e-11
2.198177994320263326e-11
1.874454447081415124e-11
1.397948814412495776e-11
9.843624856969775765e-12
7.971329277561093457e-12
5.359150119882167625e-12
4.037316003341454771e-12
2.763321544421128088e-12
1.924971268935942923e-12
1.349288419091029739e-12
9.464722003222338649e-13
6.691745500768817188e-13
4.790971831177274121e-13
3.497688197711029771e-13
2.603057751218574903e-13
1.971460800615351865e-13
1.513788241086549413e-13
1.170749107281117614e-13
9.053981021527636188e-14
6.951658800145647604e-14
