# bin_2_2
2.030154077923867386e-10
2.116868772770458915e-10
2.131719971203308764e-10
2.051055909130707082e-10
1.866606576083858761e-10
1.607697819475455769e-10
1.327001384122325734e-10
1.095891246171782780e-10
9.365764729120148514e-11
7.830293742650804931e-11
5.810233562909049708e-11
4.233609985502716597e-11
3.328043761429648013e-11
2.352371931863884283e-11
1.750902778582768566e-11
1.261809980621856695e-11
9.236366104628445015e-12
6.832115211974907359e-12
5.130646026590584188e-12
3.922838989167153136e-12
3.049512689769121144e-12
2.402791361876701316e-12
1.906421908815400866e-12
1.512295510146632144e-12
1.191054392397379935e-12
9.252073291498362128e-13
7.048889987867024097e-13
5.244221669210565519e-13
3.799092165909075410e-13
2.677789732921205427e-13
1.838436099380216812e-13
