# bin_9_2
1.449026051740081102e-22
1.617830426496879750e-22
1.771694308784660812e-22
1.893800809575244790e-22
1.963127295670743293e-22
1.962253985502475405e-22
1.864964187174586258e-22
1.673617111184619979e-22
1.419905977699451551e-22
1.163013674070869173e-22
9.679581446095114832e-23
8.371359532033381405e-23
6.854063260495722286e-23
4.836543760716662645e-23
3.646689736149567497e-23
2.802537399907941492e-23
1.922162939302502135e-23
1.393688949665228142e-23
9.928440418185057631e-24
6.943366884250313666e-24
4.886514944600436436e-24
3.473957396955219427e-24
2.504944968366134288e-24
1.837168412987716192e-24
1.373980405949199359e-24
1.045094141484174006e-24
8.054300132793880469e-25
6.251083226635681419e-25
4.850602427979415823e-25
3.736804960222422918e-25
2.840739337156798660e-25
