# bin_13_13
3.380826515911390761e-11
3.867178030598543772e-11
4.363941897106005683e-11
4.839538219546361771e-11
5.252749609131873691e-11
5.549630573034722000e-11
5.667931648952879298e-11
5.555916482354962773e-11
5.147522169565748013e-11
4.508882265388599116e-11
3.743963155406273410e-11
3.066229688282363835e-11
2.608222398529702920e-11
2.245186152858609139e-11
1.713294243507293181e-11
1.187026974977151309e-11
9.599515018206591640e-12
6.538986752973276408e-12
4.862117054241887800e-12
3.250393551641653699e-12
2.243811309073951450e-12
1.532469475325194801e-12
1.037491462034847716e-12
6.994302319489276436e-13
4.717429297583766075e-13
3.215444923748892549e-13
2.223014604559961733e-13
1.565783739988121423e-13
1.127863428861038211e-13
8.310377106870208878e-14
6.245675210467493554e-14
