# bin_11_4
3.446165737424612236e-15
3.887149282114313081e-15
4.309917468324682776e-15
4.678113001490080997e-15
4.944071194480514260e-15
5.052601706317738292e-15
4.957912649725787660e-15
4.600722594451567203e-15
4.036132952436659433e-15
3.356146402145153574e-15
2.747857508775902544e-15
2.332728652714470956e-15
2.008934621149868547e-15
1.543159251093843751e-15
1.070562686017232879e-15
8.618567850004899353e-16
5.963364395699043501e-16
4.414401267635691148e-16
2.995068095332394748e-16
2.109208471920674840e-16
1.470525328209036916e-16
1.024311493642870200e-16
7.181554293953028667e-17
5.087605822792520435e-17
3.670210607530440465e-17
2.699883187724477651e-17
2.023790795106639253e-17
1.542147995959645619e-17
1.187701498194399659e-17
9.180490735275764141e-18
7.069230164813986526e-18
