# bin_13_12
3.668719283986722959e-06
4.192610168415130775e-06
4.725725158610156283e-06
5.233479878693540429e-06
5.670634790371298336e-06
5.978391344230507475e-06
6.090961175474170826e-06
5.949545131197364481e-06
5.489730749100457877e-06
4.789595853540893163e-06
3.966909879966557795e-06
3.252087889812391594e-06
2.775101667850071387e-06
2.380525998665730611e-06
1.795653982915903245e-06
1.250223995778712137e-06
1.014684426772861917e-06
6.817198538010190358e-07
5.110378921673298551e-07
3.428943623641969723e-07
2.350987070732204419e-07
1.608514622675466298e-07
1.091335408998851184e-07
7.377407834570868993e-08
4.996253650713526156e-08
3.424492376404293403e-08
2.383253720908763495e-08
1.691228578241528296e-08
1.227478249818601199e-08
9.106412283226742247e-09
6.880148359197167657e-09
