# bin_15_3
4.656820057591972507e-08
4.205226842453929670e-08
3.692406555021842582e-08
3.153836252426071005e-08
2.628289379397490284e-08
2.148428182503441892e-08
1.731874908835453331e-08
1.378834979909280765e-08
1.078702856585314730e-08
8.245342327051150564e-09
6.199506381146412185e-09
4.664663766541432894e-09
3.517018598024400173e-09
2.646362553433071618e-09
2.009350557114278594e-09
1.538024022496490593e-09
1.188474052872591659e-09
9.253854157676013706e-10
7.239560114964841479e-10
5.667729186574689896e-10
4.420846687334831956e-10
3.420951267795922696e-10
2.616012832753507489e-10
1.970460212250851031e-10
1.458216656876661770e-10
1.058304541760977067e-10
7.524547807866420320e-11
5.239884180134515556e-11
3.575699043198902806e-11
2.394096326727437670e-11
1.575599798678934963e-11
