# bin_6_5
5.170311233559859535e-08
4.736518352624830518e-08
4.224428661439449080e-08
3.666355832513764139e-08
3.100357153914602961e-08
2.563463330895529371e-08
2.082753609228555047e-08
1.669319351879845677e-08
1.319573674625209011e-08
1.023881047496936813e-08
7.779267104040774465e-09
5.839752136060468210e-09
4.391170176331687477e-09
3.304227037274522932e-09
2.485574514427001321e-09
1.886828252917424297e-09
1.442626922325559502e-09
1.112460006798330175e-09
8.631926474178009433e-10
6.719463342796032873e-10
5.227328170338266513e-10
4.047208851365257332e-10
3.106398291642103937e-10
2.355327301571829528e-10
1.759070116606176922e-10
1.291189353602225533e-10
9.300481988109886713e-11
6.568594316927080140e-11
4.548129822569743268e-11
3.089053453942613998e-11
2.060383887972086409e-11
