# bin_10_2
3.404430340475865533e-08
2.995434023061062987e-08
2.564424375124971636e-08
2.141870354377824395e-08
1.754000203652420383e-08
1.415731150183741697e-08
1.128462135048187973e-08
8.846893987389069775e-09
6.786448794829633445e-09
5.120368173797676444e-09
3.859302077216227731e-09
2.918287541064300685e-09
2.205988372000374315e-09
1.681146813399180013e-09
1.293244615594949817e-09
1.004268208835878920e-09
7.859794437411278029e-10
6.179704299086924329e-10
4.860533970323072004e-10
3.807039549710513440e-10
2.956506355495063104e-10
2.267508725482103368e-10
1.711876481863055194e-10
1.268956730972355713e-10
9.219396336659759447e-11
6.558784588968530689e-11
4.568346207220514421e-11
3.117507602731870298e-11
2.087274307333184725e-11
1.373784667554680776e-11
8.908314630214976609e-12
