# bin_7_3
4.126586577164019935e-08
3.699981024099800549e-08
3.227322839838481460e-08
2.740964728116701684e-08
2.274114871887267595e-08
1.852702980184597328e-08
1.488972161281757578e-08
1.181090991411337058e-08
9.201306255018263226e-09
7.013952368959108354e-09
5.275416101797955194e-09
3.974942273415381917e-09
2.999892304259977236e-09
2.263802136463084061e-09
1.724519987403654916e-09
1.324459595899962942e-09
1.026489729081157927e-09
8.009894267212976777e-10
6.272868036422199860e-10
4.909937583677001744e-10
3.824392939312768970e-10
2.952058179639807405e-10
2.249840246898623021e-10
1.687794197137383669e-10
1.243410383806239781e-10
8.981308641066239292e-11
6.355276148998930267e-11
4.405291863053311419e-11
2.993373258031273611e-11
1.996597687274604423e-11
1.309715275849282466e-11
