# bin_6_4
4.651977870596170534e-08
4.220985854917814562e-08
3.727318805844015743e-08
3.203377773819974113e-08
2.685039652723010207e-08
2.204442256887188770e-08
1.781685277403360221e-08
1.421559425993246740e-08
1.117134035143005933e-08
8.601435810897755842e-09
6.497116054319171524e-09
4.879526735375655427e-09
3.678566186206793554e-09
2.769100298922957463e-09
2.093850668750184739e-09
1.597803693969213453e-09
1.229146395349460863e-09
9.530302912276160748e-10
7.428514094227390318e-10
5.799716136971815106e-10
4.516699444066345148e-10
3.494129995528405444e-10
2.674752021975652128e-10
2.019330911005667593e-10
1.499554338588659843e-10
1.093195511215149092e-10
7.814069860122935563e-11
5.473726219961377068e-11
3.758439210642545495e-11
2.531888984425635195e-11
1.675859669741849190e-11
