# bin_13_1
2.357895445389227698e-08
2.015236664700081777e-08
1.681383395286375889e-08
1.376205776523636625e-08
1.110402094334638639e-08
8.843310273145865789e-09
6.924478959897848134e-09
5.311420866875311376e-09
4.016131683266700335e-09
3.034594624018158728e-09
2.300587356797437123e-09
1.747605034977828908e-09
1.338959581605425930e-09
1.036380921471213776e-09
8.099002320790110975e-10
6.377153405612564897e-10
5.040835099953178502e-10
3.982010902362470493e-10
3.128882894766636867e-10
2.434707863850192958e-10
1.868923815630326186e-10
1.410737269280967533e-10
1.044654698821268124e-10
7.576834620066494556e-11
5.378725192969507569e-11
3.737775317297249364e-11
2.545096136287790078e-11
1.700805272189230583e-11
1.117803388800707787e-11
7.241500492989691239e-12
4.634892162214886727e-12
