# bin_10_6
6.479549593790556789e-08
6.048172417720834845e-08
5.500170701276196187e-08
4.866507789001711720e-08
4.189260599398913338e-08
3.515673907631785510e-08
2.888850273969136513e-08
2.336300595762765071e-08
1.865180396570251191e-08
1.466451354058515822e-08
1.128746757581364148e-08
8.509148821205216465e-09
6.369200424777354846e-09
4.783020279640074585e-09
3.579416350917177560e-09
2.686549881576171022e-09
2.033187003608693670e-09
1.549942546356299296e-09
1.190800232136475229e-09
9.202313603240456216e-10
7.130179414142810578e-10
5.518210059838310356e-10
4.248861237326054701e-10
3.242469700015040604e-10
2.444277921317340649e-10
1.815177721048925927e-10
1.325196092033031315e-10
9.497793543317587022e-11
6.677696103779936025e-11
4.605338507798842453e-11
3.117213980105820471e-11
