# bin_10_7
6.937132857507633524e-08
6.517017572885855677e-08
5.967727041426987716e-08
5.318490897547649389e-08
4.611164926450432859e-08
3.894836329345889800e-08
3.216982107583282364e-08
2.611594942934355475e-08
2.091753186777771569e-08
1.651712921178498422e-08
1.278834662033108838e-08
9.685072899030907071e-09
7.247073732815407802e-09
5.432242474018316331e-09
4.066124546887327439e-09
3.039598073806561529e-09
2.291869862870715906e-09
1.738579199737761578e-09
1.329830196677896259e-09
1.023595184662818039e-09
7.907696528202480436e-10
6.109824825558370062e-10
4.703076017790560786e-10
3.593080168137607086e-10
2.715038099837481838e-10
2.023329068504166311e-10
1.483771025209735782e-10
1.069012001333124812e-10
7.559678815271502485e-11
5.245660264902959514e-11
3.572799636728203003e-11
