# bin_14_13
-3.641724936797805226e-11
-4.159962410765541758e-11
-4.686320747473625010e-11
-5.186373665780585079e-11
-5.614980111514479121e-11
-5.913648453328835726e-11
-6.018134391938163939e-11
-5.868431390860413585e-11
-5.404986743609012712e-11
-4.707091336406056239e-11
-3.894944577567206424e-11
-3.195382130496184532e-11
-2.730118222702590292e-11
-2.336597754013532711e-11
-1.753785440931945032e-11
-1.225838252099297147e-11
-9.938525271148281299e-12
-6.659828626509814564e-12
-4.993057349174827781e-12
-3.360156580503868888e-12
-2.301049825553892815e-12
-1.574166972716583486e-12
-1.068127351607209404e-12
-7.228490661138113975e-13
-4.904033118571570760e-13
-3.368795206782608998e-13
-2.350612767344724244e-13
-1.672859300044634384e-13
-1.217541905823480271e-13
-9.054252783326144686e-14
-6.852135630704319618e-14
