# bin_10_10
-2.784214580708520793e-11
-3.154019614133088247e-11
-3.515429157895808119e-11
-3.840387387515948979e-11
-4.091396335918176235e-11
-4.222146464302922091e-11
-4.196662786463331137e-11
-3.957357721355578649e-11
-3.524632936428117326e-11
-2.968125079493986420e-11
-2.428525039334172191e-11
-2.034920540896178104e-11
-1.761951489969536238e-11
-1.414245135653827523e-11
-9.839039022303069995e-12
-7.617294804916675221e-12
-5.642720496770554711e-12
-3.946687697518678592e-12
-2.754901130820446028e-12
-1.955725799199579354e-12
-1.346499863272245691e-12
-9.246023701169980265e-13
-6.393495477078468179e-13
-4.459078670978865583e-13
-3.154610439750497201e-13
-2.274377891365971108e-13
-1.672329431082612176e-13
-1.254029669916696067e-13
-9.552980482901010879e-14
-7.348430156684036582e-14
-5.665756096489611157e-14
