# bin_2_15
-1.057026292346752611e-38
-1.203590428823530839e-38
-1.350312996521657101e-38
-1.486972327674917494e-38
-1.599982785229571326e-38
-1.672087205778933307e-38
-1.686860310902219299e-38
-1.623730054541841105e-38
-1.474974411537971387e-38
-1.266746004171448844e-38
-1.041125097734168791e-38
-8.594671904984633989e-39
-7.409490336672821163e-39
-6.220811989222569750e-39
-4.493974537417086720e-39
-3.250812192575026314e-39
-2.594919662853524830e-39
-1.719268325241106224e-39
-1.280714797931932367e-39
-8.817582918473859437e-40
-6.003157642879229966e-40
-4.105725186523943036e-40
-2.796368742665238743e-40
-1.912952214315446550e-40
-1.318888471112824033e-40
-9.240613526828365241e-41
-6.593975807753096995e-41
-4.805851930558493124e-41
-3.576974196523894588e-41
-2.709424325209240174e-41
-2.075903363862345829e-41
