# bin_12_12
-2.119944366532220139e-11
-2.415032023156342791e-11
-2.711099539943027296e-11
-2.987709856942618640e-11
-3.217754281099257990e-11
-3.366708864378078088e-11
-3.400945564353647035e-11
-3.280122411487929719e-11
-2.985712503311609380e-11
-2.569583108355764609e-11
-2.113797237087418225e-11
-1.743053931429350586e-11
-1.500864334452535890e-11
-1.264258166816188629e-11
-9.184750245343050456e-12
-6.602760867159030704e-12
-5.292678075324422135e-12
-3.504312280028171783e-12
-2.618687948673916438e-12
-1.796089055047101810e-12
-1.222622426543710350e-12
-8.364624552383812909e-13
-5.693706129760593824e-13
-3.888240005044478369e-13
-2.673982418454550578e-13
-1.867920114713892006e-13
-1.328525227916362034e-13
-9.649732547685993062e-14
-7.160193994291383138e-14
-5.410546393464251297e-14
-4.139301750997747202e-14
