# bin_5_7
-1.099516728246834226e-12
-1.221922110004707815e-12
-1.330543356534860951e-12
-1.412214090966204668e-12
-1.451096795072765917e-12
-1.434589187734373816e-12
-1.344066695865435108e-12
-1.189972560845478925e-12
-9.971435068463581796e-13
-8.158329430190431020e-13
-6.866137728595506093e-13
-5.931103821256937680e-13
-4.687463717690408320e-13
-3.263052826875534730e-13
-2.565159931526928606e-13
-1.864253538945327656e-13
-1.339118750795706237e-13
-9.364887484020026129e-14
-6.731909133581285259e-14
-4.756368612567691474e-14
-3.375769325380792300e-14
-2.426991240015029095e-14
-1.770753549483735011e-14
-1.316150119477482396e-14
-9.964246569756369751e-15
-7.655695204195655542e-15
-5.940493030131058062e-15
-4.623616737475613327e-15
-3.583909744649057417e-15
-2.748398716602193937e-15
-2.073991924148802568e-15
