# bin_9_15
-1.023502543460815353e-16
-1.168992915782517435e-16
-1.316685990763271131e-16
-1.456889832539991870e-16
-1.576895362043420760e-16
-1.660253646471691700e-16
-1.688960561227066811e-16
-1.646070114143892669e-16
-1.515041630179952203e-16
-1.318550577639710908e-16
-1.090487358035747985e-16
-8.946843189192162224e-17
-7.648810124059784607e-17
-6.544268743743936735e-17
-4.901527015162347316e-17
-3.426684808345539917e-17
-2.783009631307079931e-17
-1.857585867341478679e-17
-1.396612167651506883e-17
-9.401704882706589746e-18
-6.425573792310764988e-18
-4.398404389491580146e-18
-2.986159731904923621e-18
-2.021745984708993384e-18
-1.372487377446117668e-18
-9.436888809698085860e-19
-6.591887536760730683e-19
-4.697075417470829110e-19
-3.423008643692586886e-19
-2.548560381296542482e-19
-1.930608080385330158e-19
