# bin_7_2
-1.776187622377959377e-09
-1.839144631906808546e-09
-1.836025757344505440e-09
-1.748423969271462899e-09
-1.576417534500912203e-09
-1.348276329452092323e-09
-1.113734924447467089e-09
-9.258073290046011752e-10
-7.882205922684177555e-10
-6.454499037167232371e-10
-4.780646258116134118e-10
-3.545715977876333217e-10
-2.720871379175045826e-10
-1.956497901104314674e-10
-1.439862247639152574e-10
-1.045689277843840082e-10
-7.677616149583782380e-11
-5.699639567057347673e-11
-4.299811097294979993e-11
-3.301676011798742372e-11
-2.575799314439762202e-11
-2.033583525594135965e-11
-1.614028465354822660e-11
-1.278681255851459048e-11
-1.004234173089266867e-11
-7.769479135491882986e-12
-5.890526238407337759e-12
-4.359533831916131308e-12
-3.142277447026331700e-12
-2.205025974788869060e-12
-1.508401376143559325e-12
