# bin_1_5
-1.093039693183769535e-17
-1.175127533169412119e-17
-1.227954611174886247e-17
-1.239383724038629407e-17
-1.195338535316157134e-17
-1.089399656788388305e-17
-9.390836621241814429e-18
-7.740169297768300984e-18
-6.379569653435558228e-18
-5.466888627526007474e-18
-4.600275241783006256e-18
-3.393290581883972560e-18
-2.450474060109243617e-18
-1.952998951365765344e-18
-1.349005318968288212e-18
-1.012567483586276479e-18
-7.197986276439003648e-19
-5.193104861233354783e-19
-3.787515756027155089e-19
-2.796209844577531900e-19
-2.099404568878845762e-19
-1.603434123212883841e-19
-1.244794635507135653e-19
-9.768135710888388287e-20
-7.697555365012566269e-20
-6.049772524539811184e-20
-4.709292648051859192e-20
-3.609131549461673322e-20
-2.709628945756990042e-20
-1.985253387428337382e-20
-1.416396901510340812e-20
