# bin_3_8
-1.758627269625135433e-18
-1.954663507317154237e-18
-2.128757327642365661e-18
-2.259861997220135707e-18
-2.322579696175465900e-18
-2.296875703880939277e-18
-2.152660425030547383e-18
-1.906454315401644079e-18
-1.597785760151571255e-18
-1.307108358226433543e-18
-1.099812111643607819e-18
-9.503741957643716107e-19
-7.517554253906370984e-19
-5.229727031297583890e-19
-4.111132843072322575e-19
-2.990204539247187337e-19
-2.146774808748524182e-19
-1.500426363164516657e-19
-1.079280111712223447e-19
-7.624230105524509640e-20
-5.409703551716538301e-20
-3.888512705054272240e-20
-2.836424240143631335e-20
-2.107727942504209206e-20
-1.595389015426772619e-20
-1.225592358042024615e-20
-9.509525768383123981e-21
-7.401676271664071300e-21
-5.737857768877572700e-21
-4.400912922755006068e-21
-3.321697606226340293e-21
