# bin_11_15
-3.988401836299057671e-14
-4.561042370971504001e-14
-5.145364352605648097e-14
-5.704024074859606582e-14
-6.188248621697142510e-14
-6.534322350747589534e-14
-6.669301943347436911e-14
-6.531415116996729412e-14
-6.044775809729707882e-14
-5.289289354430009544e-14
-4.388976675999108966e-14
-3.595394269334830684e-14
-3.060926459164560476e-14
-2.632546905179481314e-14
-2.002765022947782092e-14
-1.389258028266191387e-14
-1.124673708298115421e-14
-7.632224686704929519e-15
-5.687895023397727357e-15
-3.805510430007337694e-15
-2.621996225879633056e-15
-1.791486573985371514e-15
-1.213422582740249395e-15
-8.184599143174429402e-16
-5.524714058011108556e-16
-3.769999575640133214e-16
-2.609977484166508126e-16
-1.841226723330702868e-16
-1.328402802429687929e-16
-9.802378673863646542e-17
-7.375422332850152992e-17
