# bin_15_4
-1.126917177171311059e-09
-1.226519727622294203e-09
-1.301573555082310571e-09
-1.337996208337138256e-09
-1.323184596001847731e-09
-1.242043127550523270e-09
-1.102064406954908300e-09
-9.270404767756085139e-10
-7.602396977092516725e-10
-6.381603072570089447e-10
-5.482732186056427166e-10
-4.359716456982317703e-10
-3.093691205075703245e-10
-2.384928569149076815e-10
-1.770663127682380285e-10
-1.263967365615527559e-10
-9.108977518155845262e-11
-6.559855560252383611e-11
-4.708684631593438820e-11
-3.415252050613940948e-11
-2.513156549367505750e-11
-1.880588178712029225e-11
-1.432312579169435720e-11
-1.107898229153380747e-11
-8.655105897671531327e-12
-6.786209141159689698e-12
-5.303303760984622063e-12
-4.103128403475999929e-12
-3.124926708787126124e-12
-2.331830750715342603e-12
-1.699035631590085232e-12
