# bin_3_2
-7.057315915578365394e-10
-7.258219653094370462e-10
-7.184846738948127990e-10
-6.767885607712399312e-10
-6.033073154835249015e-10
-5.108288351192729962e-10
-4.206193694332031543e-10
-3.515867790656521421e-10
-2.996418357249600282e-10
-2.408233192474367710e-10
-1.754859888250897233e-10
-1.323730995997901773e-10
-1.004219337780325893e-10
-7.214320039408509804e-11
-5.314826604146034671e-11
-3.873232486554219488e-11
-2.852793577649231995e-11
-2.130353936946753047e-11
-1.618037826846973418e-11
-1.250732739645160267e-11
-9.814595685745719697e-12
-7.780688302358078131e-12
-6.187795125502786429e-12
-4.901356993310185191e-12
-3.840728422325461166e-12
-2.959248986717339474e-12
-2.230887137821219882e-12
-1.639847165539114585e-12
-1.173241917933726271e-12
-8.172464182828601786e-13
-5.552561879492628935e-13
