# bin_11_2
-2.155381029973544999e-09
-2.233721796145510989e-09
-2.232345276925466148e-09
-2.128782205969854756e-09
-1.922146695500030563e-09
-1.646094884541194963e-09
-1.360379938881307448e-09
-1.130099916379416305e-09
-9.619534198535612245e-10
-7.894575013689037917e-10
-5.859934630252123612e-10
-4.337873977397139904e-10
-3.332427862964726178e-10
-2.397251544527741521e-10
-1.763660474304032757e-10
-1.280467732936689227e-10
-9.397510301583764451e-11
-6.971303849436985042e-11
-5.254709087607044654e-11
-4.031487473160490447e-11
-3.142793968009864647e-11
-2.479863029690669539e-11
-1.967685745613182563e-11
-1.558854854950440110e-11
-1.224596965909987326e-11
-9.479148932431015645e-12
-7.191797701412330517e-12
-5.327123182478601552e-12
-3.843267927165155002e-12
-2.699434486679586380e-12
-1.848204948721180157e-12
