# bin_7_12
-3.405042547003978109e-16
-3.862351894586031525e-16
-4.311911328076679357e-16
-4.719846311201716231e-16
-5.040752773125097138e-16
-5.217907085105148602e-16
-5.206247458898330312e-16
-4.933853520983346723e-16
-4.414755412372964711e-16
-3.733730181919693502e-16
-3.056053683614793439e-16
-2.550606748866521499e-16
-2.209276878839194430e-16
-1.795711925315118470e-16
-1.255361652435234716e-16
-9.572848800243548782e-17
-7.241230197580377178e-17
-4.975226895238478523e-17
-3.526607708275692422e-17
-2.496588680349130877e-17
-1.712894192505964624e-17
-1.172423185592652200e-17
-8.072191152506436516e-18
-5.603551077638604858e-18
-3.940240523176054990e-18
-2.822367635414669854e-18
-2.061769416247418023e-18
-1.537117200585394621e-18
-1.165906966311822871e-18
-8.947230410882421079e-19
-6.896392567464879859e-19
