# bin_9_8
-8.927559743710131138e-11
-1.003615032629275242e-10
-1.108277339733764592e-10
-1.196986752251464153e-10
-1.257192265048684321e-10
-1.275716386074144216e-10
-1.239037562002183468e-10
-1.136732052438013417e-10
-9.861504903321191811e-11
-8.146733685142566829e-11
-6.694516625160603441e-11
-5.729336914925096026e-11
-4.875435506955638968e-11
-3.630188269092902547e-11
-2.565982525470108978e-11
-2.068994368200706544e-11
-1.396401168999526681e-11
-1.047221133511046204e-11
-7.185765066714133793e-12
-5.012017956698330797e-12
-3.510840511507489394e-12
-2.462310894600233978e-12
-1.741640579525194501e-12
-1.247691396696356863e-12
-9.113648812169057646e-13
-6.785594651923189902e-13
-5.140710054362930054e-13
-3.947621728856811881e-13
-3.052618386045860155e-13
-2.359933878167844502e-13
-1.811084957579938229e-13
