# bin_6_7
-1.121235393058350329e-11
-1.249090291146701871e-11
-1.364189230637789640e-11
-1.453315480179937721e-11
-1.500201140208158488e-11
-1.491819818871120017e-11
-1.408234447083153327e-11
-1.255666710351397633e-11
-1.058909714754480814e-11
-8.666577337511198939e-12
-7.250706821776071736e-12
-6.270612819379624080e-12
-5.051507092290379112e-12
-3.536195077966257360e-12
-2.721810030842566604e-12
-2.038147415409755908e-12
-1.427836613763714443e-12
-1.016285861100061173e-12
-7.283150119534667839e-13
-5.117006789305654889e-13
-3.613540021641845918e-13
-2.582311367188804851e-13
-1.872298980374316964e-13
-1.381884193329713501e-13
-1.039554228541334750e-13
-7.945935744482222342e-14
-6.144640234540370380e-14
-4.776197790269797085e-14
-3.704824261871737667e-14
-2.848292047169966244e-14
-2.157933512982056196e-14
