# bin_3_9
-1.027938773001749742e-20
-1.148342770220201337e-20
-1.258433651781256873e-20
-1.346333457063237597e-20
-1.397155435103520011e-20
-1.398356962770035116e-20
-1.331405807462511838e-20
-1.196844590879514453e-20
-1.017128854712197976e-20
-8.334100671768581052e-21
-6.927271952044576287e-21
-5.989192662936066595e-21
-4.923124745889201832e-21
-3.484584302387384243e-21
-2.611895354302824007e-21
-2.020214241012282679e-21
-1.378670056772094609e-21
-1.004924405390194090e-21
-7.139529797151944567e-22
-4.986683711470099644e-22
-3.506815443412826082e-22
-2.489219703471819139e-22
-1.791746628249220100e-22
-1.311454264156596716e-22
-9.789435598725486179e-23
-7.434030485379666684e-23
-5.722424513139201464e-23
-4.438585715801207550e-23
-3.444143977722091944e-23
-2.654729895669074809e-23
-2.020132550372678533e-23
