# bin_8_3
4.396556628636676591e-16
4.885727807925526377e-16
5.319658145730809109e-16
5.645673201867689436e-16
5.800369907120100797e-16
5.733543106545073925e-16
5.370428102218261411e-16
4.753707009432539451e-16
3.982167646632499532e-16
3.257715194973815033e-16
2.742326765371413092e-16
2.369336391293963631e-16
1.871366320503024057e-16
1.301564334395820801e-16
1.024690220079230701e-16
7.436300865399567962e-17
5.349509428985349928e-17
3.735178716076910105e-17
2.687058566227685674e-17
1.899371192894546595e-17
1.348581176703711174e-17
9.700562702519280159e-18
7.081367441530314953e-18
5.266394631563176053e-18
3.989151130988894580e-18
3.066287493866976573e-18
2.380060607018588888e-18
1.852756482277706211e-18
1.436146856965698933e-18
1.101201100915519963e-18
8.307855660197439208e-19
