# bin_13_6
1.545386516985770345e-17
1.755035781910197087e-17
1.962290854603404618e-17
2.151929745003470855e-17
2.303564426643458855e-17
2.391574599027552871e-17
2.394575021174053204e-17
2.280169414033347475e-17
2.049485201550580275e-17
1.741139723984617516e-17
1.426310173919921801e-17
1.186055780644365423e-17
1.026687938521047273e-17
8.437310413076115626e-18
5.945616332147520699e-18
4.461222559030538950e-18
3.438958435774513649e-18
2.327781479466496280e-18
1.679013730629324327e-18
1.180095789278291524e-18
8.073687155187252401e-19
5.519772458485604212e-19
3.785769962687187449e-19
2.616659235160024983e-19
1.829522627562986356e-19
1.302345446717405487e-19
9.452864565980937046e-20
7.005450870773015290e-20
5.288601258678258974e-20
4.046491993370000159e-20
3.115932988354894480e-20
