# bin_7_10
7.060626713259879207e-08
7.901349442068717132e-08
8.677283996797947533e-08
9.308055940515946958e-08
9.692376672416097124e-08
9.738730011637585524e-08
9.325659559270791587e-08
8.432570058501776464e-08
7.209970657959232224e-08
5.921251852826072085e-08
4.904150776372788723e-08
4.227644452230343489e-08
3.512537055682736683e-08
2.524765691474706230e-08
1.856486597130214468e-08
1.457419974608809611e-08
9.882846994470300008e-09
7.292041357778330019e-09
5.120183739320810795e-09
3.571404910701680404e-09
2.510410078708561543e-09
1.776011279300717709e-09
1.272059272072908933e-09
9.254960575193428158e-10
6.867590513331760111e-10
5.187674519798659699e-10
3.976561362627935669e-10
3.076523243834518152e-10
2.385341668687380535e-10
1.840277135260395924e-10
1.403681557143344397e-10
