# bin_2_1
6.634920153219831681e-09
6.662851033039961378e-09
6.392884283275960714e-09
5.807665117128613978e-09
4.998563006203116210e-09
4.133263508917113020e-09
3.420333306849473750e-09
2.913389337319061688e-09
2.419967394448944628e-09
1.807243854680504761e-09
1.325990732418070443e-09
1.030898622649490606e-09
7.410498334310304175e-10
5.492509685516755272e-10
4.004755565868264736e-10
2.961526379708944003e-10
2.216693050764621733e-10
1.687759583282434301e-10
1.308683136696632563e-10
1.030641085774969044e-10
8.205406037434541504e-11
6.557429600057120487e-11
5.221513893680565032e-11
4.114035203025285381e-11
3.187335247947571870e-11
2.415669866812044415e-11
1.784509855180528406e-11
1.282609474744839686e-11
8.971346457020305393e-12
6.118609904003911472e-12
4.080991996111780485e-12
