# bin_8_1
7.743879446139801031e-24
8.569280962912296657e-24
9.282163718200987846e-24
9.787595031751578542e-24
9.979239664964955476e-24
9.761324979944063195e-24
9.029098047747201856e-24
7.896897968322172530e-24
6.556080488803761751e-24
5.372272226410023905e-24
4.566855704958608329e-24
3.917790872686851759e-24
2.990612268230746368e-24
2.091600036628719841e-24
1.682461080931657805e-24
1.168324083782748754e-24
8.702555765990985233e-25
6.022599706900464517e-25
4.302061175799399795e-25
3.067475654828769642e-25
2.199215759685437953e-25
1.596970504124564626e-25
1.177653090574486777e-25
8.852740135485018765e-26
6.768379960921039073e-26
5.239461632454702997e-26
4.083431149158908933e-26
3.181082440383300596e-26
2.460009754597341859e-26
1.876887606010040849e-26
1.405942208952857403e-26
