# bin_15_1
1.751823486498783464e-41
1.994744871975670174e-41
2.237942037614400599e-41
2.464474358779054068e-41
2.651828946624471040e-41
2.771406446472122383e-41
2.795972198662084634e-41
2.691459287679173941e-41
2.445017940033886323e-41
2.099961891264643066e-41
1.725993429258926794e-41
1.424809515806924287e-41
1.228272759913540600e-41
1.031289773050669105e-41
7.451566863361341145e-42
5.389527426830998370e-42
4.302226805745888975e-42
2.850855151194544587e-42
2.123652663520594727e-42
1.462052707366232984e-42
9.955150251272049026e-43
6.809582209715918448e-43
4.638822079876097744e-43
3.173958740720568186e-43
2.188781618819576970e-43
1.533930305217366954e-43
1.094889396011917566e-43
7.981904028620018456e-44
5.942219902381539005e-44
4.501721226791011974e-44
3.449395276374117736e-44
