# bin_13_8
2.026390952096402783e-13
2.305174869516958537e-13
2.583001532308426238e-13
2.840150741716068084e-13
3.050322204083918951e-13
3.180251383171185633e-13
3.199744764482558339e-13
3.067935042733663536e-13
2.775933383199544342e-13
2.374414760530081791e-13
1.948661448068796436e-13
1.612587393937801713e-13
1.392913983938606991e-13
1.161065888674777030e-13
8.303531541585422013e-14
6.085464427980384891e-14
4.804772378875596853e-14
3.199889063803496038e-14
2.361022032892570362e-14
1.638061075671122864e-14
1.116738641205895385e-14
7.634561398306917238e-15
5.210613930426985718e-15
3.578094545161966257e-15
2.480036090610401910e-15
1.748243878856480915e-15
1.255849633788734995e-15
9.214219340333558186e-16
6.898252858746566979e-16
5.247906442108853539e-16
4.030539296691134709e-16
