# bin_9_1
1.089009464641612376e-26
1.212780062339543010e-26
1.323983058962111583e-26
1.409748335362440479e-26
1.454246927685316416e-26
1.444966782424479445e-26
1.362451177093237253e-26
1.213549737205494725e-26
1.022225805896124105e-26
8.364183945003744643e-27
7.003921494934110102e-27
6.058720266964211732e-27
4.867851455752749477e-27
3.399985251004877256e-27
2.628214244478585639e-27
1.958938982054825128e-27
1.377739950471868321e-27
9.765272695975091708e-28
7.012870293772127818e-28
4.932107383724231980e-28
3.485309226456706152e-28
2.493729417179089078e-28
1.810444111724106855e-28
1.338199286877084227e-28
1.008066275415723518e-28
7.714174915331762326e-29
5.970396985999972914e-29
4.642727570705537632e-29
3.601338068681268118e-29
2.767721345308095386e-29
2.095474233332773510e-29
