# bin_5_6
5.050012494600932490e-08
5.548627178863612852e-08
5.957678915978377929e-08
6.213292094620421874e-08
6.255232176539402216e-08
6.009572566321861121e-08
5.454353332780605385e-08
4.682109178995978660e-08
3.852667866156433151e-08
3.183818880145205030e-08
2.735501786833144966e-08
2.285703312477456534e-08
1.665938237215753398e-08
1.213918361668145131e-08
9.595306481447398632e-09
6.580031421823449134e-09
4.899572968823303384e-09
3.461452639624371957e-09
2.461529174097495105e-09
1.767426021842119043e-09
1.281635353083203545e-09
9.435712464379227420e-10
7.065798185272652815e-10
5.388547508257583993e-10
4.167542161429972839e-10
3.250928662135299531e-10
2.541150397498118082e-10
1.976224373278432547e-10
1.519329976855599283e-10
1.148461229305029352e-10
8.499479284341024101e-11
