# bin_9_6
2.323344313854616153e-11
2.610075721800764433e-11
2.879909984124112571e-11
3.107272431221266396e-11
3.259396985994194499e-11
3.302570577317975819e-11
3.200636334363820931e-11
2.928916573054665843e-11
2.534517100771829235e-11
2.090413277960984089e-11
1.718950019421238197e-11
1.474069520750598838e-11
1.251445223477204148e-11
9.246983992754740495e-12
6.561218608139982481e-12
5.300007911687439399e-12
3.549306119448382705e-12
2.674670296566883524e-12
1.840327002053275518e-12
1.280022653230564129e-12
8.979356913618104694e-13
6.308877347953587636e-13
4.472805348091129016e-13
3.213600673688087050e-13
2.354893217768771151e-13
1.758756821179334797e-13
1.336019334104488782e-13
1.027979256120581326e-13
7.957796963139097131e-14
6.152964613176376968e-14
4.718586487157459816e-14
