# bin_8_13
8.290684287875791623e-08
9.335327576940079659e-08
1.032909767112273083e-07
1.118289766712909027e-07
1.178110908617505591e-07
1.199674712384942423e-07
1.171080231830437235e-07
1.080574658192271109e-07
9.427397710761289916e-08
7.815509889847182763e-08
6.411723098733709089e-08
5.464271382031834817e-08
4.675731929451774860e-08
3.538287046684589299e-08
2.480473253011089485e-08
1.994681201934555704e-08
1.366324873331652511e-08
1.015525816017186912e-08
6.945197672260932899e-09
4.867903720914968194e-09
3.400602482455205966e-09
2.375940439102024579e-09
1.673045808424612268e-09
1.191942639217054623e-09
8.652463367019850067e-10
6.403566305717807716e-10
4.825568708008097342e-10
3.691126451371050063e-10
2.848149167349771589e-10
2.201264900507352229e-10
1.691783058759015262e-10
