# bin_5_11
1.664006668262750169e-07
1.833841756647167773e-07
1.976426531822445420e-07
2.070983483495177805e-07
2.096469186051358139e-07
2.029985496166937808e-07
1.858013976130024768e-07
1.608343706966643116e-07
1.328994099650781644e-07
1.094300779860927509e-07
9.356905732248508750e-08
7.907939004650571017e-08
5.887674453213521044e-08
4.216514016416430817e-08
3.353261799401523964e-08
2.317175954423742898e-08
1.721863976537215941e-08
1.207864923389623279e-08
8.604228726460712639e-09
6.155426036080477305e-09
4.439080416766452290e-09
3.247384962814165408e-09
2.414847673866458441e-09
1.829608951923760022e-09
1.407651246995669240e-09
1.094207346000379360e-09
8.540851317006972083e-10
6.646342627498809475e-10
5.122441765323491569e-10
3.887722183047943613e-10
2.892584355130033016e-10
