# bin_8_4
1.811194805553323111e-13
2.018022223317351197e-13
2.204366141369720359e-13
2.348890522785444035e-13
2.425249075775687066e-13
2.412536938250025408e-13
2.278188077660629781e-13
2.032005238027147876e-13
1.713874012284491421e-13
1.402500990580222183e-13
1.173028445507984187e-13
1.014861661787932298e-13
8.184128006267121684e-14
5.724310924517789952e-14
4.405372269268545547e-14
3.303128926188670650e-14
2.311354878591470914e-14
1.644673644164520664e-14
1.180007225382538420e-14
8.289060739609564835e-15
5.851390181153322312e-15
4.181139375562506784e-15
3.031328256969680183e-15
2.237157014165262884e-15
1.682867130603929026e-15
1.286293476187054232e-15
9.947264596079481014e-16
7.732504125720049721e-16
5.998590171091623437e-16
4.612297005750416925e-16
3.494820159236684017e-16
