# bin_7_4
8.702761508918112898e-12
9.645547401083592411e-12
1.046821421144616210e-11
1.106494315068734883e-11
1.131341291735532686e-11
1.111040957256228164e-11
1.032485892104823416e-11
9.070653532073047685e-12
7.554241044931057936e-12
6.184811345850462340e-12
5.238879528829493752e-12
4.509007918731786072e-12
3.486144535635267642e-12
2.429005548395941921e-12
1.942100886727730853e-12
1.368875929269769997e-12
1.008249835227127576e-12
6.982790934728917798e-13
5.004448015997979810e-13
3.557443707530771296e-13
2.541411097584631401e-13
1.838948677416282566e-13
1.350857679182054866e-13
1.011423999977410894e-13
7.706451927603721316e-14
5.950387278824653633e-14
4.630942005729127314e-14
3.606949089100037004e-14
2.791990361145763123e-14
2.134252463810601468e-14
1.603045282705154508e-14
