# bin_3_14
3.636630371567947658e-07
3.886007763477267529e-07
4.030833947419033572e-07
4.031927113451459544e-07
3.844394000210743525e-07
3.466588367582170112e-07
2.960740873772259967e-07
2.438183609391529705e-07
2.025108830024847762e-07
1.734027605558649586e-07
1.424958164522222103e-07
1.041049787964804372e-07
7.722938558779982717e-08
5.963165209272397787e-08
4.215153445197992017e-08
3.105941017275158746e-08
2.231970017223311954e-08
1.618429644940172729e-08
1.185429718467149812e-08
8.806364325757598500e-09
6.655753708318419653e-09
5.115972369536953470e-09
3.990345784660364726e-09
3.139541297959949371e-09
2.475004706570261363e-09
1.941580639712061517e-09
1.505609644086232504e-09
1.147589714419116588e-09
8.558519021574006533e-10
6.225017617838051202e-10
4.409395900853129919e-10
