# bin_12_5
2.979856948457905789e-18
3.373472755142632018e-18
3.756989847636384512e-18
4.100202446196819983e-18
4.362768204492622834e-18
4.495073967740800973e-18
4.459312144813654771e-18
4.194144656478357224e-18
3.726417567291649820e-18
3.130625917017274432e-18
2.560727025429097382e-18
2.150216011445269925e-18
1.861820263580370020e-18
1.484535519486726810e-18
1.029337797045241227e-18
8.039400979534757032e-19
5.887747377348897341e-19
4.158923628984311386e-19
2.875581889830600544e-19
2.046802357068235071e-19
1.412006542720221938e-19
9.712212962137336481e-20
6.733247642675576848e-20
4.709050347073255884e-20
3.343246147250220856e-20
2.419439579140462710e-20
1.785646000305138706e-20
1.343446367471841444e-20
1.025957123604517349e-20
7.903098293871840025e-21
6.095043700670635855e-21
