# bin_6_15
1.619139446160053050e-07
1.801160280665751935e-07
1.963662619946201467e-07
2.087406185222576390e-07
2.149250262780397450e-07
2.129906518674232893e-07
2.002526561426946207e-07
1.779028661083565494e-07
1.496246195188793727e-07
1.225352537655817789e-07
1.028346232072692960e-07
8.872711190472391461e-08
7.073367986565291871e-08
4.963156933822435428e-08
3.845259458045846693e-08
2.839691866037941350e-08
2.013215613526549844e-08
1.427744497607090794e-08
1.020344615741623789e-08
7.189934787411807536e-09
5.094972224489290543e-09
3.652423272201242563e-09
2.656677836305684273e-09
1.967591598084023384e-09
1.484666405916710521e-09
1.137465638554290347e-09
8.807712395087919162e-10
6.847436649919026722e-10
5.306802001909321382e-10
4.072698862926123806e-10
3.078005456647321217e-10
