# bin_10_1
2.215522528717432727e-29
2.481158439084921837e-29
2.727258360457694271e-29
2.928733203272529556e-29
3.053848489024623684e-29
3.073447539817221677e-29
2.949310364767059372e-29
2.671634214313548477e-29
2.288157567431210080e-29
1.879134936715038334e-29
1.553685849062585643e-29
1.339768150002113744e-29
1.118800339850842404e-29
8.053039505209578709e-30
5.882589484061683687e-30
4.662001944529817927e-30
3.132225500974548753e-30
2.330374590181270394e-30
1.633008830625970478e-30
1.136401153308756149e-30
7.981583766974330881e-31
5.636940917349448662e-31
4.030895287951906103e-31
2.927281734980840950e-31
2.168526991703420945e-31
1.635785347666219011e-31
1.252734701246190032e-31
9.688933190693573567e-32
7.514366708189203984e-32
5.802024587332823858e-32
4.430883598089866585e-32
