# bin_5_2
2.162397558401997361e-12
2.339096526120271557e-12
2.463151789824207362e-12
2.508345433614710551e-12
2.449952439405500883e-12
2.263778650070396282e-12
1.978015490261456351e-12
1.642458372490989265e-12
1.346917249428420729e-12
1.144306825110525934e-12
9.785796185968375318e-13
7.473795136649169960e-13
5.270096745310400969e-13
4.212435584309206171e-13
2.965648904816057331e-13
2.204432731017479388e-13
1.554178550610952923e-13
1.125294360440232617e-13
8.158583969433664500e-14
5.975030412893407052e-14
4.446973196677728996e-14
3.366385831100372119e-14
2.593303359001003215e-14
2.023987230579782320e-14
1.590523452843302235e-14
1.250117361803556645e-14
9.758218236030006764e-15
7.517038666859679445e-15
5.683970683304118479e-15
4.200955994974458520e-15
3.026181720024818240e-15
