# bin_13_15
1.761434900360391361e-08
2.012541161993078656e-08
2.267819606910217794e-08
2.510651554541588550e-08
2.719261714305066734e-08
2.865389293504352680e-08
2.917748334483424536e-08
2.847633580839656567e-08
2.625354136432834969e-08
2.288591099353618438e-08
1.894870649429403920e-08
1.554104992511630799e-08
1.326813711313167995e-08
1.136624976101981431e-08
8.555513084864236863e-09
5.971603031578752771e-09
4.838734740701679447e-09
3.252272775463480914e-09
2.434345498868659480e-09
1.636702240966627748e-09
1.122538814520928554e-09
7.677438989930599919e-10
5.207659375808859589e-10
3.522559049484258462e-10
2.387998324987238369e-10
1.638715877335421552e-10
1.142029597179395988e-10
8.116274688607109264e-11
5.899042412969956176e-11
4.381425286297804321e-11
3.312707158050848633e-11
