# bin_14_1
3.820605320309915826e-39
4.340527449477510807e-39
4.855437040580351812e-39
5.327801107774452891e-39
5.707395185808405092e-39
5.931019128622533295e-39
5.944904926502733613e-39
5.669615808543904043e-39
5.103622228707420170e-39
4.342447588580848996e-39
3.558702873552118025e-39
2.955988778398665520e-39
2.557603484042535379e-39
2.108658521520841477e-39
1.490910932105434927e-39
1.112677858499057615e-39
8.624778114866798062e-40
5.815723947624913271e-40
4.217186252076505496e-40
2.955158405905220048e-40
2.020122203867716438e-40
1.381081017312048032e-40
9.461373329617799246e-41
6.529823549099712089e-41
4.556552222737441057e-41
3.236476050700882797e-41
2.343732645716169211e-41
1.733091127854324731e-41
1.305974177381436260e-41
9.980076508414977982e-42
7.680737282612476033e-42
