# bin_9_1
1.273389126926103856e-26
1.418516871569289221e-26
1.549120734369784726e-26
1.650180169156369777e-26
1.703179787649213667e-26
1.693444596304676720e-26
1.598162181523864993e-26
1.424651322660737314e-26
1.200990419819011408e-26
9.827700445111068827e-27
8.223704634251160059e-27
7.114246067146167498e-27
5.728267820859418822e-27
4.004771087284777101e-27
3.087410224227389546e-27
2.309232120700425573e-27
1.619313091465197010e-27
1.150463186498103031e-27
8.256211233172798446e-28
5.802327287920776093e-28
4.097706616038616291e-28
2.929478355609678357e-28
2.124930956520022675e-28
1.569107283829442387e-28
1.180941518970358584e-28
9.030249510791120992e-29
6.985272592343770552e-29
5.430568072332468560e-29
4.212572358175066447e-29
3.238355710809837756e-29
2.452959055086179756e-29
