# bin_6_10
1.053308370747623668e-07
1.171142477046579668e-07
1.276031756842083405e-07
1.355419382838722632e-07
1.394279522340968059e-07
1.380093917851233529e-07
1.295570699682766466e-07
1.149280256140677383e-07
9.653329732325722058e-08
7.904853470041591059e-08
6.641688411217374565e-08
5.729255374427810527e-08
4.550170520707431800e-08
3.188661963728224526e-08
2.480546390175362298e-08
1.821752056756169947e-08
1.297099186647235299e-08
9.170632328494893218e-09
6.559576427911346439e-09
4.626897388603776587e-09
3.281610564935475091e-09
2.355258583498075129e-09
1.715382699367255177e-09
1.272294489865843404e-09
9.612899079200242701e-10
7.372760108923958128e-10
5.713049367707569559e-10
4.442834711951056790e-10
3.442797944185793910e-10
2.640862835891205873e-10
1.994278385038861778e-10
