# bin_2_1
6.617075182348548668e-09
6.650477491343471347e-09
6.388107636345395710e-09
5.810093078708145521e-09
5.006086830123389881e-09
4.141489684606937502e-09
3.425487388987600912e-09
2.916689111165220948e-09
2.426543336644031648e-09
1.815994037325764430e-09
1.330329541289892744e-09
1.034838334921546926e-09
7.444086342946593032e-10
5.514625090811141020e-10
4.019956772303246289e-10
2.971826701199495171e-10
2.223039213210665931e-10
1.691446410239717013e-10
1.310682122606340593e-10
1.031640591013723860e-10
8.210276427952071640e-11
6.560306283938948346e-11
5.224136418438116705e-11
4.117213504753204350e-11
3.191241099128841682e-11
2.420077227188718868e-11
1.789003923037114053e-11
1.286775794823407574e-11
9.006779435260811375e-12
6.146637364305629297e-12
4.101878809502311200e-12
