# bin_1_7
6.624138927601273638e-07
6.487638278151524332e-07
6.052572114891633823e-07
5.359075044292782408e-07
4.535138191670730920e-07
3.757129621054448207e-07
3.143479219235115337e-07
2.636236504590313273e-07
2.095305920551394371e-07
1.558031672544834315e-07
1.169230008601615948e-07
8.816559579325614570e-08
6.433174430655404266e-08
4.744634779000294841e-08
3.498531097817302816e-08
2.611858029854187649e-08
1.979490371946579682e-08
1.526977848341799097e-08
1.197503125554094434e-08
9.508085329423757936e-09
7.597297231313483489e-09
6.064871609442214227e-09
4.802923764352389872e-09
3.749302061707916562e-09
2.869656271934643439e-09
2.144889695579909454e-09
1.561922927564769878e-09
1.107450331897658161e-09
7.653428880626526534e-10
5.167118053372784939e-10
3.418141570760316719e-10
