# bin_4_8
1.756873740588276130e-07
1.911020154194684645e-07
2.026457290684457379e-07
2.081279366776204835e-07
2.055844192911864562e-07
1.926921229574000516e-07
1.707278786735999861e-07
1.434360659474879436e-07
1.176177041155696250e-07
9.883315989787147105e-08
8.488600188907160292e-08
6.726783039239871584e-08
4.768455057455538720e-08
3.688148349496353360e-08
2.726850936094074652e-08
1.952313684689864872e-08
1.404453469452031881e-08
1.012480073117820150e-08
7.274357328926902304e-09
5.281478352350686555e-09
3.891395505547016357e-09
2.915847669329213783e-09
2.223763780585394548e-09
1.721952601628246136e-09
1.346221333343205811e-09
1.055902037706036289e-09
8.251205557480884266e-10
6.381153243969518570e-10
4.856191731761259649e-10
3.619981416645044525e-10
2.634352363894841823e-10
