# bin_11_2
5.732462131951532238e-27
6.451548190840093524e-27
7.134017058092700488e-27
7.717902915932848914e-27
8.123056466777369897e-27
8.262074879068766798e-27
8.052045389039755728e-27
7.413636183814117272e-27
6.454510290698723918e-27
5.340942983716025509e-27
4.381642157433175443e-27
3.741794126564428246e-27
3.200333273892770169e-27
2.404916017547660064e-27
1.685085407085965248e-27
1.364668356510338143e-27
9.225823301499512727e-28
6.932278720371931335e-28
4.728852965796357653e-28
3.301288066303146062e-28
2.311649406041350320e-28
1.619091229966147956e-28
1.142242979093184536e-28
8.155307041843722534e-29
5.935838426469169453e-29
4.404764353315492404e-29
3.327589115870416404e-29
2.550483706495829195e-29
1.970710928670565436e-29
1.524060849251943989e-29
1.171164794700934532e-29
