# bin_7_6
5.851071697233761066e-08
5.418046314290466705e-08
4.886739602494747340e-08
4.288823651431095673e-08
3.664533715637049412e-08
3.056300248757972056e-08
2.499608098186178897e-08
2.014046458498962282e-08
1.601510660016668587e-08
1.252512658324415502e-08
9.589896549266081808e-09
7.215631923807565819e-09
5.410485606864710941e-09
4.066748930063578584e-09
3.049160184686830394e-09
2.299155093927953161e-09
1.747184064104157991e-09
1.338287429421284452e-09
1.032449966366081374e-09
8.003534039483380807e-10
6.212471227904065209e-10
4.809513618911805923e-10
3.698938468506489791e-10
2.815738390584546724e-10
2.114835656404328658e-10
1.563310903708402814e-10
1.135265702506376435e-10
8.089631735202625167e-11
5.653613915261561797e-11
3.875847226835783807e-11
2.608495316583907090e-11
