# bin_3_3
3.159343227050532105e-08
2.780386005481992642e-08
2.382935119058256588e-08
1.993335628279250911e-08
1.634318406503239904e-08
1.319443772523716911e-08
1.051353972475296415e-08
8.250043289634308573e-09
6.350094261848352338e-09
4.806753583967633842e-09
3.622626744085532194e-09
2.740178204673206282e-09
2.074566697893622191e-09
1.579756052589891242e-09
1.214593464237614170e-09
9.418661418623458075e-10
7.359226447059615634e-10
5.775482136416922436e-10
4.534435850387188592e-10
3.546030202083892406e-10
2.750473661947671078e-10
2.107961584836114589e-10
1.591161936393534945e-10
1.179994022002701038e-10
8.582105471159107393e-11
6.115344041672166188e-11
4.268397027292655556e-11
2.919812431462347366e-11
1.959828131273720689e-11
1.293060160703186963e-11
8.403622759545003962e-12
