# bin_5_3
3.796621497213797253e-08
3.387143515440407660e-08
2.941012991354824570e-08
2.488405812468119675e-08
2.058782984424748656e-08
1.673757843992459224e-08
1.342348889452481459e-08
1.061839533989362373e-08
8.248009633582753886e-09
6.279479630047670127e-09
4.727926727101746429e-09
3.565406715394811179e-09
2.692950635246110972e-09
2.037377629926336505e-09
1.555320029899358270e-09
1.197405333031883488e-09
9.297671818133563366e-10
7.264327336378366309e-10
5.691468958283002707e-10
4.452934886119166470e-10
3.464110289194784541e-10
2.668742466417738817e-10
2.028840578654743033e-10
1.517617911852635460e-10
1.114569809726794564e-10
8.025213138059430735e-11
5.661307498981811436e-11
3.913110190981339071e-11
2.652273849380939007e-11
1.765339261344426874e-11
1.156032590681335820e-11
