# bin_8_6
6.094099263680962710e-08
5.661759358498672546e-08
5.124065727358123461e-08
4.512417545283970255e-08
3.867759092467084137e-08
3.234370519109697596e-08
2.650637105747662010e-08
2.139182235882348533e-08
1.703922486523503001e-08
1.335591818977853183e-08
1.024930773040321215e-08
7.718970657972744840e-09
5.784084628029063410e-09
4.345525673305021986e-09
3.255722835415467507e-09
2.450129672862122751e-09
1.858606752267538068e-09
1.420719240158005721e-09
1.094110958347946810e-09
8.470112528448044484e-10
6.569486978108113878e-10
5.085115238213972927e-10
3.912743054531712930e-10
2.981637047430186043e-10
2.242931668938206484e-10
1.661278982232665299e-10
1.209184557285572907e-10
8.638095261652575404e-11
6.052866157934601057e-11
4.160573421509630333e-11
2.807310349132406243e-11
