# bin_14_4
5.522708099220707668e-08
5.070639523810001624e-08
4.530077069094355797e-08
3.935639800231754135e-08
3.329382826083418590e-08
2.753185413113215941e-08
2.237737683343572245e-08
1.795257856898682834e-08
1.420420506480431548e-08
1.101594685697798276e-08
8.354081703248246746e-09
6.266775421016676123e-09
4.713780437203432761e-09
3.541033929796886684e-09
2.662521925570019897e-09
2.019946191247694859e-09
1.544257690323813136e-09
1.190958836924830541e-09
9.246264479955661650e-10
7.204136943557586684e-10
5.610779171315231608e-10
4.349747188279565543e-10
3.343096808538223194e-10
2.538062814147765792e-10
1.897716291064066119e-10
1.394242198530980238e-10
1.004923392834282215e-10
7.099802003878137552e-11
4.916121042004730591e-11
3.338259757894186111e-11
2.225713918028884717e-11
