# bin_15_12
9.217630998680992739e-08
8.879926388398857228e-08
8.355474680661280089e-08
7.662809607254697614e-08
6.839030823184150499e-08
5.937616428899324976e-08
5.021558488428399138e-08
4.151937462707820705e-08
3.373038155735919759e-08
2.702482848367103985e-08
2.133889282637562554e-08
1.651615516918440566e-08
1.249521092906672284e-08
9.323183649892360623e-09
6.954414994034554284e-09
5.174815856395442904e-09
3.836554959968387764e-09
2.864055580546149608e-09
2.148036940414242926e-09
1.623358640441070701e-09
1.234455795726377156e-09
9.427915353232228112e-10
7.210286378483939165e-10
5.502784814428891282e-10
4.176153222948611201e-10
3.141081275293110382e-10
2.334910425757356525e-10
1.711477819188777228e-10
1.234957250059570907e-10
8.762831049831018888e-11
6.111255354044184257e-11
