# bin_9_7
6.714280369662661161e-08
6.291243259369008437e-08
5.745347403315724095e-08
5.106361819583692628e-08
4.415863812953874277e-08
3.721623102545382120e-08
3.068680095438122234e-08
2.488025507370243480e-08
1.990369935594821943e-08
1.569116003980955200e-08
1.212560276300618804e-08
9.172769679733049147e-09
6.866382977627555076e-09
5.149394891716788346e-09
3.855173440749608914e-09
2.886300770196854270e-09
2.179066519888674942e-09
1.655829370308666731e-09
1.268414389808191375e-09
9.775524047419232282e-10
7.558582800247443877e-10
5.842422392977858964e-10
4.496852858285062331e-10
3.433612999200289456e-10
2.592025664436194848e-10
1.929116896618596444e-10
1.412434845704661076e-10
1.015801917644462657e-10
7.169767401987205463e-11
4.965500950915799221e-11
3.375614672153182499e-11
