# bin_7_5
5.406399105342216353e-08
4.970574458172269975e-08
4.449478580684526064e-08
3.875519254099439826e-08
3.287871854661396090e-08
2.725749726945972270e-08
2.219144736837473815e-08
1.781741583047587175e-08
1.411278506452136462e-08
1.097777501756108263e-08
8.358503750215383346e-09
6.277276206713005859e-09
4.716120658165811456e-09
3.547038957057467207e-09
2.664878909406533798e-09
2.018639467390292613e-09
1.540385259132907376e-09
1.185424214207523839e-09
9.182686122528226611e-10
7.140248619756130697e-10
5.552145379253820633e-10
4.299703561439656041e-10
3.303168931371313843e-10
2.508287515586318361e-10
1.877080293338973577e-10
1.381154843879394752e-10
9.975722413575854941e-11
7.066160478387218866e-11
4.907410091052413209e-11
3.343026101839767614e-11
2.236127977797181163e-11
