# bin_14_7
7.421009484549207287e-08
7.007190250253158039e-08
6.450566477389134204e-08
5.779255472537823413e-08
5.035776235969466881e-08
4.272082711956882218e-08
3.540768151419955895e-08
2.882045552929036683e-08
2.313960569223823257e-08
1.832645847679806064e-08
1.423880775430416987e-08
1.080970044253532544e-08
8.088146090465014250e-09
6.056600917972845757e-09
4.530773091759940875e-09
3.379310526061849425e-09
2.540914460554849679e-09
1.921739421777288458e-09
1.465654301561505575e-09
1.125336660838231925e-09
8.678679153796906247e-10
6.700037237177257187e-10
5.158127021659423791e-10
3.944969379667268775e-10
2.986635211470277247e-10
2.231553986248448686e-10
1.641674348325281466e-10
1.187030072772994776e-10
8.426665568947165997e-11
5.870496179512863293e-11
4.014136681326793543e-11
