# bin_12_8
7.621454917044302992e-08
7.218657887734575598e-08
6.668263484883353887e-08
5.996969592565280408e-08
5.246268363416539461e-08
4.467883913737239652e-08
3.715318255051043630e-08
3.031568258457509958e-08
2.438308184597240249e-08
1.934928020038382510e-08
1.508122377052657842e-08
1.149146256919170311e-08
8.609522234531723947e-09
6.438512693280588506e-09
4.817787846300237742e-09
3.589796153158481392e-09
2.692371004219415411e-09
2.031427956481841928e-09
1.544989789717254108e-09
1.183003983600984072e-09
9.102445761521566754e-10
7.015344947959539008e-10
5.395697261062496834e-10
4.125949522351965377e-10
3.125545850519042131e-10
2.338444388847009752e-10
1.723723926093652741e-10
1.249546324708205844e-10
8.897387510771395856e-11
6.219487564724924556e-11
4.268217948554058836e-11
