# bin_12_6
6.713538698623023494e-08
6.283116727147996126e-08
5.729342800898709868e-08
5.082904736136366740e-08
4.386528021769459373e-08
3.689177220710429752e-08
3.036586702315988853e-08
2.459096793900131739e-08
1.965796267628444341e-08
1.548044022280181428e-08
1.193604092279270861e-08
9.007481161443434510e-09
6.741127041347260406e-09
5.059417267013616938e-09
3.784738900668334599e-09
2.836917526105589132e-09
2.143925381022539326e-09
1.631772962277093596e-09
1.251925381311277451e-09
9.663686647448431037e-10
7.482348351062245084e-10
5.789496695911448165e-10
4.458983920983274589e-10
3.405372065620431672e-10
2.570063898976166727e-10
1.911463074888491899e-10
1.397969905205411717e-10
1.003912366747578937e-10
7.073046555792091663e-11
4.888398544519331343e-11
3.315765364234777747e-11
