# bin_11_8
7.468250959862828007e-08
7.062208975586836669e-08
6.512754751231576536e-08
5.847081100935930767e-08
5.106666275791456747e-08
4.342539292635983200e-08
3.606759026768032883e-08
2.940325126542477785e-08
2.363105202152578892e-08
1.873533087636702302e-08
1.458571297293728928e-08
1.110305652037689794e-08
8.317260750382988461e-09
6.222194935511495980e-09
4.656474031484757469e-09
3.471741394538351697e-09
2.606248380510550341e-09
1.968350695691068483e-09
1.498535276448960513e-09
1.148477991337063519e-09
8.842901050777552940e-10
6.818120492801501850e-10
5.244555578324095362e-10
4.009555979649483599e-10
3.035886941997202944e-10
2.269693756018935528e-10
1.671474463238194171e-10
1.210341001565566062e-10
8.607830133260372452e-11
6.009457442268502783e-11
4.118804621288432537e-11
