# bin_10_3
4.420435774277589160e-08
3.982491007525861137e-08
3.490121463242650727e-08
2.977048225004577974e-08
2.479053799480792468e-08
2.025466467461350180e-08
1.631622793397978565e-08
1.297395496243369650e-08
1.013800554733710755e-08
7.751275095988421590e-09
5.836789795356397881e-09
4.393001160932405665e-09
3.312682218781478735e-09
2.496787723712446348e-09
1.896745059131952123e-09
1.453229192151226560e-09
1.123409784443043293e-09
8.748385053521386546e-10
6.842257655798190521e-10
5.353236588363215248e-10
4.171568688233264795e-10
3.224237864606380238e-10
2.462351263212459420e-10
1.852211115875469412e-10
1.368921087925919071e-10
9.923341971035479805e-11
7.048648920354875632e-11
4.904935291525714533e-11
3.345602423950173132e-11
2.239564083804628752e-11
1.473878042632707737e-11
