# bin_11_11
4.523336780847865974e-06
5.150927378530163102e-06
5.779431126328205500e-06
6.365126199567277563e-06
6.849919662948525932e-06
7.160001868655432034e-06
7.224848645432593293e-06
6.956598083636260184e-06
6.321072816698171982e-06
5.430276496704129799e-06
4.463370692855563733e-06
3.683775356821210471e-06
3.175530087376984195e-06
2.667777615453218009e-06
1.928351375447346836e-06
1.393426444608702091e-06
1.113645362611838401e-06
7.371626168260215850e-07
5.498018299821762902e-07
3.783432894364045609e-07
2.575423884280712300e-07
1.761701429372720597e-07
1.199807729270045978e-07
8.207302466374301547e-08
5.658061778517787251e-08
3.963899747906317790e-08
2.828321242713169358e-08
2.061163805324666485e-08
1.534022490525243901e-08
1.161944481031845530e-08
8.902862867954584352e-09
