# bin_10_7
1.305776085706284152e-07
1.474413407841262115e-07
1.636831540340425454e-07
1.779414951995877107e-07
1.884199921084607820e-07
1.929922166456120342e-07
1.899709649034672347e-07
1.769449273716406559e-07
1.557861913051912326e-07
1.298756710249205452e-07
1.062715920560565239e-07
8.994825541874606783e-08
7.764508442412399982e-08
6.027380394179794883e-08
4.171125924543327762e-08
3.338249787076296936e-08
2.343141763797683199e-08
1.715835909730655517e-08
1.164914251536372485e-08
8.243630815614636149e-09
5.731656140106292094e-09
3.979117412634859400e-09
2.781634782851319523e-09
1.963490206901641692e-09
1.410408859467989671e-09
1.033074677816466722e-09
7.712967675049500943e-10
5.858982805696350368e-10
4.503657076679433830e-10
3.479116959431486395e-10
2.680888665554757758e-10
