# bin_7_1
1.272616965938908080e-16
1.398103278648335877e-16
1.500927111281927215e-16
1.564930769420016475e-16
1.575127568536238330e-16
1.512350343729031830e-16
1.371234277743183154e-16
1.175677020496287827e-16
9.661866728062120737e-17
7.983017481993816019e-17
6.871199859541292751e-17
5.743993807097181772e-17
4.161974795882921240e-17
3.036318424675715839e-17
2.410678023988639131e-17
1.639398033981959172e-17
1.226996457116327457e-17
8.685792808334805350e-18
6.162530888926321134e-18
4.425818691961156333e-18
3.210728773356599085e-18
2.365761423476661593e-18
1.773213858746528979e-18
1.353683868265683331e-18
1.047876809670636619e-18
8.179844491664725840e-19
6.396933565350545139e-19
4.975754507430808382e-19
3.825063870123927757e-19
2.890406739998186294e-19
2.137888044255578878e-19
