# bin_3_1
2.966066253480418079e-07
3.094686303735216620e-07
3.118807662431353383e-07
3.003451931242131920e-07
2.735196744893256517e-07
2.356921743201303714e-07
1.944690817302182052e-07
1.604686868467437434e-07
1.372245057331366527e-07
1.150087217447687816e-07
8.526634548579000317e-08
6.196658500136511767e-08
4.893998800128140498e-08
3.442960903352031215e-08
2.571684285446694567e-08
1.850785147355257082e-08
1.353804470038855937e-08
1.001287196585834583e-08
7.517359845853418176e-09
5.746179945619760283e-09
4.465799893922943089e-09
3.518394063654610689e-09
2.791601709738680538e-09
2.214739341800998533e-09
1.744660966386302914e-09
1.355622543690340015e-09
1.033125621773749297e-09
7.688385211415783438e-10
5.570842353612642557e-10
3.926976011103056233e-10
2.696037246465688626e-10
