# bin_9_1
3.845793947962384953e-22
4.282335514751064682e-22
4.674243321945427220e-22
4.976021975262403248e-22
5.131751500446850949e-22
5.097394914869188841e-22
4.804239414818867267e-22
4.277392758310689792e-22
3.601563644708729899e-22
2.946697068663763697e-22
2.468302996198626970e-22
2.135303152533264082e-22
1.713814479746747283e-22
1.196201301037295044e-22
9.260550777053683107e-23
6.890279075780998229e-23
4.852961652886555844e-23
3.434794317958902985e-23
2.468133381917949976e-23
1.736355959289589255e-23
1.227234242119792310e-23
8.783837592018634326e-24
6.379189125156652605e-24
4.717001007801987717e-24
3.554612750134648898e-24
2.720886685658318602e-24
2.106197201896022905e-24
1.637912541818680271e-24
1.270422329059816274e-24
9.761651402942430923e-25
7.388542631335509285e-25
