# bin_10_4
3.259240097636143700e-13
3.661575932981336589e-13
4.040252367077079142e-13
4.359394029919893849e-13
4.573042499140102839e-13
4.633908477401580090e-13
4.491107844506614192e-13
4.109921588380178462e-13
3.556537984108638914e-13
2.933131857772023641e-13
2.411661822606179483e-13
2.068254472019764436e-13
1.756426965474600686e-13
1.297603044543596882e-13
9.202235506064794903e-14
7.441089049195573528e-14
4.976282968758055821e-14
3.754754329316493572e-14
2.582868798178651594e-14
1.795595983990280447e-14
1.259826946834586794e-14
8.851935203609710851e-15
6.275834782510416501e-15
4.508801990330601997e-15
3.304092003395417522e-15
2.467713791048641604e-15
1.874604177958698722e-15
1.442429025967304427e-15
1.116648907107492505e-15
8.634128729036174651e-16
6.621394187752207247e-16
