# bin_4_1
8.402652155874898815e-13
8.893494307965072329e-13
9.115396499114702389e-13
8.983008644916681642e-13
8.394459214451074009e-13
7.415755714862246325e-13
6.213853023278603776e-13
5.093370469074055884e-13
4.288525447259840530e-13
3.683968090957062338e-13
2.901791034019339690e-13
2.052315500602373037e-13
1.604114939516994389e-13
1.179046677719757039e-13
8.553244672557875244e-14
6.168651596384001347e-14
4.507396374146232742e-14
3.290820375029817550e-14
2.434718095116714137e-14
1.832790257833622117e-14
1.404175736356115488e-14
1.093433365238904756e-14
8.613682191044966546e-15
6.818007425329372499e-15
5.384745001430741934e-15
4.214093210914394730e-15
3.247461584303419875e-15
2.451446369138226150e-15
1.805591524432477630e-15
1.294500461912671508e-15
9.031524644009469594e-16
