# bin_9_10
2.201234498675547483e-08
2.486200296141637756e-08
2.761012259633261843e-08
3.002748720580544928e-08
3.181149661903692214e-08
3.260472544854029005e-08
3.211732100070234458e-08
2.994589196035855459e-08
2.638772813924149008e-08
2.202951949272224007e-08
1.803584773956768127e-08
1.525732241125140245e-08
1.316536863362148802e-08
1.024622063641361759e-08
7.108175972839967667e-09
5.663806661822427490e-09
3.999007167753075778e-09
2.912147839856296821e-09
1.987899361624742962e-09
1.406321770476565619e-09
9.768851944142449978e-10
6.774482567044588549e-10
4.731900534475480815e-10
3.337770120422277420e-10
2.395075002708582364e-10
1.752346143252377619e-10
1.306870043614361477e-10
9.917523223037786644e-11
7.617580161198001351e-11
5.881983067737037347e-11
4.531924740461233657e-11
