# bin_7_2
5.573243990495683006e-17
6.138602618725816797e-17
6.611036437638003759e-17
6.920513956369567099e-17
6.997488486358351783e-17
6.762324736023636401e-17
6.172681301957948934e-17
5.325949166798979050e-17
4.392121718073281541e-17
3.617438542066401305e-17
3.103835055471457263e-17
2.622144828682268478e-17
1.930588022944683373e-17
1.384447839667327250e-17
1.111485785431259002e-17
7.547692775605516308e-18
5.684861211172675050e-18
3.984954321470181305e-18
2.827434001597574331e-18
2.027380021499486683e-18
1.465532923797584900e-18
1.074735342947323996e-18
8.013349067408281363e-19
6.088494220881615485e-19
4.695813693748092340e-19
3.657248453489087850e-19
2.858226663197227563e-19
2.225277873982171670e-19
1.714626907670205700e-19
1.300156605133315179e-19
9.659218639012216990e-20
