# bin_2_7
4.006725541829976043e-07
4.147791355812879518e-07
4.139430225247469330e-07
3.940151975287827882e-07
3.550794351712639101e-07
3.035581709195860627e-07
2.508307276659856041e-07
2.086346509513632818e-07
1.776588327097476361e-07
1.453325208585252530e-07
1.075730416471749903e-07
7.988245374065476997e-08
6.126303149993338136e-08
4.406224314476292268e-08
3.243389828011757921e-08
2.356425303622713562e-08
1.730851042539294838e-08
1.285673621989333725e-08
9.705339413791592821e-09
7.457131970820561266e-09
5.821012681667768880e-09
4.597682742089214202e-09
3.650086140132841408e-09
2.891951850455787991e-09
2.271035095236964720e-09
1.756589286213657024e-09
1.331256921738790663e-09
9.847654827948669231e-10
7.094116451034978938e-10
4.975402198524101629e-10
3.401813064305135681e-10
