# bin_12_2
1.630186511213302228e-29
1.841185298680483728e-29
2.044638043498427300e-29
2.223593675144185186e-29
2.355659532872763109e-29
2.414220886365285858e-29
2.378291543624143681e-29
2.217402603511206884e-29
1.954042973461982137e-29
1.630348074536131509e-29
1.334006339283463520e-29
1.128173076634375156e-29
9.741381837397184761e-30
7.583170225902418940e-30
5.249086075425134279e-30
4.189942068509523290e-30
2.954445793224332150e-30
2.154907952203303292e-30
1.465917396655896557e-30
1.038091739667004926e-30
7.211299109264929986e-31
5.001005010968610203e-31
3.492809484871332258e-31
2.463129143588832052e-31
1.767116404153768173e-31
1.292716220904158036e-31
9.640127611892442130e-32
7.315840742166589410e-32
5.619904850040383147e-32
4.340302256801461877e-32
3.344890791801144918e-32
