# bin_5_7
8.305092496965446192e-08
9.138781962119101689e-08
9.830567327977513992e-08
1.027588870581932820e-07
1.037281223423303178e-07
1.000253418047699507e-07
9.114609560568132632e-08
7.852469020996237856e-08
6.477137805270773637e-08
5.344884892286851729e-08
4.583774033700606694e-08
3.851129136938124470e-08
2.833535502861304687e-08
2.048137098461081329e-08
1.625221850066887880e-08
1.117114317963996390e-08
8.321223518089492683e-09
5.856679695804155699e-09
4.168032961302352945e-09
2.988365816648982235e-09
2.161902691767524019e-09
1.587229997461149547e-09
1.184946781674725435e-09
9.011285352053679127e-10
6.953929562878944115e-10
5.416669118714768412e-10
4.231889011436458265e-10
3.292429896150394220e-10
2.534325797413229291e-10
1.919344431739505922e-10
1.423967130953506116e-10
