# bin_13_7
2.904797730438985516e-15
3.301610065221376467e-15
3.695446338184839335e-15
4.057870862551425891e-15
4.350862932745517698e-15
4.526491144394929198e-15
4.543091912654442677e-15
4.340694059907657514e-15
3.914173449518597267e-15
3.336275143179552332e-15
2.735215027257567276e-15
2.268909138570594078e-15
1.962340680481139015e-15
1.624314909948726865e-15
1.152431430679768356e-15
8.547593529966196201e-16
6.670601613212998192e-16
4.475401378692881202e-16
3.266248489781899336e-16
2.281505020306662952e-16
1.558006889845167229e-16
1.064919234520206166e-16
7.284877804495105561e-17
5.018981620747239557e-17
3.494257360301202143e-17
2.475612069299799166e-17
1.787941404461088835e-17
1.318733632291413493e-17
9.916674297468092993e-18
7.567801169821714159e-18
5.821088786669982976e-18
