# bin_7_3
5.548530727000290264e-14
6.130269065184150554e-14
6.627262832229559604e-14
6.970845853273685370e-14
7.087041918948464083e-14
6.903383480876606314e-14
6.355469828863926168e-14
5.531107741213679062e-14
4.581322122711962739e-14
3.760272711555834715e-14
3.208747607883938882e-14
2.740190745725649880e-14
2.063726598555716941e-14
1.453750739022639944e-14
1.172685235707230013e-14
8.045197115376815565e-15
6.041695385923908747e-15
4.192359308485003947e-15
2.984828960219241227e-15
2.133821022403931576e-15
1.534950294109781286e-15
1.118670358989179497e-15
8.282679009923947401e-16
6.251465527686713724e-16
4.795666757383877384e-16
3.721369973988420652e-16
2.903849148362165507e-16
2.262106125009640076e-16
1.747321786101564171e-16
1.330327704861618694e-16
9.936465001426457961e-17
