# bin_2_5
3.160683099010638067e-07
3.267604000241149395e-07
3.255601276396282967e-07
3.092265998839644520e-07
2.780444742572375504e-07
2.372297583987450576e-07
1.958865471751638031e-07
1.630983958187263759e-07
1.389226060277654814e-07
1.132506003051216272e-07
8.354895240812298702e-08
6.223012331155103129e-08
4.763902755929084496e-08
3.424410360027485430e-08
2.521824121217600467e-08
1.833083914771743945e-08
1.347319788607316650e-08
1.001939073060375439e-08
7.573449252905481321e-09
5.826745187233207246e-09
4.553622986247161508e-09
3.599664674095695339e-09
2.858965581802503751e-09
2.265135416626782862e-09
1.778054894707848354e-09
1.374195118944406537e-09
1.040309903093202680e-09
7.685250477199871799e-10
5.528342379487466704e-10
3.871657720875180171e-10
2.643602190585222618e-10
