# bin_10_9
2.625737766039442544e-09
2.971582234323356662e-09
3.308038199434191017e-09
3.608358034159099947e-09
3.836870473572315579e-09
3.949983807096273715e-09
3.914089000161986538e-09
3.676051531076666484e-09
3.261845770644686617e-09
2.737549991593951480e-09
2.240181585877519455e-09
1.884092238072381216e-09
1.630695653779686027e-09
1.294544527172694469e-09
8.976191147608509545e-10
7.040935604435346922e-10
5.120069964924711500e-10
3.639811364557567196e-10
2.509155120558554147e-10
1.784207480137307409e-10
1.232690965161057719e-10
8.493322510282134664e-11
5.897038259958140671e-11
4.131001854733865955e-11
2.938958912537624690e-11
2.131424570813314061e-11
1.576324972284674239e-11
1.188025334517015491e-11
9.083551121806048705e-12
7.001044805429068046e-12
5.398792934186084588e-12
