# bin_6_8
6.430496563887111757e-08
7.142912707406001606e-08
7.773208352398586472e-08
8.244133795034420097e-08
8.464389238605312497e-08
8.357224705867165433e-08
7.819949007435426106e-08
6.914942165517871203e-08
5.793240735079649770e-08
4.745303214460641610e-08
3.998746766022906799e-08
3.447196342588415970e-08
2.714059373762738644e-08
1.898303235782934874e-08
1.490327615827175884e-08
1.080606818225237295e-08
7.774755837367434235e-09
5.460433233903333839e-09
3.911957298245242386e-09
2.766391653511826006e-09
1.966479788765992639e-09
1.415371348612720361e-09
1.033991413361441089e-09
7.694954212867184734e-10
5.831598045910069984e-10
4.483587894012889759e-10
3.479949195191806945e-10
2.708027494053064948e-10
2.097911125902597247e-10
1.607470955864807711e-10
1.211740474838661463e-10
