# bin_5_10
1.520826025095614271e-07
1.675554562921685637e-07
1.805144570300142562e-07
1.890552893034647046e-07
1.912687338028543305e-07
1.850302514097299739e-07
1.691918685219233534e-07
1.462688152444710611e-07
1.208676109031113017e-07
9.960140916492456191e-08
8.524172555856095962e-08
7.193509288972865359e-08
5.340042251926031069e-08
3.834591671981902543e-08
3.047745449427922202e-08
2.103587665710186349e-08
1.564168610695018284e-08
1.098308657655121398e-08
7.822600728908318046e-09
5.599654798253312673e-09
4.041710556340730925e-09
2.959534714041323756e-09
2.203096534931274468e-09
1.670843002941627260e-09
1.286543449877285532e-09
1.000638554436513239e-09
7.812686662516390176e-10
6.079612386266716094e-10
4.684348052784078038e-10
3.553440126585611890e-10
2.642041587746658225e-10
