# bin_3_4
9.993434666508594022e-08
1.061908833322687908e-07
1.093859436896128957e-07
1.084725141441200671e-07
1.022456633949121276e-07
9.111812275193334374e-08
7.698912519574672556e-08
6.323998226110569146e-08
5.290942372992765783e-08
4.538170219007091107e-08
3.646652504147187364e-08
2.616421085549200987e-08
1.991370509210159228e-08
1.504743016433070855e-08
1.071892290284455019e-08
7.847161575369647687e-09
5.684512207442308711e-09
4.133739359993867571e-09
3.045513207733416959e-09
2.279576340144882269e-09
1.736389180179731773e-09
1.344677795496342440e-09
1.054920990211973281e-09
8.329575779350875923e-10
6.574108975346825706e-10
5.150661358613086466e-10
3.980163419806088257e-10
3.017287172849193156e-10
2.234531540445819714e-10
1.612189233093051572e-10
1.132293784613048458e-10
