# bin_1_5
5.815534013852152502e-07
5.681601496921474518e-07
5.285294444073937077e-07
4.666625683369859394e-07
3.942025953892748618e-07
3.266762026600354932e-07
2.736504191504383485e-07
2.291712997575224301e-07
1.813319234175556222e-07
1.346516256560962062e-07
1.012711247437823777e-07
7.621062037866063087e-08
5.562434305725468498e-08
4.104660651386817814e-08
3.029536538661355249e-08
2.264738781171444459e-08
1.719276186084205963e-08
1.328513453613768069e-08
1.043430383964250700e-08
8.294047598130449367e-09
6.631174447162479472e-09
5.293780816727039284e-09
4.190181819567714110e-09
3.267803837119186735e-09
2.497740516442940084e-09
1.863883455099174162e-09
1.354920433571291873e-09
9.590087274376989771e-10
6.616891357993810268e-10
4.460994545969916520e-10
2.947524728780216877e-10
