# bin_15_3
7.918424833721959434e-32
9.016924666210610693e-32
1.011694117839872186e-31
1.114192789880989804e-31
1.199017614533827342e-31
1.253245821867353721e-31
1.264539639424463199e-31
1.217521214396233890e-31
1.106251347545294142e-31
9.503160797021939401e-32
7.811167777317337475e-32
6.447196012675761666e-32
5.557550568336271182e-32
4.668203192936030041e-32
3.374344380384341094e-32
2.438859993855309045e-32
1.948342248596549101e-32
1.290305419650314200e-32
9.618977920838146920e-33
6.619822509033316542e-33
4.506768980317892721e-33
3.082813977209631315e-33
2.099753553877275556e-33
1.436415747702904446e-33
9.903123949827062278e-34
6.938283238078034448e-34
4.950887641502856785e-34
3.608175919358539818e-34
2.685461835368048816e-34
2.034102461107061309e-34
1.558492316295221823e-34
