# bin_3_2
4.997074082176078068e-09
5.238925355029967006e-09
5.309806825483017344e-09
5.153630840727356597e-09
4.734222591261397053e-09
4.113452036666000240e-09
3.411828962386156036e-09
2.808104149742810038e-09
2.389779415602213100e-09
2.022149611539079763e-09
1.530427641201632341e-09
1.099072316187513809e-09
8.680513614746140252e-10
6.180408303047642988e-10
4.583424253549490313e-10
3.293240501445814049e-10
2.408981736823684955e-10
1.774248038215582206e-10
1.325460265358692017e-10
1.008004780120952885e-10
7.797288643994005612e-11
6.120385712700371139e-11
4.845651012979459163e-11
3.842366697439210249e-11
3.030204786599164941e-11
2.360724322661095417e-11
1.806247129202000629e-11
1.350931599422702224e-11
9.844552886500534935e-12
6.980394933467474651e-12
4.819090723854760598e-12
