# bin_7_4
8.483199741912719672e-12
9.401115930294446960e-12
1.020133627162302960e-11
1.078050177576870138e-11
1.101971760616361158e-11
1.081705164675501123e-11
1.004673030505735936e-11
8.820262196630414625e-12
7.345643087542842094e-12
6.016463745223698127e-12
5.100561128925002371e-12
4.388315902168942773e-12
3.385891518906820694e-12
2.360985167483804039e-12
1.890412516294221789e-12
1.328883961618852470e-12
9.811583012959883142e-13
6.792905956618241856e-13
4.866378558038836927e-13
3.461657826634447367e-13
2.474826281571568726e-13
1.792033361177221183e-13
1.317372812099510821e-13
9.871266200697152688e-14
7.526431842016706311e-14
5.814480348580836888e-14
4.526709562155747164e-14
3.526211688984276595e-14
2.729306070542625633e-14
2.085836526498199408e-14
1.566084795329875128e-14
