# bin_3_6
2.088566839996249966e-07
2.227342576008486382e-07
2.304621072366683180e-07
2.298120386478556104e-07
2.182154697494055770e-07
1.959310343085017875e-07
1.666714994201152998e-07
1.371535265727876204e-07
1.142330604085553775e-07
9.790562963590138996e-08
7.982113425204241595e-08
5.790847557672772762e-08
4.336038093158533895e-08
3.324483101228661653e-08
2.354421686943041243e-08
1.732099484726343100e-08
1.248069410545999372e-08
9.058887874087729466e-09
6.649865477403641811e-09
4.953963861213306819e-09
3.755119812098622909e-09
2.894531212892989069e-09
2.262719498922655222e-09
1.782786997485987475e-09
1.406167193080609621e-09
1.102682790019387647e-09
8.540440319492063859e-10
6.497002795373820231e-10
4.833110191258341362e-10
3.505024798117317942e-10
2.475013206350706660e-10
