# bin_10_3
1.301682609479557236e-20
1.460548155831189042e-20
1.609151670107295711e-20
1.732976980620124586e-20
1.813523369588999607e-20
1.832661286936656993e-20
1.768910613781863947e-20
1.611947283773412394e-20
1.388222905454051475e-20
1.143506167325644280e-20
9.425895589473698179e-21
8.106827858760863771e-21
6.838389521683746602e-21
4.992700363941990430e-21
3.585509758961199488e-21
2.879491091605117929e-21
1.924900664358548523e-21
1.446865361612463565e-21
1.003490244022242647e-21
6.974645380266530298e-22
4.896141406269663990e-22
3.447261328520289791e-22
2.453177455349462228e-22
1.770903596173631763e-22
1.304056093253081076e-22
9.783585147168651482e-23
7.460112087504597393e-23
5.754502490737224150e-23
4.459397762883767172e-23
3.446643850807276648e-23
2.638778724822914202e-23
