# bin_9_9
4.550786659413001870e-11
5.147564139293376172e-11
5.727208649388234563e-11
6.243379112700341985e-11
6.634362416576773013e-11
6.824806921831369512e-11
6.757442090937762551e-11
6.340493179617671219e-11
5.620780590800477122e-11
4.712557806132319917e-11
3.853451554843932902e-11
3.240334186239360935e-11
2.803848452483076168e-11
2.222560880480008907e-11
1.538757614732455494e-11
1.208688475632370875e-11
8.768422852929230667e-12
6.241877575502565405e-12
4.291174090343486789e-12
3.053129038297851432e-12
2.109075584770197767e-12
1.452894096032007963e-12
1.008803096458250386e-12
7.067250466538842088e-13
5.028840111825336943e-13
3.648025667965716235e-13
2.698785677080435256e-13
2.034604838219199514e-13
1.556002902668344092e-13
1.199404359223481061e-13
9.248722614163996272e-14
