# bin_10_9
3.052628082577668819e-11
3.459503676448050235e-11
3.858111014602018231e-11
4.217948631405433571e-11
4.498188808116323348e-11
4.648064418913760086e-11
4.628088378636236408e-11
4.374232812019394614e-11
3.904153423981356841e-11
3.293797328348707213e-11
2.694386303473484224e-11
2.252359785553096684e-11
1.950572662717029574e-11
1.575835440901153734e-11
1.097786731100305999e-11
8.435194111918494936e-12
6.316293103522157375e-12
4.374838785663184535e-12
3.074165647134514616e-12
2.181771023640761397e-12
1.499039156506640620e-12
1.027060551790883571e-12
7.085576229385283909e-13
4.929598813349399821e-13
3.476566165926923353e-13
2.498269293913894865e-13
1.831023798609436870e-13
1.369176680561873458e-13
1.040895141254195316e-13
7.998354773421132509e-14
6.166470332799713554e-14
