# bin_7_2
7.617467944170997876e-18
8.393004933465074441e-18
9.043448099990876542e-18
9.473723854666782370e-18
9.587409886132567559e-18
9.279173136544897032e-18
8.483083180605143424e-18
7.334050535733268574e-18
6.047642088323721556e-18
4.973229996140889985e-18
4.260028790826090881e-18
3.608556336990183771e-18
2.670146097719740988e-18
1.903771273881868355e-18
1.531825960923268951e-18
1.040706748419882868e-18
7.842261053191269042e-19
5.478575184916690606e-19
3.887549423637873434e-19
2.785267161876904702e-19
2.010641532759269117e-19
1.471945119514688789e-19
1.095416349981541940e-19
8.308366158052467082e-20
6.398886341228080847e-20
4.978732519174951186e-20
3.889102150796248608e-20
3.027857677924023597e-20
2.334011287984270217e-20
1.771177000315906722e-20
1.317255566499364315e-20
