# bin_13_1
1.609829534967452513e-37
1.823658960075273475e-37
2.032621120179954546e-37
2.220501299266348707e-37
2.365611096233542232e-37
2.441124534955314639e-37
2.426377722967864352e-37
2.287860194177788099e-37
2.037529693839082872e-37
1.715538388735292987e-37
1.403489724210731135e-37
1.176085823138983928e-37
1.018553823934785058e-37
8.174914063809398489e-38
5.682233892004312510e-38
4.403108069054055571e-38
3.260436114096231755e-38
2.281274631310469533e-38
1.590076404698465718e-38
1.130305570023628389e-38
7.783076058877158727e-39
5.343982973449929051e-39
3.696530237227056891e-39
2.579026482476895955e-39
1.825330205939138597e-39
1.316620414244545568e-39
9.685632072197302514e-40
7.266286687243085429e-40
5.537469407557098461e-40
4.260781247634780712e-40
3.285643529109688959e-40
