# bin_15_15
3.059021592342137321e-11
3.512153693153627624e-11
3.980897879482908193e-11
4.438551759243732546e-11
4.849421778229201842e-11
5.165760145595225836e-11
5.328366854854976706e-11
5.292872446526368961e-11
4.984712778216544054e-11
4.433795690771831128e-11
3.727697021255301687e-11
3.048928855682734925e-11
2.558675355662009510e-11
2.216868356486601609e-11
1.771650021922179084e-11
1.225762301848790770e-11
9.554633000822509310e-12
7.003195913151325922e-12
4.909030667179773219e-12
3.361644784147948855e-12
2.372074261226176638e-12
1.603893968886322044e-12
1.070993767467212727e-12
7.145862001208335130e-13
4.754224010053624855e-13
3.173575000611357796e-13
2.138012171245663215e-13
1.460068152334790990e-13
1.016819281728739657e-13
7.247199034246686036e-14
5.291576748119824978e-14
