# bin_9_7
9.667994416181424677e-12
1.089131054159040477e-11
1.205815534989756666e-11
1.306556262787629421e-11
1.377946786210031427e-11
1.404846230028627741e-11
1.374029095224230807e-11
1.270253994853083967e-11
1.110333049930800444e-11
9.209055368450630788e-12
7.543330361106176571e-12
6.419273375547583367e-12
5.512231553057632256e-12
4.191926343524894995e-12
2.917303744475647060e-12
2.357460183422708056e-12
1.611550229933060072e-12
1.202639444171280799e-12
8.166646068262754970e-13
5.725029850607685133e-13
3.999349140666814956e-13
2.792701960783124264e-13
1.962836578174022607e-13
1.394877726586627744e-13
1.010006101126469291e-13
7.457303041484927937e-14
5.608678561186725939e-14
4.284791630417438820e-14
3.304776803771184243e-14
2.555072923596856449e-14
1.965665528986077499e-14
