# bin_15_11
6.552144254621362983e-13
7.497612776059441240e-13
8.464762723533385075e-13
9.392673148988205038e-13
1.020184322316914347e-12
1.078792100727465657e-12
1.102913970970121322e-12
1.082684838879834755e-12
1.004821650474408980e-12
8.816004122171088102e-13
7.328749694690868543e-13
6.000076245082888132e-13
5.096823263597524836e-13
4.392721508834537687e-13
3.368458241384433149e-13
2.330287786489542634e-13
1.880250247885802422e-13
1.289389820989060403e-13
9.544428724821050173e-14
6.376255132268057387e-14
4.416070629286017806e-14
3.013089927166918936e-14
2.037373208031604239e-14
1.371981188749381694e-14
9.238505593708298957e-15
6.282630504042039660e-15
4.331554176078809084e-15
3.041287892491738011e-15
2.183525986644534520e-15
1.603998614614901856e-15
1.202567013108054065e-15
