# bin_9_5
3.352102975342362276e-14
3.760255566727292775e-14
4.141854418976859905e-14
4.459640339592644025e-14
4.666179137564843126e-14
4.714706625640114183e-14
4.550877155494701798e-14
4.146907248506852788e-14
3.573172654750140254e-14
2.940639226942486888e-14
2.421828984926137076e-14
2.081412062092574224e-14
1.756693782225482660e-14
1.283811180602631626e-14
9.198487063092609906e-15
7.394083323676592579e-15
4.938554563003147435e-15
3.714248445518170622e-15
2.572172205100020603e-15
1.786849371295520183e-15
1.253937696338325837e-15
8.823619169113649635e-16
6.274325514841171095e-16
4.525380111063816761e-16
3.329593658647556911e-16
2.496133814932494114e-16
1.902150523255538543e-16
1.466615182444953666e-16
1.136250508392558181e-16
8.781278255376494611e-17
6.723338099731315214e-17
