# bin_8_6
8.935869736103851019e-12
1.001294287295343681e-11
1.101441465929595910e-11
1.183998914522994812e-11
1.236252689368660179e-11
1.246162665856193990e-11
1.198716982199233656e-11
1.088464459832240642e-11
9.345133973355813801e-12
7.679697097376174236e-12
6.337177549824041622e-12
5.456697473142468716e-12
4.578416615835387167e-12
3.315812583307375757e-12
2.400704919089283669e-12
1.915891045259845163e-12
1.282070777225429324e-12
9.592652653301161745e-13
6.686494666807358845e-13
4.647251076745326282e-13
3.262289856362757323e-13
2.299687834314540317e-13
1.640189436042463110e-13
1.187425850270755640e-13
8.769635793323021400e-14
6.597130537124370427e-14
5.041328365092806365e-14
3.893853382693844639e-14
3.018558040840643238e-14
2.331605356032475751e-14
1.782525140830007696e-14
