# bin_6_5
4.225917308970886074e-11
4.682285726905984993e-11
5.080060428712093186e-11
5.367950895132326113e-11
5.486734743545308442e-11
5.386509937517010477e-11
5.003968429452619485e-11
4.394646999189390651e-11
3.658769033089568151e-11
2.994670827147986621e-11
2.536068622031320565e-11
2.182151226144225135e-11
1.686465381341787626e-11
1.174736968307911593e-11
9.391678079595897397e-12
6.616544283004020984e-12
4.873253984485004155e-12
3.374007794198240831e-12
2.417499934351079830e-12
1.718196621343550046e-12
1.227260548732277127e-12
8.879017038872594117e-13
6.521486378129978171e-13
4.882282195666505310e-13
3.719651108478265678e-13
2.871785655738316030e-13
2.234760014761942620e-13
1.740390145384959135e-13
1.346952876271537529e-13
1.029441088206193281e-13
7.730470075474218717e-14
