# bin_15_10
8.051668235311316807e-13
9.201989965348516427e-13
1.037284897009834780e-12
1.148838807028999056e-12
1.244939373832279254e-12
1.312685841903160912e-12
1.337614969082765343e-12
1.306859741707365326e-12
1.206181935906344788e-12
1.052626179915963807e-12
8.719697509979375970e-13
7.147978568138149873e-13
6.098295846856982065e-13
5.232397032840137903e-13
3.949895057782515194e-13
2.749241926496805540e-13
2.230717216077296713e-13
1.500136617154544066e-13
1.123912883397444655e-13
7.539306109817431301e-14
5.171610698540096763e-14
3.537913330761749143e-14
2.400033671601490940e-14
1.622124907415236504e-14
1.098265437013715086e-14
7.524881798539837973e-15
5.234621541882509627e-15
3.712836234530866477e-15
2.693420548339774967e-15
1.997312870901652221e-15
1.508513310952973682e-15
