# bin_13_11
5.855296991763948250e-10
6.677247997091864844e-10
7.505908126485722266e-10
8.285212793991678118e-10
8.941127361918692522e-10
9.378823643203743061e-10
9.501292512707811086e-10
9.202547579673120147e-10
8.413141236843888140e-10
7.272725821130550303e-10
5.993964963598085344e-10
4.931232460856495623e-10
4.235249456124766368e-10
3.592485079325516589e-10
2.640517886910107154e-10
1.874214819793342624e-10
1.515108478370249987e-10
1.002128117380176733e-10
7.535647612786182460e-11
5.128446941184778984e-11
3.491009342496730404e-11
2.390051215211074474e-11
1.625090091483626488e-11
1.106029363892127118e-11
7.568232272593165390e-12
5.255364561847582035e-12
3.712876920082546231e-12
2.678135922889665768e-12
1.974616056443690183e-12
1.484651444378736394e-12
1.132311588550512266e-12
