# bin_6_1
7.221323778987196831e-18
7.852597361330238098e-18
8.323534051157234512e-18
8.542113084254259701e-18
8.432214581549655047e-18
7.889324878377078933e-18
6.976629477811434063e-18
5.843290071688031946e-18
4.782348490332004029e-18
4.025538408380399817e-18
3.470307801210275776e-18
2.737697186593789685e-18
1.916956314537902101e-18
1.505987425458985442e-18
1.099362272652044634e-18
7.949891442609530669e-19
5.644818414811866512e-19
4.097853037404486644e-19
2.948791448251858573e-19
2.142187618292286280e-19
1.581004673186615887e-19
1.186811371573631382e-19
9.070313982374085781e-20
7.036833762787218971e-20
5.509927878178338660e-20
4.326575563887822995e-20
3.382992838126178063e-20
2.616496405716763466e-20
1.990374890578020632e-20
1.482362276370047653e-20
1.077211699193582391e-20
