# bin_8_3
5.535082117083040485e-16
6.147179835378154734e-16
6.688127047075704667e-16
7.091362279100814634e-16
7.277306325223172484e-16
7.182736085298498018e-16
6.715227090447735749e-16
5.933396702251507175e-16
4.962880019969408261e-16
4.060152424616183250e-16
3.422993457100555549e-16
2.955827012872496368e-16
2.322850142030650384e-16
1.614581518938288300e-16
1.277251067055029303e-16
9.198105334238236950e-17
6.659816325386915354e-17
4.633253556701310160e-17
3.332465896218909826e-17
2.358848990854355498e-17
1.677125111171585011e-17
1.208044739509378702e-17
8.830953194452917439e-18
6.577726522090691703e-18
4.989266999159314662e-18
3.839115508196844118e-18
2.981869123659712757e-18
2.321623107548413562e-18
1.799063984675917171e-18
1.378527527509767122e-18
1.038962174979390850e-18
