# bin_5_8
1.097605683201209159e-07
1.207735202287304205e-07
1.299113336477201073e-07
1.357940467689746389e-07
1.370732167647165536e-07
1.321913005013228012e-07
1.204634753324189940e-07
1.038257258177196791e-07
8.559847485731220374e-08
7.060715122373967341e-08
6.052947180037310519e-08
5.086828522182629291e-08
3.745515785750664925e-08
2.704946563214022751e-08
2.146252733127783132e-08
1.475903796042736240e-08
1.098837227248208338e-08
7.732090910806732753e-09
5.502821544200427351e-09
3.944486824552865570e-09
2.852821826435613561e-09
2.093906764432962130e-09
1.562743537665119740e-09
1.188092404561532485e-09
9.166207407963327447e-10
7.138558726185269389e-10
5.576476868517621489e-10
4.338295936657498605e-10
3.339408897485713402e-10
2.529234074359510141e-10
1.876667828254952839e-10
