# bin_2_6
3.547775193492231653e-07
3.675063013465953094e-07
3.670754553980824094e-07
3.497674186112760887e-07
3.155205498898320285e-07
2.699466129427042041e-07
2.229568563531223808e-07
1.852684891578496872e-07
1.577958641518159670e-07
1.293670127375462760e-07
9.579757391814936513e-08
7.099854755788064554e-08
5.455330377520643218e-08
3.919313160815058237e-08
2.886176634454696213e-08
2.095507709288861028e-08
1.538565298891095054e-08
1.142175700646299698e-08
8.616364981887421086e-09
6.616236917292725770e-09
5.161811873024674667e-09
4.075548672987647460e-09
3.235075350983943877e-09
2.563282720747058225e-09
2.013436723713495318e-09
1.557992240297897480e-09
1.181387255278575886e-09
8.744397937793821460e-10
6.303280457525354320e-10
4.423310167011198164e-10
3.025836685435206071e-10
