# bin_9_6
2.312729533190513608e-11
2.595552959175531750e-11
2.860418964668753920e-11
3.081624888806692391e-11
3.226395733913704280e-11
3.262164850769843222e-11
3.151527964919172053e-11
2.874313650284295862e-11
2.478855471395893953e-11
2.041160937098070653e-11
1.681002372241339454e-11
1.444601061065417848e-11
1.220675471605229256e-11
8.937358682652756595e-12
6.394555955797073838e-12
5.146523242574313232e-12
3.438209922006288067e-12
2.588077171378994250e-12
1.790794933881746109e-12
1.244365757256058674e-12
8.734502502841936131e-13
6.146410928131292197e-13
4.369693167680036268e-13
3.150561743029335101e-13
2.317171497409237574e-13
1.736512940163505031e-13
1.322907681076931429e-13
1.019850303080916473e-13
7.901416452653205585e-14
6.107714082849252050e-14
4.678097327891359848e-14
