# bin_2_1
6.869822179714531238e-09
6.914979301344420190e-09
6.655226381108931963e-09
6.065334730966926532e-09
5.235582110978240666e-09
4.334388510848605151e-09
3.581749883728810101e-09
3.048270964360535535e-09
2.543610332579108297e-09
1.909813373521476988e-09
1.394935928804498410e-09
1.086809015011921689e-09
7.822411956417399830e-10
5.792648938563283107e-10
4.220091816116498997e-10
3.118312701786601236e-10
2.330365961396313219e-10
1.771190572045325006e-10
1.371051585297181039e-10
1.078223645004737293e-10
8.576170980700413365e-11
6.851316310668032176e-11
5.456766889807571338e-11
4.302703277366970240e-11
3.337654461604342092e-11
2.533685857223194017e-11
1.875144592791241903e-11
1.350335173163232971e-11
9.462243376518444109e-12
6.463871421604926858e-12
4.317178025801345414e-12
