# bin_7_2
7.901774570724502256e-17
8.697645964524082655e-17
9.359600326551423373e-17
9.788201620117256119e-17
9.886001411454988368e-17
9.539345615582159614e-17
8.693034157536385828e-17
7.491419555683797046e-17
6.168952463163463021e-17
5.082643733126935653e-17
4.363936781627911391e-17
3.679118160905159317e-17
2.698537266165568477e-17
1.940833801262841675e-17
1.555953037958730619e-17
1.055411415765741184e-17
7.946830137031893041e-18
5.580466364853754748e-18
3.957751488702118649e-18
2.839010280736191464e-18
2.053799091729510952e-18
1.507674656727813758e-18
1.125431147566908303e-18
8.560046193130956341e-19
6.607589579392514297e-19
5.148988197000943480e-19
4.024779500477864285e-19
3.132943799093691977e-19
2.412812385361370410e-19
1.828189875593349076e-19
1.356894531705974026e-19
