# bin_2_8
4.194114606528884136e-07
4.348179726084892264e-07
4.347529533082799343e-07
4.148013821649399390e-07
3.747080844913192207e-07
3.209862393374740528e-07
2.652380091043826647e-07
2.202670505344629061e-07
1.875578985984517976e-07
1.540880467465238634e-07
1.143525455938894968e-07
8.459293647336305361e-08
6.506362732763446459e-08
4.676711176364845980e-08
3.442684476715510434e-08
2.498894030855796309e-08
1.834027734978436627e-08
1.360552427195213029e-08
1.025541496359772490e-08
7.868375780159434818e-09
6.134233409176504801e-09
4.840750345258159806e-09
3.841419674469752057e-09
3.043685649150704011e-09
2.391380856154911485e-09
1.851332135690486694e-09
1.404764963520017037e-09
1.040628312016561356e-09
7.507940709632123092e-10
5.273399470928348032e-10
3.610362869229251815e-10
