# bin_13_7
3.211237442033417923e-16
3.651275856923199300e-16
4.088794343420701879e-16
4.492440525745154452e-16
4.820335834718160026e-16
5.019611670374078853e-16
5.043440952525763795e-16
4.826118380771724788e-16
4.358313526608626689e-16
3.720464472914024472e-16
3.051452972915510957e-16
2.528532426515791443e-16
2.185812796792120403e-16
1.814948094084383727e-16
1.291943996938549960e-16
9.532542844585633959e-17
7.478566064759869137e-17
4.999754782990691517e-17
3.667245061194124818e-17
2.554171699464012119e-17
1.742854436616052451e-17
1.191290692640469522e-17
8.140591816855641458e-18
5.600459131688978582e-18
3.891573929652238451e-18
2.751132383862651328e-18
1.982353764902235957e-18
1.458862804688078153e-18
1.094996451028303984e-18
8.345588026728634503e-19
6.415562414928105593e-19
