# bin_9_5
3.731770907602197766e-14
4.184216200049593193e-14
4.605965443694751269e-14
4.955189865796906484e-14
5.178758197368103732e-14
5.225655160917871731e-14
5.033486042675111338e-14
4.576619788803485759e-14
3.934605853582435460e-14
3.235472886865844863e-14
2.668850444786172357e-14
2.297636056194678169e-14
1.932109001996854905e-14
1.403058355930249101e-14
1.012656093867951710e-14
8.106838372865509731e-15
5.417238705652425718e-15
4.063871424882683018e-15
2.827579242216888693e-15
1.964560548652080488e-15
1.379111902650755158e-15
9.716274398250813757e-16
6.923597323791079755e-16
5.006642767976520437e-16
3.693338617672353614e-16
2.775470635255960710e-16
2.119200135917813707e-16
1.636105246901742772e-16
1.268280072734232188e-16
9.800119409680145637e-17
7.497655977762426779e-17
