# bin_9_6
1.110009651920417561e-12
1.247188050227849429e-12
1.376377179388022526e-12
1.485374062978142386e-12
1.558536649053692683e-12
1.579677648917347651e-12
1.531618258730055794e-12
1.402195592279662534e-12
1.213912741658275299e-12
1.001333922729861151e-12
8.231587926257463448e-13
7.057677327248697305e-13
5.996931772227693665e-13
4.435382879886605994e-13
3.142179558009879757e-13
2.541908855789812795e-13
1.700346344681669800e-13
1.283056362123531401e-13
8.818803900771358972e-14
6.130493803413944717e-14
4.300209564418488300e-14
3.020214702531022197e-14
2.139892289568497237e-14
1.536282968415604945e-14
1.124913771387071961e-14
8.395530281228643878e-15
6.373944247276048715e-15
4.902581122054307271e-15
3.794733910045851870e-15
2.934410523970497267e-15
2.251026183549269918e-15
