# bin_9_2
1.477455172279493977e-22
1.646964269189367916e-22
1.800105238510301905e-22
1.919529537998926623e-22
1.983729076689353195e-22
1.975572483848412974e-22
1.868293364410305939e-22
1.668686997971366286e-22
1.409193414642750374e-22
1.153281318690038244e-22
9.634799992050793780e-23
8.336976975096476303e-23
6.747685997483227872e-23
4.725422588500199220e-23
3.621223115086286747e-23
2.730924969764359034e-23
1.901443615006763350e-23
1.358018185604608788e-23
9.735363208732174107e-24
6.830589316292158585e-24
4.816604147280694608e-24
3.437190609072361428e-24
2.488568513576349742e-24
1.833790492576564125e-24
1.377516765400023187e-24
1.051700160941068813e-24
8.126917246536958385e-25
6.315600726806418969e-25
4.900196244268351574e-25
3.769870089564345552e-25
2.859030436777769462e-25
