# bin_11_6
3.014864669975594411e-15
3.409313858227558397e-15
3.791738460538147342e-15
4.131217566496190423e-15
4.386632125574509707e-15
4.508087899271467861e-15
4.457465166351001919e-15
4.174851034243132332e-15
3.694748485700431779e-15
3.093326102714385995e-15
2.530171007183786751e-15
2.131872805747588449e-15
1.844238212067958724e-15
1.453890221645059376e-15
1.005991845990350640e-15
7.949360535087522108e-16
5.714630733388716889e-16
4.102056798478572315e-16
2.807155525336266909e-16
1.996296310385665853e-16
1.381720819453787727e-16
9.539734366353595589e-17
6.637794229213593445e-17
4.660806185829214020e-17
3.325859055543969187e-17
2.419644907821107607e-17
1.795011032704147923e-17
1.356423131980244923e-17
1.039055179631635573e-17
8.015800325508182360e-18
6.180964945247906929e-18
