# bin_8_6
9.464817441309765890e-12
1.060063541611065522e-11
1.165343865604283155e-11
1.251611769179759028e-11
1.305316199121436854e-11
1.313970141361181258e-11
1.261239521074086625e-11
1.142745840703197320e-11
9.789289520466874459e-12
8.039253869520329426e-12
6.645379432279119288e-12
5.730745484075960385e-12
4.788825924802765460e-12
3.447424620824282519e-12
2.515862354303356941e-12
1.996676590120930636e-12
1.339383571935035254e-12
9.978839974309653058e-13
6.989465512009655712e-13
4.861291982103653736e-13
3.413530389428999949e-13
2.409605610082847146e-13
1.722252934972969778e-13
1.250065888492688167e-13
9.255882302266571815e-14
6.978985854477690174e-14
5.343051193997280500e-14
4.131782087498405197e-14
3.204454772759741529e-14
2.474593323864596322e-14
1.890280829694207172e-14
