# bin_8_2
4.458166699180689911e-20
4.942620643387778936e-20
5.366158615449864435e-20
5.674652843800727587e-20
5.805089295305264518e-20
5.705169720595526976e-20
5.306154929353893703e-20
4.665284734907355875e-20
3.887171041832351529e-20
3.181743014949207870e-20
2.693545459948767791e-20
2.320142040429423611e-20
1.797666129673664088e-20
1.250967986138398455e-20
9.999263184376633302e-21
7.060621079177579646e-21
5.194468039333672463e-21
3.594363592604722385e-21
2.577744820331351187e-21
1.831484596997196985e-21
1.307536045644061013e-21
9.454469569336695519e-22
6.939427340450936584e-22
5.191549920915310178e-22
3.952979003881730357e-22
3.050748705347081121e-22
2.373735290035093353e-22
1.848927875582973239e-22
1.431577659775932878e-22
1.094848433261342864e-22
8.228682985247094865e-23
