# bin_7_3
6.144578746152672882e-15
6.791505228672906262e-15
7.345808058337013861e-15
7.731708291821841795e-15
7.866360784823779665e-15
7.671570692880467230e-15
7.071518962933481402e-15
6.163904624254991665e-15
5.105926682583979694e-15
4.187433195024971887e-15
3.568984419679926647e-15
3.052868083173711861e-15
2.308032708091539637e-15
1.620557789262535407e-15
1.307674585345138646e-15
8.989950273205841602e-16
6.743254513741909488e-16
4.669986140113775719e-16
3.326764753067379703e-16
2.376434225589872982e-16
1.707591283484354069e-16
1.242830824606827358e-16
9.188222793451282710e-17
6.924966651370738963e-17
5.306032466257146201e-17
4.113938528960612370e-17
3.208845055992074675e-17
2.499749176618658323e-17
1.931675918421389140e-17
1.471767673201003791e-17
1.100397461842508589e-17
