# bin_15_10
5.643445354072279416e-14
6.452643450132075390e-14
7.277825981158941219e-14
8.066047307740749107e-14
8.748156710090853607e-14
9.233928891405238901e-14
9.420583997240846139e-14
9.220084519363596269e-14
8.526866290022025951e-14
7.455896757498641617e-14
6.183818515574682488e-14
5.066485906520811771e-14
4.315860327031179239e-14
3.709813283445874703e-14
2.816400885373495592e-14
1.955056991698816151e-14
1.584135173324474250e-14
1.072015042958058828e-14
8.003879197364628267e-15
5.357666344980475706e-15
3.686463763793500024e-15
2.520056662719678811e-15
1.707985206767043149e-15
1.152825192971380005e-15
7.789285455516796026e-16
5.322289749956856799e-16
3.690393751558624390e-16
2.608005470676396041e-16
1.885001471962188155e-16
1.393237386274866288e-16
1.049639437379026711e-16
