# bin_9_6
-3.280732373563510739e-10
-3.645895083739037621e-10
-3.969950489921551780e-10
-4.213662000013414204e-10
-4.330362609633207613e-10
-4.281031774020674402e-10
-4.012509192552052825e-10
-3.554131034030657303e-10
-2.981334221715046362e-10
-2.441204086281428197e-10
-2.053584842459100746e-10
-1.770891720804785921e-10
-1.400931709010025132e-10
-9.807119165802538225e-11
-7.659953096973194256e-11
-5.593697279853207763e-11
-4.000695978274728282e-11
-2.820187927090550461e-11
-2.018701764449151592e-11
-1.425519909417034969e-11
-1.012080321019044639e-11
-7.273359551071519751e-12
-5.304975178396865573e-12
-3.940936028569837374e-12
-2.981872064731357744e-12
-2.289667976413109152e-12
-1.775621720967973381e-12
-1.381283412272089222e-12
-1.070240281797277973e-12
-8.205231163791394160e-13
-6.191066042318882555e-13
