# bin_15_9
-2.548366680207017827e-10
-2.881938197223607795e-10
-3.205522334554946401e-10
-3.492967070555185700e-10
-3.709577991560106130e-10
-3.813556561870193731e-10
-3.771680499384332574e-10
-3.534624614133009277e-10
-3.130043112192592840e-10
-2.623075849260388268e-10
-2.146630899412109025e-10
-1.807661190332556868e-10
-1.562170352755258799e-10
-1.233442143595986511e-10
-8.568468660701471712e-11
-6.734321579793326207e-11
-4.863526872766140303e-11
-3.474994721071498562e-11
-2.397407401673019493e-11
-1.698186591206841355e-11
-1.174683031684689240e-11
-8.109700156421241288e-12
-5.637980759532058807e-12
-3.956127478162691733e-12
-2.820306738852347264e-12
-2.049666797224971674e-12
-1.518832564061413434e-12
-1.146420254651216207e-12
-8.772908174956205454e-13
-6.762318925998354688e-13
-5.211522563258240942e-13
