# bin_2_5
-9.114278432617350308e-15
-9.857515713424898855e-15
-1.037830435053213860e-14
-1.056644807719308134e-14
-1.031708647298832938e-14
-9.529630280297274489e-15
-8.323764953611512594e-15
-6.910070076684797721e-15
-5.667165924087529413e-15
-4.815920152751205597e-15
-4.117266556893149988e-15
-3.141505648661609947e-15
-2.215994124618316346e-15
-1.771830109610744691e-15
-1.246275134166748804e-15
-9.269880634799719805e-16
-6.535244617378381931e-16
-4.731267834315501112e-16
-3.430944027343098483e-16
-2.513274863923716860e-16
-1.870971501407134520e-16
-1.416687972606391522e-16
-1.091588800893688931e-16
-8.520853632530485964e-17
-6.696617910372062422e-17
-5.263473958208286693e-17
-4.108331530847107276e-17
-3.164362987952435605e-17
-2.392274285062149506e-17
-1.767690691515473706e-17
-1.273030321158013769e-17
