# bin_5_7
-1.103878786106000986e-12
-1.226721054183359165e-12
-1.335705337966529366e-12
-1.417610393302612297e-12
-1.456546183283175519e-12
-1.439835676835392791e-12
-1.348813270526796127e-12
-1.194062543259058933e-12
-1.000467244602547654e-12
-8.185499660901826285e-13
-6.889644967494263650e-13
-5.951201406893667817e-13
-4.701983491354250203e-13
-3.273009621554905629e-13
-2.573778720594121963e-13
-1.869770749429315350e-13
-1.343677442863180265e-13
-9.395788145605840675e-14
-6.754949941147822450e-14
-4.773934090247623028e-14
-3.389293365274160249e-14
-2.437567184537429084e-14
-1.779165596822271137e-14
-1.322929710082087402e-14
-1.001913951373258198e-14
-7.700095291672561714e-15
-5.976066450274448599e-15
-4.651653982133753414e-15
-3.605527263206976489e-15
-2.764629559491153359e-15
-2.085818031548822680e-15
