# bin_9_15
-1.028151120243646419e-16
-1.174268847089897405e-16
-1.322579584077340359e-16
-1.463347858160347028e-16
-1.583802281436725893e-16
-1.667417497188521222e-16
-1.696150198053001232e-16
-1.652871166761174878e-16
-1.521118812667246914e-16
-1.323675339741612057e-16
-1.094654165394254673e-16
-8.981385347707844129e-17
-7.678943532315358083e-17
-6.569350445701620298e-17
-4.918607156516728921e-17
-3.439376523414533940e-17
-2.793338304523045261e-17
-1.863980952910599298e-17
-1.401607531900259153e-17
-9.437348902838367927e-18
-6.449541236976296003e-18
-4.415331755639270228e-18
-2.998199901902804467e-18
-2.030455316691592443e-18
-1.378960203126699383e-18
-9.485950381157382903e-19
-6.629875807568808934e-19
-4.727020293938119427e-19
-3.446870547991781135e-19
-2.567637618101284601e-19
-1.945785586208057503e-19
