# bin_11_9
-1.152999083919734568e-10
-1.302897301178177476e-10
-1.447786914155856116e-10
-1.575739713837059282e-10
-1.670976656485856616e-10
-1.714688533414654112e-10
-1.691845359983232650e-10
-1.580743122640394486e-10
-1.395816174519520680e-10
-1.166844647441700360e-10
-9.549095736801751537e-11
-8.060865963583221865e-11
-6.960824427748889065e-11
-5.451687572159270229e-11
-3.781763774295978171e-11
-2.996129253223184754e-11
-2.136282033440993862e-11
-1.542625349934309665e-11
-1.057170840956140764e-11
-7.486914126375053282e-12
-5.190646651643484674e-12
-3.591864966433109761e-12
-2.503645899840569617e-12
-1.761944994123141374e-12
-1.260702186703894722e-12
-9.197086385484675287e-13
-6.840188090418427764e-13
-5.179033298296700502e-13
-3.971825016268288528e-13
-3.064761160956405775e-13
-2.361701866176798020e-13
