# bin_11_3
-1.418658938197715072e-09
-1.515125551247997114e-09
-1.570551834137712318e-09
-1.569700481397098062e-09
-1.495060116756892330e-09
-1.346653777063292707e-09
-1.148971221370983902e-09
-9.458726074779718142e-10
-7.861046098132248571e-10
-6.732572802762050063e-10
-5.521886842542827888e-10
-4.026842237356030469e-10
-2.993873179072128266e-10
-2.307798632819742986e-10
-1.631872956597934843e-10
-1.202015860916899274e-10
-8.643317767674710131e-11
-6.268784290885231652e-11
-4.594092932516940181e-11
-3.415238913065123488e-11
-2.583068769501505658e-11
-1.986878250934459790e-11
-1.550573100748295469e-11
-1.220386568243109023e-11
-9.621864717514672455e-12
-7.547281960647861879e-12
-5.850702079037582556e-12
-4.457215395007754205e-12
-3.321947604692036445e-12
-2.414389890921626253e-12
-1.708836667625999996e-12
