# bin_8_5
-4.395248034413970278e-10
-4.839331148399159668e-10
-5.209591934780415016e-10
-5.450921930261702313e-10
-5.508718050703360543e-10
-5.321210556911964254e-10
-4.857779717046544327e-10
-4.194189754332160134e-10
-3.460947899912693443e-10
-2.852665106448543432e-10
-2.442988399145705715e-10
-2.058008235731486316e-10
-1.522119523327070344e-10
-1.095269721333258424e-10
-8.701379364594774824e-11
-5.993398265966988693e-11
-4.460228629922092961e-11
-3.133825062474044546e-11
-2.231138408452191526e-11
-1.598094909719849877e-11
-1.154491892606288330e-11
-8.462441183366602628e-12
-6.306662549880463078e-12
-4.788164867067001937e-12
-3.690082286512228483e-12
-2.871720067730482169e-12
-2.242668051023633847e-12
-1.744961387819734248e-12
-1.343896647522243729e-12
-1.018722386658546170e-12
-7.567309839737647049e-13
