# bin_12_12
-2.129471953583587992e-11
-2.425818867003706587e-11
-2.723105067810694769e-11
-3.000804959304593795e-11
-3.231679239302636442e-11
-3.381038705737107066e-11
-3.415203586910637650e-11
-3.293433126836703558e-11
-2.997517195372082895e-11
-2.579395247168199780e-11
-2.121777896592287569e-11
-1.749762345616558526e-11
-1.506713777717173915e-11
-1.268973195488545371e-11
-9.215986449642399242e-12
-6.627677281499863206e-12
-5.311334593049599128e-12
-3.516890209454472540e-12
-2.627673318008377194e-12
-1.802739694551149743e-12
-1.227276132042829176e-12
-8.397362545586805774e-13
-5.717206147821798611e-13
-3.905523980709892236e-13
-2.687045977800485137e-13
-1.877966217462064905e-13
-1.336398860806677872e-13
-9.712276692674783496e-14
-7.210153625480166028e-14
-5.450367339274323322e-14
-4.170719968126472608e-14
