# bin_1_1
-4.601094297469397259e-10
-4.367859526245250209e-10
-3.934454533936210818e-10
-3.371637928397557421e-10
-2.797893252450636969e-10
-2.327337680007775088e-10
-1.964747787686352761e-10
-1.602190545864520553e-10
-1.206162998215615314e-10
-8.961187357814804380e-11
-6.830879790371122529e-11
-5.009349774399565393e-11
-3.694765726508185702e-11
-2.730335454443186095e-11
-2.039859221295103789e-11
-1.546722500943404988e-11
-1.194318798091304625e-11
-9.383538808286999040e-12
-7.471827186625647144e-12
-5.993800737396155500e-12
-4.808471396651123351e-12
-3.829665213558608462e-12
-3.008118857869634034e-12
-2.317236601921946061e-12
-1.743109223534071355e-12
-1.277111884368148674e-12
-9.106747647924544472e-13
-6.326196233944291731e-13
-4.291035734037249414e-13
-2.850450483373960011e-13
-1.860305354707036357e-13
