# bin_5_2
-1.406832189064630187e-09
-1.454716568039687145e-09
-1.449788616412791139e-09
-1.377594903926697616e-09
-1.239228993548079277e-09
-1.057714008250322481e-09
-8.730687520312943812e-10
-7.264961398211644756e-10
-6.187258629759563299e-10
-5.048830001974120740e-10
-3.726671258369195579e-10
-2.772571790029327568e-10
-2.123912205200546382e-10
-1.526363964793221776e-10
-1.124009194850329021e-10
-8.168187811713847569e-11
-6.002384304014596233e-11
-4.462313278024739460e-11
-3.371799647804579079e-11
-2.593260471233381776e-11
-2.026023111401230127e-11
-1.601209497793813900e-11
-1.271558978962860857e-11
-1.007409236466316989e-11
-7.908284522506813910e-12
-6.112921712776917236e-12
-4.628688885265296354e-12
-3.420351563782705659e-12
-2.461139674114276938e-12
-1.724108794422823300e-12
-1.177548249425929552e-12
