# bin_14_4
-1.100766008572051886e-09
-1.197957755585161726e-09
-1.271133504622673431e-09
-1.306548463755947126e-09
-1.291874459981453806e-09
-1.212399760370859021e-09
-1.075562745971017480e-09
-9.045898373395302965e-10
-7.418211538895011402e-10
-6.227854206754020123e-10
-5.350359846698004051e-10
-4.252553648017587410e-10
-3.017299883325998320e-10
-2.327083422260586155e-10
-1.726843612093928319e-10
-1.233261199620590460e-10
-8.886495375347234493e-11
-6.401260860811700118e-11
-4.596201928368318516e-11
-3.334790940433513230e-11
-2.454917926996188906e-11
-1.837779719759930891e-11
-1.400273678382381744e-11
-1.083470623307939275e-11
-8.466234727470967280e-12
-6.638890497903337146e-12
-5.188162393136944810e-12
-4.013598531593804559e-12
-3.056109476357411958e-12
-2.279820731008040473e-12
-1.660553702715859672e-12
