# bin_5_5
-7.973703983126528607e-11
-8.741690959207018775e-11
-9.360474038355793859e-11
-9.728400421743907754e-11
-9.754515281494524912e-11
-9.317942486278134035e-11
-8.407594850414606769e-11
-7.175214581688163404e-11
-5.890955508832913916e-11
-4.884528135370717433e-11
-4.207415202267867105e-11
-3.479904012508768719e-11
-2.502521805137521398e-11
-1.852863067495254210e-11
-1.448055094190208060e-11
-9.961225515884171773e-12
-7.372250553051431848e-12
-5.249980407344835179e-12
-3.734918985166438900e-12
-2.687055835503911080e-12
-1.955555155451041302e-12
-1.446074653804076384e-12
-1.088080581580178832e-12
-8.333466439459377609e-13
-6.466286854197014368e-13
-5.054288292195931283e-13
-3.953041136411171049e-13
-3.071732358017340269e-13
-2.356746713126577046e-13
-1.776017544304069985e-13
-1.309256469389802695e-13
