# bin_4_5
-1.472626651189141966e-11
-1.608776857662576352e-11
-1.715113331558417173e-11
-1.772739625060208492e-11
-1.765766971540748539e-11
-1.671536383896179391e-11
-1.494877855921989891e-11
-1.264809066306545757e-11
-1.036168729039005162e-11
-8.644754272305442129e-12
-7.460403220925705981e-12
-6.054521850949427034e-12
-4.285721306814735536e-12
-3.259693104771931030e-12
-2.480731989994142214e-12
-1.736037865939833930e-12
-1.262512876407480208e-12
-9.093430149968017275e-13
-6.494154420766295431e-13
-4.688015100567415658e-13
-3.431833600908380615e-13
-2.554768670620733848e-13
-1.935996023806199710e-13
-1.491702051837296597e-13
-1.162567556267980138e-13
-9.109145427101996395e-14
-7.126162451340704930e-14
-5.527618069956907555e-14
-4.225989500958710977e-14
-3.168728692016805693e-14
-2.321476621200761772e-14
