# bin_13_15
-1.898537951356527469e-12
-2.173732151912658365e-12
-2.455823521532464472e-12
-2.727306067752811124e-12
-2.965301861709720772e-12
-3.139662078003574350e-12
-3.214733743186103863e-12
-3.162363670842149558e-12
-2.942346283952248764e-12
-2.587725132696574644e-12
-2.155011659446367725e-12
-1.763624766180643568e-12
-1.495013397294315291e-12
-1.290376441556828720e-12
-9.967049559134968456e-13
-6.884799910512719638e-13
-5.531247514889041862e-13
-3.834802519681766471e-13
-2.815869129521492211e-13
-1.882193669081661386e-13
-1.310158054340343476e-13
-8.924045347133254598e-14
-6.020752611325542886e-14
-4.047869091810671852e-14
-2.719519963917045901e-14
-1.843244121803415466e-14
-1.265678325454917935e-14
-8.844885609858619600e-15
-6.318859217185796735e-15
-4.620065094391715121e-15
-3.450480724628001477e-15
