# bin_4_15
-4.953842743489628825e-30
-5.642657474769657011e-30
-6.333314950541219534e-30
-6.978035326981847388e-30
-7.513373581276482233e-30
-7.858596886988727305e-30
-7.935721344568103953e-30
-7.649271870139746522e-30
-6.958373275804677658e-30
-5.984555029094991343e-30
-4.921321820218813311e-30
-4.059242852270826022e-30
-3.496880243259682805e-30
-2.943301714320522840e-30
-2.133949217507098245e-30
-1.536656104507629457e-30
-1.231147098594084495e-30
-8.144350049334683463e-31
-6.086161627991484649e-31
-4.179381107351474253e-31
-2.844528629778821640e-31
-1.946112708677830448e-31
-1.324910027441240591e-31
-9.054202381823080784e-32
-6.233224749761573986e-32
-4.359631303866814129e-32
-3.105020178101153206e-32
-2.258594089516837554e-32
-1.678144720496229054e-32
-1.269463434104103740e-32
-9.719092923233393402e-33
