# bin_4_7
-3.355223934686965675e-14
-3.718199083867993316e-14
-4.034658299996168937e-14
-4.263776497613469233e-14
-4.358510114937237000e-14
-4.278830539041366972e-14
-3.974698918549834509e-14
-3.490569907636069213e-14
-2.906191905734902000e-14
-2.379489846181734980e-14
-2.016184359977875173e-14
-1.734893335069778323e-14
-1.339873420662347410e-14
-9.337570278272085324e-15
-7.470700053861736505e-15
-5.258463462801161480e-15
-3.877429672990408829e-15
-2.684854149623637495e-15
-1.923787264177718753e-15
-1.368003706773858927e-15
-9.776795251530972234e-16
-7.077229005465590842e-16
-5.201116502043303410e-16
-3.895998229089579598e-16
-2.969716532879460435e-16
-2.293744209177741490e-16
-1.785488145432505009e-16
-1.390783468840990774e-16
-1.076498015375167334e-16
-8.227724535080631478e-17
-6.178418510590837385e-17
