# bin_8_8
-3.924652375253208226e-11
-4.406902874774879501e-11
-4.859690830352683419e-11
-5.239633344347434259e-11
-5.491243681895236098e-11
-5.558485984584817635e-11
-5.379078506069423850e-11
-4.915533450751729432e-11
-4.247548312623475534e-11
-3.501616206602235768e-11
-2.881899879935562388e-11
-2.472898275824890102e-11
-2.094081513654037683e-11
-1.542301627065544438e-11
-1.099254125793275158e-11
-8.846126742774329087e-12
-5.936244157475131161e-12
-4.459332219097091944e-12
-3.076571613831927402e-12
-2.141289330522528452e-12
-1.502092347926532509e-12
-1.056058141753761942e-12
-7.495861097562400071e-13
-5.393577903564560695e-13
-3.958139144007816249e-13
-2.960098223291599368e-13
-2.251013121045679797e-13
-1.733117013367177282e-13
-1.341862682485499745e-13
-1.037221668510458891e-13
-7.948856947905056122e-14
