# bin_15_10
8.708509559194237340e-08
8.345365127646273157e-08
7.807129990602806157e-08
7.115313811228575758e-08
6.309042298600597378e-08
5.442077855603844771e-08
4.575279816623801251e-08
3.764819086999372252e-08
3.047578463226649777e-08
2.434333311881873974e-08
1.914717520304872197e-08
1.474125993033227920e-08
1.110175777259085057e-08
8.280509801454973388e-09
6.187069610186914630e-09
4.602167686382618711e-09
3.422883868401508358e-09
2.564595902028024713e-09
1.932394942354397008e-09
1.467006822027773697e-09
1.120518620936274804e-09
8.589354698204327548e-10
6.586277178040826005e-10
5.033774140527356505e-10
3.820873317148281979e-10
2.870890545257845584e-10
2.129514984273640242e-10
1.556057933859844854e-10
1.118363415427926216e-10
7.898599453746027126e-11
5.479987088062689423e-11
