# bin_10_6
6.472125449403490055e-08
6.040494609321308393e-08
5.492432791958347418e-08
4.858944671346399333e-08
4.182133975255510401e-08
3.509227652418765906e-08
2.883256712105606793e-08
2.331606829487254436e-08
1.861313122851495532e-08
1.463275502277448659e-08
1.126153781316842593e-08
8.488838609856946178e-09
6.354176321482676392e-09
4.771922548010934807e-09
3.571132309889625987e-09
2.680633481279224756e-09
2.028902215048314313e-09
1.546885182315585889e-09
1.188604426528120202e-09
9.186478957263134414e-10
7.118681175399702804e-10
5.509795639374350316e-10
4.242661617145804702e-10
3.237882121276700567e-10
2.440883550028185090e-10
1.812674686655732216e-10
1.323363514010815767e-10
9.484526013668677986e-11
6.668231125552339913e-11
4.598704891467396454e-11
3.112656160898482200e-11
