# bin_9_3
2.981658968083065916e-14
3.332872033217997933e-14
3.655015853964282208e-14
3.913779709002296058e-14
4.066048570382110156e-14
4.074927059770593124e-14
3.886738246031148375e-14
3.500287243629125831e-14
2.980151019487407900e-14
2.443637536264113840e-14
2.029365407139399096e-14
1.754016077341953659e-14
1.446798922516641374e-14
1.027378726373519145e-14
7.662906467289180034e-15
5.959180290492990615e-15
4.052031397731749032e-15
2.967347539232570510e-15
2.103469034649913802e-15
1.468193021248857876e-15
1.032298176100192912e-15
7.321205071000652308e-16
5.264302982382244193e-16
3.848307916092416741e-16
2.869111842129280790e-16
2.176500789793602306e-16
1.674089372223295518e-16
1.297998162188738339e-16
1.007197056545598547e-16
7.766359800248374513e-17
5.913871301329990450e-17
