# bin_14_9
4.058866621047986864e-09
4.631264758071739523e-09
5.209825093416153190e-09
5.755831402146951000e-09
6.218290995304165919e-09
6.531658288798133657e-09
6.627121847868197087e-09
6.433485477805986978e-09
5.895866848235742928e-09
5.109144153920055326e-09
4.215645397927322576e-09
3.464281583337311840e-09
2.970714517936564715e-09
2.528631329229391628e-09
1.870989198254709418e-09
1.319627443201362361e-09
1.070194409880989805e-09
7.087801890666582267e-10
5.338951158931157384e-10
3.618372496925163548e-10
2.464493764851354462e-10
1.687666659377906707e-10
1.146980293413404047e-10
7.791558831822792347e-11
5.316352548036424120e-11
3.678889968222715648e-11
2.588888683398232857e-11
1.859604627204567798e-11
1.365753013756728511e-11
1.023597627735139624e-11
7.790418994059503140e-12
