# bin_7_7
4.499017276818637889e-06
5.042034755668786870e-06
5.546945188785450486e-06
5.963085634905291774e-06
6.226193993519687233e-06
6.275921806154486982e-06
6.035504406296747996e-06
5.479622772655077532e-06
4.703974858222098227e-06
3.867222593142402450e-06
3.194407366991717718e-06
2.752428090552697194e-06
2.307001199008137346e-06
1.668828255200704793e-06
1.211800141288079473e-06
9.653284802274008914e-07
6.470434829269360870e-07
4.834598652497709605e-07
3.376009552190554014e-07
2.347896366999097596e-07
1.648907257403999156e-07
1.163306953563101565e-07
8.305054249080667671e-08
6.019174682049525185e-08
4.450124974443093236e-08
3.350855568068275666e-08
2.562575354515609716e-08
1.980304616271807003e-08
1.535535649946938713e-08
1.186097171217273402e-08
9.066174201396634108e-09
