# bin_9_2
6.683162822011685503e-18
7.457074495481123844e-18
8.160017104849258486e-18
8.714029799891993792e-18
9.021962183826505199e-18
9.004736990230666405e-18
8.540939472053649209e-18
7.650738585178061409e-18
6.479534953150351961e-18
5.307078852359392507e-18
4.425482511925857549e-18
3.828543858026606877e-18
3.118898172774401314e-18
2.193926112094866611e-18
1.666654751719324749e-18
1.270172051907460660e-18
8.772255470349013587e-19
6.317915597728706401e-19
4.514927240965884730e-19
3.162543985963690079e-19
2.227870009458758794e-19
1.586772326799522105e-19
1.146450875193507454e-19
8.427544279437472068e-20
6.316263966088378507e-20
4.813068614133680240e-20
3.714182670196485493e-20
2.884520367754854409e-20
2.238255477951368416e-20
1.723246740892072981e-20
1.308573588649878548e-20
