# bin_7_6
2.809596021359680290e-06
3.139040273333345807e-06
3.440436266232298120e-06
3.681333079131821245e-06
3.821040593898483107e-06
3.825219494434896376e-06
3.643123056167561853e-06
3.276222092565683075e-06
2.785446380853372296e-06
2.283262960594195005e-06
1.898220843557853359e-06
1.641125048686192258e-06
1.349288195051112507e-06
9.556583251266508357e-07
7.162625869627730577e-07
5.541070459992387900e-07
3.782649337706506407e-07
2.758073854595098910e-07
1.959451362630421533e-07
1.368910698823796489e-07
9.629424675846352371e-08
6.836907012054272526e-08
4.922338524120088741e-08
3.603681341420023317e-08
2.690528606194262961e-08
2.043510329205096854e-08
1.573203248075480954e-08
1.220335589180353459e-08
9.469449107469819296e-09
7.298843100975662998e-09
5.553783606766736252e-09
