# bin_9_7
8.393064124902770931e-07
9.460063828022075304e-07
1.047961711664319134e-06
1.136239513953437751e-06
1.199184100817228206e-06
1.223577224202162615e-06
1.197873822960730087e-06
1.108618799881568778e-06
9.701511754710134913e-07
8.054533104447172772e-07
6.600779544012738201e-07
5.617224924820050684e-07
4.826903101409369147e-07
3.678151596446674947e-07
2.560058554607028873e-07
2.067991949884175560e-07
1.416921798377581846e-07
1.056417658243668702e-07
7.175837244997665714e-08
5.035131215568769200e-08
3.517661997934814815e-08
2.456299130140115647e-08
1.726311508123788845e-08
1.226600756892897652e-08
8.879193574648150170e-09
6.553905630503519250e-09
4.927825682251775589e-09
3.763895221692982294e-09
2.902831486978469089e-09
2.244530495231724449e-09
1.727213671462586727e-09
