# bin_1
0.000000000000000000e+00
3.412766612432089346e-14
7.532870972232572511e-10
9.136044413628488418e-07
1.625959340152659249e-04
6.805788139358329679e-03
9.319627137699681985e-02
5.391808924527166091e-01
1.624627236388477947e+00
3.034232925239560341e+00
4.009683377582361707e+00
4.041770916249749490e+00
3.182611711724248504e+00
1.965187436901370210e+00
9.594822338413713236e-01
3.771560651527618990e-01
1.222725114031991966e-01
3.355283625854577761e-02
7.991951257723730120e-03
1.691019009498347407e-03
3.244801828481099003e-04
5.749755046678820181e-05
9.558280693633091677e-06
1.511107738675702253e-06
2.298722625557404933e-07
3.398761906039704968e-08
4.926486782692585123e-09
7.052319753139815918e-10
1.003300379170728044e-10
1.426118493278797094e-11
2.034596455638474429e-12
2.924628024746461065e-13
4.249571172260660244e-14
6.258793906662935522e-15
9.364907526450867266e-16
1.426308882559758336e-16
2.214661734938777824e-17
3.510326949097367684e-18
5.685776966779971113e-19
9.418844536701513737e-20
1.596815916888240862e-20
2.771894404170793201e-21
4.928549398501911703e-22
8.978156576994008197e-23
1.675876643455496718e-23
3.205584751941701275e-24
6.283101550111340438e-25
1.261845426333862949e-25
2.596232840638015041e-26
5.471503477318161933e-27
1.180860344764232402e-27
2.609205374454581724e-28
5.900829070813643334e-29
1.365463808621520848e-29
3.231982708026171306e-30
7.822261191712823011e-31
1.935163458409106143e-31
4.891799640209808416e-32
1.263065745704803380e-32
3.329876058502765327e-33
8.960086115056045850e-34
2.459885052625449083e-34
6.887670539439025681e-35
1.966172562165677640e-35
5.720055100647092918e-36
1.695301232120972515e-36
5.116840418615139442e-37
1.572197781667233993e-37
4.915941826567225340e-38
1.563675446385727983e-38
5.057957682724581239e-39
2.894516374805970738e-39
