# bin_9_3
6.398210166298409201e-26
7.188029322364106575e-26
7.932980193913475210e-26
8.562558882530527396e-26
8.987059523745804642e-26
9.122031479852841633e-26
8.853163729606175291e-26
8.150710947734295536e-26
7.096984289800084657e-26
5.922147884267381193e-26
4.904693259529377501e-26
4.169349121337851881e-26
3.484607440646862973e-26
2.636435299724111758e-26
1.958133317933598191e-26
1.466924921076612199e-26
1.070783805976375971e-26
7.477827924722554442e-27
5.456175335703438366e-27
3.775894451896859659e-27
2.616589269197543216e-27
1.831055241235681676e-27
1.289775112898094262e-27
9.201043919794988780e-28
6.671657603659113566e-28
4.926496226773980609e-28
3.698044608796516861e-28
2.811682542300730886e-28
2.153117979690986817e-28
1.649809394684869174e-28
1.256911234417636917e-28
