# bin_8_7
2.548223104167941190e-06
2.864163937681095362e-06
3.162228809185095527e-06
3.414478065011643350e-06
3.585070866027338596e-06
3.636362281004847465e-06
3.529512051444283637e-06
3.234295634833738912e-06
2.802712699114953255e-06
2.312228999618507185e-06
1.899242209635594119e-06
1.627905326100038994e-06
1.386422923604513450e-06
1.027387246516306821e-06
7.245300570970716549e-07
5.891548602570386649e-07
3.921675327230001571e-07
2.975227651502923956e-07
2.040251596530262148e-07
1.415425723122606496e-07
9.937502721121585132e-08
6.980989910547320962e-08
4.943741354649059349e-08
3.546770827985925225e-08
2.595518588269695770e-08
1.936132233896527809e-08
1.469419932420406218e-08
1.130104058768611902e-08
8.748591913337863928e-09
6.767631254787644987e-09
5.194260672522628826e-09
