# bin_10_4
2.190632213317614112e-21
2.497081380789660308e-21
2.805454051789095131e-21
3.094712999036425384e-21
3.337012309645558639e-21
3.496827481400999687e-21
3.538486343134350630e-21
3.421165122447441525e-21
3.121321158031615170e-21
2.692765612420500539e-21
2.216613019814704743e-21
1.824718887459845203e-21
1.569531386449211184e-21
1.328548575853405709e-21
9.705837504486280085e-22
6.909494948057779577e-22
5.597679281260780007e-22
3.675737037447763075e-22
2.774937859337193017e-22
1.895190357136495473e-22
1.287005585055057287e-22
8.811424544712937076e-23
5.987140114573108330e-23
4.080321660957690764e-23
2.798195424419924850e-23
1.948540445232376974e-23
1.381062619692402788e-23
9.996307567681241138e-24
7.395090256097621122e-24
5.576211557760261800e-24
4.261925044873137939e-24
