# bin_12_9
2.670326919021786538e-07
3.037751175944325350e-07
3.403941633127233527e-07
3.742914706184629963e-07
4.020017947734666759e-07
4.191420853204726121e-07
4.217308005248360091e-07
4.043838356198869939e-07
3.659164896688142566e-07
3.130077791957745250e-07
2.568855169607756609e-07
2.125719168284948294e-07
1.836126795325892153e-07
1.530716334256019230e-07
1.094828361028209745e-07
8.022068361863052859e-08
6.335365203571617088e-08
4.218409124829687074e-08
3.113288643634981188e-08
2.159740359392173893e-08
1.472331285373342032e-08
1.006550431909706065e-08
6.869361055467382059e-09
4.716869506951016146e-09
3.269091420038710447e-09
2.304274070905919191e-09
1.655124192264913182e-09
1.214266565140890868e-09
9.090006793109565788e-10
6.914992459042931684e-10
5.310828065815323925e-10
