# bin_1_1
2.217322999536893729e-05
2.191983767402651620e-05
2.060561166517520536e-05
1.832505889965123724e-05
1.547150512111093872e-05
1.271264212716490300e-05
1.063634387477088197e-05
9.090728238636407402e-06
7.285749069284211304e-06
5.268575728458945202e-06
4.005171275139393972e-06
3.038876197058697034e-06
2.185998133039800189e-06
1.620865599838459973e-06
1.191461396248866841e-06
8.859981204182561101e-07
6.702453234340395190e-07
5.163828553408990000e-07
4.048347498625123961e-07
3.216980079902991458e-07
2.575560255050705180e-07
2.061780103091199806e-07
1.638287581667334326e-07
1.283528271424429821e-07
9.857486459236608986e-08
7.387952124410156123e-08
5.389176286601869512e-08
3.823356868890072173e-08
2.641578962077551677e-08
1.782000357918198280e-08
1.177628031389742909e-08
