# bin_2_2
1.395186847111057069e-05
1.451520583005742601e-05
1.457908801863451094e-05
1.397237240422793963e-05
1.265653624269850216e-05
1.084763779117538547e-05
8.923708740542551438e-06
7.378716440186047925e-06
6.331334522628342091e-06
5.271573719811641918e-06
3.853638736962396032e-06
2.828274602089363324e-06
2.230114865266971307e-06
1.558567054152265521e-06
1.168022238917112077e-06
8.427515485966613401e-07
6.162201973206548256e-07
4.569742768289331716e-07
3.442134184717752700e-07
2.639919663196501254e-07
2.058081741789370947e-07
1.625422530238461663e-07
1.291554761117638007e-07
1.025130073436364079e-07
8.070941913486131305e-08
6.261764539336108950e-08
4.760957680323389727e-08
3.532374703167485127e-08
2.550612742840043683e-08
1.791553023581348165e-08
1.225827037781479080e-08
