# bin_15_8
5.550340517361272049e-12
6.337352241758994173e-12
7.135220618622114684e-12
7.891255764036656432e-12
8.536280786749397515e-12
8.980961653711131557e-12
9.128736637114746903e-12
8.886043807049855325e-12
8.167580440384376039e-12
7.098696679689843193e-12
5.866400472479949427e-12
4.815277907268337144e-12
4.120726452434412255e-12
3.520346614096675579e-12
2.626548329808325568e-12
1.840811264825035096e-12
1.495042431488004711e-12
9.948690572728617795e-13
7.488549793321990494e-13
5.051351569699064722e-13
3.447694890971949478e-13
2.360738108351944609e-13
1.603546551964900242e-13
1.086941413813487227e-13
7.391792521044438915e-14
5.093781142958314679e-14
3.567372911650329370e-14
2.549159353690383207e-14
1.862854842623618964e-14
1.390282234004140508e-14
1.055001868672126495e-14
