# bin_10_9
2.792521402983516926e-06
3.166167917124869011e-06
3.532652068748073932e-06
3.864115188398893672e-06
4.123151669708796837e-06
4.263026775868419602e-06
4.247813029952063286e-06
4.017689180749787440e-06
3.588263837739279788e-06
3.028601377494386787e-06
2.477666459559842188e-06
2.071029076110731949e-06
1.794868429676916011e-06
1.452680306153053143e-06
1.010822131909074348e-06
7.766360356123822304e-07
5.829511003968626054e-07
4.028276526889413620e-07
2.830353701574465489e-07
2.014584750164007869e-07
1.383960291016876453e-07
9.471996332498174159e-08
6.534704413102691473e-08
4.546480145410120206e-08
3.206003055765479509e-08
2.303555678497019737e-08
1.688142023569924154e-08
1.262324587701919931e-08
9.597841933951936164e-09
7.377186858372378537e-09
5.690026228385950185e-09
