# bin_9_6
8.064173517367459075e-10
9.069537837441244146e-10
1.002074080790120245e-09
1.082989898725599608e-09
1.138391163538421855e-09
1.156140937472445362e-09
1.124307867460217039e-09
1.032374472772165833e-09
8.964541777880875572e-10
7.403344726466853704e-10
6.075843428446817602e-10
5.200650675427757257e-10
4.441124961761963188e-10
3.309710427779625543e-10
2.322810911425273695e-10
1.891763913218259689e-10
1.261994418357244527e-10
9.575272560703304051e-11
6.542250396411517621e-11
4.541424757759773011e-11
3.187879303607443727e-11
2.238283549113640088e-11
1.582532163763841341e-11
1.132939927971459603e-11
8.272293204452535436e-12
6.157686105061306484e-12
4.664942695575726807e-12
3.583298204529230736e-12
2.772426403996313581e-12
2.144937438544791800e-12
1.647485261354873023e-12
