# bin_10_7
1.847049177173329267e-09
2.087165491730948544e-09
2.319158799202151328e-09
2.523943938952166940e-09
2.676193507479429053e-09
2.745351321333685556e-09
2.708366979130021905e-09
2.529116853770329224e-09
2.232022876869862452e-09
1.863769540304803736e-09
1.524185292025891459e-09
1.287495339983550142e-09
1.113540419384269988e-09
8.704364603010600287e-10
6.007019608311705679e-10
4.795102523449890099e-10
3.396265028119035734e-10
2.471987878101098158e-10
1.673267967190040169e-10
1.190338403312288067e-10
8.259501410563552196e-11
5.720386937662656861e-11
3.991426703513637263e-11
2.810668560374445271e-11
2.013118154887701300e-11
1.470260168662195075e-11
1.094806821971040173e-11
8.299729500595613996e-12
6.372490697559223103e-12
4.921927932749581140e-12
3.795442123433595222e-12
