# bin_3_3
1.026516245599497176e-05
1.099045850563366597e-05
1.142432992878802458e-05
1.146070561558086804e-05
1.095700696534857274e-05
9.894187744528450807e-06
8.450116007166453766e-06
6.935666654128970817e-06
5.742772666034398056e-06
4.945910215923876459e-06
4.103982694818413522e-06
2.957987066439289687e-06
2.185713278058346787e-06
1.721503365636440420e-06
1.186689865762453300e-06
8.874353223301894127e-07
6.381625118191000717e-07
4.601479670499830286e-07
3.367823671558101082e-07
2.500411202258088928e-07
1.889365452413492371e-07
1.452349480438591408e-07
1.133512017017569053e-07
8.926822753534477286e-08
7.046201235447190949e-08
5.535775757005933807e-08
4.299413581350705339e-08
3.282047719111545685e-08
2.450892270588859436e-08
1.784079721233852938e-08
1.263909342021567863e-08
