# bin_7_2
9.271638179558618036e-23
1.021426299380340012e-22
1.100324301722314192e-22
1.152242989029939659e-22
1.165487665065563052e-22
1.126909256692468868e-22
1.028652884890548671e-22
8.879674438021348032e-23
7.312029323905276213e-23
6.014139113226497214e-23
5.163501487362424987e-23
4.374133055227017627e-23
3.215334581877125865e-23
2.293421387244353801e-23
1.858763181845268736e-23
1.246777625580922049e-23
9.492881173564709780e-24
6.639214656518977112e-24
4.691805108824111715e-24
3.367644862718048736e-24
2.434275927010083938e-24
1.784773426263409072e-24
1.330498888043263013e-24
1.010957486719181374e-24
7.798342864929396913e-25
6.075186234915628896e-25
4.749571742828264710e-25
3.699210651428801472e-25
2.851447999868324294e-25
2.162987997627018162e-25
1.607498409867071506e-25
