# bin_6_2
5.075603470806848508e-17
5.549360367111240071e-17
5.921937498556959474e-17
6.127363186326864688e-17
6.112948833155320734e-17
5.795177551422697899e-17
5.187995052044210241e-17
4.390488730225787973e-17
3.592503038791783911e-17
2.993009013205010415e-17
2.589738879168358385e-17
2.112207278078577146e-17
1.485005990493277796e-17
1.130000895820141164e-17
8.659467665875300661e-18
6.008387062864274429e-18
4.370823437556725087e-18
3.168207406518077235e-18
2.258625499990394941e-18
1.626057395662000414e-18
1.189044729733212420e-18
8.847493433666905735e-19
6.702355540825475099e-19
5.163701203130329558e-19
4.024929616590554622e-19
3.154985937620063817e-19
2.469749485786787952e-19
1.917240080752108075e-19
1.467076754066580676e-19
1.101082341544319064e-19
8.073904203017868304e-20
