# bin_12_6
9.407668320999628826e-12
1.066546332851187403e-11
1.189889351844329877e-11
1.301391897111353891e-11
1.388453225652895969e-11
1.435382647310404753e-11
1.429933979214529992e-11
1.352269813755459661e-11
1.207610129733205349e-11
1.019360644912871405e-11
8.341145284808599414e-12
6.973153787920934558e-12
6.040531247382197751e-12
4.884745193797344391e-12
3.404867052351931485e-12
2.614615867415020822e-12
1.960618317071396707e-12
1.356973308285616073e-12
9.546557334825793080e-13
6.775691099053790812e-13
4.655803776830590046e-13
3.190295241300980969e-13
2.201078402446212161e-13
1.531410741521548227e-13
1.079977411908187541e-13
7.760135494675491275e-14
5.686911530440154712e-14
4.252003080991518548e-14
3.232282031775758246e-14
2.483709281036066971e-14
1.915017700324507602e-14
