# bin_8_4
2.007980868882623436e-14
2.238846962967632010e-14
2.447660162696581839e-14
2.610852895255220174e-14
2.699015345476338151e-14
2.689337049680549684e-14
2.544328321022693375e-14
2.273110427927305969e-14
1.919423372267810351e-14
1.570075267116186323e-14
1.311129970170552352e-14
1.135699090302099393e-14
9.208903532920026590e-15
6.427624774550896000e-15
4.929965795120118160e-15
3.726463511872401167e-15
2.586368880048914566e-15
1.844491764909616063e-15
1.328297477608040782e-15
9.315883291253008938e-16
6.558310004761154874e-16
4.679678870748591680e-16
3.388539012727051046e-16
2.497235218380548828e-16
1.876200541031467187e-16
1.432760153324053623e-16
1.107491209001072516e-16
8.609525333443452201e-17
6.682335039060120587e-17
5.142529027867066339e-17
3.901047738983042693e-17
