# bin_12_9
-1.584744725743759868e-10
-1.791644137409186378e-10
-1.992062382540755974e-10
-2.169680757549945591e-10
-2.302868974117979861e-10
-2.365687333691243359e-10
-2.337454884769379951e-10
-2.187848996588602246e-10
-1.935306120135289983e-10
-1.620436207361880174e-10
-1.326535589158317828e-10
-1.118615162896860158e-10
-9.663904240415513979e-11
-7.601330904718768933e-11
-5.278408239604388146e-11
-4.165506648626845947e-11
-2.989792591625443151e-11
-2.147734793485974044e-11
-1.476862833881812654e-11
-1.046312301712052071e-11
-7.246397071638874596e-12
-5.008812364050880941e-12
-3.487032225574767749e-12
-2.450606862962961439e-12
-1.750374195663177416e-12
-1.274603114073906420e-12
-9.462938599928787812e-13
-7.154213632933866433e-13
-5.480995825823140417e-13
-4.227299790132568185e-13
-3.257859764054646458e-13
