# bin_9_7
-1.864313623937335454e-10
-2.085766834077229816e-10
-2.289867021795571538e-10
-2.455333838780170381e-10
-2.555378866652323600e-10
-2.566061658693306695e-10
-2.455014270728127885e-10
-2.217997654717811045e-10
-1.894860840334545939e-10
-1.556053325971092041e-10
-1.289966236518434380e-10
-1.112697984433144151e-10
-9.226304902400718110e-11
-6.615313078495589507e-11
-4.882285074299446375e-11
-3.822745880539245512e-11
-2.595354635475756012e-11
-1.911606314866366855e-11
-1.345076774721045290e-11
-9.384060822295503880e-12
-6.598473161901140282e-12
-4.671775281396228017e-12
-3.349622310371931402e-12
-2.440067126650086865e-12
-1.812865421483928365e-12
-1.370908997529103761e-12
-1.051769489021659299e-12
-8.141539940402838520e-13
-6.313578904905425001e-13
-4.870094162911897051e-13
-3.712993965531184452e-13
