# bin_7_1
-3.028218043880202994e-09
-2.965556987414928522e-09
-2.766423703699162853e-09
-2.449367275428582697e-09
-2.072957424455518547e-09
-1.717810542106691928e-09
-1.437687840219233178e-09
-1.205648801197399046e-09
-9.578929487708309069e-10
-7.122800372720333211e-10
-5.347576663440840838e-10
-4.031698798674855082e-10
-2.942179265564489455e-10
-2.170251587848285861e-10
-1.600549818044347795e-10
-1.195149171696488994e-10
-9.060122400956658757e-11
-6.990762318067536006e-11
-5.483665580165072607e-11
-4.354836398502294497e-11
-3.480126992772949645e-11
-2.778334028048551931e-11
-2.200216812966188519e-11
-1.717429322848489876e-11
-1.314323556237160839e-11
-9.822055395199520751e-12
-7.151062959609722815e-12
-5.069272474070304004e-12
-3.502611790552226160e-12
-2.364327066510211398e-12
-1.563806523309966198e-12
