# bin_3_4
-1.758498086256812421e-11
-1.890872809729073637e-11
-1.976314495192685198e-11
-1.995227356160096756e-11
-1.925125149253571930e-11
-1.755812717909049619e-11
-1.514850656227695293e-11
-1.249906600657519658e-11
-1.030706012113499170e-11
-8.825324833548443272e-12
-7.422462708895500513e-12
-5.491746901948140930e-12
-3.968591121225996128e-12
-3.152721894904175451e-12
-2.189290526347726578e-12
-1.637557524949095401e-12
-1.164831410887360104e-12
-8.414490642475711901e-13
-6.136736943955610134e-13
-4.530521227187929743e-13
-3.401460996306527392e-13
-2.597797039003286061e-13
-2.016530593048690065e-13
-1.582242267319104897e-13
-1.246726490342309434e-13
-9.797645548018155492e-14
-7.626355233287553455e-14
-5.844615136033205826e-14
-4.388065802753606055e-14
-3.215273391528424692e-14
-2.294358349772330930e-14
