# bin_9_5
-5.274207277393466839e-10
-5.810036253545195574e-10
-6.258440843708802177e-10
-6.553406838938599477e-10
-6.628895438066930282e-10
-6.411236372147277160e-10
-5.861081757048468999e-10
-5.067743568148275029e-10
-4.185805612706947241e-10
-3.449587425900643021e-10
-2.952538171820883681e-10
-2.490817612295621198e-10
-1.848016341291903063e-10
-1.327498339194675324e-10
-1.055059235332216107e-10
-7.279279376501975190e-11
-5.413919314758210690e-11
-3.801939769054064648e-11
-2.707618848063732907e-11
-1.938535501923295823e-11
-1.399490912163920646e-11
-1.025008514123038546e-11
-7.632140131746371079e-12
-5.789608959676878020e-12
-4.458828161491395460e-12
-3.468397239680041032e-12
-2.708155600051411545e-12
-2.107350974958364360e-12
-1.623556181363764615e-12
-1.231396933889387355e-12
-9.153727356241853302e-13
