# bin_10_6
-3.973086917108980917e-10
-4.417259428231831905e-10
-4.812453454244423086e-10
-5.111263226873952637e-10
-5.257072051256376669e-10
-5.202504291110615556e-10
-4.882587328994012808e-10
-4.330587043986371846e-10
-3.637232475784898784e-10
-2.979436092249204542e-10
-2.504803585303250947e-10
-2.160471770707423845e-10
-1.713918800700744652e-10
-1.201243555165057994e-10
-9.357158344070175421e-11
-6.860230521834543174e-11
-4.892566661183845255e-11
-3.456405763986884968e-11
-2.473002339737802044e-11
-1.745160322143412043e-11
-1.238259748560622727e-11
-8.891453014809789745e-12
-6.479157812340311712e-12
-4.808225712369390634e-12
-3.634669173814632238e-12
-2.788780386920219879e-12
-2.161577634667299003e-12
-1.681189582809386905e-12
-1.302746508518277753e-12
-9.991505719217896911e-13
-7.543316012122426717e-13
