# bin_8_2
-1.907525755417668037e-09
-1.976164101408708841e-09
-1.974069300219846173e-09
-1.881381011728032125e-09
-1.697813227005756593e-09
-1.453362680156978387e-09
-1.201177745807689929e-09
-9.984616177583391574e-10
-8.500755668822354400e-10
-6.968072071362766026e-10
-5.167148040918699094e-10
-3.830276592213798404e-10
-2.940811484088668959e-10
-2.115533031695927142e-10
-1.556965838216898534e-10
-1.130868792894825266e-10
-8.303545678752104286e-11
-6.164137274612366916e-11
-4.649974621323676053e-11
-3.570352220986621713e-11
-2.785305920613483147e-11
-2.198988003839416490e-11
-1.745396133956869272e-11
-1.382889015186192029e-11
-1.086223985357055165e-11
-8.405217712999368185e-12
-6.373706857670615164e-12
-4.718051856077538231e-12
-3.401351081909633584e-12
-2.387259434607885921e-12
-1.633328940024810756e-12
