# bin_5_8
-5.423922335780434018e-14
-6.057358008762885299e-14
-6.635529827075288568e-14
-7.095588548254949489e-14
-7.358885647332831565e-14
-7.359822223637613849e-14
-7.000214424750722677e-14
-6.287287888406688758e-14
-5.338807143388387337e-14
-4.375114940522279984e-14
-3.640811403349081673e-14
-3.148396923065095109e-14
-2.580981719206918126e-14
-1.823956164860756092e-14
-1.372937135513704785e-14
-1.057115140415148973e-14
-7.242582547236971860e-15
-5.260453790127657242e-15
-3.744339408820565902e-15
-2.618034637111728202e-15
-1.842436433572297710e-15
-1.309432547281126001e-15
-9.438117226781570690e-16
-6.918793681429224551e-16
-5.172026360047794534e-16
-3.932435123828560437e-16
-3.029749000271001094e-16
-2.351101101951572541e-16
-1.824386143225226458e-16
-1.405690357450199709e-16
-1.068909098081446706e-16
