# bin_14_6
-5.810410630661065077e-10
-6.462843957244830381e-10
-7.044873509076560809e-10
-7.487370220066571406e-10
-7.707382558596554648e-10
-7.635524399527648098e-10
-7.175838178792722519e-10
-6.372989957149530192e-10
-5.358884667664778892e-10
-4.390060345182873217e-10
-3.686857545672166291e-10
-3.180755367227850006e-10
-2.531921989034227502e-10
-1.776453489317527902e-10
-1.378798469238074005e-10
-1.015904063932160303e-10
-7.217257211160777677e-11
-5.112517933663393067e-11
-3.655265039191747362e-11
-2.577122629340775717e-11
-1.827108148834048152e-11
-1.310582879063205498e-11
-9.539014958005783743e-12
-7.069775314094941861e-12
-5.337945913434601761e-12
-4.091742790421284950e-12
-3.169476572862131091e-12
-2.464463955506160100e-12
-1.909925056311359893e-12
-1.465487784195582467e-12
-1.107200458730008270e-12
