# bin_9_11
-1.716903972144835823e-12
-1.947583961791993508e-12
-2.174394789261543642e-12
-2.380260119306872352e-12
-2.542285989525615647e-12
-2.631875198777283616e-12
-2.626251431102468885e-12
-2.489162479686098615e-12
-2.227826861797568176e-12
-1.884713522698939813e-12
-1.543252832677153463e-12
-1.288418213425094134e-12
-1.115928497352435596e-12
-9.068504202628420097e-13
-6.343583061967464784e-13
-4.838750726239450348e-13
-3.658666064439126581e-13
-2.515846142419136898e-13
-1.783380176524852802e-13
-1.262383225061819899e-13
-8.664010449697340009e-14
-5.933081179833350636e-14
-4.086578037605570131e-14
-2.838058135133167839e-14
-1.996636563830269028e-14
-1.430908981396310071e-14
-1.045809271232566273e-14
-7.800114135889741715e-15
-5.918166793036078975e-15
-4.542313738777042707e-15
-3.501138622359213357e-15
