# bin_2_8
-7.136954232348763719e-22
-7.915530552170590514e-22
-8.597828019661898420e-22
-9.097346753935257459e-22
-9.313038771831859848e-22
-9.160985228169814301e-22
-8.529988163961997275e-22
-7.508541287396809049e-22
-6.262844286233656334e-22
-5.127708478420219380e-22
-4.338525093994373620e-22
-3.738350240586643251e-22
-2.904197963991650597e-22
-2.022019724016704710e-22
-1.612843263250763583e-22
-1.143299784021856641e-22
-8.386726198573829304e-23
-5.812784883182229964e-23
-4.170858466405432283e-23
-2.961937243914323394e-23
-2.113518849595943500e-23
-1.527536234340498642e-23
-1.120667901140295866e-23
-8.379409474777333932e-24
-6.377197524402968947e-24
-4.919788450550120731e-24
-3.827113357979613480e-24
-2.980807313261378766e-24
-2.308212501577028386e-24
-1.765731939271426031e-24
-1.327581600338460650e-24
