# bin_12_7
-3.529461796567114106e-10
-3.952149743615057546e-10
-4.343493682984521433e-10
-4.663507060034838047e-10
-4.861656497447444151e-10
-4.891469629868550113e-10
-4.692825011322284106e-10
-4.251827381821730263e-10
-3.642822198362127295e-10
-2.994733595331232633e-10
-2.478511028166452318e-10
-2.135162710089354658e-10
-1.779424880838836846e-10
-1.284652242566129643e-10
-9.402571203599360474e-11
-7.408324370866784409e-11
-5.019146388453906873e-11
-3.712450194444047983e-11
-2.600162027481106010e-11
-1.813457567321491070e-11
-1.274262344934696196e-11
-9.005823837719449930e-12
-6.441128123026500709e-12
-4.678044268152110751e-12
-3.465201221148114043e-12
-2.613395420234852745e-12
-2.000745340661138633e-12
-1.546718796638313970e-12
-1.198957844661861753e-12
-9.252640359722195681e-13
-7.062756562852933211e-13
