# bin_13_15
-1.893631041907494239e-12
-2.168329819232365454e-12
-2.450009347905572233e-12
-2.721229049181803632e-12
-2.959185914543960566e-12
-3.133812438337386020e-12
-3.209517242702108036e-12
-3.158173789460751092e-12
-2.939562044518588332e-12
-2.586394198933546742e-12
-2.154886879412281284e-12
-1.764082031112216522e-12
-1.495515121267525085e-12
-1.290884663965746995e-12
-9.976230803470985408e-13
-6.894062348639528366e-13
-5.537363569685795713e-13
-3.841633288736838316e-13
-2.820133643571044345e-13
-1.885714758231515821e-13
-1.312924496628023170e-13
-8.943236454846516932e-14
-6.033826610682668051e-14
-4.056847308704650451e-14
-2.725565709501465601e-14
-1.847287220990817141e-14
-1.268366614712045296e-14
-8.862714684031853834e-15
-6.330775052555965342e-15
-4.628166910476496628e-15
-3.456131590709250763e-15
