# bin_7_4
-6.121873558609091471e-10
-6.655539390820355055e-10
-7.052939410974700732e-10
-7.237977577247236842e-10
-7.141948366546510717e-10
-6.685154889158702605e-10
-5.915914207512862113e-10
-4.965536102732406688e-10
-4.072928634158940057e-10
-3.426946746301368119e-10
-2.942229253859629341e-10
-2.323248824551054861e-10
-1.646017529363478601e-10
-1.277531274462882135e-10
-9.403605634673828365e-11
-6.755295683930454939e-11
-4.850473818566513017e-11
-3.500125018848670553e-11
-2.517013530158292252e-11
-1.829139381004223017e-11
-1.349257878300650566e-11
-1.012222702183406160e-11
-7.728898614055210140e-12
-5.990537852597518789e-12
-4.686467368888562666e-12
-3.676948362967182828e-12
-2.873154821854325924e-12
-2.221144570827464085e-12
-1.689213371018107585e-12
-1.258057812571957991e-12
-9.145188720982396894e-13
