# bin_11_1
-3.413486354428663004e-09
-3.346610009976233994e-09
-3.125959151470510786e-09
-2.771203529953698889e-09
-2.347450667423013185e-09
-1.945430528346446987e-09
-1.627518258839384624e-09
-1.365638066010765920e-09
-1.087112713920387004e-09
-8.089853809926761999e-10
-6.068306810342037490e-10
-4.578992380641660832e-10
-3.341568599924931125e-10
-2.464314710943792642e-10
-1.816778989808344790e-10
-1.355891130787391340e-10
-1.027166846029234767e-10
-7.920008155000989911e-11
-6.208710672485955874e-11
-4.928356354269962108e-11
-3.937514009361423659e-11
-3.143495236285996292e-11
-2.489967916963795911e-11
-1.944440976164075827e-11
-1.488940734003384217e-11
-1.113491633690678981e-11
-8.113152276711131057e-12
-5.755703850274765734e-12
-3.979745808839874713e-12
-2.688093993647861564e-12
-1.778895010870654700e-12
