# bin_8_12
-1.343837187986472805e-14
-1.525993793951163633e-14
-1.705969202602993972e-14
-1.870518422421369974e-14
-2.001886176448749455e-14
-2.077765428504332377e-14
-2.079682334597404794e-14
-1.979329740705760056e-14
-1.778456851022819267e-14
-1.510370382833484772e-14
-1.237564287644078773e-14
-1.029915425735795825e-14
-8.916592508802554449e-15
-7.316523548457975888e-15
-5.151373224252053501e-15
-3.875406919793393541e-15
-2.979068882215261360e-15
-2.021502134763240579e-15
-1.454358221072040429e-15
-1.023548432630766044e-15
-7.006660237970055887e-16
-4.791491683652077095e-16
-3.288611514192137930e-16
-2.274810782073644285e-16
-1.592096437789494377e-16
-1.134546857699200533e-16
-8.243959845029989714e-17
-6.115769260195542855e-17
-4.620695311208720047e-17
-3.537279508654997089e-17
-2.724321922598600499e-17
