# bin_8_10
-1.434990343937465788e-12
-1.622120789427616593e-12
-1.803245082132197416e-12
-1.963575646340068610e-12
-2.083492012124976173e-12
-2.139381686108753177e-12
-2.112868865044027712e-12
-1.976111191599951429e-12
-1.746720763335693231e-12
-1.461128463317979214e-12
-1.195713348144794714e-12
-1.009024644134457565e-12
-8.722455707723703767e-13
-6.846041376995598435e-13
-4.740707857854121793e-13
-3.759113216363951644e-13
-2.684323642362081304e-13
-1.937953834950759489e-13
-1.324147655679225816e-13
-9.401425001462994928e-14
-6.516248516490469299e-14
-4.506759176122188441e-14
-3.140356949838404851e-14
-2.208763139907500782e-14
-1.579382847643738423e-14
-1.151453606156107868e-14
-8.559010151466473676e-15
-6.478215173606868350e-15
-4.967777552670209048e-15
-3.834015193070409944e-15
-2.955770395323994081e-15
