# bin_12_6
-5.019448890013846475e-10
-5.582226548661576276e-10
-6.083823911751953682e-10
-6.464463710305857075e-10
-6.652531455640300608e-10
-6.588116523534978268e-10
-6.188600149040413991e-10
-5.493740793794781737e-10
-4.617717406304817625e-10
-3.782789613504872040e-10
-3.177985904794281485e-10
-2.741525777847336966e-10
-2.179773486445380997e-10
-1.528826321434170273e-10
-1.188052188658158604e-10
-8.738909418522114727e-11
-6.216480510765156924e-11
-4.399564031311467427e-11
-3.146303192804073389e-11
-2.218964226423368296e-11
-1.573609911220901040e-11
-1.129154787637180137e-11
-8.221752855988032155e-12
-6.096183544881923368e-12
-4.604689777504870222e-12
-3.530821261566141781e-12
-2.735579239801646116e-12
-2.127266930028381996e-12
-1.648536766701998056e-12
-1.264731226610971709e-12
-9.552916260088192471e-13
