# bin_11_4
-9.574097091573112565e-10
-1.041889520012053820e-09
-1.105450994202965499e-09
-1.136145170459212875e-09
-1.123233359953988010e-09
-1.053954963673821396e-09
-9.349073169272321475e-10
-7.863015397878358230e-10
-6.450229060950248251e-10
-5.417851192828814787e-10
-4.654202091912615202e-10
-3.696133408285016389e-10
-2.622801357336795072e-10
-2.024874999236710508e-10
-1.500921865510154604e-10
-1.073012029952530530e-10
-7.728458406905598451e-11
-5.569038614938717746e-11
-3.999847398210360696e-11
-2.902983929085768950e-11
-2.137814837166935687e-11
-1.600985255845640830e-11
-1.220300197515261395e-11
-9.445040691751520035e-12
-7.381982476544686517e-12
-5.789399635458400050e-12
-4.524428066154899991e-12
-3.499906881183471126e-12
-2.664575754847051715e-12
-1.987308480066051373e-12
-1.447097757418104314e-12
