# bin_3_5
-8.365215999284470278e-13
-9.098393891280456719e-13
-9.646549590238421092e-13
-9.903446377571692105e-13
-9.779798152383914464e-13
-9.155769868098731782e-13
-8.102176195823571492e-13
-6.791867566492673210e-13
-5.561885252145698963e-13
-4.680966981464965652e-13
-4.033633280521447574e-13
-3.185719961580520247e-13
-2.235268410020723083e-13
-1.751708205339846457e-13
-1.282043558296030883e-13
-9.252424418787894955e-14
-6.586381700179655535e-14
-4.777176035507374645e-14
-3.436554940250628937e-14
-2.496221347996173785e-14
-1.841803799996934345e-14
-1.382239274068540146e-14
-1.056080405798669918e-14
-8.191129860847486945e-15
-6.412586408537694253e-15
-5.034850710103962429e-15
-3.936751556073640914e-15
-3.045011088403396363e-15
-2.316696574748508956e-15
-1.725773612930275678e-15
-1.254457729241585468e-15
