# bin_4_7
-3.348905836234517323e-14
-3.711750577032831434e-14
-4.028374280122807459e-14
-4.258042742125168444e-14
-4.353761027047928606e-14
-4.275533544517201773e-14
-3.973232136657334132e-14
-3.490867005830961870e-14
-2.907800550694054671e-14
-2.381536823120282889e-14
-2.018037357183585873e-14
-1.736633249392530113e-14
-1.341984067071227655e-14
-9.355737038368409825e-15
-7.483413510140952888e-15
-5.270884343334909652e-15
-3.885491155375039210e-15
-2.691152217109564686e-15
-1.928505718626142956e-15
-1.371296191093177127e-15
-9.799538079825949113e-16
-7.092955493220595654e-16
-5.211989242304843949e-16
-3.903585307480931801e-16
-2.975109418111123292e-16
-2.297670043560819137e-16
-1.788438154880511499e-16
-1.393067896533110403e-16
-1.078306671142658608e-16
-8.242188167137086377e-17
-6.189953448787665498e-17
