# bin_1_3
-5.765154541818814103e-13
-5.976237985444330403e-13
-5.975760142689880255e-13
-5.694559594300020267e-13
-5.131360204350232479e-13
-4.378403414284413520e-13
-3.601593329035964161e-13
-2.990718395768960351e-13
-2.565098094563705864e-13
-2.109744942710369762e-13
-1.535256595389043405e-13
-1.142467812255009365e-13
-8.866475495486950114e-14
-6.267600851276443847e-14
-4.657368266027209413e-14
-3.378612936252134138e-14
-2.476412569966484961e-14
-1.840561984949660135e-14
-1.390496007949257097e-14
-1.069563600927985156e-14
-8.359906941310508939e-15
-6.613278592982064131e-15
-5.258112400259765707e-15
-4.171692927288345085e-15
-3.279791091112747663e-15
-2.538880600826529250e-15
-1.924758297909044547e-15
-1.423370025984050424e-15
-1.024325757189649100e-15
-7.172554614631847019e-16
-4.894578410078988484e-16
