# bin_7_7
-4.801114468951762722e-11
-5.359547751773950652e-11
-5.868093791844794981e-11
-6.270968593111178674e-11
-6.498658605094772786e-11
-6.493130716028406745e-11
-6.168485794192894853e-11
-5.534343580982550890e-11
-4.695209110656212593e-11
-3.847898424281821690e-11
-3.205148471543041067e-11
-2.770656907806805956e-11
-2.264387558713508301e-11
-1.599921084971590034e-11
-1.207900643181206923e-11
-9.255461764453649582e-12
-6.369715594651822076e-12
-4.613010086430843613e-12
-3.283242538443930920e-12
-2.297815537531507833e-12
-1.618636210660896681e-12
-1.151508553298449516e-12
-8.307365456093950615e-13
-6.096078308159350799e-13
-4.561227630607435951e-13
-3.470598886305476109e-13
-2.675165577052536276e-13
-2.076207471308623063e-13
-1.610765222474343780e-13
-1.240512975903708534e-13
-9.426648709297081078e-14
