# bin_6_10
1.055158119149161059e-07
1.174244168431704043e-07
1.280791100961256600e-07
1.362268749977146416e-07
1.403351034204406277e-07
1.392018542551358308e-07
1.309610131728793961e-07
1.163996794848578290e-07
9.785790763537916878e-08
8.005580227521865535e-08
6.715436411119343346e-08
5.808320388121075966e-08
4.640473514091483883e-08
3.234049987504144888e-08
2.516877482289029407e-08
1.858999822718349002e-08
1.317417675349456211e-08
9.282196739858241938e-09
6.674825020198574158e-09
4.701907892505306178e-09
3.327069974598851898e-09
2.384521113528921791e-09
1.734162453330401708e-09
1.284342443397339390e-09
9.692323027200943995e-10
7.427793159069741169e-10
5.754322971390653185e-10
4.476365924113639128e-10
3.471560066630143170e-10
2.666034653357567650e-10
2.016167548771554509e-10
