# bin_3_7
2.451935787205391078e-07
2.621323586850247234e-07
2.720036726986588539e-07
2.722624067266647712e-07
2.596182027378722981e-07
2.339390654047874490e-07
1.994670940154485762e-07
1.638224850558159857e-07
1.359533310194177103e-07
1.169165172046385896e-07
9.634435524275562887e-08
6.955851116213432918e-08
5.173257806847613719e-08
4.024903954396094674e-08
2.810178117132237824e-08
2.083506157512193831e-08
1.499071385915012037e-08
1.084362823592682466e-08
7.945932418889141216e-09
5.907575518007743645e-09
4.469185341204847989e-09
3.439047962469798810e-09
2.685719541540822543e-09
2.115505245911275187e-09
1.669401410957481742e-09
1.310653663902320892e-09
1.016891021702240905e-09
7.752593569374904559e-10
5.780902312960087034e-10
4.202074023286966325e-10
2.973170498286692887e-10
