# bin_7_5
8.368636112304318421e-12
9.312726515679349109e-12
1.015711023281255797e-11
1.080225059960582045e-11
1.112557093226756317e-11
1.103458281125182326e-11
1.037699004494381470e-11
9.218992697565559013e-12
7.743952810314209910e-12
6.331745485286729411e-12
5.313227336986280094e-12
4.600224693956008004e-12
3.672945237409530041e-12
2.548993131192508541e-12
1.992510409129690353e-12
1.468231831442042361e-12
1.042525403701698846e-12
7.295988644886507306e-13
5.275192866828003339e-13
3.716910558810977006e-13
2.628050715405500379e-13
1.884832788116727670e-13
1.371561416419674064e-13
1.016488467739885869e-13
7.676155636517353594e-14
5.886442853096917298e-14
4.562830817609592307e-14
3.551003683689469444e-14
2.754623028106988183e-14
2.115614396621284597e-14
1.599778875225164272e-14
