# bin_8_1
1.110955286702391455e-45
1.228894005033192433e-45
1.330477639511634140e-45
1.402055510083427807e-45
1.428272064779733925e-45
1.395607608292754410e-45
1.288760298613865610e-45
1.125408603561047507e-45
9.326150049224475781e-46
7.638857709838908473e-46
6.505246084092277097e-46
5.585125978993462945e-46
4.239114775269410136e-46
2.955196991582676237e-46
2.399724044177440256e-46
1.642738093263112682e-46
1.240058573986517336e-46
8.528027638925132673e-47
6.071709574859253458e-47
4.341520615186663957e-47
3.121476556082163964e-47
2.269928544529826444e-47
1.676109021746092226e-47
1.262013439698647068e-47
9.662746585420107963e-48
7.488880377107265813e-48
5.841337235455188828e-48
4.552247428337486896e-48
3.520173392655916563e-48
2.684533087927042582e-48
2.009356905710429413e-48
