# bin_14_10
9.167617434941382340e-12
1.046241458273373227e-11
1.177223294238631450e-11
1.300973976194464689e-11
1.406001155829437070e-11
1.477513727238272747e-11
1.499857308080393956e-11
1.457125101255145717e-11
1.336455984656485308e-11
1.159078228024372622e-11
9.567934772132618731e-12
7.860119101843373732e-12
6.736378631983549903e-12
5.739721938587301461e-12
4.256872449240102953e-12
2.997115002161989202e-12
2.431528161379879502e-12
1.612581341165975765e-12
1.214412776379775489e-12
8.219536214745331252e-13
5.601688963875928052e-13
3.835902601793216021e-13
2.606608341383098196e-13
1.769624404884159469e-13
1.206333707019811910e-13
8.338084748018339366e-14
5.859812773176431454e-14
4.203068458032738833e-14
3.082619736726384023e-14
2.307665379844021461e-14
1.754899008997028084e-14
