# bin_2_9
4.538493482347977661e-07
4.710651746236282315e-07
4.717239848361146835e-07
4.505453530269175941e-07
4.070066376502950593e-07
3.481762170591885184e-07
2.867723590678585099e-07
2.378184188258587382e-07
2.035629182667834572e-07
1.679801779140292097e-07
1.232074460826203374e-07
9.114112735447702115e-08
7.077768398480067411e-08
5.023353193526362243e-08
3.725491147122826443e-08
2.696073610181222296e-08
1.977419190394288101e-08
1.467691043221730436e-08
1.106822851983201944e-08
8.498155595876199613e-09
6.631064498370946199e-09
5.238668934676249342e-09
4.161815127196428090e-09
3.301037064872236642e-09
2.596009619920806117e-09
2.011180810475517769e-09
1.526645341842018128e-09
1.130850131222291950e-09
8.154078488787767563e-10
5.721310617884550968e-10
3.911853782419811185e-10
