# bin_5_3
3.257531250841340496e-12
3.548771392071799808e-12
3.770073794862465309e-12
3.879034684751169936e-12
3.843000036587778217e-12
3.610207337805388277e-12
3.204557817155114578e-12
2.690521225513609317e-12
2.199903398674641675e-12
1.846054513494131322e-12
1.596420619985653881e-12
1.273028382727509317e-12
8.871310727945554321e-13
6.940205959893442679e-13
5.130335038880412871e-13
3.672394668589257294e-13
2.605621140819172985e-13
1.901292001267066733e-13
1.364589909243741313e-13
9.879267359490419776e-14
7.273229231192770662e-14
5.446438961548195769e-14
4.152845031969111571e-14
3.216289607647348369e-14
2.515958320404960750e-14
1.975368024865578999e-14
1.545646687513235573e-14
1.197127597037776880e-14
9.124803167310719243e-15
6.812643453290017346e-15
4.964187762302846224e-15
