# bin_2_5
3.172375018387653114e-07
3.289194625938637631e-07
3.289506485827211987e-07
3.136323297265788944e-07
2.828138577942273694e-07
2.415257509292213562e-07
1.988119745529680479e-07
1.650351099130519328e-07
1.413337036299058399e-07
1.162697736807232082e-07
8.500469688775525548e-08
6.311745335874378222e-08
4.888663666032785661e-08
3.471068264377766737e-08
2.572986214363203708e-08
1.864125037150742801e-08
1.367632680211971926e-08
1.015963209144944543e-08
7.669758889074965173e-09
5.894985566221151148e-09
4.604140411497629681e-09
3.639801460473087830e-09
2.892579867023667664e-09
2.294297635764934174e-09
1.803672408765887079e-09
1.396445304800976564e-09
1.059064638824930850e-09
7.836478169612955499e-10
5.643917247842548394e-10
3.955464960996285671e-10
2.701617717447522152e-10
