# bin_4_2
1.804640481265532202e-12
1.930793531930841451e-12
2.005170352152350033e-12
2.009527582083833437e-12
1.918061961086670572e-12
1.728836357583693078e-12
1.473564027947899577e-12
1.208149844104836418e-12
1.001134267938384395e-12
8.635391265369297234e-13
7.148961722571255601e-13
5.120142920530144478e-13
3.803826352899399084e-13
2.991197722072754949e-13
2.057923698222322922e-13
1.537988073342564254e-13
1.110424368106809645e-13
8.002800029855407270e-14
5.857724234524212826e-14
4.352254106119111725e-14
3.292798840550397792e-14
2.534509548398714601e-14
1.980271852261118750e-14
1.560729788749982664e-14
1.232418572873780872e-14
9.682427848709959422e-15
7.517175243512144114e-15
5.734338877785356052e-15
4.277826875465826413e-15
3.109951237755154843e-15
2.199991976011179380e-15
