# bin_7_8
2.918835067645751068e-08
3.267593940951431556e-08
3.590084620864084674e-08
3.853140398896241207e-08
4.014870511826805356e-08
4.037378207256887087e-08
3.869501449743529315e-08
3.500481277878883387e-08
2.993825407309376326e-08
2.456973711640881975e-08
2.032746986646109506e-08
1.754508091326444687e-08
1.462294585104370979e-08
1.048208551027498275e-08
7.687169629703692576e-09
6.080634283701933881e-09
4.082768625704365314e-09
3.034427502205695161e-09
2.132319242614043206e-09
1.483698782026337004e-09
1.042085900973702426e-09
7.363412685975245093e-10
5.271543830435695547e-10
3.833828413950559324e-10
2.844286534146972660e-10
2.148435912089705509e-10
1.647179847624459752e-10
1.274913122053007725e-10
9.890899483448898438e-11
7.636220055685815508e-11
5.828852596847595495e-11
