# bin_8_2
3.573843376548722554e-34
3.962446990187887814e-34
4.302277831567033654e-34
4.549918851812668941e-34
4.654199419520539394e-34
4.574582632120672067e-34
4.253717288500399426e-34
3.739312783132768645e-34
3.113120310718722294e-34
2.546507323624052017e-34
2.156759546654792832e-34
1.860758907265336002e-34
1.440064348401418395e-34
9.976843891663183007e-35
8.025671285403503632e-35
5.632248926590699754e-35
4.173899470551239270e-35
2.863438542563320880e-35
2.057226426561334560e-35
1.463529574733514070e-35
1.046199527578985007e-35
7.570178958050312577e-36
5.558769654915093979e-36
4.161318448247368519e-36
3.170519492807435151e-36
2.448297569681093464e-36
1.905938465556972726e-36
1.485098066336944053e-36
1.150111809667961990e-36
8.796220709534440597e-37
6.610389209815611701e-37
