# bin_8_3
2.003414308796975645e-25
2.227121076557752519e-25
2.425969282461018478e-25
2.575970323939399083e-25
2.647831034480892129e-25
2.619587778212262090e-25
2.455523317965517580e-25
2.174913669036741526e-25
1.821895983198676849e-25
1.489456206435202999e-25
1.253187864674067109e-25
1.084527184794953350e-25
8.584242214037221700e-26
5.943481337909482717e-26
4.692259548583177283e-26
3.408662314439470405e-26
2.451838153827472521e-26
1.699945094425956276e-26
1.230134565251141117e-26
8.690571267276144490e-27
6.161831411678461242e-27
4.431322283267755304e-27
3.233153018713526408e-27
2.403338622020985476e-27
1.819809374494742256e-27
1.398543144077001648e-27
1.085601456721379053e-27
8.452962299135888391e-28
6.554905043161750746e-28
5.028698089772793449e-28
3.796021418367622353e-28
