# bin_10_6
3.221483203902977340e-17
3.633046458285051925e-17
4.027239582541785904e-17
4.370008035817663445e-17
4.616734254450806011e-17
4.715600336575958126e-17
4.624351331696683885e-17
4.287103703612653977e-17
3.757777322677505521e-17
3.121371973495164292e-17
2.555037872952137120e-17
2.171206752975875757e-17
1.870785024201554479e-17
1.432387552634066047e-17
9.918136095193244976e-18
8.026682374511263451e-18
5.508987974327322451e-18
4.111134400109111739e-18
2.775031858738752470e-18
1.950370954103408031e-18
1.362173736782342665e-18
9.509765108920577992e-19
6.673584106504383505e-19
4.731887700971805785e-19
3.417887387769690555e-19
2.517553288194191293e-19
1.889534555014458491e-19
1.441475105805405933e-19
1.111125217612272889e-19
8.593078681290489180e-20
6.617933800403847433e-20
