# bin_9_4
3.182950577210819345e-16
3.560449568225717699e-16
3.908312952588637160e-16
4.190286376060925975e-16
4.360692083450268635e-16
4.378985087503927525e-16
4.189199513958203666e-16
3.783051459553121976e-16
3.229797369226860228e-16
2.648943224352254102e-16
2.193361628391988801e-16
1.893357273664968941e-16
1.572532576098586398e-16
1.123676035201662403e-16
8.281096955060179988e-17
6.513693342217389381e-17
4.390234065817617381e-17
3.246433915282252425e-17
2.286765384521408713e-17
1.592372617286194450e-17
1.118406945137964657e-17
7.909489652766344664e-18
5.668450230832675593e-18
4.127836732173691689e-18
3.066262006193622060e-18
2.318643877539580229e-18
1.779095762644722120e-18
1.377515310103673536e-18
1.068580271965886267e-18
8.245422517226540137e-19
6.288116134836954224e-19
