# bin_6_3
3.102725025309887286e-13
3.406625076963135550e-13
3.654704852495014966e-13
3.807607506609152536e-13
3.829136252031153036e-13
3.672589247558033258e-13
3.326213597045645055e-13
2.848744715113308650e-13
2.339743560547834591e-13
1.933546935736512806e-13
1.664451608996801868e-13
1.389061729504211770e-13
1.004319002959701668e-13
7.342036995276023291e-14
5.818204873259903781e-14
3.957939822425227396e-14
2.958561302499250602e-14
2.096521887854497497e-14
1.487297288767005853e-14
1.068185755128250643e-14
7.751594060290435177e-15
5.714230811350543692e-15
4.285482798142850897e-15
3.273189386933684996e-15
2.534728590269582100e-15
1.979074169878960012e-15
1.547723124682720797e-15
1.203636936436461011e-15
9.249322991067550514e-16
6.985508885587116030e-16
5.163438117094124050e-16
