# bin_8_3
7.028050872856794317e-17
7.808586635118625902e-17
8.500750902507445878e-17
9.020535635589602323e-17
9.266645791974542494e-17
9.159645299107179019e-17
8.579641008770558192e-17
7.594133625207185780e-17
6.360922871588162093e-17
5.201894855276748992e-17
4.376737723582487768e-17
3.781349525041000689e-17
2.988169823501221282e-17
2.077023329829047794e-17
1.634350819385403335e-17
1.186856041790150627e-17
8.529603149236896843e-18
5.952776088950610397e-18
4.283292924468152703e-18
3.026133697963763475e-18
2.147291779485301730e-18
1.543758273574899177e-18
1.126294741601730171e-18
8.371509060270669652e-19
6.338028659804207435e-19
4.869738041044541824e-19
3.778745304876945291e-19
2.940978949904361998e-19
2.279425325250518999e-19
1.747733287066563597e-19
1.318562135091686487e-19
