# bin_10_4
4.052701932188994082e-18
4.550285907571524559e-18
5.017576285072648590e-18
5.409902096527737261e-18
5.670170955273536079e-18
5.740230646228565473e-18
5.556553664790547609e-18
5.078310320016438346e-18
4.388842304915684364e-18
3.616691151988914585e-18
2.974167566785064009e-18
2.551667206229240578e-18
2.163367902186987221e-18
1.593413140805346578e-18
1.132457365542966517e-18
9.146237353834985520e-19
6.109542598452672642e-19
4.607827005768047673e-19
3.174142489933236575e-19
2.205258113781892521e-19
1.547087262615715170e-19
1.087184448275677003e-19
7.711762099475136859e-20
5.544830990320331121e-20
4.066638785935446287e-20
3.039669351343864284e-20
2.310688213275768800e-20
1.778776229509560625e-20
1.377244658144993709e-20
1.064747537388303620e-20
8.161849206286035983e-21
