# bin_9_8
3.422279231426423725e-11
3.859989455743114508e-11
4.279756418738092643e-11
4.645617824164798589e-11
4.910396241702480204e-11
5.019190699276057246e-11
4.927157878389945452e-11
4.574573415026603386e-11
4.015168222381002566e-11
3.339476938045272767e-11
2.732933944749196176e-11
2.317969862628297398e-11
1.996986855367643975e-11
1.537034983858439798e-11
1.065080481636023923e-11
8.565381902191184365e-12
5.940790956435583423e-12
4.388729202080641528e-12
2.975267241043406802e-12
2.097039259960115774e-12
1.460891947764090175e-12
1.016677870887064377e-12
7.121523151776745921e-13
5.039645732147600822e-13
3.631283645472505615e-13
2.668156819227361866e-13
1.997933924730413078e-13
1.521225770379740185e-13
1.171002420380327591e-13
9.049749679788946455e-14
6.969250365346720745e-14
