# bin_9_2
1.488633850691740603e-22
1.658941728057238070e-22
1.812666065116138340e-22
1.932357237889215260e-22
1.996400426510716276e-22
1.987609960961042855e-22
1.879129297696048910e-22
1.677878726737535566e-22
1.416547629391627313e-22
1.158970141870496276e-22
9.679632391259749906e-23
8.373556367839939919e-23
6.775558943183194976e-23
4.743713212084611647e-23
3.634400499311347179e-23
2.740280468980168415e-23
1.907562474202186093e-23
1.362138609656266648e-23
9.763369810776441199e-24
6.849286406458116907e-24
4.829243409514936471e-24
3.445927880905211886e-24
2.494763300112923409e-24
1.838301014331285208e-24
1.380876092918730522e-24
1.054232697725208259e-24
8.145995791636366237e-25
6.329755021928809921e-25
4.910378046098093979e-25
3.776860249113617014e-25
2.863531165000004941e-25
