# bin_7_5
8.747949660870372512e-12
9.730384051842199382e-12
1.060746593631510811e-11
1.127535253072148093e-11
1.160736375656133644e-11
1.150450190189098980e-11
1.081324047758997999e-11
9.602267574760274992e-12
8.065851861317406649e-12
6.596428525877485100e-12
5.534730768409704868e-12
4.785442105994564424e-12
3.815965457133949061e-12
2.657212252345061308e-12
2.071443063322713572e-12
1.525619293513057296e-12
1.083312721802627161e-12
7.617334164504863456e-13
5.478918350720877302e-13
3.860441667404642848e-13
2.732101264068301284e-13
1.958745958091729142e-13
1.425002083184033319e-13
1.055824371016327114e-13
7.970923061625697334e-14
6.110450601737987673e-14
4.734564896919091339e-14
3.683028780612909382e-14
2.855729531350931683e-14
2.192275263550436949e-14
1.657024957343465609e-14
