# bin_10_5
1.073965532137783266e-15
1.207816481525758768e-15
1.334507289408984976e-15
1.442391979777371416e-15
1.516458916811717471e-15
1.540550277322023815e-15
1.498950097338406787e-15
1.377586181388661695e-15
1.197209502417549908e-15
9.894264409288076269e-16
8.118184419251158702e-16
6.938947642644007649e-16
5.924939563752097455e-16
4.431444171751683113e-16
3.110832720331027343e-16
2.521454418094777037e-16
1.696298450098640505e-16
1.277994384862233810e-16
8.727292101225864976e-17
6.080050447121679004e-17
4.259817358798241652e-17
2.985862890905093091e-17
2.108465830809216768e-17
1.507288776724784313e-17
1.098699094103023138e-17
8.164851839579508813e-18
6.176095821049660277e-18
4.738177567098190696e-18
3.662802532652125956e-18
2.832524202127056002e-18
2.175508015610880584e-18
