# bin_7_7
6.074080010256320805e-11
6.798136286280736411e-11
7.467252351078435287e-11
8.012555123309429704e-11
8.347110533189582457e-11
8.392160958083792618e-11
8.042293920804090213e-11
7.275031600960464840e-11
6.221989910299058361e-11
5.106003715023621153e-11
4.223149260830716295e-11
3.642854344022838756e-11
3.035562133216153972e-11
2.178041357753497428e-11
1.596013161418901102e-11
1.261558132814621236e-11
8.479588935463736607e-12
6.296230674858466194e-12
4.420351093307591120e-12
3.075837106787129502e-12
2.159956237628480643e-12
1.525921593175728179e-12
1.091916204877043042e-12
7.936927838785313011e-13
5.885204830838069878e-13
4.443187678581811751e-13
3.405025501078116342e-13
2.634518605667390774e-13
2.043313113895270156e-13
1.577217263148432611e-13
1.203762575913828927e-13
