# bin_1_1
3.652977333570857776e-10
3.608887847528302099e-10
3.393045387301176656e-10
3.019917981542825481e-10
2.554568771181285156e-10
2.103414425486105966e-10
1.758277007984344502e-10
1.496064560839965565e-10
1.200085320870165442e-10
8.762304430304428947e-11
6.615864311736163196e-11
5.022501281859720512e-11
3.625289415305257697e-11
2.682951949626471073e-11
1.970917477451475037e-11
1.466381835936865072e-11
1.108306084432892719e-11
8.529425085464368218e-12
6.679295073749855453e-12
5.301556427612169970e-12
4.240053353024951646e-12
3.391386193975211408e-12
2.693157970821838276e-12
2.109275638871614878e-12
1.619913381862190236e-12
1.214527674605858886e-12
8.865752818354878151e-13
6.296049335499186249e-13
4.354767328126995861e-13
2.940901386668037263e-13
1.945368722622175717e-13
