# bin_6_4
7.945656324803020943e-12
8.761978514736806378e-12
9.450834461655353457e-12
9.913458575909370410e-12
1.004736107679241752e-11
9.745411671898459161e-12
8.929976341428854049e-12
7.738286300181790734e-12
6.388375733071873425e-12
5.248255195173575357e-12
4.489062392084163085e-12
3.814228804875960826e-12
2.839599335393044316e-12
2.014151159632537734e-12
1.623533725199377366e-12
1.105427485787363163e-12
8.328179745430012119e-13
5.800116647572668596e-13
4.118941855360024320e-13
2.948906720142245367e-13
2.126060443140314104e-13
1.553815186367150136e-13
1.154137322232235988e-13
8.738072562621770801e-14
6.720147148423979319e-14
5.223624014808436503e-14
4.078792122761585341e-14
3.176115315935611518e-14
2.449988463848116349e-14
1.861260059677781662e-14
1.386280673990278860e-14
