# bin_6_2
1.849634335042303504e-15
2.021589789561325315e-15
2.156599455165224627e-15
2.230879439120118525e-15
2.224682102317493981e-15
2.109009977350832252e-15
1.888471361969385185e-15
1.599320349306957748e-15
1.309595957211933200e-15
1.090829366985232695e-15
9.418761013458518705e-16
7.674868065830544674e-16
5.429146401694844318e-16
4.114290652281132145e-16
3.149629652696299485e-16
2.191694038781708693e-16
1.597806613017215265e-16
1.151079516149946354e-16
8.208279150561089881e-17
5.917217021347484453e-17
4.325864279108819834e-17
3.216338535420672685e-17
2.434385428737917399e-17
1.873934538453733693e-17
1.459525558206022089e-17
1.143262803854899674e-17
8.944444233615659750e-18
6.940553432475673036e-18
5.309465099617931624e-18
3.984370372384314210e-18
2.921787611750976134e-18
