# bin_9_7
8.444189154839120620e-07
9.518748533371458886e-07
1.054604494890322502e-06
1.143636869585862792e-06
1.207256293785284482e-06
1.232102237001998564e-06
1.206710316800033807e-06
1.117281438288062867e-06
9.780725523338298347e-07
8.120980959208903003e-07
6.652130175260102109e-07
5.656979373227759574e-07
4.863669434249020692e-07
3.712692186511310456e-07
2.581127547071952300e-07
2.083482642805736141e-07
1.430584320630951550e-07
1.064769696367713262e-07
7.228661377295061496e-08
5.076610707847910187e-08
3.544559536033611255e-08
2.473433715848165103e-08
1.737225926920385727e-08
1.233392048460770167e-08
8.920505535882364214e-09
6.578768188288713468e-09
4.942709378130936100e-09
3.773042142949536279e-09
2.908863151627376106e-09
2.248981057049090643e-09
1.730890595311629821e-09
