# bin_13_8
2.366035038246669573e-09
2.693370454344086550e-09
3.020638972894432955e-09
3.324918561152044970e-09
3.575711859322210961e-09
3.734334499864210501e-09
3.764456993881715504e-09
3.619471768179191774e-09
3.284047240992416719e-09
2.817044102320481591e-09
2.314158975788032515e-09
1.911629445413541351e-09
1.649122452037598908e-09
1.381857625709161472e-09
9.950925921905100046e-10
7.224761931501436100e-10
5.751905296897742238e-10
3.813713171705928195e-10
2.835038611780449684e-10
1.956328446687973560e-10
1.332270383486602449e-10
9.111221021321064194e-11
6.209116313305070408e-11
4.252855320142667895e-11
2.937274991402838095e-11
2.062158720465164127e-11
1.474823878143493795e-11
1.077328383476870748e-11
8.034726965489154366e-12
6.095437432426252908e-12
4.674496133404897496e-12
