# bin_9_1
2.160320452764551548e-22
2.407375365500644691e-22
2.630154687169450631e-22
2.803237309703385979e-22
2.895206780500740012e-22
2.881045534789043379e-22
2.721910031682044311e-22
2.428893028158659349e-22
2.049544956232822059e-22
1.677321597471723073e-22
1.402369316009569526e-22
1.213223497087112345e-22
9.794838111986778766e-23
6.855981668662082761e-23
5.267932527509853721e-23
3.957196053252812246e-23
2.764950676566079749e-23
1.970292164598736690e-23
1.412757108914041519e-23
9.920749903289504657e-24
7.001781278893543392e-24
5.001246433990395329e-24
3.624403976736879955e-24
2.673587711832890323e-24
2.010282852818966156e-24
1.535987352638955269e-24
1.187511850779394445e-24
9.229978566972223652e-25
7.160368751860182358e-25
5.506343039736459343e-25
4.173254636036218669e-25
