# bin_2_3
-2.219991998051263348e-11
-2.327566511897424483e-11
-2.359276128320569111e-11
-2.290506728611770315e-11
-2.104673658320257346e-11
-1.829537378183521633e-11
-1.516849194855318481e-11
-1.247366348497517696e-11
-1.060641341784846400e-11
-8.980437148593404836e-12
-6.807266283276163165e-12
-4.880924336409940992e-12
-3.853622470474242541e-12
-2.746454732178688740e-12
-2.034617156052434941e-12
-1.461715693455860445e-12
-1.069087753472477509e-12
-7.870398199946868427e-13
-5.876805562771010643e-13
-4.467128512139333420e-13
-3.453889031346901184e-13
-2.709993449540745547e-13
-2.144940315282045917e-13
-1.700533430752352701e-13
-1.341011127016262993e-13
-1.044795042954688250e-13
-7.995298341525947485e-14
-5.981388487058866919e-14
-4.360193424454909314e-14
-3.092717865380113142e-14
-2.135855137554539287e-14
