# bin_14_9
-2.302271475200784917e-10
-2.603218263318944268e-10
-2.894968885072031073e-10
-3.153886924225606958e-10
-3.348641217674206019e-10
-3.441511127555553188e-10
-3.402663951163777187e-10
-3.187622065260772407e-10
-2.821587937106732113e-10
-2.363607964514293401e-10
-1.933670049648504559e-10
-1.628086811754985023e-10
-1.406799515667684941e-10
-1.110265636982848737e-10
-7.709560551638762118e-11
-6.060160815692113857e-11
-4.374200114580503983e-11
-3.125731747395370104e-11
-2.155630460348997232e-11
-1.526901125309384825e-11
-1.056147909167870787e-11
-7.291325373501796528e-12
-5.069341578653042425e-12
-3.557468899347735329e-12
-2.536474682077517535e-12
-1.843736414022543377e-12
-1.366487389058081595e-12
-1.031595600911102338e-12
-7.895127473352916854e-13
-6.086028566074466184e-13
-4.690267143598402728e-13
