# bin_1_5
-1.099320260687593905e-17
-1.181696231355662024e-17
-1.234609242357736255e-17
-1.245872700918028762e-17
-1.201368815132775208e-17
-1.094650993732626218e-17
-9.433792798133523623e-18
-7.773249999252604971e-18
-6.404809647968865582e-18
-5.487345082925194383e-18
-4.617391809446445808e-18
-3.405792628653848051e-18
-2.458462491413659141e-18
-1.959431913585488158e-18
-1.353361528000999142e-18
-1.015839996695872989e-18
-7.221066907657376841e-19
-5.210400853550337138e-19
-3.800814347605334756e-19
-2.806633176493984954e-19
-2.107730783014064350e-19
-1.610151063368686869e-19
-1.250241222902976054e-19
-9.812094436317145525e-20
-7.732552434301011285e-20
-6.077077464088146772e-20
-4.730052222997557112e-20
-3.624430384772414503e-20
-2.720513165547496037e-20
-1.992708348706647566e-20
-1.421316385553979405e-20
