# bin_6_15
-2.187683316283593691e-23
-2.493833349006450271e-23
-2.801987592763328358e-23
-3.091149123927473443e-23
-3.333583032775747080e-23
-3.493851229652764366e-23
-3.536179517268843337e-23
-3.420499542839907275e-23
-3.122621441441309385e-23
-2.695399582930299273e-23
-2.219477678413967937e-23
-1.826371585634425024e-23
-1.569521341409162905e-23
-1.329065773308304518e-23
-9.735020084386434417e-24
-6.927598675306847727e-24
-5.592914029751447941e-24
-3.694759878974574939e-24
-2.776662743002246052e-24
-1.892975144705637652e-24
-1.287869217882592655e-24
-8.815842244297668188e-25
-5.994968136335667129e-25
-4.083543051938000693e-25
-2.797865728636058377e-25
-1.945979200618939568e-25
-1.377383275512504803e-25
-9.954872014187802521e-26
-7.353493638127640137e-26
-5.537278930662492871e-26
-4.227443065729923241e-26
