# bin_10_10
-2.801169751017505789e-11
-3.172865370327699699e-11
-3.535973253582728477e-11
-3.862264789260280007e-11
-4.114040033213364161e-11
-4.244768274229427087e-11
-4.218384775083575266e-11
-3.977041354648056298e-11
-3.541338264442258913e-11
-2.981403400410385045e-11
-2.438618208102199420e-11
-2.042771191003087183e-11
-1.768532511663268455e-11
-1.419560971031260990e-11
-9.873598577366336984e-12
-7.640852868312185925e-12
-5.661648778339140637e-12
-3.957866228332218963e-12
-2.763318231794008953e-12
-1.961649276876652901e-12
-1.350485596409532198e-12
-9.273767171376815590e-13
-6.413325525267728374e-13
-4.473752496766344721e-13
-3.165673717680431139e-13
-2.282954494284082966e-13
-1.679080658044659645e-13
-1.259379034514630480e-13
-9.595326348536437730e-14
-7.381611849632452306e-14
-5.691305983592557635e-14
