# bin_13_12
-4.339731769281025537e-11
-4.945879881385280761e-11
-5.555324344658044953e-11
-6.126350620613635372e-11
-6.603810685139759577e-11
-6.917306888901033969e-11
-6.996576422917108909e-11
-6.761427092815966410e-11
-6.167185629769739494e-11
-5.318664605671613173e-11
-4.378448873019417911e-11
-3.605176475991279046e-11
-3.099276976198822409e-11
-2.619801636857015406e-11
-1.915121426224898863e-11
-1.367220833416381763e-11
-1.100223920007720822e-11
-7.284970580110281976e-12
-5.458006642379859695e-12
-3.727184016465396997e-12
-2.537665004879286373e-12
-1.736715775965607834e-12
-1.181568546177657514e-12
-8.054936116044186585e-13
-5.525158038305651232e-13
-3.847865327492932200e-13
-2.727466881012306345e-13
-1.974108508368663350e-13
-1.460087148343322288e-13
-1.100470762474854740e-13
-8.405335516139601958e-14
