# bin_4_13
-6.229828822314195523e-26
-7.064125719650740158e-26
-7.883106123056346122e-26
-8.624657418940542957e-26
-9.205607126522920771e-26
-9.522261199417476607e-26
-9.492999433119960139e-26
-8.986591273717719588e-26
-8.032589605897282198e-26
-6.786266311505369510e-26
-5.552189237489348220e-26
-4.635729200314837533e-26
-4.014924467299362978e-26
-3.256423784754335409e-26
-2.273341280023430888e-26
-1.737792328084391217e-26
-1.310070032000634283e-26
-9.023982807767835826e-27
-6.377969067128204494e-27
-4.519285190175632565e-27
-3.102265061932743507e-27
-2.124379160665588232e-27
-1.463924198551994771e-27
-1.017264563170463784e-27
-7.162410102226264603e-28
-5.137806339323872179e-28
-3.758759341148190151e-28
-2.806016500505117009e-28
-2.130547359073759427e-28
-1.635968003171771745e-28
-1.261144189977984731e-28
