# bin_14_11
-1.116496898901442486e-10
-1.270071278058872114e-10
-1.423137642925366879e-10
-1.564828117377528365e-10
-1.680677319181648542e-10
-1.752388522423088766e-10
-1.763263459148266315e-10
-1.691125570883164140e-10
-1.530771557772729501e-10
-1.309923998334023551e-10
-1.075247423661650736e-10
-8.894110679708710713e-11
-7.675260904315527299e-11
-6.400474388011658180e-11
-4.589589054628947997e-11
-3.356015735170085170e-11
-2.649441003290985565e-11
-1.767553071013363692e-11
-1.303297752180884368e-11
-9.026044050968850736e-12
-6.155013190010535433e-12
-4.209347248059007424e-12
-2.873531016971829222e-12
-1.972156533554064509e-12
-1.365755232154938925e-12
-9.617959453010984313e-13
-6.901394823315450417e-13
-5.057544267048562702e-13
-3.781989059383308950e-13
-2.874241237532518726e-13
-2.205726909512107475e-13
