# bin_13_15
-1.901513243934582544e-12
-2.176981399224630741e-12
-2.459292915826378576e-12
-2.730905391639835287e-12
-2.968919006127767371e-12
-3.143167552433667977e-12
-3.217946879553986164e-12
-3.165301423270948028e-12
-2.944841854100336375e-12
-2.589588172604523550e-12
-2.156153323620473731e-12
-1.763974185513250704e-12
-1.494749714982245328e-12
-1.290125001346733864e-12
-9.968728053401202857e-13
-6.882961337776656323e-13
-5.527103758367697169e-13
-3.834508703647918041e-13
-2.813251149051385306e-13
-1.880429992297145750e-13
-1.309274139098145204e-13
-8.915689326500780547e-14
-6.013410478071994701e-14
-4.042210597340786408e-14
-2.715085632323998767e-14
-1.839720006617023811e-14
-1.262881316126585633e-14
-8.822324034203000626e-15
-6.300560061752340864e-15
-4.605181735903443842e-15
-3.438438608337445834e-15
