# bin_14_4
-1.102964847089273206e-09
-1.200224342444901372e-09
-1.273397537697236676e-09
-1.308719354363979924e-09
-1.293891628961770239e-09
-1.214176347524804616e-09
-1.076981214707375627e-09
-9.056224188840086019e-10
-7.424393280361415861e-10
-6.230859599567845284e-10
-5.352477537856645486e-10
-4.255182482744832566e-10
-3.018620238327859663e-10
-2.326835348841335253e-10
-1.727313113072931725e-10
-1.232933855683611795e-10
-8.885364639835193986e-11
-6.399271764512816492e-11
-4.594014040576924429e-11
-3.332777470087268944e-11
-2.453111719546554470e-11
-1.836179054321277605e-11
-1.398858616837517720e-11
-1.082254581099622136e-11
-8.455917596095942989e-12
-6.630286872469012944e-12
-5.181165613785406882e-12
-4.008058984456718929e-12
-3.051863190260495277e-12
-2.276681858319877725e-12
-1.658321522434966051e-12
