# bin_7_5
-3.309581526409101688e-10
-3.641232449703553051e-10
-3.916239992070027516e-10
-4.093035487060915854e-10
-4.131003452993690059e-10
-3.983343180608772173e-10
-3.629272603865051582e-10
-3.127363409692649912e-10
-2.577500338135278687e-10
-2.125294552247244389e-10
-1.821623151303242890e-10
-1.531105364622659313e-10
-1.127289586853260789e-10
-8.134840225521210612e-11
-6.457637737783442326e-11
-4.437725610631533863e-11
-3.305251936182793983e-11
-2.324683142369702193e-11
-1.654191674121176014e-11
-1.185711349034765624e-11
-8.575047333369564465e-12
-6.293420225686012411e-12
-4.696555239172462678e-12
-3.570383660150401622e-12
-2.754441834357507304e-12
-2.145047000685959635e-12
-1.675609608419089448e-12
-1.303531689074704262e-12
-1.003376170144826968e-12
-7.599358013558466559e-13
-5.638606805043121996e-13
