# bin_8_11
-1.751143702005347089e-13
-1.983836250296908880e-13
-2.211300535687431886e-13
-2.415926484104971247e-13
-2.574165117977445454e-13
-2.656859308694781125e-13
-2.641572270372122809e-13
-2.491763987434945715e-13
-2.219839870082424980e-13
-1.869480778673594949e-13
-1.528978236832382150e-13
-1.280239106625087729e-13
-1.108722056061821253e-13
-8.912876414756573736e-14
-6.196166598257105709e-14
-4.790860573897819445e-14
-3.557727042054165151e-14
-2.482143915662297623e-14
-1.733384710399564868e-14
-1.231965838215876657e-14
-8.477652633686320516e-15
-5.817258567969941054e-15
-4.021351964330916775e-15
-2.803911983619221137e-15
-1.982915740541515010e-15
-1.429133970816191669e-15
-1.050506380816884643e-15
-7.875651946838471042e-16
-5.998907519001247605e-16
-4.614660090956637728e-16
-3.558505498449203526e-16
