# bin_11_13
-1.662191778825501340e-12
-1.895212181265587797e-12
-2.129990153514792993e-12
-2.350595138714748375e-12
-2.536005784730894767e-12
-2.659324490109881038e-12
-2.693125895286362486e-12
-2.607337858346374000e-12
-2.382545043889110481e-12
-2.058564305317884910e-12
-1.695894524978492035e-12
-1.394930167153624510e-12
-1.197982720895639528e-12
-1.015780495227782420e-12
-7.460592913499118751e-13
-5.296210143824858623e-13
-4.280145983663518042e-13
-2.830009080862591949e-13
-2.127593825694444490e-13
-1.448089179703693962e-13
-9.855224208708048162e-14
-6.746788244889610242e-14
-4.587346516315957607e-14
-3.122435406380795178e-14
-2.136969392122109637e-14
-1.484291780688711365e-14
-1.048980862535809888e-14
-7.569046989999426447e-15
-5.582610673376873018e-15
-4.198534051640232795e-15
-3.202701994724220334e-15
