# bin_11_12
-7.377266711432867386e-12
-8.397492365991210435e-12
-9.417451376144179417e-12
-1.036566556461970248e-11
-1.114716123791094220e-11
-1.164149629843789275e-11
-1.173529244828801196e-11
-1.128436219916236962e-11
-1.023961633672989187e-11
-8.784325019941603901e-12
-7.215414779038826247e-12
-5.957742134902293852e-12
-5.137136707474861401e-12
-4.306220413448833958e-12
-3.104241539885135904e-12
-2.250512746448741007e-12
-1.792370213190361069e-12
-1.188599346203751345e-12
-8.836434306494594241e-13
-6.091690094512893896e-13
-4.148266978311794615e-13
-2.837078242454627143e-13
-1.933368585559143541e-13
-1.323764705635149034e-13
-9.137974593586457915e-14
-6.411788446718412598e-14
-4.582791290764851045e-14
-3.345486611547766863e-14
-2.493591223843161805e-14
-1.890792862053683781e-14
-1.449510088832514874e-14
