# bin_4_15
-4.962040047990703493e-30
-5.651532819112553565e-30
-6.342733444721176436e-30
-6.987747779123272465e-30
-7.523077201447540553e-30
-7.867976816315901264e-30
-7.944246653541041128e-30
-7.657079790188522415e-30
-6.964627143535857019e-30
-5.989288841530400150e-30
-4.923926828523894507e-30
-4.059787854015592025e-30
-3.496460844009302429e-30
-2.943434145872840606e-30
-2.134626728059989512e-30
-1.535736726055561198e-30
-1.230861959133053611e-30
-8.139547171189281732e-31
-6.084146279480790757e-31
-4.175581973595773660e-31
-2.841480442144331686e-31
-1.943963733248389381e-31
-1.323306802866652743e-31
-9.041443724829015629e-32
-6.222683256802484958e-32
-4.351099426993886906e-32
-3.098089136027849734e-32
-2.252921920048908958e-32
-1.673526776289235115e-32
-1.265730754891397497e-32
-9.689379096923890877e-33
