# bin_1_14
-1.165868585945205338e-41
-1.324305241021124065e-41
-1.481114434508206667e-41
-1.624834935556249095e-41
-1.740141899832672220e-41
-1.807768891310327145e-41
-1.811388752145745430e-41
-1.726796875245118401e-41
-1.553732730054073823e-41
-1.321392056413805043e-41
-1.082515566843359319e-41
-8.990436826527292698e-42
-7.777857476269436970e-42
-6.409629021240739816e-42
-4.529359303103391216e-42
-3.381057209076606151e-42
-2.619173352573220011e-42
-1.766337241571599821e-42
-1.280069878857318950e-42
-8.971017519881055440e-43
-6.132327725477743405e-43
-4.192135068088563011e-43
-2.872123332668633680e-43
-1.982429920327324038e-43
-1.383572672404794999e-43
-9.829514910243931735e-44
-7.119893569857234896e-44
-5.266080208677676957e-44
-3.969019066063701121e-44
-3.033424325795155671e-44
-2.334619391536138826e-44
