# bin_3_3
-1.620349433272658397e-10
-1.713071174310917007e-10
-1.753762542938558758e-10
-1.725572667637045382e-10
-1.610571404185613137e-10
-1.421437093370370688e-10
-1.191065876751225762e-10
-9.769207347286904355e-11
-8.221562945151195410e-11
-7.037563944690194536e-11
-5.536678237995883775e-11
-3.941939270351326836e-11
-3.058729996625571614e-11
-2.256689451235330909e-11
-1.631555235372585213e-11
-1.182461339368240159e-11
-8.617059228368057711e-12
-6.291395084785273628e-12
-4.656789657032878381e-12
-3.505998347490464946e-12
-2.686209662402826401e-12
-2.091361861519832930e-12
-1.646957022244265138e-12
-1.303007043360521351e-12
-1.028480218392284170e-12
-8.043507429828357493e-13
-6.194214519327088432e-13
-4.672924659535895523e-13
-3.440084336666278682e-13
-2.465657931670156592e-13
-1.720177351219580405e-13
