# bin_8_10
-1.440843140893828492e-12
-1.628408421909236233e-12
-1.809810647725565438e-12
-1.970195765897076289e-12
-2.089876195234306544e-12
-2.145169832598260313e-12
-2.117782959257159156e-12
-1.979791990417252283e-12
-1.748970459213872377e-12
-1.462072477809629885e-12
-1.195701923853034659e-12
-1.008549152725894437e-12
-8.717441561738228002e-13
-6.840960049059860960e-13
-4.733454124230013947e-13
-3.752128773701665597e-13
-2.679399296761448732e-13
-1.933151500543900086e-13
-1.320628913441955736e-13
-9.375464629173580890e-14
-6.496454297773044815e-14
-4.491952472159847497e-14
-3.129476474867258105e-14
-2.200757730881904509e-14
-1.573421326255362631e-14
-1.146983015011420302e-14
-8.524999155833499030e-15
-6.451993927048470050e-15
-4.947383976337580336e-15
-3.818100954363977822e-15
-2.943397014803692958e-15
