# bin_1_3
-5.783603481390623030e-13
-5.993191869363434093e-13
-5.990249666779613833e-13
-5.705700014038650067e-13
-5.138399240425574410e-13
-4.381618179891327898e-13
-3.601819788760247299e-13
-2.989386849628270210e-13
-2.563398127673086748e-13
-2.107954521462800871e-13
-1.533152434332956493e-13
-1.140341221268571360e-13
-8.849779725591098422e-14
-6.253262777429869697e-14
-4.646361014562465561e-14
-3.370020026061804054e-14
-2.469909961373252794e-14
-1.835628922695852556e-14
-1.386710076336024445e-14
-1.066607359167673522e-14
-8.336253002309182015e-15
-6.594045975747059035e-15
-5.242289851994479650e-15
-4.158634496248031861e-15
-3.269089347139561717e-15
-2.530251270218021249e-15
-1.917962940157931899e-15
-1.418171299643537117e-15
-1.020473262342384998e-15
-7.144884113594573004e-16
-4.875286514718788660e-16
