# bin_15_6
-6.111674121579720582e-10
-6.796628857259859602e-10
-7.407109044456629668e-10
-7.870450871809269404e-10
-8.099483156113191675e-10
-8.021679329903290661e-10
-7.536267926452535806e-10
-6.690086240766394009e-10
-5.622590918826541402e-10
-4.603085163107108882e-10
-3.863538031529854714e-10
-3.332789642568667815e-10
-2.653339153516357914e-10
-1.860565799667365521e-10
-1.442991806041262942e-10
-1.063721434236425214e-10
-7.549664928701689523e-11
-5.348959207333998308e-11
-3.823227265929650694e-11
-2.694723876054660641e-11
-1.910048839256204183e-11
-1.369778472020424927e-11
-9.967854580301745067e-12
-7.386074191516393886e-12
-5.575828804633785209e-12
-4.273481283638966892e-12
-3.309862193165094095e-12
-2.573405229121390756e-12
-1.994237643871275104e-12
-1.530132962569298750e-12
-1.156031252426234825e-12
