# bin_12_5
-7.125854752590490024e-10
-7.851306686994908660e-10
-8.459456875481702738e-10
-8.861371410924141949e-10
-8.967247117652406226e-10
-8.679138674170487428e-10
-7.940079325833295274e-10
-6.869723723963651551e-10
-5.674156253905878012e-10
-4.671187250920019672e-10
-3.993847963981410775e-10
-3.374097206041126142e-10
-2.510392629876889038e-10
-1.797979162207085130e-10
-1.429549297108432203e-10
-9.875110485276864250e-11
-7.337433908703689237e-11
-5.147358472422209315e-11
-3.666251352422380274e-11
-2.622920136061355012e-11
-1.891746717291168899e-11
-1.384087887930876124e-11
-1.029408139106797258e-11
-7.800510937929309550e-12
-6.002231883296473146e-12
-4.666014125676558399e-12
-3.642064858752441991e-12
-2.834005972142280065e-12
-2.183942037259916529e-12
-1.657237633162487580e-12
-1.232780472564018926e-12
