# bin_15_5
-8.246491379383804698e-10
-9.087625362439138893e-10
-9.793663815208519003e-10
-1.026176687947896429e-09
-1.038768234103134816e-09
-1.005845070327861882e-09
-9.206451830945128164e-10
-7.969229711541120348e-10
-6.584034007390148114e-10
-5.419226374700653048e-10
-4.632039472212387067e-10
-3.915596631397056443e-10
-2.916898968721643432e-10
-2.087323134818596129e-10
-1.659857654151266050e-10
-1.147344768930454373e-10
-8.522361667457672144e-11
-5.976961799646717945e-11
-4.257602276496996873e-11
-3.045287089785024340e-11
-2.195665264706390875e-11
-1.605853800752321737e-11
-1.193863046387570178e-11
-9.043190869448228343e-12
-6.956247577446766914e-12
-5.406481290178608467e-12
-4.219636110965819635e-12
-3.283520103912975247e-12
-2.530691202033754681e-12
-1.920799334745320616e-12
-1.429272676502020403e-12
