# bin_10_9
-7.277120260136726557e-11
-8.217941668170078428e-11
-9.124763917877046357e-11
-9.921892926641918776e-11
-1.050949259984663127e-10
-1.076950923388120133e-10
-1.060733796289207815e-10
-9.889151113611151676e-11
-8.713707490050527529e-11
-7.270933131846460864e-11
-5.948980443917329283e-11
-5.028552687074035459e-11
-4.338918763197334932e-11
-3.379694582787377338e-11
-2.342909386919786892e-11
-1.864595866450262474e-11
-1.318518317562064797e-11
-9.583487114508136377e-12
-6.544312765384354956e-12
-4.630411275735095565e-12
-3.214631591519427826e-12
-2.228048449221401604e-12
-1.555546714094470492e-12
-1.096746072672181382e-12
-7.865665801960081147e-13
-5.752016894667614299e-13
-4.287787178988671814e-13
-3.252662655055801424e-13
-2.497680626702947962e-13
-1.928334557847166087e-13
-1.485705362412235891e-13
