# bin_13_7
-3.957602302856967345e-10
-4.431061675856633635e-10
-4.869224978435602855e-10
-5.227301734453046990e-10
-5.448728424496803261e-10
-5.481344965615262426e-10
-5.258364172341079944e-10
-4.763286695327557794e-10
-4.080047013667189758e-10
-3.352347029945830747e-10
-2.772347499789507841e-10
-2.387295564077890186e-10
-1.990572253040347605e-10
-1.437671419031049189e-10
-1.050422755000422686e-10
-8.283357632323688597e-11
-5.607289968058980963e-11
-4.149424253691243737e-11
-2.903428273340755918e-11
-2.024492957485168507e-11
-1.422200835897532138e-11
-1.004764259212637277e-11
-7.183209092525739701e-12
-5.214417343929698315e-12
-3.860741578238347542e-12
-2.910533650744559290e-12
-2.227484297971349417e-12
-1.721618236961796511e-12
-1.334380929263681610e-12
-1.029766855766596706e-12
-7.861114851192995974e-13
