# bin_2_10
-5.175113590567500863e-27
-5.799260769235896726e-27
-6.379455368618219632e-27
-6.857494942647415584e-27
-7.159611628844876791e-27
-7.216183495629809404e-27
-6.939926457352831032e-27
-6.300071060972822855e-27
-5.407521643191140320e-27
-4.443307911205992068e-27
-3.667185587113874815e-27
-3.158291653799669469e-27
-2.649014099117463753e-27
-1.917499252260495090e-27
-1.389404039473069364e-27
-1.108117817859680791e-27
-7.419548930083801572e-28
-5.548314139927192406e-28
-3.869563684770006131e-28
-2.690283171695736869e-28
-1.888968688610230921e-28
-1.332126544369754331e-28
-9.505458578259791779e-29
-6.885016264785091512e-29
-5.087398712644321452e-29
-3.828810752017126693e-29
-2.926901846724925109e-29
-2.261246631241464286e-29
-1.753164797400909154e-29
-1.354225001288614085e-29
-1.035268027424815556e-29
