# bin_11_2
1.159936591697332731e-22
1.306197347383941435e-22
1.445295157677326418e-22
1.564712202604346381e-22
1.648216174591765031e-22
1.677936520736786810e-22
1.637214001358409073e-22
1.509351324709853670e-22
1.315752215086681209e-22
1.089700868186083074e-22
8.939534967871735095e-23
7.630631529603865291e-23
6.534835897170975559e-23
4.925704543910569335e-23
3.446697524829465531e-23
2.791224531785623498e-23
1.892036576756416882e-23
1.420145883038775899e-23
9.679677032019451185e-24
6.765543666200142183e-24
4.736575940226026968e-24
3.316418157153788446e-24
2.338433481592124767e-24
1.668317628646241329e-24
1.213206565492998276e-24
8.994850303847371956e-25
6.789901145012620372e-25
5.201386277827957777e-25
4.018048934471036017e-25
3.107678315236023099e-25
2.389083282796252804e-25
