# bin_15_7
6.435498868829793592e-14
7.345894071867712280e-14
8.267010232141929016e-14
9.137451688119186210e-14
9.876317882257966888e-14
1.037946146678015608e-13
1.053697086067243691e-13
1.023604348416613121e-13
9.387369616892690029e-14
8.140565701498481965e-14
6.720379653819268317e-14
5.523260164243602171e-14
4.736258419377766220e-14
4.034644558841946738e-14
2.989729013367098423e-14
2.107339561938100572e-14
1.709783104174067859e-14
1.133478996895225835e-14
8.539136385775883365e-15
5.784888988710284402e-15
3.942441244960886694e-15
2.700509474491790040e-15
1.835766913652325030e-15
1.247085834601502848e-15
8.508113741870298916e-16
5.886202448721041932e-16
4.140858417636019430e-16
2.973188483536172919e-16
2.182695799256936873e-16
1.635278828679013349e-16
1.244271736011829418e-16
