# bin_15_12
6.639590780576662296e-07
7.606847588842374475e-07
8.600139656041000528e-07
9.558496131274927508e-07
1.040212236477459906e-06
1.102550697628834530e-06
1.130262673701796674e-06
1.113589568280681178e-06
1.037995361008831017e-06
9.144567109459091952e-07
7.625840503414783323e-07
6.241314927657039970e-07
5.285645960311804595e-07
4.567217421322698548e-07
3.543939383725298319e-07
2.446782485464629241e-07
1.961048495607373492e-07
1.368716530927308062e-07
1.000511563559023040e-07
6.693446990132565777e-08
4.673395655429783062e-08
3.181106196807411658e-08
2.144117363884951252e-08
1.440669471034401915e-08
9.669505142049704238e-09
6.543568462997469422e-09
4.484279857452839935e-09
3.126209109889320823e-09
2.227588360751926917e-09
1.624623178157794558e-09
1.210797575400861288e-09
