# bin_9_6
8.731147255381224154e-08
9.824334384623737335e-08
1.086021960691251064e-07
1.174379242546810472e-07
1.235240537788541753e-07
1.255416707616445294e-07
1.221963183535680759e-07
1.123451785129513093e-07
9.767114569006258632e-08
8.076209771160864465e-08
6.631175629380642085e-08
5.671522720223282675e-08
4.843233337713674466e-08
3.622704564981224611e-08
2.546538889243004334e-08
2.063426262661169634e-08
1.389771702916588934e-08
1.046704354413684473e-08
7.156083244777998625e-09
4.989307646904310147e-09
3.497104314213085031e-09
2.452528972848546335e-09
1.733071725707866039e-09
1.239857533337968099e-09
9.043908351461156794e-10
6.725049045513164903e-10
5.089621643217558372e-10
3.906172073869383798e-10
3.020444014652578934e-10
2.336193227211396508e-10
1.794533395670689965e-10
