# bin_13_11
1.575477002421320118e-06
1.799145069763322977e-06
2.025890429269996687e-06
2.240729410142147539e-06
2.423959687949999104e-06
2.550140765081196909e-06
2.591903953489515965e-06
2.522344223274877847e-06
2.317671427477387837e-06
2.013722106498972946e-06
1.664081360585753795e-06
1.366608376235230226e-06
1.170323768207361577e-06
9.993731569128865245e-07
7.445606084240431958e-07
5.225936889121630649e-07
4.244807772194271799e-07
2.822097728211813468e-07
2.125498603365797408e-07
1.435459925895726817e-07
9.794881148630095296e-08
6.709213138973672185e-08
4.559322557267873637e-08
3.092876070363375814e-08
2.105498967437869657e-08
1.452705779884813632e-08
1.018769802278450103e-08
7.290269148784426689e-09
5.334718193165898924e-09
3.985926539883012673e-09
3.027143320207978699e-09
