# bin_13_13
4.835093296873643247e-06
5.532803645485138312e-06
6.246120106828035788e-06
6.929897671884414255e-06
7.525165925150228413e-06
7.954618947855608574e-06
8.128708242560362087e-06
7.973374739239867581e-06
7.392703563255060968e-06
6.480128517354566310e-06
5.383932009192987766e-06
4.410205702255168115e-06
3.751175816502673522e-06
3.230966514892002284e-06
2.469316314355630073e-06
1.710615817549973484e-06
1.382943928033526016e-06
9.439018507724024781e-07
7.012231649974307587e-07
4.688159817858221821e-07
3.239936223974535755e-07
2.212890096606008864e-07
1.498145766627654483e-07
1.010039154202211632e-07
6.812055978039969098e-08
4.642254615499388616e-08
3.208479953635845223e-08
2.258971643505851307e-08
1.626421120582494672e-08
1.197839404131300926e-08
8.999038192588283684e-09
