# bin_15_2
1.163745747126183873e-31
1.325743964415071821e-31
1.488160367723478938e-31
1.639744334347506978e-31
1.765541266282395579e-31
1.846520837065282977e-31
1.864376507851688854e-31
1.796539388253782348e-31
1.633731375403662637e-31
1.404647725584466471e-31
1.155164423556571303e-31
9.534349203386643641e-32
8.218307819874532210e-32
6.911277081315768273e-32
5.004683445386855385e-32
3.612054508748005886e-32
2.889630030444195384e-32
1.913797990635220246e-32
1.428312485999358501e-32
9.822204986653252518e-33
6.688512779325652991e-33
4.576957063320649946e-33
3.117887812983304804e-33
2.132601886826710624e-33
1.469776390093141547e-33
1.029266361052340722e-33
7.340263555477000550e-34
5.346191428959834381e-34
3.976698778154275697e-34
3.010776999304904460e-34
2.306205517791022316e-34
