# bin_13_5
7.088259653605062382e-16
8.049495045199061408e-16
8.998839730373497787e-16
9.866213348891492681e-16
1.055762865481768299e-15
1.095505053828290530e-15
1.096126872979886666e-15
1.042649844646477626e-15
9.362396912388252533e-16
7.945881278268924238e-16
6.509264945369779423e-16
5.419859488441864393e-16
4.693975690256470701e-16
3.846864340851414876e-16
2.705019151605796955e-16
2.039559199559823109e-16
1.564438175843630156e-16
1.063490715358377582e-16
7.635339875269348184e-17
5.379982486033333020e-17
3.684739715062176708e-17
2.520580469503548698e-17
1.731228392696862716e-17
1.198523802061318651e-17
8.396749170603624712e-18
5.990209618495028351e-18
4.357536545803203200e-18
3.235974341252951820e-18
2.446936266037011106e-18
1.874242326614584605e-18
1.443859645881519621e-18
