# bin_7_6
2.794097731555667153e-06
3.123054085406576660e-06
3.424494743169702715e-06
3.666144160300551040e-06
3.807482544282755442e-06
3.814008287730489602e-06
3.635338840244043342e-06
3.271394391771693827e-06
2.783153998947221362e-06
2.281577233533016441e-06
1.895899319603866194e-06
1.639199258011616179e-06
1.350018794744496202e-06
9.574077652136761713e-07
7.158725037726182352e-07
5.553306198033419348e-07
3.783902748051884379e-07
2.765402974104484811e-07
1.962506471281160012e-07
1.370643343521046177e-07
9.641440428707655409e-08
6.842890075023458260e-08
4.924383937095510047e-08
3.603073204113175525e-08
2.688576789498976419e-08
2.041050306332771717e-08
1.570774861076742992e-08
1.218286821443977264e-08
9.454345745137733118e-09
7.289382293307889040e-09
5.549273806379456952e-09
