# bin_13_2
2.391458311863476271e-27
2.711046763722351546e-27
3.024162442197389274e-27
3.306790600534637272e-27
3.526750825494385275e-27
3.644059487005535971e-27
3.627627433932656197e-27
3.427113598440935033e-27
3.057668019387737170e-27
2.578867400176303350e-27
2.110641671763043686e-27
1.766835796258139555e-27
1.530762993203069632e-27
1.234053793253436665e-27
8.593991465224750076e-28
6.627445353365824512e-28
4.943235085504272532e-28
3.438887873879925423e-28
2.410043622278327826e-28
1.712036857863216263e-28
1.177834476668159848e-28
8.080816138031774796e-29
5.583367909994390977e-29
3.890680866311626166e-29
2.749039049241177907e-29
1.979278017685217827e-29
1.453353165724067306e-29
1.088531093594055655e-29
8.285459003061955099e-30
6.371273843499903362e-30
4.913218245273268960e-30
