# bin_14_6
7.671617173699638847e-15
8.736075264351862233e-15
9.801280240816409251e-15
1.079287254275499350e-14
1.161185259941631853e-14
1.213249613898185483e-14
1.223619337797525352e-14
1.177155516663984619e-14
1.068671708297864960e-14
9.172295941590844028e-15
7.537898186217580782e-15
6.227502295075897001e-15
5.373011711124387708e-15
4.505608146961622350e-15
3.247821880189763296e-15
2.356576994991652544e-15
1.877903510045840475e-15
1.245152660588923559e-15
9.263751976200720791e-16
6.390826960560278114e-16
4.353132217886840025e-16
2.978052270462554144e-16
2.029893136014349561e-16
1.390458099278257120e-16
9.603164581240835799e-17
6.741520285949454682e-17
4.820776129295776666e-17
3.520851749986682292e-17
2.625395499763344608e-17
1.991455053460919899e-17
1.527130527589103189e-17
