# bin_5_5
5.190454772531804077e-06
5.728430854055325206e-06
6.184256624593109846e-06
6.493228572283749080e-06
6.587691891720309156e-06
6.397573676040714511e-06
5.870227087667322875e-06
5.093692875478957029e-06
4.209798132456467237e-06
3.459870798646966578e-06
2.959057775605079260e-06
2.516958805670877371e-06
1.879243187451156222e-06
1.332531251707802244e-06
1.073434272140847798e-06
7.333258285918447070e-07
5.515711190585599316e-07
3.842090676623450639e-07
2.731917848320034455e-07
1.955694408188026134e-07
1.409729324880181046e-07
1.030051165865517595e-07
7.648464698916811913e-08
5.788542131771708589e-08
4.450451515259988221e-08
3.458831133360920200e-08
2.700892842825127272e-08
2.103728593399693973e-08
1.623574378172359490e-08
1.234288935333308991e-08
9.200957629379930553e-09
