# bin_14_11
3.379775149179486906e-12
3.862827178324646884e-12
4.354608324562538589e-12
4.823288055715485852e-12
5.227245804266571715e-12
5.512342337833713308e-12
5.617758112340273571e-12
5.489653035142997994e-12
5.067820193083631315e-12
4.423580360547353151e-12
3.664808060583536929e-12
3.004009183346505794e-12
2.562481612060014559e-12
2.199161727996518999e-12
1.661100117174285282e-12
1.155722328358791491e-12
9.377618083586413731e-13
6.309127509760406664e-13
4.726184317767971854e-13
3.169314980142551977e-13
2.174442136417699240e-13
1.487509161261489905e-13
1.009051187446375816e-13
6.818925478753205275e-14
4.615717243691617876e-14
3.161572869773430720e-14
2.198558203078258613e-14
1.558803355968024662e-14
1.130380411900723871e-14
8.379588046814424760e-15
6.327341020772917037e-15
