# bin_6_2
1.845092747060025915e-15
2.017129102275364625e-15
2.152359737715059438e-15
2.227005332790295611e-15
2.221302998948443164e-15
2.106172312835484836e-15
1.886325949046792513e-15
1.597786838357909164e-15
1.308687573121840134e-15
1.090462483673356168e-15
9.418051561673276713e-16
7.674596869894447926e-16
5.429417777278443074e-16
4.116789554363630510e-16
3.151153707187859731e-16
2.193839406267564063e-16
1.599329843040180222e-16
1.152544878921498359e-16
8.220950050065992891e-17
5.927746247767063848e-17
4.334623958301325026e-17
3.223606047652783111e-17
2.440437251114663354e-17
1.878954456462009947e-17
1.463690276228161915e-17
1.146705344582720370e-17
8.972683266866888582e-18
6.963461419424201274e-18
5.327752781555879719e-18
3.998656690925165882e-18
2.932648500453556031e-18
