# bin_5_2
1.689645271892282361e-13
1.830574546319727239e-13
1.931433405054629430e-13
1.971351278531597901e-13
1.931565997881099041e-13
1.791185047778465287e-13
1.570529521627350839e-13
1.306954210069102687e-13
1.070780866305658171e-13
9.074335325338570328e-14
7.785142987797219104e-14
6.000938316377199711e-14
4.213675885197937093e-14
3.360623694285143608e-14
2.384999890948658015e-14
1.763130044017939869e-14
1.242431297304451438e-14
9.007325364989852506e-15
6.518402108408834412e-15
4.763163877934831537e-15
3.536735932605842158e-15
2.671006665641263647e-15
2.053180976572441361e-15
1.599912001507783802e-15
1.256158643510340834e-15
9.871875670501392674e-16
7.710532728208850278e-16
5.947089599627601880e-16
4.504957859900807773e-16
3.337030605628727862e-16
2.409884167423372973e-16
