# bin_5_7
8.313978020197601017e-08
9.148760024108166704e-08
9.841916073442632336e-08
1.028909620657137151e-07
1.038791625407326966e-07
1.002120794463371489e-07
9.134859930372327154e-08
7.875310952717847222e-08
6.492066388831089886e-08
5.351844992087646305e-08
4.585988585122626470e-08
3.857350987876199165e-08
2.843302982481154069e-08
2.049576636856410131e-08
1.627884918548826556e-08
1.118919909363806366e-08
8.334508858663308686e-09
5.859021087444730721e-09
4.169413473665446496e-09
2.988031735319080831e-09
2.160280180856159112e-09
1.584907865784707123e-09
1.182293524373455297e-09
8.984670227674847974e-10
6.929400051772764988e-10
5.395318410470718177e-10
4.214278099700069752e-10
3.278634465015737127e-10
2.524070715217870617e-10
1.912135563522732321e-10
1.419216403035298443e-10
