# bin_5_14
2.013274286502439044e-07
2.218982877193947717e-07
2.391855548075474793e-07
2.506802930433349694e-07
2.538299407232989413e-07
2.458854898907355938e-07
2.251576027241986073e-07
1.949843869425271421e-07
1.611296771331912265e-07
1.326005081814941195e-07
1.133093837341640323e-07
9.583694028689668384e-08
7.147214705169137366e-08
5.110391637252449321e-08
4.064609101367144068e-08
2.811044298863949536e-08
2.087541534381955713e-08
1.463637928391709060e-08
1.042698507723729471e-08
7.456494408750936765e-09
5.374617093843388691e-09
3.929552365595218107e-09
2.920342043804366445e-09
2.211312109125004603e-09
1.700518590622491008e-09
1.321410745922387446e-09
1.031245946538732915e-09
8.024885293499400086e-10
6.185759393099866708e-10
4.695982839030866701e-10
3.495261768480693495e-10
