# bin_6_12
1.337194673721065313e-07
1.487033272002845137e-07
1.620566362262901024e-07
1.721893528223492034e-07
1.771940890167740551e-07
1.754848135183292085e-07
1.648561587583936440e-07
1.463373624233397200e-07
1.229798283317865822e-07
1.006791227455807045e-07
8.450739985825824650e-08
7.289955099386913262e-08
5.802975015177586058e-08
4.068627437805237639e-08
3.156167000522617576e-08
2.326095018667966871e-08
1.651187810885357721e-08
1.169668989195904595e-08
8.361123729858633636e-09
5.893372981463006564e-09
4.177382196928671955e-09
2.995919305791879683e-09
2.180243324387578776e-09
1.615637958088758691e-09
1.219734126957721812e-09
9.348869471023763099e-10
7.241076239272257024e-10
5.630020361594255505e-10
4.362945799367239731e-10
3.347543449636410968e-10
2.529035186460376764e-10
