# bin_2_6
3.637233253020389473e-07
3.764754704781846935e-07
3.756751094498961293e-07
3.575652864472463575e-07
3.222060015692391984e-07
2.754205800632290509e-07
2.274137230535195403e-07
1.890128167678164879e-07
1.609053763282524363e-07
1.316903286923228910e-07
9.747484528419053666e-08
7.230496710409215418e-08
5.547308136885126264e-08
3.988080312998466193e-08
2.935309714230316900e-08
2.132002741336934020e-08
1.565702076955508074e-08
1.162740241941942779e-08
8.775298610785583244e-09
6.741011829343577335e-09
5.260853480215063524e-09
4.154466369171053964e-09
3.297735882859672646e-09
2.612507300589951081e-09
2.051456557371475039e-09
1.586716700332197036e-09
1.202536181049576400e-09
8.895883381519458258e-10
6.408877775768164599e-10
4.495098601907275612e-10
3.073586143422585414e-10
