# bin_12_13
1.522572277769383514e-08
1.735369187878830693e-08
1.949399009362326222e-08
2.150033884463996916e-08
2.317941653792163268e-08
2.428433495663867466e-08
2.456779360459195991e-08
2.374950684394640777e-08
2.166930049412612282e-08
1.869408893561839922e-08
1.539167813978136699e-08
1.267128424529101485e-08
1.089101030915684771e-08
9.210697572428386156e-09
6.739156552356185363e-09
4.806784387254290314e-09
3.870171045170197465e-09
2.562701872005217851e-09
1.920690447375811746e-09
1.310854472834387862e-09
8.925375231449868214e-10
6.108498524673095424e-10
4.155515519218556206e-10
2.832126755628864516e-10
1.941891206723536885e-10
1.351748102980156048e-10
9.576486675383328481e-11
6.927530656337499232e-11
5.121137493824981271e-11
3.858256517074727958e-11
2.946162676605482413e-11
