# bin_2_12
4.996823246007399046e-07
5.179693221284978107e-07
5.178211565458653257e-07
4.940265585830909614e-07
4.462807554465662343e-07
3.823258228434566629e-07
3.159431745321527717e-07
2.623038241424539094e-07
2.232108429562918681e-07
1.833686982248028043e-07
1.362383565420901010e-07
1.007303909732201451e-07
7.742077149914385533e-08
5.570423805722853383e-08
4.097434429340385242e-08
2.974671610504307744e-08
2.182984820080140121e-08
1.619105396960719048e-08
1.220182669810270578e-08
9.359582206038884933e-09
7.295033280746951865e-09
5.755427244739676209e-09
4.566359135508267653e-09
3.617503812528603227e-09
2.841905503367038243e-09
2.199994210822324140e-09
1.669336200255801443e-09
1.236708074175291798e-09
8.923835993636059938e-10
6.269023633170428986e-10
4.292874861510237227e-10
