# bin_4_7
1.480340019729112722e-07
1.609286463331620242e-07
1.705293633906354465e-07
1.749956630825402200e-07
1.726777001278655028e-07
1.616400903244293872e-07
1.430294920006249129e-07
1.200240689788173227e-07
9.838404694827851503e-08
8.271273507065531860e-08
7.101645597100324836e-08
5.613332197168094285e-08
3.975068208169391333e-08
3.081009845181311213e-08
2.271026915501678603e-08
1.628934123565905547e-08
1.170175513584515966e-08
8.440397475616648622e-09
6.066806128832048673e-09
4.406920229961267174e-09
3.249206259410305917e-09
2.436403938988518747e-09
1.859445654459585954e-09
1.440663430449562989e-09
1.126716450164144396e-09
8.838432059897539956e-10
6.905830744430044470e-10
5.338858648497204000e-10
4.060816773126755773e-10
3.024996996587130829e-10
2.199598989901938858e-10
