# bin_4_2
1.628990264379971436e-10
1.739159563596162775e-10
1.801624625813116583e-10
1.799769950111453142e-10
1.711560895564131892e-10
1.537977871435783888e-10
1.307762060606204808e-10
1.072843795470263308e-10
8.914205523959316722e-11
7.671211531698899953e-11
6.292027027562802012e-11
4.518348993735505732e-11
3.381782426476117557e-11
2.618019014376369334e-11
1.830468722194904250e-11
1.353865203339390153e-11
9.771212447038571555e-12
7.069757791710130298e-12
5.184996735795335404e-12
3.860399394576416281e-12
2.925236893688088871e-12
2.254587039723680697e-12
1.762913860586635940e-12
1.389683683242121421e-12
1.096894283351432991e-12
8.609163662147128846e-13
6.674266333094971524e-13
5.082147169575792914e-13
3.783686505936903160e-13
2.745312433778063913e-13
1.938704503183803922e-13
