# bin_15_2
3.656076465122138608e-36
4.162816085482778687e-36
4.670071185731370051e-36
5.142482110300497305e-36
5.533112128930929346e-36
5.782364376630372230e-36
5.833386667827431990e-36
5.615432502158823813e-36
5.101140068761171975e-36
4.381073237760839719e-36
3.600030644000826505e-36
2.970495113896603529e-36
2.560001209475807453e-36
2.150259938037186581e-36
1.554319059457840670e-36
1.122831832619255703e-36
8.969558992508938097e-37
5.939686637926774624e-37
4.427356981678655272e-37
3.045802185365461033e-37
2.073421349807736390e-37
1.418222244730636436e-37
9.659432360214189427e-38
6.607169955998093117e-38
4.554573740807131186e-38
3.190613572509321402e-38
2.276438059477165230e-38
1.658859089881999654e-38
1.234511087914116216e-38
9.349907363252298527e-39
7.163172491286586550e-39
