# bin_4_15
2.741187196837475282e-07
2.983710174012573222e-07
3.166680881186018067e-07
3.255850524724169465e-07
3.220658307672258063e-07
3.024242869828084779e-07
2.684254473870031365e-07
2.258389641484854480e-07
1.851498748079587944e-07
1.553126986881106128e-07
1.334387143697500807e-07
1.062463370817313626e-07
7.540186929721442843e-08
5.803921883548394860e-08
4.316597888632531391e-08
3.077125134621867744e-08
2.219429371309842426e-08
1.597845262617881507e-08
1.146704589143042287e-08
8.316013626240338745e-09
6.118318794873870395e-09
4.577459052896052111e-09
3.485601953301619699e-09
2.695680987052468039e-09
2.105663896960267532e-09
1.650866663102682635e-09
1.290100920545391078e-09
9.981721887554039008e-10
7.602606706120521374e-10
5.673721324968577617e-10
4.134606283805028882e-10
