# bin_6_3
4.639580090007215090e-12
5.089718049195968258e-12
5.454396807810087916e-12
5.674489384132810700e-12
5.696894705558678212e-12
5.450813942814561650e-12
4.924939637556112176e-12
4.207916452890184486e-12
3.453565995996061637e-12
2.858609693970434443e-12
2.462861866298260027e-12
2.045778191381844672e-12
1.472153962743163845e-12
1.084186434280388097e-12
8.534513340783954954e-13
5.830653298522789203e-13
4.337146407317196072e-13
3.084756112282902906e-13
2.190790330643457333e-13
1.574746615624056441e-13
1.144643286162645028e-13
8.454272642283108622e-14
6.353493714257081511e-14
4.861365016791000274e-14
3.769664946393880794e-14
2.945661248766629461e-14
2.304103546588429199e-14
1.791230906813752971e-14
1.375328162285478567e-14
1.037448462737852337e-14
7.656704323624625709e-15
