# bin_9_2
5.201309330442566211e-22
5.800841581829180378e-22
6.344044669055346965e-22
6.770149698060028475e-22
7.003627595088105282e-22
6.983501737539385512e-22
6.615749698541361259e-22
5.918449327116635984e-22
5.005810856036646935e-22
4.096783572670046944e-22
3.416483606788261831e-22
2.955272686719596727e-22
2.402787651797275066e-22
1.687377308228288428e-22
1.284280801978951127e-22
9.759971210454657265e-23
6.751988945507599048e-23
4.852180013745737837e-23
3.469428766547027602e-23
2.430935724293093370e-23
1.712871870472680948e-23
1.220570561285668041e-23
8.823711526358749559e-24
6.490631609154312448e-24
4.867756130202933874e-24
3.711314349395120039e-24
2.865020664592001724e-24
2.225351220862014096e-24
1.726606768061191690e-24
1.328921025553034792e-24
1.008658113348236056e-24
