# bin_8_4
1.816555222907511493e-13
2.023733339550220977e-13
2.210283890932609530e-13
2.354819903396674307e-13
2.430948428859198785e-13
2.417772161720846191e-13
2.282679149614966446e-13
2.035541386405297112e-13
1.716409279441640699e-13
1.404136534986772443e-13
1.174048063919394345e-13
1.015613952235544270e-13
8.190383926393731505e-14
5.727396767543487822e-14
4.405839179929946912e-14
3.304246989296639379e-14
2.310963901330697979e-14
1.644676325063261838e-14
1.179870508050424825e-14
8.286994397232639837e-15
5.849570514039337040e-15
4.179679931441013913e-15
3.030257718777587921e-15
2.236349616687904589e-15
1.682277659638117378e-15
1.285855429064958424e-15
9.943846382489269434e-16
7.729747317705208475e-16
5.996286459604036302e-16
4.610347370518516245e-16
3.493173367782460232e-16
