# bin_7_12
9.879397637513185731e-08
1.106185618210042354e-07
1.215644843593218033e-07
1.305140969290965473e-07
1.360556514450944680e-07
1.368852920413641376e-07
1.313372183757449835e-07
1.189898286163896809e-07
1.019374451559518891e-07
8.376003339099569335e-08
6.926144218322250668e-08
5.963869718173999291e-08
4.974302815490596091e-08
3.593768579609898615e-08
2.624504332099191165e-08
2.070533063750569109e-08
1.401240187556178499e-08
1.037280730103708043e-08
7.256241479207022617e-09
5.059297771115404548e-09
3.554022266596146895e-09
2.510622235975595312e-09
1.794645987134552602e-09
1.302558685404722033e-09
9.642618128544174204e-10
7.268373655504712154e-10
5.562030344016586745e-10
4.298624891058036751e-10
3.331714111894696663e-10
2.571236849492006810e-10
1.962995030574388408e-10
