# bin_15_7
3.303411285598332863e-18
3.768011671305790208e-18
4.236968208031111063e-18
4.678704169495167132e-18
5.051627054041235306e-18
5.302388274019766428e-18
5.375588322329778250e-18
5.212740147966267638e-18
4.771384886839220766e-18
4.129623783420066370e-18
3.404765591460993714e-18
2.798253405997598446e-18
2.400594765927240363e-18
2.040537274977509440e-18
1.505671877540801054e-18
1.064024788964414435e-18
8.619979263033831132e-19
5.703209870496391559e-19
4.293800864070032851e-19
2.913938358602769580e-19
1.983711137964138139e-19
1.358284173542303337e-19
9.232079386434829903e-20
6.275550490933953590e-20
4.286330403337456664e-20
2.969971134389340419e-20
2.093176383464028857e-20
1.505973147673673373e-20
1.107740586721983410e-20
8.312790960720103120e-21
6.332104723673345816e-21
