# bin_7_11
8.522900533602197373e-08
9.541417898051969549e-08
1.048344086621195357e-07
1.125241170678276951e-07
1.172645547991719676e-07
1.179362473772633800e-07
1.130964824672856146e-07
1.024082795078538427e-07
8.768419056682372197e-08
7.203268995508770023e-08
5.958226585224293329e-08
5.131777965778182081e-08
4.276302146976485032e-08
3.085358953626231365e-08
2.256663645132482265e-08
1.778428267533032895e-08
1.203847204119258360e-08
8.905694358630362271e-09
6.235215601221295102e-09
4.347466611012614319e-09
3.054410463049689997e-09
2.158423621846957899e-09
1.543613329928306968e-09
1.120999639167914832e-09
8.303348899418355891e-10
6.262120758502544966e-10
4.794004311502667838e-10
3.706016587932344183e-10
2.872654888988386616e-10
2.216782237924492299e-10
1.692010179927981011e-10
