# bin_12_6
1.015431285299241349e-15
1.150571320941122929e-15
1.282781935515634156e-15
1.401870420804138540e-15
1.494199371914339623e-15
1.542853051402484700e-15
1.534791025091115062e-15
1.448740003499320859e-15
1.291459889389817772e-15
1.088255640059133066e-15
8.900710955078413220e-16
7.448610856989269561e-16
6.451255056000649090e-16
5.195275046674060254e-16
3.613647848682155548e-16
2.788435520265582373e-16
2.076785802396151575e-16
1.445254238981789809e-16
1.011272482252713636e-16
7.186172149584675960e-17
4.942628572346486604e-17
3.389805857472617983e-17
2.341914823115007815e-17
1.631867407434627580e-17
1.153091686732550743e-17
8.303279182303111855e-18
6.098116348894517482e-18
4.568263212773272182e-18
3.477724818973389422e-18
2.674466020134928056e-18
2.062343917654591369e-18
