# bin_8_1
8.760795757775810564e-24
9.696227983282873670e-24
1.050519937281276671e-23
1.108055786442682888e-23
1.130147909935021053e-23
1.106127041801824552e-23
1.023848867203965978e-23
8.960224141986123214e-24
7.441135871530197848e-24
6.094445035420273302e-24
5.175960607629756786e-24
4.443042826905613780e-24
3.399909479205821786e-24
2.374866818334332380e-24
1.908090690076918405e-24
1.328658823974488173e-24
9.874034874929032450e-25
6.832353063480509832e-25
4.883321721845168314e-25
3.479571776509026061e-25
2.492720576043898989e-25
1.808719420283474677e-25
1.332681070363459037e-25
1.000966093017472981e-25
7.647411205726482192e-26
5.916671572075385655e-26
4.609723611725976314e-26
3.590774532369300565e-26
2.777208588601683339e-26
2.119581298181643460e-26
1.588500510003063265e-26
