# bin_10_1
2.265032969246499529e-08
1.932023790003551088e-08
1.609379914556787666e-08
1.315684502311842279e-08
1.060483327759469092e-08
8.435644514302054768e-09
6.595715928806612378e-09
5.053563509186489160e-09
3.820655549671998223e-09
2.888221491081343436e-09
2.190471534891014507e-09
1.665332333620901774e-09
1.277375470121292048e-09
9.897964222152798541e-10
7.742615006542599888e-10
6.100777470306087845e-10
4.823905056922885494e-10
3.810290114618519581e-10
2.992493168643221271e-10
2.326635070397423218e-10
1.783971874054655935e-10
1.344826922177000435e-10
9.943918419770751617e-11
7.201290706020672524e-11
5.104403401266302490e-11
3.542065418628818417e-11
2.408704010078228181e-11
1.607842206800268094e-11
1.055708717335771669e-11
6.834024613572217755e-12
4.371498582976128727e-12
