# bin_12_7
7.225567306808691733e-08
6.808899036682799811e-08
6.254855191146459844e-08
5.592027053670877574e-08
4.862719337693608169e-08
4.117791854229270780e-08
3.407867191074187655e-08
2.770711500539130000e-08
2.222329698441252773e-08
1.758000930769504674e-08
1.363971330834972288e-08
1.034318279051398777e-08
7.737391334629056797e-09
5.796494327689070950e-09
4.337467652666343489e-09
3.237480534635173518e-09
2.437405747549972143e-09
1.845665351014065801e-09
1.409476052833289184e-09
1.083461861415317519e-09
8.363047444807634678e-10
6.459767348369422389e-10
4.973886783387190874e-10
3.803198541779070250e-10
2.877670448518903634e-10
2.148292533248283446e-10
1.578687644864996895e-10
1.140025358462957259e-10
8.081598940182172646e-11
5.621793528671432379e-11
3.838349015240582991e-11
