# bin_4_4
4.033583408094286353e-08
3.619141782294141799e-08
3.160513056324043377e-08
2.688325734582489360e-08
2.233819671333619568e-08
1.821809333017516795e-08
1.464719801821985470e-08
1.162189062344570288e-08
9.066896813257206722e-09
6.930062291081499793e-09
5.219930888015081913e-09
3.929850721614066292e-09
2.967711000530703147e-09
2.240023262547088798e-09
1.704656077362629015e-09
1.308213813990212350e-09
1.012704646069019831e-09
7.892494270404998489e-10
6.173902717209547841e-10
4.828005230863722358e-10
3.758227746943983878e-10
2.900233586727283987e-10
2.210678277809368072e-10
1.659365844603603551e-10
1.223683417311688850e-10
8.851165096626548381e-11
6.274129513212615296e-11
4.357808346366424502e-11
2.967528015586795993e-11
1.983685098710157965e-11
1.303948825518468044e-11
