# bin_6_5
5.172623452236667895e-08
4.738624239907573100e-08
4.226248643877593191e-08
3.667841864167076890e-08
3.101513483420763741e-08
2.564339669817372000e-08
2.083423265833471026e-08
1.669841612951797688e-08
1.319967034152476936e-08
1.024146321852942568e-08
7.780828472791300206e-09
5.840796178643301244e-09
4.392038470249819373e-09
3.304870110696771719e-09
2.486127092275627258e-09
1.887362552621303071e-09
1.443147736343121768e-09
1.112975372764871122e-09
8.636985180114756426e-10
6.724326045482132293e-10
5.231892275886392801e-10
4.051382104093944296e-10
3.110110373041752410e-10
2.358546050659172031e-10
1.761787114765352015e-10
1.293419284860779957e-10
9.318273916629435417e-11
6.582396234167779392e-11
4.558546543697509677e-11
3.096712861859372199e-11
2.065881231183863701e-11
