# bin_11_7
7.090039858040728513e-08
6.671619864155678678e-08
6.119658152641074465e-08
5.463063734011690295e-08
4.743958995194539391e-08
4.012397218203876916e-08
3.317540436651328115e-08
2.695369855284885640e-08
2.160479129740835567e-08
1.707629231886718812e-08
1.323578027469528905e-08
1.003053720791119210e-08
7.504380158355111627e-09
5.623460814415779237e-09
4.208534720587520001e-09
3.143513234908982910e-09
2.368371076745171690e-09
1.794951427978408479e-09
1.371835910195525303e-09
1.055242585094360220e-09
8.149030269243608156e-10
6.295790261567986561e-10
4.847366790187872107e-10
3.705303952380346767e-10
2.802090147899108208e-10
2.090346150004994451e-10
1.534756768756569196e-10
1.107209775642823820e-10
7.840738699256881726e-11
5.448410031890485164e-11
3.716064009190552913e-11
