# bin_5_1
2.065032312835504834e-08
1.755042470420510470e-08
1.457745760541704773e-08
1.189048052755478934e-08
9.564561373625404833e-09
7.590585919356195370e-09
5.920479241713304603e-09
4.529087755291612753e-09
3.424426750031423072e-09
2.591119835842139172e-09
1.967084471227553041e-09
1.498086567471920533e-09
1.151512964943752299e-09
8.940043880498088244e-10
7.004458712123743279e-10
5.524394117809645939e-10
4.368935416206029289e-10
3.448796566521041758e-10
2.704947271688563168e-10
2.098953844006613357e-10
1.605478986094305045e-10
1.206928388346169103e-10
8.897947306694641413e-11
6.424487018274219765e-11
4.540496714400591255e-11
3.142153376077229057e-11
2.131497076836595297e-11
1.419761074530630473e-11
9.305371619556693641e-12
6.014878254736906034e-12
3.843015698765754295e-12
