# bin_13_6
6.825516511254775691e-08
6.394858471542508280e-08
5.837458215464253787e-08
5.183923162705092979e-08
4.477397338970806917e-08
3.767813441967488605e-08
3.102458240324863681e-08
2.513150414712781343e-08
2.009860241400932524e-08
1.583775743290573581e-08
1.221768418809364584e-08
9.217992691797061172e-09
6.894950996042506525e-09
5.175646113867749151e-09
3.870179698381149097e-09
2.899181034209172394e-09
2.190288300969405393e-09
1.666361622094927341e-09
1.278055963245681800e-09
9.864215568311505990e-10
7.638039503581950617e-10
5.911354723115293086e-10
4.554673518297746584e-10
3.480347364856628950e-10
2.628360261471966484e-10
1.956235569930757717e-10
1.431799615658402266e-10
1.028983203541090031e-10
7.254889002170615294e-11
5.017329826065361018e-11
3.405106669921982645e-11
