# bin_7_4
4.854557766699141998e-08
4.418108142295654485e-08
3.912931688839631959e-08
3.372023015938559483e-08
2.832797022943355885e-08
2.329773098766865763e-08
1.885540566281407675e-08
1.506547655095797287e-08
1.186058028931399580e-08
9.148642121596229754e-09
6.915531689838508168e-09
5.190988446891602085e-09
3.911588399827290520e-09
2.942628745403129671e-09
2.221673017515130469e-09
1.692984999934592163e-09
1.300405364931576231e-09
1.007058937083588085e-09
7.843324118941614043e-10
6.121815680733731174e-10
4.768813307175017794e-10
3.692106903732843620e-10
2.829908013181696592e-10
2.140046075550485190e-10
1.592354546353581623e-10
1.163410602334987795e-10
8.335366871839979570e-11
5.852703973705056753e-11
4.027923798427215746e-11
2.719301689306046378e-11
1.803434766884608771e-11
