# bin_11_10
8.105420680787189951e-08
7.723377631573686144e-08
7.181651415506279891e-08
6.504321360965909795e-08
5.731440310579954263e-08
4.915252977417983095e-08
4.112217018172260450e-08
3.371240361967255262e-08
2.721190630300065788e-08
2.167192858580690170e-08
1.697757104224337318e-08
1.301359704239226740e-08
9.780005486328548087e-09
7.303126121682998499e-09
5.461707856180523851e-09
4.066686371685054492e-09
3.036163451294642557e-09
2.282550738854545238e-09
1.727369040376571147e-09
1.316579898897130001e-09
1.009062662680682352e-09
7.754406862348115100e-10
5.954287220201517269e-10
4.551652320937668460e-10
3.451554026186655397e-10
2.588146983979768783e-10
1.914153664383668700e-10
1.393532293620128665e-10
9.972759926951497713e-11
7.010453464839773926e-11
4.839928824765680740e-11
