# bin_14_3
4.617703300346778375e-08
4.168739380573320649e-08
3.659554104796809936e-08
3.125331047375517056e-08
2.604389484706228315e-08
2.128885391879217139e-08
1.716090795923817829e-08
1.366137938027945424e-08
1.068623228814746645e-08
8.168145772059221200e-09
6.142593975597890291e-09
4.622726367250585214e-09
3.485893398799252311e-09
2.623680667156900069e-09
1.992663162033434564e-09
1.525676296724362818e-09
1.179216187557315771e-09
9.183501757934841611e-10
7.185347017470128449e-10
5.625479805550840824e-10
4.387699256498371760e-10
3.394910880465646236e-10
2.595649532802918464e-10
1.954695938362395221e-10
1.446191252072728171e-10
1.049299487062192407e-10
7.458529746649741515e-11
5.192574583941721298e-11
3.542573731997311491e-11
2.371417832574419323e-11
1.560392931321131488e-11
