# bin_9_2
3.371710111178967381e-08
2.966183352579992151e-08
2.539204344886807095e-08
2.120817314936781414e-08
1.736827301991224053e-08
1.401879732045472525e-08
1.117358972687402069e-08
8.759422898380196753e-09
6.719896646799598603e-09
5.071229249562689298e-09
3.822962550800530700e-09
2.891351838156452101e-09
2.186210786476689575e-09
1.666495736211714038e-09
1.282290306287382483e-09
9.959665124207492209e-10
7.796008366794441059e-10
6.130094122490734734e-10
4.821629499387909375e-10
3.776443359967320902e-10
2.932516029507539282e-10
2.248866499391137974e-10
1.697595595525244161e-10
1.258217358460086761e-10
9.140365079897115842e-11
6.501979259567727231e-11
4.528491258785500773e-11
3.090197474451752017e-11
2.068967157656742035e-11
1.361750480155132032e-11
8.830524664181411491e-12
