# bin_11_9
7.825903401025249053e-08
7.433459754477103087e-08
6.888353317655819116e-08
6.216008232977443912e-08
5.457110305029108157e-08
4.663419475541513219e-08
3.889549937608820258e-08
3.181095714360106463e-08
2.563020344266923892e-08
2.037491272539161165e-08
1.592142027344841296e-08
1.216849077019755880e-08
9.130338739646474070e-09
6.822502898500165686e-09
5.104894247213396691e-09
3.802360040305941705e-09
2.845584417941067894e-09
2.143387703106112076e-09
1.626375523794569693e-09
1.242587872547754100e-09
9.543315623711850590e-10
7.345171548476174139e-10
5.645080010467238918e-10
4.316115063203155591e-10
3.271288474532053806e-10
2.450177570847525783e-10
1.809025218964957806e-10
1.314116330858464786e-10
9.380171597618086615e-11
6.574947037566827263e-11
4.525356453189953356e-11
