# bin_3_3
3.169155273689627030e-08
2.789507885689090300e-08
2.391001728461067950e-08
2.000127009616674244e-08
1.639852919717803589e-08
1.323919149581219644e-08
1.055035572683061670e-08
8.280263272413392487e-09
6.373080874087497309e-09
4.822322517533798235e-09
3.633662310271496181e-09
2.749398777811558840e-09
2.081311213287143309e-09
1.584940051156116556e-09
1.218821777328441752e-09
9.453158172633089156e-10
7.387832119967858087e-10
5.799421910872555032e-10
4.554370901585334490e-10
3.562431604370657608e-10
2.763726459864028958e-10
2.118421836752800750e-10
1.599191527915010334e-10
1.185969300687892780e-10
8.625083026043507617e-11
6.145153475765499505e-11
4.288311898279564065e-11
2.932631216535845237e-11
1.967798090971752502e-11
1.297871199267731868e-11
8.432015777417124982e-12
