# bin_12_8
7.647625515247119924e-08
7.246782511331611858e-08
6.697561235205108532e-08
6.026440084999762673e-08
5.274781912591084091e-08
4.494335810603596092e-08
3.738830601016325910e-08
3.051730908396971502e-08
2.455183593427202777e-08
1.948929370358011975e-08
1.519635874803914215e-08
1.158287455435899444e-08
8.678183434558592447e-09
6.489666512585584565e-09
4.857121327344991155e-09
3.618493756497792334e-09
2.713825563397718395e-09
2.047295553525094680e-09
1.556965737869642135e-09
1.192067713067874064e-09
9.171815676528976506e-10
7.068921235707228720e-10
5.437295248051843832e-10
4.158290958719318087e-10
3.150599715071285215e-10
2.357697083817172439e-10
1.738342798102446103e-10
1.260476586521950507e-10
8.977641956354465138e-11
6.277240547320462398e-11
4.308904916284666297e-11
