# bin_15_1
2.346030488824083272e-08
2.004309537109701587e-08
1.671798372235371330e-08
1.368151029547670089e-08
1.103791742297615030e-08
8.788834420179008480e-09
6.879207445195583506e-09
5.274967641283163787e-09
3.988699878571992584e-09
3.014547628516316830e-09
2.285681227013396786e-09
1.736779178610055889e-09
1.331199706783249347e-09
1.030784850370434564e-09
8.058404525383621348e-10
6.347193746371394022e-10
5.018210242589323489e-10
3.964476732158269372e-10
3.114968690312845192e-10
2.423475706468091510e-10
1.859786535009725336e-10
1.403322209402546873e-10
1.038706508469317334e-10
7.530022739047489554e-11
5.342781257258178735e-11
3.710937143145030579e-11
2.525630626919565074e-11
1.687080285255874307e-11
1.108373882225575028e-11
7.178179376885053797e-12
4.593188611127281401e-12
