# bin_10_6
6.490831711868053884e-08
6.060606828466535569e-08
5.513344386277437996e-08
4.879900421454106467e-08
4.202308790074312423e-08
3.527848135279701568e-08
2.899753493148882863e-08
2.345733898997379846e-08
1.873137812831683142e-08
1.473049809626465767e-08
1.134105435859079714e-08
8.551351763138637809e-09
6.401491200727659160e-09
4.807609416468251467e-09
3.598111144067310566e-09
2.700594965682220279e-09
2.043835755679088459e-09
1.558042792492553626e-09
1.197027168489284022e-09
9.250657529934522597e-10
7.168019655671803875e-10
5.547981675660575499e-10
4.272304964007133883e-10
3.260866763772062781e-10
2.458603708678476662e-10
1.826201633599817475e-10
1.333551079007774226e-10
9.559998207708324299e-11
6.723107793626332858e-11
4.637812418149977147e-11
3.139956325028017614e-11
