# bin_12_3
4.532515461815428199e-08
4.087588102238379192e-08
3.584871721086502540e-08
3.059044389993569052e-08
2.547530432424382751e-08
2.081407778188006468e-08
1.677089254554546672e-08
1.334387001434033413e-08
1.043167620100226800e-08
7.970524425843747448e-09
5.994275111026722671e-09
4.512001675789925481e-09
3.402886693708749023e-09
2.562265622390130949e-09
1.946933849425626466e-09
1.491384813326976668e-09
1.153204914904155393e-09
8.983737764683413691e-10
7.030110499332742959e-10
5.503801344421940600e-10
4.291945107423747206e-10
3.319657344640337685e-10
2.536905685907924494e-10
1.909371912735536457e-10
1.411768782894577850e-10
1.023648905309303752e-10
7.271412536512937111e-11
5.059112857130021450e-11
3.449519969762320163e-11
2.307943426450122331e-11
1.517963602085309343e-11
