# bin_8_5
5.637839024325639002e-08
5.200370075104358436e-08
4.670577491773287051e-08
4.080939267359003825e-08
3.471747322647110747e-08
2.884504137111562511e-08
2.352277604246314767e-08
1.891397725496191902e-08
1.500864431413977546e-08
1.170036082866800356e-08
8.922359610722246868e-09
6.699704986842978372e-09
5.030531561553618815e-09
3.783279614616592098e-09
2.838296974912839026e-09
2.147115307601660868e-09
1.635731738214606327e-09
1.257029445056967784e-09
9.726144930499445366e-10
7.557670056663265160e-10
5.875907353677422711e-10
4.552290967667141585e-10
3.500448283952573818e-10
2.661726061110531740e-10
1.995335775955340570e-10
1.471082055219666450e-10
1.064809593130529471e-10
7.559152901957719833e-11
5.261272656815124277e-11
3.591488711652765247e-11
2.406813017460819554e-11
