# bin_9_3
4.344479248550217542e-08
3.908461087260596084e-08
3.420022887722342007e-08
2.912726817379480519e-08
2.422022074674550210e-08
1.976606871409014840e-08
1.590998943846795642e-08
1.264301668611922423e-08
9.869777037619150299e-09
7.534301232178817956e-09
5.666883154821041409e-09
4.267592612890454013e-09
3.219661309898538718e-09
2.426701156062653064e-09
1.845993266441305678e-09
1.415691479195944126e-09
1.095788902261577823e-09
8.542787878716777854e-10
6.687447861708689084e-10
5.235212775453074960e-10
4.080580450987154370e-10
3.153544771517321386e-10
2.407235949148989972e-10
1.809324645883882164e-10
1.335785295569280561e-10
9.670282499526044429e-11
6.858372708717015099e-11
4.764510993231038828e-11
3.244113925506307884e-11
2.167830435629280066e-11
1.424305291259723577e-11
