# bin_3_1
1.862389192782272828e-08
1.576114046583487125e-08
1.304747089929016871e-08
1.061481410006058905e-08
8.517951352572199957e-09
6.741246280277997241e-09
5.242579123904139994e-09
4.003226112374523154e-09
3.027610600727065120e-09
2.293818954979099879e-09
1.743724534683268708e-09
1.330986890667093219e-09
1.025831417895992990e-09
7.983908757095270334e-10
6.267846244477640969e-10
4.949238114098100309e-10
3.914863956950415890e-10
3.087896975803309963e-10
2.417736693417395378e-10
1.871404464987632312e-10
1.426970738877812270e-10
1.068919997325467068e-10
7.850382526214641383e-11
5.645937873673500512e-11
3.974923783181179390e-11
2.740784513968554629e-11
1.853094718875183356e-11
1.230745731316210902e-11
8.046633681388532476e-12
5.190617126194353794e-12
3.310902560183412258e-12
