# bin_13_9
8.144953587833621327e-08
7.761567482074578956e-08
7.217099906708690321e-08
6.535709486268600135e-08
5.757768789920261038e-08
4.936088008477263485e-08
4.127892609540078300e-08
3.382821321501977222e-08
2.729939770063305242e-08
2.174047378192016142e-08
1.702862895046097104e-08
1.304496167312746422e-08
9.795866884924066975e-09
7.314485701139789033e-09
5.471450901949177948e-09
4.071946592448559349e-09
3.041136885880734958e-09
2.286401715187053012e-09
1.731020211285061880e-09
1.319840756667359145e-09
1.011990358403777049e-09
7.780262866280915666e-10
5.976523865537496696e-10
4.570235861149295902e-10
3.466572571805124017e-10
2.599869729041498545e-10
1.922972819114024608e-10
1.399907470392299947e-10
1.001690852193567276e-10
7.039631062969011662e-11
4.858245421595174842e-11
