# bin_10_8
7.325339900087618182e-08
6.917564371174763635e-08
6.370212611777231205e-08
5.710819446228846699e-08
4.980735899138518775e-08
4.230263424727855765e-08
3.510102892645067709e-08
2.859489566190414441e-08
2.296742619624089424e-08
1.819556519991235854e-08
1.415176270262730469e-08
1.076390929753099376e-08
8.062323146933184143e-09
6.034039093835039130e-09
4.517037525579827122e-09
3.369769274135539405e-09
2.532336442589127251e-09
1.914388728822194040e-09
1.459046413857225062e-09
1.119285409206580551e-09
8.624551411977539073e-10
6.652932002498347786e-10
5.118394720927393211e-10
3.912616041674847612e-10
2.961285710109244435e-10
2.212481636293312799e-10
1.627947879129632406e-10
1.177621468776362262e-10
8.365593521397652622e-11
5.833250422544725360e-11
3.993054899593984693e-11
