# bin_14_2
3.545654978398901585e-08
3.126846467458128906e-08
2.682411798443865521e-08
2.244183434666771550e-08
1.840193189860098420e-08
1.486953514278131559e-08
1.186671523428359884e-08
9.316282591277975609e-09
7.154599024483263771e-09
5.399529084905065540e-09
4.068372347030483648e-09
3.075672496928549717e-09
2.323468169825450371e-09
1.769006152782852807e-09
1.359605055627243632e-09
1.054925679449911021e-09
8.251557618495776126e-10
6.486268716488321201e-10
5.102457625489525119e-10
3.998639105799094937e-10
3.107966159578199024e-10
2.386367294351229887e-10
1.804018644176847812e-10
1.339231971798178128e-10
9.745021045702362338e-11
6.943476930538006974e-11
4.843522112461469814e-11
3.309870988612495235e-11
2.218810765365363527e-11
1.461920034590491227e-11
9.488328788926701903e-12
