# bin_15_3
4.647681114019837467e-08
4.197295308824248586e-08
3.685832366357885102e-08
3.148653594946801314e-08
2.624393697918596829e-08
2.145587777969784559e-08
1.729812457611558710e-08
1.377309124267978621e-08
1.077578574103678044e-08
8.237669313734883603e-09
6.194776749667921088e-09
4.661681402249926310e-09
3.515096983585661878e-09
2.645288549378293559e-09
2.008752297659284861e-09
1.537741179555855906e-09
1.188367824571093237e-09
9.253784584535572333e-10
7.239962775094164115e-10
5.668288128954649487e-10
4.421386246066550545e-10
3.421385056876465429e-10
2.616315245724829970e-10
1.970640413317136063e-10
1.458300523118627102e-10
1.058322825346725619e-10
7.524352692674702123e-11
5.239522217858613190e-11
3.575306643765156066e-11
2.393745522525698230e-11
1.575317667839454873e-11
