# bin_8_7
6.529152408981245890e-08
6.104782071777897593e-08
5.562685196390904932e-08
4.932966370493202074e-08
4.256873847432439972e-08
3.581034014765285461e-08
2.948537719689822502e-08
2.388049623567376743e-08
1.908471287317001762e-08
1.502573875401520777e-08
1.159307800737480323e-08
8.760700380317336870e-09
6.559108180769947434e-09
4.922007471096998393e-09
3.686272153747095700e-09
2.763220892383426566e-09
2.089139768300062047e-09
1.589937721060282559e-09
1.219719617999023386e-09
9.412104105788128776e-10
7.284076602042998479e-10
5.632818550533934070e-10
4.335536707751461218e-10
3.308984850410684191e-10
2.495853377431209200e-10
1.855353477582855364e-10
1.356447281395270665e-10
9.739050017698475644e-11
6.861546422097306440e-11
4.743034596982945054e-11
3.218250130120812817e-11
