# bin_15_7
7.520795210895708272e-08
7.109535505543600984e-08
6.552536900691233275e-08
5.877550337765508577e-08
5.127116479416361468e-08
4.353712941704252747e-08
3.611070541620587800e-08
2.940895335602416749e-08
2.362448048822171533e-08
1.872373425191772389e-08
1.455941257990397694e-08
1.105771576456808661e-08
8.271653605574730778e-09
6.193767604196648173e-09
4.634108231852498703e-09
3.454105228065931607e-09
2.596698652820811953e-09
1.962787868635734557e-09
1.496427729880699247e-09
1.148631176642741359e-09
8.856913318010347190e-10
6.837709834329072095e-10
5.265064046547510315e-10
4.028130661336489953e-10
3.051041022888105386e-10
2.280999030412415661e-10
1.679147726721258977e-10
1.214968975786309905e-10
8.631048661063696123e-11
6.016935093935541258e-11
4.116810521486580241e-11
