# bin_11_2
3.457152250782295986e-08
3.045101549479100791e-08
2.609548353714181903e-08
2.181415312238553247e-08
1.787601204566822596e-08
1.443668593369913596e-08
1.151405665861761437e-08
9.032954674105537094e-09
6.933424961989879329e-09
5.232491885687994253e-09
3.943508791792754693e-09
2.981890914879108764e-09
2.253632139443677427e-09
1.716849196723793476e-09
1.320267579954096238e-09
1.024927476566444042e-09
8.019776073848852012e-10
6.305048812654338969e-10
4.959573846479349177e-10
3.885587315753239922e-10
3.018698354431284627e-10
2.316407912857575675e-10
1.749871421178865750e-10
1.298012376409198209e-10
9.437376903802168390e-11
6.718846443778852648e-11
4.683236944987958462e-11
3.198102883756744958e-11
2.142571563673142927e-11
1.410954593521123029e-11
9.153643541706361022e-12
