# bin_1
0.000000000000000000e+00
2.889523107321442258e-14
6.484146047076234763e-10
7.997020223417283191e-07
1.447496488437535799e-04
6.162639265242800951e-03
8.584213111441225952e-02
5.052161634088779829e-01
1.548674984550191036e+00
2.942654468680911517e+00
3.956415571557405642e+00
4.057708311592452155e+00
3.251055984710181423e+00
2.042629307271125683e+00
1.014797525067718142e+00
4.059117787688097390e-01
1.339115202119479930e-01
3.739441016209458374e-02
9.064165518261507390e-03
1.951774925757992921e-03
3.811394454585117228e-04
6.873332522547023293e-05
1.162860254863614320e-05
1.871026829558899210e-06
2.896775160503734459e-07
4.359122775319776975e-08
6.430904677928352166e-09
9.369774639605706151e-10
1.356739012927352944e-10
1.962884362574715237e-11
2.850339175503535775e-12
4.170357241817423399e-13
6.167897307919037382e-14
9.246491352719537081e-15
1.408279433495004639e-15
2.183245409852645531e-16
3.450678229992404249e-17
5.567459515096993869e-18
9.179435708280523003e-19
1.547905971169371432e-19
2.671324174801500817e-20
4.720381834963358842e-21
8.543819953390981359e-22
1.584369239787584840e-22
3.010586917058471112e-23
5.862189318834443000e-24
1.169697578932477679e-24
2.391420852896194334e-25
5.008955456652012724e-26
1.074650270050409501e-26
2.361125941846920157e-27
5.311193898621581731e-28
1.222822103373264473e-28
2.880711786890402377e-29
6.941622227665665195e-30
1.710407124365516711e-30
4.307873374099981887e-31
1.108650940433827683e-31
2.914310195486974369e-32
7.822115866058270473e-33
2.142877670860931458e-33
5.989514877617212548e-34
1.707431992556574936e-34
4.962373294230700763e-35
1.469830508961214185e-35
4.435224684116155698e-36
1.362933740154217101e-36
4.263699170400875002e-37
1.357359743307387192e-37
4.395881883450543193e-38
1.447731548094450821e-38
8.359810395034263735e-39
