# bin_4
0.000000000000000000e+00
8.062010830919224396e-82
7.175950062295556118e-67
8.977101075809574381e-55
7.997002026801712986e-45
1.346559660006080843e-36
8.881901255661317998e-30
4.057302013147065394e-24
2.022164032207759086e-19
1.587253043467050138e-15
2.646386989685338349e-12
1.198336564251642380e-09
1.806129053447903763e-07
1.073399532774007698e-05
2.899878858139596865e-04
4.016382305464269095e-03
3.159913254974631297e-02
1.542522845461304082e-01
5.042969420731531205e-01
1.179375838852612546e+00
2.085551161224737271e+00
2.915356494728180259e+00
3.330557537190113049e+00
3.183766041198106134e+00
2.589820964491566180e+00
1.816469388187998080e+00
1.111558797219915462e+00
6.002920523146102472e-01
2.893881160536797004e-01
1.259452678483358457e-01
5.002646550274248566e-02
1.832417377673785028e-02
6.249528834054313316e-03
2.002326859161138953e-03
6.076066177395979826e-04
1.759222475831689870e-04
4.892518499872964307e-05
1.314838789479271071e-05
3.433130572675528411e-06
8.751706183024691519e-07
2.187590539997217937e-07
5.382660765329112105e-08
1.308254909924144952e-08
3.150625146038093977e-09
7.538916364480400602e-10
1.796787880543324458e-10
4.274749394595267342e-11
1.017173868410261704e-11
2.424936678264575789e-12
5.800844889147009438e-13
1.394300579783412821e-13
3.371444643397595841e-14
8.209728571662617887e-15
2.015107201672242169e-15
4.989740509552610167e-16
1.247318976190211748e-16
3.149678011769345638e-17
8.038540301128260058e-18
2.074491589080127010e-18
5.415538356751144459e-19
1.430582858078369623e-19
3.825148933392808271e-20
1.035497674185260475e-20
2.838559232201108435e-21
7.880622194437672110e-22
2.216089108765698136e-22
6.312696590672658311e-23
1.821663695054357403e-23
5.325504444182856569e-24
1.577235176460722836e-24
4.732280413835738948e-25
2.604762794562116423e-25
