# bin_10
0.000000000000000000e+00
0.000000000000000000e+00
0.000000000000000000e+00
4.452389036014157506e-298
2.757312117133311867e-260
7.296579357757286593e-228
6.548317706876560787e-200
1.046361859285915562e-175
1.141287938145199989e-154
2.550101322187607072e-136
2.887300933311531224e-120
3.511793714388460399e-106
8.591750974649893578e-94
7.158819485918834689e-83
3.168115380522699951e-73
1.085481736586505540e-64
3.969438160442988708e-57
2.038936111624935919e-50
1.862560172273582333e-44
3.708519757810161105e-39
1.919248383552559003e-34
3.008090764699557911e-30
1.631222567688599352e-26
3.438220449539191643e-23
3.119185702221119434e-20
1.332168967220765025e-17
2.898604873960275130e-15
3.445380129859844909e-13
2.379850367692043320e-11
1.009174366762834637e-09
2.758727306071345733e-08
5.078254980122381332e-07
6.545174615012125656e-06
6.116624096194698667e-05
4.276828816562582296e-04
2.301522603936897310e-03
9.777535263617118111e-03
3.355017908487636924e-02
9.491449033618631903e-02
2.254936757275474435e-01
4.573341935732880836e-01
8.034735252292034557e-01
1.238696536890135480e+00
1.695034243400606044e+00
2.079702071865140667e+00
2.308466933858201120e+00
2.336759504923538344e+00
2.172631860008059856e+00
1.867495739200703664e+00
1.492824866644289816e+00
1.115840273273601024e+00
7.838462311156997320e-01
5.199159117016133314e-01
3.270462434271558805e-01
1.959001642611679639e-01
1.121684906859968106e-01
6.161284237134836278e-02
3.257537389942478934e-02
1.662969997614857642e-02
8.221029993738290798e-03
3.946397535599577636e-03
1.844229609411163640e-03
8.410095635991557189e-04
3.750773012985536797e-04
1.639346757928819879e-04
7.035348694456890456e-05
2.969900739173952835e-05
1.235271462303481953e-05
5.070130725983328517e-06
2.056539612560285017e-06
8.254618655279830820e-07
5.211202338553233834e-07
