# bin_7_15
-1.838417814132765766e-16
-2.097769048098060489e-16
-2.359962149927663231e-16
-2.607466504882987457e-16
-2.817197299308506912e-16
-2.959472593443131701e-16
-3.003074219151287759e-16
-2.915833667072681366e-16
-2.672683334449117491e-16
-2.316496156592386316e-16
-1.911583287897802480e-16
-1.570766749881444684e-16
-1.346789284455689348e-16
-1.146628745133801298e-16
-8.488839590276068852e-17
-5.984934578343774125e-17
-4.853899637010221569e-17
-3.215914613548547615e-17
-2.422158828214883884e-17
-1.641077464217702329e-17
-1.117937061523569532e-17
-7.655421526876164032e-18
-5.202607580865609615e-18
-3.533688875126162819e-18
-2.410595226419869130e-18
-1.667667972792727425e-18
-1.173196844347519761e-18
-8.424265447882901091e-19
-6.185050558502847273e-19
-4.634269932798851811e-19
-3.526376159149762851e-19
