# bin_5_4
-1.210753080938947200e-08
-1.328548812228175879e-08
-1.424148264763869790e-08
-1.482114627610962712e-08
-1.488519723248894357e-08
-1.424899945640184001e-08
-1.288109724094772587e-08
-1.101189633008335745e-08
-9.041808263243540545e-09
-7.485277322566186484e-09
-6.448986396709390498e-09
-5.359374814907305641e-09
-3.860313197020182001e-09
-2.841852543248344270e-09
-2.237890246914602346e-09
-1.529394955626698168e-09
-1.137907921152175627e-09
-8.090758808846282148e-10
-5.746802201111586737e-10
-4.130842721887683228e-10
-3.002329761849550184e-10
-2.217154975144320139e-10
-1.665929756681650223e-10
-1.274476652084406475e-10
-9.881565109347885817e-11
-7.721173333138124173e-11
-6.039641831187441990e-11
-4.695698940220900429e-11
-3.605959813105527478e-11
-2.720623008948815701e-11
-2.008388180216911482e-11
