# bin_9_5
-9.912203090903906661e-12
-1.112551356594638901e-11
-1.226236223418799503e-11
-1.321269697315798904e-11
-1.383611677238852858e-11
-1.399261263428862919e-11
-1.352245755443805897e-11
-1.233726901608860458e-11
-1.064358532145611674e-11
-8.765694874384695127e-12
-7.217847819244268425e-12
-6.201468881468812486e-12
-5.242783068764690894e-12
-3.842182057514764678e-12
-2.746656303650215379e-12
-2.211466962551957616e-12
-1.477738704196164240e-12
-1.112498008189829429e-12
-7.693424475715115519e-13
-5.346471672328266898e-13
-3.752536636427883211e-13
-2.640165299269009689e-13
-1.876441776365514485e-13
-1.352429138291182434e-13
-9.943076324964116170e-14
-7.448833995591806351e-14
-5.673001503104298189e-14
-4.372554590425307480e-14
-3.387411707871217079e-14
-2.618513079131049460e-14
-2.005861931294066150e-14
