# bin_15_1
-2.670267884284044174e-39
-3.041025292210248835e-39
-3.412479167313832646e-39
-3.758833916516530672e-39
-4.045830387282694177e-39
-4.229913143067675967e-39
-4.269284648597102599e-39
-4.112362801047013076e-39
-3.738280670480553188e-39
-3.212881672878603977e-39
-2.641420958353402792e-39
-2.179663971145201997e-39
-1.878331017001147096e-39
-1.578883766866489306e-39
-1.142808593692861920e-39
-8.248443917687446786e-40
-6.594797631182613887e-40
-4.367696653359292244e-40
-3.257798405994059554e-40
-2.240088473941417946e-40
-1.525088856188579667e-40
-1.043302238810167861e-40
-7.105391870586218824e-41
-4.858840818292786921e-41
-3.347935123463148951e-41
-2.344035220579382416e-41
-1.671360893082019563e-41
-1.217137007971335251e-41
-9.052444013023151366e-42
-6.852963267461907869e-42
-5.248766931180881808e-42
