# bin_2_13
-7.727433094475045227e-30
-8.756948496047945742e-30
-9.764642365334048995e-30
-1.067295270369523469e-29
-1.137804964054437541e-29
-1.175110374692807855e-29
-1.169229835209242885e-29
-1.103980388429487078e-29
-9.844347705782671859e-30
-8.298422280830348537e-30
-6.789620297401435533e-30
-5.683291824237183618e-30
-4.922576686026933402e-30
-3.964671873476073357e-30
-2.759372159777457856e-30
-2.129270120563286375e-30
-1.585932123537037429e-30
-1.104088272722745608e-30
-7.728501479762481735e-31
-5.489953448382091072e-31
-3.776577370270265176e-31
-2.590638244751184774e-31
-1.789848055465215996e-31
-1.247148443473003035e-31
-8.812110252536445296e-32
-6.344969457327373141e-32
-4.659411297875467521e-32
-3.490117651653390440e-32
-2.656691572487037732e-32
-2.042913121349039232e-32
-1.575266307972495129e-32
