# bin_15_5
-4.884763061124468296e-22
-5.567526642181827103e-22
-6.254188156825702007e-22
-6.897811134290481373e-22
-7.436265966346583611e-22
-7.790230329515786576e-22
-7.880536748091011557e-22
-7.616217639962843532e-22
-6.946956883981217062e-22
-5.991339708044572416e-22
-4.932539607083605600e-22
-4.062462302336530390e-22
-3.494225050601354261e-22
-2.953989477144667173e-22
-2.157387747921143590e-22
-1.540839588557933669e-22
-1.241533953538217107e-22
-8.203704602636752821e-23
-6.157160146073218486e-23
-4.207250842757419506e-23
-2.862716836680216791e-23
-1.959387108183711604e-23
-1.332857332036480305e-23
-9.087912010279205233e-24
-6.235614389897464199e-24
-4.344284884280002490e-24
-3.080630383072315121e-24
-2.230786452756142679e-24
-1.650746989078627915e-24
-1.244777611544677190e-24
-9.511692029065304497e-25
