# bin_7_5
-2.215217162299292330e-09
-2.467189960207418708e-09
-2.693682663584823353e-09
-2.868528598900461679e-09
-2.959517703490048529e-09
-2.941202926307762042e-09
-2.773959270436024332e-09
-2.471306452941964965e-09
-2.082139482444545945e-09
-1.703685506416503653e-09
-1.426324628361698528e-09
-1.233900171796781442e-09
-9.919892778623031864e-10
-6.929798800557819613e-10
-5.353006697953315166e-10
-3.993857714378313753e-10
-2.806324697131540122e-10
-1.990252608413881768e-10
-1.429152597718172777e-10
-1.004839620870673877e-10
-7.098725699478456653e-11
-5.077507595538485598e-11
-3.685014787584395327e-11
-2.722781446809898587e-11
-2.050372796959266981e-11
-1.568579553688187264e-11
-1.213752639108541943e-11
-9.437436409301688160e-12
-7.320506134155117950e-12
-5.626441945224054952e-12
-4.260482743575127441e-12
