# bin_1_4
-1.488180713595099236e-11
-1.580152081843943788e-11
-1.625834608348961296e-11
-1.610443976925905258e-11
-1.514470106957128401e-11
-1.346161417121548877e-11
-1.133380892732367993e-11
-9.284744006947930378e-12
-7.778632443964186003e-12
-6.696467381513362860e-12
-5.357290652371667834e-12
-3.794727804775578097e-12
-2.926948138645382917e-12
-2.192711386777512914e-12
-1.567888678698821250e-12
-1.139474009149623962e-12
-8.305464828126733418e-13
-6.041250289276000897e-13
-4.453887577775031751e-13
-3.339343514926389928e-13
-2.548522147547748816e-13
-1.977597426985824172e-13
-1.554091222609445955e-13
-1.228603793255902921e-13
-9.703533742713450143e-14
-7.603466631370582210e-14
-5.873011227659632838e-14
-4.447810073210151574e-14
-3.288891758439768657e-14
-2.368012478810293254e-14
-1.659125839372855188e-14
