# bin_13_5
-2.230460743523552206e-18
-2.532040754049923131e-18
-2.829618452948691916e-18
-3.101153966595125131e-18
-3.317113818620042753e-18
-3.440449335125376347e-18
-3.440782706023959069e-18
-3.271156112309370840e-18
-2.935773004180460031e-18
-2.490289190508381086e-18
-2.039362314135794870e-18
-1.697887246078648801e-18
-1.470152548644711138e-18
-1.203850497763675340e-18
-8.459098016486893760e-19
-6.381796779539490221e-19
-4.889286696102316612e-19
-3.325224129185170765e-19
-2.384603153719505775e-19
-1.680481710990343226e-19
-1.150802543661627783e-19
-7.870220266436121209e-20
-5.405002640218093537e-20
-3.741570737344461165e-20
-2.621293969150125789e-20
-1.870094074669524153e-20
-1.360494198697358694e-20
-1.010423545197122124e-20
-7.641103303247255736e-21
-5.852930941275627889e-21
-4.508745909500104058e-21
