# bin_10_2
-9.123467776445955488e-23
-1.022880750605150469e-22
-1.125874325742789941e-22
-1.211095496272331592e-22
-1.265548856356600097e-22
-1.276792393230540942e-22
-1.229562991982479596e-22
-1.117758646809645697e-22
-9.607833580993540243e-23
-7.900716579997828664e-23
-6.518336148962743261e-23
-5.611535276886143799e-23
-4.716197619341480690e-23
-3.424229775199373371e-23
-2.473634254682473233e-23
-1.977790633692268769e-23
-1.323478142285940915e-23
-9.915745661162307854e-24
-6.902598530527362136e-24
-4.798507089605521181e-24
-3.369060639240100886e-24
-2.374579393052248636e-24
-1.692831491943599913e-24
-1.224747335270376076e-24
-9.039156238812031087e-25
-6.795643986849514540e-25
-5.190453189046362133e-25
-4.007941007835112327e-25
-3.106962197380100139e-25
-2.400503406183127376e-25
-1.836107077601571082e-25
