# bin_7_4
-1.229861872749665027e-10
-1.365213688608003075e-10
-1.484481424113189866e-10
-1.572836673263031343e-10
-1.612686289402858375e-10
-1.589862635804469367e-10
-1.484288431456872201e-10
-1.309732175409589343e-10
-1.094387505976449343e-10
-8.954656492086059807e-11
-7.557761371057529857e-11
-6.521568478636585237e-11
-5.105642786837603092e-11
-3.550510856482746202e-11
-2.816055036139252492e-11
-2.017610955341211668e-11
-1.466893137816665152e-11
-1.019324840142822456e-11
-7.325077983016188098e-12
-5.190232828189113874e-12
-3.694425817797723517e-12
-2.663939468810218135e-12
-1.949574998669411525e-12
-1.453905546555141582e-12
-1.103973120902639774e-12
-8.501728861228380368e-13
-6.606507246974160108e-13
-5.144198659007154605e-13
-3.985311379505892404e-13
-3.052035537649527777e-13
-2.298409787026588517e-13
