# bin_12_10
-4.413623294061129120e-09
-5.026890251145142921e-09
-5.641569048785253110e-09
-6.215048171132312521e-09
-6.690750269643439292e-09
-6.996727334782100681e-09
-7.063629148905107010e-09
-6.806378521407447239e-09
-6.189204336758757277e-09
-5.321071297731102010e-09
-4.374917963025372182e-09
-3.609198981826751777e-09
-3.109979357176936887e-09
-2.616086444872770103e-09
-1.894725681582082927e-09
-1.365858923775950274e-09
-1.093626085554474167e-09
-7.234299423197757030e-10
-5.403820261151061298e-10
-3.713374877638552166e-10
-2.527291196265626678e-10
-1.728986266042780949e-10
-1.177189351417804315e-10
-8.047312010987374071e-11
-5.542562438908969813e-11
-3.878741247373784116e-11
-2.764224403107783220e-11
-2.011978786517291199e-11
-1.495778717864422397e-11
-1.132031607806555733e-11
-8.669450923887170364e-12
