# bin_12_8
-8.418449773099450489e-11
-9.566138134463633476e-11
-1.070389770127754785e-10
-1.174917477773588069e-10
-1.259152188976890828e-10
-1.309182763917845186e-10
-1.313063512989887529e-10
-1.253320149242795782e-10
-1.129088341361774776e-10
-9.614432913877169855e-11
-7.880260902223335049e-11
-6.541422231635835736e-11
-5.659255558111232957e-11
-4.674763420979548372e-11
-3.309690683638726676e-11
-2.463181519524033571e-11
-1.915562712452989968e-11
-1.288278277357848986e-11
-9.370778090380316694e-12
-6.557924377505672339e-12
-4.480645167864605476e-12
-3.062615824219404583e-12
-2.096587307217967637e-12
-1.445827930295232157e-12
-1.007864873598290648e-12
-7.150584822481617494e-13
-5.172009519644463169e-13
-3.820204950994720683e-13
-2.876158825160827623e-13
-2.196695309320221790e-13
-1.690294123920344284e-13
