# bin_12_15
-1.743375586838915053e-09
-1.996674785435619788e-09
-2.256605982958731587e-09
-2.507158333315026042e-09
-2.727400353719580599e-09
-2.889688082661266579e-09
-2.961067164510381536e-09
-2.916018244272503302e-09
-2.716691374556535319e-09
-2.392182825517099941e-09
-1.993996045356793605e-09
-1.631543117667775611e-09
-1.381577926507025945e-09
-1.193344643657177791e-09
-9.251560365449068830e-10
-6.386076827034269727e-10
-5.119217768520784572e-10
-3.568545221355517675e-10
-2.609870035006942377e-10
-1.745199885210531410e-10
-1.217697575516388327e-10
-8.287490644440530000e-11
-5.585276909381684310e-11
-3.752049951887335759e-11
-2.517812116355333819e-11
-1.703631066184847179e-11
-1.167381464798687036e-11
-8.138065422174006162e-12
-5.798854851973559285e-12
-4.229400785575303976e-12
-3.152245826076560255e-12
