# bin_9_7
-2.904257764652741648e-09
-3.273591444678792729e-09
-3.626561981722910992e-09
-3.932289461931989041e-09
-4.150464624779218445e-09
-4.235203604004360589e-09
-4.146974282027892250e-09
-3.838618058300459998e-09
-3.359475415313007223e-09
-2.788897850513201353e-09
-2.284595927387058470e-09
-1.943227519150153227e-09
-1.670377684351271509e-09
-1.274123244224625731e-09
-8.860273151487465357e-10
-7.154214326379123269e-10
-4.907810015268761938e-10
-3.655187615818560040e-10
-2.481707573273688493e-10
-1.742296713758860695e-10
-1.216707658426854674e-10
-8.492137630257941943e-11
-5.965758303735340654e-11
-4.236672230292424134e-11
-3.065111857450653097e-11
-2.261168737633216050e-11
-1.699309339748855989e-11
-1.297447457756938975e-11
-1.000401670676355671e-11
-7.734792860156727419e-12
-5.952584336018116178e-12
