# bin_7_10
-4.446059924481383736e-10
-5.024390277622265258e-10
-5.583434929429994246e-10
-6.077256962020127323e-10
-6.444976012438370267e-10
-6.613481660408165396e-10
-6.526164718131017942e-10
-6.097290378330202531e-10
-5.383609310789250670e-10
-4.498657886478493984e-10
-3.680175788937082389e-10
-3.107119458067569907e-10
-2.685509482268623194e-10
-2.102640949901178007e-10
-1.454678658798037668e-10
-1.156267144962948181e-10
-8.223562832406539020e-11
-5.956451326500306436e-11
-4.060034852487701577e-11
-2.881601454217711578e-11
-1.998471401255535352e-11
-1.383142145536837358e-11
-9.643889665749008152e-12
-6.787474662166823748e-12
-4.857690370035335764e-12
-3.544804860938304391e-12
-2.637306845066910908e-12
-1.997672431466889239e-12
-1.532713336209088675e-12
-1.183200756239675469e-12
-9.121252255451796179e-13
