# bin_13_8
-7.065609162377244602e-12
-8.042679525575732595e-12
-9.019295391285043493e-12
-9.926980925372849544e-12
-1.067461131665690836e-11
-1.114662856091402831e-11
-1.123480487567913966e-11
-1.079966012659395535e-11
-9.796602785497573525e-12
-8.401524708612232364e-12
-6.901131488910112066e-12
-5.701528884081410763e-12
-4.919157563325755281e-12
-4.120241818488801021e-12
-2.965289045823758187e-12
-2.154536128085993580e-12
-1.714242249870596984e-12
-1.136920488990923831e-12
-8.447100569606757519e-13
-5.831508577056867032e-13
-3.971575216362819854e-13
-2.716012886468622509e-13
-1.851101082066768988e-13
-1.268148103224050000e-13
-8.761118015561816859e-14
-6.152929305602858569e-14
-4.402085216042374078e-14
-3.216815048930339817e-14
-2.399879199474065020e-14
-1.821075823803270203e-14
-1.396743741299163201e-14
