# bin_12_13
-1.011632646940102171e-08
-1.156034773264619226e-08
-1.302948555779151247e-08
-1.442833225184573716e-08
-1.563206446005718827e-08
-1.647850864620707040e-08
-1.678654382898013399e-08
-1.639359250022250023e-08
-1.512321565193197222e-08
-1.319157630087928360e-08
-1.092424972988524568e-08
-8.956298757286429902e-09
-7.643971207462235766e-09
-6.555734582804260766e-09
-4.941914476856721168e-09
-3.441898682287631458e-09
-2.793822987750009236e-09
-1.875771564630246822e-09
-1.406640142375790123e-09
-9.440648378696041877e-10
-6.470650844284815222e-10
-4.427468504688153916e-10
-3.004204568910190386e-10
-2.031147627692906418e-10
-1.375887404840158526e-10
-9.433404155101904842e-11
-6.567502834550185056e-11
-4.662387344576951532e-11
-3.385289412282997640e-11
-2.512381762284671529e-11
-1.898689838763526875e-11
