# bin_10_13
-1.181009234451262074e-09
-1.346983286400571758e-09
-1.514419383248835150e-09
-1.672019581065972531e-09
-1.804873528435245184e-09
-1.893868647509654665e-09
-1.919325158476464189e-09
-1.860014195719646972e-09
-1.701421287198462992e-09
-1.471634088117608071e-09
-1.213157309495094938e-09
-9.977508896203661063e-10
-8.566556789463740472e-10
-7.273239998783084558e-10
-5.353784576290072645e-10
-3.793482836766074892e-10
-3.070543055382842027e-10
-2.030141324587840034e-10
-1.528133057994598790e-10
-1.038930996810194154e-10
-7.071214889518716949e-11
-4.841702708270838916e-11
-3.291546009540211741e-11
-2.239161704678785187e-11
-1.531133405710264072e-11
-1.062345367431591076e-11
-7.498474214390470464e-12
-5.403522593263991065e-12
-3.980568953440073795e-12
-2.990801472648306316e-12
-2.280067952956580218e-12
