# bin_12_14
-4.937818126304326138e-09
-5.648989676131004311e-09
-6.375804431537715867e-09
-7.072217962561739705e-09
-7.678140588942778454e-09
-8.114839350737516995e-09
-8.291063464007657616e-09
-8.131733082170919874e-09
-7.538949522577065315e-09
-6.607770756783838127e-09
-5.489158873087896894e-09
-4.494908680022159397e-09
-3.821492201298064428e-09
-3.291155427469237346e-09
-2.516166737246738805e-09
-1.742229730494992248e-09
-1.407780502719621609e-09
-9.613720366648153691e-10
-7.136476041868481568e-10
-4.769324237201854054e-10
-3.296441027346411399e-10
-2.250563068657491716e-10
-1.522953264996381152e-10
-1.026267926906705905e-10
-6.917486792460627180e-11
-4.710871916136656500e-11
-3.253439539029633187e-11
-2.288790887620046214e-11
-1.646600502940404770e-11
-1.211858868409471150e-11
-9.099407789888924098e-12
