# bin_12_5
-1.450674270405601151e-16
-1.642907183088202914e-16
-1.830521070446211448e-16
-1.998866660531530619e-16
-2.128356136982325554e-16
-2.194808484737329867e-16
-2.179741150609761560e-16
-2.053028086149634709e-16
-1.826487112164632354e-16
-1.536302437815116150e-16
-1.256704459222332710e-16
-1.054027616113173310e-16
-9.128416704912294085e-17
-7.305872042138799334e-17
-5.071062933150456367e-17
-3.944043759548609158e-17
-2.906449107176348798e-17
-2.041986344474215054e-17
-1.417641053353566634e-17
-1.008808153318845686e-17
-6.951934873034404836e-18
-4.776341604942482383e-18
-3.307211523910619577e-18
-2.309877923404802266e-18
-1.637098655158638545e-18
-1.182584930468173148e-18
-8.712380413580828865e-19
-6.544682077759446011e-19
-4.992439135076707438e-19
-3.843551352291909933e-19
-2.964216387872941832e-19
