# bin_2_12
-1.632022914846082933e-27
-1.843756838431470426e-27
-2.048162391088292172e-27
-2.228319998832906527e-27
-2.361845843451065018e-27
-2.422010139705386242e-27
-2.387897513482786815e-27
-2.228567090083726032e-27
-1.965719203699635576e-27
-1.641311584987037709e-27
-1.342857512273013718e-27
-1.134742306419817042e-27
-9.802409984545721566e-28
-7.651880298137789397e-28
-5.295780013221472823e-28
-4.218234996773560593e-28
-2.986873784256629380e-28
-2.171114757008143198e-28
-1.478635531135836341e-28
-1.048115853922853985e-28
-7.275163555531980921e-29
-5.040450611899686495e-29
-3.517473012554821192e-29
-2.478169315818314656e-29
-1.775823853416566747e-29
-1.297536702718026006e-29
-9.665212108107467873e-30
-7.328189741719732304e-30
-5.626045978883321431e-30
-4.344058764836150662e-30
-3.348233869528282422e-30
