# bin_7_6
3.748631216597613734e-11
4.188024453244171086e-11
4.589945913566787198e-11
4.911106529423209866e-11
5.097243965910258369e-11
5.102486401771644958e-11
4.859385045059593359e-11
4.369327269008790645e-11
3.714189297351211400e-11
3.043559018967100304e-11
2.529358780961550025e-11
2.186603002221565462e-11
1.798283772132266321e-11
1.273627279577384682e-11
9.538127314270048103e-12
7.383535713711342806e-12
5.036475177973372206e-12
3.674134418157858379e-12
2.609098955656030464e-12
1.822344352449033978e-12
1.281729734975119717e-12
9.098213363074458947e-13
6.548889321632865988e-13
4.793257016683730911e-13
3.577845191079716488e-13
2.716905104162779345e-13
2.091298025976012746e-13
1.622072064288093978e-13
1.258638462718503361e-13
9.701516636385466993e-14
7.382499025732110619e-14
