# bin_13_9
3.892771706053733989e-13
4.435186404210047454e-13
4.979727256140260091e-13
5.488895484793913550e-13
5.912971900337958900e-13
6.188617097195793181e-13
6.253755956598898451e-13
6.034501852628396732e-13
5.495225469989687679e-13
4.731400330414570809e-13
3.892409343915251336e-13
3.208531272218979290e-13
2.762491470498743538e-13
2.329414050315233950e-13
1.693596907743203586e-13
1.215388638654743837e-13
9.763692866138225644e-14
6.452360399176063852e-14
4.832487559790855506e-14
3.311897859253115593e-14
2.253465275879083534e-14
1.542018154100636658e-14
1.049376481954142753e-14
7.164707374239806398e-15
4.925839489673417582e-15
3.439923779616230414e-15
2.445799885019711706e-15
1.775965394084633203e-15
1.317491835357124729e-15
9.954548931919262102e-16
7.616006954753491057e-16
