# bin_7_1
1.210695076233497074e-21
1.330527931357296238e-21
1.428987013553325110e-21
1.490726361433096898e-21
1.501355293265663878e-21
1.442830383979957878e-21
1.309400256000012214e-21
1.123727571908051329e-21
9.238526111295746305e-22
7.629367751160843480e-22
6.563687388247955411e-22
5.495138160653506876e-22
3.991022507817852260e-22
2.904080493354464841e-22
2.309424388621615767e-22
1.570180031120480968e-22
1.176262186140829730e-22
8.314433353671502692e-23
5.899048977018061815e-23
4.235664666381196169e-23
3.071243888858348810e-23
2.261473186864087627e-23
1.693860071856178137e-23
1.292268841270544472e-23
9.998625398472844428e-24
7.802944272968034114e-24
6.101956389158911511e-24
4.747212335363823455e-24
3.650805938034194634e-24
2.760276991662466499e-24
2.043074009620670252e-24
