# bin_14_1
1.030773725728623175e-39
1.171045267009086989e-39
1.309964615269142633e-39
1.437405577365925989e-39
1.539817989425960913e-39
1.600150796709615712e-39
1.603897414464694363e-39
1.529629054609254357e-39
1.376932792579435818e-39
1.171576873696737244e-39
9.601305370515976610e-40
7.975205033120860710e-40
6.900306899940774794e-40
5.689054734763968475e-40
4.022516103290323033e-40
3.002001502294384962e-40
2.326922779495236160e-40
1.569112046452607204e-40
1.137789559501681778e-40
7.972898720292067631e-41
5.450246035095285372e-41
3.726155743003762046e-41
2.552707149901997701e-41
1.761769944690609010e-41
1.229374582245633860e-41
8.732131593888817653e-42
6.323473740819675013e-42
4.675933578327887724e-42
3.523548966037111934e-42
2.692637386629682993e-42
2.072262996277267085e-42
