# bin_15_11
7.330139490369043655e-13
8.387870601836591402e-13
9.469856931384064900e-13
1.050794358077362636e-12
1.141318971269135175e-12
1.206885259764754448e-12
1.233870710257186081e-12
1.211238878602811970e-12
1.124129583817323797e-12
9.862768511394987614e-13
8.198919775305013800e-13
6.712487866925253088e-13
5.701992283882260896e-13
4.914288494326338692e-13
3.768401128615251857e-13
2.606965500852090619e-13
2.103499728680076731e-13
1.442478309611396105e-13
1.067766902180209877e-13
7.133310442231238819e-14
4.940391272252042208e-14
3.370836119459398110e-14
2.279273045207923443e-14
1.534879061534340670e-14
1.033541735586655020e-14
7.028590705579316532e-15
4.845861854344104637e-15
3.402400677167750427e-15
2.442794783405401227e-15
1.794457992497597860e-15
1.345362111040328511e-15
