# bin_13_2
2.390844623078203872e-32
2.709185827285181004e-32
3.020680507057161788e-32
3.301315415756055493e-32
3.518948376786376814e-32
3.633719593988952872e-32
3.614795849958074802e-32
3.412147439029692209e-32
3.041889111338471676e-32
2.563583961436153620e-32
2.097424398062900935e-32
1.756042292185430156e-32
1.520981934268848061e-32
1.224171413167288780e-32
8.517464479364288354e-33
6.578201448279324742e-33
4.893945041810739555e-33
3.410403739447803609e-33
2.385075318710595202e-33
1.694607555505548445e-33
1.165954298304498115e-33
7.999452404493015190e-34
5.528075537058232643e-34
3.852903927735462295e-34
2.723297875208836688e-34
1.961551496826420856e-34
1.440974420623902145e-34
1.079700588549257719e-34
8.220677653227828518e-35
6.322287633196065536e-35
4.875147226527567383e-35
