# bin_8_1
1.867499838967129854e-24
2.067775684891439432e-24
2.241423927579024157e-24
2.365619838841731812e-24
2.414458910327921007e-24
2.365284934206213398e-24
2.191643871706239063e-24
1.920024167516070369e-24
1.595828436046547772e-24
1.307189760354983530e-24
1.109769483583725352e-24
9.533119033980514890e-25
7.311609910593634254e-25
5.104943151529993617e-25
4.098824746568537413e-25
2.860941707572338493e-25
2.123063020977619356e-25
1.469045961819559805e-25
1.050640195141656686e-25
7.483124202540255342e-26
5.357929954752907283e-26
3.885441283897311625e-26
2.860943457558951856e-26
2.147370700549885948e-26
1.639640599257037005e-26
1.268026862895881763e-26
9.877225217408621760e-27
7.694052111563340140e-27
5.952132565757658980e-27
4.544509773011171191e-27
3.407671808541684163e-27
