# bin_15_6
1.422093315318906885e-21
1.621632678637965732e-21
1.822750369761073082e-21
2.011824577120674438e-21
2.170862012916519222e-21
2.276825872439253533e-21
2.306208490939582076e-21
2.233172732698386160e-21
2.041060772176707354e-21
1.763913939150316309e-21
1.453532876881389128e-21
1.195924320196440806e-21
1.027351506148336874e-21
8.711847057801799805e-22
6.397983188504933791e-22
4.543597716167479630e-22
3.673279296055899086e-22
2.427860278502548809e-22
1.826207920958308146e-22
1.243394280907509093e-22
8.461707921439480377e-23
5.793183764165584313e-23
3.938993285889270488e-23
2.681367816607859847e-23
1.835330213599429696e-23
1.274930622427949298e-23
9.011188919857510401e-24
6.502901865499925136e-24
4.796818301827076674e-24
3.607975720997552760e-24
2.752504712603699215e-24
