# bin_11_9
1.188262100013492524e-11
1.349513862804735862e-11
1.508952232906824978e-11
1.654876331982770401e-11
1.771615043423609641e-11
1.839472551354859617e-11
1.841980214850445418e-11
1.754239393020210311e-11
1.576986414294148526e-11
1.339920050452287090e-11
1.097670346126538795e-11
9.126703126947448989e-12
7.900160303708582190e-12
6.494511602309484307e-12
4.577793388274501124e-12
3.433141496743390037e-12
2.647980789970528221e-12
1.791582982442622818e-12
1.292970202814056132e-12
9.085309816453859998e-13
6.215209920783583836e-13
4.249070570854224000e-13
2.913886239695464639e-13
2.013740534702979451e-13
1.407709469205686260e-13
1.001871351065327166e-13
7.270362672798681812e-14
5.386928106235406998e-14
4.066077687108277883e-14
3.110773944496891118e-14
2.395309698761975185e-14
