# bin_12_7
9.192907281457460181e-15
1.043354586483967749e-14
1.165642541667950538e-14
1.277054512774015027e-14
1.365393417012869065e-14
1.415373596940443314e-14
1.414586206855279867e-14
1.343633622155570867e-14
1.204842517901816568e-14
1.021134016040294853e-14
8.360861300042380471e-15
6.965672202574537339e-15
6.032303318036636455e-15
4.929540636329464831e-15
3.458234623822581066e-15
2.617087408437525062e-15
1.997995321551943196e-15
1.362546075755358515e-15
9.738944760520930583e-16
6.873562481640480980e-16
4.709608089996285423e-16
3.221456221374378693e-16
2.214056920630272097e-16
1.533994851504582639e-16
1.075916182540945909e-16
7.685404962808603323e-17
5.598336205689125628e-17
4.162820421506184812e-17
3.151056974879841986e-17
2.415120297754183711e-17
1.860866670723764287e-17
