# bin_4_2
5.782572668044548822e-12
6.198726316161836963e-12
6.453699722695743908e-12
6.485914272083435700e-12
6.218104370703743483e-12
5.632525985011557725e-12
4.826364596009773899e-12
3.968795313390229640e-12
3.282088348828270046e-12
2.819810307655193919e-12
2.348727778105288685e-12
1.709812884950033819e-12
1.253776643684305801e-12
9.890184091408945086e-13
6.847160958414205612e-13
5.116496124451717430e-13
3.662725492426408439e-13
2.644182067134201861e-13
1.933275065795810067e-13
1.432731788202576200e-13
1.080270132914920274e-13
8.285690352869245398e-14
6.454592968551753385e-14
5.076546181372432832e-14
4.004307204324755231e-14
3.145871792695922649e-14
2.444779987788029388e-14
1.868498020546121001e-14
1.397693403965684764e-14
1.019618471474827911e-14
7.240996027516332821e-15
