# bin_11_5
2.630329866239971235e-17
2.970653342462192118e-17
3.298737784345437649e-17
3.587221057287335375e-17
3.799960539053334249e-17
3.894004272189969099e-17
3.835536606680392127e-17
3.575407931146437902e-17
3.150212984610097087e-17
2.627905356243974680e-17
2.150194616738468560e-17
1.818723705406978700e-17
1.570427077508308561e-17
1.221836388464669895e-17
8.455565118029362519e-18
6.754344315392706317e-18
4.757720482892247537e-18
3.473580313149011650e-18
2.361120003239546245e-18
1.672051354862325312e-18
1.161737827308874279e-18
8.058350343621345310e-19
5.629138566138166319e-19
3.970383496523734720e-19
2.849135503394108156e-19
2.084766807567384827e-19
1.555036157737640364e-19
1.180352650866780389e-19
9.068646682694294046e-20
7.004388166451350544e-20
5.398066275225098082e-20
