# bin_10_7
1.427848654610629052e-12
1.613466203912955893e-12
1.792838322301892852e-12
1.951201070258414755e-12
2.068994749616054877e-12
2.122756399475977928e-12
2.094291237028512163e-12
1.956155532569314770e-12
1.726768961709187798e-12
1.442636062225122540e-12
1.180183494449974051e-12
9.966235302698679843e-13
8.613060665487634841e-13
6.738788471333960904e-13
4.662105237648235462e-13
3.707980544778918402e-13
2.634207175034354982e-13
1.909797714334567594e-13
1.301240550881670965e-13
9.233509640476822889e-14
6.405050466473216488e-14
4.434069834835682715e-14
3.092304603930634807e-14
2.176935235736016355e-14
1.558479680631170068e-14
1.137629666983413617e-14
8.466413739177189250e-15
6.414609539644063990e-15
4.922414287628789300e-15
3.800186754797122055e-15
2.929466585984508740e-15
