# bin_7_4
4.781966879912380499e-08
4.346365988676698996e-08
3.844253862733075950e-08
3.308573535290907852e-08
2.776358640457901396e-08
2.281355599977144247e-08
1.845162266955007137e-08
1.473401172613047197e-08
1.159011075886487936e-08
8.930967378332174483e-09
6.746822097068859361e-09
5.065472805930163222e-09
3.818002080119685600e-09
2.872538114828449842e-09
2.170400278433632054e-09
1.654951716550948807e-09
1.272173554091186358e-09
9.858272434336225927e-10
7.681636765686333592e-10
5.997100716370471889e-10
4.671607480156132516e-10
3.615876847785719346e-10
2.770064423195040009e-10
2.093277771228476353e-10
1.556155752582933626e-10
1.135783049107244072e-10
8.128188668658708181e-11
5.700451812595230466e-11
3.918457982462677083e-11
2.642352297146981264e-11
1.750530133925689457e-11
