# bin_15_3
4.546595062653201577e-08
4.096978543665785551e-08
3.589658924121657210e-08
3.059958767522005639e-08
2.545872898289414929e-08
2.078582997616129371e-08
1.674085439505127360e-08
1.331409512582341556e-08
1.039933638465511213e-08
7.936457783408642299e-09
5.965488456673450990e-09
4.491341354912009344e-09
3.386325300163329687e-09
2.549968534165544565e-09
1.938380854725153798e-09
1.485447680323057331e-09
1.149208594111275756e-09
8.957168508750984755e-10
7.012295207920427030e-10
5.491467796037879708e-10
4.282904191744881583e-10
3.312533762483394759e-10
2.530916016106191337e-10
1.904136026425738458e-10
1.407144035638657720e-10
1.019614596667424298e-10
7.237180365903932991e-11
5.031099176944230926e-11
3.427500727124220675e-11
2.291331019635769066e-11
1.505909725006345537e-11
