# bin_13_5
6.148881467239628918e-08
5.703677027045283161e-08
5.150982548863735573e-08
4.523858236087840511e-08
3.865431971991410283e-08
3.222407556150864789e-08
2.634367168073000748e-08
2.122966868740127905e-08
1.689401845338468313e-08
1.321434098195552271e-08
1.009910394260752080e-08
7.580516896912030593e-09
5.685057071619084234e-09
4.272595394471413154e-09
3.197530656341346095e-09
2.412258775219871766e-09
1.832269324153317895e-09
1.404219200605728739e-09
1.084098615277392684e-09
8.412370832817995847e-10
6.537766798315421733e-10
5.068000887505266605e-10
3.902863725911467475e-10
2.974530852196210876e-10
2.236341159277831570e-10
1.654339040575957548e-10
1.201844426964577294e-10
8.564214633704978399e-11
5.983051598406250668e-11
4.098643217929851990e-11
2.755535905162084838e-11
