# bin_10_8
7.275320968786476945e-08
6.864941525932794273e-08
6.316373482256605341e-08
5.657452941926857108e-08
4.929675813852532025e-08
4.183242094933698627e-08
3.468451118331887617e-08
2.823838513624039379e-08
2.266975004431574824e-08
1.795027346975479414e-08
1.395173055967358851e-08
1.060485073319678132e-08
7.941005888433746905e-09
5.943688680162618424e-09
4.449091768110720116e-09
3.319529811824172920e-09
2.495475321067196566e-09
1.887176075921456125e-09
1.438881634179866183e-09
1.104224923586653001e-09
8.510896410519710319e-10
6.566356505391180433e-10
5.051981755074763502e-10
3.861486361851881293e-10
2.921947484312635649e-10
2.182370453395407692e-10
1.605109429070609122e-10
1.160517629853378286e-10
8.239479589480697821e-11
5.741890374436266979e-11
3.928116891958934791e-11
