# bin_2_1
1.571160783290631949e-08
1.317914680637598648e-08
1.083258676585701255e-08
8.763730312960973886e-09
6.996139862999055801e-09
5.503236290399841664e-09
4.251807504421052540e-09
3.233449118907890854e-09
2.446566684963646010e-09
1.858001585075310580e-09
1.415795952601135366e-09
1.085616848101546099e-09
8.411410894592832510e-10
6.578204569313081901e-10
5.184384837984564606e-10
4.102935884932702519e-10
3.246505915726709902e-10
2.556551396034501167e-10
1.994826409401300487e-10
1.536341568008707747e-10
1.164157533412061554e-10
8.657955358062524642e-11
6.309283017324151899e-11
4.501351347260561717e-11
3.144151142775427819e-11
2.151814827923439104e-11
1.445040592067598452e-11
9.540516725259793228e-12
6.206358468853044920e-12
3.987068375336640461e-12
2.534879044474473954e-12
