# bin_8_7
6.470938208574596246e-08
6.044522896299473840e-08
5.502086446177277936e-08
4.873987224656983899e-08
4.201510207565699818e-08
3.531019894709336633e-08
2.905004952738811845e-08
2.351289983646397561e-08
1.878030316745241568e-08
1.477615197498520454e-08
1.139133194972322040e-08
8.602953627580391442e-09
6.440528909708111736e-09
4.833502819196608747e-09
3.619806819619864634e-09
2.714453242222616344e-09
2.053068036868473058e-09
1.563276241883853391e-09
1.199810089228500020e-09
9.262075134399098026e-10
7.169850480030713296e-10
5.545080709674854020e-10
4.267770400781935344e-10
3.256565962097369330e-10
2.455436872866449415e-10
1.824430346791248721e-10
1.333061204543480661e-10
9.564814165990170631e-11
6.733985427975887116e-11
4.651425300649844939e-11
3.153773381585084740e-11
