# bin_9_1
2.126432551830572588e-08
1.806970683324764611e-08
1.500631516559799514e-08
1.224001098124013029e-08
9.847057881238541851e-09
7.814965980702501573e-09
6.092892801566690938e-09
4.657669289799569223e-09
3.520393328593885837e-09
2.663651564677102439e-09
2.021584845190097206e-09
1.539366931119866688e-09
1.183353216974893096e-09
9.188682404534303951e-10
7.201382516935446853e-10
5.681749540687756392e-10
4.495104309697088307e-10
3.549672002146913182e-10
2.784890632107171990e-10
2.161418600545707631e-10
1.653387926694172834e-10
1.242875998648099713e-10
9.161223286338733229e-11
6.612490426284364541e-11
4.671418717230170824e-11
3.231188119641008433e-11
2.190766816992770652e-11
1.458497854092523363e-11
9.554709240257107841e-12
6.173407680973088890e-12
3.942836601597436665e-12
