# bin_13_7
7.304158369384031138e-08
6.887880461239666283e-08
6.331952552195305565e-08
5.664852825379955412e-08
4.929084137173702537e-08
4.176072043983964814e-08
3.457368382459034341e-08
2.811750077735608665e-08
2.255930598136308344e-08
1.785304464353899113e-08
1.385706512570632549e-08
1.050937355542241455e-08
7.860552353167260128e-09
5.888415225621917344e-09
4.405639368344191606e-09
3.287131780903483546e-09
2.474005370251942746e-09
1.872623241442361918e-09
1.429544810237205343e-09
1.098563398722423088e-09
8.477891147581202011e-10
6.547864685054813593e-10
5.041817617812742982e-10
3.855621567504953749e-10
2.917948434937202927e-10
2.178962704290354974e-10
1.601739646328923415e-10
1.157069471139560546e-10
8.205259337484594950e-11
5.709692160223334437e-11
3.899517500736535935e-11
