# bin_14_9
5.212950593587250930e-09
5.948847925378843703e-09
6.693068903291979062e-09
7.395935895710535755e-09
7.992051298831856701e-09
8.397281831693461084e-09
8.522858473248905383e-09
8.277893617285158733e-09
7.590230237484075980e-09
6.580956523732303647e-09
5.431581321367330856e-09
4.462529463660774209e-09
3.825311661901140892e-09
3.258306390582444275e-09
2.414548076403404458e-09
1.700941773563838545e-09
1.379919150116769639e-09
9.145979088648212931e-10
6.889102430624665283e-10
4.664850671081133707e-10
3.178288533187426297e-10
2.176467262022855999e-10
1.479041480285172242e-10
1.004326094649725780e-10
6.848410191652094078e-11
4.735417472315394155e-11
3.329424166837665080e-11
2.389242447627036105e-11
1.753131990945653476e-11
1.312918835413223969e-11
9.987052337100899164e-12
