# bin_13_6
3.253327520136689248e-13
3.696658676558464582e-13
4.136035052021582852e-13
4.539542601772138686e-13
4.864475978124654758e-13
5.057055811687460108e-13
5.071240188212158498e-13
4.839400857783308964e-13
4.358810870288474635e-13
3.710811520159736782e-13
3.041344184853272090e-13
2.525048945900491500e-13
2.184622723391971939e-13
1.803714081266234509e-13
1.276474683473975989e-13
9.507152766260753093e-14
7.387361380983683464e-14
4.971331581490999467e-14
3.613198036862160894e-14
2.529621511259326818e-14
1.728566239385999866e-14
1.181542015598542037e-14
8.089999775630509064e-15
5.580152711515747388e-15
3.890913325209569719e-15
2.761392393570009013e-15
1.997965165854988438e-15
1.476216298949611224e-15
1.111695403361670537e-15
8.492081060133822500e-16
6.534819434479021326e-16
