# bin_1_1
1.766920139063668705e-05
1.739913832976623152e-05
1.629580697684453484e-05
1.445068868865678768e-05
1.219290785223179213e-05
1.004444180964509972e-05
8.416263222910490955e-06
7.147815384582664959e-06
5.691546912841681792e-06
4.153241048727652265e-06
3.149865981312532560e-06
2.378080592296699178e-06
1.721995272374538265e-06
1.273152676623569146e-06
9.370663401448171939e-07
6.984054653681514144e-07
5.289914454190881074e-07
4.080194510599867580e-07
3.201428730745376811e-07
2.544831291124771952e-07
2.036894485185012947e-07
1.629321073483543007e-07
1.293103574278125280e-07
1.011555944700429137e-07
7.755838406704530678e-08
5.803491692567683585e-08
4.227578161609940704e-08
2.996187533689954329e-08
2.068630764050223979e-08
1.394880353953777241e-08
9.215575966640308928e-09
