# bin_12_7
9.658017622459865422e-10
1.096309336010077222e-09
1.225038424077923423e-09
1.342440694629440108e-09
1.435719258189058751e-09
1.488825324131415767e-09
1.488648091605645244e-09
1.414826542035538725e-09
1.269409425370752573e-09
1.076466427341713576e-09
8.814903708500421446e-10
7.340598399020572216e-10
6.356391314748067228e-10
5.201505080478050593e-10
3.652840500729156118e-10
2.758698310142369794e-10
2.111075527253212727e-10
1.437008444287405341e-10
1.029388373950433687e-10
7.258168478882971394e-11
4.971338181977418167e-11
3.400028135815527198e-11
2.335619193403637502e-11
1.617302435721703146e-11
1.133501763435800266e-11
8.090207159125375423e-12
5.888270214349578710e-12
4.374993297613102091e-12
3.309614055389300993e-12
2.535655634783587768e-12
1.953481700378407306e-12
