# bin_15_5
1.672601522850355342e-19
1.906551906616484786e-19
2.141926266556794325e-19
2.362663503481653645e-19
2.547509107314321096e-19
2.669312997895725314e-19
2.700883607370689711e-19
2.611173219025468308e-19
2.382576695593363675e-19
2.055572052143972779e-19
1.692584792034006213e-19
1.393771886334822073e-19
1.198548997546964866e-19
1.013800595062474336e-19
7.411377444398044147e-20
5.287968126785343158e-20
4.263351396156118889e-20
2.817198217055710147e-20
2.115256399964117876e-20
1.444454532302840575e-20
9.828663862886730523e-21
6.727533497989434967e-21
4.575951248269607225e-21
3.119139768008558371e-21
2.139212797710832083e-21
1.489583448116084711e-21
1.055668854640144906e-21
7.639679399068958727e-22
5.649998652047495529e-22
4.258529549102364536e-22
3.253097178352948689e-22
