# bin_7_3
3.375736034946923631e-10
3.734971389034464502e-10
4.044906605925626290e-10
4.264124358517742117e-10
4.346338126096732437e-10
4.249761751319882839e-10
3.929118100489428694e-10
3.434843712446253366e-10
2.850721719386066721e-10
2.336189846696936425e-10
1.986677937782583171e-10
1.703726630538141683e-10
1.298809743750740902e-10
9.087341859554426999e-11
7.314298893115050600e-11
5.071270020515526736e-11
3.781819600887600730e-11
2.616919128235821525e-11
1.868652705961384110e-11
1.332766176679784910e-11
9.558274934649707110e-12
6.943005518547697750e-12
5.121620469046460450e-12
3.851416227354461372e-12
2.945478494463658379e-12
2.280600144897264853e-12
1.777603579651894999e-12
1.384788890461855654e-12
1.070779813508639624e-12
8.168061705833338875e-13
6.116954611829845913e-13
