# bin_15_12
6.651216544538880912e-07
7.618180511033282779e-07
8.610723039491789897e-07
9.567837859532096264e-07
1.040974028510430190e-06
1.103100871106395128e-06
1.130578357300408889e-06
1.113681456503397919e-06
1.037900851772954900e-06
9.142129485390722340e-07
7.622264817033967099e-07
6.236501960539805881e-07
5.279549687749295668e-07
4.560967631074268842e-07
3.539347722029796859e-07
2.442823744556055724e-07
1.956900338929867755e-07
1.366203382168706600e-07
9.979947969190991045e-08
6.675446059660316096e-08
4.660594899022389068e-08
3.171224971140151498e-08
2.136552810961806341e-08
1.434999618978463201e-08
9.626800177124308528e-09
6.511063320944443759e-09
4.459285947530082289e-09
3.106760316392998197e-09
2.212299568640611639e-09
1.612522041710467148e-09
1.201197978899106404e-09
