# bin_5_4
2.933620793166963427e-06
3.219512490232128149e-06
3.451811300594517650e-06
3.593134898131413477e-06
3.609635704259352649e-06
3.456652219701922097e-06
3.126008707495430146e-06
2.673392580358606513e-06
2.195392968408804027e-06
1.817035839383692602e-06
1.565242863525096068e-06
1.301708307010956080e-06
9.383924028874038663e-07
6.900320963337378884e-07
5.438842807403966193e-07
3.715239757389299446e-07
2.765960580905989312e-07
1.965471337759456268e-07
1.395897121780958856e-07
1.003250409247800960e-07
7.289821805273327230e-08
5.381681588725958285e-08
4.042295945875141723e-08
3.091535422239536547e-08
2.396453519676137673e-08
1.872259603769629661e-08
1.464462007794613844e-08
1.138657794964464647e-08
8.745342395866508845e-09
6.599605323285384334e-09
4.873224034195019813e-09
