# bin_9_8
2.936907754526081745e-06
3.317597062421839287e-06
3.684937040544764764e-06
4.008446071150131050e-06
4.247817982796145346e-06
4.354996447640241866e-06
4.292303228017526625e-06
4.004310309731622965e-06
3.530712113966524445e-06
2.947082995109959655e-06
2.411215476703655801e-06
2.038197123395970611e-06
1.760479142289748223e-06
1.372723229530372102e-06
9.499420136700240696e-07
7.574437357731380918e-07
5.353772141509218149e-07
3.897531988965597177e-07
2.652254993151729968e-07
1.879621662243445037e-07
1.305109958185246024e-07
9.045682149452406596e-08
6.314745584430232384e-08
4.450630184165134489e-08
3.190815074948034644e-08
2.332591674595955920e-08
1.738346256783486626e-08
1.318540455705694849e-08
1.012553003748664899e-08
7.819226200975902437e-09
6.026614538785364365e-09
