# bin_7
0.000000000000000000e+00
2.621644157777296458e-209
6.011528860611465244e-178
6.388911729073971092e-152
5.396925865874754984e-130
2.127987888143341399e-111
1.494167155386847988e-95
5.370884094060003827e-82
2.308300187919112424e-70
2.363165107535237917e-60
1.014074246676528712e-51
2.908789302746322345e-44
8.220883078721108798e-38
3.166522010227952845e-32
2.183500486049874651e-27
3.393972043823375793e-23
1.446099588983003114e-19
1.995497759542284357e-16
1.028672288942021862e-13
2.239639716851653266e-11
2.289552976016398111e-09
1.204585191040586948e-07
3.532510370642656798e-06
6.190566450974970035e-05
6.890981348896190817e-04
5.141041227651578852e-03
2.695385001718328399e-02
1.035599984956769859e-01
3.025880516581301305e-01
6.946258949614749767e-01
1.288901286101131083e+00
1.980872209349004764e+00
2.574172503009659607e+00
2.877923152961357367e+00
2.808384048009235912e+00
2.421345575020946939e+00
1.863911217480526794e+00
1.292921687854061030e+00
8.149413244307439630e-01
4.703645753959215803e-01
2.503924655391209786e-01
1.237709244382304424e-01
5.717180280977846724e-02
2.482536976122401776e-02
1.019009609320768381e-02
3.974520015807812140e-03
1.480169975451026305e-03
5.286920722568837303e-04
1.818679012581012695e-04
6.048261972656629644e-05
1.951439937830262535e-05
2.834508449287058296e-05
9.755253787867359811e-06
3.294841701275881766e-06
1.094815144492163167e-06
3.587090317088535437e-07
1.161290883795900816e-07
3.721879294096831595e-08
1.182935458941045708e-08
3.734457200385919339e-09
1.172714378886747706e-09
3.668016908682007535e-10
1.144117179090641889e-10
3.562783812859292595e-11
1.108729458481960839e-11
3.451257528504038214e-12
1.075493153176836918e-12
3.357735786768850574e-13
1.050978863242216588e-13
3.300064441485319904e-14
1.040108984321378579e-14
5.848416887352664302e-15
