# bin_8_2
2.135034490520358572e-15
2.368782452138206457e-15
2.574261618677663870e-15
2.725745653085909241e-15
2.792841408422449748e-15
2.750985533505198292e-15
2.565826321452555613e-15
2.261978290184092564e-15
1.888572523349035786e-15
1.544954796932039587e-15
1.304294478408677755e-15
1.124832023683389777e-15
8.787710656568554700e-16
6.110152837637478517e-16
4.851874073058729420e-16
3.466334777009466756e-16
2.525005669759667583e-16
1.752861965692479448e-16
1.258891678166360840e-16
8.922558427930074802e-17
6.353332834129287695e-17
4.582661955797362034e-17
3.354993242740429638e-17
2.503080585821742965e-17
1.901343403151039523e-17
1.464627274284019003e-17
1.138259387485362962e-17
8.862466146977405399e-18
6.864136086245346640e-18
5.254443173634445270e-18
3.954737827401723830e-18
