# bin_15_9
4.766029366314150624e-10
5.444737202507810090e-10
6.134845982104466020e-10
6.791443114598095471e-10
7.355816820797300614e-10
7.751756385513207713e-10
7.894252471091444502e-10
7.707061932475915327e-10
7.107624505116050976e-10
6.197885770181255294e-10
5.131095151100548397e-10
4.205593350703707139e-10
3.588397470352123172e-10
3.076595664675274150e-10
2.318504424924774252e-10
1.614422974078190816e-10
1.310058781710233984e-10
8.793527892226415493e-11
6.592309443377512179e-11
4.423457351166903590e-11
3.031035429780465382e-11
2.073294984434420824e-11
1.406324311199519884e-11
9.504834542175046093e-12
6.436074700662301813e-12
4.410943922814240287e-12
3.069608386365642314e-12
2.178284547867126993e-12
1.581029216983814026e-12
1.172984288665103449e-12
8.862440927372300357e-13
