# bin_11_1
1.411909081663091085e-27
1.588069789517222097e-27
1.754899960763820636e-27
1.897110931433547382e-27
1.994978246930380016e-27
2.027221690682049882e-27
1.973246349902326068e-27
1.814391167309325268e-27
1.577585355401375530e-27
1.304305515394859197e-27
1.070135263575082504e-27
9.142711352047877238e-28
7.808235495928161205e-28
5.849390112999916185e-28
4.105723384369921187e-28
3.323371794591088176e-28
2.242122376460713193e-28
1.685472968453562035e-28
1.151060931021873533e-28
8.027884569511561112e-29
5.621605571206919002e-29
3.938320109609237472e-29
2.779893036901807680e-29
1.986288527790535735e-29
1.446986838048535828e-29
1.074674782708702477e-29
8.124698822211863549e-30
6.230429965758873620e-30
4.815046334156006092e-30
3.723191302332301345e-30
2.859762110791917595e-30
