# bin_8_7
2.866588046514665955e-06
3.221490187958737608e-06
3.556248679430352470e-06
3.839551578396881470e-06
4.031190019198048953e-06
4.088933724891172552e-06
3.969495794787342170e-06
3.639224471646618776e-06
3.155029436908646039e-06
2.604238785762650643e-06
2.138909719510816103e-06
1.831162149014206179e-06
1.558644030943759498e-06
1.158088871098448677e-06
8.174308625720083753e-07
6.613728859841534288e-07
4.437170978322976543e-07
3.343470464398676018e-07
2.292067614381442848e-07
1.595118967463475429e-07
1.118150535831227258e-07
7.845920413951413516e-08
5.551222809320354259e-08
3.978421431137783086e-08
2.907735963411615618e-08
2.166337043835305871e-08
1.642220301459300284e-08
1.261755194129385077e-08
9.760514215337006714e-09
7.546917426595209785e-09
5.791303232659367228e-09
