# bin_3_3
7.643936219338141460e-06
8.178225295404486042e-06
8.494858580074700542e-06
8.513934303180782610e-06
8.133443505562493907e-06
7.342091548880051793e-06
6.270793611997224562e-06
5.151412062893287145e-06
4.267956862616790812e-06
3.667890702888370282e-06
3.034669268635499856e-06
2.197805965524738061e-06
1.624986865864416397e-06
1.270966504732278434e-06
8.841985444336266081e-07
6.574652526579605877e-07
4.720563887556379664e-07
3.411238592998933873e-07
2.496841027061747566e-07
1.853553723423890151e-07
1.400144803756712019e-07
1.075852970162518877e-07
8.392246344821483009e-08
6.605463815718676471e-08
5.210775312881746196e-08
4.091323007837814668e-08
3.175755614567196821e-08
2.423029169348819393e-08
1.808677904818700371e-08
1.316319520096810357e-08
9.325536340173472046e-09
