# bin_5_5
5.236167305528979096e-06
5.775524412869251522e-06
6.231467235495930395e-06
6.538986583495467393e-06
6.630256929177311740e-06
6.435181705989822208e-06
5.901336611923137663e-06
5.117764018568899587e-06
4.227294002037521239e-06
3.472311571292461766e-06
2.968104770034479906e-06
2.523367164599373807e-06
1.883064814294521900e-06
1.334548718827432397e-06
1.074594997441208673e-06
7.337479850838955020e-07
5.516615007087649231e-07
3.840920096312756847e-07
2.729897884342855280e-07
1.953439768464204078e-07
1.407551480277567399e-07
1.028089074592068664e-07
7.631401257480647903e-08
5.773965788807256645e-08
4.438082910078180706e-08
3.448347830313637481e-08
2.692001841653590765e-08
2.096193850771821843e-08
1.617222612092224495e-08
1.228998955618647918e-08
9.157808980973335820e-09
