# bin_14_11
4.788469777756862195e-07
5.471821002452867667e-07
6.167416398135882934e-07
6.830236481425354047e-07
7.401483888516773307e-07
7.804685199171827612e-07
7.953712966182912736e-07
7.773067275615697174e-07
7.176871428779452808e-07
6.265428214258222694e-07
5.190635483598618913e-07
4.253002392937734163e-07
3.625645099187097058e-07
3.111979427485608472e-07
2.352914336487871836e-07
1.635651612037504379e-07
1.326413026431492978e-07
8.934231267883572275e-08
6.685649683831810240e-08
4.479977749573882641e-08
3.074975362465892401e-08
2.102555355555445323e-08
1.425497774404247776e-08
9.626765953547985881e-09
6.510765924949342415e-09
4.454972308316814968e-09
3.094372714109199824e-09
2.191205232852111281e-09
1.587032914924841447e-09
1.175215381302703065e-09
8.866641218086542600e-10
