# bin_9_3
3.235649966087957001e-14
3.616166393296179017e-14
3.965140057175725281e-14
4.245452515091054675e-14
4.410490325573842219e-14
4.420122041327814929e-14
4.216726790720490148e-14
3.797660432345882558e-14
3.233484673708787996e-14
2.650101471140390678e-14
2.198619153816111211e-14
1.899339408019474218e-14
1.568347812090827329e-14
1.114546977797487265e-14
8.290164346254014121e-15
6.460299919567240859e-15
4.383254680638502761e-15
3.215319572691282628e-15
2.275632242068455863e-15
1.587154724552273022e-15
1.115398449781081853e-15
7.903965530760797910e-16
5.678164436622470876e-16
4.146689742914530023e-16
3.088693377472793950e-16
2.341177091478549120e-16
1.799607702344662282e-16
1.394743854404774476e-16
1.082058583715688232e-16
8.343602481444483479e-17
6.354373825910207485e-17
