# bin_13_10
4.134099774279581721e-07
4.713968019836321923e-07
5.298744911438332932e-07
5.848930639103460515e-07
6.312455167843111414e-07
6.622608565842050663e-07
6.710613897284173495e-07
6.502729518384842373e-07
5.947902401796220894e-07
5.144297850499791218e-07
4.240010610876733850e-07
3.485811541325026535e-07
2.991589640349847775e-07
2.540057612451327227e-07
1.870408338130077563e-07
1.324176099974161820e-07
1.071828033346021821e-07
7.085978482618287180e-08
5.333024795951303751e-08
3.623342227554836727e-08
2.465619191145874693e-08
1.687733591705155315e-08
1.146946349317329049e-08
7.798183179774319228e-09
5.328848080009148603e-09
3.694583985011388771e-09
2.605742766282092677e-09
1.876263037631154272e-09
1.381180830748575456e-09
1.037144711231601922e-09
7.903542797428831126e-10
