# bin_13_6
3.280723257538739661e-13
3.726584892758926411e-13
4.168139629856010976e-13
4.573228189173138645e-13
4.898857090355019260e-13
5.090938131861449896e-13
5.103287963834895422e-13
4.868007677093866402e-13
4.382785524258324023e-13
3.729724406817564549e-13
3.055878912605337673e-13
2.536610108459347105e-13
2.194105915016244035e-13
1.810609029489461674e-13
1.280694080894984120e-13
9.539929010337440705e-14
7.407897424147809187e-14
4.985266501763255277e-14
3.620943038284917262e-14
2.534921931848288388e-14
1.731787854963672083e-14
1.183379054229942310e-14
8.100592543996156837e-15
5.586108775527115072e-15
3.894246572279484927e-15
2.763208362346980003e-15
1.998946660678162106e-15
1.476744475143267981e-15
1.111970326156540042e-15
8.493363652768002237e-16
6.535171773033928204e-16
