# bin_8_8
4.387872915907141855e-06
4.943318699511029299e-06
5.473239730077093848e-06
5.930929414050589482e-06
6.255556618055676164e-06
6.378357994482615316e-06
6.239370470735090512e-06
5.769201378816167371e-06
5.043767877643380962e-06
4.183863011185480364e-06
3.427019956787340779e-06
2.915891901703779830e-06
2.504102410310136816e-06
1.905361708006248574e-06
1.325920025216295357e-06
1.071040432920472523e-06
7.327966645930002152e-07
5.464783488495935245e-07
3.711302159123742345e-07
2.602502571597095415e-07
1.817723734153771731e-07
1.269040607970712534e-07
8.918018826598069578e-08
6.336390853938840493e-08
4.587063454407594032e-08
3.386084404672451897e-08
2.546181225709684288e-08
1.944864782722653195e-08
1.499885589560214826e-08
1.159588668380620444e-08
8.921182699343143767e-09
