# bin_9_7
8.484197997872459027e-07
9.561064860109314512e-07
1.058983540777661744e-06
1.148049665717494203e-06
1.211559864716349806e-06
1.236132882324164555e-06
1.210305128688240791e-06
1.120284924429512241e-06
9.804199479623952415e-07
8.138136258781158009e-07
6.664297232913301202e-07
5.665767120531678537e-07
4.869935791443171108e-07
3.716498451905617564e-07
2.583072988915467327e-07
2.084556541208009930e-07
1.430941662187208649e-07
1.064781982277554855e-07
7.226749753742142522e-08
5.073923028681771976e-08
3.541706889276667204e-08
2.470738869237866950e-08
1.734830425668000898e-08
1.231336443802917487e-08
8.903225609599728295e-09
6.564423131571787556e-09
4.930899924402637023e-09
3.763382300930271092e-09
2.901011603128176413e-09
2.242645294532862709e-09
1.725822289689387691e-09
