# bin_6_1
4.110212045325702812e-14
4.475697630961131883e-14
4.752629133043764502e-14
4.888402524415885274e-14
4.840065238211079620e-14
4.546003964295632437e-14
4.034879849157136033e-14
3.389876863568098049e-14
2.773642285354146704e-14
2.326593162149304418e-14
2.007365748998029044e-14
1.599872430941304546e-14
1.122010825097997935e-14
8.724017824521542950e-15
6.462190406474527091e-15
4.616393045651033793e-15
3.300292371935745344e-15
2.392521596740129124e-15
1.716446644435309824e-15
1.243499215860833749e-15
9.149219166342487579e-16
6.847095589554322162e-16
5.217123233986131775e-16
4.037738368520477479e-16
3.156435862057213681e-16
2.476671708330552656e-16
1.936836568906121055e-16
1.499434284155140530e-16
1.142511145522415928e-16
8.528106892834840456e-17
6.213925513336734753e-17
