# bin_14_2
3.342659859284891429e-34
3.797219067417122917e-34
4.247209789491403003e-34
4.659775118041490648e-34
4.990937041674877452e-34
5.185372008298618841e-34
5.196224509750013127e-34
4.953844325461932210e-34
4.457766873035076650e-34
3.791560360712973743e-34
3.106929901884960447e-34
2.581376200128271791e-34
2.233747902959258745e-34
1.840303588399011436e-34
1.300123180782552860e-34
9.715026666565051255e-35
7.521077228927479365e-35
5.075707187224408403e-35
3.676146665445487346e-35
2.577882456532916727e-35
1.762542944533885386e-35
1.204966235638585482e-35
8.256973781027658915e-36
5.700553015264226882e-36
3.979694873379828369e-36
2.828178324840170690e-36
2.049159549629914716e-36
1.516051484178177285e-36
1.142915712511056941e-36
8.736604813657479716e-37
6.724686377432670081e-37
