# bin_5_4
8.798977918851284963e-10
9.632893384336138237e-10
1.029648600604025507e-09
1.067616743341731129e-09
1.067720028372310634e-09
1.015745552466605397e-09
9.123916501908765777e-10
7.748270192309597026e-10
6.345763431622377865e-10
5.273519388275628871e-10
4.558388471351258076e-10
3.745395281012869400e-10
2.652622302099333002e-10
1.993793822428684537e-10
1.546461625434344479e-10
1.063524807477130577e-10
7.821067579889598824e-11
5.631062960375938616e-11
4.005913223448558467e-11
2.882041625833734721e-11
2.102302714329677056e-11
1.560170375642535744e-11
1.178627286322597747e-11
9.059428883487024604e-12
7.049539688875680210e-12
5.520633657251474560e-12
4.321137816554194595e-12
3.356692402193498485e-12
2.572017555963265377e-12
1.934078710245424969e-12
1.421615738566668704e-12
