# bin_1_7
6.566454253404134569e-07
6.466366579383607495e-07
6.059424367657166003e-07
5.377025522193902123e-07
4.542474932953124182e-07
3.745818995747319879e-07
3.137032839399493986e-07
2.659169252094256709e-07
2.119846328813601656e-07
1.554948221031175725e-07
1.173393212791412587e-07
8.882160332254302797e-08
6.427358947354360437e-08
4.759462059763756408e-08
3.497078829799259772e-08
2.606745394598952998e-08
1.973791008567192543e-08
1.521588153210224001e-08
1.193209277507567209e-08
9.479742224027805184e-09
7.584378946080817741e-09
6.065081951886643994e-09
4.812936126189362195e-09
3.765187699380144343e-09
2.887512405840120975e-09
2.161551831719715866e-09
1.575496278415155407e-09
1.117355229864807675e-09
7.719836101332122768e-10
5.208898029520137210e-10
3.443330846151899750e-10
