# bin_9_2
9.869686650813055973e-32
1.116264872411861401e-31
1.241695003470545781e-31
1.353155370424584409e-31
1.437193596019664236e-31
1.477430547154114697e-31
1.461464516769609617e-31
1.369471993612572410e-31
1.212530356797018139e-31
1.015462334650036051e-31
8.305036977818964583e-32
6.994973091098543184e-32
6.053310090511572397e-32
4.778580806390109344e-32
3.304577744121313209e-32
2.609812495279673388e-32
1.879640361057864980e-32
1.347295217580838112e-32
9.216092359781786644e-33
6.561955543532717755e-33
4.539981617487917213e-33
3.132660307350837105e-33
2.178989887533671225e-33
1.529334760586955583e-33
1.090715123813057476e-33
7.930885768743094986e-34
5.880543449634513486e-34
4.441977660416391740e-34
3.401909330408623005e-34
2.624313141131603295e-34
2.023891126890947690e-34
