# bin_4_7
1.469548428038891560e-07
1.599803325874878847e-07
1.698121644259859169e-07
1.745728054459305982e-07
1.727088055779821916e-07
1.620505875765237744e-07
1.436943939831861737e-07
1.206432752447586359e-07
9.874999687596823417e-08
8.293814397218202602e-08
7.153481957818648001e-08
5.683932893505466787e-08
3.988084594525167683e-08
3.109034226843392497e-08
2.293703280511721659e-08
1.644401921624046152e-08
1.174663827699077325e-08
8.513584916914626942e-09
6.114092522991079702e-09
4.434292488839918198e-09
3.265942025852992596e-09
2.446689138834016807e-09
1.866120000731796931e-09
1.445427627866360434e-09
1.130573781922315466e-09
8.873535156576457947e-10
6.939542506735906239e-10
5.371248152421381473e-10
4.091031931210808267e-10
3.051953956721047731e-10
2.222247989887333806e-10
