# bin_1_14
7.721981798204330997e-07
7.592803062642227215e-07
7.115288578987325055e-07
6.326541068451081269e-07
5.368856725582910709e-07
4.447840423167540466e-07
3.716649336342012897e-07
3.124535019898107428e-07
2.499247465021832438e-07
1.861631271263922793e-07
1.393552408995740998e-07
1.053864818863635318e-07
7.686648002679840426e-08
5.665975934419690550e-08
4.172558815517489431e-08
3.109562799705394978e-08
2.351426777277119681e-08
1.809736300153989574e-08
1.416415164313357523e-08
1.122999280636313781e-08
8.966957445047380815e-09
7.159029827010076791e-09
5.674255323738683534e-09
4.436162962135949567e-09
3.402241443822555707e-09
2.548982687496546365e-09
1.860848726510566884e-09
1.322650423476465773e-09
9.161311363869016894e-10
6.197318309486595027e-10
4.106368579096937187e-10
