# bin_9_7
1.729975900880882811e-11
1.948241509353188876e-11
2.155999493179003860e-11
2.334666855278415089e-11
2.460128393588427979e-11
2.505412979489231752e-11
2.446454999882025788e-11
2.256833437874830263e-11
1.968704097510717224e-11
1.630219804091730023e-11
1.336009621824500344e-11
1.139667232389600779e-11
9.778920477461085646e-12
7.383624896773031103e-12
5.142712755657270748e-12
4.181626443553199668e-12
2.822731378022268366e-12
2.128862780690510128e-12
1.444580958274113621e-12
1.007657559981032860e-12
7.060167189481629487e-13
4.946422357830751428e-13
3.484576695927865065e-13
2.482881097131289721e-13
1.803509518355858769e-13
1.335777977815238514e-13
1.007528075216879849e-13
7.714653968700824929e-14
5.959018678123246211e-14
4.610014677285524504e-14
3.545777042753248117e-14
