# bin_14_12
6.341115799848172057e-10
7.247032801009139884e-10
8.169093990527320355e-10
9.047569141656972540e-10
9.804320044016033099e-10
1.033774381728251521e-09
1.053401325725023094e-09
1.029165763992710247e-09
9.498857393021860525e-10
8.289580692597838677e-10
6.867139021703059318e-10
5.629553403145618059e-10
4.802702784114063992e-10
4.120345205576767901e-10
3.110608290743571168e-10
2.165592263427165720e-10
1.756450757755161678e-10
1.181868047532117161e-10
8.849782222859843308e-11
5.937785570213495875e-11
4.074296158318274285e-11
2.786871405254446797e-11
1.890300629126605612e-11
1.277614760074458944e-11
8.650313959098221739e-12
5.926857961002380702e-12
4.122954194255487037e-12
2.924308879593522403e-12
2.121336675275207620e-12
1.573013735253202484e-12
1.187981711146780917e-12
