# bin_10_5
1.175561022950619494e-19
1.333883777559067743e-19
1.489749492813158616e-19
1.631502420200810662e-19
1.743508259279588866e-19
1.806188998409986080e-19
1.803869553739133153e-19
1.711592088691057129e-19
1.533228928388338704e-19
1.298062005545841824e-19
1.062530033366869219e-19
8.859028776985330718e-20
7.674428827920502380e-20
6.257630102979642710e-20
4.379348695310916692e-20
3.326679418125785502e-20
2.529926463019566603e-20
1.729804643709205717e-20
1.231655466627094078e-20
8.713308749548018402e-21
5.973656667861842665e-21
4.085664171706256714e-21
2.810354297037431719e-21
1.949182993906608045e-21
1.368983037452644446e-21
9.793501807750804616e-22
7.145104509489635416e-22
5.320852489063577407e-22
4.032527585663918657e-22
3.093270996188892144e-22
2.384272875615033315e-22
