# bin_6_1
2.502312019874855474e-30
2.720944473602369898e-30
2.883893815119576781e-30
2.958699405243767190e-30
2.920355699609625669e-30
2.730456724532005126e-30
2.412871412434874048e-30
2.017766705191848828e-30
1.649634168668254857e-30
1.389654117542893665e-30
1.200704980451053835e-30
9.455312443283379121e-31
6.570350130554296880e-31
5.210815904384704217e-31
3.776545695334580545e-31
2.750695361801196421e-31
1.929716149151441624e-31
1.409540202562772767e-31
1.015461481718608374e-31
7.378264884622897633e-32
5.450964483525254064e-32
4.095128491297475318e-32
3.132732523910607475e-32
2.432503586398686918e-32
1.906073981175900221e-32
1.497560722893096552e-32
1.171361216364902200e-32
9.060716535510739532e-33
6.891806023284990187e-33
5.131148556903199670e-33
3.726543265040071904e-33
