# bin_5_5
1.381156139874166209e-08
1.517403198446979421e-08
1.629072014530883646e-08
1.698620797783801242e-08
1.709797935331936778e-08
1.641638123672547451e-08
1.488105009136712007e-08
1.275526367679712101e-08
1.047723708415863721e-08
8.654319669884617332e-09
7.454408947768943944e-09
6.235871394165173762e-09
4.508917360888330770e-09
3.288154189197901070e-09
2.618359905407435601e-09
1.772401935757792398e-09
1.331076243176201208e-09
9.427511970912405170e-10
6.680317593736408496e-10
4.797945788673311302e-10
3.480530269831972980e-10
2.565110964153145521e-10
1.923274362388662537e-10
1.468769208552318001e-10
1.137380240535790437e-10
8.881640507234333819e-11
6.947879246853999453e-11
5.405595744216421778e-11
4.156230395773778690e-11
3.141003761992762788e-11
2.323342550594563219e-11
