# bin_1_6
6.073938117556410521e-07
5.968189235697048088e-07
5.587762766228794111e-07
4.963366557114135478e-07
4.208221096302563640e-07
3.485080305998925984e-07
2.913311241186101855e-07
2.449420924758074042e-07
1.956334522501158995e-07
1.455127465466549132e-07
1.090397956484457682e-07
8.242689506471185186e-08
6.009673338147541901e-08
4.432167573826922214e-08
3.264957837002193150e-08
2.434698331769083818e-08
1.842572218663443202e-08
1.419318721842847584e-08
1.111743113456775173e-08
8.820177456213724565e-09
7.045786825092885917e-09
5.626155241096571242e-09
4.458901030634102405e-09
3.484840585838268301e-09
2.671186390543721536e-09
1.999839395595293232e-09
1.458745720871811674e-09
1.035940969904959865e-09
7.169360667562039652e-10
4.846103513148942141e-10
3.208917883091877968e-10
