# bin_2_1
6.890329952867858460e-09
6.935591323982692795e-09
6.675027277714486875e-09
6.083341224866566444e-09
5.251090303862644777e-09
4.347201973556848023e-09
3.592316062298815245e-09
3.057229369414929450e-09
2.551060553842393168e-09
1.915445196869586834e-09
1.399100491232656451e-09
1.090075256382608696e-09
7.846671803477374144e-10
5.811164744762368549e-10
4.234273744769675936e-10
3.129424331835017046e-10
2.339244669072442880e-10
1.778421373474010351e-10
1.377019148627955782e-10
1.083174262079630103e-10
8.617100332187627012e-11
6.884768476951385268e-11
5.483602736865867817e-11
4.323698707414676063e-11
3.353587835885422058e-11
2.545368912848527004e-11
1.883408877233126359e-11
1.355986799013602883e-11
9.499775846667678027e-12
6.488223880192687495e-12
4.332701201076315248e-12
