# bin_14_5
3.101770805664685076e-22
3.527476976296657975e-22
3.951131739839199562e-22
4.342490116657139454e-22
4.661177595936942871e-22
4.856186236044120927e-22
4.881895548757784923e-22
4.675205947959611806e-22
4.225292362948833098e-22
3.609791073239621461e-22
2.961426774071564840e-22
2.452646806966062820e-22
2.119531739950002629e-22
1.762617515351308841e-22
1.257056788938072601e-22
9.250149832288770517e-23
7.275349439814016298e-23
4.856618061392579552e-23
3.570597659712093566e-23
2.483005366071138854e-23
1.693697458461609395e-23
1.157775028256884738e-23
7.907742762483944087e-24
5.436241510493116021e-24
3.773658566242622100e-24
2.664727750700842869e-24
1.917743363114943191e-24
1.409615796848124710e-24
1.056947730598500933e-24
8.049691097790426199e-25
6.185792256877512523e-25
