# bin_1_8
6.715486756704485072e-07
6.604872972261569985e-07
6.190828957546386216e-07
5.505173122306207861e-07
4.671478344589150677e-07
3.869215270385484762e-07
3.233159323507799277e-07
2.719390108197672683e-07
2.175641155173281209e-07
1.619610353942523834e-07
1.212622658585044726e-07
9.173237214214363290e-08
6.688681667545889602e-08
4.931837148918638988e-08
3.632030240791275094e-08
2.707203322603040093e-08
2.047594014860687644e-08
1.576271026489396733e-08
1.233997744825222882e-08
9.785995069099424972e-09
7.815521457537647723e-09
6.240684298846781731e-09
4.946830369429265811e-09
3.867573020155578120e-09
2.966064242892666173e-09
2.221971375645304228e-09
1.621863372144574864e-09
1.152557908059526921e-09
7.981461739056427381e-10
5.398055992646598691e-10
3.576088853847938381e-10
