# bin_12_9
6.293333132926014731e-11
7.152561318695589007e-11
8.005085018727494149e-11
8.789263294882694415e-11
9.422672759070363228e-11
9.801434970289900280e-11
9.835510285341637755e-11
9.394904966467883214e-11
8.469730902932728123e-11
7.217528106460546790e-11
5.916982853467621469e-11
4.909201828427732624e-11
4.246006696416671795e-11
3.512572517813647264e-11
2.491131460264229663e-11
1.849224652155541243e-11
1.441720396570469789e-11
9.680425217086652119e-12
7.058379085226546127e-12
4.932267946454221615e-12
3.368696256518937131e-12
2.302699831807747103e-12
1.575574036502220079e-12
1.085766908576563167e-12
7.561583297077256122e-13
5.359106035697790446e-13
3.871881043239421609e-13
2.856771517204287133e-13
2.148840050999811842e-13
1.640147344926397410e-13
1.261656751790631799e-13
