# bin_6_7
3.857854438623699632e-08
4.277267265060361450e-08
4.644089153020060461e-08
4.911525998301366437e-08
5.025543055589492559e-08
4.939861082288665108e-08
4.596836852814825323e-08
4.043652007322412480e-08
3.372492118954437809e-08
2.762004062692776456e-08
2.336520233548844155e-08
2.010052379207163219e-08
1.560471538095240454e-08
1.090159666006401725e-08
8.658980011140126259e-09
6.157474849248925103e-09
4.499180231668994214e-09
3.134404170154858568e-09
2.246073499165619358e-09
1.594409107001188670e-09
1.137722455067327490e-09
8.224526214874050300e-10
6.036339155354540490e-10
4.514743973559844835e-10
3.436623878143738344e-10
2.651363155727013410e-10
2.062236864124117886e-10
1.605769946298274541e-10
1.242965847811888977e-10
9.504143174565588316e-11
7.142244456449954693e-11
