# bin_4_9
1.973275190140787272e-07
2.145473454242921469e-07
2.273833797196463028e-07
2.333792361781238264e-07
2.303290499887455196e-07
2.156487211905369327e-07
1.908631472850338233e-07
1.602053538885024967e-07
1.313611438281490062e-07
1.104682127481974058e-07
9.485674492750583992e-08
7.497440638432949746e-08
5.310915250666102733e-08
4.118070790462464884e-08
3.034874786341795728e-08
2.178084782595903469e-08
1.564648616634113687e-08
1.128851734874168148e-08
8.116624013371341589e-09
5.897684318620960112e-09
4.349726625901408690e-09
3.262674954915346452e-09
2.490824040746725813e-09
1.930345111235501769e-09
1.509993185593965203e-09
1.184663865543498270e-09
9.256891238957597553e-10
7.156474687239343235e-10
5.443009697560862038e-10
4.054160571654348035e-10
2.947465558807807773e-10
