# bin_8_7
2.838608242148219484e-09
3.179712203138724273e-09
3.496122659282398877e-09
3.755762029578868713e-09
3.918025050316144747e-09
3.945239711891030902e-09
3.788832457646855033e-09
3.434836611964101172e-09
2.944225950862512627e-09
2.418702503555059631e-09
1.998873762828646204e-09
1.722914884459734784e-09
1.440731029396955849e-09
1.039239040799042911e-09
7.572186391844557898e-10
6.012372618801243320e-10
4.036894381760161012e-10
3.008153765952865970e-10
2.104750623591387505e-10
1.464579924995106761e-10
1.028839303789635870e-10
7.264823379285837855e-11
5.192779900594520349e-11
3.768959215665490066e-11
2.790495529449461501e-11
2.103898762724317694e-11
1.610572102144546672e-11
1.245338438544469418e-11
9.657594182978326883e-12
7.457532243943205555e-12
5.696498008866625593e-12
