# bin_6_4
2.550363379597064537e-10
2.806519512938276367e-10
3.019165987214731763e-10
3.156176800899282293e-10
3.186266065597077626e-10
3.072632454729733049e-10
2.798421638720164138e-10
2.410241149865303870e-10
1.984514738869014639e-10
1.635743589283317271e-10
1.404618205596021756e-10
1.182714009688113328e-10
8.666524728568975214e-11
6.245243576541858237e-11
4.996699407132490162e-11
3.394912450009254569e-11
2.552030621217663031e-11
1.794011804184512703e-11
1.273053257000589276e-11
9.134595549822469722e-12
6.611851004105396047e-12
4.856922603683269422e-12
3.628111242393000196e-12
2.761248774720763810e-12
2.132441039056693674e-12
1.662179976815168567e-12
1.299351350976749734e-12
1.011294736407498110e-12
7.785972018888836235e-13
5.896743095770862359e-13
4.374090225404507903e-13
