# bin_7_6
3.023006549314890163e-09
3.364838620255110141e-09
3.671035362145276149e-09
3.905754240129610876e-09
4.025168722116622997e-09
3.994534243890333948e-09
3.760635620556809063e-09
3.344709041106177039e-09
2.813948215452112724e-09
2.302469343435423119e-09
1.930327299905417129e-09
1.669159606816147467e-09
1.335801134660892002e-09
9.324606596403835878e-10
7.235663065087471369e-10
5.361603977944814678e-10
3.789581162846805415e-10
2.678561349772233666e-10
1.923910318469478007e-10
1.354766117222994056e-10
9.585761679594673726e-11
6.868114122504686274e-11
4.993546332952915157e-11
3.696958976383190100e-11
2.788992040467979633e-11
2.136754246645169287e-11
1.654984114100695776e-11
1.287287828555222654e-11
9.983262896633436775e-12
7.667566260840344168e-12
5.799635655135942640e-12
