# bin_11_15
4.774478684022971724e-08
5.433306901869245513e-08
6.091057459546306191e-08
6.701362613587378621e-08
7.202506743356943413e-08
7.516268132643402102e-08
7.570221766772989438e-08
7.270197189194747690e-08
6.589926068260580329e-08
5.647246874098476769e-08
4.638960144963653022e-08
3.835710584474284910e-08
3.308827236393060976e-08
2.765036753182143546e-08
1.988750178907648360e-08
1.449639010906272795e-08
1.147688532105590132e-08
7.650313066029538074e-09
5.654487989734993586e-09
3.908841996089964946e-09
2.665307383288557941e-09
1.823046845697057175e-09
1.243925699051971545e-09
8.529317307461770111e-10
5.898811194631714242e-10
4.147482221122305314e-10
2.970833376215776114e-10
2.173288896233127086e-10
1.622658897435594227e-10
1.231775080778114495e-10
9.446752053178045809e-11
