# bin_9_3
3.370392597097528456e-18
3.761936706740674632e-18
4.118251397532777463e-18
4.400131602352227460e-18
4.558618069693094791e-18
4.553558095465501469e-18
4.323731255981511731e-18
3.876569784351183446e-18
3.285846647308327383e-18
2.690706987391419592e-18
2.240931504852712702e-18
1.938550599278360748e-18
1.583997781040703205e-18
1.115601948743215956e-18
8.438903203720743698e-19
6.464422896524525531e-19
4.444480042372262275e-19
3.213658803931446745e-19
2.293500472554942867e-19
1.605126835083523372e-19
1.130139693169763594e-19
8.042315873008795768e-20
5.805679715547634880e-20
4.263538614415913251e-20
3.192568792325875502e-20
2.430968746446409327e-20
1.874978793393419752e-20
1.455831202086175277e-20
1.129735557798511330e-20
8.700769457580525865e-21
6.610604688845667481e-21
