# bin_9_5
4.811080845828768509e-13
5.389662398132479673e-13
5.926590060615562536e-13
6.367525321496712349e-13
6.643666483254764597e-13
6.691065305425651713e-13
6.427219543852177698e-13
5.827625891102532852e-13
4.995930789548777894e-13
4.103889199613260487e-13
3.390792774931964718e-13
2.923077897742863216e-13
2.445901905596970894e-13
1.763994678029559052e-13
1.284336007170795834e-13
1.021261053637392986e-13
6.845303638568190673e-14
5.108377889419770063e-14
3.573790495932109947e-14
2.485758195669961813e-14
1.746011429922634562e-14
1.232564691155615197e-14
8.808843300990750105e-15
6.392559235817164471e-15
4.732399361396617748e-15
3.567685843730058736e-15
2.731032460584701412e-15
2.111767869722098884e-15
1.637812201787074137e-15
1.264868415696243775e-15
9.663272800600397722e-16
