# bin_7_2
7.925454560771974400e-17
8.723700238519708322e-17
9.387623105052375994e-17
9.817488814733282058e-17
9.915557475379939671e-17
9.567837073052574450e-17
8.718967442008840728e-17
7.513739158987486671e-17
6.187308535532144732e-17
5.097748642041011589e-17
4.376885125713729080e-17
3.690019960437110773e-17
2.706560629956375849e-17
1.946649854200093171e-17
1.560640530195229436e-17
1.058671311028313114e-17
7.971855481333678291e-18
5.598707501870315548e-18
3.971298633418505474e-18
2.849256930766772556e-18
2.061672596413378361e-18
1.513831262481532449e-18
1.130317110715089661e-18
8.599222417837174299e-19
6.639092419057530502e-19
5.174203269937471309e-19
4.044728551311974586e-19
3.148445655592238824e-19
2.424583710533233180e-19
1.836886271348749263e-19
1.363121869411531682e-19
