# bin_7_2
1.115301773916352954e-17
1.228608324322267154e-17
1.323409667813594325e-17
1.385723902133047373e-17
1.401541416981841012e-17
1.355155146555171015e-17
1.237553324067557289e-17
1.068765944826517938e-17
8.809313313249720949e-18
7.250419635874448545e-18
6.217763467611916790e-18
5.258867677954076691e-18
3.877996965522675838e-18
2.773990384614979058e-18
2.230468646617718047e-18
1.513465544248806664e-18
1.141066080648294346e-18
7.987299187591249375e-19
5.666031276643371173e-19
4.062188645847703240e-19
2.935284212264783688e-19
2.151404700373603297e-19
1.603143124961861245e-19
1.217400457882332833e-19
9.385364342640870842e-20
7.307561113607449179e-20
5.710384466909310161e-20
4.446042519781588150e-20
3.426426288867737862e-20
2.598965634704462134e-20
1.931627828129013080e-20
