# bin_8_2
4.549979325284175200e-20
5.044420423034415507e-20
5.476695285196706784e-20
5.791562186515251442e-20
5.924707495432624442e-20
5.822759822176860631e-20
5.415555675293344683e-20
4.761499865927330530e-20
3.967353582788689009e-20
3.247363473916975443e-20
2.749072375172991942e-20
2.367978345613636440e-20
1.834781085404551085e-20
1.276810609663035788e-20
1.020578809260706620e-20
7.206978489217958570e-21
5.302223430802439327e-21
3.669239930756946882e-21
2.631692732636596028e-21
1.870012074329890893e-21
1.335213853601671023e-21
9.656026206871996599e-22
7.088478799672209714e-22
5.303837791500326684e-22
4.038967803864437914e-22
3.117366756029253922e-22
2.425649277232119521e-22
1.889331480427875388e-22
1.462768496982060798e-22
1.118588674196873150e-22
8.405987055277620814e-23
