# bin_10_10
4.212868118300754741e-11
4.779630191133981266e-11
5.337302974088745998e-11
5.844050924838293513e-11
6.243792842928816427e-11
6.466370416220269157e-11
6.455703338917796491e-11
6.122777698608486495e-11
5.482704279824155478e-11
4.640316339323041193e-11
3.798564884654426230e-11
3.168381924443040569e-11
2.744177489514378873e-11
2.234680973502135292e-11
1.564109672462140593e-11
1.189613584900829876e-11
9.027216410488726829e-12
6.186884050807143599e-12
4.397186208453865827e-12
3.110376616961387308e-12
2.133189647338463904e-12
1.459844014382987263e-12
1.004671328934352870e-12
6.970737473482101360e-13
4.898178016556023689e-13
3.505868417348769755e-13
2.559069584755343626e-13
1.906485160441262942e-13
1.445251033446723586e-13
1.108704130313445424e-13
8.544806330790655379e-14
