# bin_10_4
4.116287708438448379e-18
4.623032517962859219e-18
5.099293808494425028e-18
5.499632977877608926e-18
5.765925848816083149e-18
5.838897259293524859e-18
5.653741682302361677e-18
5.168661574776139463e-18
4.468239065732968979e-18
3.683180301410253731e-18
3.029685653052189260e-18
2.599991979811528807e-18
2.204934390694687852e-18
1.624486243708965123e-18
1.154829486592171708e-18
9.329139005974228277e-19
6.233461571619167914e-19
4.702382528767428941e-19
3.240120881795984330e-19
2.251723610828199685e-19
1.580127710073270823e-19
1.110723042455372672e-19
7.881001950981292471e-20
5.668116464328761461e-20
4.158144461427541940e-20
3.108792458798163255e-20
2.363707896323926095e-20
1.819897871209552785e-20
1.409288394964309166e-20
1.089666635943893103e-20
8.353999474026594821e-21
