# bin_9_3
5.499618610494456444e-19
6.141522043139686435e-19
6.727250019385597276e-19
7.193065990946622523e-19
7.459192573039442485e-19
7.459302491752875031e-19
7.093691923083851068e-19
6.369342065251394162e-19
5.406528302796342984e-19
4.428552359395826718e-19
3.684092006188318617e-19
3.186303132675324503e-19
2.612561885713209393e-19
1.844567469046496418e-19
1.388292267590211507e-19
1.069474125015625227e-19
7.319665839007280086e-20
5.316927865645847252e-20
3.785945524136586714e-20
2.646482784616750157e-20
1.861856268373459785e-20
1.322988733058341540e-20
9.535024668317373040e-21
6.989328354471958916e-21
5.224536243764515036e-21
3.972287503215248252e-21
3.060478373242864890e-21
2.375017733868046378e-21
1.843020132998158261e-21
1.420111057572161117e-21
1.079919834384128007e-21
