# bin_13_10
2.854412438512265854e-12
3.255081720116344330e-12
3.659009895037083254e-12
4.038863770882400506e-12
4.358546034083023899e-12
4.571829016311992134e-12
4.631432944569160504e-12
4.485627056728405500e-12
4.100548918085834061e-12
3.544459635322424639e-12
2.921006150610469076e-12
2.403055386451608173e-12
2.064096548146549657e-12
1.750904725933359869e-12
1.286531014382331223e-12
9.130819733932017732e-13
7.385151334126514775e-13
4.880520407150292919e-13
3.672389731430068608e-13
2.499495382059565928e-13
1.700886028257336998e-13
1.164540909914291844e-13
7.917785154176538419e-14
5.388953609729940366e-14
3.687717904709862441e-14
2.560982649592463462e-14
1.809519959134409705e-14
1.305400402991820496e-14
9.626263053733908811e-15
7.238766837252585671e-15
5.521619309510164023e-15
