# bin_1_1
3.670658870602643625e-10
3.627463826997677660e-10
3.411561327254852745e-10
3.037325440884701356e-10
2.570058417820510822e-10
2.116751178136259964e-10
1.769867602112068868e-10
1.506305189184621672e-10
1.208636055130230157e-10
8.826938493047546600e-11
6.665819899473210661e-11
5.061550840949870295e-11
3.654117597628067764e-11
2.704736320852196304e-11
1.987208107833205324e-11
1.478701774372704073e-11
1.117753884430317137e-11
8.603136644836876869e-12
6.737815008847805350e-12
5.348687282073252462e-12
4.278355930850565702e-12
3.422574009579450147e-12
2.718416535926465451e-12
2.129481120743459605e-12
1.635778847173134355e-12
1.226694498974456053e-12
8.956586885492280109e-13
6.361987255384701696e-13
4.401339506141624418e-13
2.972972062626463195e-13
1.966961400202286385e-13
