# bin_15_9
2.321865897491484590e-15
2.652755940719980805e-15
2.989115501830891697e-15
3.309009291722875996e-15
3.583717120785273471e-15
3.775981286587831103e-15
3.844504649312648142e-15
3.751550767289875312e-15
3.457738312753816749e-15
3.013440832432978537e-15
2.494182462916388971e-15
2.045403258191810771e-15
1.746871777872749596e-15
1.496857977494133044e-15
1.125523990444527722e-15
7.849575521580453499e-16
6.374144570655461213e-16
4.268766459380590646e-16
3.205179072512564403e-16
2.153552725494070005e-16
1.474239785884781519e-16
1.008991476142343470e-16
6.848644619597358245e-17
4.633234592217323590e-17
3.141472788418305793e-17
2.156530904307835107e-17
1.503552603112332012e-17
1.069124657227588776e-17
7.775234551255398530e-18
5.778554454445280375e-18
4.371672138586078692e-18
