# bin_7_9
-1.340335995541090012e-12
-1.508040189386618043e-12
-1.667007821359169117e-12
-1.802730752727603596e-12
-1.896471307030526538e-12
-1.927916660808883986e-12
-1.877622026005371986e-12
-1.727463293874881326e-12
-1.502827301300031489e-12
-1.242863968776470876e-12
-1.019532481331972081e-12
-8.707375018944591365e-13
-7.441876524856224463e-13
-5.584421947860415418e-13
-3.915738459227315599e-13
-3.169459103327064103e-13
-2.141575061508525461e-13
-1.608758152124793638e-13
-1.098037941856913268e-13
-7.663517193338383982e-14
-5.366428540415765690e-14
-3.759274317311339791e-14
-2.653043674554223561e-14
-1.895083556637841858e-14
-1.380048897956450828e-14
-1.024602966222933416e-14
-7.743720896840846535e-15
-5.937025941206321460e-15
-4.587965534070097369e-15
-3.547912041192102270e-15
-2.725792508618026140e-15
