# bin_12_2
-2.227868825191169834e-09
-2.308705596194021880e-09
-2.307181843882193757e-09
-2.200105014091541436e-09
-1.986469203241763234e-09
-1.701027275270577838e-09
-1.405443786806358418e-09
-1.167094996619473196e-09
-9.932385345772521459e-10
-8.153322552177765250e-10
-6.053038340860251774e-10
-4.478403406098840822e-10
-3.440824751164066232e-10
-2.475257093453500723e-10
-1.820953787598611428e-10
-1.322110922873940667e-10
-9.703789685249643203e-11
-7.199077795372866520e-11
-5.426928561888119070e-11
-4.164030037162533010e-11
-3.246374230607191492e-11
-2.561723190505921048e-11
-2.032672156091821392e-11
-1.610301472354661374e-11
-1.264935508842663386e-11
-9.790490441858776608e-12
-7.427123730727006066e-12
-5.500673327204945775e-12
-3.967894151732318496e-12
-2.786559871942767236e-12
-1.907597169297663694e-12
