# bin_4_9
-9.085570755540800733e-18
-1.016692863670380798e-17
-1.116478677233707957e-17
-1.197572573821806145e-17
-1.246933343090938811e-17
-1.252882176113771497e-17
-1.199523157908052312e-17
-1.084056335768807139e-17
-9.262302698453787176e-18
-7.598553720991836930e-18
-6.288893071812171459e-18
-5.427146800022713175e-18
-4.514287413797759090e-18
-3.232388184974096389e-18
-2.376097758468901331e-18
-1.872838206900383349e-18
-1.261340363586519792e-18
-9.342988185226003845e-19
-6.571400117873335327e-19
-4.575678326879208417e-19
-3.214308789502864910e-19
-2.272790873596758852e-19
-1.628118706995741437e-19
-1.184910109663075977e-19
-8.796631663137536145e-20
-6.648315152194871361e-20
-5.099114795333115640e-20
-3.947235408606579847e-20
-3.061951744527961340e-20
-2.363169940666681492e-20
-1.802931128359583744e-20
