# bin_9_14
-1.600341848943930558e-15
-1.824877649217692767e-15
-2.051213664381296576e-15
-2.264022212935427605e-15
-2.443086185438557677e-15
-2.562522900933653904e-15
-2.595815209498337040e-15
-2.514154670729455722e-15
-2.298344189059156586e-15
-1.986645000374881849e-15
-1.636917369381351082e-15
-1.346106097824449230e-15
-1.155784557720539068e-15
-9.806764808028233835e-16
-7.210460062604893663e-16
-5.112107543390032320e-16
-4.135327327720465102e-16
-2.733382199521345288e-16
-2.056528903753737881e-16
-1.398683887946147553e-16
-9.517952929110109175e-17
-6.516425420740110782e-17
-4.430159408672542187e-17
-3.014403149878206812e-17
-2.061988037447716482e-17
-1.431353510769950934e-17
-1.010887450341775790e-17
-7.289068136356395703e-18
-5.372680310291986416e-18
-4.038640251264997994e-18
-3.079814689734667327e-18
