# bin_1_13
-2.326020372286202787e-39
-2.634784018112660135e-39
-2.936450994257686584e-39
-3.207599890424101980e-39
-3.416925015803684296e-39
-3.525716978787370533e-39
-3.504196951610666288e-39
-3.304000651306675678e-39
-2.942233584456340878e-39
-2.476964848924324592e-39
-2.025810633597479927e-39
-1.696859696631180143e-39
-1.469396875648692339e-39
-1.179828157030733639e-39
-8.200255630007831876e-40
-6.348360779265963725e-40
-4.705176246804564313e-40
-3.288412167701730664e-40
-2.293681451954355630e-40
-1.630077744081122313e-40
-1.122100447615399202e-40
-7.702863392166660383e-41
-5.326894703948638597e-41
-3.715731285637854934e-41
-2.629150393669644055e-41
-1.895954732609714438e-41
-1.394419979291081255e-41
-1.045895309190731732e-41
-7.969300334796208438e-42
-6.131378662840696147e-42
-4.728003227819226687e-42
