# bin_13_11
-8.205003033560908986e-11
-9.331160885734274196e-11
-1.045219303721980664e-10
-1.148809126262979572e-10
-1.233226789365432747e-10
-1.285007158850295676e-10
-1.292019459159107860e-10
-1.237815669490751081e-10
-1.119219525755696302e-10
-9.566716906312423828e-11
-7.849631324941181949e-11
-6.497394063771622057e-11
-5.609943954687435594e-11
-4.668762739430408879e-11
-3.338496527588084049e-11
-2.449926785382970896e-11
-1.928419170324518122e-11
-1.288209137847987258e-11
-9.474551098173833283e-12
-6.575354623080567871e-12
-4.485076613914160347e-12
-3.067023010860272878e-12
-2.094836653533616292e-12
-1.439157488389742268e-12
-9.980337427166455080e-13
-7.039647972081467935e-13
-5.060089169496930587e-13
-3.714602063204840099e-13
-2.781929763431554716e-13
-2.116570574046885194e-13
-1.625282645981456148e-13
