# bin_4_2
-1.116889287481890367e-09
-1.152875356954364684e-09
-1.146489627682270988e-09
-1.086413937437823717e-09
-9.744425707826481758e-10
-8.295048035868711951e-10
-6.839116811211229726e-10
-5.696394604577522209e-10
-4.852427276585135227e-10
-3.942815466269993452e-10
-2.897988530034313008e-10
-2.163458516579072998e-10
-1.653614754812573670e-10
-1.187339695631893550e-10
-8.747861158099528420e-11
-6.360338164697436486e-11
-4.677156658047889626e-11
-3.481776790444144591e-11
-2.634949994553315232e-11
-2.029655911610483937e-11
-1.587814298276387455e-11
-1.256071410359198177e-11
-9.979136946889728279e-12
-7.905480977362023643e-12
-6.202343951288305797e-12
-4.789397732701491820e-12
-3.621500226550839648e-12
-2.671669639457894361e-12
-1.918964725311042564e-12
-1.341886181389332139e-12
-9.149670868626585728e-13
