# bin_5_2
-1.409938406654835635e-09
-1.457736498100758876e-09
-1.452609688939725553e-09
-1.380108053061080397e-09
-1.241292061219889816e-09
-1.059275910133482617e-09
-8.741191565284279773e-10
-7.271389128722499888e-10
-6.191692060107646827e-10
-5.052787910817846580e-10
-3.729473632690903820e-10
-2.773508023621909718e-10
-2.124684669905393976e-10
-1.526718634333199313e-10
-1.124144982337871952e-10
-8.168329773070496675e-11
-6.001920449977447003e-11
-4.461524598028694089e-11
-3.370873638205853001e-11
-2.592296005844565670e-11
-2.025063555727154573e-11
-1.600308619239164851e-11
-1.270743409872383404e-11
-1.006693851649633276e-11
-7.902235616838976663e-12
-6.108006208909875569e-12
-4.624855406877377437e-12
-3.417484915501840970e-12
-2.459079726370919288e-12
-1.722676293148706305e-12
-1.176579559673291981e-12
