# bin_15_2
-2.357119206799645469e-09
-2.443176910416682640e-09
-2.442222721979341864e-09
-2.329682373588352691e-09
-2.104223551431123265e-09
-1.802438106499102700e-09
-1.489404820065693456e-09
-1.236617880113799665e-09
-1.052349969627874667e-09
-8.643276354313192303e-10
-6.420212049638290599e-10
-4.747817795620672749e-10
-3.648803905681121070e-10
-2.625148498172638101e-10
-1.931064701165693006e-10
-1.401956786855030211e-10
-1.028877073401843930e-10
-7.631673694516962031e-11
-5.751831622006780500e-11
-4.412399182954434119e-11
-3.439368491985102418e-11
-2.713647967678515322e-11
-2.153073695597259567e-11
-1.705684759612877514e-11
-1.339950442208826056e-11
-1.037240409408711472e-11
-7.869944021534685342e-12
-5.829863261362142613e-12
-4.206320409075990089e-12
-2.954677293326607059e-12
-2.023114437722593562e-12
