# bin_12_1
-3.483689900963121916e-09
-3.414488493628282957e-09
-3.188328999585645774e-09
-2.825332503435021943e-09
-2.392091277954570190e-09
-1.981267409512691735e-09
-1.656704623958017026e-09
-1.389899431825910080e-09
-1.106409312638506116e-09
-8.230636236621580577e-10
-6.171007114273820667e-10
-4.656282416350700201e-10
-3.397185088882325217e-10
-2.504913475494481186e-10
-1.846432808481257837e-10
-1.377831404950645639e-10
-1.043638357830160301e-10
-8.045847191216847230e-11
-6.306429895489654893e-11
-5.005182131637589393e-11
-3.998347219200941744e-11
-3.191675093921111380e-11
-2.527873657577397996e-11
-1.973886816689985126e-11
-1.511407914104240063e-11
-1.130259156111997547e-11
-8.235221762132947822e-12
-5.842298936043393555e-12
-4.039636814280113397e-12
-2.728562963335208396e-12
-1.805688510098451438e-12
