# bin_3_13
-8.610425013303760439e-30
-9.758193042097038613e-30
-1.088206681291975591e-29
-1.189576336116867114e-29
-1.268382076261098161e-29
-1.310284321579326146e-29
-1.304164490779387571e-29
-1.231964892917887732e-29
-1.098990377443363968e-29
-9.267015192463019977e-30
-7.580064986288168560e-30
-6.339630142357535134e-30
-5.490663841051393067e-30
-4.429904076928191273e-30
-3.084387033837761145e-30
-2.374122050208643869e-30
-1.773823877549068411e-30
-1.231137858336856091e-30
-8.637593361451894447e-31
-6.132896856832527717e-31
-4.216035856805326036e-31
-2.890398939844984653e-31
-1.995552692488376946e-31
-1.389512793780869423e-31
-9.809235304033289846e-32
-7.056440149607863739e-32
-5.177188213967068250e-32
-3.874857801133724112e-32
-2.947821065592872687e-32
-2.266048513629199537e-32
-1.747247664102434015e-32
