# bin_15_8
-3.429613022848294717e-10
-3.861338020884501640e-10
-4.271870958477415667e-10
-4.624368774368046987e-10
-4.871050763444955086e-10
-4.959462045480070879e-10
-4.840560053062132359e-10
-4.465752671577732882e-10
-3.895401023349780599e-10
-3.228602218090062156e-10
-2.647859637188963115e-10
-2.255916614791823836e-10
-1.930286237452979952e-10
-1.460955906315003551e-10
-1.023773296747067226e-10
-8.230025521028973403e-11
-5.639240927826204573e-11
-4.189096956727417037e-11
-2.864843779592804086e-11
-2.007939221738369311e-11
-1.402486635258190222e-11
-9.797423176243661896e-12
-6.898105201369979149e-12
-4.913856263212125857e-12
-3.566571070134852846e-12
-2.639282563976497101e-12
-1.988697471664060919e-12
-1.521048503816335898e-12
-1.173598040238129028e-12
-9.070073217985923801e-13
-6.970655020577130557e-13
