# bin_15_3
-1.603019123613634584e-09
-1.712303099911512692e-09
-1.775338028679162863e-09
-1.774914051400853191e-09
-1.691293781085927406e-09
-1.524060073682935971e-09
-1.300805665768130052e-09
-1.070756592980104728e-09
-8.893063303796158183e-10
-7.614229300217540915e-10
-6.252079895573199180e-10
-4.563688395277098030e-10
-3.387271491527917929e-10
-2.613730441724207038e-10
-1.847436147117122790e-10
-1.361007321106805236e-10
-9.781715587439014659e-11
-7.092945061626765098e-11
-5.196113913145867627e-11
-3.860992958971342204e-11
-2.918815297536460155e-11
-2.244071885992907406e-11
-1.750626166116375709e-11
-1.377480972247651731e-11
-1.085899476828624095e-11
-8.517684119024562033e-12
-6.603798792474805870e-12
-5.032137310132916115e-12
-3.751677453286964295e-12
-2.727806728679408410e-12
-1.931498595349410861e-12
