# bin_12_3
-1.479461755934961252e-09
-1.580033419379010602e-09
-1.637829186285216272e-09
-1.636983604622123525e-09
-1.559289268299978565e-09
-1.404578896573604060e-09
-1.198412186704687632e-09
-9.863614225982895009e-10
-8.193823713286150474e-10
-7.016060082040425453e-10
-5.757109397651880535e-10
-4.199803163542345478e-10
-3.119520607945343976e-10
-2.405751774431622320e-10
-1.700634467694010815e-10
-1.252706082886026561e-10
-9.005269990586445176e-11
-6.530422125919485781e-11
-4.784900574541464491e-11
-3.556274654930615877e-11
-2.689116926153267325e-11
-2.067962251383861383e-11
-1.613543686513509124e-11
-1.269766815827068824e-11
-1.001027444040868536e-11
-7.851672891464207203e-12
-6.086784450536481743e-12
-4.637386658308971070e-12
-3.456618192025483756e-12
-2.512636033394388610e-12
-1.778665853624237490e-12
