# bin_1_7
-2.630484383575271290e-23
-2.888745244391095462e-23
-3.099776257039190849e-23
-3.230184557418303589e-23
-3.249180207316279717e-23
-3.117224269779954071e-23
-2.824019936472851546e-23
-2.419288746004924156e-23
-1.987274560481802691e-23
-1.642108711933769809e-23
-1.413408906694209870e-23
-1.180094150695039707e-23
-8.540191405566231279e-24
-6.238972847387677099e-24
-4.945137081292675051e-24
-3.365915055140577314e-24
-2.515841436122533980e-24
-1.782152954859820142e-24
-1.264648993410335063e-24
-9.083478519288001393e-25
-6.591781615622370783e-25
-4.858957663101518338e-25
-3.643657312511594017e-25
-2.782683660958428834e-25
-2.154725564962284437e-25
-1.682317800167552620e-25
-1.315686408015079710e-25
-1.023290781155671779e-25
-7.864829230007840763e-26
-5.941295286371299279e-26
-4.392880648504386534e-26
