# bin_2_5
-9.134296343914702531e-15
-9.878092646913033313e-15
-1.039879139026021529e-14
-1.058593036805488472e-14
-1.033520615071771519e-14
-9.545254559021432455e-15
-8.336207149056844553e-15
-6.918878349500605715e-15
-5.672476053914764987e-15
-4.818930032401529635e-15
-4.119892564985307770e-15
-3.144295551390887843e-15
-2.216890808522160079e-15
-1.772123683743394294e-15
-1.246811835499752164e-15
-9.269746810062115092e-16
-6.534656092235073964e-16
-4.730734155076234039e-16
-3.430073579852404310e-16
-2.512292568268021544e-16
-1.870015141481562724e-16
-1.415778971539130972e-16
-1.090760011203087967e-16
-8.513545910367960481e-17
-6.690297895180403617e-17
-5.258147757043047038e-17
-4.103980461881345741e-17
-3.160921157910240739e-17
-2.389653640632106403e-17
-1.765778879028945049e-17
-1.271693422123568425e-17
