# bin_11_5
-6.601573110732296567e-10
-7.272904670009596019e-10
-7.835259429254756005e-10
-8.206209309865272506e-10
-8.302710878362794248e-10
-8.033843230736302577e-10
-7.347622995477610891e-10
-6.355335166584605463e-10
-5.248483151743341485e-10
-4.321227545938918755e-10
-3.695278504751272210e-10
-3.120764864656934539e-10
-2.320215989837940998e-10
-1.662613991527393292e-10
-1.321803388489835981e-10
-9.127355871833876335e-11
-6.783086063739534831e-11
-4.759242076271305244e-11
-3.389597595472714900e-11
-2.425322514855800051e-11
-1.749563004838019969e-11
-1.280337840976369159e-11
-9.524700669177687292e-12
-7.219138222504411096e-12
-5.555906489081726743e-12
-4.319594606367666652e-12
-3.371854314619714218e-12
-2.623705644005110947e-12
-2.021719332023664905e-12
-1.533933419522905834e-12
-1.140854091084455784e-12
