# bin_15_9
1.104101899691836602e-16
1.257391170504743522e-16
1.410961884977106084e-16
1.554147432283021036e-16
1.672776843047971493e-16
1.748848250149622389e-16
1.765092759719506551e-16
1.700027751831102649e-16
1.545008361758983196e-16
1.327532549232967549e-16
1.091056478291272223e-16
9.002300511935127297e-17
7.761340011203896564e-17
6.525410948160449330e-17
4.716290391009321292e-17
3.404241316428136338e-17
2.726716312203332497e-17
1.800351314562177211e-17
1.346119760156365767e-17
9.259100130115998355e-18
6.298949786763170393e-18
4.308672000350110793e-18
2.932657130969069862e-18
2.005492526396630612e-18
1.382152367239445832e-18
9.680019342325736533e-19
6.904727459180313682e-19
5.030551237118771881e-19
3.743403395681471828e-19
2.835405887710675573e-19
2.172810497579162280e-19
