# bin_7_12
9.701364471779787806e-08
1.087265467263395127e-07
1.196197859995436607e-07
1.286016394587351405e-07
1.342876336602894032e-07
1.353706796681461287e-07
1.302068014387695140e-07
1.182185327040601825e-07
1.014857471147018881e-07
8.340668577373623084e-08
6.885787809316968125e-08
5.932233168260966080e-08
4.975917771105343038e-08
3.600499509917890800e-08
2.610271708728354369e-08
2.082594561562407183e-08
1.393653191300152296e-08
1.042770949060867028e-08
7.275895955948007653e-09
5.057772139599759581e-09
3.551604706787678120e-09
2.504809400949982164e-09
1.787580778801484884e-09
1.295020445403318955e-09
9.570733782885732870e-10
7.204199486195038668e-10
5.508077564686527786e-10
4.255979985006447103e-10
3.300065299173493344e-10
2.549321032502733150e-10
1.948975528188930407e-10
