# bin_5_5
1.383454133605736422e-08
1.520533895155383315e-08
1.633240684914743992e-08
1.704037515760587812e-08
1.716478941995117704e-08
1.649772559524946049e-08
1.497071966513224988e-08
1.284606648481521988e-08
1.055633200104848979e-08
8.714366695806103873e-09
7.502035686177937439e-09
6.287109565741827403e-09
4.558157846504474568e-09
3.313462460358360749e-09
2.644352733975627136e-09
1.788725823301115363e-09
1.345380542563713430e-09
9.510696317096544343e-10
6.738143650199575710e-10
4.838655496020374444e-10
3.508129148306514787e-10
2.583394945271927472e-10
1.935267030709913732e-10
1.476767529158319757e-10
1.142880889645773884e-10
8.921207826460880193e-11
6.978040194565449523e-11
5.429830428651611857e-11
4.176394151053690807e-11
3.157986752671423105e-11
2.337562751447951914e-11
