# bin_10_6
3.313026614849460179e-17
3.736544445474443094e-17
4.142310990233918408e-17
4.495332038558337341e-17
4.749737009516654685e-17
4.852168904168442754e-17
4.759274319234366203e-17
4.413287855099158301e-17
3.869302273887240490e-17
3.214553337812677131e-17
2.631193739381986024e-17
2.235471076560848576e-17
1.926479827961648444e-17
1.476080552873364726e-17
1.021860618104951331e-17
8.266827188251372591e-18
5.679481052535569918e-18
4.235301345210611574e-18
2.858519544956640992e-18
2.009953019091937981e-18
1.403492887305073116e-18
9.795874190503792616e-19
6.873026887192056485e-19
4.872124650929794378e-19
3.518174799684056396e-19
2.590685697661955543e-19
1.943919075978498709e-19
1.482667072761776824e-19
1.142741013317485387e-19
8.837323195514107081e-20
6.806412686755566749e-20
