# bin_8_10
4.245561564563511402e-08
4.782309386108805348e-08
5.293750366299325915e-08
5.734411941559904033e-08
6.045176729121903894e-08
6.159804872613010687e-08
6.019253407599986452e-08
5.558314437839448100e-08
4.853247647996689864e-08
4.022424055995239210e-08
3.296611255092614533e-08
2.809380828900948289e-08
2.410756779181005605e-08
1.826195883617558119e-08
1.272664422003316910e-08
1.030949236370283462e-08
7.009756393815859278e-09
5.254334661602105814e-09
3.569277097603918957e-09
2.497790952151439913e-09
1.747253985475600737e-09
1.222002823430631986e-09
8.601277200164028710e-10
6.122845252522639005e-10
4.442016822064788631e-10
3.285916157356992008e-10
2.475556283214096145e-10
1.893718484910998648e-10
1.461802774131325954e-10
1.130534911437880229e-10
8.695900864027974638e-11
