# bin_10_4
1.349810910376235585e-28
1.517010128709254952e-28
1.674674621523077540e-28
1.807986730746342452e-28
1.897952528171923489e-28
1.924688860032697619e-28
1.867517627215428307e-28
1.710646618244402189e-28
1.481800686741062744e-28
1.222175858681418051e-28
1.003974881085893038e-28
8.608093307409919338e-29
7.328682142645826066e-29
5.424397139285690042e-29
3.827260012456937416e-29
3.113644293173026652e-29
2.069541886320696503e-29
1.571454969801180829e-29
1.078314037447638171e-29
7.476450668495193317e-30
5.250119306662028499e-30
3.688700519390768383e-30
2.613038878926147798e-30
1.875416863196464314e-30
1.373039217488704930e-30
1.024661956766286729e-30
7.779577293833679949e-31
5.984803628788611131e-31
4.633799138721666408e-31
3.584646574315409424e-31
2.751003287115472471e-31
