# bin_12_11
2.518472185109120843e-09
2.867258081249396769e-09
3.216185879675318049e-09
3.540875451153894699e-09
3.808909717012735886e-09
3.979136590281882764e-09
4.012661886966744430e-09
3.860237498782911189e-09
3.504579491291838064e-09
3.008063682426796033e-09
2.471818792368738429e-09
2.041286132448775576e-09
1.760229637739175674e-09
1.476232522782188733e-09
1.064999322714556562e-09
7.718413321449472857e-10
6.150793726747562315e-10
4.079031259051731162e-10
3.034054930729398995e-10
2.091287480579279304e-10
1.424201983766736061e-10
9.741396028191445001e-11
6.638124620137418926e-11
4.544490941288662468e-11
3.136403404945755320e-11
2.200065466774777702e-11
1.571949720221908225e-11
1.147140841577319910e-11
8.547646690391869810e-12
6.479846887775567387e-12
4.966929268613279225e-12
