# bin_1_10
7.393471717464225537e-07
7.267739516797074394e-07
6.796483420551801156e-07
6.019445285641982332e-07
5.078650707573362520e-07
4.188913922748847250e-07
3.511490536402506289e-07
2.972647626095194219e-07
2.361136332026308857e-07
1.732061402411375226e-07
1.309088933070381740e-07
9.885019571978134234e-08
7.162401934299197237e-08
5.301495132822687793e-08
3.898644764159895890e-08
2.908346217554258691e-08
2.204294869988289053e-08
1.700994173116109910e-08
1.335048411641688080e-08
1.061313655285875952e-08
8.493441183417586729e-09
6.791466947887142672e-09
5.387124748102550833e-09
4.211415916397569230e-09
3.226725420948515963e-09
2.412897616276606488e-09
1.756734701081352578e-09
1.244559755901853863e-09
8.590471721502207991e-10
5.791635715489984477e-10
3.825993694665753539e-10
