# bin_5_1
1.342524088095583622e-23
1.443374993916753979e-23
1.508256212491913087e-23
1.522278417570196256e-23
1.467748865184984682e-23
1.336282978383973347e-23
1.150594203724411308e-23
9.466042277952995864e-24
7.794829718313544629e-24
6.695124913274024754e-24
5.646556079392785286e-24
4.136945924213674584e-24
2.979217693892964497e-24
2.401709018978338820e-24
1.631244868033231173e-24
1.241304217664305006e-24
8.815210468631802730e-25
6.333148133180019941e-25
4.626035062395771495e-25
3.418863870154219432e-25
2.569795718445666619e-25
1.965057342649949152e-25
1.527485525266338614e-25
1.199939042193696125e-25
9.463677964377289446e-26
7.441797085451720296e-26
5.794039212873778870e-26
4.439977261350698031e-26
3.331936173655173653e-26
2.439211170987904550e-26
1.738230091754756530e-26
