# bin_2_9
4.521960185905417827e-07
4.695332485346992088e-07
4.704146632953642160e-07
4.495819170337721022e-07
4.064015407387419165e-07
3.478701319445819230e-07
2.865792434839910488e-07
2.375727117899658922e-07
2.033187966947343820e-07
1.679683755318849386e-07
1.233374473372877468e-07
9.111340680411064492e-08
7.082644984070368141e-08
5.025779667771617665e-08
3.728096473036410799e-08
2.696842295188626165e-08
1.977757679476991325e-08
1.467495025382098439e-08
1.106255363491662824e-08
8.490611677961557666e-09
6.622950959673110528e-09
5.231006605168603589e-09
4.155236065112647484e-09
3.295837335070070762e-09
2.592246821836013311e-09
2.008735483286201589e-09
1.525283616611630320e-09
1.130280953752297684e-09
8.153408631907745641e-10
5.723209226406696825e-10
3.914626878162385816e-10
