# bin_1_3
-5.846332862364098049e-13
-6.078601467946484516e-13
-6.100358088363046824e-13
-5.841817483492041145e-13
-5.289655103343906201e-13
-4.533616063056780977e-13
-3.733427602354807210e-13
-3.090179785657939906e-13
-2.647267868165770441e-13
-2.197527208199815438e-13
-1.612314525396518458e-13
-1.186015458882464365e-13
-9.288339156323167215e-14
-6.544092859535129951e-14
-4.877364114200358133e-14
-3.524318583260991064e-14
-2.580204557203771969e-14
-1.913175379584943618e-14
-1.441030042784215284e-14
-1.105137679258153855e-14
-8.614861501353844124e-15
-6.802098519268712630e-15
-5.403193534773761298e-15
-4.286993474598607097e-15
-3.373799516724389793e-15
-2.616481695419552477e-15
-1.988672849046857143e-15
-1.475146831053403534e-15
-1.065100897529822421e-15
-7.482204011181923715e-16
-5.120841910447110438e-16
