# bin_1_5
-1.270645493379502548e-17
-1.368192126684755637e-17
-1.432489989518370634e-17
-1.449087795337224267e-17
-1.402065025572207622e-17
-1.282102000179746200e-17
-1.108868768363271410e-17
-9.153612299110220720e-18
-7.532701225936193817e-18
-6.443327593946159999e-18
-5.448148769946994335e-18
-4.051210835638378000e-18
-2.903930984068205886e-18
-2.322457280937376959e-18
-1.606822297689083331e-18
-1.206666826260843432e-18
-8.550029052806116202e-19
-6.171980638351678434e-19
-4.496724350983744847e-19
-3.314233949997579976e-19
-2.483613825381352976e-19
-1.893208730391354372e-19
-1.467388327532496974e-19
-1.150248351074631325e-19
-9.059971220522126891e-20
-7.121688828100187430e-20
-5.547890622098897781e-20
-4.257226120641885851e-20
-3.201629593938925513e-20
-2.350478262212552259e-20
-1.680630520544466887e-20
