# bin_3_10
-6.198081428379031586e-23
-6.956870954321369544e-23
-7.667896469533006619e-23
-8.262353251991865754e-23
-8.652455267180707040e-23
-8.750616137575858456e-23
-8.457016068763381692e-23
-7.716218793848167026e-23
-6.657291047406501846e-23
-5.482882849940837348e-23
-4.514617686281655056e-23
-3.878746568899441280e-23
-3.279354987669137273e-23
-2.403658947769440753e-23
-1.718099966782837217e-23
-1.383356862650276907e-23
-9.244668094240405246e-24
-6.959533536003435979e-24
-4.812441770338092602e-24
-3.344486973933627390e-24
-2.347357667574095028e-24
-1.651477332972575164e-24
-1.173700165277924652e-24
-8.458864945976159294e-25
-6.218595156342460806e-25
-4.658384838330498552e-25
-3.547637545049297306e-25
-2.734306888929058155e-25
-2.118230215347868468e-25
-1.637422396230282838e-25
-1.254338269502007721e-25
