# bin_4_3
-4.168417519755765184e-10
-4.438605627205291214e-10
-4.583788758262150615e-10
-4.560386299286020673e-10
-4.316479651614665200e-10
-3.862528363533731535e-10
-3.274888169999146521e-10
-2.689695311295184122e-10
-2.243370212138055381e-10
-1.925256514206738770e-10
-1.561196689578693738e-10
-1.123940016338093617e-10
-8.478194908750347969e-11
-6.470483614181320786e-11
-4.581190891988402747e-11
-3.366914424827439187e-11
-2.432124318533931265e-11
-1.765631012536937693e-11
-1.298083075466075054e-11
-9.690536951566081385e-12
-7.361681789741355338e-12
-5.686727087137565522e-12
-4.453136571591382756e-12
-3.512538191451607444e-12
-2.771759912149900900e-12
-2.173044472367146670e-12
-1.681587678618965846e-12
-1.277397462563888533e-12
-9.484208601321944917e-13
-6.862139877159864716e-13
-4.833370974639225852e-13
