# bin_8_7
-1.111365804945974803e-10
-1.242727510941832685e-10
-1.363463568135796335e-10
-1.460837206934617514e-10
-1.518849768208369384e-10
-1.523430332673685816e-10
-1.455132881837557254e-10
-1.312325508904605311e-10
-1.119087956343314792e-10
-9.181153551777526016e-11
-7.615717988739600583e-11
-6.573518489452774123e-11
-5.436169755610764263e-11
-3.881818054287829119e-11
-2.877105841218914436e-11
-2.245351841504995602e-11
-1.525658389402061491e-11
-1.120957016875198572e-11
-7.907625662986166339e-12
-5.517487454377293886e-12
-3.880201915688991549e-12
-2.749301024735419934e-12
-1.973604093305853420e-12
-1.439821873869451191e-12
-1.071313858319415062e-12
-8.112195840567150095e-13
-6.230297183923945954e-13
-4.825849656724137346e-13
-3.743051126539811587e-13
-2.886560859775380016e-13
-2.199368240408283973e-13
