# bin_2_1
-1.196043442416035087e-09
-1.164496697637239068e-09
-1.078256607094215167e-09
-9.471162343689697726e-10
-7.961414890185743180e-10
-6.585116842396420288e-10
-5.529651276495043779e-10
-4.632563289413106102e-10
-3.632581285299492340e-10
-2.678115545500887389e-10
-2.027558572465815703e-10
-1.518729719197603508e-10
-1.107302871276943973e-10
-8.179690744244901838e-11
-6.043581994399712367e-11
-4.526040643900731348e-11
-3.445200185930107576e-11
-2.669898144922847700e-11
-2.102617918824443096e-11
-1.674942270159056480e-11
-1.340935985960887819e-11
-1.070934811703493120e-11
-8.472513628506522303e-12
-6.598393512127587502e-12
-5.032539074389773910e-12
-3.744807713057896939e-12
-2.713321042211950538e-12
-1.913843041857985697e-12
-1.316065255023793350e-12
-8.845565577979016570e-13
-5.829142756313801672e-13
