# bin_8_14
-2.591340849316725588e-17
-2.952765003860970018e-17
-3.315806985318068579e-17
-3.655523951964540929e-17
-3.938861160994893683e-17
-4.123681037402605429e-17
-4.168451806065843396e-17
-4.024270473478276493e-17
-3.666490215812596848e-17
-3.158483695101976863e-17
-2.598981145359695202e-17
-2.141774786711152190e-17
-1.843476926855338595e-17
-1.555732245210251230e-17
-1.132653847432774004e-17
-8.116045403137508107e-18
-6.526501395705621794e-18
-4.312440452094690249e-18
-3.232207370631806083e-18
-2.213116782312010482e-18
-1.505787396518186961e-18
-1.030473714533100023e-18
-7.011627151444268998e-19
-4.785224466640096668e-19
-3.287868159655707472e-19
-2.294373930368064181e-19
-1.629975248368132779e-19
-1.182570663164376278e-19
-8.766110048167521088e-20
-6.619404291119651676e-20
-5.062480428712512299e-20
