# bin_10_4
-8.748807926285727631e-10
-9.529145967699736404e-10
-1.012159106507143333e-09
-1.041632196018823685e-09
-1.031587050558831271e-09
-9.700187429781402332e-10
-8.621396477883473178e-10
-7.261683602132939185e-10
-5.954604443161853453e-10
-4.992331667273048833e-10
-4.292198258361046905e-10
-3.426932205918287602e-10
-2.432484999911519076e-10
-1.869574052662284819e-10
-1.394540221176365367e-10
-9.922801822197331876e-11
-7.164416195944900476e-11
-5.157034881933919554e-11
-3.699107330467648064e-11
-2.681131417893637398e-11
-1.971213557960104183e-11
-1.473701469665601364e-11
-1.121391283402075056e-11
-8.667875087266037951e-12
-6.768521230690802909e-12
-5.306252325339099281e-12
-4.147458050156389102e-12
-3.210291956127930845e-12
-2.446608048581874265e-12
-1.827245081039071470e-12
-1.332696235702255028e-12
