# bin_14_4
-1.104483811206270363e-09
-1.201936240754044496e-09
-1.275263569714382372e-09
-1.310668278802896745e-09
-1.295804638507795956e-09
-1.215909313801321140e-09
-1.078496733520253895e-09
-9.069314755887082106e-10
-7.437179230660122842e-10
-6.244458847695936182e-10
-5.364692435650660684e-10
-4.262373014893919282e-10
-3.023630537143929865e-10
-2.333008739094555552e-10
-1.730375979444887110e-10
-1.236198826533653105e-10
-8.905247697362862309e-11
-6.415735234831527179e-11
-4.606937898104927840e-11
-3.342849186727182980e-11
-2.461135200158940299e-11
-1.842657006895491193e-11
-1.404165700066320907e-11
-1.086600844420290176e-11
-8.491346442267108236e-12
-6.658868425595004362e-12
-5.203810218197480249e-12
-4.025594341604759889e-12
-3.065068404928053172e-12
-2.286315203329772694e-12
-1.665111470447810624e-12
