# bin_3_13
-6.067294666962452078e-30
-6.876100354818139731e-30
-7.667995181144812133e-30
-8.382125356071224798e-30
-8.937005298840503434e-30
-9.231451098646330745e-30
-9.187064876947833083e-30
-8.676518629146731134e-30
-7.738730382347383624e-30
-6.524756507500505856e-30
-5.338438071910631539e-30
-4.467676762075671617e-30
-3.869880774631705923e-30
-3.118875920010944202e-30
-2.170937638396208822e-30
-1.674070532792299212e-30
-1.248222763765035086e-30
-8.681523815075976651e-31
-6.080836925741565212e-31
-4.319792850179310925e-31
-2.971058932690293914e-31
-2.037599022881547834e-31
-1.407457552855576274e-31
-9.804787367289384738e-32
-6.925816053252478196e-32
-4.985216930142372170e-32
-3.659745399215205920e-32
-2.740586646904318371e-32
-2.085749211883979230e-32
-1.603729380737242149e-32
-1.236630024127855230e-32
