# bin_2_3
-1.688780196789794611e-08
-1.785070195145443063e-08
-1.826815801559976536e-08
-1.796672383713982649e-08
-1.675180082126685929e-08
-1.476840738641767560e-08
-1.235558692751044455e-08
-1.012803645345689926e-08
-8.536854914362827344e-09
-7.320537992056676205e-09
-5.738481955438382090e-09
-4.064593969922563928e-09
-3.180904571059586038e-09
-2.328438130666393265e-09
-1.693617048372692007e-09
-1.220984518362569849e-09
-8.919642187856334826e-10
-6.518532545071691013e-10
-4.828210606458349741e-10
-3.638867981627891410e-10
-2.791102655568983367e-10
-2.175537272069148105e-10
-1.714874884907189963e-10
-1.357718057858269990e-10
-1.072152985426058141e-10
-8.386445714170042299e-11
-6.457559014842077043e-11
-4.869618807458244951e-11
-3.582416142335477604e-11
-2.565265745611881091e-11
-1.787724817156040140e-11
