# bin_10_12
-4.366042003108243821e-09
-4.972114839594408695e-09
-5.579248614762461309e-09
-6.145263364675597891e-09
-6.614123824782475369e-09
-6.914606646285728822e-09
-6.978501632826459884e-09
-6.721085703749597593e-09
-6.108715984979118835e-09
-5.249218219073096278e-09
-4.315011078572403541e-09
-3.560799620561952088e-09
-3.069077900180060331e-09
-2.579547547761037867e-09
-1.865837639342952317e-09
-1.347126275138122134e-09
-1.077353453082913383e-09
-7.129414119076656377e-10
-5.320303132982436308e-10
-3.659268674527534091e-10
-2.490655636807604451e-10
-1.703712531799669668e-10
-1.160120197794509512e-10
-7.933196811760444007e-11
-5.466991698960676726e-11
-3.828068683843489375e-11
-2.729928679371289810e-11
-1.988391916995784776e-11
-1.479154643166475078e-11
-1.119984726832223778e-11
-8.579668030884056396e-12
