# bin_10_9
-9.718255197030454710e-09
-1.101790107410977592e-08
-1.229257025605679093e-08
-1.344514712664429770e-08
-1.434550079019675953e-08
-1.483157558959003831e-08
-1.477668059122637615e-08
-1.397588224355561309e-08
-1.248250488496515792e-08
-1.053794309155455860e-08
-8.623135851351055584e-09
-7.208195015663235700e-09
-6.243997138459291349e-09
-5.050845778310826057e-09
-3.521467969647684436e-09
-2.702875993149747643e-09
-2.027899312436752928e-09
-1.402913590098425740e-09
-9.875063668508297255e-10
-7.006964125974543498e-10
-4.814203630033635874e-10
-3.298631250075957408e-10
-2.275452685919044038e-10
-1.582887929535156014e-10
-1.116050090054970262e-10
-8.017346511373558577e-11
-5.874097298456118599e-11
-4.391094645343343486e-11
-3.337525898086982823e-11
-2.564386229078939705e-11
-1.977225991216766762e-11
