# bin_1_10
-1.569463894374353819e-27
-1.757670414629969954e-27
-1.932054896338501045e-27
-2.074847353087180095e-27
-2.163568140116697847e-27
-2.177561681496178287e-27
-2.089728167462403104e-27
-1.893114191689461668e-27
-1.621474740575612579e-27
-1.331655949435765780e-27
-1.100985757184171720e-27
-9.493720347694740397e-28
-7.928965671942403910e-28
-5.707936067429640386e-28
-4.168689966771157789e-28
-3.304334227134822932e-28
-2.219746177822301367e-28
-1.651737546180939950e-28
-1.157294491239696857e-28
-8.053002399228538801e-29
-5.655776811208149339e-29
-3.993980118028017712e-29
-2.855671374342717926e-29
-2.073619345273785830e-29
-1.535923855797848001e-29
-1.158477034190505239e-29
-8.871391310119601613e-30
-6.861131339289891481e-30
-5.321309795421372291e-30
-4.108949128432650331e-30
-3.138214678643281238e-30
