# bin_6_15
-5.077036361335452112e-19
-5.789061445909754453e-19
-6.506519148939328383e-19
-7.180763800893812286e-19
-7.747515545067438753e-19
-8.124501281208893516e-19
-8.228060340868699230e-19
-7.965481928377192025e-19
-7.278396168802046302e-19
-6.288422733630367438e-19
-5.181292912814337280e-19
-4.263561021883609003e-19
-3.663169645108665350e-19
-3.105193321557023025e-19
-2.278814644756862237e-19
-1.619458373314223296e-19
-1.308763028506583872e-19
-8.649250684699990726e-20
-6.504414595539299742e-20
-4.430536422243518003e-20
-3.014895257406127124e-20
-2.063955950413035210e-20
-1.403344214476803922e-20
-9.553852298320087431e-21
-6.541051119171226266e-21
-4.544867873897175229e-21
-3.213231861561675361e-21
-2.319561985803930483e-21
-1.711512483264926033e-21
-1.287644706824733804e-21
-9.824992301571618337e-22
