# bin_11_1
-4.881434286607381133e-30
-5.490755867912060103e-30
-6.067594499402676707e-30
-6.558887295480503538e-30
-6.896204880670779899e-30
-7.006224871379976506e-30
-6.816595563490056782e-30
-6.264520889905562781e-30
-5.444042394840400610e-30
-4.500204891320140170e-30
-3.694331010231281929e-30
-3.158951038853906446e-30
-2.696163340807961768e-30
-2.015684159454132332e-30
-1.417302082831695404e-30
-1.147477738987390846e-30
-7.730459901532492159e-31
-5.817102781301955199e-31
-3.977673049807130924e-31
-2.773012254247553794e-31
-1.942884626966473639e-31
-1.362062187789681229e-31
-9.622494082653091293e-32
-6.882987224066892401e-32
-5.019679894528716203e-32
-3.732027809838163258e-32
-2.824089205087901411e-32
-2.167154381901385644e-32
-1.675541546355386541e-32
-1.295795257539205594e-32
-9.952152291534386947e-33
