# bin_9_2
-2.778488179772628792e-20
-3.099832505994168941e-20
-3.391517241912988963e-20
-3.621114938630969631e-20
-3.748242765187607381e-20
-3.740086471329690858e-20
-3.546267561417350303e-20
-3.175333998961128066e-20
-2.688056824633303281e-20
-2.200826125342168889e-20
-1.834956925134543215e-20
-1.587402378888048228e-20
-1.292719693586619949e-20
-9.088474275159570560e-21
-6.905342744179390288e-21
-5.260498420915517424e-21
-3.633152424558295579e-21
-2.615725285430410834e-21
-1.869167564417658243e-21
-1.309215013940164460e-21
-9.222401878063575075e-22
-6.568439182451012910e-22
-4.745768584808367212e-22
-3.488763926150088396e-22
-2.614840895254392476e-22
-1.992647911905092766e-22
-1.537773302468508103e-22
-1.194307637388143233e-22
-9.267437598137815517e-23
-7.135096217538035611e-23
-5.418129451071977642e-23
