# bin_5_10
-3.009159572403909935e-13
-3.388278379086430704e-13
-3.748898300336509875e-13
-4.058658183944092475e-13
-4.275581964335713774e-13
-4.353232001088641544e-13
-4.248910549291402606e-13
-3.918545113468428472e-13
-3.417185586189594024e-13
-2.830289923521938415e-13
-2.320655936745458413e-13
-1.979420410087409752e-13
-1.696058638007229652e-13
-1.280377368120107102e-13
-8.945073738264210638e-14
-7.243733292393632667e-14
-4.914197323075912942e-14
-3.686336780916824212e-14
-2.509339087006160721e-14
-1.754177788248066031e-14
-1.227503900330479329e-14
-8.589367038894179438e-15
-6.051204808668942490e-15
-4.313022440325678440e-15
-3.133170566911359374e-15
-2.320705752577897817e-15
-1.750378735554749360e-15
-1.340070599731381809e-15
-1.034854403651808352e-15
-8.003334832702866769e-16
-6.153687257550194738e-16
