# bin_3_4
-1.373292745724339115e-08
-1.484635213552648166e-08
-1.562225287222832620e-08
-1.589557322710423223e-08
-1.550705495214341817e-08
-1.431031139868171607e-08
-1.248830044980744199e-08
-1.036265909471659269e-08
-8.501860957188322087e-09
-7.228775486157517237e-09
-6.172903833295674043e-09
-4.699656455251964498e-09
-3.320928211829019291e-09
-2.653911280625526701e-09
-1.865066440166153200e-09
-1.387608607439486754e-09
-9.790828096216674406e-10
-7.086383638324033406e-10
-5.140492760502555845e-10
-3.767463314321355401e-10
-2.806255950622394616e-10
-2.126219301350490491e-10
-1.639189347219360253e-10
-1.280054514852084278e-10
-1.006250142902456536e-10
-7.909483923227932451e-11
-6.172934228696372533e-11
-4.753348096287698966e-11
-3.592192212710730167e-11
-2.653083606851055143e-11
-1.909685809773092361e-11
