# bin_15_10
-3.047919488038068941e-11
-3.485072382143873033e-11
-3.930921854202198593e-11
-4.356887211977064044e-11
-4.725638594241375498e-11
-4.988455790497876541e-11
-5.089801441193476630e-11
-4.982123795580355844e-11
-4.608267581920397786e-11
-4.030094479664988790e-11
-3.342854405673235754e-11
-2.738749717411916146e-11
-2.332694241874071799e-11
-2.005392699493919899e-11
-1.523132532750074189e-11
-1.057134221388946727e-11
-8.564107455986941109e-12
-5.798938596521281358e-12
-4.327921191768482464e-12
-2.896707271471983129e-12
-1.993684730403354135e-12
-1.362715628130747728e-12
-9.234482233821165648e-13
-6.231658562540036171e-13
-4.209717232407473949e-13
-2.875447159862416486e-13
-1.993003990932477302e-13
-1.407862770545040599e-13
-1.017127864553345722e-13
-7.514838364646193942e-14
-5.659854385099650346e-14
