# bin_15_4
-1.455507388069473979e-25
-1.658057361910181136e-25
-1.861252612793181196e-25
-2.051059558732803068e-25
-2.208858326840418669e-25
-2.310943916392798174e-25
-2.334276006593698379e-25
-2.251000862160177310e-25
-2.048558262116689838e-25
-1.762663074019221048e-25
-1.449758533345966202e-25
-1.195503311400524963e-25
-1.029640664145980223e-25
-8.672592460881054946e-26
-6.295163446761045864e-26
-4.526986341050277126e-26
-3.630552045419050031e-26
-2.401024635965157417e-26
-1.795644185059395253e-26
-1.232060211767715779e-26
-8.384647656507507885e-27
-5.736614363424686292e-27
-3.904671168897877074e-27
-2.667152123781677915e-27
-1.835054815277031508e-27
-1.282504027456067869e-27
-9.126819067507226473e-28
-6.633382535729522563e-28
-4.924983182373129680e-28
-3.723486302986863175e-28
-2.849785361822770329e-28
