# bin_9_8
-9.799557236199656534e-09
-1.106697751494416114e-08
-1.228860832209708378e-08
-1.336246259964853529e-08
-1.415386097103202501e-08
-1.450295967168186013e-08
-1.428341578399685411e-08
-1.331280835162005055e-08
-1.172812604680048741e-08
-9.782730323576376968e-09
-8.004633370750233599e-09
-6.771393162237194480e-09
-5.846326169580305217e-09
-4.546879497968110818e-09
-3.147054678647053017e-09
-2.514219001159028642e-09
-1.770203807909963535e-09
-1.292786107777603798e-09
-8.788398272708680170e-10
-6.222184702038070213e-10
-4.323428192414654288e-10
-2.999144756645016185e-10
-2.095142862726073370e-10
-1.477942791797564114e-10
-1.060681251169632339e-10
-7.762048201356359676e-11
-5.790459064723182768e-11
-4.395701613989529799e-11
-3.377457582948884188e-11
-2.608768076928900632e-11
-2.010521821498777074e-11
