# bin_5_11
-8.053315853915246475e-15
-9.094579218587829823e-15
-1.009806696724593371e-14
-1.097993541404783141e-14
-1.162948054622099545e-14
-1.191535919518219350e-14
-1.173376034016558893e-14
-1.093492949710060768e-14
-9.632072192075775398e-15
-8.033425569615368849e-15
-6.573265984633067218e-15
-5.561201475626845690e-15
-4.801357889988402137e-15
-3.732694366732129815e-15
-2.583338849311429443e-15
-2.064734730314822025e-15
-1.452711867736636728e-15
-1.061591646911408454e-15
-7.214115742938887641e-16
-5.107058938382943609e-16
-3.549060297837422210e-16
-2.462369682352718459e-16
-1.720369164040599190e-16
-1.213729165521852793e-16
-8.712063404079469716e-17
-6.376559882016164878e-17
-4.757664988995260355e-17
-3.612173049504777998e-17
-2.775694249838988776e-17
-2.144060464785784639e-17
-1.652373854302795722e-17
