# bin_4_9
-7.737081772780478830e-14
-8.664554272297231086e-14
-9.523737229690391936e-14
-1.022699211496244573e-13
-1.066347421393755035e-13
-1.073152549329460717e-13
-1.029718283398961080e-13
-9.326753750217881626e-14
-7.987004331833939401e-14
-6.558641684405388309e-14
-5.422820771014228732e-14
-4.676845436410486585e-14
-3.905377395571065761e-14
-2.809587307113305173e-14
-2.052800768353211294e-14
-1.627220599406193171e-14
-1.092594700617970098e-14
-8.131591547954238911e-15
-5.699559883736450611e-15
-3.965549949028691272e-15
-2.785057713634814629e-15
-1.966801108860939805e-15
-1.406453438110956184e-15
-1.021477016278610535e-15
-7.567562646170228970e-16
-5.708944118013784596e-16
-4.372515991129678334e-16
-3.382108015180371182e-16
-2.623247643550462770e-16
-2.025612541921034648e-16
-1.547001377507736350e-16
