# bin_4_14
-1.317902856493788363e-23
-1.498235768700910153e-23
-1.677389868559026511e-23
-1.842482922175442111e-23
-1.976299174533601823e-23
-2.057116668557466290e-23
-2.065870667639659710e-23
-1.975467529264730600e-23
-1.782823998549724455e-23
-1.520867012552435851e-23
-1.247182250802387140e-23
-1.033974965545062608e-23
-8.939915808000455340e-24
-7.412408022160454372e-24
-5.269031490743103141e-24
-3.896856627026769279e-24
-3.049642994664578333e-24
-2.042385488440076914e-24
-1.494491819909634253e-24
-1.042197791316880287e-24
-7.113937195939140429e-25
-4.862462645210228688e-25
-3.324265405581585258e-25
-2.288272876932290087e-25
-1.591322618920300209e-25
-1.125934297275521374e-25
-8.120562664605999357e-26
-5.981526792833347446e-26
-4.492983884081511327e-26
-3.426106521827121079e-26
-2.634371847484254805e-26
