# bin_10_6
-2.108506351696504000e-11
-2.378276127092879743e-11
-2.636886391263511137e-11
-2.862089058925264342e-11
-3.024718447136409180e-11
-3.091025543953047536e-11
-3.032945280145841088e-11
-2.814274957853524470e-11
-2.468788483068082479e-11
-2.052772642318156396e-11
-1.680724823875531089e-11
-1.426879468300332069e-11
-1.228796185840119520e-11
-9.437410864280245720e-12
-6.547224981707053531e-12
-5.271452205447262798e-12
-3.646540486973217023e-12
-2.699863300765172011e-12
-1.831644734700734340e-12
-1.289791926485358493e-12
-8.992458220663018155e-13
-6.263896712228510192e-13
-4.391596105901728449e-13
-3.111254791330567730e-13
-2.244479543700915013e-13
-1.651107297798216235e-13
-1.237689186147629306e-13
-9.431652862004442164e-14
-7.264161816329243323e-14
-5.615157164012222959e-14
-4.324009979438903583e-14
