# bin_10_4
-1.059025632031977868e-15
-1.190465790739336182e-15
-1.314531132666786373e-15
-1.419634802797652089e-15
-1.490886466081601960e-15
-1.512644504795029324e-15
-1.468805460385826669e-15
-1.346898150020080645e-15
-1.167948280116319405e-15
-9.642735823725568918e-16
-7.921995519026385468e-16
-6.784485257446049006e-16
-5.776300258719923257e-16
-4.291911598346700550e-16
-3.030226996430663726e-16
-2.452894520952406346e-16
-1.645271178810119380e-16
-1.240474423445778910e-16
-8.506334363426014993e-17
-5.920080764324558664e-17
-4.151140874937497645e-17
-2.913629303700088896e-17
-2.062012107242967762e-17
-1.478275917950626466e-17
-1.080725481340587664e-17
-8.053760874338879753e-18
-6.106753589150504511e-18
-4.692955319250837379e-18
-3.631004651214855943e-18
-2.808029640189449308e-18
-2.155192528847937356e-18
