# bin_14_1
-3.432799995057711692e-37
-3.899721607956542587e-37
-4.362018461392061640e-37
-4.785955091292811521e-37
-5.126380977759763521e-37
-5.326489689207834017e-37
-5.338104800062217348e-37
-5.089725383728706433e-37
-4.580689487196717903e-37
-3.896630430892589903e-37
-3.193208388634033789e-37
-2.652860944432847032e-37
-2.295426926612594800e-37
-1.891572232973521371e-37
-1.336845173154841455e-37
-9.984722165825472042e-38
-7.732876992977357682e-38
-5.217623396352428167e-38
-3.780352546459685520e-38
-2.650050291752584271e-38
-1.811738470941529946e-38
-1.238600593777225313e-38
-8.486392642233570979e-39
-5.857753334562290245e-39
-4.088508641018719650e-39
-2.904631629041477559e-39
-2.103940969957212049e-39
-1.556149685195539509e-39
-1.172868963634213469e-39
-8.964118067686900113e-40
-6.899291278765914419e-40
