# bin_11_10
-1.018266113403491914e-08
-1.157932016581600860e-08
-1.296875308461799342e-08
-1.425162890515589285e-08
-1.529530582961403590e-08
-1.593224409539787814e-08
-1.601326638769324795e-08
-1.533047739132287101e-08
-1.385109566357670661e-08
-1.182959485849008067e-08
-9.703896183917334548e-09
-8.038430845265052515e-09
-6.947542467981646032e-09
-5.774221234346341782e-09
-4.114908004677506593e-09
-3.031194312701019864e-09
-2.381767585363270047e-09
-1.590782220703098894e-09
-1.168507328167379727e-09
-8.130614950698070369e-10
-5.546569904651177209e-10
-3.791233307096860445e-10
-2.589775682891208840e-10
-1.780719534190809972e-10
-1.236534345878305378e-10
-8.734528681371962478e-11
-6.288449897792469446e-11
-4.624049136344335969e-11
-3.468324354542005925e-11
-2.642123540357184342e-11
-2.030627724223343989e-11
