# bin_11_13
2.769797949703572484e-08
3.149673165546549868e-08
3.527890928957878854e-08
3.877495954508183981e-08
4.162587370739178464e-08
4.337800287295683433e-08
4.362103564833348212e-08
4.180216164736500171e-08
3.780838391282096706e-08
3.232796997746005001e-08
2.652925102540467815e-08
2.195449903677154932e-08
1.895131791742148499e-08
1.577882861157964531e-08
1.129081354082725616e-08
8.277727915053590996e-09
6.520412612455917096e-09
4.353492616234410514e-09
3.203932093821729654e-09
2.222116096776944274e-09
1.515282180772158787e-09
1.035968025925902429e-09
7.072594342454455989e-10
4.856018502657147407e-10
3.365149149841185297e-10
2.371686101439789854e-10
1.703310422019449428e-10
1.249378895483402769e-10
9.350293050422149888e-11
7.110325120276634548e-11
5.458272769865345487e-11
