# bin_14_11
1.039148018112514974e-10
1.186435063308343091e-10
1.335823198581015480e-10
1.477474419248975486e-10
1.598496972535686193e-10
1.682227827021846314e-10
1.710501348178645747e-10
1.666123952499925409e-10
1.532606812908772560e-10
1.333065592727936328e-10
1.102011267116044513e-10
9.039879315307306864e-11
7.727700950892818629e-11
6.607495796378002629e-11
4.943640286269736669e-11
3.457460436492935657e-11
2.806706493193007169e-11
1.872277168704820789e-11
1.407299474893763161e-11
9.475918293763971094e-12
6.474005757319195536e-12
4.430623628320996903e-12
3.007609385055134812e-12
2.036380354716812108e-12
1.382695900265930298e-12
9.510076870934436388e-13
6.645798954789005994e-13
4.737850853303408317e-13
3.454477855923241457e-13
2.573120979310377086e-13
1.949790077420180180e-13
