# bin_7_3
5.811192011305588405e-14
6.419391094608188575e-14
6.938963651413369330e-14
7.298289251153102765e-14
7.419737546887311173e-14
7.228949649359900550e-14
6.656817736845865944e-14
5.796652813883660212e-14
4.798728864903125974e-14
3.935621075784470230e-14
3.354922526955747617e-14
2.866234147525843080e-14
2.162499507536248262e-14
1.520533683829834110e-14
1.225856319277612732e-14
8.421751418379751261e-15
6.315191397460168162e-15
4.378089498018249866e-15
3.117691290784780272e-15
2.227344503214775820e-15
1.600983221991155968e-15
1.165852449487596932e-15
8.624631777643992912e-16
6.504156752824732578e-16
4.986010660578674653e-16
3.866947347467883340e-16
3.016332413903931717e-16
2.349283566500806230e-16
1.814592295303185623e-16
1.381664513234376825e-16
1.032191956693503525e-16
