# bin_9_3
2.831509622516838467e-18
3.162511555883447804e-18
3.465041479380264680e-18
3.706456584350358154e-18
3.845866695478038909e-18
3.848781736311494459e-18
3.664412504952922118e-18
3.293948517667123209e-18
2.799246472930100648e-18
2.293122720117165653e-18
1.905137723649972347e-18
1.646601647002512919e-18
1.353932445724237426e-18
9.585498221371521728e-19
7.176798774024155522e-19
5.554958895833672018e-19
3.787567018702619702e-19
2.762463365591126371e-19
1.961453847599159707e-19
1.369611579634805308e-19
9.630040235288113205e-20
6.833921470807293495e-20
4.917858485603820595e-20
3.598666537517950420e-20
2.685635021713374042e-20
2.039045105447489113e-20
1.569303446467175269e-20
1.217047346691072377e-20
9.442495563345679725e-21
7.277302455715001542e-21
5.536967396017757212e-21
