# bin_13_10
9.801327208680581457e-11
1.116620133849563742e-10
1.253700203739017033e-10
1.381953259540347898e-10
1.488913121300776640e-10
1.558691873191534509e-10
1.575576263313565943e-10
1.521255032519268165e-10
1.386210111821745138e-10
1.194331949698889818e-10
9.826954777871884427e-11
8.094278196640794703e-11
6.962957165801765436e-11
5.878206574929222555e-11
4.283929280178044459e-11
3.065173427127578644e-11
2.465631330110400164e-11
1.629213676233725043e-11
1.221150321089011958e-11
8.352458772677052914e-12
5.681854654447710901e-12
3.887361889968202729e-12
2.644030342442087289e-12
1.803190143242638589e-12
1.237816941494395320e-12
8.628951290823140392e-13
6.123419965393604962e-13
4.437682208123532372e-13
3.286226515822057536e-13
2.479455482585010475e-13
1.895222544775564949e-13
