# bin_8_7
2.863546711201548214e-09
3.209953609347884944e-09
3.532683048131005657e-09
3.799712876968961162e-09
3.970380202219925864e-09
4.005595102802696770e-09
3.858022233326994548e-09
3.508027376946323642e-09
3.016142338057588399e-09
2.480366023431340644e-09
2.045475247194786512e-09
1.759630525353830864e-09
1.479270975145273906e-09
1.075687317276012443e-09
7.759408016476999988e-10
6.202281643630872981e-10
4.154648619200638582e-10
3.110425080696388038e-10
2.162488013622335594e-10
1.503456866164420639e-10
1.055251357406196891e-10
7.434518439273522749e-11
5.296288550181536311e-11
3.828618601600186688e-11
2.823294109034246974e-11
2.120887015951486387e-11
1.618814588547729045e-11
1.249365028866161800e-11
9.681871000414247844e-12
7.479243909328762988e-12
5.720728171498247357e-12
