# bin_2_12
5.002621026576551830e-07
5.185090368854360969e-07
5.183049763701178493e-07
4.944423624792221423e-07
4.466281150696796974e-07
3.826113608921764347e-07
3.161835914081412039e-07
2.625081865674701170e-07
2.233664921081560235e-07
1.834590857961473296e-07
1.362897210217656285e-07
1.007780957634927658e-07
7.744588709791173244e-08
5.571789837529808113e-08
4.098163153941679992e-08
2.974914561532765079e-08
2.182974147428071434e-08
1.618956734130682305e-08
1.219968342967682010e-08
9.357211297808977428e-09
7.292671518356940082e-09
5.753144798498360436e-09
4.564175111225294973e-09
3.615434910726147892e-09
2.839968721919675427e-09
2.198214383738480076e-09
1.667747385683257378e-09
1.235340082951046804e-09
8.912523154097554682e-10
6.260060264679965716e-10
4.286050681789770723e-10
