# bin_1_7
6.645979819036214619e-07
6.507222789724778892e-07
6.069173478675478693e-07
5.372305660016477327e-07
4.545094885929227525e-07
3.764354938123994745e-07
3.148700638924997469e-07
2.639987981413273568e-07
2.097823815711759134e-07
1.559555193462139962e-07
1.170135052255635859e-07
8.821800523579527939e-08
6.435867860929635293e-08
4.745899258468129264e-08
3.498961986774688515e-08
2.611841734837413932e-08
1.979237864714997095e-08
1.526602345086539061e-08
1.197063388344264089e-08
9.503351333439999111e-09
7.592417709038123016e-09
6.059998930877077958e-09
4.798208864626404216e-09
3.744897329412206759e-09
2.865698392552508767e-09
2.141478491411292161e-09
1.559105086215921928e-09
1.105217077493439521e-09
7.636411478751074399e-10
5.154611179047109991e-10
3.409242890304320116e-10
