# bin_11_14
3.787837231130956538e-08
4.308486399793565630e-08
4.827525134575585577e-08
5.308157479268534962e-08
5.701421054537585885e-08
5.945367071930546587e-08
5.983220603146449020e-08
5.740101101259487616e-08
5.197510051345252547e-08
4.449232230991183476e-08
3.652700564867160692e-08
3.020738889485541999e-08
2.606106798326699257e-08
2.174283844175530604e-08
1.560316707672353410e-08
1.139778024137854875e-08
9.004789567999425463e-09
6.004615045659089700e-09
4.430270613045723552e-09
3.066115616823167865e-09
2.090274086209770629e-09
1.429208475725774059e-09
9.752045298186299177e-10
6.688920179379989535e-10
4.628716937514245056e-10
3.256867871388163923e-10
2.334867149817536204e-10
1.709573404937759665e-10
1.277446139678284167e-10
9.702945842556781418e-11
7.443681619785315057e-11
