# bin_9_9
9.886315425751319907e-09
1.115337168489788733e-08
1.236984038397777094e-08
1.343209306085338535e-08
1.420405327168627744e-08
1.452722550164331578e-08
1.427143589458020098e-08
1.326371740291309497e-08
1.165287261776260775e-08
9.701200745682319646e-09
7.939984669529019113e-09
6.728032969740883372e-09
5.796028611055396541e-09
4.475109451633808783e-09
3.104389114896672482e-09
2.486433104576515106e-09
1.735635040613625374e-09
1.274639654335953951e-09
8.671160193195705887e-10
6.118246533991014408e-10
4.256988720154777471e-10
2.958257824380445141e-10
2.070199945766842501e-10
1.463565970722652829e-10
1.053198977262404117e-10
7.728302602182535982e-11
5.779602307473330140e-11
4.395770627888072832e-11
3.381089976709715270e-11
2.611881774605353451e-11
2.011348379126135726e-11
