# bin_7_5
2.923394195279124598e-10
3.248217881710622374e-10
3.536356758781878236e-10
3.752888595885037967e-10
3.855795137424897753e-10
3.811730227845375264e-10
3.571246573494405856e-10
3.161796905352725577e-10
2.649325692683371965e-10
2.166975852902984743e-10
1.822809002597686450e-10
1.574299714711680567e-10
1.244870583608827673e-10
8.664575833627971836e-11
6.804722086523458945e-11
4.950266188086581853e-11
3.551589500956883108e-11
2.484710466467360011e-11
1.785852452888703227e-11
1.261323186250419874e-11
8.949102420087274268e-12
6.431878454006973724e-12
4.691351654054718538e-12
3.485871930161251461e-12
2.638332574364846458e-12
2.026574500296981356e-12
1.572200825787723105e-12
1.223457939893598099e-12
9.481894700348250699e-13
7.270317209760247827e-13
5.485521924835465714e-13
