# bin_5_6
5.040599143913575650e-08
5.538572880312795041e-08
5.947669133853076083e-08
6.204348007702056287e-08
6.248230783389643753e-08
6.006455633820480370e-08
5.454809044942148281e-08
4.685388704872305326e-08
3.855657715639765884e-08
3.183843063070514805e-08
2.733697077307899255e-08
2.286973895875042372e-08
1.669920814916427844e-08
1.213718511528325786e-08
9.606015026706677452e-09
6.584507094631448878e-09
4.905139144760627679e-09
3.460741442671645714e-09
2.460505749081492139e-09
1.765766066237345296e-09
1.279471918381857085e-09
9.411846951914370749e-10
7.041572475745473445e-10
5.365762519355021990e-10
4.147234623382482003e-10
3.233607863772055618e-10
2.527001469306289936e-10
1.965138266786249460e-10
1.511001377557533553e-10
1.142473330047559635e-10
8.458464676893852874e-11
