# bin_4_11
2.325279215943019606e-07
2.529966490866988212e-07
2.683870893226230557e-07
2.758007894496235359e-07
2.726479365942014741e-07
2.558292259394726468e-07
2.269097368864579702e-07
1.908018548870187952e-07
1.564248463350976920e-07
1.312787438181692023e-07
1.127575648758810792e-07
8.961995218191484647e-08
6.357331994985668746e-08
4.901032237615925548e-08
3.637081697703463373e-08
2.596370995143274575e-08
1.870668803056345658e-08
1.347189499490474386e-08
9.670499062806679243e-09
7.014743593327846640e-09
5.162686378423047256e-09
3.863945398148785363e-09
2.943443662251102647e-09
2.277076353112362422e-09
1.778998234852667609e-09
1.394799944862394622e-09
1.089846083477488416e-09
8.429887971963813615e-10
6.417911299823571494e-10
4.787014848001990819e-10
3.486267217698593512e-10
