# bin_8_10
4.296780746934991547e-08
4.832970741949952499e-08
5.340807079481429913e-08
5.773800651561146673e-08
6.071928200441385545e-08
6.170676858781838272e-08
6.007145241051009167e-08
5.525690531007782033e-08
4.806194433625259750e-08
3.976142041546720824e-08
3.263379072409261212e-08
2.786265706186953898e-08
2.377666095033508628e-08
1.784518620718515065e-08
1.254984457203838194e-08
1.011148447376678837e-08
6.868444323692375151e-09
5.131271141312008866e-09
3.511243729418287959e-09
2.454544859974607026e-09
1.716899731453502512e-09
1.201725989623029258e-09
8.479447982990787944e-10
6.056568223826750962e-10
4.409597538112332953e-10
3.272985328919450829e-10
2.472852141472910075e-10
1.895158088065167544e-10
1.463874537898644477e-10
1.131496489285656671e-10
8.689096924939991161e-11
