# bin_10_4
2.638708973999027376e-17
2.964261956972849261e-17
3.270777712535780155e-17
3.529323463562925181e-17
3.702819557144954480e-17
3.752815149194073983e-17
3.638831403829412334e-17
3.331728049364470715e-17
2.884680289608634484e-17
2.379456161846990202e-17
1.955301630215756717e-17
1.675451745242593546e-17
1.423778100233416072e-17
1.054065743174869398e-17
7.461140276363067691e-18
6.032346143861399116e-18
4.039756979525293227e-18
3.045217803939695580e-18
2.091766548893413339e-18
1.454690826169973033e-18
1.020057348666059869e-18
7.162054947993292324e-19
5.072717744774204973e-19
3.640399252897649694e-19
2.664516725190533749e-19
1.987839265882362256e-19
1.508661525289913159e-19
1.160073088895055403e-19
8.977332764020221089e-20
6.940948888749933260e-20
5.323918203793803256e-20
