# bin_5_8
1.111329127164078192e-07
1.223540793424681065e-07
1.317144652771441280e-07
1.378249224821942442e-07
1.393020374713306505e-07
1.346019671882882137e-07
1.229193720956025870e-07
1.061635561789018430e-07
8.760499617740363398e-08
7.216777475070136141e-08
6.176643280586237226e-08
5.206348888629602574e-08
3.855576348708717496e-08
2.770073769187789880e-08
2.201338217796905625e-08
1.516587325583248532e-08
1.128297080770440305e-08
7.921499573089816899e-09
5.639078629433008045e-09
4.037157154407115388e-09
2.914731984011879794e-09
2.135095614392334725e-09
1.590072456490768627e-09
1.206446444367325625e-09
9.292724435743407428e-10
7.228929921311334007e-10
5.644011447012771304e-10
4.390976852495336520e-10
3.381783405884142699e-10
2.563792975691455486e-10
1.904813325143851761e-10
