# bin_2_5
3.159978821151847453e-07
3.267665573156503861e-07
3.256997570088476596e-07
3.095577510329562206e-07
2.785368156195303716e-07
2.377860298478022734e-07
1.962510713844108626e-07
1.632172205847244747e-07
1.389636180482082087e-07
1.134662229326565066e-07
8.379632918855363064e-08
6.228088297472948611e-08
4.772507075844929667e-08
3.429278721119160786e-08
2.524699252213513840e-08
1.834103308330886262e-08
1.347363279036311342e-08
1.001232061652981674e-08
7.562014028657273270e-09
5.813360366673259971e-09
4.539904466368549173e-09
3.586790858668143554e-09
2.847666040519151466e-09
2.255751897235913094e-09
1.770668305853683526e-09
1.368692761291677110e-09
1.036442256568942425e-09
7.659648099530091441e-10
5.512352483466845241e-10
3.862144329789773824e-10
2.638135810753480991e-10
