# bin_6_6
1.579857369822209719e-08
1.749651852227682901e-08
1.897209117610971237e-08
2.003313786510770270e-08
2.046086371702744833e-08
2.006442102772790682e-08
1.861860780577398227e-08
1.633367947770799662e-08
1.359316754407728523e-08
1.113246017325225742e-08
9.433730476245422982e-09
8.103051560987908809e-09
6.245832619590412645e-09
4.364886587498936822e-09
3.482867797357380983e-09
2.453469549374883965e-09
1.805327223241378195e-09
1.253878245425804409e-09
8.974444353703857965e-10
6.379422210891222798e-10
4.558837272855677888e-10
3.300459214383297059e-10
2.426193948789068373e-10
1.817777682714117323e-10
1.385767440483322235e-10
1.070317344000629664e-10
8.329891549406823297e-11
6.486070601918348477e-11
5.017756521482206025e-11
3.832655565598543906e-11
2.875958050883854077e-11
