# bin_5_10
1.525196375224464000e-07
1.680151312532159316e-07
1.809960185830176223e-07
1.895606577801496498e-07
1.917910085723219802e-07
1.855915449897756265e-07
1.697563274288753035e-07
1.468489860547077628e-07
1.212840253499633889e-07
9.985202898063137308e-08
8.537617402114961085e-08
7.210432560694758217e-08
5.361832178471391811e-08
3.841434163254968823e-08
3.054020795623930106e-08
2.108759855769222404e-08
1.567078894268789864e-08
1.099249052157382754e-08
7.828129539906363106e-09
5.600037679055589318e-09
4.038756562903062117e-09
2.954832945979467467e-09
2.197616037691076121e-09
1.665275391756986837e-09
1.281355307216586666e-09
9.960701384645220592e-10
7.774367849014062793e-10
6.048861296883278513e-10
4.660687904888314938e-10
3.535989860650337881e-10
2.629744171209729751e-10
