# bin_3_12
3.437674157651033748e-07
3.671840394198469914e-07
3.806935268617309626e-07
3.806073668689275237e-07
3.627001085243835458e-07
3.268698194193827344e-07
2.790207573087911676e-07
2.296908230778569210e-07
1.907543708336097324e-07
1.633037877470227209e-07
1.340977149284437808e-07
9.789883428711842929e-08
7.264919656079379365e-08
5.605994658751780476e-08
3.962088331378341518e-08
2.918651956793537021e-08
2.097298958507885480e-08
1.520576307813408226e-08
1.113713406247408509e-08
8.273695771450522057e-09
6.253365421658422014e-09
4.806826977174676341e-09
3.749210796682258353e-09
2.949642751164817756e-09
2.325001649135598993e-09
1.823537046894950285e-09
1.413686426709692787e-09
1.077167890191433192e-09
8.030313356071014750e-10
5.838496169600644800e-10
4.133939274509361203e-10
