# bin_14_4
1.720778074693859043e-25
1.955579717332406792e-25
2.188651766028457303e-25
2.403183769413945441e-25
2.576729935058379426e-25
2.681000856027962774e-25
2.691247041260894867e-25
2.572252227235078845e-25
2.320286559460653145e-25
1.978427246562093059e-25
1.621851564159391830e-25
1.344385632816695271e-25
1.162133735304665056e-25
9.629271666271717671e-26
6.840291280219522535e-26
5.060846812457778783e-26
3.957007014104959691e-26
2.650556679655051574e-26
1.937829415537851645e-26
1.351507568291614378e-26
9.223747474804859933e-27
6.302872577991805543e-27
4.308418465802190072e-27
2.965467780788764930e-27
2.062126106658363703e-27
1.459086605795187153e-27
1.052375661221004419e-27
7.752125070542923973e-28
5.823234247109305820e-28
4.440507092016695404e-28
3.414144905891532518e-28
