# bin_14_8
1.262064407346999872e-14
1.437883042872528450e-14
1.614506047585385319e-14
1.779808126932319250e-14
1.917745324717282296e-14
2.007865632389775249e-14
2.029893734111469334e-14
1.960294707919448081e-14
1.786616371479320891e-14
1.539613990555784078e-14
1.266872383026475335e-14
1.043368155806794798e-14
8.974619351956416063e-15
7.579240268099053895e-15
5.526105468526550026e-15
3.951366121567810621e-15
3.180444742722114043e-15
2.100755798501205901e-15
1.575469572375669031e-15
1.077209878936789667e-15
7.327065355720741985e-16
5.013142060200350032e-16
3.409388621411512487e-16
2.324751489051810380e-16
1.595461629119919507e-16
1.111902184837126289e-16
7.888029127882999036e-17
5.714714028207654272e-17
4.230738549334479083e-17
3.191442041951605345e-17
2.439185066154924464e-17
