# bin_4_7
1.477667955538499624e-07
1.606491091941356069e-07
1.702317405293554061e-07
1.746746025836505467e-07
1.723166815619119970e-07
1.612369619551353358e-07
1.426227354624674534e-07
1.196653982766530252e-07
9.815027453987208272e-08
8.261349960663505435e-08
7.093272796818547884e-08
5.596132837741514968e-08
3.964075014626643395e-08
3.079347627433669616e-08
2.264390707694779582e-08
1.628038430945445862e-08
1.168594791920372699e-08
8.434824713341818906e-09
6.067647893448048348e-09
4.410883076125514179e-09
3.254898373119321641e-09
2.442769283928967217e-09
1.865869980837717036e-09
1.446642326312036662e-09
1.131985475375363128e-09
8.882804940605704510e-10
6.941587118201157625e-10
5.366476280285475575e-10
4.081218830097606439e-10
3.039361861500903661e-10
2.209213975882272072e-10
