# bin_15_15
6.108203611553011968e-09
7.002081044335199782e-09
7.922183628295188900e-09
8.813366716249951883e-09
9.603073170031344217e-09
1.019496856512105883e-08
1.047231073187747535e-08
1.034667145505636509e-08
9.678507251528079967e-09
8.554722281850028140e-09
7.153201722864571832e-09
5.851339754162753038e-09
4.938080621055039758e-09
4.271410532772077779e-09
3.350100497554039332e-09
2.312385787548976760e-09
1.835772384770556988e-09
1.304239383050894146e-09
9.389569984027786613e-10
6.322007453200844225e-10
4.437030076733161401e-10
3.011748343482100452e-10
2.021999805268204997e-10
1.354860899140551527e-10
9.061433596077820365e-11
6.099581032265686245e-11
4.152878145927293731e-11
2.872954885235312229e-11
2.030105881618549237e-11
1.468527027856693593e-11
1.086726808004360868e-11
