# bin_1_5
5.809737153662160414e-07
5.676526276677207090e-07
5.281147286352385333e-07
4.663563078371635302e-07
3.939564887767913975e-07
3.264295581000112746e-07
2.734447071107891768e-07
2.290265257938297498e-07
1.812453080224415407e-07
1.345936651522618715e-07
1.012264585440786333e-07
7.618632991765628501e-08
5.561016459901220989e-08
4.103957195740733018e-08
3.029280400430296946e-08
2.264735492691698971e-08
1.719422284741138530e-08
1.328739421614830600e-08
1.043695635772108373e-08
8.296860536148611659e-09
6.634033104746767517e-09
5.296611600147958279e-09
4.192911365677486906e-09
3.270356951057124131e-09
2.500046121524342442e-09
1.865883445535106979e-09
1.356583325536431909e-09
9.603351408206418288e-10
6.627056487138722232e-10
4.468507761818901365e-10
2.952900768783697420e-10
