# bin_7_5
2.866195394535601518e-10
3.185748009215858538e-10
3.469340945385045137e-10
3.682559905541691880e-10
3.784041542710324619e-10
3.740772918746098393e-10
3.504200874194360646e-10
3.102050866037035798e-10
2.599195334371889171e-10
2.127190485546311241e-10
1.791380419979557349e-10
1.547637749901129479e-10
1.222028979933226179e-10
8.507856305678632007e-11
6.697295925968480811e-11
4.860161212901365942e-11
3.497208392600719903e-11
2.444450543044025117e-11
1.757720573167912230e-11
1.242737513502504807e-11
8.826252357340759439e-12
6.350118641154934320e-12
4.636452762434589803e-12
3.448676441364306877e-12
2.612601882509968204e-12
2.008354288435137044e-12
1.558960874541379194e-12
1.213605063426054235e-12
9.407393749594579827e-13
7.213649994446763816e-13
5.442570974256437794e-13
