# bin_1_2
2.763451485275452864e-07
2.668699966492528639e-07
2.449322082444301233e-07
2.134668721102572469e-07
1.787089858211745278e-07
1.480807905707698364e-07
1.245925143916621254e-07
1.035600688981915972e-07
8.020482679313291885e-08
5.921275821314106229e-08
4.495965289515416797e-08
3.346906484580024368e-08
2.448111781537815164e-08
1.809255718456576905e-08
1.341602713277944833e-08
1.008762640091804716e-08
7.715087178869816440e-09
6.006536307444311888e-09
4.748296566765639902e-09
3.792017524417201978e-09
3.038662974491654962e-09
2.425261433618658257e-09
1.914732378089627531e-09
1.486308355179221937e-09
1.128856236978368127e-09
8.360469940568357164e-10
6.028294434656399184e-10
4.232460044170891825e-10
2.898486536936654971e-10
1.941308417269090228e-10
1.275630604416030418e-10
