# bin_15_14
2.434083471285436071e-09
2.788912506117700434e-09
3.153550605682530132e-09
3.505816523161969861e-09
3.816629660959328937e-09
4.047487665838694439e-09
4.152138437500608612e-09
4.095153147295229039e-09
3.822389582519696228e-09
3.371715546761699409e-09
2.814573690928846723e-09
2.302643430641435964e-09
1.946777955505673150e-09
1.682686533784382691e-09
1.311617955765151326e-09
9.052815102289499514e-10
7.224686308998465535e-10
5.081389594706136975e-10
3.688942792964474697e-10
2.474181505277016702e-10
1.731465020401935086e-10
1.176897717731835157e-10
7.916925447245583144e-11
5.312089499923539381e-11
3.559108996618918549e-11
2.402399910979633201e-11
1.641297707856993556e-11
1.140134597564966129e-11
8.092940196374566492e-12
5.880413158120095408e-12
4.368557125311590287e-12
