# bin_2_8
4.288491131458946924e-07
4.441461766681193282e-07
4.434811103944754737e-07
4.223988670013208321e-07
3.809169458820494295e-07
3.258606269413290244e-07
2.692528268808084785e-07
2.238923495066113846e-07
1.906551490305544307e-07
1.561280654774196430e-07
1.156717209185739805e-07
8.582563204431707369e-08
6.586120165978422865e-08
4.738007098118116880e-08
3.487573193638197057e-08
2.533850188514920079e-08
1.861113354240165364e-08
1.382228304948908662e-08
1.043224785854213616e-08
8.014102023968485602e-09
6.254733929854371856e-09
4.939778877835678671e-09
3.921700680191044334e-09
3.107505864251167288e-09
2.440849442822597390e-09
1.888544239747043249e-09
1.431840752788518408e-09
1.059663357994444682e-09
7.637475599990096187e-10
5.359143726024615713e-10
3.665908227130053318e-10
