# bin_15_9
2.418852949098085734e-14
2.762572218061644901e-14
3.111436341649918003e-14
3.442529284161346038e-14
3.725800424744810596e-14
3.922368208709771171e-14
3.989744536544178177e-14
3.887786860871878680e-14
3.577654096112798075e-14
3.113085659207324734e-14
2.574355843475243657e-14
2.112238222950289563e-14
1.806033629510863660e-14
1.544931187241472122e-14
1.156519817523629283e-14
8.087836645562202931e-15
6.568906357319499106e-15
4.382593981559080395e-15
3.295771324132011284e-15
2.219304346301096294e-15
1.516552236517288313e-15
1.038255924111402994e-15
7.050396506539736561e-16
4.775010128229430725e-16
3.243099247226344369e-16
2.231188469027867136e-16
1.559601913650189168e-16
1.112121691342905979e-16
8.110475724210542798e-17
6.042329629449700769e-17
4.579330289517275601e-17
