# bin_7_3
5.540167785308843006e-14
6.121979129577372477e-14
6.619229477235194949e-14
6.963278336362448732e-14
7.080025063399345306e-14
6.897417870203990948e-14
6.350470333046069916e-14
5.529017722693844183e-14
4.577745975269409233e-14
3.757320992165048065e-14
3.206361612854539262e-14
2.738692589099558687e-14
2.063129567523288810e-14
1.453054954617405251e-14
1.172278780398337456e-14
8.044155052458905716e-15
6.040846509078215414e-15
4.191992779740682485e-15
2.985014441755127904e-15
2.134229257962005567e-15
1.535406434341180731e-15
1.119118050311850606e-15
8.286702791663226864e-16
6.254897457353579722e-16
4.798585746178275896e-16
3.723841704504060375e-16
2.905952054588748707e-16
2.263916627954920731e-16
1.748893373313057576e-16
1.331690963278286151e-16
9.948130755967301594e-17
