# bin_1_6
6.283766775834596757e-07
6.145021912160856326e-07
5.722778870319966147e-07
5.058504265288724997e-07
4.276151901915625714e-07
3.543361017716819813e-07
2.967269274721310898e-07
2.486455863484678413e-07
1.970707869641427659e-07
1.464285200362863353e-07
1.100530915614812915e-07
8.288592310691845807e-08
6.049910005639804444e-08
4.464019896775367600e-08
3.294121071695643126e-08
2.461708062277296772e-08
1.867971429700489060e-08
1.442744605639197018e-08
1.132697886260071705e-08
9.001194546290447971e-09
7.195911269781973277e-09
5.745253381955402390e-09
4.548895669012284540e-09
3.549217626809377705e-09
2.714490096751488267e-09
2.027060139284820915e-09
1.474653723293498498e-09
1.044545784072245823e-09
7.212211373766111927e-10
4.865468872679596880e-10
3.216561211840087383e-10
