# bin_7_6
2.992897689067667487e-09
3.334712311885605054e-09
3.642470836148993403e-09
3.880800431472711258e-09
4.006166879697470467e-09
3.983710580561824574e-09
3.760058544774872841e-09
3.352359526149590433e-09
2.826840475404633054e-09
2.314158441978648159e-09
1.937232861326307454e-09
1.675790717115389968e-09
1.348998233537665332e-09
9.441623052696453756e-10
7.278104884380024893e-10
5.442749972757586813e-10
3.819075386823095344e-10
2.716130629964379764e-10
1.947771861026011205e-10
1.369356229245408180e-10
9.676022857326280192e-11
6.919674035437810346e-11
5.020824208846572582e-11
3.708575410231466413e-11
2.791816541462379042e-11
2.135199083490293910e-11
1.651867185400283905e-11
1.284309285444345874e-11
9.963058155729371093e-12
7.659287631082965877e-12
5.801973547690568876e-12
