# bin_2_9
4.519408215096251773e-07
4.681726748668548961e-07
4.676095829946028243e-07
4.455486122676005352e-07
4.019520728902493836e-07
3.439758370421342512e-07
2.842561997530479796e-07
2.363259423964126066e-07
2.012327423833481892e-07
1.648902501752277669e-07
1.222341804605864725e-07
9.064718739199344871e-08
6.958294054283792799e-08
5.006248605669514244e-08
3.684726005568357785e-08
2.676862510697972449e-08
1.965933224307035240e-08
1.459783931126616965e-08
1.101505602093791597e-08
8.459870201352581882e-09
6.601296409619530705e-09
5.212713434766209790e-09
4.138077637631000713e-09
3.278963814200363419e-09
2.575713988727878709e-09
1.993168991581000958e-09
1.511455834796287776e-09
1.118843924641699320e-09
8.066057446390568832e-10
5.661302685201054882e-10
3.873504205065409751e-10
