# bin_9_7
3.832056931736136583e-10
4.312808985113082772e-10
4.768827772393018576e-10
5.158514469321411489e-10
5.428095620868713383e-10
5.519383690151410157e-10
5.376054008588960090e-10
4.946661764516050188e-10
4.303982881597495420e-10
3.560706499863410687e-10
2.923004351810141440e-10
2.498410257701342087e-10
2.135061364482109558e-10
1.600816709498301450e-10
1.124053883339144113e-10
9.101843939950769517e-11
6.146310174891128400e-11
4.621417976337066247e-11
3.157233658689277915e-11
2.203498803748155451e-11
1.543772416985962115e-11
1.082066628626939279e-11
7.641437301862030268e-12
5.462304354605688686e-12
3.980714014438497970e-12
2.957423199762203712e-12
2.236459933417447167e-12
1.715430781900424413e-12
1.326023559531938107e-12
1.025575088733832123e-12
7.879513421504773135e-13
