# bin_11_3
7.344070390185559893e-23
8.271274348027183140e-23
9.154159838677463833e-23
9.913943204210065880e-23
1.044829324006867896e-22
1.064322801292355992e-22
1.039562946257683002e-22
9.595177731074089698e-23
8.374201445451767513e-23
6.939470181005673959e-23
5.688701785689603787e-23
4.849216362731507321e-23
4.158034266043951605e-23
3.146253933664828041e-23
2.195703325868415270e-23
1.777029429324472100e-23
1.208494539887122142e-23
9.051486184047862832e-24
6.157753326701070848e-24
4.308767269237670375e-24
3.013860323850117550e-24
2.107830242664580010e-24
1.484117723225892837e-24
1.056969411375901167e-24
7.671760372018810706e-25
5.677603314848866322e-25
4.279002029974681219e-25
3.274060909592563659e-25
2.527507217722324370e-25
1.954566652029894225e-25
1.503091169433798932e-25
