# bin_12_12
-1.292789404782857827e-08
-1.475542164690854317e-08
-1.660518372296205350e-08
-1.835410112843183968e-08
-1.984041813612546576e-08
-2.085577191707178033e-08
-2.117799505038156057e-08
-2.058545644562283097e-08
-1.889054197552030426e-08
-1.639101856593479685e-08
-1.353075153209144535e-08
-1.110840430276366414e-08
-9.514039119745351379e-09
-8.114934774908519293e-09
-6.030172653698495423e-09
-4.235951636365841850e-09
-3.439204465519337707e-09
-2.282151461006446278e-09
-1.718899145810357977e-09
-1.161578892100811542e-09
-7.919306006749816123e-10
-5.422161309485875055e-10
-3.683557766399794548e-10
-2.498973081493759016e-10
-1.701741715275010668e-10
-1.174751593014089972e-10
-8.244143250635547246e-11
-5.904304865430778634e-11
-4.324113966309189849e-11
-3.233163033844024690e-11
-2.456675791937059713e-11
