# bin_2_8
-8.137664826293017782e-18
-9.029417407467929119e-18
-9.813175295253199625e-18
-1.039063305755268786e-17
-1.064577527453960246e-17
-1.048457049108864993e-17
-9.776210679496588295e-18
-8.615771935920771487e-18
-7.191222381111820396e-18
-5.882595663468449806e-18
-4.967959577692422832e-18
-4.284914133089176608e-18
-3.345121132838770136e-18
-2.325536664432320241e-18
-1.848226276286595847e-18
-1.319014946319367852e-18
-9.618232656556160148e-19
-6.674852789356226233e-19
-4.793995642651148410e-19
-3.399058128031712936e-19
-2.421241977230400854e-19
-1.747117443858879384e-19
-1.279559738563589289e-19
-9.550218326452332992e-20
-7.256883869264369401e-20
-5.591651947288134291e-20
-4.346548977826443623e-20
-3.384663881873245977e-20
-2.621666796450390227e-20
-2.006918375472668789e-20
-1.510492787932381935e-20
