# bin_15_3
-1.300333721749514912e-29
-1.480916305643596235e-29
-1.661871632833519761e-29
-1.830639024975761174e-29
-1.970548574964158472e-29
-2.060405968301686522e-29
-2.079796149913768547e-29
-2.003704781459556784e-29
-1.821631410799211232e-29
-1.565696434145937671e-29
-1.286898033522394105e-29
-1.061352260149606663e-29
-9.143921565003441757e-30
-7.691738650530434417e-30
-5.570804185990888076e-30
-4.014017245344196964e-30
-3.213712379258210068e-30
-2.125937386147699579e-30
-1.587577581503057648e-30
-1.090633739996920300e-30
-7.422657191080303083e-31
-5.077415059931141699e-31
-3.456658284475991679e-31
-2.362597544914484292e-31
-1.626853631745180143e-31
-1.138205138725622186e-31
-8.109392896367331421e-32
-5.900927399244540910e-32
-4.385842015501948342e-32
-3.318538025743251414e-32
-2.540997756370114847e-32
