# bin_4_15
-1.444238147868359407e-25
-1.645286439010106115e-25
-1.847027214184956431e-25
-2.035536354414260909e-25
-2.192356269066305654e-25
-2.293984854576943150e-25
-2.317460086347417685e-25
-2.235355045725132239e-25
-2.034713973278890186e-25
-1.751027521876507364e-25
-1.439938036031666721e-25
-1.186736685386544657e-25
-1.021723961224082687e-25
-8.612491275155133460e-26
-6.257818281617512323e-26
-4.491759134141027311e-26
-3.606580158422300391e-26
-2.383594868722910405e-26
-1.784154272823557259e-26
-1.222895031917727344e-26
-8.320908350170966223e-27
-5.692919935159921957e-27
-3.873982390576909155e-27
-2.645051278501537121e-27
-1.818588049870676752e-27
-1.270092704461669596e-27
-9.031285228546086501e-28
-6.558536627394638003e-28
-4.865823018129753249e-28
-3.676617341561256726e-28
-2.812878175565040674e-28
