# bin_10_14
-2.120258057473996552e-10
-2.421303283979579921e-10
-2.726738356918341388e-10
-3.016457750623331101e-10
-3.264104278078591546e-10
-3.435595484683315923e-10
-3.493750959361080517e-10
-3.403373876555191368e-10
-3.130635613526400036e-10
-2.722885803685466305e-10
-2.250662330057713632e-10
-1.846129522232855617e-10
-1.578455032723281995e-10
-1.350096892178445565e-10
-1.010045332166185688e-10
-7.061794650153445680e-11
-5.736452136270832187e-11
-3.824534938483337292e-11
-2.876651512909228070e-11
-1.936830197376815652e-11
-1.323322263377881365e-11
-9.058379195354452264e-12
-6.150672879455043850e-12
-4.165502670799186989e-12
-2.829131890915016736e-12
-1.946475545686380190e-12
-1.360694004730881615e-12
-9.703832182079365804e-13
-7.077600205059561255e-13
-5.273370009371694187e-13
-3.996859303702731836e-13
