# bin_5_13
-2.189364587233429967e-18
-2.485186558547297060e-18
-2.776990291788399682e-18
-3.043129613543331078e-18
-3.254610640464218294e-18
-3.375076363012658455e-18
-3.374755986745392911e-18
-3.207592667014666830e-18
-2.877850873338384891e-18
-2.440264518127054883e-18
-1.997660904198135460e-18
-1.662775592718913775e-18
-1.439703788170105361e-18
-1.178798111428789421e-18
-8.279699755664774784e-19
-6.245393400674441187e-19
-4.784719507600514742e-19
-3.253121732495347749e-19
-2.332814658014799655e-19
-1.643692170939233645e-19
-1.125449358801752873e-19
-7.696059697304455121e-20
-5.284744956703581765e-20
-3.657903571387657860e-20
-2.562371905434082600e-20
-1.827866108038225661e-20
-1.329643092618635700e-20
-9.874243165991841607e-21
-7.466638815128413449e-21
-5.718972799544442692e-21
-4.405383633751462976e-21
