# bin_15_13
-5.769234326585704484e-09
-6.612487708719548934e-09
-7.480073007744427121e-09
-8.319729126704590427e-09
-9.062840697459917267e-09
-9.618350582406693656e-09
-9.875961363158478476e-09
-9.752691388688436425e-09
-9.116855554299239096e-09
-8.052680143323625922e-09
-6.728217995931624590e-09
-5.501403156003825176e-09
-4.643570365543847466e-09
-4.016934309035581099e-09
-3.146304364884483905e-09
-2.169254220791694472e-09
-1.725137286943284560e-09
-1.222673206498979882e-09
-8.820881343264797317e-10
-5.923508820551186700e-10
-4.158087883819851130e-10
-2.822801382750455626e-10
-1.895554792670327946e-10
-1.270377974384087972e-10
-8.497705521310636001e-11
-5.722231081936071155e-11
-3.897931447538652922e-11
-2.698339693588798671e-11
-1.908187616075251358e-11
-1.381465549459168419e-11
-1.023107602142230954e-11
