# bin_6_5
-1.087467266000512718e-08
-1.205563856133153429e-08
-1.308778895381626313e-08
-1.383912548949327529e-08
-1.415624854534574602e-08
-1.391121720640862419e-08
-1.293736902445297312e-08
-1.137322927452150435e-08
-9.475201175520158960e-09
-7.753818803916607184e-09
-6.561647197959592257e-09
-5.650825548752460515e-09
-4.380286900279423081e-09
-3.049125124772976034e-09
-2.433807102762318164e-09
-1.721256263926159834e-09
-1.264094039847406612e-09
-8.758630355285463759e-10
-6.280721484566471847e-10
-4.461153766533320885e-10
-3.184222464787378509e-10
-2.302187871043610467e-10
-1.689657727021813965e-10
-1.263937683824353432e-10
-9.622900986510360274e-11
-7.425680137065091374e-11
-5.777058104047206417e-11
-4.499259505357226503e-11
-3.483264418329361300e-11
-2.663684657050129179e-11
-2.001812071695577754e-11
