# bin_6_15
-5.038077740894471375e-19
-5.744868471335842990e-19
-6.457227367412818946e-19
-7.126883275339763118e-19
-7.690113564309010238e-19
-8.065337531914214304e-19
-8.169180054503686816e-19
-7.910454402503396972e-19
-7.229588020460410968e-19
-6.247265921295460450e-19
-5.146622095554527578e-19
-4.232757104237477336e-19
-3.635210471834512453e-19
-3.083610940502220544e-19
-2.265417222172939612e-19
-1.607185036155559268e-19
-1.299880457733134635e-19
-8.589261853958089736e-20
-6.461978274008991424e-20
-4.397058775564882361e-20
-2.992281287660235685e-20
-2.048352249464739724e-20
-1.392495620233813451e-20
-9.476214366803998082e-21
-6.483544246642667354e-21
-4.501764270621182462e-21
-3.180229458114643018e-21
-2.293804379988907797e-21
-1.691194751630886427e-21
-1.271550079819413455e-21
-9.698032975713867267e-22
