# bin_11_11
-1.317019672203504726e-08
-1.499553016358925962e-08
-1.682251682078516545e-08
-1.852373602249723431e-08
-1.992990821222164746e-08
-2.082609341765758035e-08
-2.100772148231863140e-08
-2.021853439169850246e-08
-1.836194897970769078e-08
-1.576507979629499998e-08
-1.295194905236028898e-08
-1.068812059380459907e-08
-9.213942110914883492e-09
-7.737287651274556224e-09
-5.587549155962481163e-09
-4.039161020999503358e-09
-3.226713225679862755e-09
-2.135410267952127383e-09
-1.591969319395309780e-09
-1.095811099870412337e-09
-7.458532388826588245e-10
-5.101134297301962112e-10
-3.473896204680795777e-10
-2.376516403412502773e-10
-1.638581481838724603e-10
-1.148173429580053021e-10
-8.194337818794466523e-11
-5.973152692196281764e-11
-4.446502502900932097e-11
-3.368548805880193213e-11
-2.581213322167638066e-11
