# bin_10_4
-1.050076716035723384e-15
-1.180484295981572939e-15
-1.303614202548639121e-15
-1.407990925361318272e-15
-1.478861724672146468e-15
-1.500655470934552313e-15
-1.457547143350009370e-15
-1.336889939878276127e-15
-1.159484196449005638e-15
-9.571856350474445367e-16
-7.859747921777445564e-16
-6.728073190310998064e-16
-5.731817370694108851e-16
-4.263832493124083688e-16
-3.005900308095669893e-16
-2.434045079442744790e-16
-1.633349769736150825e-16
-1.231242862311582390e-16
-8.434701441842977582e-17
-5.871960725937900134e-17
-4.116340750441907811e-17
-2.888252495135253988e-17
-2.043145080530323862e-17
-1.463834516521900770e-17
-1.069532735625781037e-17
-7.965786045548693383e-18
-6.036968743967283067e-18
-4.637616993714522765e-18
-3.587441120947034530e-18
-2.774212848462062321e-18
-2.129447974908861497e-18
