# bin_7_13
-1.397472458324628204e-13
-1.589083784632227365e-13
-1.779678208359022958e-13
-1.955617920048952868e-13
-2.098701737800476565e-13
-2.185947394834403087e-13
-2.196868787018767499e-13
-2.103013642808764162e-13
-1.899756685686256945e-13
-1.622159279959459522e-13
-1.330222171819280321e-13
-1.101513340832528229e-13
-9.519346350670431489e-14
-7.913372498422008502e-14
-5.639130740256891423e-14
-4.150874115693955168e-14
-3.263370961322785000e-14
-2.178128376081367109e-14
-1.600692755358156933e-14
-1.113319472503321154e-14
-7.593288293428394510e-15
-5.189902419206665210e-15
-3.544511062395433617e-15
-2.436778006719086564e-15
-1.691644679786468130e-15
-1.194665446516416448e-15
-8.598859477480005096e-16
-6.321368757083667449e-16
-4.740418581520877759e-16
-3.610594786805102674e-16
-2.774661747440190724e-16
