# bin_15_11
-2.805976712043153162e-10
-3.210806537923022060e-10
-3.624892352032121278e-10
-4.022142871941176790e-10
-4.368520417098621852e-10
-4.619349228085829678e-10
-4.722455657684109712e-10
-4.635738516723919217e-10
-4.302153542083800651e-10
-3.774156350764018857e-10
-3.136752016398253524e-10
-2.567106636526644892e-10
-2.179925594881358219e-10
-1.879045570912311512e-10
-1.441510621901708846e-10
-9.966140879397457776e-11
-8.039094819897944435e-11
-5.516738318164897567e-11
-4.080698216610320673e-11
-2.725203872718679689e-11
-1.888281108448540793e-11
-1.288018335878267827e-11
-8.706607461050539597e-12
-5.861578729490053315e-12
-3.945719804617656766e-12
-2.682172530511309656e-12
-1.848354413220293790e-12
-1.297094808816515488e-12
-9.307684154338322954e-13
-6.833981236490109240e-13
-5.121618357868965934e-13
