# bin_14_11
-1.281272232741046252e-09
-1.464364480587483729e-09
-1.650755479468962994e-09
-1.828375397565810767e-09
-1.981450881059217811e-09
-2.089464596067484269e-09
-2.129340258853356373e-09
-2.080749090645818115e-09
-1.920768012343339605e-09
-1.676412096857354997e-09
-1.388522371707899135e-09
-1.137721144768305169e-09
-9.702020704708859412e-10
-8.328158202107450604e-10
-6.292977102314569458e-10
-4.375168085698407150e-10
-3.549736959066586432e-10
-2.389242448779238857e-10
-1.789039093691385493e-10
-1.199036188330850040e-10
-8.229782567197360670e-11
-5.628424315628815623e-11
-3.817153943061001162e-11
-2.578832665936537194e-11
-1.744987938781074406e-11
-1.194731744874296716e-11
-8.304184146274701472e-12
-5.884695219282606191e-12
-4.265159155918431933e-12
-3.160358619996050946e-12
-2.385532646943675224e-12
