# bin_1_13
-6.247246230133485640e-35
-7.077765758579153387e-35
-7.889796240789444947e-35
-8.620490082562405163e-35
-9.185790994643157183e-35
-9.481619460121389485e-35
-9.427611400170115068e-35
-8.893507774985958551e-35
-7.923254069000857571e-35
-6.672883053147198870e-35
-5.457481580706791731e-35
-4.569630596212506774e-35
-3.957603962202330067e-35
-3.181779448092832551e-35
-2.212325729998116575e-35
-1.710263537331596384e-35
-1.270225113816393357e-35
-8.862122780204190547e-36
-6.190816020243068547e-36
-4.397929591732802004e-36
-3.026494725323266923e-36
-2.076893454790895583e-36
-1.435599562508097263e-36
-1.000827029843502919e-36
-7.076642330500488537e-37
-5.099325826389947903e-37
-3.747589048206859302e-37
-2.809047667167992804e-37
-2.139328337247896035e-37
-1.645498813979443823e-37
-1.268823717251219563e-37
