# bin_2_15
-3.397339398605286067e-34
-3.868604677720540537e-34
-4.340533446667176785e-34
-4.780278938313406418e-34
-5.144225382234304715e-34
-5.376955361050466124e-34
-5.425450572899391712e-34
-5.223991361971812498e-34
-4.746597122568159437e-34
-4.077335884432069683e-34
-3.350580216789961662e-34
-2.764302506069483783e-34
-2.382237603194610722e-34
-2.001867827648926434e-34
-1.447761849348633849e-34
-1.045110820215094868e-34
-8.354720689131593695e-35
-5.530511958229682232e-35
-4.124643016206256605e-35
-2.836586528266018239e-35
-1.930852797122786277e-35
-1.320675504284952135e-35
-8.993284297553142445e-36
-6.149931130458111252e-36
-4.237789370684698538e-36
-2.967371764278260267e-36
-2.116102203139881184e-36
-1.541244866393546282e-36
-1.146465770657195000e-36
-8.680079642434726556e-37
-6.648645767035718921e-37
