# bin_14_15
-1.157411456240045405e-08
-1.327670976250736426e-08
-1.503309094738171997e-08
-1.674014802428445168e-08
-1.826152193618510504e-08
-1.941547069221363802e-08
-1.997896430201516083e-08
-1.978617760604681898e-08
-1.856243885351070621e-08
-1.645037273974669986e-08
-1.378372783346125949e-08
-1.126884531025626553e-08
-9.483306782907238892e-09
-8.211786599165188629e-09
-6.497371635546148290e-09
-4.482701203847606847e-09
-3.531922474147194059e-09
-2.545564373455152313e-09
-1.810267203839627576e-09
-1.225341632164298688e-09
-8.636292935295090385e-10
-5.850121469285018777e-10
-3.915672794870665995e-10
-2.618401468619659525e-10
-1.746527115492873021e-10
-1.170819611837443297e-10
-7.930770304895290482e-11
-5.452738316453932257e-11
-3.826872315770261088e-11
-2.749484655485125409e-11
-2.022485783758201920e-11
