# bin_15_7
-1.804449798342102017e-16
-2.058856084856861442e-16
-2.315979995574014754e-16
-2.558603593715351894e-16
-2.764062627246364961e-16
-2.903227114095224239e-16
-2.945484735341165307e-16
-2.859292739971861887e-16
-2.620123742781700436e-16
-2.270179583621882992e-16
-1.872653379375434615e-16
-1.538303475130101785e-16
-1.318811155933289174e-16
-1.122803855419312968e-16
-8.310121085501358606e-17
-5.856504999653930365e-17
-4.750281792550847187e-17
-3.146039389040217318e-17
-2.369604486048932230e-17
-1.605096556259587501e-17
-1.093384821835273038e-17
-7.486045375433806544e-18
-5.086825184875471800e-18
-3.454639512861919526e-18
-2.356352091207188793e-18
-1.629934507510856767e-18
-1.146509814218474115e-18
-8.231650287497453790e-19
-6.042996548361586087e-19
-4.527435136364062373e-19
-3.444863248800727941e-19
