# bin_3_2
-1.674459443329923268e-08
-1.770101333607933870e-08
-1.811698783208070993e-08
-1.782111755150004719e-08
-1.661930022259991224e-08
-1.465335298743452988e-08
-1.225910857205435714e-08
-1.004530809426693581e-08
-8.462917385238170740e-09
-7.258448842307512648e-09
-5.695180373510280689e-09
-4.032548190249053845e-09
-3.153153237188329938e-09
-2.310799400579853338e-09
-1.679015109369970432e-09
-1.210899331794605499e-09
-8.844275587189032022e-10
-6.461467890546414968e-10
-4.784508107705881481e-10
-3.604740038830172821e-10
-2.763957481986825772e-10
-2.153673766526132037e-10
-1.697204741458818689e-10
-1.343464483535799278e-10
-1.060770029296076849e-10
-8.297053766277476154e-11
-6.388888965119298408e-11
-4.818252554133811453e-11
-3.545106881499073013e-11
-2.538953890660445664e-11
-1.769667302682102084e-11
