# bin_7_5
-2.174728454567345910e-09
-2.421843259201073839e-09
-2.643847021336751670e-09
-2.815045487395386181e-09
-2.903825470871167363e-09
-2.885245678030656180e-09
-2.720442062955182811e-09
-2.422833783789834975e-09
-2.040515071721045694e-09
-1.669027533015699233e-09
-1.397039405324075408e-09
-1.208537326433340242e-09
-9.714319661653694670e-10
-6.783171774150786195e-10
-5.239505731111960532e-10
-3.908606109094549025e-10
-2.745960676371073274e-10
-1.947150570265434863e-10
-1.398046685187807753e-10
-9.828951196327962380e-11
-6.943270454949009343e-11
-4.966089270150185100e-11
-3.604001738918342711e-11
-2.662841443689617649e-11
-2.005198846696658304e-11
-1.533993669067278682e-11
-1.186966083656723614e-11
-9.228932389995414582e-12
-7.158550233942804855e-12
-5.501768298740620062e-12
-4.165914392626993144e-12
