# bin_14_1
-3.405597256745599194e-37
-3.868992873099054068e-37
-4.327925439322104795e-37
-4.748936182267513360e-37
-5.087276898967747269e-37
-5.286645095656786599e-37
-5.299048840813094496e-37
-5.053829405719292172e-37
-4.549152079279478634e-37
-3.870325105866896482e-37
-3.170849620043407006e-37
-2.632656350888287765e-37
-2.277562050768021782e-37
-1.878689240413980192e-37
-1.328582824919420343e-37
-9.903849561717929835e-38
-7.684444685892240942e-38
-5.176500462628040747e-38
-3.757000162732026103e-38
-2.630897107977555815e-38
-1.797923610201393981e-38
-1.229030673441199857e-38
-8.416901133625160884e-39
-5.806760533534824350e-39
-4.050037249185003742e-39
-2.875233434281269363e-39
-2.081037556429207139e-39
-1.538068524572337810e-39
-1.158532810804283220e-39
-8.850753744624414009e-40
-6.810592160122104910e-40
