# bin_11_4
4.702510872468723000e-20
5.304027069276378401e-20
5.880584209207783434e-20
6.382546118723040468e-20
6.744856894193902652e-20
6.892264813271972614e-20
6.762197632238874222e-20
6.274029840244251545e-20
5.503265177199454191e-20
4.575613642350100085e-20
3.746407514426959143e-20
3.180820446795847948e-20
2.739014282473462511e-20
2.103033055415945233e-20
1.459154258117334537e-20
1.174955789372857702e-20
8.125038384006753036e-21
6.017165657080952591e-21
4.082522632545805796e-21
2.874444638705192390e-21
2.004266292780122400e-21
1.396284605849016744e-21
9.790729430660927407e-22
6.937081106972598352e-22
5.005336875741784717e-22
3.682697213812499489e-22
2.760950545348041829e-22
2.104141158945667476e-22
1.620651714815059150e-22
1.252729286948351051e-22
9.646039135380151730e-23
