# bin_15_4
4.053139277412409028e-28
4.617447407094254876e-28
5.183706446877679150e-28
5.712847879962484234e-28
6.153051883061615898e-28
6.438332473399450201e-28
6.504327064688198297e-28
6.273802363270485688e-28
5.710903664548122351e-28
4.915130376106308718e-28
4.042992084857370551e-28
3.333474794337945744e-28
2.870618975146005932e-28
2.418850478732664185e-28
1.756904777207148451e-28
1.262482869799251063e-28
1.013036106502304767e-28
6.698723184099424123e-29
5.011919999911457522e-29
3.437399798422522478e-29
2.339272732618526385e-29
1.600617729558907493e-29
1.089453717477284373e-29
7.440949378582329676e-30
5.118302244246501788e-30
3.576385460825965270e-30
2.544440086201010917e-30
1.848784430929818847e-30
1.372295294024849842e-30
1.037305360694881951e-30
7.938062250489700927e-31
