# bin_3_3
1.392942284722873292e-10
1.490320091008147999e-10
1.547927282809319787e-10
1.551203949366280438e-10
1.481455279638291532e-10
1.336923427236561677e-10
1.141534403986271744e-10
9.378526570475123238e-11
7.774978312918857738e-11
6.684758260183652280e-11
5.526115855000517305e-11
3.998706831025499730e-11
2.961713410693524400e-11
2.314103809524196526e-11
1.611108292683596990e-11
1.197475866808254845e-11
8.604953828796817768e-12
6.220151738865958424e-12
4.554696748254615901e-12
3.382976537433950164e-12
2.556817026330296159e-12
1.965651963435327341e-12
1.533989352632519302e-12
1.207793039544187439e-12
9.529930856514828916e-13
7.483470896165839070e-13
5.808943896329060808e-13
4.431827179933989267e-13
3.307710417106569422e-13
2.406822165919975692e-13
1.704749753196050887e-13
