# bin_15_2
9.616459786321237512e-37
1.095057284716076787e-36
1.228655765142840827e-36
1.353145535220936667e-36
1.456175513035324910e-36
1.522051712967520318e-36
1.535787325529721470e-36
1.478718598263354023e-36
1.343622370346539960e-36
1.154267322755061111e-36
9.487827033919889882e-37
7.831061843600254106e-37
6.750181334921588033e-37
5.670060285458703712e-37
4.099106465171941931e-37
2.962527459213317802e-37
2.366501829954526871e-37
1.567533211690094378e-37
1.168419903288029656e-37
8.040669232880341366e-38
5.474362701757450028e-38
3.744723384761155875e-38
2.550665550799010037e-38
1.744851791537231798e-38
1.202919784912214466e-38
8.427492822090380675e-39
6.013237981089222765e-39
4.382173130529459884e-39
3.261346442112351239e-39
2.470179004188096053e-39
1.892524388226848098e-39
