# bin_8_3
5.514265109935362842e-17
6.133729981684303409e-17
6.686433084684470876e-17
7.106695860736072942e-17
7.314559983275456711e-17
7.247302136750144378e-17
6.808460041329281844e-17
6.043283498833861209e-17
5.074589089557034097e-17
4.151323668068386665e-17
3.486314817783209905e-17
3.014489352738073014e-17
2.399446475031232533e-17
1.670832662260076142e-17
1.305434299526110198e-17
9.586350683597938999e-18
6.827313570357386541e-18
4.794422377435115912e-18
3.448951561281436158e-18
2.432183085481550733e-18
1.722788858269244767e-18
1.236168895915825682e-18
9.000756796362504239e-19
6.674848223467441190e-19
5.043159480824399154e-19
3.868546937350021449e-19
2.998818485634824333e-19
2.333329278013171919e-19
1.809269417065879504e-19
1.388756021259375895e-19
1.049424229076849217e-19
