# bin_11_7
1.452660505047634547e-13
1.645202646148430289e-13
1.833141007681950693e-13
2.001810808672179856e-13
2.131600961970665725e-13
2.198293290059738321e-13
2.183380056145461783e-13
2.056664120113820495e-13
1.829893193300173858e-13
1.539290869828077047e-13
1.259146507409758609e-13
1.055988377378426835e-13
9.145636520997276103e-14
7.321677836494106696e-14
5.082182218537073697e-14
3.951623977886239650e-14
2.913337918445036693e-14
2.046006691551959757e-14
1.420769386313512141e-14
1.011087924931330138e-14
6.967088023261418147e-15
4.786253152619730001e-15
3.313786187390840632e-15
2.314252433013058608e-15
1.639999111978048000e-15
1.184528580947096346e-15
8.725609227890560442e-16
6.553921359930687881e-16
4.999116187790971112e-16
3.848560295007469734e-16
2.968099597664197576e-16
