# bin_11_10
2.933208853897495799e-11
3.335740438979073910e-11
3.736308434788134413e-11
4.106309401554994938e-11
4.407558058960332141e-11
4.591815422228918514e-11
4.615964977081486776e-11
4.420300087190480109e-11
3.994692966095904281e-11
3.412583127702747232e-11
2.799566833006623552e-11
2.318664603202792812e-11
2.003820125420506301e-11
1.666240269654838988e-11
1.188121788768866920e-11
8.744502544258141941e-12
6.876808213513023454e-12
4.590669664840941807e-12
3.374753127852694830e-12
2.347081177984292766e-12
1.600996945193312026e-12
1.094392233996912950e-12
7.474948800141533597e-13
5.138976551045852964e-13
3.567570527234989826e-13
2.519415686337226414e-13
1.813334320355561283e-13
1.332996841037665654e-13
9.995820489782432377e-14
7.613294667989261958e-14
5.850683071558057168e-14
