# bin_14_9
3.963818433904931289e-14
4.522769046253376701e-14
5.087712610945703174e-14
5.620837092732942433e-14
6.072338413261480283e-14
6.378202828306490910e-14
6.471256191016967193e-14
6.281930469755947237e-14
5.756738352169888336e-14
4.988372536515775815e-14
4.115910465298044286e-14
3.382384158868389513e-14
2.900565240952593192e-14
2.468781892819515871e-14
1.826494908575506658e-14
1.288376507544441190e-14
1.044806406711028464e-14
6.919395775623178377e-15
5.212016999454275870e-15
3.532593285198488723e-15
2.406031996114108854e-15
1.647627348537952608e-15
1.119775398949701780e-15
7.606992113549693419e-16
5.190667590863092158e-16
3.592128227291090778e-16
2.528003432473593011e-16
1.816001386460252555e-16
1.333820231151313161e-16
9.997211338973257597e-17
7.608988121866872914e-17
