# bin_15_5
1.334034745739571041e-24
1.520412236619043656e-24
1.707804490646999635e-24
1.883388311381083328e-24
2.030185481657587134e-24
2.126526628100143631e-24
2.150842567889026610e-24
2.078218396426407072e-24
1.895138840544998659e-24
1.634041401070240657e-24
1.345123108134720987e-24
1.107986714042817475e-24
9.531494306082047032e-25
8.054834020073921224e-25
5.878758591927047309e-25
4.201624963087423181e-25
3.384035079390010258e-25
2.236055636599971273e-25
1.677752171122823643e-25
1.146925088433714908e-25
7.803871694492744452e-26
5.341182082235659020e-26
3.633506337898887492e-26
2.477949874705834413e-26
1.700730195633362888e-26
1.185295964261272133e-26
8.408506260646846569e-27
6.091373409118133107e-27
4.509214490051259786e-27
3.401275896777222857e-27
2.599500093543954813e-27
