# bin_14_6
6.438184370040023792e-20
7.328545374523830135e-20
8.218523949451348488e-20
9.045727837591159851e-20
9.727130989728558409e-20
1.015744022636644027e-19
1.023800531825861576e-19
9.841787986495486045e-20
8.928015050080948132e-20
7.656909488830661443e-20
6.289612526613733330e-20
5.196224966221798951e-20
4.483074295541309771e-20
3.755168640335241607e-20
2.702853418062915422e-20
1.963651692005024178e-20
1.562436024994016142e-20
1.036269588382333575e-20
7.699435614433838925e-21
5.315001123963885709e-21
3.619828557442787013e-21
2.475485337213277520e-21
1.687167457215170211e-21
1.155808071297301332e-21
7.984660043722753027e-22
5.607334638076114277e-22
4.011512545324015410e-22
2.931230836379387751e-22
2.186702051572894649e-22
1.659239423602435498e-22
1.272579465569716834e-22
