# bin_13_13
3.291237932175303374e-11
3.764697702342992991e-11
4.248291873756413252e-11
4.711277018964145863e-11
5.113527459534920599e-11
5.402526938810676094e-11
5.517677108818300520e-11
5.408610310622417878e-11
5.011020845947729697e-11
4.389296921632493089e-11
3.644654069395320382e-11
2.984900385443932077e-11
2.539050712947923166e-11
2.185635036696129086e-11
1.667829107017609979e-11
1.155532183381094202e-11
9.344869573443922313e-12
6.365415268890751211e-12
4.733111530980417162e-12
3.164158844192797757e-12
2.184262803436876300e-12
1.491803099855308760e-12
1.009963270174801176e-12
6.808740047819280844e-13
4.592293907389958329e-13
3.130170803577778633e-13
2.164075959328832471e-13
1.524283147887179266e-13
1.097979371141333255e-13
8.090249126840473616e-14
6.080276540634300117e-14
