# bin_8_7
3.367176472676848166e-11
3.784546881817223920e-11
4.178223318604750517e-11
4.511312969281134839e-11
4.736439175390539966e-11
4.804052005343399284e-11
4.662739085331139401e-11
4.273686454983799570e-11
3.704114578269123714e-11
3.057455113940538294e-11
2.512388584832608565e-11
2.152290169094463904e-11
1.831217954285879364e-11
1.358911123034693096e-11
9.605563286613350833e-12
7.771389006277885539e-12
5.211120098744432091e-12
3.928354837827781913e-12
2.695952127714346786e-12
1.876126699821311335e-12
1.315699115965103238e-12
9.237260387734494781e-13
6.540458720678651216e-13
4.691398638263140156e-13
3.431840052436829832e-13
2.558896067824579961e-13
1.941160948428809830e-13
1.492205176241472237e-13
1.154674840754544424e-13
8.929018532643906329e-14
6.851498163691318944e-14
