# bin_5_2
2.168396659515393027e-12
2.345234404004483743e-12
2.469210344473730260e-12
2.514066793358787572e-12
2.455095435542354802e-12
2.268054141319013906e-12
1.981289073993352096e-12
1.644713611403580410e-12
1.348342606530767817e-12
1.145233747390877369e-12
9.793212850971540653e-13
7.479458205686611540e-13
5.271997621664301076e-13
4.213285328899574008e-13
2.966345345813866737e-13
2.204336468722258205e-13
1.553980529560647795e-13
1.125089841423501885e-13
8.156364652664469671e-14
5.972938643027490216e-14
4.445131479925838794e-14
3.364777410211051267e-14
2.591898356212045014e-14
2.022768630783052937e-14
1.589464392046734876e-14
1.249201505662529003e-14
9.750427492810140088e-15
7.510553035737730078e-15
5.678731985368433066e-15
4.196874046456926655e-15
3.023116650014884935e-15
