# bin_9_11
3.532938598533565164e-08
3.992382805211685740e-08
4.436573906774377065e-08
4.829023520380465345e-08
5.121461234038753629e-08
5.256209091829355118e-08
5.187579229449314011e-08
4.848602805183735479e-08
4.282529238323927126e-08
3.580566454194224299e-08
2.929199668757029355e-08
2.470894874395319968e-08
2.133954749559167744e-08
1.673819807644132971e-08
1.160765798689977913e-08
9.181965787021031392e-09
6.562644534509544796e-09
4.728009623311207772e-09
3.242970116634550059e-09
2.297270295137739261e-09
1.591760889499654294e-09
1.100822223695224757e-09
7.668879412859616059e-10
5.393760249898073017e-10
3.856562807381523659e-10
2.811464280472923835e-10
2.089585727636817287e-10
1.581255544391361057e-10
1.212223571146749753e-10
9.352289906374435099e-11
7.207155078189214383e-11
