# bin_14_14
6.220960057325016444e-09
7.116838855633015650e-09
8.032381289435443944e-09
8.909647357043223839e-09
9.673031010150419273e-09
1.022347695777677885e-08
1.044613771775371355e-08
1.024681805513377217e-08
9.501890210046129441e-09
8.329574327053091589e-09
6.920053426535421090e-09
5.664796204446066996e-09
4.812917963326936112e-09
4.144975529040626033e-09
3.173192223645000986e-09
2.196560163618033820e-09
1.772113612277907287e-09
1.213588973120032736e-09
8.984323756863385349e-10
6.007981821255203990e-10
4.157683885791468636e-10
2.836742741965962615e-10
1.918064778593003297e-10
1.292044882522668060e-10
8.704972351491372836e-11
5.924181445384383008e-11
4.088201637437715586e-11
2.873460548016464179e-11
2.065260924769686740e-11
1.518585568920799752e-11
1.139347350521439060e-11
