# bin_10_2
1.452191931997336533e-24
1.627469323173557140e-24
1.790472508685838349e-24
1.924881156229515815e-24
2.010003757815253576e-24
2.026251387340501831e-24
1.949193524028951109e-24
1.769954109890851078e-24
1.519615230864566963e-24
1.248787190952221296e-24
1.030500482077765365e-24
8.873747664763629231e-25
7.446265679343655077e-25
5.393704412168534973e-25
3.905055149381884436e-25
3.116296396253572056e-25
2.086164551034504070e-25
1.560702616140045981e-25
1.087936125316141432e-25
7.563421088137715610e-26
5.310487041785681367e-26
3.744496855243946782e-26
2.671291120766734869e-26
1.934326315619187180e-26
1.428883958468825958e-26
1.075110243269892295e-26
8.216884805942471393e-27
6.347329492470869138e-27
4.920934637969483615e-27
3.801316881108755731e-27
2.906334435721054764e-27
