# bin_12_2
2.095305665271652274e-29
2.366500821216558507e-29
2.628014773808634614e-29
2.858089789582585832e-29
3.027985564959353440e-29
3.103493442039137057e-29
3.057801642397810454e-29
2.851554446748728294e-29
2.513289316113581617e-29
2.097039837088555759e-29
1.715261966543837064e-29
1.449704433584549269e-29
1.251895885997250104e-29
9.757066292264153573e-30
6.751030741680977362e-30
5.382316915198219281e-30
3.802699056320931873e-30
2.768213763745608944e-30
1.884096717124322248e-30
1.334768718629522110e-30
9.267532566950741519e-31
6.423535085649034586e-31
4.484423540949210476e-31
3.160991321612280416e-31
2.266550158705201216e-31
1.657202218334729645e-31
1.235216465708564038e-31
9.370293862720515322e-32
7.196242942182012082e-32
5.557143164294134219e-32
4.282854637930010408e-32
