# bin_14_4
1.717693545993856526e-25
1.952426921338028387e-25
2.185486933199183974e-25
2.400070918302959097e-25
2.573743170931833418e-25
2.678223202385599785e-25
2.688759846252270647e-25
2.570133085711784074e-25
2.318518377286568306e-25
1.977000322197458742e-25
1.620645572958161082e-25
1.343344384162501136e-25
1.161347877380553562e-25
9.625447542922042779e-26
6.838607557556267012e-26
5.058240473642218875e-26
3.956665797815567578e-26
2.649846102757070277e-26
1.938129751755405331e-26
1.351668620586959551e-26
9.226177833433857995e-27
6.305913830238426465e-27
4.311522402464426491e-27
2.968327428695840695e-27
2.064614717479472618e-27
1.461236278375526338e-27
1.054201590454801099e-27
7.767342943267241759e-28
5.835784238381220835e-28
4.450724051607409555e-28
3.422369688322725234e-28
