# bin_13_1
7.345266435548267182e-37
8.320903621245796998e-37
9.274432171062452681e-37
1.013194165869445637e-36
1.079462746193717525e-36
1.114024423044251710e-36
1.107461439919870079e-36
1.044485158440312477e-36
9.303653064858648156e-37
7.834361663174189155e-37
6.407559814621868686e-37
5.365885279886413060e-37
4.646661393581844363e-37
3.733638645514530878e-37
2.595797020200100316e-37
2.007796146908485023e-37
1.489906138796625741e-37
1.040208472777283328e-37
7.262129643797986423e-38
5.160100640530355832e-38
3.551357541982261868e-38
2.437452761585356660e-38
1.685193713123817078e-38
1.175176711199630101e-38
8.312341476205984997e-39
5.992050107043831641e-39
4.405358249621807953e-39
3.303196404068159987e-39
2.516294797557634569e-39
1.935716368521380665e-39
1.492635100290072229e-39
