# bin_11_14
3.781000111979478057e-08
4.301489943904462831e-08
4.820493458794340866e-08
5.301231097327939445e-08
5.694763282845197256e-08
5.939160674339402603e-08
5.977641211949476707e-08
5.735335642602668069e-08
5.193529616407365999e-08
4.446019494960963446e-08
3.649993769924087742e-08
3.018401695328030592e-08
2.604311767792406796e-08
2.173373559073339307e-08
1.559942099484487621e-08
1.139202506546085524e-08
9.003671357547919906e-09
6.003273130627735555e-09
4.430849042797997277e-09
3.066361998103395173e-09
2.090746273165343691e-09
1.429870059311450106e-09
9.759026947947508697e-10
6.695397841695712763e-10
4.634380387795490417e-10
3.261773262324289884e-10
2.339048845282347894e-10
1.713069989697508391e-10
1.280338634819435328e-10
9.726557899660583668e-11
7.462732619326524355e-11
