# bin_14_10
1.181426669723801164e-11
1.348264461492616055e-11
1.517047013640123410e-11
1.676520255553370133e-11
1.811895630181842052e-11
1.904140353585664663e-11
1.933044376798306678e-11
1.878295882490429251e-11
1.723046108657282251e-11
1.494589615191363889e-11
1.233641893815329562e-11
1.012965716487638999e-11
8.677028362773477804e-12
7.396584263375131653e-12
5.491675969257749326e-12
3.861310370454374798e-12
3.133119576551181793e-12
2.078983998672341169e-12
1.565266764134787784e-12
1.058435447683446444e-12
7.214323032296654119e-13
4.939964162066482906e-13
3.356357723710126691e-13
2.277756964472066681e-13
1.551852637413546857e-13
1.071923112782735518e-13
7.527781087896903948e-14
5.395281349414496208e-14
3.954131418669512682e-14
2.958265063334798512e-14
2.248693291717957043e-14
