# bin_12_9
7.490892522955158600e-11
8.513427339253191540e-11
9.528029020605701613e-11
1.046134877848669422e-10
1.121541863687088898e-10
1.166681636761657399e-10
1.170821424110147826e-10
1.118559264303022264e-10
1.008528314172401037e-10
8.595165405999222660e-11
7.044912831897207615e-11
5.841729628217029979e-11
5.051082520232707234e-11
4.181712033064989726e-11
2.967667666036764956e-11
2.199082141351926120e-11
1.716934114623155242e-11
1.151351935807073987e-11
8.406288293581173309e-12
5.868356626453355850e-12
4.006712976054489784e-12
2.738584537999691027e-12
1.873171040597498546e-12
1.290272029995604911e-12
8.980622157464165015e-13
6.360951635807440043e-13
4.592821542742178869e-13
3.386649036786943719e-13
2.546130534495583367e-13
1.942699764487222264e-13
1.494128054283905840e-13
