# bin_11_12
1.700635839422672135e-08
1.933396247449936761e-08
2.164720136592776210e-08
2.377986266378983394e-08
2.551027052190376247e-08
2.655881252180728136e-08
2.667782881225333156e-08
2.552256544331467758e-08
2.304471969916174232e-08
1.966930333299820799e-08
1.613095136125293613e-08
1.336430707488147292e-08
1.154632529404071038e-08
9.583364593340331769e-09
6.828592251626702151e-09
5.034990000396350416e-09
3.946811099377706939e-09
2.642136552682816671e-09
1.936125945227286529e-09
1.347357811044048709e-09
9.194851514199060838e-10
6.286951505559051953e-10
4.297350405303864382e-10
2.956160293139551715e-10
2.053774631911249484e-10
1.451632486095925169e-10
1.045757018175705273e-10
7.693811419133948201e-11
5.772960661158543641e-11
4.398302171739488036e-11
3.379881542313830013e-11
