# bin_6_13
1.452361924053046293e-07
1.615248285921317989e-07
1.760485919827451375e-07
1.870814894625112035e-07
1.925511629378521046e-07
1.907342308058823195e-07
1.792311259907219509e-07
1.591394959779642054e-07
1.337699301549100410e-07
1.095144663386911864e-07
9.190435359163913018e-08
7.928355748601393093e-08
6.315417381431078384e-08
4.428929932864924651e-08
3.433154324878330017e-08
2.532737187890816180e-08
1.796496059864859838e-08
1.273302311500027820e-08
9.100482369269214881e-09
6.413361823050325403e-09
4.545253761558746585e-09
3.259060323116014485e-09
2.371188926062549093e-09
1.756678408730328969e-09
1.325899876213828512e-09
1.016064006078435958e-09
7.868807992074248220e-10
6.117767222314374718e-10
4.741026220100242120e-10
3.637954690262631541e-10
2.748831369489206470e-10
