# bin_10_14
5.259422129745169515e-08
5.968137469208057498e-08
6.666397987784056506e-08
7.302026705730347672e-08
7.805306682082871783e-08
8.089166411702520454e-08
8.082010565917280749e-08
7.675149088753692545e-08
6.881541155077227480e-08
5.832673985302231354e-08
4.776168749999941678e-08
3.978457371389307411e-08
3.442157653435533320e-08
2.811059629482290294e-08
1.976947775323265075e-08
1.493555211641172661e-08
1.139480828874853271e-08
7.782941478014760724e-09
5.568233874654247093e-09
3.917909887632226406e-09
2.684774072759242664e-09
1.838480977932335775e-09
1.263719370992270499e-09
8.753745168352187854e-10
6.137950080220162423e-10
4.382952888827736591e-10
3.191407510288329536e-10
2.371836262014133235e-10
1.794302700416397892e-10
1.374359380431172937e-10
1.058285102509701560e-10
