# bin_4_14
2.667064774185926340e-07
2.902910308444866784e-07
3.080767884148929752e-07
3.167320134171207406e-07
3.132833011138548536e-07
2.941474415944347043e-07
2.610531652737823482e-07
2.196177915637332335e-07
1.800486330003522518e-07
1.510443615363279463e-07
1.297687580014156810e-07
1.032999654133232368e-07
7.330571618591061306e-08
5.643832148271298443e-08
4.196326271551691500e-08
2.991979157754727314e-08
2.157737462736359016e-08
1.553525141887896534e-08
1.114954000237959963e-08
8.086181330129226930e-09
5.949633488480731736e-09
4.451580486639681702e-09
3.389997012813411038e-09
2.621896874005228098e-09
2.048110781714271470e-09
1.605772936341826409e-09
1.254854956244079343e-09
9.708764645715472554e-10
7.394380954630588865e-10
5.517998402882635593e-10
4.020842625654890112e-10
