# bin_4_4
2.610995374137156440e-08
2.821723919427588101e-08
2.968040576267560773e-08
3.018817628853869165e-08
2.943652449638984610e-08
2.715994902673739566e-08
2.369781838375212453e-08
1.967204347392721882e-08
1.614549985306019571e-08
1.371647628285165568e-08
1.169213299656463532e-08
8.913222429728371492e-09
6.318002831604691813e-09
5.019170058194579472e-09
3.549591821773077135e-09
2.625101648059465790e-09
1.859168919495466613e-09
1.345615907476318822e-09
9.753996979922656351e-10
7.146061625522463749e-10
5.321405720841993650e-10
4.030823395184604762e-10
3.106368146151562390e-10
2.424830310475651834e-10
1.905357881522692881e-10
1.497050166492451297e-10
1.167915165096737072e-10
8.990151817142491506e-11
6.792071163825271560e-11
5.015447127885665163e-11
3.609902955439606475e-11
