# bin_3_3
3.701515099039973130e-08
3.914044478816931341e-08
4.007899936733800016e-08
3.944618695359227386e-08
3.683021292891854155e-08
3.251620210738477539e-08
2.725353120630320545e-08
2.235311997101067482e-08
1.880742598543812165e-08
1.610143019493077039e-08
1.267780459970657589e-08
9.026664354094823694e-09
7.000104817282570051e-09
5.169086852688975794e-09
3.734910735492534714e-09
2.707717650465612841e-09
1.972923046777345679e-09
1.440193702925717465e-09
1.065811390548156102e-09
8.022544719994165713e-10
6.145391206795319113e-10
4.783636351691545589e-10
3.766657005669255802e-10
2.979848803183528802e-10
2.352051079835936493e-10
1.839621147398196603e-10
1.416858561930096870e-10
1.069073501679130026e-10
7.871946448110127375e-11
5.643489441992804170e-11
3.938120569814408329e-11
