# bin_13_12
2.490815558250900909e-09
2.842175784444126711e-09
3.197412044118653052e-09
3.532776827637888586e-09
3.817044231470088451e-09
4.010059435740315245e-09
4.069450771591700806e-09
3.952056206322024921e-09
3.623389522336584399e-09
3.141210837393977997e-09
2.592147967569222073e-09
2.129067098916962370e-09
1.824364731866230794e-09
1.553814326242462262e-09
1.151956576522350194e-09
8.112517872303518555e-10
6.575955882785788127e-10
4.363902747366792677e-10
3.283184596447915065e-10
2.222275254137848269e-10
1.514807666296262748e-10
1.037135112665562646e-10
7.047198423778377990e-11
4.784594389264639285e-11
3.261935771792341449e-11
2.254935142091587514e-11
1.585007299557403023e-11
1.137094122175098149e-11
8.341098597953890874e-12
6.244868309929783089e-12
4.749147023537437355e-12
