# bin_8_2
1.866938346641043697e-19
2.070292999055185686e-19
2.248375602854090341e-19
2.378581857808511823e-19
2.434475716322625005e-19
2.394330555502200134e-19
2.228940558364805652e-19
1.961395361346019234e-19
1.635245798250165817e-19
1.337958810693160470e-19
1.131313837330318500e-19
9.748537243905464976e-20
7.577232828477203476e-20
5.270992150089270574e-20
4.201237353602370160e-20
2.980824911495702897e-20
2.183773289426757283e-20
1.513583115277603966e-20
1.086102494918291209e-20
7.709865177774333924e-21
5.499352926425128894e-21
3.973384122557076999e-21
2.914143652268504841e-21
2.178271190998334614e-21
1.657355490392547645e-21
1.278321893697958946e-21
9.942576016197732329e-22
7.743275097876130699e-22
5.995912037777000001e-22
4.586866784151501379e-22
3.448932337099485998e-22
