# bin_12
0.000000000000000000e+00
0.000000000000000000e+00
0.000000000000000000e+00
0.000000000000000000e+00
0.000000000000000000e+00
0.000000000000000000e+00
1.158745421528252760e-290
1.052349073420216169e-257
6.338854906454955948e-229
1.061862304448638613e-203
1.614005884480427693e-181
5.944853136396093521e-162
1.206084103607829663e-144
2.687788076779359711e-129
1.179072925325073168e-115
1.670993837097999748e-103
1.167529048308382610e-92
5.777141994290256104e-83
2.764626447986478035e-74
1.674590518021037667e-66
1.621162845255014074e-59
3.072481603894130842e-53
1.360707833361874562e-47
1.644103314111379282e-42
6.209180161253060533e-38
8.261498227667865163e-34
4.304039917972716183e-30
9.639957161469826128e-27
1.008450902138063704e-23
5.304191109581788642e-21
1.497903952295301252e-18
2.408306707155589030e-16
2.323201078361390125e-14
1.409411920593071139e-12
5.609430423252372730e-11
1.521423538220322521e-09
2.910255332240080950e-08
4.049694825892819658e-07
4.216045860301754509e-06
3.368378281323804879e-05
2.113430436971496711e-04
1.063424252489721068e-03
4.373660903891535105e-03
1.495944082944736415e-02
4.322515979239664741e-02
1.070265934532890068e-01
2.300262332922122788e-01
4.341612575124859652e-01
7.272374633459072202e-01
1.091357503119890549e+00
1.479901372913328128e+00
1.827350221016061038e+00
2.069015579225466528e+00
2.161769520126705313e+00
2.096363387340843598e+00
1.896847118924143816e+00
1.609238313284485855e+00
1.285831732840149844e+00
9.717085877761673096e-01
6.972090523169821585e-01
4.766936084704583299e-01
3.116283540275185393e-01
1.954043564507869646e-01
1.178753506025816133e-01
6.859852061380186661e-02
3.861411231843741437e-02
2.107576170172947849e-02
1.117961669139504871e-02
5.775845154096401375e-03
2.912255837345471485e-03
1.435801643701585311e-03
1.000264437496481374e-03
