# bin_2_8
-1.166696037805972673e-17
-1.293585876763628936e-17
-1.404579867081066011e-17
-1.485519362365927500e-17
-1.519897902298648852e-17
-1.494051412841634723e-17
-1.389911416515057232e-17
-1.222334484303120279e-17
-1.018648447346659983e-17
-8.337560501610030689e-18
-7.056769569899110854e-18
-6.079306570750229413e-18
-4.713684683492948161e-18
-3.279965672334054699e-18
-2.620578151106981719e-18
-1.852379544163203205e-18
-1.361896657766923472e-18
-9.427683052821022783e-19
-6.763957469074632918e-19
-4.806442306604102076e-19
-3.432088207740937181e-19
-2.482327817873795093e-19
-1.822532725609531520e-19
-1.363853140391626210e-19
-1.038724552881473107e-19
-8.017941219508800572e-20
-6.239325363750003238e-20
-4.860072290107514412e-20
-3.762922549401375166e-20
-2.877574804256979752e-20
-2.162438374265495210e-20
