# bin_10_6
-2.123008221459873898e-11
-2.392557085192479021e-11
-2.649951887775521575e-11
-2.872573793725425583e-11
-3.030929592860704685e-11
-3.091568941190184419e-11
-3.025469143768223159e-11
-2.798586950517370645e-11
-2.447656666545324549e-11
-2.030919848584590077e-11
-1.663823477719280714e-11
-1.416010355977358428e-11
-1.216732737986700886e-11
-9.262335032058271025e-12
-6.443202073308110540e-12
-5.209549369549978962e-12
-3.563174998126139968e-12
-2.660148471356914079e-12
-1.805752184942046854e-12
-1.266608514244848384e-12
-8.851852775758554588e-13
-6.183902732101156628e-13
-4.347828642373396259e-13
-3.090712378580943553e-13
-2.238596377221073700e-13
-1.653313320202198816e-13
-1.243777341964818130e-13
-9.504074852038044777e-14
-7.331813031966621007e-14
-5.669650284243632361e-14
-4.362585364809090575e-14
