# bin_10_3
-9.012057681585651465e-19
-1.010691793890640469e-18
-1.112862879661108387e-18
-1.197637562675254948e-18
-1.252199091217251494e-18
-1.264140149889164508e-18
-1.218505497693455568e-18
-1.108707978917835853e-18
-9.538785469955944493e-19
-7.846253026270528599e-19
-6.469585723104585406e-19
-5.567421728388743839e-19
-4.687213493003611837e-19
-3.410316929474451244e-19
-2.456257811803873071e-19
-1.969124384817873336e-19
-1.315680445323154614e-19
-9.880182197168981057e-20
-6.866664805877692788e-20
-4.772009446083287796e-20
-3.350932577900288829e-20
-2.361093444552859179e-20
-1.682341892120918161e-20
-1.216348663583387158e-20
-8.971335693381220287e-21
-6.740747858885068856e-21
-5.146195152708340107e-21
-3.972767912696387655e-21
-3.079587952117469911e-21
-2.379761350530057142e-21
-1.820860579537300995e-21
