# bin_3_1
-1.338654010631871276e-09
-1.396129628523882571e-09
-1.406319864992735573e-09
-1.353411335556981688e-09
-1.231647100258062037e-09
-1.060582949780669526e-09
-8.747995591586850656e-10
-7.220738777070196550e-10
-6.176840758857389381e-10
-5.171563123165763842e-10
-3.828251241244672246e-10
-2.785962837029024182e-10
-2.199060231322579386e-10
-1.546573275433192910e-10
-1.155409851953227808e-10
-8.319747350001089523e-11
-6.086892267579992064e-11
-4.504386008903378464e-11
-3.384026892773199232e-11
-2.588508887705154371e-11
-2.013087131825643327e-11
-1.586854782731268413e-11
-1.259503742365998129e-11
-9.994021634493065587e-12
-7.872571349541169032e-12
-6.115835965914274020e-12
-4.659244789156331215e-12
-3.465704885275026788e-12
-2.509811900574821936e-12
-1.768236529054625459e-12
-1.213364632358636934e-12
