# bin_6_7
-1.082156188503225470e-08
-1.207927647831149040e-08
-1.322412502713089541e-08
-1.413027907467350090e-08
-1.464060522523752708e-08
-1.462589721439899768e-08
-1.388990520657011382e-08
-1.245537865794075401e-08
-1.055920913236551200e-08
-8.647207798897252113e-09
-7.200955219545164529e-09
-6.228804967434703075e-09
-5.091196851848348092e-09
-3.587309896880295828e-09
-2.711916148051944051e-09
-2.078523378277504876e-09
-1.428547008831384782e-09
-1.033519787413759699e-09
-7.372806575077725451e-10
-5.159454617368071462e-10
-3.632703295943824735e-10
-2.584799819663689799e-10
-1.865664497087429735e-10
-1.369854481516717266e-10
-1.025584363560790566e-10
-7.808117781403219321e-11
-6.021625002963103774e-11
-4.675190894275171220e-11
-3.627920936564722038e-11
-2.794164902153232683e-11
-2.123079914599097695e-11
