# bin_15_12
-1.528007985138156118e-09
-1.750018114737186211e-09
-1.977841930799920029e-09
-2.197446902200311121e-09
-2.390487558660726316e-09
-2.532735158226698507e-09
-2.595306238742135814e-09
-2.555833433042790532e-09
-2.381141495093399083e-09
-2.096726217902809879e-09
-1.747728416597321118e-09
-1.430040434598850004e-09
-1.210940823597329789e-09
-1.045956868005965421e-09
-8.109053146676002216e-10
-5.597467683093877291e-10
-4.486965182867990590e-10
-3.127900879862770338e-10
-2.287546443801164563e-10
-1.529696371148398173e-10
-1.067331568200776535e-10
-7.264094846783343612e-11
-4.895552751503359857e-11
-3.288696973827265275e-11
-2.206868830400447502e-11
-1.493225956508617592e-11
-1.023195837913619248e-11
-7.132837433752810295e-12
-5.082507876249829823e-12
-3.706886799794905596e-12
-2.762776443536427695e-12
