# bin_9_3
-1.475467804952425517e-16
-1.647804644196595385e-16
-1.805124452077572944e-16
-1.930337563628913125e-16
-2.002046750639368564e-16
-2.002419807101027474e-16
-1.904725768676846919e-16
-1.710619309748424174e-16
-1.452364954804857695e-16
-1.189707415974095633e-16
-9.895346826896088059e-17
-8.557850162628855088e-17
-7.020574489670978283e-17
-4.959005634557699239e-17
-3.729396320477596817e-17
-2.875505144028012969e-17
-1.966895765021257073e-17
-1.429901832072191315e-17
-1.017904801497803188e-17
-7.115625993444526323e-18
-5.006762642425467617e-18
-3.557999657340728934e-18
-2.564581834850143843e-18
-1.880049456777780329e-18
-1.405466972933071546e-18
-1.068681464552134555e-18
-8.234231102801920288e-19
-6.390273032925641793e-19
-4.958993956478907089e-19
-3.821116728915359947e-19
-2.905749622964493611e-19
