# bin_14_8
-3.265675724390612479e-13
-3.722890333884723825e-13
-4.183150230346420730e-13
-4.615118184245624480e-13
-4.977349458237709438e-13
-5.216870430688514819e-13
-5.280298927283700080e-13
-5.107430901291292240e-13
-4.662605868284739480e-13
-4.024718934986014479e-13
-3.314681925792867126e-13
-2.728739532695584832e-13
-2.345871830684278867e-13
-1.985900047360260707e-13
-1.453698797223392750e-13
-1.035605623372536398e-13
-8.358835704861199395e-14
-5.521644058062953373e-14
-4.149539294834657066e-14
-2.831056126824043593e-14
-1.926158561551014124e-14
-1.318546772697233496e-14
-8.967260752034381907e-15
-6.109879876713318143e-15
-4.187880874189769211e-15
-2.914040725604896751e-15
-2.063546859410141040e-15
-1.492127958704362842e-15
-1.102698735141139623e-15
-8.306502914322327313e-16
-6.343178687208960714e-16
