# bin_7_9
-1.321698314604683468e-12
-1.486159396951710052e-12
-1.641499271297440228e-12
-1.773235208614419530e-12
-1.862739453034058383e-12
-1.890419662210152908e-12
-1.836122771630098943e-12
-1.684180610753688188e-12
-1.460815234188577002e-12
-1.206424165044649703e-12
-9.914482331980438357e-13
-8.493092529040263694e-13
-7.232194815420142700e-13
-5.375175202122868952e-13
-3.796638192790785866e-13
-3.073196987038615223e-13
-2.062588722409729471e-13
-1.555032509410616601e-13
-1.066675808672730056e-13
-7.426687523615338447e-14
-5.209018289830542953e-14
-3.657372769533257194e-14
-2.589296119565839433e-14
-1.856827002908404480e-14
-1.357900191562035195e-14
-1.012195641117035873e-14
-7.676478928024102074e-15
-5.900130090027456178e-15
-4.565457418322786567e-15
-3.530903430964034982e-15
-2.710123512425881495e-15
