# bin_13_12
-4.340549619308128022e-11
-4.947362866522200778e-11
-5.557701050650941379e-11
-6.129864621321513900e-11
-6.608672088036817866e-11
-6.923633162000797411e-11
-7.004333487146973347e-11
-6.770301234111297674e-11
-6.176766379759449329e-11
-5.328310174840074768e-11
-4.387747280002432715e-11
-3.613958678682576385e-11
-3.107459040780689447e-11
-2.626822411393039286e-11
-1.920440129590551411e-11
-1.371678532235010135e-11
-1.103774326749519230e-11
-7.310338722756850363e-12
-5.477116571381630518e-12
-3.741403069845519685e-12
-2.547742983514850518e-12
-1.743692858516946476e-12
-1.186390673194939374e-12
-8.088533930978232915e-13
-5.548775002588786786e-13
-3.864619117211738544e-13
-2.739507595600674682e-13
-1.982935609802850306e-13
-1.466676965830806244e-13
-1.105475191815970093e-13
-8.443753657270346858e-14
