# bin_8_7
-1.129031565534494407e-10
-1.261076971379745015e-10
-1.381625051956553659e-10
-1.477571386200138528e-10
-1.532553684687836329e-10
-1.532731456152871872e-10
-1.457972880377955768e-10
-1.309602834588027783e-10
-1.112313994734674032e-10
-9.117961522157121565e-11
-7.588654530667660297e-11
-6.559249656911850744e-11
-5.375519170310405690e-11
-3.807113390697012373e-11
-2.862694874065086564e-11
-2.203070509818483650e-11
-1.511806401018151311e-11
-1.098777477095301206e-11
-7.805187807071538913e-12
-5.459617658977551506e-12
-3.845321873695267067e-12
-2.733633517287405885e-12
-1.970337008744653086e-12
-1.444256061123312862e-12
-1.079479883399701950e-12
-8.206160752080226431e-13
-6.321152065582959253e-13
-4.904320639718005258e-13
-3.805081989303321100e-13
-2.931648150387137668e-13
-2.229353282257509786e-13
