# bin_15_6
-6.207320779327629946e-10
-6.902660220749051101e-10
-7.522111274420582091e-10
-7.991741343810368329e-10
-8.222974803433104428e-10
-8.141942495266798792e-10
-7.646559011748582313e-10
-6.785958008993480045e-10
-5.702016920976932618e-10
-4.669448645021420155e-10
-3.922016418601514218e-10
-3.383284298615861569e-10
-2.689802374047303093e-10
-1.885867519438725424e-10
-1.465259439096442133e-10
-1.077789104214230144e-10
-7.664844383773807483e-11
-5.424248946110469850e-11
-3.878512644511993036e-11
-2.735020716136563894e-11
-1.939363563317651036e-11
-1.391447838457097221e-11
-1.013043924586875283e-11
-7.510585435811773646e-12
-5.672505906112204442e-12
-4.349251484380967191e-12
-3.369447197155972861e-12
-2.620048048698965676e-12
-2.030347129249747110e-12
-1.557616711132546958e-12
-1.176507680165218337e-12
