# bin_1_10
-1.280794645263981702e-31
-1.433180547578946553e-31
-1.573653519833841102e-31
-1.687549468441818623e-31
-1.756377442354491553e-31
-1.763809268631378951e-31
-1.687070204613955329e-31
-1.523295250928611007e-31
-1.300335789260040831e-31
-1.066907824913739599e-31
-8.843831111423844732e-32
-7.639549858494470272e-32
-6.338198576640021919e-32
-4.525306322933463079e-32
-3.344977145469062585e-32
-2.625370218593534790e-32
-1.773978459218205686e-32
-1.309385121993371700e-32
-9.239137701411504045e-33
-6.439997577448892046e-33
-4.526264576111030961e-33
-3.204452849257083795e-33
-2.299125712552284054e-33
-1.676287987830201050e-33
-1.246600900703435630e-33
-9.435836328331003931e-34
-7.245741480920999816e-34
-5.613130181538663472e-34
-4.355470834012904011e-34
-3.361026404798267636e-34
-2.562994277062656458e-34
