# bin_5_15
-1.016758768546011324e-26
-1.158494154876692771e-26
-1.300820239169083478e-26
-1.433946081756967977e-26
-1.544893101408971453e-26
-1.617121928710883865e-26
-1.634382285796987282e-26
-1.577429997873882095e-26
-1.436800431318642666e-26
-1.237385450624624183e-26
-1.018083152927577784e-26
-8.391162365180252532e-27
-7.223534893026654867e-27
-6.093194893443859247e-27
-4.433044265985503151e-27
-3.179252182128452622e-27
-2.554859826897952267e-27
-1.688589041280924265e-27
-1.264901102097607053e-27
-8.665193870336209005e-28
-5.896197643463785971e-28
-4.034811695477719683e-28
-2.745663529217407248e-28
-1.874267877165879903e-28
-1.288218053853045583e-28
-8.993099017959333780e-29
-6.391681537041778493e-29
-4.639328707451304015e-29
-3.440398277691769314e-29
-2.598685960552925223e-29
-1.987814372217254636e-29
