# bin_1_3
-6.592808151480779310e-13
-6.837491790850442970e-13
-6.840602273068638943e-13
-6.522751880493768427e-13
-5.880638022161145969e-13
-5.019765002648595029e-13
-4.129078515568999472e-13
-3.427580002377684851e-13
-2.940450697690006613e-13
-2.421586405331120913e-13
-1.762968468281524548e-13
-1.310360498187832584e-13
-1.018510069245695412e-13
-7.193615173418116880e-14
-5.349611814354937628e-14
-3.879510711296339853e-14
-2.843350232915987953e-14
-2.113053263711987766e-14
-1.596079793188737704e-14
-1.227490095099376019e-14
-9.592924494668569229e-15
-7.588280094095361431e-15
-6.033622566797795018e-15
-4.787735170372786529e-15
-3.765141041981496410e-15
-2.915663438496661760e-15
-2.211393097892666620e-15
-1.636154254202525715e-15
-1.178062463323211072e-15
-8.253151993358324100e-16
-5.634542732724461247e-16
