# bin_1_7
-4.361253846295326935e-23
-4.787857622051921898e-23
-5.135061281661512115e-23
-5.347142214042441052e-23
-5.373672157039978441e-23
-5.147688069495185827e-23
-4.656516897527415462e-23
-3.983189462401426399e-23
-3.271361803167282220e-23
-2.707978504413319605e-23
-2.333987500569455420e-23
-1.942221752569923601e-23
-1.399404713071840384e-23
-1.029186937208172032e-23
-8.122242559697916927e-24
-5.541191396856514478e-24
-4.130106620923508139e-24
-2.936536445243770032e-24
-2.085236907759345223e-24
-1.498888368764918379e-24
-1.089286541839430972e-24
-8.043482286320938556e-25
-6.043127130670336729e-25
-4.622887108571893935e-25
-3.584359263774765733e-25
-2.800989869719718960e-25
-2.191420219908956761e-25
-1.704284673711414780e-25
-1.309263550278445474e-25
-9.882520277183109926e-26
-7.298905181116514257e-26
