# bin_15_9
-2.646964310959276597e-10
-2.993005693018851499e-10
-3.328462245393468697e-10
-3.626128240600402622e-10
-3.849931091215917096e-10
-3.956484770434294038e-10
-3.911335700028371296e-10
-3.663499345072585919e-10
-3.242412042078522965e-10
-2.716049754542603541e-10
-2.222738655700384396e-10
-1.872575747505068538e-10
-1.618012118889092832e-10
-1.275629118368831345e-10
-8.859874019442506065e-11
-6.973138790659974231e-11
-5.024359498779621026e-11
-3.596719529707376394e-11
-2.478577739932880225e-11
-1.755531399211656298e-11
-1.214838632139216411e-11
-8.390500111906155716e-12
-5.835948120213360771e-12
-4.097168955819019113e-12
-2.922784586139495106e-12
-2.125607116451939605e-12
-1.576143775690437464e-12
-1.190341861434599065e-12
-9.112538204466976483e-13
-7.025377283714235411e-13
-5.414099465238469685e-13
