# bin_11_11
4.341907820678160710e-06
4.943865995406583228e-06
5.546434090771240177e-06
6.107618376366576734e-06
6.571600152345158751e-06
6.867496350647665525e-06
6.927889016449936440e-06
6.668057062130797178e-06
6.056421996988456009e-06
5.200744116903035771e-06
4.273932586476210506e-06
3.528196637725799164e-06
3.042172096561251511e-06
2.554068835189360524e-06
1.844040658728432604e-06
1.334176432345087708e-06
1.065422024631136588e-06
7.053145608404647676e-07
5.257322141134391730e-07
3.620555941108759834e-07
2.464637656700079818e-07
1.685796637159361623e-07
1.148224834383147737e-07
7.857145713277731075e-08
5.419401630727859943e-08
3.798949734139480282e-08
2.712402970127877467e-08
1.978017490751747062e-08
1.473034126103936614e-08
1.116277711704399913e-08
8.555464246890589464e-09
