# bin_12_3
1.015288859002544600e-20
1.147810610508714897e-20
1.276140087410840748e-20
1.389832408831950069e-20
1.475018634662259924e-20
1.514945580516936349e-20
1.496724844729367374e-20
1.400444027620356923e-20
1.238250077269287621e-20
1.035919389999031301e-20
8.473896735536804540e-21
7.145673406747121302e-21
6.179108056849866456e-21
4.857965789818222676e-21
3.361684235366074414e-21
2.662235062418315183e-21
1.905811811641922692e-21
1.372812614210214244e-21
9.382506572418676123e-22
6.665783981686535535e-22
4.617344053319375892e-22
3.191084122879281176e-22
2.222162052764958774e-22
1.561767787038633127e-22
1.115745558235560758e-22
8.127052305809884186e-23
6.035917120308933557e-23
4.565388594381639050e-23
3.499367840165549331e-23
2.700249242917053807e-23
2.081891791795094878e-23
