# bin_11_1
1.405298118370693394e-27
1.581093999682540606e-27
1.747701431564780895e-27
1.889881628808131682e-27
1.987957413425259467e-27
2.020677522217252219e-27
1.967448854783001414e-27
1.809584079085953817e-27
1.573857264098473151e-27
1.301595441985857505e-27
1.068212639061866459e-27
9.128777467757824270e-28
7.798384912974004399e-28
5.843547507303301841e-28
4.102724812913028077e-28
3.321722023236211921e-28
2.241616155863658713e-28
1.685486797293677894e-28
1.151386442146703044e-28
8.032340274074624193e-29
5.626298583699265930e-29
3.942748373193536632e-29
2.783836020355696644e-29
1.989684442247459741e-29
1.449854682245980581e-29
1.077067237917899916e-29
8.144487151161688352e-30
6.246682438565450354e-30
4.828298396355666370e-30
3.733908068752508940e-30
2.868343312959382733e-30
