# bin_8_1
1.247188232647855479e-19
1.381202086474369146e-19
1.497542563755807288e-19
1.580981510060266311e-19
1.614173064968268307e-19
1.582054432826625777e-19
1.466737460237924350e-19
1.285655745277489494e-19
1.068982984056620842e-19
8.755451449074336403e-20
7.429923087255806581e-20
6.384931756189180861e-20
4.904649120191832143e-20
3.422909628082948028e-20
2.746217352328907585e-20
1.920351119638294651e-20
1.423090389565044757e-20
9.848249675975693326e-21
7.046104713732796884e-21
5.016702683477038440e-21
3.590434064866626821e-21
2.602596743626101183e-21
1.915474729708058083e-21
1.437034897154017960e-21
1.096812278563628870e-21
8.479699615276303050e-22
6.604115122855109942e-22
5.144302395188084641e-22
3.980103556284962079e-22
3.039549988158946045e-22
2.279928587695417604e-22
