# bin_15_7
5.540498136748201931e-14
6.321276128517049519e-14
7.110142410733318829e-14
7.854215726440019549e-14
8.483816125030299456e-14
8.909432138217516432e-14
9.037469827891705546e-14
8.770218235362489270e-14
8.034157095574636997e-14
6.959344386702483000e-14
5.741100730621137415e-14
4.718609845704660337e-14
4.047442172682123209e-14
3.443383610217012337e-14
2.544974318006665271e-14
1.796617194821426924e-14
1.456650693399971162e-14
9.641903290398701490e-15
7.262978335573071003e-15
4.925607657632878107e-15
3.354111856087878283e-15
2.296839514812676452e-15
1.561060453171043430e-15
1.060756180174471382e-15
7.241042472456654231e-16
5.013572336838968393e-16
3.530387919742268534e-16
2.537632970155441528e-16
1.864941929255333238e-16
1.398495059995480367e-16
1.064773129385326803e-16
