# bin_14_9
4.481762935210289976e-09
5.113353186020687471e-09
5.751493627288349955e-09
6.353408312895104850e-09
6.862733474518570761e-09
7.207063379801699465e-09
7.310679145063705774e-09
7.094553376471544706e-09
6.499165560893372098e-09
5.629741080702714222e-09
4.644237348666838450e-09
3.817062694299611039e-09
3.274131655240732486e-09
2.785554422703883442e-09
2.058795783004335063e-09
1.453321105911166290e-09
1.178406779149363642e-09
7.799429526913958082e-10
5.875605997079520671e-10
3.984636602201393917e-10
2.713233006633247847e-10
1.858004069072204529e-10
1.262808234608127477e-10
8.580847072775323897e-11
5.857483150784267871e-11
4.055579746100151089e-11
2.855771711561317296e-11
2.052700588084489076e-11
1.508547837966958110e-11
1.131236953019574713e-11
8.612928933400757364e-12
