# bin_13_8
2.294510436735165753e-09
2.611749558160252614e-09
2.928807251759008975e-09
3.223443223161457479e-09
3.466057841813480806e-09
3.619121109597983596e-09
3.647522711401483540e-09
3.505902032792874636e-09
3.179930439855986712e-09
2.726786701189627203e-09
2.239686567921362504e-09
1.850456790810732548e-09
1.596669129149885061e-09
1.337158991413531323e-09
9.619955863018996344e-10
6.991935850998480278e-10
5.562436887254076635e-10
3.688690792741846075e-10
2.740535156326371348e-10
1.892325644740940791e-10
1.288750581831939345e-10
8.813053460920392430e-11
6.006488407283529414e-11
4.115259310355400313e-11
2.843441678891523624e-11
1.997262080262335548e-11
1.429182518898008678e-11
1.044563117389604595e-11
7.794197981441709906e-12
5.915211715689230773e-12
4.537328203239235426e-12
