# bin_14_5
1.044782888486982969e-17
1.188552409210261478e-17
1.331846443724787456e-17
1.464499384777669595e-17
1.572954620893674568e-17
1.640064432458026041e-17
1.650243456555654008e-17
1.582431461708189400e-17
1.431958919112583914e-17
1.224959883590315477e-17
1.005335409208026227e-17
8.318872158027531124e-18
7.185470793966587127e-18
5.990794656590351195e-18
4.285230095045826933e-18
3.139430639531499560e-18
2.479739458931526065e-18
1.650943418397648913e-18
1.218631886175123425e-18
8.453126735640395905e-19
5.762487762546276651e-19
3.939510749017400135e-19
2.688482060958244621e-19
1.845979978423432027e-19
1.279314232355889339e-19
9.016925313142570848e-20
6.476304730922647788e-20
4.750985784235062132e-20
3.556405947176102111e-20
2.705349443043157303e-20
2.077720524672431219e-20
