# bin_15_1
8.585328972719437381e-37
9.776829357378986740e-37
1.097025538676199977e-36
1.208263990480397562e-36
1.300376612602271944e-36
1.359355975888938299e-36
1.371796448039374650e-36
1.321061980312152670e-36
1.200584514008261102e-36
1.031577393522030288e-36
8.479866821684948329e-37
6.998307419975562877e-37
6.031865587019105682e-37
5.068393507168447807e-37
3.665744187105047960e-37
2.647724673603574197e-37
2.116197670094634178e-37
1.401308015704277770e-37
1.045036374527477402e-37
7.189110083135299746e-38
4.894222388625925635e-38
3.347966968695152942e-38
2.280184185418081621e-38
1.559563690515104257e-38
1.074933650330059642e-38
7.528850188085008395e-39
5.370478846077319875e-39
3.912619395336199451e-39
2.911149076807799682e-39
2.204522314386021437e-39
1.688822630518251819e-39
