# bin_15_10
8.083919330489370029e-09
9.243000581910189297e-09
1.042495154892456692e-08
1.155392701905652275e-08
1.253086577184660518e-08
1.322652183964101258e-08
1.349369328658521804e-08
1.320623313905665028e-08
1.221302435730981019e-08
1.067882882776718019e-08
8.856747106278603547e-09
7.256496657419772129e-09
6.181521862057664697e-09
5.313379507670532213e-09
4.033521739624904861e-09
2.800029244535209018e-09
2.268837357285839693e-09
1.535248982986635539e-09
1.146295089251078023e-09
7.673336235112531485e-10
5.279611077160065601e-10
3.609159134953122276e-10
2.446154495001755216e-10
1.651087364491566230e-10
1.115615767443971320e-10
7.623063519899064220e-11
5.285917328755436643e-11
3.735725199813531288e-11
2.700207282817174397e-11
1.995848872768283812e-11
1.503681318142128378e-11
