# bin_14_1
1.116432588178610058e-34
1.268496669871525177e-34
1.419171190120449972e-34
1.557497338850989317e-34
1.668813688548378354e-34
1.734663197841999670e-34
1.739262846769478190e-34
1.659441863778761008e-34
1.494396724124385389e-34
1.272049838135632890e-34
1.042567069851562636e-34
8.657206984546031042e-35
7.489683603285181414e-35
6.180737674534403544e-35
4.373733269863789796e-35
3.259340915715370183e-35
2.530464483321487172e-35
1.704312901193018384e-35
1.237734697227809179e-35
8.666611684524181936e-36
5.922996076927884071e-36
4.049174194805096150e-36
2.773036266886457100e-36
1.913046448601158799e-36
1.334216547623139427e-36
9.471138058701036219e-37
6.854324801315826317e-37
5.065448073280223805e-37
3.815213519545775853e-37
2.914591413721807561e-37
2.242798364235047552e-37
