# bin_14_13
2.490291714598327892e-06
2.851174148338066247e-06
3.221070285965578231e-06
3.576994253701120113e-06
3.888927968174021189e-06
4.117316322835772568e-06
4.215358732361441798e-06
4.146265902848572629e-06
3.857245680391164685e-06
3.391869345798061477e-06
2.824321433833216078e-06
2.311380663365955355e-06
1.959611909288938766e-06
1.691354893594252669e-06
1.305812781976974307e-06
9.019437287430304426e-07
7.249877228256249081e-07
5.021489443862945777e-07
3.690489862885742389e-07
2.465767554956159277e-07
1.715725196979232783e-07
1.168849770893172023e-07
7.887829732118000965e-08
5.303681859736924682e-08
3.563579507206842166e-08
2.415800284509879812e-08
1.659224742943035172e-08
1.159831459772054010e-08
8.288473933520931863e-09
6.062005488898794517e-09
4.528610506976214114e-09
