# bin_9_7
8.444188639975948983e-07
9.518747946442925267e-07
1.054604428943780206e-06
1.143636796832528580e-06
1.207256215326177519e-06
1.232102154773502659e-06
1.206710233577162303e-06
1.117281357806824620e-06
9.780724788913131944e-07
8.120980325515653897e-07
6.652129653613160065e-07
5.656978943863377891e-07
4.863669064911814160e-07
3.712691873744254922e-07
2.581127318559845305e-07
2.083482480164473485e-07
1.430584188827209770e-07
1.064769609825740427e-07
7.228660723960057491e-08
5.076610261694025764e-08
3.544559233063778319e-08
2.473433508448681088e-08
1.737225786017887297e-08
1.233391952458708240e-08
8.920504877744437890e-09
6.578767730166086741e-09
4.942709053556299151e-09
3.773041908101427823e-09
2.908862977935554331e-09
2.248980926093651582e-09
1.730890495218711971e-09
