# bin_10_8
1.001893634686278039e-06
1.134227867664013325e-06
1.263162996345042529e-06
1.378542358506531564e-06
1.466801417365853049e-06
1.511260529932044040e-06
1.499206412964294227e-06
1.410022663028263578e-06
1.252749019929010417e-06
1.052436019106504418e-06
8.608522201529602689e-07
7.228629407307483730e-07
6.259033093745626799e-07
4.990356574202265670e-07
3.460189085059401183e-07
2.702635618248392411e-07
1.979112032015616274e-07
1.398090791607623007e-07
9.666537430974079044e-08
6.880347674421561830e-08
4.746564967876739748e-08
3.264903598218775238e-08
2.263523106491660313e-08
1.583083083439482527e-08
1.123961251141759446e-08
8.134125974772639764e-09
6.003494497217867866e-09
4.516890867472449187e-09
3.449494893717886424e-09
2.657213924161831718e-09
2.049295625639663934e-09
