# bin_4_3
4.242379988447813512e-09
4.558244082164695005e-09
4.759668892747902869e-09
4.799812763251498596e-09
4.624032319279586692e-09
4.210101413531007433e-09
3.625965654086119921e-09
2.988558672379951172e-09
2.465264964045576174e-09
2.112367882785409409e-09
1.773109335638481200e-09
1.306868295182486187e-09
9.468125483388705216e-10
7.514867202261056080e-10
5.210190599195429089e-10
3.898687946049929549e-10
2.775747578550796347e-10
2.004541237987747378e-10
1.462693060448714748e-10
1.080700589652898438e-10
8.120926015673610425e-11
6.207906910872377252e-11
4.822572004185780339e-11
3.786005311042782714e-11
2.983999399442695488e-11
2.345007099702766484e-11
1.824815778722317561e-11
1.397779041658643721e-11
1.048706837966529617e-11
7.677746629040244296e-12
5.473682558816602721e-12
