# bin_2_1
6.901908381539436497e-09
6.945209523010770111e-09
6.681635882641600404e-09
6.086793257188180116e-09
5.251962471997364662e-09
4.347055336587898588e-09
3.592782616105394376e-09
3.058184272973924072e-09
2.550517701303443177e-09
1.913359359015860357e-09
1.398252817765296875e-09
1.089287659060309163e-09
7.837202939191172304e-10
5.805086723771280327e-10
4.229348552179809339e-10
3.125545540237294348e-10
2.336358324788611687e-10
1.776257198354881445e-10
1.375381032877741135e-10
1.081935481088873510e-10
8.607582834216028491e-11
6.877418635242271519e-11
5.477975077930771061e-11
4.319452215095719947e-11
3.350463999639819439e-11
2.543151952967430433e-11
1.881904307611134978e-11
1.355013870183413277e-11
9.493833044151702501e-12
6.484809818135813758e-12
4.330880026694262425e-12
