# bin_1_1
9.632941311407980469e-08
9.190709566396741308e-08
8.320513302644407974e-08
7.158893735612959269e-08
5.947200566253864601e-08
4.938187726405569433e-08
4.171385939087083475e-08
3.425523673207848009e-08
2.591906442786211916e-08
1.918057430728921461e-08
1.465609080582517280e-08
1.076053065713802240e-08
7.925436470138240569e-09
5.852056933337832928e-09
4.363849815732608313e-09
3.300963213958439500e-09
2.542578466283602547e-09
1.993301250186534727e-09
1.584708700817021594e-09
1.270274366101888849e-09
1.019214992907287912e-09
8.125494535889868359e-10
6.393461294115414340e-10
4.936525701910617836e-10
3.723576283856414710e-10
2.736050089502161416e-10
1.956583703590669826e-10
1.362762259473351675e-10
9.264915490868498091e-11
6.166499259666315669e-11
4.030922983044722807e-11
