# bin_10_6
9.929740736903318513e-13
1.117894263440514891e-12
1.236630200007265969e-12
1.338484235798405258e-12
1.409594019607006524e-12
1.434689400252171418e-12
1.399598908630943254e-12
1.290014705962003381e-12
1.124316216558386823e-12
9.308616394335731227e-13
7.633536001262190896e-13
6.514060826733890203e-13
5.578815388773676203e-13
4.204368859533256791e-13
2.939321517549454786e-13
2.381637491271214561e-13
1.612570656339881008e-13
1.211249754422259441e-13
8.247912637536079291e-14
5.761526056317368805e-14
4.033174271833524987e-14
2.823467777861413262e-14
1.990077124268741788e-14
1.419273296861477370e-14
1.031718761181104829e-14
7.646870976069119688e-15
5.771004208550768771e-15
4.420169564554979381e-15
3.414284944761955140e-15
2.640656584098638480e-15
2.030084084115541873e-15
