# bin_4_6
1.116116406230431161e-07
1.211386283117126352e-07
1.281047701436615598e-07
1.311330117833311733e-07
1.289692465206976893e-07
1.202242592068005446e-07
1.059553216563807180e-07
8.862401676824237113e-08
7.266768669811835965e-08
6.130238608270822698e-08
5.256737355336348770e-08
4.111410387522934049e-08
2.906758610780665074e-08
2.274387395129022679e-08
1.654721441118165685e-08
1.198423279105561637e-08
8.560986000586185048e-09
6.188901541922675698e-09
4.459715636466738956e-09
3.247544169858347286e-09
2.401757663598556720e-09
1.806756613502591530e-09
1.383302660126069181e-09
1.074476277285583626e-09
8.417798949808900705e-10
6.608536471439302954e-10
5.162638153086648961e-10
3.987077873646287694e-10
3.027200856683762361e-10
2.249566136371016882e-10
1.631003738723083424e-10
