# bin_3_2
5.184812054848433381e-09
5.436521208847415191e-09
5.511045626173943577e-09
5.350630166728977435e-09
4.916592437578460592e-09
4.273988761564989634e-09
3.543776137622597005e-09
2.915000560925505480e-09
2.479708198906644822e-09
2.099715742384547373e-09
1.590589792973717900e-09
1.140687579022913882e-09
9.013619887035938967e-10
6.417551764966002811e-10
4.758793897662623197e-10
3.417728080305768009e-10
2.499958106487835659e-10
1.840820565040246413e-10
1.374811666178799431e-10
1.045258069843518653e-10
8.083696504387494061e-11
6.344130731784992882e-11
5.022408403244928819e-11
3.982609158620259397e-11
3.141146488449973425e-11
2.447632338988782970e-11
1.873250041008469384e-11
1.401505691353163124e-11
1.021683335201656022e-11
7.247026626366062265e-12
5.004906944638119327e-12
