# bin_5_10
1.532434825224100775e-07
1.686840447442257570e-07
1.815334443298895388e-07
1.898682894800653785e-07
1.917930852793885696e-07
1.851470028348735155e-07
1.689071121156526884e-07
1.457368448956841043e-07
1.202218024220457590e-07
9.912369958874120988e-08
8.491930549975740848e-08
7.146511952470854175e-08
5.277025050314538156e-08
3.803036150299082519e-08
3.018991273037050328e-08
2.078840839132558365e-08
1.546815920350284956e-08
1.087613475528438877e-08
7.742310477893613504e-09
5.546934959597291009e-09
4.008855617187161242e-09
2.939937264288973123e-09
2.192256600121649925e-09
1.665277081740411255e-09
1.283927468721886665e-09
9.994935264215364721e-10
7.806702225665039381e-10
6.074166852002541970e-10
4.677425757264957476e-10
3.544779017468430706e-10
2.632255960863907392e-10
