# bin_6_10
1.067670078715398385e-07
1.185784357137430563e-07
1.290213964054749182e-07
1.368142191792343128e-07
1.404439284276654928e-07
1.386387926541949000e-07
1.297030243793054181e-07
1.146821634450508998e-07
9.605818765502576085e-08
7.865829139549255940e-08
6.626340788325952388e-08
5.710802290325193809e-08
4.496280379592601373e-08
3.145751395548968928e-08
2.467544916825267096e-08
1.789889658531806736e-08
1.286978451193398407e-08
9.044399090537910376e-09
6.475803157729160427e-09
4.578504293299610375e-09
3.254336544208095712e-09
2.341915452146572476e-09
1.710640748844933089e-09
1.272839836743081836e-09
9.644626905847928974e-10
7.414291462902226805e-10
5.754004022920531864e-10
4.477301653672514670e-10
3.468416290478495466e-10
2.657566377479637087e-10
2.003377277951280774e-10
