# bin_8_8
1.120039261811018524e-08
1.256349316843148882e-08
1.383673990130138330e-08
1.489510382448647052e-08
1.557943132697386040e-08
1.573460195336122819e-08
1.517667667564175974e-08
1.382048454115116140e-08
1.190045687621656793e-08
9.794498031914073760e-09
8.074478774878025642e-09
6.943187113682256988e-09
5.849523327572823808e-09
4.268240268091106926e-09
3.069369530971269990e-09
2.458950969069655543e-09
1.647452547860867839e-09
1.235192318685791932e-09
8.571066340507678055e-10
5.960577635016566999e-10
4.183949016907540188e-10
2.946630731944373884e-10
2.097444369515704233e-10
1.514656764285799626e-10
1.115681694053757875e-10
8.372567992757497881e-11
6.385361633929546196e-11
4.925726001086065009e-11
3.816844009559409692e-11
2.949456316658820133e-11
2.257515212577652227e-11
