# bin_2_5
3.090260744854123021e-07
3.197604843194639368e-07
3.189481532806471658e-07
3.033709934013831304e-07
2.731579760002273842e-07
2.333119620022459735e-07
1.925796950322580851e-07
1.601604498966410071e-07
1.364526835546940831e-07
1.115515073319139535e-07
8.236596059081563020e-08
6.119901935895332651e-08
4.695653376984333263e-08
3.371532526111308858e-08
2.483888787954021424e-08
1.804135917385520104e-08
1.325343529587521863e-08
9.848550734329102281e-09
7.438003953334928955e-09
5.717984041819633920e-09
4.465686752256819520e-09
3.528662248876409127e-09
2.802204098501369758e-09
2.220510218084927539e-09
1.743765131110598835e-09
1.348581516343382402e-09
1.021778945121647162e-09
7.555575486340534617e-10
5.440447664495829907e-10
3.813709184808141087e-10
2.606247303959892510e-10
