# bin_1_3
4.029383046604551163e-07
3.937915144455398801e-07
3.663375195817263298e-07
3.233368474686814678e-07
2.728395291764176784e-07
2.258018286070373954e-07
1.891879508854497729e-07
1.587020021449950681e-07
1.255037721334463385e-07
9.289556910061447619e-08
6.996040520688483193e-08
5.265343461928820211e-08
3.836967941773442065e-08
2.833022218382776960e-08
2.090020460313599481e-08
1.562310646422724385e-08
1.186153307001731569e-08
9.167556696244617300e-09
7.202560164069321106e-09
5.727322415117475087e-09
4.580850130429450994e-09
3.658325359989128087e-09
2.896612321180166274e-09
2.259550344962373524e-09
1.727329587403363739e-09
1.288988292172684327e-09
9.368787051430483715e-10
6.629445649161021262e-10
4.572590515763152743e-10
3.081667479217440004e-10
2.035490611771066894e-10
