# bin_14_11
1.015752548846331142e-10
1.160061057016884238e-10
1.306511990988187538e-10
1.445480989478244477e-10
1.564345171305325253e-10
1.646774738628373981e-10
1.674948569708372440e-10
1.631977734968193226e-10
1.501641858184068181e-10
1.306515903943689903e-10
1.080379477815184397e-10
8.864953108529759126e-11
7.580251073716566869e-11
6.483210958364490766e-11
4.852032767423324899e-11
3.394301659376640341e-11
2.756109468822349579e-11
1.839056718923715729e-11
1.382655602333297473e-11
9.312548013640822621e-12
6.364245275762398968e-12
4.356828288077564268e-12
2.958492017126260616e-12
2.003850501859271871e-12
1.361147096221968120e-12
9.365781308518371022e-13
6.547773402080664810e-13
4.669913772950295716e-13
3.406230434156380431e-13
2.537981163905918680e-13
1.923621198039334786e-13
