# bin_10_2
1.895297523455904297e-24
2.121826876555387729e-24
2.331333974163678076e-24
2.502292857535118381e-24
2.607507771967654795e-24
2.622330634349715627e-24
2.513670508554366711e-24
2.274482698219108271e-24
1.945752341869840540e-24
1.597191231908819655e-24
1.321415202756279585e-24
1.140172431359336265e-24
9.503288538533090796e-25
6.819751766149760534e-25
4.999046485891652289e-25
3.952259062171772459e-25
2.657096438343890615e-25
1.973336834987502439e-25
1.385829440613385570e-25
9.645354293811125540e-26
6.774688934126294217e-26
4.787082344616897879e-26
3.426264001652206790e-26
2.491103755263914275e-26
1.847486499873899797e-26
1.395067865752319220e-26
1.069296105291072002e-26
8.274672837195499134e-27
6.418867672734477394e-27
4.955594960182811674e-27
3.782997794169980356e-27
