# bin_8_3
5.578864153725436389e-16
6.194673185018255185e-16
6.738301552933159555e-16
7.142591751232447695e-16
7.327459344286847132e-16
7.229019208363104173e-16
6.754772111087259497e-16
5.965283936418066869e-16
4.987410397290212548e-16
4.080332599002205346e-16
3.441525193314199918e-16
2.971234991215524957e-16
2.331508436161006215e-16
1.620503698866126812e-16
1.283571766413820178e-16
9.223559169488386468e-17
6.690430843055299582e-17
4.650714191073342047e-17
3.344464533028223396e-17
2.368393798192452879e-17
1.684719255550798709e-17
1.214077323459008188e-17
8.879723165281375890e-18
6.617737313612956612e-18
5.022121220184497937e-18
3.866036862413321722e-18
3.003655162227011141e-18
2.338911829706722699e-18
1.812460131869675978e-18
1.388622068954563528e-18
1.046339845290653553e-18
