# bin_8_4
1.062373067487314346e-09
1.185014572688820182e-09
1.296214629834467471e-09
1.383556605161471653e-09
1.431593305847493020e-09
1.427833462527464969e-09
1.353019323262406765e-09
1.210774659304816552e-09
1.024391106537642811e-09
8.386168383985670958e-10
6.995169506887704860e-10
6.051889602729853963e-10
4.921515374714425978e-10
3.456811971757271040e-10
2.631743156820263614e-10
2.000363950602004033e-10
1.384147393432193816e-10
9.948201696320907078e-11
7.115617799285306286e-11
4.986982631519637863e-11
3.514681581146288140e-11
2.505187741008283224e-11
1.811573689745941405e-11
1.332986865783572933e-11
9.999747401374611600e-12
7.625938164756569175e-12
5.888137184598110241e-12
4.574107427567332253e-12
3.549219361705381680e-12
2.731779750807485147e-12
2.073371352697633131e-12
