# bin_10_1
4.352761581453092584e-25
4.875960496216045824e-25
5.361355983383352492e-25
5.759769909032444838e-25
6.008937728346134189e-25
6.051080855833427964e-25
5.811636096603441377e-25
5.268973178199015350e-25
4.516613226868592251e-25
3.710377845063017506e-25
3.066138886043884571e-25
2.642944746185273770e-25
2.210530068222133289e-25
1.594444316041127504e-25
1.161554439735326754e-25
9.226023937597616230e-26
6.192338903253602821e-26
4.615572643863865986e-26
3.229514028170972815e-26
2.247120755286065115e-26
1.578426389231213063e-26
1.114452690490099918e-26
7.965523694691405208e-27
5.781131379892584606e-27
4.280081467486352369e-27
3.226857535376089127e-27
2.470171553396436497e-27
1.910009109255177140e-27
1.481243684388578243e-27
1.143849789170515540e-27
8.737811066727519822e-28
