# bin_14_14
5.249637030701693491e-06
6.017126695085365162e-06
6.806862947777744332e-06
7.571283825853260251e-06
8.247952325336845752e-06
8.753994136027622877e-06
8.989046128999167977e-06
8.877421704245072758e-06
8.299421173497705700e-06
7.331847103825729351e-06
6.127441877563583702e-06
5.011983845280206323e-06
4.231810337421178231e-06
3.660576175765960269e-06
2.866272747259637107e-06
1.977146806945579990e-06
1.573005823808354316e-06
1.114153800411655022e-06
8.044584183710954280e-07
5.402237643868684796e-07
3.791707219617620724e-07
2.574741407633035004e-07
1.729662198011914601e-07
1.159616179845217636e-07
7.760578181596593593e-08
5.229141672066315733e-08
3.564695789774422519e-08
2.469776238659605854e-08
1.748156055935698306e-08
1.266739490137097115e-08
9.388688781464373674e-09
