# bin_10_7
1.335816655966601596e-07
1.509680772000152569e-07
1.677798555659063791e-07
1.826378980711897290e-07
1.937138121084589058e-07
1.988095120952346619e-07
1.962254888375003543e-07
1.833776091410682556e-07
1.619526554367888052e-07
1.353579967145715251e-07
1.107290702558215401e-07
9.346679398539415391e-08
8.079163949152374361e-08
6.330229312635220658e-08
4.379546657512591393e-08
3.479011801886372192e-08
2.477203016547666565e-08
1.792647147873723725e-08
1.222509866635298464e-08
8.679507765170606639e-09
6.019164098154197117e-09
4.165684887638493339e-09
2.904645829107782445e-09
2.044475869275746673e-09
1.463275294617037676e-09
1.067856737431924344e-09
7.945166847927582526e-10
6.018454957575659567e-10
4.617824382433169922e-10
3.564905222405702872e-10
2.748238787178406901e-10
