# bin_11_2
1.168901267084995004e-22
1.315908416341277599e-22
1.455614019975040673e-22
1.575421043110927721e-22
1.659008758395091161e-22
1.688427447560023315e-22
1.646967399501215569e-22
1.517899663004286906e-22
1.322820635899607904e-22
1.095237904477192941e-22
8.982396516024122021e-23
7.665093092617092433e-23
6.562598738237947957e-23
4.945340232690008876e-23
3.459543493147782836e-23
2.800998941763203617e-23
1.898240055175358750e-23
1.424538251803986020e-23
9.707971448166920854e-24
6.784450130110654696e-24
4.749368788293137281e-24
3.325216049372513299e-24
2.344643730767248031e-24
1.672838344188196416e-24
1.216607233090455249e-24
9.021074588955122874e-25
6.810388530907072667e-25
5.217395347155059295e-25
4.030389418883636458e-25
3.116946284579326109e-25
2.395785571832366981e-25
