# bin_14_6
7.732593789691057415e-15
8.802943250631168818e-15
9.873409505798632255e-15
1.086910632859776374e-14
1.169043092839145577e-14
1.221100231689509889e-14
1.231174889909201236e-14
1.184076754034848460e-14
1.074641085977152149e-14
9.220839734208466644e-15
7.575610348001721440e-15
6.256874433274056978e-15
5.396860440020229369e-15
4.524391031278131326e-15
3.260480146175721897e-15
2.365139245142588727e-15
1.884287991645756788e-15
1.249069475501725098e-15
9.290947611754341131e-16
6.408263466509084494e-16
4.364203017600239614e-16
2.985159474255257198e-16
2.034486390033258978e-16
1.393488817314732077e-16
9.623747006654220349e-17
6.756057918940992253e-17
4.831450312306200211e-17
3.528950659857807785e-17
2.631669585194752514e-17
1.996339635575968528e-17
1.530891640656189318e-17
