# bin_6_1
4.105199294106986911e-14
4.471528930068998530e-14
4.749572617062922452e-14
4.886664908442741078e-14
4.839729554245626532e-14
4.546978713306625792e-14
4.036878674435993006e-14
3.392501815688219562e-14
2.776554529219179024e-14
2.329657377473477700e-14
2.010508259170764644e-14
1.602774275878584041e-14
1.124369027359940925e-14
8.744486798225395083e-15
6.479116920050945444e-15
4.629901669474918651e-15
3.311073162181599373e-15
2.401144349180555164e-15
1.723314389095551439e-15
1.249008704960649047e-15
9.193818115566914017e-16
6.883510350609695252e-16
5.247034486143684789e-16
4.062354120822916504e-16
3.176631561400199633e-16
2.493104548080519183e-16
1.950033855258475504e-16
1.509845815222475129e-16
1.150543344159750866e-16
8.588422219343343583e-17
6.257854042874512774e-17
