# bin_8_7
2.861765128236030380e-06
3.217003625625428153e-06
3.552329453655650797e-06
3.836437561134447430e-06
4.029093410091658829e-06
4.087994073119680321e-06
3.969730472196723273e-06
3.640484346439129714e-06
3.157019495147277963e-06
2.606618576318910234e-06
2.141460703637549863e-06
1.833840007029515592e-06
1.561328964871911807e-06
1.160392656107317992e-06
8.192858260630562816e-07
6.630359481570752774e-07
4.449749224113973983e-07
3.353890636059620004e-07
2.300065409215724837e-07
1.601336159224825686e-07
1.123013308909571776e-07
7.884031067506971734e-08
5.581283472778775308e-08
4.002319772633901784e-08
2.926897932083823201e-08
2.181782264534246801e-08
1.654681450128191286e-08
1.271771724507807368e-08
9.840310466866834365e-09
7.609634245687348318e-09
5.839749357852394144e-09
