# bin_10_3
2.134154725828991261e-16
2.395968098255923900e-16
2.641573349272490519e-16
2.847329905451020455e-16
2.983044430817455973e-16
3.018349107600807639e-16
2.919167038377758334e-16
2.665477202875428851e-16
2.301443777951013070e-16
1.896125631682157189e-16
1.560711156975774083e-16
1.340255406602874442e-16
1.134387207547135415e-16
8.331849271760856631e-17
5.943901352159012272e-17
4.790511771496827840e-17
3.202743385697602182e-17
2.412197709867962025e-17
1.665998876779825321e-17
1.158150435041665553e-17
8.129030202075396448e-18
5.718396209783365918e-18
4.062549963842457183e-18
2.926409181913149681e-18
2.150237886336048040e-18
1.609967625902565803e-18
1.225581677324916167e-18
9.443498918028335480e-19
7.314968367381070648e-19
5.654906391972379948e-19
4.332785895612808950e-19
