# bin_13_9
4.726884373458978428e-08
5.386091372219224565e-08
6.048216450336882179e-08
6.667753664195052871e-08
7.184399760441696303e-08
7.521287005510696248e-08
7.602695145700647954e-08
7.339368272734675489e-08
6.686514270822727174e-08
5.759769625195883709e-08
4.739354122750292826e-08
3.905714816914504599e-08
3.361845850549253146e-08
2.836883019018843977e-08
2.065112281697688303e-08
1.479983401452978335e-08
1.190029726449525859e-08
7.863393161666223915e-09
5.893492725077604973e-09
4.035918894054903547e-09
2.746256999767034363e-09
1.879607369172978159e-09
1.279180438824344757e-09
8.732431432390446883e-10
6.002076556936465048e-10
4.190175148079929859e-10
2.978163080564640984e-10
2.161703400373764702e-10
1.603091006465622466e-10
1.210911403529268230e-10
9.262857067568767524e-11
