# bin_14_8
1.551500107983683556e-10
1.768977917520779402e-10
1.988054310502088183e-10
2.193854184947660724e-10
2.366719744824506988e-10
2.481502492970698185e-10
2.512684927322891771e-10
2.431890169798577486e-10
2.221499920893970780e-10
1.918816307723504397e-10
1.580771861347555050e-10
1.300933868831728461e-10
1.117945468060445547e-10
9.472873373472872051e-11
6.946550794054153236e-11
4.940094851510548140e-11
3.991137251390160549e-11
2.637136883534554416e-11
1.982981764439141239e-11
1.351459104884827325e-11
9.196642707706640043e-12
6.296803218185769954e-12
4.282585414987164493e-12
2.917147032367380500e-12
1.998552752993437565e-12
1.389850868540124201e-12
9.835683417815279147e-13
7.107135699945164032e-13
5.248862316353453432e-13
3.951843889419952213e-13
3.016769975174320806e-13
