# bin_4_2
2.739878325955923193e-13
2.937633464116294816e-13
3.059020340813350823e-13
3.075248968552918421e-13
2.948231441669821781e-13
2.668890647279967433e-13
2.284752528433198468e-13
1.875732913008443084e-13
1.549855387219384011e-13
1.334753273079029805e-13
1.114439503678532980e-13
8.056053797594244710e-14
5.902424357037017315e-14
4.697746807116097178e-14
3.208491859194291411e-14
2.419671392082305839e-14
1.734821231174849591e-14
1.248057806352637954e-14
9.125885234163903425e-15
6.763944960507379470e-15
5.102952572088790230e-15
3.916765359301859666e-15
3.053633435987855462e-15
2.403431735394914982e-15
1.896971717006318050e-15
1.491016793295911255e-15
1.159067713974888403e-15
8.859510766571212849e-16
6.626437758336412515e-16
4.831998918732194052e-16
3.429059475749360418e-16
