# bin_7_4
1.129305990125295700e-15
1.253599247231396446e-15
1.363112173073470698e-15
1.444211459949515058e-15
1.480538534500226306e-15
1.459557068510015034e-15
1.362128399480011291e-15
1.201509784285350309e-15
1.003013514636935703e-15
8.201578753944091408e-16
6.925641119975690717e-16
5.985059843651489712e-16
4.679615032271610775e-16
3.238707108879712647e-16
2.585333733424994694e-16
1.842382175732646800e-16
1.347849605898142026e-16
9.275691957287128992e-17
6.691484588734028112e-17
4.745396290905719812e-17
3.379726549846162757e-17
2.438891205874823269e-17
1.785706609521834772e-17
1.332590908499524001e-17
1.012528786689020628e-17
7.802439479711043863e-18
6.066567419609538845e-18
4.725836328203636034e-18
3.662215844591257341e-18
2.804893213969704352e-18
2.112193127802536894e-18
