# bin_8_5
3.518450217248158296e-15
3.934997953405963577e-15
4.318166432111272191e-15
4.627641594488059351e-15
4.812657175853496329e-15
4.829138140152875479e-15
4.613357154212052799e-15
4.159572951659755578e-15
3.545180650198313354e-15
2.905520328311555514e-15
2.408615904262998837e-15
2.082782696171051985e-15
1.725751884128920801e-15
1.225710864568646513e-15
9.092147406620104656e-16
7.129167438767889300e-16
4.805610066147430326e-16
3.545806168209823279e-16
2.509459013803341825e-16
1.748587332050828189e-16
1.227862385075302455e-16
8.691078884005943963e-17
6.240429610828625745e-17
4.554879251546636113e-17
3.391202949293702608e-17
2.569691537841989921e-17
1.975133421556989582e-17
1.531118345697843535e-17
1.188439341100346810e-17
9.170399761719055556e-18
6.990096627253978782e-18
