# bin_12_4
3.511238411258589793e-22
3.971912654268923660e-22
4.419188417332620666e-22
4.817177575414018502e-22
5.118090826701886098e-22
5.263698548689398811e-22
5.209609127881411799e-22
4.885250606783896209e-22
4.328385182560977258e-22
3.627408145554588262e-22
2.966982563980827488e-22
2.497423166777242598e-22
2.161133517499680895e-22
1.709403199156136008e-22
1.183352575335271230e-22
9.320138995270981260e-23
6.736407716837287501e-23
4.813007204725909130e-23
3.302802849651113624e-23
2.349840336370983888e-23
1.624838830961503964e-23
1.120556268131540887e-23
7.788695321800455560e-24
5.462602234363155309e-24
3.892277338999731147e-24
2.827413354883568708e-24
2.094429390466982912e-24
1.580717988707965782e-24
1.209829715989749614e-24
9.329514586874226379e-25
7.194455915437899738e-25
