# bin_10_4
1.199580919144553808e-28
1.348309547561896041e-28
1.488625014572305913e-28
1.607372012844843196e-28
1.687678667561993667e-28
1.711818467351307679e-28
1.661505025859135507e-28
1.522463204814196397e-28
1.319250145366807098e-28
1.088292918974492719e-28
8.938619400837147832e-29
7.662216330909669932e-29
6.526421086960822597e-29
4.835234200904525434e-29
3.408682855588346649e-29
2.773958901117608326e-29
1.844351653486751707e-29
1.400549038524149155e-29
9.604387954328451226e-30
6.659657803711178654e-30
4.676440617818662787e-30
3.285354085438394123e-30
2.326666660956884336e-30
1.669274677201507464e-30
1.221651239922687145e-30
9.113571786824496715e-31
6.917217597358084842e-31
5.320283797029815469e-31
4.118899731632071391e-31
3.186397125092417185e-31
2.445674772025577992e-31
