# bin_6_1
1.500423499303198001e-30
1.632428237336278807e-30
1.731390503136959542e-30
1.777798667123226614e-30
1.756717008252929983e-30
1.644767633914612445e-30
1.455351272429428731e-30
1.218376605793608631e-30
9.960421932213894740e-31
8.381227364836838515e-31
7.244708933037926849e-31
5.726469588784544141e-31
3.980245730153627705e-31
3.145640391504523682e-31
2.292769442190494365e-31
1.661733015352276075e-31
1.168575425929861221e-31
8.539324886081577804e-32
6.145135087062272012e-32
4.459800030523031672e-32
3.291623984463142150e-32
2.470596800944964736e-32
1.888230921115465078e-32
1.465117553730331625e-32
1.147515079588596664e-32
9.014269418486092290e-33
7.051725825197064316e-33
5.456830139832043159e-33
4.153217795979275466e-33
3.094740894817719049e-33
2.249759618376346353e-33
