# bin_6_6
9.508175579342619711e-11
1.058654325050912339e-10
1.155410396672343662e-10
1.229819973117632427e-10
1.267968061385914965e-10
1.259231007428253243e-10
1.186235925089585495e-10
1.055573751696057835e-10
8.880690065158847833e-11
7.262484856002507950e-11
6.085695305661857667e-11
5.269186031060348507e-11
4.225662534741347407e-11
2.938722109369689332e-11
2.283852051802997280e-11
1.695438520343943160e-11
1.195984335603651851e-11
8.420426585580764422e-12
6.077134840338529990e-12
4.276244588983929894e-12
3.020240292077867347e-12
2.162816640740560773e-12
1.571543630787458880e-12
1.162774183750683004e-12
8.767631880248766074e-13
6.715130277372423912e-13
5.200804137283312787e-13
4.046074483922299064e-13
3.139052814042304855e-13
2.412194790791624369e-13
1.825680377892331136e-13
