# bin_7_10
-4.339338423434905257e-10
-4.899428779096907833e-10
-5.438706439793698458e-10
-5.911891037981063080e-10
-6.259264528665311687e-10
-6.410224201266694255e-10
-6.308621390725450906e-10
-5.874632640701531653e-10
-5.170975498864614452e-10
-4.310170792414347392e-10
-3.526919829730539323e-10
-2.985769330332640584e-10
-2.577067080194602711e-10
-1.999147033447214635e-10
-1.383577545355009185e-10
-1.107841852371724530e-10
-7.768178980708988400e-11
-5.693104367997678368e-11
-3.864386537453621134e-11
-2.733893634103974145e-11
-1.901199300287052773e-11
-1.320194038525266459e-11
-9.230743597413003502e-12
-6.517266806280106598e-12
-4.682790886435909074e-12
-3.430960724516127380e-12
-2.562250700618472112e-12
-1.946773400371497130e-12
-1.496641787976600622e-12
-1.156225383267740670e-12
-8.909139321286384107e-13
