# bin_6_9
-3.165357208856989728e-10
-3.557355118047031726e-10
-3.926922208464760272e-10
-4.239336187881389911e-10
-4.450038259479937976e-10
-4.512622502186862307e-10
-4.378380449969741082e-10
-4.011498079908546891e-10
-3.475496389897128293e-10
-2.868003091123077318e-10
-2.356924542085323590e-10
-2.019741402792734813e-10
-1.717927471009403571e-10
-1.273290367402395880e-10
-9.004806329973750444e-11
-7.288720355124819241e-11
-4.880277026954491776e-11
-3.682549922465612481e-11
-2.528291542524708876e-11
-1.758461127237920027e-11
-1.233488801894460598e-11
-8.662405586391728552e-12
-6.135580764322385145e-12
-4.402624394076086459e-12
-3.222109422114600518e-12
-2.403555378154814819e-12
-1.823984688977044427e-12
-1.402493961925721055e-12
-1.085391499777866402e-12
-8.393095905391450250e-13
-6.439284228584887298e-13
