# bin_7_7
-1.664656499550253008e-08
-1.864085395391055282e-08
-2.048762623483594835e-08
-2.199820859101815842e-08
-2.293402027378155785e-08
-2.307697180855397039e-08
-2.213790718810226715e-08
-2.004717943276426512e-08
-1.716344566385800844e-08
-1.409276391282962925e-08
-1.165373187204369766e-08
-1.005164171397778522e-08
-8.390360171289593288e-09
-6.032680313910706276e-09
-4.410792501400199846e-09
-3.494621310676462844e-09
-2.346923480588446972e-09
-1.746085169695729373e-09
-1.224414542772356283e-09
-8.519891760042933378e-10
-5.984233307917473322e-10
-4.226927068626784622e-10
-3.023596667891900984e-10
-2.196561083406847490e-10
-1.627870445096941537e-10
-1.228381392322173126e-10
-9.409918526780938268e-11
-7.279101713311623772e-11
-5.645682653365714373e-11
-4.358859058678331030e-11
-3.328169418819296866e-11
