# bin_3_5
-1.713744185763631065e-09
-1.868793793800066332e-09
-1.987804701909804059e-09
-2.048733360770308939e-09
-2.033552296578235650e-09
-1.915942218867061863e-09
-1.705601965284728129e-09
-1.436733830523405524e-09
-1.176023876865175476e-09
-9.846060222329629252e-10
-8.501325074711341809e-10
-6.824700665266113497e-10
-4.796680700713827338e-10
-3.702824241446845811e-10
-2.771666992039482804e-10
-1.964094571753134217e-10
-1.412232800158697812e-10
-1.022682400463598460e-10
-7.324391044799417519e-11
-5.298414884914962270e-11
-3.891363775712648338e-11
-2.906882806480181538e-11
-2.210729183128159488e-11
-1.708434870204230293e-11
-1.334228470512542419e-11
-1.046493771110638033e-11
-8.186068797317093188e-12
-6.342689391613179383e-12
-4.839356856831832394e-12
-3.618591247914993672e-12
-2.642073953382222504e-12
