# bin_4_2
-1.484988059066262497e-09
-1.591905216278802224e-09
-1.657439821638293077e-09
-1.665793330688066246e-09
-1.597056711212688023e-09
-1.446696265873486170e-09
-1.239630409153211232e-09
-1.019317762654630313e-09
-8.429053730677565595e-10
-7.242356726983143589e-10
-6.033556435201240571e-10
-4.391410258242638304e-10
-3.219712930759422798e-10
-2.540910912790286368e-10
-1.758193921610666747e-10
-1.314331409340881058e-10
-9.408634024994697046e-11
-6.791523855265438632e-11
-4.965595071740544869e-11
-3.679920363479028337e-11
-2.774608024947721397e-11
-2.128039096690095842e-11
-1.657717346030556952e-11
-1.303747141528267576e-11
-1.028325912267227725e-11
-8.078297648785563835e-12
-6.277531790601592499e-12
-4.797408051650631175e-12
-3.588268666132654993e-12
-2.617356207153113307e-12
-1.858525398062643171e-12
