# bin_5_2
-3.979783512952406160e-11
-4.313329836733896887e-11
-4.553084411674265525e-11
-4.649704413703367483e-11
-4.559288040532236736e-11
-4.231668431370719483e-11
-3.713530181768871066e-11
-3.092200664893487724e-11
-2.533059234430549717e-11
-2.145220838528775857e-11
-1.841506862694419294e-11
-1.422796807735166288e-11
-9.985223027480787628e-12
-7.953913856443471797e-12
-5.659780796769320909e-12
-4.175650717536337518e-12
-2.943884702167258098e-12
-2.134769791779748962e-12
-1.544048524441930590e-12
-1.127606419796791846e-12
-8.367632700062265641e-13
-6.315287217573170034e-13
-4.851605126862369257e-13
-3.778785466706644476e-13
-2.965941431158523841e-13
-2.330551311735488871e-13
-1.820380447866223563e-13
-1.404325705830644300e-13
-1.064137207097522268e-13
-7.886036202372450798e-14
-5.697951489114685657e-14
