# bin_1_1
-7.901532985690399009e-08
-7.812228724149079909e-08
-7.351532658933727967e-08
-6.549004630593336586e-08
-5.544194405717818132e-08
-4.566692849674609640e-08
-3.817114134900238316e-08
-3.248985130884413141e-08
-2.609823021594425745e-08
-1.907093137673441416e-08
-1.438921146769969914e-08
-1.093532369934976715e-08
-7.892711373640027554e-09
-5.842884080679839446e-09
-4.291750210783180494e-09
-3.192938890144772485e-09
-2.412820757773065205e-09
-1.856468964934279613e-09
-1.453477588121578963e-09
-1.153493323279297587e-09
-9.224961285187952801e-10
-7.379045572621110146e-10
-5.860873100137876535e-10
-4.591509621463842258e-10
-3.527534502660053210e-10
-2.645873227188867531e-10
-1.932282674292152077e-10
-1.372822377966260943e-10
-9.499207870998458792e-11
-6.417365441019191145e-11
-4.246256628479532130e-11
