# bin_4_3
-1.406366660520282775e-08
-1.520267588424301811e-08
-1.599551241236309091e-08
-1.627331792302178967e-08
-1.587261920448578091e-08
-1.464426715324274017e-08
-1.277684262611678224e-08
-1.060004003483529550e-08
-8.696703975434396784e-09
-7.395919584273159650e-09
-6.315194524134756858e-09
-4.804744336477316938e-09
-3.395171258414810720e-09
-2.714873625469192634e-09
-1.906067830138768508e-09
-1.419287132855025467e-09
-1.001146914495368552e-09
-7.245844216169352695e-10
-5.257177673067578413e-10
-3.853647043648397729e-10
-2.870940851846015226e-10
-2.175409479661737514e-10
-1.677283340011928009e-10
-1.309852308463312695e-10
-1.029625484007785805e-10
-8.092293743365141280e-11
-6.314425759876394983e-11
-4.861054981620009459e-11
-3.672420819638859695e-11
-2.711331228001848924e-11
-1.950807419041154418e-11
