# bin_9_8
-1.011005038155673477e-08
-1.140891319754071618e-08
-1.265658773538425845e-08
-1.374694400835272851e-08
-1.454046327307478331e-08
-1.487400461821103253e-08
-1.461485837024815471e-08
-1.358342060453700460e-08
-1.193466576247809811e-08
-9.934462114024703239e-09
-8.131394349688398707e-09
-6.894352083261030153e-09
-5.944053107136828008e-09
-4.586265640085464445e-09
-3.177369179758278207e-09
-2.552577450827162728e-09
-1.776310132325082693e-09
-1.309504731182335215e-09
-8.882066691487139278e-10
-6.268340073122572059e-10
-4.365540897510104961e-10
-3.036890241636851547e-10
-2.126651856622050035e-10
-1.504266572993959485e-10
-1.083257616644787400e-10
-7.954543755258668159e-11
-5.952808747366029255e-11
-4.530306181339134130e-11
-3.486360604636488579e-11
-2.694234214201815876e-11
-2.075269514000388686e-11
