# bin_8_14
-5.455261207993854573e-20
-6.195606362275877754e-20
-6.927555212443526630e-20
-7.597431314132139963e-20
-8.133272255678855686e-20
-8.444585485378871826e-20
-8.456069143756284118e-20
-8.052475997181995985e-20
-7.237641455859235299e-20
-6.148094406261459993e-20
-5.035382071967502223e-20
-4.186610906536462051e-20
-3.625517236691608781e-20
-2.980909544470282378e-20
-2.098157169730251381e-20
-1.574693077315158720e-20
-1.214773336057223446e-20
-8.210605710960665744e-21
-5.925440673664206539e-21
-4.168399689892319729e-21
-2.851392549904637487e-21
-1.948246691036892996e-21
-1.335874180386651164e-21
-9.233442139720339853e-22
-6.456100079934521181e-22
-4.596087389285448961e-22
-3.336359307711805394e-22
-2.472984560647588652e-22
-1.867356710364944449e-22
-1.429184911049990301e-22
-1.100860600083586848e-22
