# bin_3_14
-3.132296555459583317e-50
-3.523022158922642436e-50
-3.892796199398569010e-50
-4.207516592824804692e-50
-4.423263680583319355e-50
-4.492873793671164521e-50
-4.370056585415923233e-50
-4.013949765912168666e-50
-3.486500155931990069e-50
-2.880142126117830186e-50
-2.363810053903398137e-50
-2.022667439666188365e-50
-1.727202141923523391e-50
-1.288524007678135019e-50
-9.046356788979183876e-51
-7.356065983569853170e-51
-4.921097103823280606e-51
-3.725563369812803565e-51
-2.545152166914007301e-51
-1.769130595851721035e-51
-1.241181880638552252e-51
-8.710893856975864497e-52
-6.157289747819187967e-52
-4.406685770285992746e-52
-3.216343876532504738e-52
-2.393232408133679412e-52
-1.812401542660292096e-52
-1.391742931330882040e-52
-1.076573054864326422e-52
-8.328205268007449908e-53
-6.396739329090373141e-53
