# bin_4_9
-5.132770534854927872e-26
-5.746385873182033757e-26
-6.313938289904018724e-26
-6.777116212054618091e-26
-7.062304197218035313e-26
-7.102840467069302734e-26
-6.807900922037655857e-26
-6.157944925303133967e-26
-5.265808269714845476e-26
-4.319913338492760031e-26
-3.573098781959923306e-26
-3.085983167218752360e-26
-2.573737890713331342e-26
-1.841680072889123745e-26
-1.350677094063633536e-26
-1.070627167623626406e-26
-7.164490965523898333e-27
-5.338984730984730170e-27
-3.753369282407081265e-27
-2.610295391861861354e-27
-1.832706213999023499e-27
-1.294207237864753065e-27
-9.265771831101153997e-28
-6.739938812598626082e-28
-5.001450610455938297e-28
-3.778835409661928396e-28
-2.898035617123440183e-28
-2.243736409469606171e-28
-1.741183682386968172e-28
-1.344568821512501892e-28
-1.026487208997762171e-28
