# bin_9_9
-2.153801477736088914e-11
-2.433683106780339985e-11
-2.704059733459452223e-11
-2.942660122147959095e-11
-3.119953734712925579e-11
-3.200413026693743162e-11
-3.156941607930828656e-11
-2.947745654198397839e-11
-2.601264621935819613e-11
-2.172202058438794207e-11
-1.776649732853887611e-11
-1.500814854905054932e-11
-1.297597220030951716e-11
-1.014189876542635854e-11
-7.004965125921694279e-12
-5.586496383304547214e-12
-3.958221873599470478e-12
-2.878275309580605221e-12
-1.952764016422683270e-12
-1.387701939199898105e-12
-9.629573835347656181e-13
-6.668942642834001240e-13
-4.653071484324184566e-13
-3.276826523390448191e-13
-2.347090663966960819e-13
-1.714220392263934199e-13
-1.276470035625505268e-13
-9.676514142451264543e-14
-7.428984973254796239e-14
-5.737294331456495622e-14
-4.423627939284058591e-14
