# bin_7_13
-7.531561031013900816e-21
-8.525367579087379712e-21
-9.492971537096412087e-21
-1.035799255959988356e-20
-1.101829118805206954e-20
-1.134801089690781010e-20
-1.125314393509697688e-20
-1.057707477162516286e-20
-9.391522332232508427e-21
-7.883868575758721073e-21
-6.447009235989854485e-21
-5.416474635299933691e-21
-4.691760596478897238e-21
-3.735252261075192154e-21
-2.583921333765280147e-21
-2.025223779493011437e-21
-1.478557841499612887e-21
-1.047300844593530731e-21
-7.204103448101588549e-22
-5.143632991068135622e-22
-3.549713124978980806e-22
-2.441249095367783734e-22
-1.693807136257927214e-22
-1.185450027946364146e-22
-8.423986909132217682e-23
-6.102322055012899796e-23
-4.508373822893508795e-23
-3.395212275111462650e-23
-2.594931043470655755e-23
-2.000051413360539301e-23
-1.542936442805595995e-23
