# bin_9_15
-3.207032800760571470e-19
-3.652171720891043892e-19
-4.098062155697627513e-19
-4.513715055428859010e-19
-4.857955360042678102e-19
-5.078485312351902269e-19
-5.125211960151893927e-19
-4.935651671508095449e-19
-4.485001610778948307e-19
-3.853174680574993180e-19
-3.166634258210414615e-19
-2.612987751016196223e-19
-2.252953995486039766e-19
-1.893761171704776197e-19
-1.368250002189909381e-19
-9.880367321165131238e-20
-7.911259069667446164e-20
-5.224217405676706075e-20
-3.905047113768547536e-20
-2.686689316758194902e-20
-1.827827354812910404e-20
-1.250256279371744650e-20
-8.510164742794079215e-21
-5.820327870490431003e-21
-4.011935260761993907e-21
-2.810329218620659572e-21
-2.005021298219029353e-21
-1.461104606521264286e-21
-1.087465221563294743e-21
-8.238103446720192341e-22
-6.313506941707504579e-22
