# bin_15_5
-8.138144056648877589e-10
-8.977903839303162093e-10
-9.687969439034370015e-10
-1.016702894113883583e-09
-1.030959634395246240e-09
-1.000584483246485353e-09
-9.174924237559708689e-10
-7.955917943171147105e-10
-6.571872373612703656e-10
-5.400227330930050417e-10
-4.618673128745550844e-10
-3.926227676235712792e-10
-2.927406608326412017e-10
-2.076426594900182890e-10
-1.672651219292298611e-10
-1.141351422676333500e-10
-8.587870842858236899e-11
-5.981621470919291932e-11
-4.251695234458588866e-11
-3.043513793911718528e-11
-2.193944435223551836e-11
-1.603238419750625562e-11
-1.190647403248992835e-11
-9.012679857631182850e-12
-6.930217321064147822e-12
-5.386415785207066222e-12
-4.205937947641091906e-12
-3.275530005683348648e-12
-2.527278473866611543e-12
-1.920634253475912389e-12
-1.431112101536780357e-12
