# bin_8_9
-2.521769772342976661e-12
-2.845744403192891380e-12
-3.156917436342807823e-12
-3.428823919818702776e-12
-3.626646043256593266e-12
-3.709446237452538049e-12
-3.644678025023547835e-12
-3.386801778513769824e-12
-2.975211025086968255e-12
-2.475540784173325773e-12
-2.025740179042501033e-12
-1.718068102614996083e-12
-1.482202674455447792e-12
-1.142607595036531556e-12
-7.902202365659673575e-13
-6.366992907910122789e-13
-4.415673791744604683e-13
-3.268226270292977161e-13
-2.207447484063370066e-13
-1.558043356131298938e-13
-1.085773625360401214e-13
-7.559987056233304571e-14
-5.295425252257734319e-14
-3.746298451912956888e-14
-2.698618941240288305e-14
-1.982327460772536683e-14
-1.484076500136302313e-14
-1.129914303102672246e-14
-8.698907666479297615e-15
-6.724815196448235383e-15
-5.181276271644352488e-15
