# bin_5_1
-2.679999158544295536e-09
-2.630048346364130846e-09
-2.454629951228493714e-09
-2.169749609322656123e-09
-1.827964326376307043e-09
-1.507722400996767921e-09
-1.265204138370916144e-09
-1.070144004627950438e-09
-8.468254355967537297e-10
-6.207044914328878360e-10
-4.701861348276201668e-10
-3.540982384240402611e-10
-2.568525941806540568e-10
-1.900483332368215957e-10
-1.398849178594354356e-10
-1.044274272532405587e-10
-7.922674649274818496e-11
-6.120174242134016470e-11
-4.807942472677653215e-11
-3.824756719029347007e-11
-3.061908591861052880e-11
-2.448300885144238250e-11
-1.941347795841707025e-11
-1.516655084011439875e-11
-1.160978636290383041e-11
-8.672188144261753346e-12
-6.306510439594628312e-12
-4.462716741378053666e-12
-3.077114581469683117e-12
-2.072678488866313292e-12
-1.368188380125227151e-12
