# bin_4_14
-3.283943261428381726e-41
-3.700876882535971404e-41
-4.098987960184947521e-41
-4.443281502926890975e-41
-4.688129029498633399e-41
-4.781560043510832457e-41
-4.679117944072952754e-41
-4.327365342142963350e-41
-3.784145858536176360e-41
-3.138651054634051938e-41
-2.570758907457708391e-41
-2.188594161083547507e-41
-1.881710360227985249e-41
-1.431114432043787734e-41
-9.940146274247853121e-42
-8.059818820813777220e-42
-5.490213743381275301e-42
-4.115621612174646759e-42
-2.786545370137442978e-42
-1.951639241732527798e-42
-1.364983677932699791e-42
-9.544023235221362842e-43
-6.710075338693133821e-43
-4.769193216281167972e-43
-3.454253678971989618e-43
-2.551175835081365282e-43
-1.919375699066435370e-43
-1.466860509296682525e-43
-1.131808777161616900e-43
-8.754106706276844792e-44
-6.737388119286435162e-44
