# bin_15_3
-1.591405572219496088e-09
-1.702555049350510228e-09
-1.768242861392114167e-09
-1.771811173749150162e-09
-1.692001895925426108e-09
-1.526888892721033068e-09
-1.303749021451088774e-09
-1.071251690689673704e-09
-8.882032274547578203e-10
-7.634994158444907935e-10
-6.309157968591757072e-10
-4.567892516855590142e-10
-3.383923643296933076e-10
-2.641407890882453742e-10
-1.841472614863427742e-10
-1.367587171673005397e-10
-9.823772697616030696e-11
-7.103848170873677878e-11
-5.202427733027041824e-11
-3.864436078058000166e-11
-2.920721724687815216e-11
-2.245390319079674176e-11
-1.752247084350251026e-11
-1.379587750823580776e-11
-1.088495770219129634e-11
-8.547084973441915260e-12
-6.634224925591590036e-12
-5.061214318615915020e-12
-3.777305272706526930e-12
-2.748465951337963010e-12
-1.946748460011957323e-12
