# bin_14_8
-3.093278232573645780e-10
-3.485590877846261823e-10
-3.860008627189342631e-10
-4.183530627754148535e-10
-4.413158749354346865e-10
-4.500283185650544378e-10
-4.402417026649363054e-10
-4.070513087991798362e-10
-3.558592374314562622e-10
-2.951894928454302667e-10
-2.418579391151129985e-10
-2.059045021373240361e-10
-1.768640727930872477e-10
-1.344719093779453478e-10
-9.358840220622581224e-11
-7.570096235222818135e-11
-5.170323421091909348e-11
-3.863382133872736743e-11
-2.622941475861538913e-11
-1.838679102938534208e-11
-1.285089817887275164e-11
-8.978370366475399376e-12
-6.313084788816305607e-12
-4.488273460577202711e-12
-3.251366769833879698e-12
-2.401666081923546116e-12
-1.807016388710884216e-12
-1.380939184545328529e-12
-1.065364736350205746e-12
-8.238342845546682172e-13
-6.338703863125491370e-13
