# bin_11_6
-4.445774889119538834e-10
-4.948061266494407162e-10
-5.397744696150949178e-10
-5.742068507766092240e-10
-5.916446778981278585e-10
-5.870185231144098963e-10
-5.524522831734231157e-10
-4.911815479653348694e-10
-4.130593103734535340e-10
-3.379237290265696958e-10
-2.833895436268389588e-10
-2.451181908354146572e-10
-1.960012390494424912e-10
-1.366384274607483990e-10
-1.062315244674013313e-10
-7.857221357832352984e-11
-5.561654537786887349e-11
-3.922078667520794932e-11
-2.819857437725391730e-11
-1.985863938140366105e-11
-1.404881457622873238e-11
-1.006606133112438304e-11
-7.318571090221585579e-12
-5.418514346057087088e-12
-4.087924017350309743e-12
-3.132084068699401674e-12
-2.426052302036433307e-12
-1.887142762623328624e-12
-1.463581253089025041e-12
-1.124103454573629230e-12
-8.502446897032289839e-13
