# bin_14_4
-1.091346180249170688e-09
-1.189095094204623992e-09
-1.263519957615514597e-09
-1.300650523881165650e-09
-1.288923529250320358e-09
-1.212001815425522874e-09
-1.076938377725246104e-09
-9.058469706216961018e-10
-7.415516535431386086e-10
-6.217782641928851580e-10
-5.364580861439872468e-10
-4.285333859335940911e-10
-3.011859282902951045e-10
-2.334310406304370687e-10
-1.735709965414275362e-10
-1.236578687624969495e-10
-8.871605572033570491e-11
-6.422093884242993034e-11
-4.605339202866404285e-11
-3.335983990776574900e-11
-2.453293479701556395e-11
-1.835079098039240835e-11
-1.397474816331583611e-11
-1.081095452941319141e-11
-8.448993552923110436e-12
-6.628920235741806329e-12
-5.184768101897996252e-12
-4.015279965224727900e-12
-3.061129784880161260e-12
-2.286514704814441990e-12
-1.667413447150206919e-12
