# bin_9_6
-3.256285464427653979e-10
-3.623403127856740192e-10
-3.951656495999443849e-10
-4.202348849843693900e-10
-4.328188921979126467e-10
-4.292128824340601376e-10
-4.036665864732819281e-10
-3.586689043109664550e-10
-3.014457216288986813e-10
-2.466009977654706970e-10
-2.069156366229844956e-10
-1.789606515661708168e-10
-1.428553295985804840e-10
-9.952628091206767293e-11
-7.753546961261875008e-11
-5.718917315692511182e-11
-4.057605603886838494e-11
-2.856247607043475611e-11
-2.054372286829585833e-11
-1.447523838634058632e-11
-1.024491080362836260e-11
-7.344600731081709382e-12
-5.342941046970054432e-12
-3.958316204963550446e-12
-2.988022399405646291e-12
-2.290439540488602158e-12
-1.774690156557291209e-12
-1.380644700245433281e-12
-1.070702916254273247e-12
-8.221711731884984815e-13
-6.216505181291490276e-13
