# bin_4_10
-4.696900286534904120e-31
-5.278549241898209883e-31
-5.826955346720541971e-31
-6.290543430015332061e-31
-6.603212170872009104e-31
-6.695835238915635220e-31
-6.496361431814677060e-31
-5.950095844402764881e-31
-5.153606863047597811e-31
-4.250438994747642649e-31
-3.491726695765508750e-31
-2.994007288400754580e-31
-2.548690210032478870e-31
-1.885927690049724976e-31
-1.330944960465379013e-31
-1.082709070836250708e-31
-7.195613337911458356e-32
-5.463825158443580936e-32
-3.749864777229039260e-32
-2.599872182172947034e-32
-1.825702194266471845e-32
-1.282758258074057805e-32
-9.087630056863513930e-33
-6.522985485300949456e-33
-4.776146480399220512e-33
-3.564665720349444748e-33
-2.706644105908142453e-33
-2.082333995946586890e-33
-1.612312516829616170e-33
-1.247256493785591762e-33
-9.571622100502192127e-34
