# bin_13_2
-2.272978453670111523e-09
-2.360376050606314345e-09
-2.365113448154330281e-09
-2.260764731193760731e-09
-2.043992724881295168e-09
-1.749901416401307570e-09
-1.441673049811974595e-09
-1.195024666280321601e-09
-1.022672276395524466e-09
-8.451186034613435204e-10
-6.207580519458927950e-10
-4.584070921158692614e-10
-3.564304570801279804e-10
-2.529106554423099450e-10
-1.876162820061006443e-10
-1.357037603171774490e-10
-9.951692619694675878e-11
-7.383527012473180239e-11
-5.565412832881145511e-11
-4.271065471658269033e-11
-3.331260799582423618e-11
-2.630955849445460497e-11
-2.089823193769799445e-11
-1.657600569804421920e-11
-1.303782193971301932e-11
-1.010366406789644645e-11
-7.672643363474496141e-12
-5.686262201418187533e-12
-4.102322175903887353e-12
-2.879914239089835096e-12
-1.970041615415180850e-12
