# bin_4_11
-2.295065754255710097e-28
-2.565741486070735034e-28
-2.814191443926382684e-28
-3.014034432976442978e-28
-3.132084737602448049e-28
-3.139949989840241296e-28
-2.995935319230220523e-28
-2.698182649519832958e-28
-2.297030285153887286e-28
-1.882224314208525725e-28
-1.561804148501470654e-28
-1.350689481466690713e-28
-1.116071343235055634e-28
-7.911976461052310490e-29
-5.892864895591887634e-29
-4.598854699258256768e-29
-3.112297242102521760e-29
-2.286086269843566024e-29
-1.621312287461638838e-29
-1.130676085323480940e-29
-7.942485866006137933e-30
-5.627937706453695051e-30
-4.045213419700585941e-30
-2.956076635475753139e-30
-2.203315473605759504e-30
-1.671155930838055934e-30
-1.285373675244755101e-30
-9.967424580174995041e-31
-7.736313706630731511e-31
-5.967391021908429608e-31
-4.545735921910392768e-31
