# bin_2_15
-9.645667867314550499e-67
-1.086363282648766751e-66
-1.202344426891125361e-66
-1.302161143049010836e-66
-1.372373358816721274e-66
-1.397935738993131509e-66
-1.365436375957715921e-66
-1.260101672282457071e-66
-1.099630575865148933e-66
-9.108790915382510531e-67
-7.464927107331229299e-67
-6.365449075478955420e-67
-5.462185854225776784e-67
-4.129471713137144663e-67
-2.876600846996968562e-67
-2.335842899768394970e-67
-1.581112275185335636e-67
-1.189727768886788401e-67
-8.075149482858094796e-68
-5.640265890943850261e-68
-3.949330875432494037e-68
-2.765031819823135942e-68
-1.947221087505177796e-68
-1.386935429814222379e-68
-1.006952128906136225e-68
-7.454420901574643887e-69
-5.620048503197354783e-69
-4.301691321651974141e-69
-3.321925486731015121e-69
-2.569626166992913722e-69
-1.976475924335541337e-69
