# bin_7_12
-2.074634113348419101e-18
-2.344429433474414487e-18
-2.605157477987318075e-18
-2.835387200468613227e-18
-3.006685448792169878e-18
-3.084785042817968196e-18
-3.043652735859277102e-18
-2.842819222687909293e-18
-2.509376724764857425e-18
-2.095906413549925605e-18
-1.714169123554121719e-18
-1.447682998407859741e-18
-1.251876853449189224e-18
-9.792711188895983092e-19
-6.762544208952481376e-19
-5.390506062216850126e-19
-3.823990985714736453e-19
-2.778088434076460127e-19
-1.884791383886640971e-19
-1.340090557152440030e-19
-9.296828815329260271e-20
-6.436504551361804723e-20
-4.489867620049158864e-20
-3.161000432058805522e-20
-2.263346717082930559e-20
-1.652478023463152662e-20
-1.230092439613461736e-20
-9.322526898661568335e-21
-7.156071126498349281e-21
-5.526264566393473547e-21
-4.261177948466191303e-21
