# bin_10
0.000000000000000000e+00
0.000000000000000000e+00
0.000000000000000000e+00
9.469963701624841125e-298
5.766380462612832545e-260
1.500224283635117420e-227
1.323588515901988490e-199
2.079047249544573766e-175
2.229019540395258192e-154
4.895446237414688456e-136
5.447853631095785463e-120
6.512460001382777212e-106
1.565907452371385737e-93
1.282274582570195748e-82
5.576782795847183363e-73
1.877747380749861272e-64
6.747845563813548468e-57
3.406052750570526999e-50
3.057458091895252239e-44
5.981974458021872589e-39
3.042010197965144717e-34
4.684876278911342110e-30
2.496264933749095144e-26
5.169807062262942029e-23
4.608273176390598392e-20
1.933775952366351545e-17
4.134085645538030832e-15
4.827977041125916628e-13
3.276495054165167478e-11
1.365061786245773944e-09
3.666196320113045399e-08
6.630359597428485753e-07
8.395651677637548018e-06
7.708159210647874541e-05
5.294948322855607108e-04
2.799313106459354241e-03
1.168308484942734600e-02
3.938315866228504769e-02
1.094539797828739114e-01
2.554539491473870050e-01
5.089640808708525421e-01
8.784080847146970017e-01
1.330323158165382935e+00
1.788275601390102443e+00
2.155347026032156332e+00
2.350153796018994878e+00
2.336897735616375371e+00
2.134329620876208811e+00
1.802109976718310858e+00
1.415055878806348533e+00
1.038978641039039141e+00
7.169224562176674809e-01
4.670980616963192333e-01
2.886122436476926123e-01
1.698118742539281856e-01
9.550561256568208812e-02
5.152893562786197562e-02
2.676014375439558432e-02
1.341837106388557577e-02
6.515612664052570363e-03
3.072138828178153525e-03
1.410143655526045975e-03
6.316188561369344813e-04
2.766802661238474195e-04
1.187760785143957524e-04
5.006590617863851769e-05
2.075841863255167594e-05
8.480241774204391435e-06
3.418661721504908224e-06
1.361955391554129283e-06
5.369197380167472398e-07
3.359253058364747676e-07
