# bin_4_11
-1.153992946328417937e-17
-1.301567222324472783e-17
-1.442999987808780046e-17
-1.566106660370861810e-17
-1.654920229026972120e-17
-1.690982715063065395e-17
-1.658926568591913478e-17
-1.539006898612888013e-17
-1.349805187087024694e-17
-1.122194859907807217e-17
-9.188427273655589442e-18
-7.801922842674267625e-18
-6.717822811266396733e-18
-5.156456769588367872e-18
-3.577963004124654101e-18
-2.881571622545537800e-18
-1.991850924761069409e-18
-1.475562649246271837e-18
-1.001114478821983086e-18
-7.047765767120966709e-19
-4.914586393961574493e-19
-3.424103005326404069e-19
-2.401179716666941917e-19
-1.701494851634815473e-19
-1.227834861066013802e-19
-9.034941721059740118e-20
-6.774329893617538606e-20
-5.163217331913514476e-20
-3.977025586185803956e-20
-3.074204498074347654e-20
-2.367095437385983748e-20
