# bin_13_12
-9.901554721261744839e-09
-1.131491916607034643e-08
-1.275286697125187621e-08
-1.412201597746084450e-08
-1.530019286336860267e-08
-1.612866707621808404e-08
-1.643016286534255131e-08
-1.604555427146582781e-08
-1.480214807858854733e-08
-1.291151796896741467e-08
-1.069232717212650231e-08
-8.766155921251481536e-09
-7.481689008227686516e-09
-6.416555792876157944e-09
-4.836997579148866842e-09
-3.368827162978333281e-09
-2.734509917193775250e-09
-1.835949026385612677e-09
-1.376777098802120238e-09
-9.240223529052192026e-10
-6.333279130352024829e-10
-4.333473444996201659e-10
-2.940425377366952841e-10
-1.988026429226158660e-10
-1.346677379216266903e-10
-9.233133600766558771e-11
-6.428075347511588233e-11
-4.563405414942277433e-11
-3.313420200264615266e-11
-2.459044273709469114e-11
-1.858380903002543201e-11
