# bin_6_9
-1.466662997380391073e-09
-1.645905437731540829e-09
-1.813705130687704265e-09
-1.953764494665710205e-09
-2.045288801503150237e-09
-2.067687535120133303e-09
-1.997335013090533249e-09
-1.821898479007220245e-09
-1.571463143073223300e-09
-1.294650160781721620e-09
-1.066673455709075748e-09
-9.160778278415455578e-10
-7.732209337221276235e-10
-5.670756387594554039e-10
-4.064399795170283776e-10
-3.256169601151515662e-10
-2.189730322084023779e-10
-1.639009880528547207e-10
-1.134747967850699587e-10
-7.902382666593019262e-11
-5.543874629923759929e-11
-3.900982803117826012e-11
-2.773103354052201718e-11
-1.999120932087423920e-11
-1.469869672427051848e-11
-1.101149173902196523e-11
-8.385352810863319778e-12
-6.461593811222224780e-12
-5.004104941548265211e-12
-3.866716206148571358e-12
-2.960838433858654453e-12
