# bin_4_2
-4.505839009105989562e-09
-4.823352040736856920e-09
-5.013590920027749652e-09
-5.028218041313236685e-09
-4.809409830302046353e-09
-4.348996255729829045e-09
-3.722349658979607583e-09
-3.064375016720415260e-09
-2.539653646757150428e-09
-2.177463172670678652e-09
-1.801800982596129043e-09
-1.316207580744598541e-09
-9.707865314766536352e-10
-7.563488864574578857e-10
-5.307091467809104879e-10
-3.929068981037891395e-10
-2.818121943103115276e-10
-2.040113231427888443e-10
-1.492444260562955624e-10
-1.106955736888206447e-10
-8.352976287052774558e-11
-6.411172480367175066e-11
-4.995681443074503430e-11
-3.928796027228434050e-11
-3.097610779396142776e-11
-2.431672135591200098e-11
-1.887833221738693627e-11
-1.441123107096083102e-11
-1.076665173647203923e-11
-7.845425524464441615e-12
-5.566712734116410617e-12
