# bin_3_3
-2.658636336240179963e-08
-2.840315223132921275e-08
-2.945111717674109180e-08
-2.944848193133239373e-08
-2.805606627994190861e-08
-2.527022164624734227e-08
-2.155125786091792301e-08
-1.772437041506278628e-08
-1.472414589106229550e-08
-1.263155360459286761e-08
-1.037479176094912429e-08
-7.534176143492170329e-09
-5.605144592318243478e-09
-4.333809644676080952e-09
-3.050601069437739903e-09
-2.252178306407055491e-09
-1.619909051290132870e-09
-1.173842002277888904e-09
-8.602814691328698561e-10
-6.396162103185118727e-10
-4.838678911804695705e-10
-3.722894352156649379e-10
-2.906435722178695098e-10
-2.288381929920439625e-10
-1.804892718140204931e-10
-1.416224434118931314e-10
-1.098179838466454073e-10
-8.367952504041137177e-11
-6.237192276748785854e-11
-4.532858118456435275e-11
-3.207424462364612092e-11
