# bin_6_2
-4.931775669701297143e-11
-5.387483745606247418e-11
-5.743331901347613463e-11
-5.936489588949280418e-11
-5.912561833752517862e-11
-5.598347744289782667e-11
-5.008653861624305201e-11
-4.241286051978142231e-11
-3.477555531444126630e-11
-2.901312811062920110e-11
-2.499980684208796986e-11
-2.028294569792428160e-11
-1.442851616843886902e-11
-1.094000765681984344e-11
-8.322990156673390205e-12
-5.836361086374827779e-12
-4.249540627127514637e-12
-3.051073901669341831e-12
-2.180308466977482962e-12
-1.574524862792963926e-12
-1.152412021626227036e-12
-8.575108233413819250e-13
-6.494502357403769725e-13
-5.001213528118542467e-13
-3.895682423159475278e-13
-3.051023865162693955e-13
-2.386033363232995017e-13
-1.850420368714734980e-13
-1.414592437888464924e-13
-1.060757638649357859e-13
-7.773084662027553602e-14
