# bin_3_12
-2.540961543075048093e-23
-2.872112030631708843e-23
-3.192532665212209300e-23
-3.476032514266060902e-23
-3.687864046289752058e-23
-3.786162327881209346e-23
-3.738632135849331274e-23
-3.495808071748957705e-23
-3.089007433957467664e-23
-2.582904295805273044e-23
-2.112891965748680376e-23
-1.782684307290129907e-23
-1.541216671651473079e-23
-1.209460728747668913e-23
-8.368408972824602080e-24
-6.638285752371199333e-24
-4.738262782258573763e-24
-3.421590401892887223e-24
-2.335615790083732867e-24
-1.658621202467195474e-24
-1.149535847162612478e-24
-7.949642091423007032e-25
-5.538989027958635882e-25
-3.895349330807328344e-25
-2.785104267681478917e-25
-2.030326568994343740e-25
-1.509095859990924004e-25
-1.142180258034670093e-25
-8.758674161209906309e-26
-6.759834405117536836e-26
-5.211529159909105869e-26
