# bin_12_7
-2.427477356384177299e-12
-2.754979146613374700e-12
-3.077736977001752486e-12
-3.371714061743951974e-12
-3.604692123503771309e-12
-3.736301161729496615e-12
-3.733821888521552927e-12
-3.546016180960831195e-12
-3.179283887455341115e-12
-2.694142476544666780e-12
-2.205853990098361123e-12
-1.837967604645159877e-12
-1.591724970072982340e-12
-1.300303448575405553e-12
-9.119682123650118169e-13
-6.905002097173174236e-13
-5.268506382641884524e-13
-3.594527043920177409e-13
-2.567825620459786739e-13
-1.812761838234869238e-13
-1.242175100117294971e-13
-8.496988978037506306e-14
-5.840581134887016709e-14
-4.047185966020332392e-14
-2.839151444555668072e-14
-2.028455220670522681e-14
-1.477913544411805174e-14
-1.099164855423331999e-14
-8.321450455915881192e-15
-6.378586149346818517e-15
-4.914912960561513051e-15
