# bin_4_5
-1.292325559935122047e-08
-1.415071211898885376e-08
-1.512959736261903102e-08
-1.569523821031418694e-08
-1.570169184247336362e-08
-1.495534419875688430e-08
-1.345742544563945301e-08
-1.145681257952728921e-08
-9.403937217954281965e-09
-7.813955707243956920e-09
-6.729812237385363559e-09
-5.529537508697935191e-09
-3.965811158318468969e-09
-2.959713658105404098e-09
-2.290152210607374444e-09
-1.588190771046526153e-09
-1.167641476549285472e-09
-8.336468325935751317e-10
-5.942144681880117715e-10
-4.280108906951138741e-10
-3.120588230626336041e-10
-2.312132373465116421e-10
-1.743309929116959415e-10
-1.337433278964874229e-10
-1.038988150774442086e-10
-8.125619934403508819e-11
-6.354452507302457964e-11
-4.934232731098341110e-11
-3.781068701064302174e-11
-2.844689442774046138e-11
-2.092976069039923762e-11
