# bin_3_10
-3.947449819166681963e-14
-4.422462876434916644e-14
-4.863427629120240879e-14
-5.225822815268137755e-14
-5.453247165511039606e-14
-5.492940707083364951e-14
-5.278347605846444032e-14
-4.789084345977921476e-14
-4.108653246879512484e-14
-3.377712049275851564e-14
-2.791226386023765912e-14
-2.403502020155228083e-14
-2.010483400074314623e-14
-1.455360140110799006e-14
-1.058975386454702961e-14
-8.393836265855584948e-15
-5.660145289222069889e-15
-4.206598697335463334e-15
-2.938241431399249459e-15
-2.046883177533685211e-15
-1.437474725721208591e-15
-1.014618388649479204e-15
-7.245463254279385824e-16
-5.252523812240857918e-16
-3.883888091111626635e-16
-2.924657331483805323e-16
-2.236451272657403440e-16
-1.727871068747646696e-16
-1.339307107999112534e-16
-1.034057564640332112e-16
-7.900221162081594883e-17
