# bin_1_7
-3.876081502916234046e-14
-4.254672282780252769e-14
-4.562870833347635950e-14
-4.751522306287580906e-14
-4.775155914873258786e-14
-4.576592738993620307e-14
-4.143881300322383195e-14
-3.549036413446729204e-14
-2.918398001205148304e-14
-2.415470736946966427e-14
-2.076791157373422927e-14
-1.727136754121477174e-14
-1.253241282206490726e-14
-9.195761490226151322e-15
-7.222635310237590915e-15
-4.971327661660645972e-15
-3.685962938241830110e-15
-2.612928784318493461e-15
-1.859496680707825315e-15
-1.336119201829482283e-15
-9.702459490711634955e-16
-7.155591026550629363e-16
-5.368460772396629372e-16
-4.100831043604123179e-16
-3.175491101696520470e-16
-2.478813418936126818e-16
-1.937831647483785037e-16
-1.506368125246189194e-16
-1.157035754105206107e-16
-8.734546910127789421e-17
-6.453704687526336736e-17
