# bin_10_5
-3.326383976172262756e-11
-3.737733241936353801e-11
-4.125247546201252257e-11
-4.452414116058689686e-11
-4.672365132531102788e-11
-4.736648811936821328e-11
-4.593976384917853486e-11
-4.208383344836752634e-11
-3.645464810311965239e-11
-3.009435034738588500e-11
-2.474636878283520037e-11
-2.119803991141636994e-11
-1.800115294940721925e-11
-1.335104644604026633e-11
-9.471260778156630085e-12
-7.624505772042043505e-12
-5.140979150503863747e-12
-3.853649126450963392e-12
-2.651154987920782212e-12
-1.848475323969359152e-12
-1.295431724982644202e-12
-9.093869939104030706e-13
-6.441711705772245438e-13
-4.623261145424850188e-13
-3.383536743839413032e-13
-2.523801769620712831e-13
-1.914938998196234371e-13
-1.472036043971633205e-13
-1.138820300644690110e-13
-8.802956133770715204e-14
-6.751347442524127716e-14
