# bin_2
0.000000000000000000e+00
3.062216891357089143e-30
5.740551962432625428e-23
2.075529140971086918e-17
4.632928653002281880e-13
1.177805441013561200e-09
5.284611863102636384e-07
5.856870995420223079e-05
2.091966738289114097e-03
2.985641386548835291e-02
2.032750356459961660e-01
7.664470940433725232e-01
1.817213095684889534e+00
3.009482513442543805e+00
3.761976654867748238e+00
3.717496786743932802e+00
2.968095010432917125e+00
1.936780862557453853e+00
1.044879231747511739e+00
4.730552547644757411e-01
1.829150432033708473e-01
6.153772901638727283e-02
1.834455642992351490e-02
4.929280000407054892e-03
1.212731728410717689e-03
2.770470269482761222e-04
5.950751601501153411e-05
1.215076168859809476e-05
2.381493666431930988e-06
4.518421128997937689e-07
8.360387191031078906e-08
1.518334552169095900e-08
2.721736080778617318e-09
4.839262352787097000e-10
8.570464184087343325e-11
1.517447520323896083e-11
2.694538464779729426e-12
4.811775450017688982e-13
8.661645927805524435e-14
1.574884891293298141e-14
2.897363046154021515e-15
5.401369909422266931e-16
1.021634352440227469e-16
1.962617708304499146e-17
3.832724670391011945e-18
7.614271782100969983e-19
1.539775281975383087e-19
3.171050929640395207e-20
6.653194765030885332e-21
1.422537395318254314e-21
3.100235977675662460e-22
6.887866652188413045e-23
1.560158931220371058e-23
3.602960595377991187e-24
8.482996956634721537e-25
2.036167637649673404e-25
4.982100349686452942e-26
1.242491590767022314e-26
3.157858227791695670e-27
8.177800395288910375e-28
2.157463209373059269e-28
5.797284736004846422e-29
1.586301152257817508e-29
4.419029828369134422e-30
1.252982338560731747e-30
3.615204001329502422e-31
1.061160266715830227e-31
3.167946711390766365e-32
9.616351518758845714e-33
2.967318322720941439e-33
9.305171348383689252e-34
5.241986426574373823e-34
