# bin_8_1
2.199686444154495584e-08
1.873447826761745675e-08
1.558640026297482167e-08
1.272939792058966743e-08
1.025127961492264437e-08
8.146585578403729029e-09
6.363067608411372681e-09
4.871557482227349671e-09
3.682550140634946805e-09
2.784437018168915684e-09
2.112241964969942018e-09
1.606697233412566611e-09
1.233250150757925435e-09
9.562218105197670344e-10
7.483986435779736286e-10
5.898812792775145504e-10
4.664342845856932233e-10
3.683268605768233685e-10
2.891155129783557016e-10
2.246079112396515196e-10
1.720518925076697415e-10
1.295540514264737480e-10
9.567896356238985100e-11
6.920335608516505800e-11
4.899199266944412941e-11
3.395667453831823181e-11
2.306649618763230662e-11
1.538236938383504308e-11
1.009165820028881044e-11
6.528157129810307172e-12
4.173433257013476781e-12
