# bin_13_12
8.939915077213196134e-08
8.590208462672392360e-08
8.060419534002846368e-08
7.370540121644829399e-08
6.558512634581799094e-08
5.677631769917153760e-08
4.789375507331251137e-08
3.951879367023396533e-08
3.205549860891561895e-08
2.564733496556110502e-08
2.021547076017418889e-08
1.561203441042757659e-08
1.179151132642485082e-08
8.797982954100258982e-09
6.566616021254261271e-09
4.886658319820699627e-09
3.628020556646287260e-09
2.712787300042724773e-09
2.038606949397546694e-09
1.543664061597852293e-09
1.176020698099782141e-09
8.994985876788416291e-10
6.886104630813691137e-10
5.257819919723936537e-10
3.989875758794786796e-10
2.999127199262871645e-10
2.226978350992896309e-10
1.629938598309146696e-10
1.173982749043910228e-10
8.312895997770812432e-11
5.784401146284503373e-11
