# bin_10_3
4.404546587192559882e-08
3.963281990891538119e-08
3.468306700154886439e-08
2.953736327717470214e-08
2.455758138885062063e-08
2.003774646547571868e-08
1.612692132731806901e-08
1.281551196011153970e-08
1.000441565171266994e-08
7.635358375688728659e-09
5.740606591866252224e-09
4.321913638878017698e-09
3.259694076548403935e-09
2.455877686203769815e-09
1.867572766476787681e-09
1.431772304589161455e-09
1.107954198452711701e-09
8.636113920550543042e-10
6.759925652731746500e-10
5.291962468420958776e-10
4.125143261880050042e-10
3.188440146276750513e-10
2.434329749580693081e-10
1.830080375104142471e-10
1.351411316063669952e-10
9.785548880536807139e-11
6.941526444186439692e-11
4.823132452014089460e-11
3.284512580631562638e-11
2.195083762224488477e-11
1.442341991639264885e-11
