# bin_6_4
4.650765214845466390e-08
4.218418085159971899e-08
3.723678068978520527e-08
3.199039968657063734e-08
2.680425604640259092e-08
2.199937841909845768e-08
1.777559036442511744e-08
1.417925906294645834e-08
1.113998029317456335e-08
8.574918772342444902e-09
6.475611172790080389e-09
4.862967358282564222e-09
3.665933435738542497e-09
2.759473495419610261e-09
2.086721455132061427e-09
1.592487778916274681e-09
1.225195140245702348e-09
9.500667250358413206e-10
7.406074882105318248e-10
5.782535489227742049e-10
4.503419336872975115e-10
3.483805203211943671e-10
2.666720105625847459e-10
2.013115590160668226e-10
1.494794306211772822e-10
1.089603821588558670e-10
7.787467122433612547e-11
5.454436368768217739e-11
3.744768475908415579e-11
2.522425644308203748e-11
1.669459164257818536e-11
