# bin_10_10
7.896143898090535522e-08
7.503309441535250982e-08
6.956343292952705201e-08
6.280568173214426457e-08
5.516690601459811992e-08
4.716673768091209817e-08
3.935522905398104004e-08
3.219466969595902454e-08
2.594239506998362745e-08
2.062584422196197498e-08
1.612332836879678222e-08
1.232977762378468232e-08
9.253844721206447371e-09
6.911905650595759287e-09
5.169998445838710408e-09
3.850335582524852518e-09
2.879146553041656918e-09
2.167440113332818208e-09
1.643258623630368141e-09
1.254548475549855186e-09
9.628693166307821874e-10
7.406792476561338337e-10
5.690187985431517163e-10
4.349628665745306018e-10
3.296539573182343439e-10
2.469391647791481840e-10
1.823719226627617645e-10
1.325349483896984028e-10
9.465540859047160803e-11
6.639128156882806649e-11
4.572899550317926076e-11
