# bin_4_11
2.321601995132496514e-07
2.526447533305814488e-07
2.680583165846415280e-07
2.755004527825718842e-07
2.723766131237288059e-07
2.555823664674006909e-07
2.266977589381271635e-07
1.906336409968788487e-07
1.563254177112237037e-07
1.312551918415851997e-07
1.127648116058524191e-07
8.959434602598434954e-08
6.355315633105435394e-08
4.903885791469810542e-08
3.637148293750193903e-08
2.598399944640825300e-08
1.871788840060569481e-08
1.348550364926726081e-08
9.683476405983236667e-09
7.026438682478223084e-09
5.173149648342241503e-09
3.873162911183368544e-09
2.951493340625483063e-09
2.283998189301280923e-09
1.784860958461526068e-09
1.399684483133860574e-09
1.093837096940998956e-09
8.461789348892599337e-10
6.442773513318802676e-10
4.805833903979603296e-10
3.500058032852709174e-10
