# bin_2_3
1.588652764867621826e-07
1.633094719106734291e-07
1.615603269841610071e-07
1.520702259863798794e-07
1.354580531308130169e-07
1.146244384696140401e-07
9.437486671107196988e-08
7.891825936591854308e-08
6.724725223441472124e-08
5.397008236244062616e-08
3.930481169192353566e-08
2.968253230159537660e-08
2.249283317276240298e-08
1.616763436784812703e-08
1.190920288032935829e-08
8.683321066369318347e-09
6.398395288199188990e-09
4.780936856490039713e-09
3.633647179942669777e-09
2.810603745202822027e-09
2.206715187962553114e-09
1.750064482646630084e-09
1.392020351439268442e-09
1.102579527260976594e-09
8.637847863854974419e-10
6.652673323460819299e-10
5.012487986040832209e-10
3.682126791170521728e-10
2.632608570249336028e-10
1.832586447491181708e-10
1.244360677937905592e-10
