# bin_1_2
2.772323910899004699e-07
2.676527270852897958e-07
2.455831380797184070e-07
2.139757070457415847e-07
1.790860896286140122e-07
1.483532036661976072e-07
1.247898474180089813e-07
1.037000199978018455e-07
8.029529495577416329e-08
5.926609297865352827e-08
4.499111595014857031e-08
3.348617949936470100e-08
2.448904913602236825e-08
1.809536324177505041e-08
1.341591048896253245e-08
1.008595306647046719e-08
7.712632164557937411e-09
6.003728665861547130e-09
4.745362895849792021e-09
3.789087187744833390e-09
3.035821415521605787e-09
2.422575790027038658e-09
1.912262802129952683e-09
1.484106973779206965e-09
1.126960694301070535e-09
8.344743338345933936e-10
6.015731943734228734e-10
4.222790530604464339e-10
2.891301294603692095e-10
1.936139122281799438e-10
1.272017586856358744e-10
