# bin_10_1
1.818245239466640390e-29
2.035779856286370716e-29
2.237075276804852037e-29
2.401500828818366000e-29
2.502983031890985883e-29
2.517769284451153483e-29
2.414309578206245015e-29
2.185404012423042856e-29
1.870322864078225248e-29
1.535589173448039774e-29
1.270219853569343690e-29
1.095688942269188665e-29
9.137313956135722324e-30
6.565327963258001788e-30
4.807129989116822537e-30
3.802331754185861614e-30
2.557110976286713616e-30
1.899523149848095087e-30
1.332923949100099625e-30
9.278016177769198524e-31
6.517009735994001230e-31
4.604599912532483145e-31
3.294786368705910040e-31
2.394569037862999450e-31
1.775251977933328049e-31
1.340043512924503369e-31
1.026799723408820742e-31
7.944053651106777559e-32
6.161636901468066962e-32
4.756888411070568334e-32
3.631542092618923097e-32
