# bin_6_3
4.524008753723909675e-12
4.962209085796844000e-12
5.316686267998985540e-12
5.529665204120270500e-12
5.549578359421299728e-12
5.306932298496916297e-12
4.792472185477781424e-12
4.092717968740630596e-12
3.359226536455101286e-12
2.782693733467917259e-12
2.398539042651066776e-12
1.989508634900552707e-12
1.429519010993668347e-12
1.055686417290012154e-12
8.293270115668014834e-13
5.673521419882524413e-13
4.214324844506835151e-13
3.001571632053695666e-13
2.132443246806777699e-13
1.533218218911756760e-13
1.115038590057978224e-13
8.240783109975494985e-14
6.197297923158054439e-14
4.744657577192384748e-14
3.680847006333236059e-14
2.877114091719195473e-14
2.250735554838268819e-14
1.749630938067744202e-14
1.343092506261604105e-14
1.012777359218153511e-14
7.471159806951413638e-15
