# bin_13_2
6.680690914548369733e-32
7.569021699014971566e-32
8.437616719298970176e-32
9.219273233045783296e-32
9.824066456559934281e-32
1.014062525017617118e-31
1.008308047633674792e-31
9.511942969246596002e-32
8.474890793240242881e-32
7.138422771641327059e-32
5.840074606548384639e-32
4.891956680344990444e-32
4.236996086022284511e-32
3.404815769218240928e-32
2.367416010201435261e-32
1.831970427918191952e-32
1.359312693820319999e-32
9.494049270833142003e-33
6.626255056859741899e-33
4.709965229318150782e-33
3.242057672880932021e-33
2.225205112207694116e-33
1.538582261388372218e-33
1.072974393142250645e-33
7.589714764145606281e-34
5.471172442946257420e-34
4.022411474074335782e-34
3.016083209768925674e-34
2.297616599644170523e-34
1.767547094766680209e-34
1.363017706239823323e-34
