# bin_4_2
1.611343262034136321e-10
1.719871140505441929e-10
1.781021596771240491e-10
1.778383614111501822e-10
1.690107524488485577e-10
1.517760564003332275e-10
1.289862254472818094e-10
1.058264108362560570e-10
8.800632148868484234e-11
7.575835928191457309e-11
6.203012522800289345e-11
4.448853712712341235e-11
3.338854176113910536e-11
2.578857029392446908e-11
1.805904473495395592e-11
1.334050489880046851e-11
9.638243549698225252e-12
6.976127165269813938e-12
5.118337723353716790e-12
3.812879601772808781e-12
2.890916461499842857e-12
2.229424861566871592e-12
1.744023952433858321e-12
1.375200086544354650e-12
1.085605417937421303e-12
8.520230417036771198e-13
6.604033522361405218e-13
5.026986747392194082e-13
3.740932603591071223e-13
2.712846850110610059e-13
1.914698181222686803e-13
