# bin_9_2
4.613045324424040025e-22
5.144235462886167005e-22
5.625161584363157078e-22
6.001807054081552711e-22
6.207079147194668288e-22
6.187000887548895288e-22
5.858060645207071090e-22
5.238191724889400121e-22
4.428607558916084883e-22
3.625115132052231353e-22
3.025732738637743517e-22
2.617791558280608007e-22
2.124712881617907945e-22
1.490804782332832065e-22
1.137878757742499784e-22
8.621273006122442691e-23
5.980714843224341698e-23
4.287772378137784825e-23
3.069041421426880842e-23
2.151765728922279434e-23
1.516761276512351805e-23
1.081502022685407504e-23
7.823385405127796031e-24
5.759056445904811905e-24
4.321991741837771476e-24
3.297059133932924847e-24
2.546269662215126598e-24
1.978173834399978880e-24
1.534837588953327049e-24
1.181114714047377252e-24
8.961837742411562901e-25
