# bin_6_5
3.242548007052411538e-09
3.581876355870498859e-09
3.871490256077150702e-09
4.071290239618462678e-09
4.138166820896585502e-09
4.030003401737110501e-09
3.709606060980876353e-09
3.229012280673078128e-09
2.673432155697451938e-09
2.194212968951907788e-09
1.871463566257547514e-09
1.597110260087503507e-09
1.203629889882543078e-09
8.485727559237571196e-10
6.827683349136919102e-10
4.698744775858014723e-10
3.517336254875164735e-10
2.443501993614592709e-10
1.740800788469854760e-10
1.243839465287686710e-10
8.944000107120176594e-11
6.517189050906956566e-11
4.824597422022902889e-11
3.640595047604386584e-11
2.792167430739801519e-11
2.166192813140357034e-11
1.689949336650990568e-11
1.316224835482209809e-11
1.016533947510820484e-11
7.738495828431754870e-12
5.779580008063518066e-12
