# bin_2_7
4.016880532907176129e-07
4.157592795642240420e-07
4.148471201310134124e-07
3.948053809868052909e-07
3.557362258680195109e-07
3.040851855714158069e-07
2.511470826443080772e-07
2.088327211698545591e-07
1.777988580102111978e-07
1.454413740657194520e-07
1.076404677777296806e-07
7.990719771122954652e-08
6.128016801933952649e-08
4.406876088420585372e-08
3.243572757568235171e-08
2.356396487448820689e-08
1.730732500525210895e-08
1.285532435741147869e-08
9.703950812835309890e-09
7.455825826557841036e-09
5.819758153261104145e-09
4.596470276967479728e-09
3.648925333970423320e-09
2.890854301360257495e-09
2.270022322685628367e-09
1.755687599516883740e-09
1.330485761918308930e-09
9.841336999391099250e-10
7.089158919693214736e-10
4.971660865453224666e-10
3.399093400800024007e-10
