# bin_10_10
8.814376925753943869e-09
9.984286447304097375e-09
1.112719766158661691e-08
1.215421961700381554e-08
1.294656397939088607e-08
1.335763317929501259e-08
1.327372719804947768e-08
1.251275160897545013e-08
1.114111571754133844e-08
9.379337800620073735e-09
7.673968766261358928e-09
6.431870633474029278e-09
5.568981301766030541e-09
4.466312271299180661e-09
3.106191186287417503e-09
2.407250702963395794e-09
1.780803823774877965e-09
1.247048776867364547e-09
8.696270602457594527e-10
6.175403981517885257e-10
4.253203428132370244e-10
2.921609181255844500e-10
2.021243070489560454e-10
1.410484745457200836e-10
9.985423064964580583e-11
7.204419441365059523e-11
5.301137936725896462e-11
3.977650928938390112e-11
3.031500122300019138e-11
2.332500815540182618e-11
1.798445783731307723e-11
