# bin_11_2
4.746466904873798237e-27
5.341270043217532058e-27
5.905493417774530125e-27
6.387768863643932748e-27
6.721697559970533130e-27
6.835110522930056401e-27
6.659047101181907128e-27
6.128689490606063268e-27
5.333750092382300164e-27
4.412528315917112357e-27
3.620417006272927461e-27
3.092614307666961008e-27
2.644041041536517476e-27
1.984702851335109485e-27
1.391527659729567357e-27
1.127058029789097316e-27
7.612196837231556992e-28
5.722807274806171077e-28
3.905443511712485658e-28
2.725448854600789819e-28
1.908764191046564172e-28
1.337224436950615069e-28
9.436852116323998093e-29
6.740326079198860321e-29
4.908100220306421033e-29
3.643662820336509487e-29
2.753637613746750216e-29
2.111139944869684116e-29
1.631471236644364291e-29
1.261718779491586076e-29
9.694577341670979793e-30
