# bin_3_1
1.282108411470758180e-10
1.328224547160317539e-10
1.327111237124716079e-10
1.263429033639673040e-10
1.137259902473537086e-10
9.693724571747853304e-11
7.969385296680286979e-11
6.619040944108960576e-11
5.677505377772422429e-11
4.662689633752935873e-11
3.387833894320338913e-11
2.524779647443356415e-11
1.956720794062675989e-11
1.383592979398541334e-11
1.027606532973270578e-11
7.458026606358381399e-12
5.467236274705470294e-12
4.064669983255967184e-12
3.071967219575124874e-12
2.363875075862799265e-12
1.848273283576428343e-12
1.462435468631166484e-12
1.162844782273252967e-12
9.225141451415419965e-13
7.251310051301971132e-13
5.611396177464450858e-13
4.252283508259142985e-13
3.143069687178270642e-13
2.260755422142663493e-13
1.582254674918780871e-13
1.079260680274337567e-13
