# bin_8_7
2.840677046603513322e-09
3.184572586232668821e-09
3.504874622445883343e-09
3.769707517366462813e-09
3.938594429101768532e-09
3.972870316822967114e-09
3.825063067028559876e-09
3.476679059609911945e-09
2.987966828356084944e-09
2.457191814114122434e-09
2.027692239005315009e-09
1.745442754115295275e-09
1.466063211208327273e-09
1.064488274517637463e-09
7.695914753711168374e-10
6.144719149820407707e-10
4.118359899174848775e-10
3.081159766589855536e-10
2.145355032586636800e-10
1.492020906122578320e-10
1.047603478024509967e-10
7.385343439869505876e-11
5.265788174317917447e-11
3.810352625397110143e-11
2.812574765921603930e-11
2.114708674826184418e-11
1.615276642506666599e-11
1.247261333624330910e-11
9.668106776448195186e-12
7.468904622749661258e-12
5.712010366397727371e-12
