# bin_13_5
7.144176847038366719e-16
8.110628344744239775e-16
9.064527879811111380e-16
9.935314696647581024e-16
1.062844546955637756e-15
1.102528811865734934e-15
1.102830430001530722e-15
1.048718967052918602e-15
9.414146217089821551e-16
7.987478817717902701e-16
6.541459897366913661e-16
5.445122773973832291e-16
4.714567218552008452e-16
3.862710465293176726e-16
2.715427434794067266e-16
2.046889142010902909e-16
1.569698317002367366e-16
1.066811951929220572e-16
7.657628999646953322e-17
5.394693126804993681e-17
3.694220806164309153e-17
2.526744729116073184e-17
1.735311505176534932e-17
1.201302325075329490e-17
8.416306044482489602e-18
6.004511573318259091e-18
4.368346005744200049e-18
3.244336388344007750e-18
2.453465197209841238e-18
1.879309606230496712e-18
1.447712623598009290e-18
