# bin_11_6
3.467008122496686795e-10
3.921532859767398697e-10
4.362662239933732243e-10
4.754927626129269357e-10
5.051114329232949419e-10
5.193755553623279271e-10
5.139027566763297184e-10
4.817449265074766456e-10
4.266971003934769866e-10
3.574952686101314589e-10
2.924069620991075261e-10
2.461968505677928680e-10
2.130284530981414048e-10
1.683472813179699009e-10
1.165225505839520701e-10
9.185914895092595904e-11
6.629731402624649924e-11
4.743045818908504566e-11
3.252435566424332644e-11
2.314055024633530527e-11
1.600765291223695174e-11
1.104518007110479563e-11
7.681475718787292853e-12
5.390849062461884725e-12
3.844103849578027573e-12
2.794658368679146201e-12
2.071762608543042946e-12
1.564631179728453410e-12
1.198069491508751781e-12
9.240952175448387794e-13
7.126129203260583600e-13
