# bin_14_4
4.380684993772094617e-21
4.981009509659611535e-21
5.577926351049041868e-21
6.128663675203032119e-21
6.576098056175114077e-21
6.848110784764916981e-21
6.880784390168733329e-21
6.584596064104396953e-21
5.946692223913930493e-21
5.076716108630411402e-21
4.164019521898704054e-21
3.450388611094618280e-21
2.982488347500756298e-21
2.476563752947334893e-21
1.763401649508078977e-21
1.300870378609015221e-21
1.020599943519662257e-21
6.824470530347031253e-22
5.005675341718299214e-22
3.486073971903350621e-22
2.379035034112304048e-22
1.626466284046756156e-22
1.111682998860901911e-22
7.649571885674492523e-23
5.316641639182803313e-23
3.759522043080546661e-23
2.709653229377894705e-23
1.994559108381050811e-23
1.497347688720437310e-23
1.141332048404499506e-23
8.774030427527894289e-24
