# bin_13_3
6.694221264639511042e-23
7.589672990851838081e-23
8.468036450511896120e-23
9.262422607802860862e-23
9.883219764323723952e-23
1.021883244779148546e-22
1.018183711957844377e-22
9.631277482136974781e-23
8.603066753195559135e-23
7.263843086308383989e-23
5.944160976068802590e-23
4.968294069142488253e-23
4.303513235376711039e-23
3.482088165531066265e-23
2.428556821508860416e-23
1.863101697864998344e-23
1.398548502382658263e-23
9.672336369632245080e-24
6.812620437940630170e-24
4.832793281512753385e-24
3.320712187183330772e-24
2.275857956799427920e-24
1.570199732832356741e-24
1.092518118189997665e-24
7.704755134997352154e-25
5.536308382903945358e-25
4.057226192657121576e-25
3.033474997742676913e-25
2.305930378290001944e-25
1.771841800873730113e-25
1.366103647385352004e-25
