# bin_6_4
4.764644440811244151e-07
5.261006992302453931e-07
5.683374142368175033e-07
5.972694574823880590e-07
6.066038703723804610e-07
5.900811404502128940e-07
5.424248735273156009e-07
4.715181723615252185e-07
3.900062859109511717e-07
3.201701131221016793e-07
2.733838695016983386e-07
2.330955434551083622e-07
1.749499605811317577e-07
1.234870968083445884e-07
9.957469438024602548e-08
6.817740963554608224e-08
5.123763839583844358e-08
3.559969497067207302e-08
2.533148736265029743e-08
1.812039469343885753e-08
1.304654392348988410e-08
9.518988384489161138e-09
7.056790707863713473e-09
5.332636193762694564e-09
4.094864695528697027e-09
3.179705609554764307e-09
2.481879518876001390e-09
1.933167786311581521e-09
1.492534891690754362e-09
1.135471860799952125e-09
8.472487324025882483e-10
