# bin_9_1
2.166795967675731545e-22
2.414588842099753185e-22
2.638032204799619251e-22
2.811628594689493496e-22
2.903867425290813910e-22
2.889656475630551262e-22
2.730036910901265810e-22
2.436136194555072760e-22
2.055648736406117064e-22
1.682310061372848563e-22
1.406533813651141331e-22
1.216819801517543703e-22
9.823859595926064057e-23
6.876400267902300007e-23
5.283707617536853571e-23
3.969195786826164630e-23
2.773543447299784436e-23
1.976632712074777649e-23
1.417497351008079471e-23
9.956048004129299926e-24
7.028509591253193757e-24
5.021883329510294791e-24
3.640629147050735909e-24
2.686535272786855810e-24
2.020712587943577288e-24
1.544406278680227121e-24
1.194271182428167009e-24
9.283586797201646542e-25
7.202106544453348569e-25
5.538091278941106228e-25
4.196762445777572571e-25
