# bin_10_9
3.088892475200327632e-06
3.502664683398213316e-06
3.908848248455300812e-06
4.276628457346540715e-06
4.564710961478322842e-06
4.721605613249602570e-06
4.706814515270058467e-06
4.455167654008331320e-06
3.981924305718961900e-06
3.363964227899151985e-06
2.752962084824789272e-06
2.299819178249058913e-06
1.992142534629809949e-06
1.614498300583563070e-06
1.126813480806440734e-06
8.626943175966641371e-07
6.493493736807231399e-07
4.480374736216564048e-07
3.162573671922507823e-07
2.242370009268624390e-07
1.540091372839002515e-07
1.055090649091064755e-07
7.275302547895869862e-08
5.058961546709527129e-08
3.564917415566150756e-08
2.559436550227530566e-08
1.874067021823259557e-08
1.400127893258313105e-08
1.063721719643108389e-08
8.170915082391821434e-09
6.299566861997187123e-09
