# bin_14_12
1.846188426571660999e-06
2.112187581989399310e-06
2.384092225028377966e-06
2.644694145729939643e-06
2.871540369370734209e-06
3.035200839871664183e-06
3.101518419079905148e-06
3.042478874672789279e-06
2.821308830160482297e-06
2.473351667869935038e-06
2.054946599727133064e-06
1.682662372358899383e-06
1.430315984582136154e-06
1.232009856436893863e-06
9.424948172419617587e-07
6.524771564590209549e-07
5.270686589087550964e-07
3.602535090284871309e-07
2.672709103370285890e-07
1.786111823327235502e-07
1.235114330317191429e-07
8.432105919766849894e-08
5.705832214880028677e-08
3.845144833021085973e-08
2.591901262139835783e-08
1.765143274445869243e-08
1.219074327412785244e-08
8.576252595176606899e-09
6.169944786153898768e-09
4.540924079039068468e-09
3.409604978430386063e-09
