# bin_8_8
-1.493418096016171914e-08
-1.682419176771842020e-08
-1.862609726694985675e-08
-2.018015442835015532e-08
-2.127855103076241748e-08
-2.168833132588163775e-08
-2.120118381638300165e-08
-1.958738086082212152e-08
-1.711084712403290160e-08
-1.418763897045354043e-08
-1.162751242416489050e-08
-9.904451132807093579e-09
-8.500217989611053242e-09
-6.449123884560244725e-09
-4.494906376075958722e-09
-3.635437539678702590e-09
-2.479227808504977639e-09
-1.853680583887274131e-09
-1.260046114646233225e-09
-8.826551490637257779e-10
-6.170712878059831218e-10
-4.312870117296823631e-10
-3.034353756657661519e-10
-2.158988052646732655e-10
-1.565345705810692445e-10
-1.157228830417484314e-10
-8.713401160191616665e-11
-6.662352854602884293e-11
-5.141204341696358439e-11
-3.975577917177507885e-11
-3.058065069349527477e-11
