# bin_3_1
-1.164486567201686245e-09
-1.213256031898560350e-09
-1.220648357683598829e-09
-1.172787877019725852e-09
-1.065497944428256626e-09
-9.160423299829001201e-10
-7.551182581482191739e-10
-6.238406309047146324e-10
-5.339786536632808409e-10
-4.458719932620674530e-10
-3.289725646738966612e-10
-2.402561222699654662e-10
-1.892066069821031958e-10
-1.330803144799887479e-10
-9.936259710915984576e-11
-7.162688273848074197e-11
-5.240519459660300975e-11
-3.880111665889468711e-11
-2.917127601386049784e-11
-2.232991223966494835e-11
-1.737757611899017231e-11
-1.370456982128420042e-11
-1.087979047315308331e-11
-8.632635629860854731e-12
-6.798203280493772671e-12
-5.278518944638768415e-12
-4.018575549356958641e-12
-2.986717805926040212e-12
-2.161042091142433526e-12
-1.521219823322559663e-12
-1.043055167388312722e-12
