# bin_2_5
-3.317734926949628046e-11
-3.595482348360287472e-11
-3.794935667580908590e-11
-3.875022635279592710e-11
-3.799029221906709810e-11
-3.525424716895144972e-11
-3.093248421053085201e-11
-2.575491244481639713e-11
-2.109933404370189391e-11
-1.787076509817481406e-11
-1.533735344377199990e-11
-1.184491608493315934e-11
-8.315823483756088455e-12
-6.623424069398594206e-12
-4.711997893568676104e-12
-3.476689266682644200e-12
-2.451686170835785227e-12
-1.777585466078161901e-12
-1.285783375853137372e-12
-9.391000451619374603e-13
-6.969523935557122604e-13
-5.260929128039496951e-13
-4.042134110888309374e-13
-3.148648043224970431e-13
-2.471588446591420418e-13
-1.942230060886094067e-13
-1.517123602610758728e-13
-1.170401954541779653e-13
-8.868831752335007010e-14
-6.572402908098508862e-14
-4.748753205001744564e-14
