# bin_7_1
-2.799340136628540789e-19
-3.075714302574156289e-19
-3.302388535600783416e-19
-3.443841040224645542e-19
-3.467015765375365250e-19
-3.329861898217743015e-19
-3.020169135932588199e-19
-2.590322408816508101e-19
-2.129104793476508394e-19
-1.758872455069635613e-19
-1.513598328534761869e-19
-1.265918221589450811e-19
-9.180894835636799175e-20
-6.691966177766923067e-20
-5.315251189087053627e-20
-3.615176095232951590e-20
-2.706150435938026695e-20
-1.914639842011017227e-20
-1.358508701632657200e-20
-9.755758321968052171e-21
-7.076140050857699063e-21
-5.212641145613515479e-21
-3.906186406558351404e-21
-2.981323091592310831e-21
-2.307469150349543186e-21
-1.801108905045994409e-21
-1.408551244948051798e-21
-1.095730513582452781e-21
-8.424846124241936990e-22
-6.367804349427704305e-22
-4.711378961295197232e-22
