# bin_12_11
-9.790396678589125715e-09
-1.116248235237216543e-08
-1.254448931669099945e-08
-1.384254563109181938e-08
-1.493257074161240854e-08
-1.565585049778178121e-08
-1.585152357385103970e-08
-1.534028103121674476e-08
-1.401163676829822530e-08
-1.210120478538041919e-08
-9.968767007300588525e-09
-8.204442125542287312e-09
-7.050925103628739459e-09
-5.973674853392022852e-09
-4.379197923642250538e-09
-3.115143161951659525e-09
-2.516429231352403748e-09
-1.662530438928213749e-09
-1.250038234677855392e-09
-8.520502407125912858e-10
-5.797428597506776589e-10
-3.968895815385576992e-10
-2.698916601888652766e-10
-1.838142075743511410e-10
-1.259116862417805103e-10
-8.754623850327407852e-11
-6.194189758796408736e-11
-4.474929007195313706e-11
-3.304276287750257284e-11
-2.487413260618698286e-11
-1.898673572220956345e-11
