# bin_4_2
-1.350458110887563520e-09
-1.447156051712132736e-09
-1.506042318885235052e-09
-1.512815652344791318e-09
-1.449317232162100383e-09
-1.311917212461215047e-09
-1.123352574636711009e-09
-9.235157980329143936e-10
-7.640382502120453106e-10
-6.566027339399470246e-10
-5.462443090064714394e-10
-3.970424751509601713e-10
-2.916844988715823946e-10
-2.297846873370396825e-10
-1.591467268822596208e-10
-1.188457805992231054e-10
-8.514728438640548775e-11
-6.147440236267219898e-11
-4.495825445975630245e-11
-3.333187233052351505e-11
-2.514346671674142576e-11
-1.929398372871316235e-11
-1.503552109073590022e-11
-1.182819913181706960e-11
-9.330739038165418873e-12
-7.329980817107947229e-12
-5.695280852755767587e-12
-4.351404463699104087e-12
-3.253622090081106855e-12
-2.372354619602579383e-12
-1.683889514753160551e-12
