# bin_8_2
-7.555644001627059675e-18
-8.382121550885280645e-18
-9.107662775513229008e-18
-9.640865292082194519e-18
-9.874320452232891305e-18
-9.720015482937504104e-18
-9.058028142748778924e-18
-7.979100959982091293e-18
-6.658057055478577788e-18
-5.448697359284761086e-18
-4.605382046389704023e-18
-3.970719666784361931e-18
-3.093319525655347507e-18
-2.151676299353277090e-18
-1.713046435699109721e-18
-1.218857415454592327e-18
-8.912578182371844069e-19
-6.180701434219029414e-19
-4.437807792245712116e-19
-3.148984150391173334e-19
-2.245019902445461994e-19
-1.621272589279735694e-19
-1.188433775346241535e-19
-8.878189950472454039e-20
-6.751645556055467095e-20
-5.205683161389536531e-20
-4.048195951890487486e-20
-3.152837098697378636e-20
-2.441910825180197798e-20
-1.868781338597192173e-20
-1.405886371701044313e-20
