# bin_10_5
-2.858017379120577677e-13
-3.217842557953751451e-13
-3.559989906916248653e-13
-3.853695628435322914e-13
-4.059078597390737322e-13
-4.132146851965127202e-13
-4.032117267817886324e-13
-3.717587435793564413e-13
-3.241065676740841049e-13
-2.683966382188960617e-13
-2.200841990152749117e-13
-1.877602569919561912e-13
-1.608425073052214252e-13
-1.213276926177435812e-13
-8.479546803057100835e-14
-6.867913735955724833e-14
-4.655650328328343245e-14
-3.494108392548768354e-14
-2.379098568245599661e-14
-1.662679269889125998e-14
-1.163683418494294272e-14
-8.144670053002854910e-15
-5.739558141251518424e-15
-4.092138725249945551e-15
-2.973830964408689065e-15
-2.203467618945911361e-15
-1.662447692709877279e-15
-1.273021367001788265e-15
-9.831753937635393919e-16
-7.603518578705482611e-16
-5.845518130018725898e-16
