# bin_5_3
-1.590689492906456264e-09
-1.734723322895553268e-09
-1.845358421102808688e-09
-1.902142977490644884e-09
-1.888307941539705298e-09
-1.779449573785900859e-09
-1.584414694396075268e-09
-1.334924381723662466e-09
-1.092753178754499341e-09
-9.147543179273731216e-10
-7.897659601719263345e-10
-6.342933009117110327e-10
-4.460068624989255711e-10
-3.440378489179404012e-10
-2.577109330627019675e-10
-1.825222358226388073e-10
-1.313183973526073888e-10
-9.506081735296210886e-11
-6.807391365087617124e-11
-4.924130370240870060e-11
-3.615997961193001455e-11
-2.700854483562852599e-11
-2.053799265677694912e-11
-1.586997095670693573e-11
-1.239338985241441165e-11
-9.720769061515196903e-12
-7.604426689545444633e-12
-5.892707216166658452e-12
-4.496764926342968045e-12
-3.363108820596943775e-12
-2.456126227773240738e-12
