# bin_4_3
-1.372368515268080375e-08
-1.483318472697600308e-08
-1.560419973119521538e-08
-1.587233033686785600e-08
-1.547745048600299551e-08
-1.427589769322086485e-08
-1.245223336322860359e-08
-1.032956877324714302e-08
-8.475859345397050839e-09
-7.209145136257994896e-09
-6.153385964239723515e-09
-4.678746222286957436e-09
-3.308147419328130076e-09
-2.644466947993343719e-09
-1.856431060443482272e-09
-1.382223776023098520e-09
-9.753477495801903852e-10
-7.058421365129055989e-10
-5.121587302670547913e-10
-3.754793682936068559e-10
-2.797740324035293164e-10
-2.120401671779084018e-10
-1.635148497491589859e-10
-1.277122986464217829e-10
-1.004005061696276842e-10
-7.891385402751606344e-11
-6.157749043430575950e-11
-4.740351716767840259e-11
-3.581068484629815008e-11
-2.643714193316567990e-11
-1.902023001572743018e-11
