# bin_5_4
-1.198092832649487479e-08
-1.314181910268645902e-08
-1.408117451010653395e-08
-1.464602560215496346e-08
-1.469974837274466862e-08
-1.405819858927796214e-08
-1.269709096786831836e-08
-1.084442935143691835e-08
-8.901664825076931453e-09
-7.373673532567492565e-09
-6.354919955391840128e-09
-5.271942128912636417e-09
-3.789676318878496359e-09
-2.797733693913308877e-09
-2.197920482441431295e-09
-1.503947928943521038e-09
-1.117120385968640206e-09
-7.954192880549109188e-10
-5.651295896930152062e-10
-4.063192174864605813e-10
-2.954779674628064861e-10
-2.183504904212327436e-10
-1.641859417399590763e-10
-1.256855085792415726e-10
-9.749563846968180007e-11
-7.620145301927192323e-11
-5.960913441383121532e-11
-4.633734119452382688e-11
-3.557129401880298205e-11
-2.682425872073247133e-11
-1.978936535071087193e-11
