# bin_7_4
8.741574215686710774e-12
9.685748788938334313e-12
1.050878136818609119e-11
1.110458333647975252e-11
1.135063536052013951e-11
1.114372836344849957e-11
1.035283248729330405e-11
9.092625559879258432e-12
7.570383184746740359e-12
6.196286329746720555e-12
5.247170415250079866e-12
4.514977782422648016e-12
3.489870872192547842e-12
2.430956736515586518e-12
1.943221892615324644e-12
1.369330149759300406e-12
1.008361795252435028e-12
6.981867299088219644e-13
5.002699233077661864e-13
3.555430898488184594e-13
2.539443786958899577e-13
1.837170295005279249e-13
1.349313679794659054e-13
1.010111821612964380e-13
7.695404227942499060e-14
5.941111246728048041e-14
4.623151428984067468e-14
3.600404051274905828e-14
2.786505565643504529e-14
2.129691537512694567e-14
1.599310547632953679e-14
