# bin_13_13
6.877254458596519368e-09
7.850623097495215300e-09
8.837082982608547448e-09
9.771453485347826465e-09
1.056823946184604210e-08
1.111706285847237152e-08
1.129857551138391715e-08
1.099767403953741572e-08
1.010894512169103190e-08
8.786316490574232286e-09
7.261013867119360480e-09
5.958338538134375226e-09
5.095808946760238026e-09
4.352467718280115877e-09
3.250130613227704092e-09
2.277474736183390325e-09
1.846885293216456995e-09
1.231746061102910554e-09
9.252121196653060633e-10
6.238115688774254397e-10
4.261761181923314512e-10
2.916214560508051592e-10
1.979668594828059029e-10
1.341128309013957302e-10
9.114015153487266317e-11
6.275100257421585637e-11
4.390430937948410934e-11
3.134045922215770511e-11
2.287928872695726283e-11
1.705937083558563862e-11
1.293549656301049362e-11
