# bin_1_13
7.743959853164717253e-07
7.592995495134139149e-07
7.093476221269795417e-07
6.289018903806200785e-07
5.326716356253133049e-07
4.412173116074430766e-07
3.688635121581695493e-07
3.094911409691445588e-07
2.465321753305237172e-07
1.834561162252948778e-07
1.374949894038441213e-07
1.037695135168108421e-07
7.570507015144529990e-08
5.581012863663013115e-08
4.112850325931008508e-08
3.068040115031069442e-08
2.322952545310972132e-08
1.790125438311912072e-08
1.402599935364812619e-08
1.112860872196835132e-08
8.888191229954406623e-09
7.094252090521878988e-09
5.618728457846675839e-09
4.387670356821883535e-09
3.360082158353931620e-09
2.513169545945246849e-09
1.831486514189752742e-09
1.299557596440292617e-09
8.987268740224678278e-10
6.071252762053859878e-10
4.018185668165927792e-10
