# bin_14_10
1.183615458630765310e-11
1.350512781529880779e-11
1.519315975813676052e-11
1.678766364401995397e-11
1.814067639812592311e-11
1.906181208298336558e-11
1.934901468855006868e-11
1.879895866669998223e-11
1.724386731085229921e-11
1.495674229075045595e-11
1.234545033812728953e-11
1.013744168135282852e-11
8.683329038838441812e-12
7.400169082456655005e-12
5.492919999969993684e-12
3.863094068820186333e-12
3.133883321419151155e-12
2.079154040154806277e-12
1.565226149020343086e-12
1.058443846687982643e-12
7.213392883772376883e-13
4.937963963949155769e-13
3.354115510062149479e-13
2.275618744040234001e-13
1.549964509729284747e-13
1.070284316796152545e-13
7.513730999012906609e-14
5.383472869332106188e-14
3.944308541260601007e-14
2.950200887554643067e-14
2.242147848947955484e-14
