# bin_7_14
1.204566062427483183e-07
1.348766449915535264e-07
1.482341965575926823e-07
1.591703273275437863e-07
1.659673770319406968e-07
1.670297472867198746e-07
1.603384555606247958e-07
1.453435346182760940e-07
1.245854073290517273e-07
1.023962697317124908e-07
8.464575863447803428e-08
7.285852176447518729e-08
6.081677244178869617e-08
4.399589153850436004e-08
3.208294271346341342e-08
2.533286109554173439e-08
1.714019149383889720e-08
1.269412104778050807e-08
8.871738366197859134e-09
6.184704826321771176e-09
4.343000829315000331e-09
3.066173321061486422e-09
2.190175110672295087e-09
1.588330337528570134e-09
1.174846029779310309e-09
8.849098612459371730e-10
6.767585443386044553e-10
5.228207858544186795e-10
4.051386847829678080e-10
3.126601684805344237e-10
2.387321329492982966e-10
