# bin_3_7
2.452472699313824953e-07
2.617035650104131408e-07
2.710126378805842131e-07
2.705589101595204696e-07
2.573343440585223240e-07
2.314538964293703935e-07
1.972116516996153172e-07
1.622471821625228672e-07
1.348891063168032380e-07
1.155252223953354312e-07
9.453633946920309400e-08
6.878914361985103193e-08
5.124880321142948009e-08
3.942986177975248008e-08
2.788250164889786097e-08
2.052738132785964476e-08
1.476718424485538408e-08
1.071062960546547692e-08
7.852389410647185770e-09
5.840737737167865206e-09
4.420251910010999787e-09
3.402008818661909666e-09
2.656125019397370958e-09
2.090978011796718778e-09
1.648544010999177572e-09
1.292741041082177963e-09
1.001628642301968500e-09
7.625224987543024349e-10
5.678092165900843746e-10
4.122787921357250591e-10
2.915010923246643177e-10
