# bin_9_13
6.102610410224018551e-08
6.899095799857893549e-08
7.671036996436051517e-08
8.355856666032105245e-08
8.870613273899103882e-08
9.115464268553009802e-08
9.011474816625226093e-08
8.441047214713396833e-08
7.471171890348570500e-08
6.258183909162324532e-08
5.119896806454027475e-08
4.310890593197279437e-08
3.724460623360191334e-08
2.938421579584017776e-08
2.040199517096601487e-08
1.604151951087594242e-08
1.157189510650360232e-08
8.272085324416663008e-09
5.701516666875675782e-09
4.038318194294676422e-09
2.793037810669842659e-09
1.927892938290962462e-09
1.340142011791800950e-09
9.402608968093446526e-10
6.702790314064762952e-10
4.871256108599579945e-10
3.609743047482528463e-10
2.724733901831124512e-10
2.085116750235242443e-10
1.607205484711250039e-10
1.238524142902916964e-10
