# bin_14_2
5.008645921200741665e-34
5.688730702383958335e-34
6.361919031125521536e-34
6.979068683608410530e-34
7.474479601259059615e-34
7.765536574944843039e-34
7.782002749979672161e-34
7.420191583834134769e-34
6.678087597599783821e-34
5.680928876551384291e-34
4.654329334714236513e-34
3.864677120954411605e-34
3.342910751814683788e-34
2.756007831223523694e-34
1.948317056933987085e-34
1.453222952500552799e-34
1.126601787098785888e-34
7.592177938594981652e-35
5.505857462235031659e-35
3.856719393435304670e-35
2.635498395494468203e-35
1.801160010073374765e-35
1.233413684015529914e-35
8.508806878249843983e-36
5.934712769365295823e-36
4.213366313846548469e-36
3.049757827968666566e-36
2.254242292196903262e-36
1.698125276303754220e-36
1.297375949463455485e-36
9.983238007541505171e-37
