# bin_13_15
2.033661363806923867e-08
2.323244869152539395e-08
2.617654520157972044e-08
2.897744526977090621e-08
3.138461283129147010e-08
3.307282727970396624e-08
3.368047766817707432e-08
3.288033899866622038e-08
3.032469320931391146e-08
2.644407668933113502e-08
2.189691707630161874e-08
1.795054183255685541e-08
1.531343841884409450e-08
1.312307024899609507e-08
9.893477570685718017e-09
6.896887220709686819e-09
5.585394817661634699e-09
3.760067812583616120e-09
2.811020430909780108e-09
1.888114652776719420e-09
1.295756644378681198e-09
8.857657933218861971e-10
6.004532956820774430e-10
4.058278338557292186e-10
2.748208111492064999e-10
1.883408466858841565e-10
1.310593021414539936e-10
9.299255842331571127e-11
6.748247454915008922e-11
5.005279599921544126e-11
3.780468725827877675e-11
