# bin_13_11
5.893208739849803783e-10
6.718530125929026604e-10
7.550103942489215167e-10
8.331552061954341702e-10
8.988492573080356825e-10
9.425734735491300181e-10
9.546010661938026526e-10
9.243148364207220103e-10
8.447790909137858355e-10
7.300556958889049462e-10
6.015167267106035070e-10
4.947269829944465457e-10
4.247848897134803242e-10
3.602195228389174199e-10
2.646930159508296721e-10
1.878261285066692183e-10
1.518005641233718407e-10
1.003766474172057737e-10
7.546116921719544995e-11
5.134160052017110009e-11
3.493886412687207167e-11
2.391283069205789684e-11
1.625381149517881844e-11
1.105823926926846627e-11
7.563847112670502478e-12
5.250169357963172904e-12
3.707680685675251891e-12
2.673348223761806648e-12
1.970412496930378500e-12
1.481082809663417939e-12
1.129360682250832940e-12
