# bin_7_15
1.280056119252494585e-07
1.433365998171377759e-07
1.575416852353422191e-07
1.691774063392866145e-07
1.764188427214586673e-07
1.775679562756746993e-07
1.704817949453525594e-07
1.545637078555407872e-07
1.325106634989434437e-07
1.089171852015518517e-07
9.002797434133553932e-08
7.748511025869443411e-08
6.469685064692108133e-08
4.682160200538439605e-08
3.412783499302645380e-08
2.695623238217493073e-08
1.823722072618583066e-08
1.350928585083183072e-08
9.439043923369356233e-09
6.580157282595272589e-09
4.620496688253459275e-09
3.261750751200466195e-09
2.329545136315502991e-09
1.689109771612213872e-09
1.249171502074895507e-09
9.407438915627188771e-10
7.193677307427730232e-10
5.556938526179322968e-10
4.306007892026222349e-10
3.323182748397387859e-10
2.537594027051348324e-10
