# bin_15_2
3.662728359446702417e-36
4.169630061857539001e-36
4.676926690410987271e-36
5.149243532698261068e-36
5.539621308495543376e-36
5.788443491394447022e-36
5.838870295292863739e-36
5.620123729496711973e-36
5.105063321578772958e-36
4.384236165105140381e-36
3.602689441135856968e-36
2.972792662585583034e-36
2.561792296366352696e-36
2.151193029241344431e-36
1.554675027794157323e-36
1.123393755224481381e-36
8.970907303784115650e-37
5.940842961458504336e-37
4.426810655266522195e-37
3.045681452089248132e-37
2.073025928755304322e-37
1.417602756790557790e-37
9.652685009909970764e-38
6.600932925178030681e-38
4.549138818890627624e-38
3.185922045930636246e-38
2.272448109675301046e-38
1.655531038531718610e-38
1.231763086673142597e-38
9.327508427598740272e-39
7.145116171542021920e-39
