# bin_13_4
2.000567548773463023e-23
2.268223297165719783e-23
2.530980676549019130e-23
2.768929691726161750e-23
2.955411775067858265e-23
3.057184833760841126e-23
3.048021216465110697e-23
2.885885653077192666e-23
2.579989816574493145e-23
2.180127818127497200e-23
1.783785695052806653e-23
1.489082734926545192e-23
1.289478399242214609e-23
1.046210590838091875e-23
7.305921814478845460e-24
5.581270485640193547e-24
4.209880067751796956e-24
2.898179318115096484e-24
2.049306384120912476e-24
1.451496509657453597e-24
9.961157986297753730e-25
6.819260271575159433e-25
4.697229967164112470e-25
3.262464949638337392e-25
2.295800552850979292e-25
1.645879831769117088e-25
1.203413792940337950e-25
8.979252333212217213e-26
6.815027007426794678e-26
5.231625196556115093e-26
4.032460465269016216e-26
