# bin_5_7
8.326237481558065663e-08
9.160860920951600267e-08
9.853582280003792404e-08
1.030002054109579380e-07
1.039779583423868105e-07
1.002970976941584251e-07
9.141985186656157924e-08
7.881106010906894790e-08
6.496923990776709989e-08
5.356033667354674181e-08
4.589311492830159883e-08
3.859239218018969437e-08
2.844136322052469325e-08
2.050601334922960888e-08
1.628335058605379134e-08
1.119146119384090799e-08
8.335202125869942725e-09
5.859289204837201770e-09
4.169064610411989438e-09
2.987364780547611872e-09
2.159522814294930924e-09
1.584163125422967226e-09
1.181621100065805360e-09
8.978733956423967862e-10
6.924213852119587666e-10
5.390834051490826929e-10
4.210400426071292043e-10
3.275278180795250142e-10
2.521175264912222772e-10
1.909666207319051495e-10
1.417154838974408293e-10
