# bin_12_3
4.839884904990118985e-25
5.468428746945443596e-25
6.075891675729827471e-25
6.612385968704822045e-25
7.011824468312654455e-25
7.194802488033744714e-25
7.100008668309864355e-25
6.634181146997046148e-25
5.858199745360730698e-25
4.895445655561739754e-25
4.003606496202018161e-25
3.378115026865377591e-25
2.919275179620924863e-25
2.287646874686956309e-25
1.582465674471702503e-25
1.256155598014298330e-25
8.948050063120562917e-26
6.469405485323839793e-26
4.412445369910279174e-26
3.131465979925264114e-26
2.170448095322564118e-26
1.501163003662002890e-26
1.046007621853439848e-26
7.356941186096100463e-27
5.261227241577442065e-27
3.836386826501232166e-27
2.852250068502182530e-27
2.159233031085370145e-27
1.655980493391060466e-27
1.278052873811020688e-27
9.851728805366020788e-28
