# bin_8_3
4.678620612502935523e-16
5.199098652010658794e-16
5.661123568340708517e-16
6.008835029291940482e-16
6.174816861328014197e-16
6.106017493324270333e-16
5.722536243817739666e-16
5.067876063753762613e-16
4.247077326294499217e-16
3.473438846350696226e-16
2.921133361820975832e-16
2.523739120222375674e-16
1.997239235286800714e-16
1.389224054340532183e-16
1.091056585528124500e-16
7.942849666715667540e-17
5.695990561001283582e-17
3.982513090328810081e-17
2.864231023843670171e-17
2.022642317004008827e-17
1.434687987675199526e-17
1.030948029351742529e-17
7.517988734150545734e-18
5.584942747906405299e-18
4.226261402671738889e-18
3.245888261524963694e-18
2.518005304379029246e-18
1.959519839394278456e-18
1.518790581714912194e-18
1.164721320135412192e-18
8.789627254467551574e-19
