# bin_5_3
3.804983911949955863e-08
3.393247476368714981e-08
2.944729164987211133e-08
2.489878193637929922e-08
2.058519190954636108e-08
1.672503502142066297e-08
1.340820347118800096e-08
1.060413887959556836e-08
8.233588513796208605e-09
6.262541156204186832e-09
4.711032220654523182e-09
3.553149922296949384e-09
2.683494379242218471e-09
2.029477760620173965e-09
1.549853475956136261e-09
1.193347317070650365e-09
9.269460385850191866e-10
7.244883782136305387e-10
5.678180866253145289e-10
4.443845263765934738e-10
3.457790693751873794e-10
2.664203037593165661e-10
2.025415869420881008e-10
1.514899823480347057e-10
1.112324041476743882e-10
8.006261510623077027e-11
5.645315864362664020e-11
3.899847663900258098e-11
2.641592563653669488e-11
1.757045558896382909e-11
1.149839388855154978e-11
