# bin_6_6
5.583717978755228841e-08
5.148965360838786478e-08
4.623808370274860411e-08
4.040298678617657150e-08
3.437953673171919717e-08
2.857208416930988839e-08
2.330343272719862919e-08
1.873534155644493559e-08
1.486359203341316073e-08
1.158993431118357663e-08
8.846617482555369924e-09
6.647347529671444029e-09
4.988150167766740681e-09
3.751210538203588125e-09
2.814918429220034310e-09
2.127764814297441743e-09
1.620432143060726027e-09
1.244386038245269941e-09
9.621077714686108829e-10
7.470598823826946706e-10
5.804332457353056732e-10
4.494312063591318923e-10
3.454410849107953671e-10
2.626064904554547069e-10
1.968471578792574783e-10
1.451460587471310586e-10
1.050949271816144730e-10
7.464623881355939877e-11
5.199084421020258364e-11
3.552007987409285325e-11
2.382573519369629593e-11
