# bin_8_6
6.137444689180756620e-08
5.704061076155002070e-08
5.164102696968200181e-08
4.549008724858208460e-08
3.899939829417250953e-08
3.261582475400951508e-08
2.672922716563703498e-08
2.157105881130325824e-08
1.718326446333499338e-08
1.347168335995616152e-08
1.033959791112645223e-08
7.785069751429510171e-09
5.831302056588401500e-09
4.380939732471216770e-09
3.281220574760265837e-09
2.468362786343055775e-09
1.871936526959253153e-09
1.430504315851347173e-09
1.101374650086188421e-09
8.525124206580272561e-10
6.611811307388739683e-10
5.118076140083973247e-10
3.938599310455473721e-10
3.001938499895385035e-10
2.258781506202976017e-10
1.673516246004253873e-10
1.218483402934982048e-10
8.707382089674952428e-11
6.103358294414466977e-11
4.196505942168661677e-11
2.832270597770573473e-11
