# bin_11_11
8.337615469790761649e-08
7.961577777253055112e-08
7.420129745271215999e-08
6.736457669421099015e-08
5.950304342801692246e-08
5.114481859177418260e-08
4.287039892915223617e-08
3.519516362742203426e-08
2.843806654305445571e-08
2.267230834630499511e-08
1.778887003151226890e-08
1.366096205479261103e-08
1.027664375438261273e-08
7.669146847666679375e-09
5.731577154352550447e-09
4.265915815309810736e-09
3.178977278862715992e-09
2.386076792051313688e-09
1.801900842760872842e-09
1.370768132519952545e-09
1.048810705924791603e-09
8.049337125591761653e-10
6.175740088335038460e-10
4.719595781317003819e-10
3.579782451285493756e-10
2.686251826013411814e-10
1.989009958941529212e-10
1.450241679090418329e-10
1.039760558013055918e-10
7.324187106506466805e-11
5.067758421687388454e-11
