# bin_11_5
6.042141339688666915e-08
5.598784034237876418e-08
5.051251598290894802e-08
4.432384216924760167e-08
3.784573044929381720e-08
3.153273881332177485e-08
2.576684374149377158e-08
2.075479006662793800e-08
1.650654327033109128e-08
1.290482047716687474e-08
9.861485265969704176e-09
7.403382069047449460e-09
5.551756863818612233e-09
4.172660646911949219e-09
3.123913613838154410e-09
2.357076275713331964e-09
1.790894508702594750e-09
1.372751649092952565e-09
1.059893758372068588e-09
8.224267799842971647e-10
6.390552366817517960e-10
4.952511630344816975e-10
3.812507640716053584e-10
2.904396424168601715e-10
2.182576359188967083e-10
1.613788317767205465e-10
1.171844083640959426e-10
8.346950659705999643e-11
5.829203145679450799e-11
3.992133824959734865e-11
2.683385803830679251e-11
