# bin_13_4
5.474498840982524582e-08
5.021214559250070777e-08
4.480800531473555754e-08
3.888011749906478709e-08
3.284864889507275056e-08
2.713123078924696703e-08
2.203030458677774345e-08
1.766211344562699408e-08
1.396647233131043968e-08
1.082179436947199939e-08
8.195595817547015022e-09
6.142979366529980333e-09
4.622968661979385343e-09
3.472104088851243262e-09
2.610881686145102046e-09
1.982161700826405784e-09
1.516243696433356502e-09
1.170152141011459037e-09
9.090821710592691672e-10
7.086840771624071134e-10
5.521432678124956474e-10
4.281182678396666763e-10
3.290245525956837872e-10
2.497295627944811992e-10
1.866389635566957999e-10
1.370357664916262130e-10
9.869207863654341943e-11
6.966078771909889672e-11
4.818474464914064899e-11
3.268295307617447041e-11
2.176586066044864448e-11
