# bin_15_1
2.343047929076757343e-08
2.000843314633577633e-08
1.668144631144730678e-08
1.364588296924049582e-08
1.100525317336759794e-08
8.760203290026243936e-09
6.854816560195710201e-09
5.254625683543323143e-09
3.972153754299869425e-09
3.001358612366908952e-09
2.275253969716420235e-09
1.728557052205269681e-09
1.324710631705572786e-09
1.025635961693551782e-09
8.017312986926988227e-10
6.314226438037045899e-10
4.991705416471858162e-10
3.943214239258361072e-10
3.098028091358439091e-10
2.410131187877412421e-10
1.849434174509637851e-10
1.395437639379373287e-10
1.032824488830159458e-10
7.487101092640356091e-11
5.312163019040110922e-11
3.689580451199384235e-11
2.511051379890236402e-11
1.677324890239431509e-11
1.101962954753221056e-11
7.136708983566074825e-12
4.566721177935878892e-12
