# bin_8_4
5.022780170434900083e-08
4.581339817952866874e-08
4.066257393819917394e-08
3.511023960771254436e-08
2.954304038460606777e-08
2.432577566951495191e-08
1.970500606128884769e-08
1.575909485947575128e-08
1.242255109071698441e-08
9.594957337577330119e-09
7.256698629451446359e-09
5.444167592268494487e-09
4.100387618674942157e-09
3.082955622798438661e-09
2.324529933984803153e-09
1.769203437456570858e-09
1.357109589596903011e-09
1.049768557817655161e-09
8.168982794170359138e-10
6.373036983458696640e-10
4.964306066074790243e-10
3.844880643396998669e-10
2.949185692821703278e-10
2.232578485904388959e-10
1.663337917093124999e-10
1.217036618215567576e-10
8.733060255137749902e-11
6.141573917214366105e-11
4.233174496535254805e-11
2.861922308599844734e-11
1.900418741000706559e-11
