# bin_15_11
8.975053295254310720e-08
8.623695165257524008e-08
8.091109688277214576e-08
7.397362673337693258e-08
6.580651106296824521e-08
5.694719647056154703e-08
4.801641386776069771e-08
3.960207084756337715e-08
3.211143471873685856e-08
2.568670195876479628e-08
2.024333501943377694e-08
1.562777727021849316e-08
1.179553997724396438e-08
8.797077586020524443e-09
6.566496620094721132e-09
4.885094621377151119e-09
3.626217271627311958e-09
2.711704584521423187e-09
2.037918397863238867e-09
1.543355488779280046e-09
1.176050712572306243e-09
8.997408014117284551e-10
6.889638070214563917e-10
5.261715754770900040e-10
3.993614601835422731e-10
3.002391027286976266e-10
2.229624760654483454e-10
1.631941910663388026e-10
1.175397282932907803e-10
8.322138931413039872e-11
5.789888135809409532e-11
