# bin_15_9
8.374829196031396897e-08
7.995291832096465449e-08
7.448659840639093133e-08
6.758401451449792631e-08
5.964892395615779557e-08
5.121888837409877910e-08
4.288591813605697467e-08
3.517505368345238541e-08
2.840467438904404309e-08
2.263906653663077173e-08
1.775383421689269383e-08
1.361624331264237943e-08
1.022672931179262191e-08
7.630692251386431775e-09
5.705796027311222722e-09
4.243250953601801740e-09
3.164488895534040043e-09
2.376006546513819271e-09
1.796112541662008363e-09
1.367562360681978515e-09
1.047386361085775632e-09
8.046014089538321789e-10
6.178255514112441098e-10
4.724621634580386279e-10
3.585188783871254946e-10
2.690898599263102999e-10
1.992419987222726089e-10
1.452351113119729864e-10
1.040749703783349077e-10
7.325740582563783882e-11
5.063981649237685190e-11
