# bin_9_1
2.244698288804067757e-08
1.913799707415797747e-08
1.593562923129627804e-08
1.302304142514997506e-08
1.049363679041808328e-08
8.344596340789956805e-09
6.522693505821735844e-09
4.996622005633710715e-09
3.777241980085044308e-09
2.855236192375294563e-09
2.165401341716358579e-09
1.646324731708216614e-09
1.262842869394472689e-09
9.785622462449630205e-10
7.654679842304255515e-10
6.031145658792823062e-10
4.768306811003774062e-10
3.765743862906123922e-10
2.956874859043384217e-10
2.298367782566467624e-10
1.761813144609997254e-10
1.327738611949349568e-10
9.814683442608820362e-11
7.105646851279513828e-11
5.035214328167443295e-11
3.493147420140175488e-11
2.374874024311867174e-11
1.584921733915952451e-11
1.040462702133465180e-11
6.734222159308265842e-12
4.307046019505894682e-12
