# bin_14_10
8.603882572008124475e-08
8.236015184335110295e-08
7.695793981914196256e-08
7.005290142614742105e-08
6.203897219625894492e-08
5.345196452946528984e-08
4.489308583452350247e-08
3.691091046383957291e-08
2.985945328006645946e-08
2.383555585627828499e-08
1.873296426267776951e-08
1.441052203599223215e-08
1.084781616902249790e-08
8.091431694781280881e-09
6.045754032591201684e-09
4.497417714701148145e-09
3.346595728754417999e-09
2.508552334972171315e-09
1.891285738190580085e-09
1.436590125521573708e-09
1.097793214462344949e-09
8.417863928184231287e-10
6.455733364209993500e-10
4.933813153655927083e-10
3.744172581676045167e-10
2.812184564456664832e-10
2.084884970219226647e-10
1.522487652977448979e-10
1.093460551681096411e-10
7.716871591804454645e-11
5.349751327174090453e-11
