# bin_12_3
4.533312929958402365e-08
4.086793257473158519e-08
3.582701997176691640e-08
3.055843647942950369e-08
2.543725509631692372e-08
2.077438917962902927e-08
1.673310086359345761e-08
1.331000440425279310e-08
1.040238431522298649e-08
7.945699471199752159e-09
5.973774767843730488e-09
4.495564568553707810e-09
3.389859440026855767e-09
2.551988251448206986e-09
1.938852870556594474e-09
1.485012289251680191e-09
1.148162480855436046e-09
8.943659336940146485e-10
6.998196087952744985e-10
5.478431016272016783e-10
4.271891028432139696e-10
3.303959745495496216e-10
2.524780574232470193e-10
1.900157823806708588e-10
1.404896885008511386e-10
1.018627842918158548e-10
7.235507762509195331e-11
5.033993087093888938e-11
3.432317687235076363e-11
2.296399068362746932e-11
1.510358409012332383e-11
