# bin_11_2
-2.169849581358456488e-09
-2.248066824009550369e-09
-2.246033228318853078e-09
-2.141219954610100230e-09
-1.932824593390889119e-09
-1.654769317084730283e-09
-1.367163218977612140e-09
-1.135419844766636867e-09
-9.662270115987631076e-10
-7.927752612889947265e-10
-5.883302569262032485e-10
-4.354295694835723895e-10
-3.344498653366308556e-10
-2.405652090796189738e-10
-1.769697481337573739e-10
-1.284821932354512466e-10
-9.429779824177958947e-11
-6.995837587779298530e-11
-5.273841176088907611e-11
-4.046687715269769982e-11
-3.154969537949648243e-11
-2.489586291000241232e-11
-1.975340663636462879e-11
-1.564736235230245060e-11
-1.228966335699223837e-11
-9.510267417068148702e-12
-7.212869786717043278e-12
-5.340592562253858263e-12
-3.851345737847672035e-12
-2.703955686869765978e-12
-1.850552045340941144e-12
