# bin_1_8
-3.402951686741577230e-26
-3.765354796152063241e-26
-4.078449761179384109e-26
-4.300644343265452352e-26
-4.385149779598010887e-26
-4.290444788760591636e-26
-3.969878347438786870e-26
-3.473116737013101453e-26
-2.883749794314123782e-26
-2.362073751014917748e-26
-2.006489613013099338e-26
-1.721663051849272295e-26
-1.316085604955174544e-26
-9.196676602464905961e-27
-7.391213136554692600e-27
-5.140607117872249091e-27
-3.823155379209942098e-27
-2.645012385879277612e-27
-1.889748211141951628e-27
-1.346590537981533324e-27
-9.647516369591651013e-28
-7.000667721144675432e-28
-5.158611895164568085e-28
-3.875020617539572427e-28
-2.960769055891480502e-28
-2.290793408357227400e-28
-1.784739023575400037e-28
-1.390097291377317149e-28
-1.074950981862650854e-28
-8.202019745999602650e-29
-6.144986496120017593e-29
