# bin_5_10
-3.504164473240345232e-17
-3.942128323420356036e-17
-4.357264144933856005e-17
-4.711699934995667980e-17
-4.956526662452688717e-17
-5.038630442447297768e-17
-4.907350932329004895e-17
-4.515080998144918381e-17
-3.928219410220356651e-17
-3.248710499500452227e-17
-2.664731901755252484e-17
-2.275710855989916392e-17
-1.945179107064928542e-17
-1.459577396045501696e-17
-1.022975262689765988e-17
-8.285503611706531544e-18
-5.592557063147766188e-18
-4.204848885710520876e-18
-2.868401314291759958e-18
-2.000936436774807360e-18
-1.401058735018783489e-18
-9.813223243563538001e-19
-6.923364890479375048e-19
-4.943725296280496126e-19
-3.599015233444361978e-19
-2.671271725121282073e-19
-2.018419524467624290e-19
-1.547251735948026428e-19
-1.195563798179076869e-19
-9.245050744129110315e-20
-7.102749946909428149e-20
