# bin_12_9
-1.593929003246319673e-10
-1.801347384947648590e-10
-2.002062114021387044e-10
-2.179671717524774143e-10
-2.312464413103869718e-10
-2.374424668543419392e-10
-2.344937144727431757e-10
-2.193653445258714034e-10
-1.939221053430885987e-10
-1.622653588432555442e-10
-1.327521726832030485e-10
-1.118929585887484787e-10
-9.663888309889433746e-11
-7.597901082380069056e-11
-5.272259241567729928e-11
-4.159557144167483251e-11
-2.984246172634305277e-11
-2.142897330620956651e-11
-1.472838961347231142e-11
-1.043086022026077811e-11
-7.221314182486219249e-12
-4.989489760022047433e-12
-3.472240890187630841e-12
-2.439238289603798417e-12
-1.741596942571106698e-12
-1.267781739413121203e-12
-9.409501386958618605e-13
-7.112072356476596550e-13
-5.447648833838772645e-13
-4.200931716230854297e-13
-3.237125352343135702e-13
