# bin_9_12
-2.258151631262836404e-13
-2.565776932290795103e-13
-2.870852706981801172e-13
-3.151287430164127462e-13
-3.377570530012317700e-13
-3.512537766123005257e-13
-3.523982084628815289e-13
-3.365497197621767535e-13
-3.033513701442517949e-13
-2.584557520248000186e-13
-2.118301585406704479e-13
-1.756886171199184161e-13
-1.519071075834654342e-13
-1.256612938649335062e-13
-8.911730150421533159e-14
-6.611180473453605463e-14
-5.154943628622361320e-14
-3.459518239943211657e-14
-2.522710208131972137e-14
-1.761974277124541151e-14
-1.202997163478516144e-14
-8.220667383483128555e-15
-5.622533375823172073e-15
-3.872861766895186321e-15
-2.695806815374881000e-15
-1.909599931534201262e-15
-1.378952799132581508e-15
-1.016948582034007189e-15
-7.646412576187544371e-16
-5.834583395570620188e-16
-4.487308688416331341e-16
