# bin_1_2
-3.016807481819515373e-11
-3.030663637219141579e-11
-2.909632227447908852e-11
-2.644990356844972461e-11
-2.277836972471451227e-11
-1.883720342956919718e-11
-1.557777724213454384e-11
-1.326168185024431994e-11
-1.102704064760874748e-11
-8.246953804671604176e-12
-6.041878303023111210e-12
-4.698559221765679458e-12
-3.378651098029597798e-12
-2.502787599163637914e-12
-1.824192633123865222e-12
-1.348446524388924753e-12
-1.008667298450412871e-12
-7.674647370999324123e-13
-5.946992612725792419e-13
-4.680783816298001351e-13
-3.724946971178270844e-13
-2.976009562071913948e-13
-2.369448518084367619e-13
-1.866957924578141288e-13
-1.446665011860170831e-13
-1.096726685377774353e-13
-8.104590307823457193e-14
-5.827325225305840783e-14
-4.077422545572530075e-14
-2.781713281713111833e-14
-1.855791664353166858e-14
