# bin_4_4
-1.102680924496837584e-10
-1.191319617922943164e-10
-1.252685609251510506e-10
-1.273674846374724166e-10
-1.241425974178510010e-10
-1.144907064702738827e-10
-9.985562640774478891e-11
-8.287338329923519914e-11
-6.802594210809801099e-11
-5.780463069799758743e-11
-4.924721825471059937e-11
-3.749870486436138713e-11
-2.659456928146493088e-11
-2.113073757668262017e-11
-1.492859376274521953e-11
-1.104695794638557781e-11
-7.822374869748382465e-12
-5.660593055131083290e-12
-4.103599098546024781e-12
-3.006790773884269868e-12
-2.239366846481267154e-12
-1.696524187657197152e-12
-1.307618570018303773e-12
-1.020809077778402177e-12
-8.021262040987660295e-13
-6.301843451109257993e-13
-4.915490954194326766e-13
-3.782772205687746705e-13
-2.856936686035533522e-13
-2.108813838686481306e-13
-1.517190262136285262e-13
