# bin_3_6
-1.874868147835162753e-14
-2.056248622731710779e-14
-2.202996424750025476e-14
-2.291236582822500179e-14
-2.299590655013359518e-14
-2.199447978477938088e-14
-1.986595034409483658e-14
-1.696843800505660751e-14
-1.392557831864229433e-14
-1.152892212462548198e-14
-9.933020100679190912e-15
-8.244518008698633984e-15
-5.928414073996896782e-15
-4.370699456780522866e-15
-3.437004570329760033e-15
-2.349160170312427636e-15
-1.746113690819296553e-15
-1.242456621721565169e-15
-8.823748106090132408e-16
-6.342106851857762304e-16
-4.610105478140806020e-16
-3.405331941375826966e-16
-2.559510955418519876e-16
-1.958627655176091963e-16
-1.518890306583221906e-16
-1.186892822351592958e-16
-9.283278545283310485e-17
-7.215829555311698203e-17
-5.539137442428913038e-17
-4.177094496439290308e-17
-3.081756499291163040e-17
