# bin_7_6
-1.487475546357306422e-10
-1.650035306080926583e-10
-1.792793763009427586e-10
-1.897825178003795101e-10
-1.944201155837770637e-10
-1.914310569415919896e-10
-1.785218428044822447e-10
-1.573607576626639053e-10
-1.314482186503647478e-10
-1.076021215000879869e-10
-9.082882784078173607e-11
-7.820520860145546360e-11
-6.109395070686304182e-11
-4.266052951987920827e-11
-3.371002120604199060e-11
-2.417489354285461175e-11
-1.753565922823633362e-11
-1.224927102707454611e-11
-8.777707499789153698e-12
-6.217648525195139726e-12
-4.426761810654816778e-12
-3.192363288053197855e-12
-2.337074066578017161e-12
-1.743316566030630535e-12
-1.323913897380121888e-12
-1.019528571173596564e-12
-7.920655210084158397e-13
-6.164790898888219721e-13
-4.773129538552580074e-13
-3.652751705056494735e-13
-2.748595283234032204e-13
