# bin_9_1
-3.272742618953949155e-09
-3.205592452558553848e-09
-2.991062502793228641e-09
-2.648699143131536288e-09
-2.241489898011410503e-09
-1.856483962462390998e-09
-1.552662568003118756e-09
-1.302079478708604465e-09
-1.035314373810507418e-09
-7.698353373256294619e-10
-5.774565900016272691e-10
-4.354700756939582322e-10
-3.176898347291598245e-10
-2.342531349021496509e-10
-1.726853073372495092e-10
-1.288808646503884179e-10
-9.764381923464508286e-11
-7.529656156895801200e-11
-5.903106683060184139e-11
-4.685733024508514682e-11
-3.743255500567695522e-11
-2.987748943090710216e-11
-2.365834537513792047e-11
-1.846743644950382117e-11
-1.413452192118375957e-11
-1.056486048582172501e-11
-7.693645671500592997e-12
-5.455195568329753966e-12
-3.770076768894568774e-12
-2.545323178878729175e-12
-1.683748886467716293e-12
