# bin_7_10
-1.140817059946598412e-13
-1.287308416892655540e-13
-1.428079647854884553e-13
-1.551202356922624400e-13
-1.640988141911270896e-13
-1.679028895529885664e-13
-1.650505810385402387e-13
-1.534975402178951363e-13
-1.349420548179870128e-13
-1.123744656659583224e-13
-9.194782120242878582e-14
-7.787877616011544942e-14
-6.714839106246566909e-14
-5.193222945059926320e-14
-3.596925757906036716e-14
-2.882494470202200206e-14
-2.013858433196156650e-14
-1.478962940272823421e-14
-1.004201114249004087e-14
-7.092094579827299020e-15
-4.933736351848769137e-15
-3.427673775559396308e-15
-2.397633634923098692e-15
-1.693963155060956902e-15
-1.218148472213668106e-15
-8.932648064213807873e-16
-6.676343572043322389e-16
-5.075758613926436156e-16
-3.903448647619116321e-16
-3.015618489194282673e-16
-2.322917977596201347e-16
