# bin_13_1
-3.539866042952906820e-09
-3.469654985019628256e-09
-3.240071565962712297e-09
-2.871458174966920391e-09
-2.431356975448629300e-09
-2.013833642396267732e-09
-1.683827770491596496e-09
-1.412586128630088513e-09
-1.124530140949088885e-09
-8.365676218901598982e-10
-6.271727998448381634e-10
-4.732119446689552281e-10
-3.452228194268026328e-10
-2.545204066752011213e-10
-1.875847412264541118e-10
-1.399549153502838660e-10
-1.059891961001684849e-10
-8.169639812806579677e-11
-6.402375444118661337e-11
-5.080592511824417299e-11
-4.058098974732394288e-11
-3.239055081209229368e-11
-2.565196592864722014e-11
-2.002899435441228837e-11
-1.533536358057353836e-11
-1.146748134306217316e-11
-8.354934365403648225e-12
-5.926894151171383445e-12
-4.097872970169651234e-12
-2.767704571172423892e-12
-1.831453482304711853e-12
