# bin_6_10
-3.521028210273025421e-15
-3.967211174460550698e-15
-4.393116039853743418e-15
-4.761311474960720037e-15
-5.023011426225545200e-15
-5.122896184633501905e-15
-5.013064970636996647e-15
-4.637219060573569144e-15
-4.055747873168555350e-15
-3.365163188435029589e-15
-2.756140519709672128e-15
-2.344334291018013945e-15
-2.013970550450449206e-15
-1.534196576340929025e-15
-1.067097021110103869e-15
-8.616695851530070007e-16
-5.902925979769332722e-16
-4.398423857385734173e-16
-2.986308460644778898e-16
-2.095104493633274662e-16
-1.462985952543937012e-16
-1.021081769119184237e-16
-7.173177572394881751e-17
-5.094566952607243251e-17
-3.686345712643222154e-17
-2.719935451457606812e-17
-2.044420400600327672e-17
-1.561115904382080321e-17
-1.203725697817670162e-17
-9.305947341177538323e-18
-7.160203494205923414e-18
