# bin_1_7
-2.634316112692123655e-23
-2.892518605147463798e-23
-3.103403746629250021e-23
-3.233568738040428386e-23
-3.252225410758445612e-23
-3.119831521201549870e-23
-2.826200853645748215e-23
-2.421056723579387129e-23
-1.988764929916997172e-23
-1.643397193689927246e-23
-1.414411343589132064e-23
-1.180632101154572720e-23
-8.542614467973686470e-24
-6.242287176792039200e-24
-4.946193583326487542e-24
-3.366807475269409044e-24
-2.515892334993398846e-24
-1.782244026170794654e-24
-1.264583205221656449e-24
-9.081671071162463053e-25
-6.589642501089056244e-25
-4.856870939119689213e-25
-3.641803353218248487e-25
-2.781052601378103929e-25
-2.153302615667447866e-25
-1.681084840154897265e-25
-1.314611808687505292e-25
-1.022350469494558481e-25
-7.856614725120046224e-26
-5.934212526596930302e-26
-4.386921019389521110e-26
