# bin_15_2
-2.359851484615581223e-09
-2.445719962103674500e-09
-2.444501927229819382e-09
-2.331640789313022808e-09
-2.105859364320975261e-09
-1.803782723361384975e-09
-1.490537081463394094e-09
-1.237580304839752983e-09
-1.053082519536458018e-09
-8.647524573352803964e-10
-6.422627933586627902e-10
-4.750063204233254384e-10
-3.649982317657768239e-10
-2.625790710722087570e-10
-1.931405766471976541e-10
-1.402070051769279839e-10
-1.028871116126634562e-10
-7.630966167846510357e-11
-5.750816550877356340e-11
-4.411278134050489204e-11
-3.438252620861383838e-11
-2.712569990609748127e-11
-2.152042493917171962e-11
-1.704708120374864075e-11
-1.339036336773514959e-11
-1.036400537299882850e-11
-7.862448085235540559e-12
-5.823410368099072808e-12
-4.200985044196592734e-12
-2.950450671639223131e-12
-2.019897008542615881e-12
