# bin_12_11
-5.095713192055667866e-11
-5.791619128213764270e-11
-6.482792256163627456e-11
-7.119466498928382341e-11
-7.635255500293966569e-11
-7.946464606092524766e-11
-7.979286581510631794e-11
-7.630398330565343663e-11
-6.886902768293171746e-11
-5.875939523397268164e-11
-4.818534334954307869e-11
-3.993147030171845829e-11
-3.450028496047123587e-11
-2.860758568369484924e-11
-2.036574086115402498e-11
-1.503757459178440938e-11
-1.176962781136704827e-11
-7.885787398104878507e-12
-5.770425038913306783e-12
-4.018296152016378509e-12
-2.742259546187391485e-12
-1.874588138778811662e-12
-1.281313464769071833e-12
-8.814788071813807459e-13
-6.125126024530862679e-13
-4.330224782253190485e-13
-3.120264941767772129e-13
-2.296243689638253125e-13
-1.723344100680561889e-13
-1.313169665828968135e-13
-1.009135655779806181e-13
