# bin_15_4
-1.135058611046518738e-09
-1.235021106912998478e-09
-1.310212687805717885e-09
-1.346483754913992619e-09
-1.331190080981157570e-09
-1.249195052931489071e-09
-1.108090460276053360e-09
-9.318421531517622641e-10
-7.639607229724665193e-10
-6.411062720471858878e-10
-5.506602028523158285e-10
-4.377629324871157108e-10
-3.105680937009605003e-10
-2.393668674293619043e-10
-1.776849274355652460e-10
-1.268195322046171309e-10
-9.138506314053182794e-11
-6.580716520960780161e-11
-4.723614439399387431e-11
-3.426226190439029033e-11
-2.521451843296504105e-11
-1.887010699695438454e-11
-1.437364910121316148e-11
-1.111892027675119689e-11
-8.686448736752579397e-12
-6.810353020489613215e-12
-5.321372811032098110e-12
-4.116139940522293626e-12
-3.133861223394615337e-12
-2.337626922079383835e-12
-1.702553482695831780e-12
