# bin_12_14
-1.744684290095938175e-12
-1.993234460178774621e-12
-2.246006603197272480e-12
-2.486570216951028278e-12
-2.693446116748957990e-12
-2.838742191186966668e-12
-2.891309615709041839e-12
-2.823280431068552307e-12
-2.604311899024481148e-12
-2.271490811700394342e-12
-1.880852851890459128e-12
-1.541562651179432186e-12
-1.315053639673003283e-12
-1.127618993308803975e-12
-8.503825034956351649e-13
-5.920932503220211625e-13
-4.801980430805906549e-13
-3.227469289724813806e-13
-2.417271206582523827e-13
-1.621871486443883860e-13
-1.112095234043068311e-13
-7.605332783727259428e-14
-5.157565391415282364e-14
-3.485280117277375173e-14
-2.359495411353277768e-14
-1.616558058686014523e-14
-1.124547009388647557e-14
-7.976652481691872649e-15
-5.786965009589641215e-15
-4.291617358337859611e-15
-3.241401004614687982e-15
