# bin_12_5
-7.136422027639044963e-10
-7.861749886392002978e-10
-8.469539811713563035e-10
-8.870830601615849606e-10
-8.975823808254208582e-10
-8.686537812946805327e-10
-7.946287775570452270e-10
-6.874779127285422943e-10
-5.678381515143602914e-10
-4.674828353417257198e-10
-3.996768304867900021e-10
-3.375801918271788025e-10
-2.511132350968343758e-10
-1.798848074678499870e-10
-1.429983440254983055e-10
-9.876846787316174648e-11
-7.338216409491281495e-11
-5.147555785627919185e-11
-3.665885609921509742e-11
-2.622298981955751409e-11
-1.891050892390160245e-11
-1.383403515375479930e-11
-1.028786518955768439e-11
-7.795018190107743632e-12
-5.997432365580747730e-12
-4.661869632403734994e-12
-3.638495093547284700e-12
-2.830932569078965855e-12
-2.181306669955202978e-12
-1.655002125304600911e-12
-1.230921400841482365e-12
