# bin_8_11
-1.754208666241994132e-13
-1.986954937799475836e-13
-2.214416851461038623e-13
-2.418974975107124620e-13
-2.577070918663569288e-13
-2.659543010300939652e-13
-2.643942551681432608e-13
-2.493770980197948285e-13
-2.221499152665212021e-13
-1.870830949878772409e-13
-1.530127301843250089e-13
-1.281222685206747627e-13
-1.109412895025456004e-13
-8.915863509541436266e-14
-6.198062843733970722e-14
-4.793203028536017528e-14
-3.557680679631235190e-14
-2.482874460696013750e-14
-1.733124315534899029e-14
-1.231597987111696810e-14
-8.474412611831908478e-15
-5.814058885571775709e-15
-4.018378972811413312e-15
-2.801161501522185677e-15
-1.980523513372510378e-15
-1.427071319959987686e-15
-1.048761893710438784e-15
-7.861150221720473007e-16
-5.986987634440042781e-16
-4.604977666084874810e-16
-3.550723764587498373e-16
