# bin_2_1
-1.266573341854289012e-09
-1.223706218809201772e-09
-1.123737942725387666e-09
-9.798159683043782524e-10
-8.202765953902892640e-10
-6.791967199957686200e-10
-5.710370351298780586e-10
-4.748940896455105304e-10
-3.682281113595419950e-10
-2.716843375072448861e-10
-2.061307663199021817e-10
-1.535248421060957819e-10
-1.122087797274783933e-10
-8.290089696558685686e-11
-6.142798751730842437e-11
-4.615333380480826738e-11
-3.526905489193397308e-11
-2.743618138198848823e-11
-2.167328165183649329e-11
-1.729837331743895349e-11
-1.385606678200019012e-11
-1.105630994225491177e-11
-8.728078429280373715e-12
-6.775383202639768790e-12
-5.146602208134277210e-12
-3.812377149601384499e-12
-2.749479686836019875e-12
-1.930769492305628117e-12
-1.322422132917462578e-12
-8.857900794232111501e-13
-5.820718522376380822e-13
