# bin_10_6
-3.994832174173538122e-10
-4.439674906691075394e-10
-4.834859782649828055e-10
-5.132797642932795259e-10
-5.276708408641113500e-10
-5.219319663950794372e-10
-4.895654670954896745e-10
-4.339414800926314890e-10
-3.642253566989895636e-10
-2.981682630092052295e-10
-2.505549247096871052e-10
-2.160491076870824551e-10
-1.713141171787054107e-10
-1.199878018041836032e-10
-9.344065963789556924e-11
-6.847749141525491500e-11
-4.881804758002023082e-11
-3.447380754127964297e-11
-2.465726766352298116e-11
-1.739453373129113177e-11
-1.233822131448840957e-11
-8.857012934723901610e-12
-6.452298291577572393e-12
-4.787126576567103426e-12
-3.617957940420963853e-12
-2.775432778274718385e-12
-2.150852967632704130e-12
-1.672557972119255403e-12
-1.295821260466893399e-12
-9.936423958553753587e-13
-7.500126797486224414e-13
