# bin_5_6
-1.277115805695151234e-11
-1.410572649648705796e-11
-1.524471872284987624e-11
-1.603063436700826926e-11
-1.629372029529193507e-11
-1.586950852146120729e-11
-1.461012697837425222e-11
-1.271924806027263449e-11
-1.053060158290007778e-11
-8.639407647630479032e-12
-7.364316101116556136e-12
-6.285878517269373384e-12
-4.741750087403964366e-12
-3.339933433769765466e-12
-2.686291973001894527e-12
-1.850071228768300759e-12
-1.383741089051976360e-12
-9.608248725627744509e-13
-6.845440213085271160e-13
-4.889085504140516118e-13
-3.513816400835746968e-13
-2.559084088818611193e-13
-1.893450995830818817e-13
-1.428053961178892117e-13
-1.094777988623097717e-13
-8.490522185914938078e-14
-6.622316835086953292e-14
-5.157140519989696298e-14
-3.982715000402217566e-14
-3.031937065987821895e-14
-2.264590365783872225e-14
