# bin_3_14
-5.375902118950667108e-32
-6.106765782869864402e-32
-6.830726899026277407e-32
-7.495100663356200756e-32
-8.029467671199329978e-32
-8.345224234752701647e-32
-8.366519430991495431e-32
-7.982301501402164998e-32
-7.188042167350355606e-32
-6.118233828415407633e-32
-5.013242345502313986e-32
-4.160864884684083366e-32
-3.598663973500758241e-32
-2.970713229939419577e-32
-2.102428347794935740e-32
-1.565018499905714722e-32
-1.215965220559147523e-32
-8.180777876482730705e-33
-5.945204853830425347e-33
-4.160207714090082902e-33
-2.841921840685823857e-33
-1.942075330715428823e-33
-1.329276676601715102e-33
-9.164920800348503792e-34
-6.387551052817470752e-34
-4.531083589271328656e-34
-3.276863819466673355e-34
-2.420096680734408371e-34
-1.821832549537108801e-34
-1.391271755383504270e-34
-1.070391352288592666e-34
