# bin_13_13
-1.889913746528325913e-11
-2.157258255712132957e-11
-2.428120110722418612e-11
-2.684578093823702527e-11
-2.903119052803961765e-11
-3.053400611785396897e-11
-3.102703437516251496e-11
-3.019277355687861549e-11
-2.774479229258920799e-11
-2.410775430105286259e-11
-1.991946308852261474e-11
-1.634746986142374748e-11
-1.398392028262228053e-11
-1.194005463436996881e-11
-8.908725403723423389e-12
-6.246126893019117051e-12
-5.064956459008664743e-12
-3.375977407904212022e-12
-2.536317383996454652e-12
-1.710791632996302225e-12
-1.168453891358116948e-12
-7.995753524353914335e-13
-5.428352523300261407e-13
-3.678215257653679597e-13
-2.500435084827125075e-13
-1.722281455879596045e-13
-1.205582363183984561e-13
-8.610344591677193548e-14
-6.288933661212622811e-14
-4.691221657685831481e-14
-3.558289513112030171e-14
