# bin_2_12
-6.913206538073280983e-32
-7.806028124029894955e-32
-8.666477650431133150e-32
-9.422791969243533485e-32
-9.980235214194579136e-32
-1.022623544701308880e-31
-1.007228278730252577e-31
-9.389526193677181616e-32
-8.273074782217550819e-32
-6.901379688023316885e-32
-5.645274155843510634e-32
-4.772339743470817920e-32
-4.119904960006336980e-32
-3.207588463883431707e-32
-2.219657579408234922e-32
-1.770786014030446235e-32
-1.249076944864507185e-32
-9.103630126311225079e-33
-6.192357254366859744e-33
-4.384590157637209216e-33
-3.044654948023439192e-33
-2.110562860111653498e-33
-1.473463898303310622e-33
-1.038647176559729962e-33
-7.448254312230717099e-34
-5.446416541838776690e-34
-4.060017422842879537e-34
-3.080186155558138993e-34
-2.365616458362496679e-34
-1.826719469495746284e-34
-1.407659790340355229e-34
