# bin_5_2
-1.411559272218219941e-09
-1.459241370102959916e-09
-1.453953928897235957e-09
-1.381260009588885123e-09
-1.242252461760454505e-09
-1.060065518589112915e-09
-8.747857726226962918e-10
-7.277042057592885189e-10
-6.195928566901502571e-10
-5.055190340303691358e-10
-3.730886981733429471e-10
-2.774827392819265906e-10
-2.125332930573255773e-10
-1.527099190532014074e-10
-1.124329498726956919e-10
-8.168956748250877826e-11
-6.001857383154118574e-11
-4.461089060329538285e-11
-3.370266853402062973e-11
-2.591631944447048427e-11
-2.024404833901640685e-11
-1.599671823296928532e-11
-1.270133920591020025e-11
-1.006116399131894809e-11
-7.896832016437694288e-12
-6.103048331553905245e-12
-4.620441177934888837e-12
-3.413696325250832609e-12
-2.455957745956339573e-12
-1.720210987823907815e-12
-1.174708596571880359e-12
