# bin_3_15
-4.193125629052382131e-34
-4.773665317014899940e-34
-5.354791843681545943e-34
-5.896021017035430758e-34
-6.343619910941817275e-34
-6.629359406664276029e-34
-6.688030918750636885e-34
-6.438738805522513103e-34
-5.849770807576579210e-34
-5.024772786635350701e-34
-4.129290241643807895e-34
-3.406883044753715838e-34
-2.935634975299870598e-34
-2.466041549257989493e-34
-1.783012377581512034e-34
-1.287538930343642029e-34
-1.028819749284623692e-34
-6.810518738408292003e-35
-5.077820352816488619e-35
-3.492300827249881633e-35
-2.376772562492964369e-35
-1.625356909971898456e-35
-1.106603320047494880e-35
-7.566094277813317287e-36
-5.213015004876608727e-36
-3.649829828376537887e-36
-2.602542413766715088e-36
-1.895428701385203461e-36
-1.409877886977994503e-36
-1.067421973026758427e-36
-8.175928684907761079e-37
