# bin_14_1
-3.584230226082619991e-09
-3.513511552859204667e-09
-3.281428820715294122e-09
-2.908456362177125333e-09
-2.462892581214586803e-09
-2.039968361867033571e-09
-1.705613218578462344e-09
-1.430940489793471544e-09
-1.139348752543438330e-09
-8.476518630218575347e-10
-6.354305177853034093e-10
-4.794808777107150723e-10
-3.497960402653576906e-10
-2.578867873449967295e-10
-1.900595115242924010e-10
-1.417942854288000066e-10
-1.073753269479768847e-10
-8.275937217137660382e-11
-6.485300190717186787e-11
-5.146175211723646902e-11
-4.110391521118493961e-11
-3.280794665796389769e-11
-2.598308861769622675e-11
-2.028835690737783070e-11
-1.553481574338319468e-11
-1.161740250336406841e-11
-8.464772605245012894e-12
-6.005242861545507489e-12
-4.152320174868022608e-12
-2.804642616254348987e-12
-1.855987721999027865e-12
