# bin_11_15
-4.020520640710898556e-14
-4.596431926067040786e-14
-5.183769489574733126e-14
-5.744911559159709681e-14
-6.230773320699269605e-14
-6.577287807231926479e-14
-6.711178959925996992e-14
-6.570495920421701412e-14
-6.079165004045414257e-14
-5.317836378366018985e-14
-4.411380820069822075e-14
-3.612710160538140496e-14
-3.074805234579002638e-14
-2.643761414003388248e-14
-2.010755309339588148e-14
-1.394420226090194338e-14
-1.128575695034383484e-14
-7.656733263614800758e-15
-5.704850455476933782e-15
-3.815935974910682183e-15
-2.628609730489548914e-15
-1.795637136091079680e-15
-1.216005463872894511e-15
-8.200649832020336950e-16
-5.534766990163390403e-16
-3.776455366953430406e-16
-2.614270046478342859e-16
-1.844204114231737504e-16
-1.330559742775230678e-16
-9.818535966434122187e-17
-7.387730785987787269e-17
