# bin_6_11
-1.311561359537867492e-16
-1.481936670485427959e-16
-1.646618575917659786e-16
-1.792093188874361422e-16
-1.900453827317109007e-16
-1.950168705943807664e-16
-1.924647087463807957e-16
-1.798554333154559818e-16
-1.588332184450551148e-16
-1.327380482395715889e-16
-1.085534226064542241e-16
-9.158667592852974650e-17
-7.915316601894367495e-17
-6.204466111993581108e-17
-4.291310901919351925e-17
-3.406124821204083771e-17
-2.427185198381344917e-17
-1.754387368829298543e-17
-1.196414851419045633e-17
-8.492990656917498215e-18
-5.886102842774960148e-18
-4.070590115399285582e-18
-2.836183575756324113e-18
-1.994603739785369339e-18
-1.426257896565017021e-18
-1.039883616379245647e-18
-7.730461519647323023e-19
-5.851722507865583045e-19
-4.487669889026911288e-19
-3.463481104125269876e-19
-2.669872335656855275e-19
