# bin_11_9
-1.156979705087050419e-10
-1.307060421326236349e-10
-1.452048337161615407e-10
-1.579993479746925987e-10
-1.675098667749220414e-10
-1.718529911696773693e-10
-1.695319275016817740e-10
-1.583732745444059293e-10
-1.398193167691118947e-10
-1.168612888908524181e-10
-9.560794457638651632e-11
-8.067676107709255839e-11
-6.965149709591547399e-11
-5.455416391172978751e-11
-3.783411861871687376e-11
-2.995868256915035198e-11
-2.136584628402594297e-11
-1.541834971172741519e-11
-1.056536573686256304e-11
-7.480986091863481711e-12
-5.184608120635928562e-12
-3.586267925916244941e-12
-2.498758649990193160e-12
-1.757756995557457953e-12
-1.257160241449561649e-12
-9.167480554891267136e-13
-6.815611990767912731e-13
-5.158834624699524002e-13
-3.955422111129202115e-13
-3.051628670270614170e-13
-2.351360847677918506e-13
