# bin_1_1
3.775143485245868031e-10
3.710010790556369120e-10
3.466430058580115476e-10
3.066715342302216378e-10
2.582955701436795059e-10
2.127760940936474644e-10
1.785122745378804942e-10
1.514628172872906355e-10
1.200568954171421110e-10
8.750950114359600135e-11
6.656204420186443742e-11
5.008016943633835199e-11
3.631924246972543118e-11
2.683584490960132133e-11
1.977282619528805904e-11
1.475020100259346372e-11
1.118580680436958981e-11
8.639013275250330615e-12
6.786277330752562653e-12
5.399262384150159971e-12
4.323673998983452966e-12
3.458749035285455574e-12
2.744104770895024445e-12
2.145142953886754861e-12
1.643112643911156396e-12
1.228039513324554281e-12
8.934297700218123340e-13
6.324038134394040315e-13
4.361310820336364485e-13
2.938005485154131372e-13
1.939540149961273739e-13
