# bin_5_5
8.246847390346904213e-11
9.092574382982794713e-11
9.804740554752423227e-11
1.028039594960356442e-10
1.041401167170296403e-10
1.009227950554863611e-10
9.239653717999648836e-11
7.999516356552293906e-11
6.602684695326360978e-11
5.429128405792612580e-11
4.647921264119723453e-11
3.943009188853728443e-11
2.927906420059771943e-11
2.083771431325978734e-11
1.676797039163254982e-11
1.142217166780940471e-11
8.597642616745509745e-12
6.000438115410317802e-12
4.262013254869127378e-12
3.052642525027067597e-12
2.202556021537098419e-12
1.611345321029646678e-12
1.198259613365143037e-12
9.081437269998009520e-13
6.990152818573903697e-13
5.436871566597871666e-13
4.246732490057366837e-13
3.307133553472625981e-13
2.550678044446007028e-13
1.937130585873738967e-13
1.442116346021060700e-13
