# bin_2_2
2.167731459432908091e-10
2.249694258839184273e-10
2.252607891875059888e-10
2.150876935623069987e-10
1.942159621473487694e-10
1.660512773106326266e-10
1.366877317309014783e-10
1.133457283994593642e-10
9.709634741027517059e-11
8.014036178922620785e-11
5.862597139264380814e-11
4.339010833342074572e-11
3.375954601802604066e-11
2.387938950527062584e-11
1.774583650810749510e-11
1.284859807758374438e-11
9.416752979032736856e-12
6.991010670284077833e-12
5.273944559713413754e-12
4.050905022346165193e-12
3.162199594411572797e-12
2.499130119940751476e-12
1.986013999880042073e-12
1.575603050496479635e-12
1.239255379246631839e-12
9.601149062434538836e-13
7.287659018839997602e-13
5.397479174229217987e-13
3.890956438056032459e-13
2.729293113242746752e-13
1.865544033379671655e-13
