# bin_9_6
1.040340439700374583e-12
1.169652975370035763e-12
1.291804367089153915e-12
1.395430695940946825e-12
1.465915800092796575e-12
1.487821366008545128e-12
1.445437458405888034e-12
1.326196472593168494e-12
1.150628699967851000e-12
9.502408636923561054e-13
7.804954717557126874e-13
6.681807276020541374e-13
5.692904841951778491e-13
4.236304412520174802e-13
2.987282494312279854e-13
2.419061323224979408e-13
1.623637789339701302e-13
1.224091616815827376e-13
8.386628566901164707e-14
5.838240390280825560e-14
4.093274530802405650e-14
2.872328487208854387e-14
2.031888819777795578e-14
1.455856384777516114e-14
1.063695445344532811e-14
7.922336973289365204e-15
6.004187596336745992e-15
4.612593628774001698e-15
3.568279032713162296e-15
2.759604957732978245e-15
2.118436203919167532e-15
