# bin_9_9
4.559805151034996738e-11
5.158536890094506527e-11
5.740106612361825060e-11
6.257958674425133472e-11
6.650070539031270998e-11
6.840787350334275621e-11
6.772425532934067528e-11
6.353035589680143593e-11
5.630807670845274081e-11
4.720268337022741151e-11
3.860851723596878567e-11
3.248879235745520911e-11
2.811664410333110195e-11
2.226160362533150237e-11
1.541268067695249410e-11
1.212730409810126242e-11
8.779470185332320756e-12
6.263914541918894463e-12
4.301941371330823228e-12
3.061110875833816404e-12
2.115998307785193804e-12
1.458730069600227796e-12
1.013564701434593576e-12
7.106099235813830234e-13
5.060923901400454579e-13
3.674498262806694732e-13
2.720674339692089448e-13
2.052586241453528055e-13
1.570590549862010320e-13
1.211038439622810624e-13
9.339546855236055117e-14
