# bin_15_6
8.425845210407632403e-22
9.607176896609800082e-22
1.079732400729998092e-21
1.191552559006158671e-21
1.285505580067120852e-21
1.347935582874828193e-21
1.364969929367418218e-21
1.321219028491831992e-21
1.207052310301343173e-21
1.042708202688761856e-21
8.590587164647825731e-22
7.069476033140472300e-22
6.074644640167377757e-22
5.148134141698892895e-22
3.776359334208657516e-22
2.684805712800218017e-22
2.169336310604171688e-22
1.433481862870850427e-22
1.077931170027806509e-22
7.344590902904785078e-23
4.997727760568030949e-23
3.421474661870652980e-23
2.326564022244968181e-23
1.584271907004225615e-23
1.084935135319820550e-23
7.541154838854926000e-24
5.333710619809445216e-24
3.851828173023434105e-24
2.843176461423549974e-24
2.139687180269027005e-24
1.632937568282082930e-24
