# bin_10_10
-3.955114109371918980e-11
-4.466482599361744021e-11
-4.959417148040214709e-11
-5.392709729383218871e-11
-5.712055858962040672e-11
-5.853646369560907618e-11
-5.764965760083916703e-11
-5.374924262168597195e-11
-4.736455239932734982e-11
-3.954118268006839903e-11
-3.237386324522118959e-11
-2.737243457653637705e-11
-2.359906012896501018e-11
-1.837663603340676386e-11
-1.277399031366518321e-11
-1.014341944581126370e-11
-7.183983293096426678e-12
-5.212728843795776937e-12
-3.573302952667810368e-12
-2.524664663477477607e-12
-1.752586772209400649e-12
-1.214850900894552952e-12
-8.481924222896905497e-13
-5.981232377944078687e-13
-4.290001075861696229e-13
-3.137253914619755457e-13
-2.338496300749001207e-13
-1.773654303495022698e-13
-1.361614722626391694e-13
-1.050894213010352981e-13
-8.093910783758794408e-14
