# bin_5_8
-8.717819135290825971e-13
-9.704705467585499095e-13
-1.058938388429859664e-12
-1.126867500779159097e-12
-1.161709549270193699e-12
-1.153188334724308118e-12
-1.086370192945924965e-12
-9.668964359377316976e-13
-8.143186392969699382e-13
-6.667166835310660669e-13
-5.586825610384916770e-13
-4.825544861686152055e-13
-3.866508901494571602e-13
-2.710849433079432689e-13
-2.093273385422318506e-13
-1.556119805170063130e-13
-1.097238821117863929e-13
-7.796411706431041505e-14
-5.576655149257462690e-14
-3.924361874517593127e-14
-2.776818977438770484e-14
-1.987693559644585889e-14
-1.443575134524146094e-14
-1.067365855120839236e-14
-8.042117036737726028e-15
-6.154423775970154193e-15
-4.762392650923904407e-15
-3.702003205498456770e-15
-2.870163280009044963e-15
-2.204481275848625842e-15
-1.667971740551244805e-15
