# bin_9_6
-3.303497413478055895e-10
-3.658731104978665151e-10
-3.967372611229775171e-10
-4.189196052265149685e-10
-4.279279702222177743e-10
-4.195846803049188593e-10
-3.895992077438236498e-10
-3.420176206076719209e-10
-2.852033515912480064e-10
-2.340008315062002986e-10
-1.981262556552570239e-10
-1.695981282234068459e-10
-1.310785313886003397e-10
-9.248730684586779001e-11
-7.284004231829554767e-11
-5.199970251495096089e-11
-3.779900078186182228e-11
-2.657375247884364391e-11
-1.897506789956489476e-11
-1.346764706319498337e-11
-9.619722394600180614e-12
-6.960217361949979110e-12
-5.114255826760597462e-12
-3.828447223001946768e-12
-2.915850439332678616e-12
-2.249920343967227167e-12
-1.749377641544589687e-12
-1.361093787142690060e-12
-1.052393669279320083e-12
-8.036221662353339840e-13
-6.030218866174944829e-13
