# bin_13_5
-7.598072953861911184e-10
-8.372036868805988863e-10
-9.020947175764638610e-10
-9.449854123629978457e-10
-9.562990993802920209e-10
-9.255415919915464517e-10
-8.467062129806402200e-10
-7.325659212277009549e-10
-6.051698389610402649e-10
-4.983997774208070174e-10
-4.262885334155710761e-10
-3.600453488432604767e-10
-2.677234664203613012e-10
-1.919136127926923546e-10
-1.525864688980429427e-10
-1.053793477987242747e-10
-7.832484075827633475e-11
-5.496298093551347634e-11
-3.914845155214007270e-11
-2.801295192477702878e-11
-2.020860636980103877e-11
-1.478910736142937572e-11
-1.100217272832838628e-11
-8.339098285102348030e-12
-6.417929788098881769e-12
-4.989928645605633240e-12
-3.895261932217817279e-12
-3.031130447123143466e-12
-2.335804819414389164e-12
-1.772357825025402573e-12
-1.318272414705228147e-12
