# bin_9_5
-5.274474642164655227e-10
-5.790263611922683905e-10
-6.210701620396162487e-10
-6.469576088371146607e-10
-6.503502196014071822e-10
-6.238506430330383813e-10
-5.657471150395108052e-10
-4.855214094380053949e-10
-4.001656045121670693e-10
-3.313238544683773875e-10
-2.839478743935857054e-10
-2.359102758238257747e-10
-1.729296031532246630e-10
-1.266456597903479966e-10
-9.877723604655229123e-11
-6.884752331781491306e-11
-5.066964881395918538e-11
-3.587748456454348319e-11
-2.559916122567604289e-11
-1.837900508201825959e-11
-1.333018304130251231e-11
-9.816457848178587397e-12
-7.352483305698332206e-12
-5.606146975576924720e-12
-4.333992007335237478e-12
-3.378445647442015366e-12
-2.638444285060207625e-12
-2.049829794350092113e-12
-1.574276538120806374e-12
-1.188792044793121599e-12
-8.790063347522433440e-13
