# bin_7_7
-6.516364020184952306e-11
-7.246568991924680569e-11
-7.897223071131931867e-11
-8.390737577483212661e-11
-8.634227491033435574e-11
-8.549916677141805273e-11
-8.031004203307413513e-11
-7.128207453006861342e-11
-5.990814803388233268e-11
-4.906327432722104991e-11
-4.120286637553448957e-11
-3.553774420949149443e-11
-2.826721296363538573e-11
-1.982951882857744006e-11
-1.539043038543554107e-11
-1.133483129192201912e-11
-8.051452773532525023e-12
-5.703676873766692286e-12
-4.077567386800624920e-12
-2.874760448526379373e-12
-2.038164702407927366e-12
-1.462102029050950602e-12
-1.064329125450788260e-12
-7.889393600088171504e-13
-5.957599046145548005e-13
-4.567163013905713703e-13
-3.537862737394565872e-13
-2.750822454576893410e-13
-2.131650245317434962e-13
-1.635381451968630055e-13
-1.235330518792081647e-13
