# bin_7_11
-6.473860097871592365e-15
-7.325428399788992220e-15
-8.153338966589566816e-15
-8.891632872538229344e-15
-9.452372996498037052e-15
-9.728020172712622688e-15
-9.636663109229199392e-15
-9.046917999586857230e-15
-8.024166720246259681e-15
-6.730923786365947598e-15
-5.505466502729594949e-15
-4.629853255351343156e-15
-4.007436694527574966e-15
-3.179580650174845664e-15
-2.202286000311347294e-15
-1.729070350179990495e-15
-1.256063826121271354e-15
-8.935019684491618436e-16
-6.148454981820231497e-16
-4.375738326387539564e-16
-3.022957968429466773e-16
-2.082586501207869082e-16
-1.446127931298641035e-16
-1.013152320465604670e-16
-7.209123413049736075e-17
-5.229339754667322648e-17
-3.868306004695487284e-17
-2.916066078404497129e-17
-2.230020899740188470e-17
-1.718988327702120446e-17
-1.325660893166019501e-17
