# bin_7_2
-1.712355498422215932e-09
-1.768621700056223635e-09
-1.760329957365821096e-09
-1.672111744788752492e-09
-1.505802892604116730e-09
-1.289100363088576370e-09
-1.068630484632363144e-09
-8.894922803907663451e-10
-7.524760360662329026e-10
-6.129791760170501329e-10
-4.589068550760773734e-10
-3.406113022574614286e-10
-2.591547928587133629e-10
-1.882500886120774077e-10
-1.378352306802238715e-10
-1.004505996884469170e-10
-7.378835539191067626e-11
-5.481094274541630695e-11
-4.136987494111398211e-11
-3.176896233636701753e-11
-2.477687169727613402e-11
-1.954526128833803715e-11
-1.549536118462527696e-11
-1.225917982685600647e-11
-9.613629829102586831e-12
-7.427015563455428601e-12
-5.623938812149170494e-12
-4.158786689955549060e-12
-2.996767587854373569e-12
-2.103496747177835663e-12
-1.439959634661000470e-12
