# bin_11_8
-2.006061017778317254e-10
-2.257206848870623926e-10
-2.495325486500535465e-10
-2.698697633918278240e-10
-2.839245883689586640e-10
-2.886721767569785299e-10
-2.811661220101731784e-10
-2.587788407664398738e-10
-2.252093095985748768e-10
-1.864088000450161362e-10
-1.530321342523241737e-10
-1.306625413953690725e-10
-1.115450266823006034e-10
-8.381284196730501914e-11
-5.895329888265389513e-11
-4.747946684179151322e-11
-3.230333470699704662e-11
-2.411294492974025630e-11
-1.650860308221399592e-11
-1.154759568664091167e-11
-8.077556996726269198e-12
-5.653845306801454115e-12
-3.989566805483678461e-12
-2.849617757780813083e-12
-2.074572221552231828e-12
-1.539689132261561089e-12
-1.163172153725505570e-12
-8.913746311284685839e-13
-6.885143696386593163e-13
-5.322199800748221383e-13
-4.087713706466304980e-13
