# bin_12_11
-5.071729960813189523e-11
-5.766038442376478918e-11
-6.456047045126844241e-11
-7.092174556356717755e-11
-7.608220941312072560e-11
-7.920655156892925130e-11
-7.955704406275721800e-11
-7.610074274660743331e-11
-6.870559894138647315e-11
-5.863698360970609296e-11
-4.809871572046105481e-11
-3.987090992308772135e-11
-3.445736062543665489e-11
-2.857966328438829002e-11
-2.035144065783000034e-11
-1.503093045622947569e-11
-1.176731124535766912e-11
-7.886400362098591834e-12
-5.772327811829263002e-12
-4.020703348944308257e-12
-2.744703314217575213e-12
-1.876841422782780660e-12
-1.283280499400572590e-12
-8.831431465549059530e-13
-6.138946439057164244e-13
-4.341587847998366556e-13
-3.129550843786889924e-13
-2.303800109899899010e-13
-1.729467866993437422e-13
-1.318102804919620301e-13
-1.013076707147392467e-13
