# bin_8_9
-1.858391687178107719e-11
-2.087263410425428040e-11
-2.302405490697448302e-11
-2.483336256103135232e-11
-2.603816088405531448e-11
-2.637119930944320631e-11
-2.554213514618760501e-11
-2.336663256453932336e-11
-2.021385679422687450e-11
-1.667881955623308981e-11
-1.372549945912022254e-11
-1.176481835604541982e-11
-9.967305112734278180e-12
-7.369783717287847652e-12
-5.248258947916097266e-12
-4.212444318232220521e-12
-2.843578613726688546e-12
-2.126933187275836808e-12
-1.466547248116634624e-12
-1.022788952692475041e-12
-7.169171594495824841e-13
-5.036361112969212745e-13
-3.571541186112645371e-13
-2.566906818104778015e-13
-1.881266132925635689e-13
-1.405085439594919634e-13
-1.067242341025509773e-13
-8.209420137394233518e-14
-6.352406254274920647e-14
-4.909170992886530439e-14
-3.762740701887937845e-14
