# bin_7_10
-1.104501643401361475e-12
-1.242843475450883278e-12
-1.374040650142498058e-12
-1.486140217510483475e-12
-1.563686983261691182e-12
-1.589989111709919191e-12
-1.548875329390047932e-12
-1.425713603735258303e-12
-1.240914106055238101e-12
-1.027102459866383696e-12
-8.430871803324540291e-13
-7.198412530487498477e-13
-6.147482750419919315e-13
-4.619873078981995711e-13
-3.247187668351464025e-13
-2.617588842584388210e-13
-1.779294592204324078e-13
-1.329508236743716298e-13
-9.095901344069008195e-14
-6.361081248726732614e-14
-4.450185281523436250e-14
-3.115074984787646928e-14
-2.197944680049014769e-14
-1.569729062132091032e-14
-1.142678685366612005e-14
-8.479947238761985927e-15
-6.405925493680383584e-15
-4.909029311015409276e-15
-3.791974353007637880e-15
-2.931416993223956944e-15
-2.251710046994948422e-15
