# bin_1_2
-7.652365148374715692e-11
-7.655401419176453213e-11
-7.318078596157142566e-11
-6.632728418809045517e-11
-5.707191440646360528e-11
-4.735379090362019233e-11
-3.929608248345892073e-11
-3.327785939142969051e-11
-2.739701824125151138e-11
-2.064712574183937965e-11
-1.524221562833170817e-11
-1.168065604261936726e-11
-8.515043623941681484e-12
-6.260794751683252304e-12
-4.588052344829655647e-12
-3.394197574985410875e-12
-2.542196900273173206e-12
-1.936847354140905180e-12
-1.502082934490059869e-12
-1.182671979643601499e-12
-9.408216214213080453e-13
-7.509898501575631929e-13
-5.971303263273810173e-13
-4.697260831042263359e-13
-3.633473930427330827e-13
-2.750127016303053852e-13
-2.029779804667506654e-13
-1.458409546407957825e-13
-1.020267001255189240e-13
-6.961885668087623672e-14
-4.646469395945085713e-14
