# bin_1_5
-1.215406432623042593e-14
-1.304037187106525862e-14
-1.359329613899305231e-14
-1.367970600295887754e-14
-1.314495751331030981e-14
-1.194300746350593811e-14
-1.026795198903105277e-14
-8.466831201793051005e-15
-6.999267542448051820e-15
-5.992236783081599445e-15
-4.998057583485890599e-15
-3.683477281312073835e-15
-2.689556900433144226e-15
-2.110212117239599028e-15
-1.479112524939169384e-15
-1.097010248858330133e-15
-7.842325168596987270e-16
-5.673596785903371876e-16
-4.141649795647038897e-16
-3.063036158231876525e-16
-2.304229996634100687e-16
-1.763236081041709805e-16
-1.370596124280314045e-16
-1.076198101363215208e-16
-8.479945365883913976e-17
-6.659371740620160051e-17
-5.176647920554683522e-17
-3.959903406446029487e-17
-2.966478299690329271e-17
-2.168463620939725427e-17
-1.543806647132640957e-17
