# bin_11_2
-2.149156360877329645e-09
-2.228510294670521514e-09
-2.228677749286734883e-09
-2.127089461989404545e-09
-1.922236503367720170e-09
-1.647307530045398081e-09
-1.361566014417719252e-09
-1.130589488136458575e-09
-9.624409316412947125e-10
-7.910034173959834151e-10
-5.876313807206260101e-10
-4.345126508750618577e-10
-3.341500647600320702e-10
-2.403401458779799391e-10
-1.768504795196146084e-10
-1.283777537041122566e-10
-9.421123158547556505e-11
-6.987458683306205851e-11
-5.265651811096993882e-11
-4.038986718704616080e-11
-3.148065320070455087e-11
-2.483769327870561287e-11
-1.970773603280994523e-11
-1.561436188563030484e-11
-1.226834238001453242e-11
-9.498745262103053657e-12
-7.208741272675581853e-12
-5.341341055888813223e-12
-3.854723537505773280e-12
-2.708252832510789371e-12
-1.854699580437507219e-12
