   0.1000E+05   0.1014E-11   0.4122E-04   0.9771E-03   0.5003E+00
   0.8129E+04   0.1397E-11   0.4122E-04   0.9771E-03   0.4971E+00
   0.6608E+04   0.1879E-11   0.4122E-04   0.9771E-03   0.4940E+00
   0.5372E+04   0.2473E-11   0.4122E-04   0.9771E-03   0.4914E+00
   0.4367E+04   0.3192E-11   0.4122E-04   0.9771E-03   0.4892E+00
   0.3550E+04   0.4054E-11   0.4122E-04   0.9771E-03   0.4877E+00
   0.2885E+04   0.5091E-11   0.4122E-04   0.9771E-03   0.4870E+00
   0.2346E+04   0.6355E-11   0.4122E-04   0.9771E-03   0.4871E+00
   0.1907E+04   0.7936E-11   0.4122E-04   0.9771E-03   0.4881E+00
   0.1550E+04   0.9979E-11   0.4122E-04   0.9771E-03   0.4899E+00
   0.1260E+04   0.1272E-10   0.4122E-04   0.9771E-03   0.4925E+00
   0.1024E+04   0.1649E-10   0.4122E-04   0.9771E-03   0.4954E+00
   0.8326E+03   0.2180E-10   0.4122E-04   0.9771E-03   0.4983E+00
   0.6768E+03   0.2931E-10   0.4122E-04   0.9771E-03   0.5008E+00
   0.5501E+03   0.3990E-10   0.4122E-04   0.9771E-03   0.5025E+00
   0.4472E+03   0.5459E-10   0.4122E-04   0.9771E-03   0.5034E+00
   0.3635E+03   0.7446E-10   0.4122E-04   0.9771E-03   0.5033E+00
   0.2955E+03   0.1005E-09   0.4122E-04   0.9771E-03   0.5025E+00
   0.2402E+03   0.1334E-09   0.4122E-04   0.9771E-03   0.5009E+00
   0.1953E+03   0.1725E-09   0.4122E-04   0.9771E-03   0.4984E+00
   0.1587E+03   0.2165E-09   0.4122E-04   0.9771E-03   0.4959E+00
   0.1290E+03   0.2653E-09   0.4122E-04   0.9771E-03   0.4937E+00
   0.1049E+03   0.3143E-09   0.4122E-04   0.9771E-03   0.4900E+00
   0.8527E+02   0.3587E-09   0.4122E-04   0.9771E-03   0.4868E+00
   0.6931E+02   0.3959E-09   0.4122E-04   0.9771E-03   0.4838E+00
   0.5635E+02   0.4233E-09   0.4122E-04   0.9771E-03   0.4810E+00
   0.4580E+02   0.4390E-09   0.4122E-04   0.9771E-03   0.4782E+00
   0.3723E+02   0.4419E-09   0.4122E-04   0.9771E-03   0.4755E+00
   0.3027E+02   0.4321E-09   0.4122E-04   0.9771E-03   0.4728E+00
   0.2460E+02   0.4107E-09   0.4122E-04   0.9771E-03   0.4702E+00
   0.2000E+02   0.3801E-09   0.4122E-04   0.9771E-03   0.4679E+00
