# bin_3_15
-4.224578367072560070e-34
-4.810873304464342166e-34
-5.398111499864826461e-34
-5.945467333899785778e-34
-6.398705540646218526e-34
-6.688899785842023002e-34
-6.750088309162878194e-34
-6.500399142437388152e-34
-5.907524444061641631e-34
-5.075867684842004266e-34
-4.172478647601661660e-34
-3.443486356289743034e-34
-2.967988521110559702e-34
-2.493900606561197791e-34
-1.803657273823532831e-34
-1.302784780900949113e-34
-1.041261865585957327e-34
-6.894778285672867370e-35
-5.141936090099165951e-35
-3.537349123431536637e-35
-2.408131584745164773e-35
-1.647312099178691027e-35
-1.121926427682310751e-35
-7.673604065952199075e-36
-5.289091247583149018e-36
-3.704521000777832035e-36
-2.642536926227804449e-36
-1.925222536659370276e-36
-1.432462066142092384e-36
-1.084771311781426021e-36
-8.310208076750989863e-37
