# bin_5_4
-2.880625647767143155e-10
-3.123386245998676172e-10
-3.298857232087945300e-10
-3.371691380847429903e-10
-3.309406259524362191e-10
-3.077333149606572875e-10
-2.705514747735791247e-10
-2.258544894673104920e-10
-1.852088808246080800e-10
-1.565276364210094509e-10
-1.340916538978205090e-10
-1.042271304424633646e-10
-7.364889959293566785e-11
-5.791395121458626049e-11
-4.181685063402046056e-11
-3.045811247031605825e-11
-2.168975253086705313e-11
-1.569525670797722968e-11
-1.132693328284203001e-11
-8.260010657625751038e-12
-6.119336044711963790e-12
-4.611359697360455842e-12
-3.536552735260889004e-12
-2.750590437061702667e-12
-2.156634632963959344e-12
-1.693539829093494881e-12
-1.322607921086941908e-12
-1.020623914422324106e-12
-7.739512641609592534e-13
-5.742136999938093217e-13
-4.155410595619820672e-13
