# bin_15_12
-9.133580719935588595e-11
-1.041646929272896547e-10
-1.171019909862019106e-10
-1.292737882194964847e-10
-1.395264819154223141e-10
-1.463811232400321473e-10
-1.483213758762967202e-10
-1.437034574207550644e-10
-1.314367233302684960e-10
-1.136719713415598197e-10
-9.372355987412481189e-11
-7.710816171417819988e-11
-6.619157572946394855e-11
-5.614911970090604104e-11
-4.134143835184672701e-11
-2.934440174802389970e-11
-2.367646911614133739e-11
-1.571774493211190306e-11
-1.178765313301545319e-11
-8.018235189345097059e-12
-5.466455041599346443e-12
-3.741378895061441875e-12
-2.543892540464308181e-12
-1.730930391487226837e-12
-1.183918664588119414e-12
-8.216020009760139482e-13
-5.800315379832359273e-13
-4.180340379575839507e-13
-3.079529958567599811e-13
-2.313478159647513806e-13
-1.763176739590137431e-13
