# bin_11_11
-2.450307405355643884e-11
-2.784038748816810389e-11
-3.114728920906205704e-11
-3.418318687445541515e-11
-3.662632824733592156e-11
-3.807177552999389677e-11
-3.817252597658874013e-11
-3.642182273178834166e-11
-3.280133512785783154e-11
-2.792351277489789007e-11
-2.288817265072940338e-11
-1.900601542471491391e-11
-1.644004426385306344e-11
-1.356583171375631968e-11
-9.605251504790295166e-12
-7.155861564171354231e-12
-5.554842846469976258e-12
-3.743023032678413965e-12
-2.718284301048033861e-12
-1.902442122515262667e-12
-1.300241994989577667e-12
-8.890884923518975919e-13
-6.089233213945913257e-13
-4.200586961204142649e-13
-2.929374283589625549e-13
-2.079244861434977106e-13
-1.504575346566442322e-13
-1.111738674257170791e-13
-8.372104371043859270e-14
-6.394759464186402053e-14
-4.920094318669358432e-14
