# bin_1_14
-1.176181594267445659e-41
-1.336168944083930985e-41
-1.494573599473983918e-41
-1.639836215474320472e-41
-1.756487288746599127e-41
-1.825064794187412250e-41
-1.829053292789226440e-41
-1.743978390936514382e-41
-1.569557044912303573e-41
-1.335189527357547072e-41
-1.094158203318602812e-41
-9.089930562883788390e-42
-7.865219437480015120e-42
-6.481560512248398859e-42
-4.580879546481140790e-42
-3.421256016426055601e-42
-2.649789604004634685e-42
-1.787855407449709704e-42
-1.295429951205565439e-42
-9.081078257228211345e-43
-6.208528645867730452e-43
-4.244644504306010363e-43
-2.908389324202017142e-43
-2.007656213562924747e-43
-1.401334563957077100e-43
-9.956537763237952901e-44
-7.212414788823680813e-44
-5.334868305546600767e-44
-4.021074529002147889e-44
-3.073337980105454862e-44
-2.365408093766437647e-44
