# bin_5_10
-3.524120593471963413e-17
-3.965736580535797114e-17
-4.384643720581884842e-17
-4.742700682107478501e-17
-4.990607511778246563e-17
-5.074769129941825460e-17
-4.944002481909720671e-17
-4.550136052749167202e-17
-3.959868139880409803e-17
-3.275828590571968634e-17
-2.687729577608736323e-17
-2.295972351170056339e-17
-1.963021416054825175e-17
-1.473367490803878525e-17
-1.032911895914689972e-17
-8.367940600559839981e-18
-5.649774107342539912e-18
-4.248845405386997634e-18
-2.899200235264560756e-18
-2.022978285643883600e-18
-1.416887139704173403e-18
-9.926946273377130716e-19
-7.005644132059562409e-19
-5.003924388678354913e-19
-3.643823989418799860e-19
-2.705185469945221990e-19
-2.044469828723435741e-19
-1.567490633907617181e-19
-1.211375864849602070e-19
-9.368503117133906887e-20
-7.198477360873139945e-20
