# bin_14_6
-5.868478571868790660e-10
-6.526762596752827554e-10
-7.113686702858947802e-10
-7.559416342524391625e-10
-7.780161552758294780e-10
-7.706055010541471874e-10
-7.240281424299508077e-10
-6.428034197908889765e-10
-5.403207203200499861e-10
-4.424835305741372377e-10
-3.715346360259963960e-10
-3.205247395430855062e-10
-2.550960610255562596e-10
-1.789075799081176610e-10
-1.388513859522712419e-10
-1.022920198070832373e-10
-7.265809402370833662e-11
-5.146150505367865038e-11
-3.678903329560522565e-11
-2.593523322621042069e-11
-1.838567228562350086e-11
-1.318695091117153237e-11
-9.597311119059360770e-12
-7.112482205355500157e-12
-5.369883534266527719e-12
-4.116013290361222411e-12
-3.188130383337928756e-12
-2.478868259905918508e-12
-1.921017296881888038e-12
-1.473950555364986127e-12
-1.113562744217569215e-12
