# bin_14_15
-6.243602504412222183e-12
-7.152240245842339794e-12
-8.085329247024765241e-12
-8.985742373057301503e-12
-9.778701189149392692e-12
-1.036531706216196871e-11
-1.062724106256115610e-11
-1.047340428724676301e-11
-9.766525704835888428e-12
-8.607337010162541320e-12
-7.179706630960458294e-12
-5.874152238086061145e-12
-4.970281930510540322e-12
-4.294645005584523329e-12
-3.338468217152300235e-12
-2.304089555550156003e-12
-1.843120948033635446e-12
-1.290554082203740379e-12
-9.403975306371614532e-13
-6.296038340194412354e-13
-4.400656729020926451e-13
-2.992995928755062768e-13
-2.015104456567901215e-13
-1.352918574144773744e-13
-9.071714062565365037e-14
-6.130876738113021420e-14
-4.194881158386150871e-14
-2.919238263029660695e-14
-2.076207923317974770e-14
-1.511503577495194372e-14
-1.124777110085095841e-14
