# bin_1_13
-2.345449953579210754e-39
-2.657096440057649562e-39
-2.961705647919436736e-39
-3.235662346469645207e-39
-3.447377515335787678e-39
-3.557767547102723523e-39
-3.536696495027767526e-39
-3.335320859125862010e-39
-2.970822446957390129e-39
-2.501698267781269264e-39
-2.046683628360240089e-39
-1.714846242439639495e-39
-1.485153847557423776e-39
-1.192462795349214851e-39
-8.290170079218114132e-40
-6.420662891745456263e-40
-4.757649909161315701e-40
-3.326922575815162199e-40
-2.320166311659723960e-40
-1.649063988329714684e-40
-1.135386741815115671e-40
-7.795012302498419757e-41
-5.391177511656178146e-41
-3.760779702655566603e-41
-2.661195545189650248e-41
-1.919125848641499603e-41
-1.411491870104394038e-41
-1.058718597064978537e-41
-8.067100073284787630e-42
-6.206689597790734632e-42
-4.786128308819193648e-42
