# bin_3_2
-7.113771034251646486e-10
-7.316333663460359414e-10
-7.242438006147330704e-10
-6.822209083635763603e-10
-6.081559441356396111e-10
-5.149377604072651990e-10
-4.240008598329969793e-10
-3.544074939037820748e-10
-3.020437360544392470e-10
-2.427608646816171213e-10
-1.769045088811316286e-10
-1.334427222746103030e-10
-1.012398924360629745e-10
-7.273614106815652973e-11
-5.359073683172748627e-11
-3.906028927811689909e-11
-2.877479069559837891e-11
-2.149251564711902817e-11
-1.632771154346381488e-11
-1.262408602346830375e-11
-9.908167017862525547e-12
-7.856013350314845702e-12
-6.248231232352122067e-12
-4.949332329942368218e-12
-3.878160264403673236e-12
-2.987793801083775742e-12
-2.252071715281965005e-12
-1.655115270130875458e-12
-1.183928426876168297e-12
-8.245270769496698023e-13
-5.601018460777153854e-13
