# bin_1_6
-1.936236957556785492e-20
-2.106598211477397921e-20
-2.234391196092416398e-20
-2.294895513035112148e-20
-2.267718765024949046e-20
-2.124508783821709483e-20
-1.881092178279551877e-20
-1.577222206933658853e-20
-1.290874059139858592e-20
-1.085480087768057916e-20
-9.360581886906267497e-21
-7.409204682443444655e-21
-5.191492944995773869e-21
-4.064985952510925714e-21
-2.981699457618191579e-21
-2.147811692786147654e-21
-1.528649080351222081e-21
-1.109235158985916646e-21
-7.974740459302894746e-22
-5.788634970447965572e-22
-4.268238533667392459e-22
-3.201081452334989365e-22
-2.444207595187403431e-22
-1.894864345670314462e-22
-1.482993121306883688e-22
-1.164266072713182063e-22
-9.104391397112946417e-23
-7.044089654269963837e-23
-5.361588167849225637e-23
-3.996222947264484987e-23
-2.906673990367177362e-23
