# bin_7_15
-9.359179487755440678e-21
-1.067604751850941481e-20
-1.200540112087967580e-20
-1.325779641279175523e-20
-1.431527159576798418e-20
-1.502647546835369871e-20
-1.523452318373261837e-20
-1.477257184541985957e-20
-1.352165818061790059e-20
-1.170304244649000206e-20
-9.650607838195749650e-21
-7.934825820382443318e-21
-6.809818236580338932e-21
-5.786773940634230534e-21
-4.267285742901000732e-21
-3.018852751953799361e-21
-2.445111129624431709e-21
-1.617628905821780894e-21
-1.217894282111288926e-21
-8.271082044837706843e-22
-5.630969387574854303e-22
-3.855703753678741112e-22
-2.620943921172179261e-22
-1.782088850112980796e-22
-1.217677596749482179e-22
-8.440872949280470901e-23
-5.951713131151469818e-23
-4.284148906196652838e-23
-3.152677497221389456e-23
-2.366730082463379940e-23
-1.803259331683820553e-23
