# bin_7_6
-1.493910056576374276e-10
-1.657658557728814574e-10
-1.801606548214821694e-10
-1.907717278977248751e-10
-1.954912708357797089e-10
-1.925427259152580329e-10
-1.796116293952651448e-10
-1.583677694604350336e-10
-1.323277651822093735e-10
-1.083525036437362737e-10
-9.148675379563825631e-11
-7.879237798828194902e-11
-6.156945438170071837e-11
-4.300393575990526064e-11
-3.398878182141244088e-11
-2.438128469438401150e-11
-1.768909606202995499e-11
-1.235954095754507283e-11
-8.858700402306856515e-12
-6.276397463608766084e-12
-4.469541120516763677e-12
-3.223854167306177671e-12
-2.360557851185834657e-12
-1.761116757883531074e-12
-1.337621159647597080e-12
-1.030217566553372847e-12
-8.004702617853875123e-13
-6.231033192729409558e-13
-4.825136225823372692e-13
-3.693181639423797192e-13
-2.779549939523479436e-13
