# bin_13_1
-3.542344410756762304e-09
-3.473128568250865816e-09
-3.244293434316548089e-09
-2.876058138873103396e-09
-2.435958108297278891e-09
-2.018194561224038795e-09
-1.687903061900877505e-09
-1.416361509013623684e-09
-1.127828534156135993e-09
-8.392193833788206843e-10
-6.292795138138973784e-10
-4.748952840262929966e-10
-3.465114665562065647e-10
-2.555086492690323456e-10
-1.883388477128281719e-10
-1.405343734196818606e-10
-1.064395887104703307e-10
-8.205217810821875425e-11
-6.430960315861270222e-11
-5.103897150716799481e-11
-4.077282797208405273e-11
-3.254891245466374516e-11
-2.578208930902931743e-11
-2.013465137440252682e-11
-1.541959209757624502e-11
-1.153306215979871506e-11
-8.404638024247778684e-12
-5.963510685330154089e-12
-4.124101546463361273e-12
-2.786003301676390493e-12
-1.843919361119625105e-12
