# bin_4_2
-1.119759777950857440e-09
-1.156046835355863251e-09
-1.149864394033495736e-09
-1.089841082838835353e-09
-9.777494356562246366e-10
-8.325417875024209018e-10
-6.866205260502842671e-10
-5.720517261833368079e-10
-4.873715112067083955e-10
-3.960321454346683858e-10
-2.911347924987793443e-10
-2.174065010378916624e-10
-1.661767144590159036e-10
-1.193370556161708041e-10
-8.792920907089859636e-11
-6.393542520365414466e-11
-4.701791689449590050e-11
-3.500218032072144017e-11
-2.648965708890815380e-11
-2.040501856039322289e-11
-1.596356905011753665e-11
-1.262885955293364785e-11
-1.003384120931376680e-11
-7.949356661425967830e-12
-6.237237315215228692e-12
-4.816720979849721819e-12
-3.642447782234427956e-12
-2.687326245585365219e-12
-1.930345623182103439e-12
-1.349931636870816276e-12
-9.205054613671025293e-13
