# bin_11_5
-6.636601701370917386e-10
-7.312528378176776881e-10
-7.879185963590908868e-10
-8.253636202897569509e-10
-8.352247726126219307e-10
-8.083345151285757047e-10
-7.394570125934463119e-10
-6.397531901076403223e-10
-5.284898117471280661e-10
-4.352554793246557103e-10
-3.722859651002001923e-10
-3.144183141227229270e-10
-2.337790180450939398e-10
-1.675924369733948901e-10
-1.332440393322973823e-10
-9.202047491370500827e-11
-6.839520505154341614e-11
-4.799596865639223199e-11
-3.418620858870998226e-11
-2.446255988965197686e-11
-1.764773566805779060e-11
-1.291533849885336421e-11
-9.608474910786861454e-12
-7.282934846330159010e-12
-5.605201952570765769e-12
-4.358092946162882156e-12
-3.402052012416304891e-12
-2.647325695109358980e-12
-2.040020388448218630e-12
-1.547896359822287533e-12
-1.151293345973591285e-12
