# bin_12_8
-2.452818738149059184e-10
-2.761077840658385141e-10
-3.053930997987799127e-10
-3.304939198037708402e-10
-3.479845948433839683e-10
-3.541314302546564512e-10
-3.453812701777517273e-10
-3.183622361867940274e-10
-2.774746253584790880e-10
-2.298842628571822757e-10
-1.886441712395981035e-10
-1.608903099748912016e-10
-1.375454076792351182e-10
-1.037878659207991820e-10
-7.285332574731777124e-11
-5.862550993730130079e-11
-4.004530516658539049e-11
-2.981772566218342442e-11
-2.039960887343141344e-11
-1.428656732316818900e-11
-9.985695265512024965e-12
-6.981955963792247524e-12
-4.920585149327562914e-12
-3.509239850570733634e-12
-2.550389446552506376e-12
-1.889664684389703283e-12
-1.425453010654381200e-12
-1.091171836737706148e-12
-8.423304773632582190e-13
-6.510634417934676608e-13
-5.002462100720487513e-13
