# bin_9_1
-3.275010027014848866e-09
-3.208778091722564054e-09
-2.994937622358734619e-09
-2.652922103169661212e-09
-2.245714077514760325e-09
-1.860488879974440355e-09
-1.556407308704756772e-09
-1.305548523754582032e-09
-1.038342090977751016e-09
-7.722681709994855163e-10
-5.793904823037085214e-10
-4.370147010402775093e-10
-3.188721336352424149e-10
-2.351599452536311076e-10
-1.733773679736953779e-10
-1.294127933576861306e-10
-9.805743160015813271e-11
-7.562343709634891834e-11
-5.929381559554820620e-11
-4.707163395897204046e-11
-3.760902187558912536e-11
-3.002319066951153811e-11
-2.377807273255816477e-11
-1.856464421006723471e-11
-1.421199872803335178e-11
-1.062516583911796495e-11
-7.739334099492691752e-12
-5.488840692234001759e-12
-3.794167470598067023e-12
-2.562124293793568999e-12
-1.695190861949363741e-12
