# bin_12_5
-7.163721608605103917e-10
-7.894143225138896438e-10
-8.506948762331465768e-10
-8.912653419574030691e-10
-9.020818338833541051e-10
-8.732683448676160443e-10
-7.990872063466920544e-10
-6.915387183607846151e-10
-5.713565969767163119e-10
-4.705086148932898697e-10
-4.023690451040419635e-10
-3.399446686635305258e-10
-2.529427220824302173e-10
-1.812385565980128662e-10
-1.441067786018029714e-10
-9.955983473596334579e-11
-7.398553524872559325e-11
-5.191045359685688337e-11
-3.697670721876972034e-11
-2.645579400028655365e-11
-1.908207839372410122e-11
-1.396201176924244490e-11
-1.038469070696779047e-11
-7.869492561805830766e-12
-6.055520214644564038e-12
-4.707622747843957833e-12
-3.674698693047706228e-12
-2.859530864324565477e-12
-2.203720055345593572e-12
-1.672329278199212289e-12
-1.244065639052535893e-12
