# bin_12_3
-1.419203569379803966e-09
-1.519331009009171956e-09
-1.579531463555379141e-09
-1.584370468160466128e-09
-1.516166764865801020e-09
-1.372186764767361612e-09
-1.175824323925968750e-09
-9.692175590548363179e-10
-8.033610892997217158e-10
-6.875503471487796453e-10
-5.687290410959285161e-10
-4.177311235029146166e-10
-3.076985743212975764e-10
-2.389850513219643236e-10
-1.686428895310012328e-10
-1.244453576155431658e-10
-8.924477152595440575e-11
-6.466007894082240028e-11
-4.727802951010763046e-11
-3.504337250728605985e-11
-2.642331685258279183e-11
-2.026460570796377744e-11
-1.577791693755754977e-11
-1.240022026827182680e-11
-9.772028671763416298e-12
-7.668960348446650402e-12
-5.953372544516527191e-12
-4.545284616518913180e-12
-3.397022613953986710e-12
-2.476844838708897143e-12
-1.758898685972495643e-12
