# bin_9_7
-1.819958169460795344e-10
-2.037202297532350263e-10
-2.237978584674998218e-10
-2.401611694854425978e-10
-2.502013558939788717e-10
-2.515421743183159206e-10
-2.410675008201769313e-10
-2.181395898037564838e-10
-1.866499816195927151e-10
-1.533095674481777267e-10
-1.269029217655546185e-10
-1.093848353500300265e-10
-9.103437974092924519e-11
-6.551613387439166890e-11
-4.805536266716025282e-11
-3.782896808854635542e-11
-2.559763625951090150e-11
-1.892908004787728651e-11
-1.327665557407181365e-11
-9.255528063112223852e-12
-6.504368462034788860e-12
-4.598982066203701029e-12
-3.291746868797833086e-12
-2.392972305668095372e-12
-1.774323473201779266e-12
-1.339394869587354161e-12
-1.026187721626927696e-12
-7.937217452310603956e-13
-6.153983090966894854e-13
-4.748831061070989632e-13
-3.623687911919947560e-13
