# bin_4_12
-1.703395559614676038e-23
-1.926681883075947130e-23
-2.143375325538262306e-23
-2.336046011198702480e-23
-2.481495191415023931e-23
-2.551496981363896155e-23
-2.524504496317528567e-23
-2.366419728945743403e-23
-2.095924664091711588e-23
-1.755960791538677519e-23
-1.436278741670928850e-23
-1.209348630196248050e-23
-1.046384061171789080e-23
-8.267979013826016512e-24
-5.723094748171571918e-24
-4.511909523831311981e-24
-3.255679707469804159e-24
-2.329424645452339929e-24
-1.597317759828884504e-24
-1.136186323198654785e-24
-7.858762492679043851e-25
-5.421711934563989805e-25
-3.769705166383443901e-25
-2.644835212798682640e-25
-1.885389967415868829e-25
-1.370226102891565161e-25
-1.015468384766328967e-25
-7.666917657407845662e-26
-5.869536749781824576e-26
-4.526772799370626198e-26
-3.490712088798948313e-26
