# bin_13_13
-1.880517695373794549e-11
-2.147155585795730248e-11
-2.417455659067668171e-11
-2.673570873694078497e-11
-2.892064727384121529e-11
-3.042667517046446793e-11
-3.092704290509722175e-11
-3.010427744000123824e-11
-2.767153374042350212e-11
-2.405105212182817857e-11
-1.987835825694270533e-11
-1.631839126464441386e-11
-1.396293701020258478e-11
-1.192538228220135396e-11
-8.900183670088547106e-12
-6.241839663521650648e-12
-5.062744156346568964e-12
-3.375418163907425113e-12
-2.536526250318203773e-12
-1.711407043125508915e-12
-1.169206362902642223e-12
-8.003352935603933915e-13
-5.435325792672984407e-13
-3.684287410817141197e-13
-2.505564009420410187e-13
-1.726543006090855479e-13
-1.209088459096249696e-13
-8.639007117707650812e-14
-6.312261420754191694e-14
-4.710103387807504625e-14
-3.573459075026769343e-14
