# bin_5_9
-1.799225935675786563e-15
-2.018535493274236097e-15
-2.223558865730601548e-15
-2.394236052493031943e-15
-2.505023584080814514e-15
-2.530867879394586756e-15
-2.442309782030909464e-15
-2.224943100086086078e-15
-1.916608377784092965e-15
-1.577443100667140145e-15
-1.299913072839822635e-15
-1.117801871215946451e-15
-9.427714446141628754e-16
-6.882454186626582356e-16
-4.940750389495207114e-16
-3.967494840546244389e-16
-2.651950163843792604e-16
-1.993045853390364841e-16
-1.381977845521232959e-16
-9.604385136278284009e-17
-6.742064774659024067e-17
-4.746889410249509966e-17
-3.377957937260247836e-17
-2.438444942085828536e-17
-1.795607682041493052e-17
-1.347150540035387528e-17
-1.027218126195214890e-17
-7.923553217625331857e-18
-6.140113426906048771e-18
-4.745462112692236163e-18
-3.632964155989412883e-18
