# bin_11_7
-2.928548755010967919e-10
-3.280349107674614368e-10
-3.606626237349691484e-10
-3.874308380288975603e-10
-4.041539810033181177e-10
-4.069313671221746586e-10
-3.908327974000742930e-10
-3.544534221146490674e-10
-3.039728167571170270e-10
-2.499033112720436150e-10
-2.066007474152585107e-10
-1.778836575617716432e-10
-1.486059219073905155e-10
-1.075493975387130583e-10
-7.838708813340033446e-11
-6.197729604489326822e-11
-4.189937393062622894e-11
-3.106932676388979369e-11
-2.171256760963406361e-11
-1.513597199977704587e-11
-1.063115489300565073e-11
-7.506608604420838167e-12
-5.362512071286138303e-12
-3.889149891349721773e-12
-2.876856238258326885e-12
-2.167011334739514964e-12
-1.657413230207127348e-12
-1.280571515278690448e-12
-9.925022445192393415e-13
-7.661280380638270517e-13
-5.851437452205435672e-13
