# bin_3_12
-3.948879208968979195e-27
-4.462995868998802015e-27
-4.960198384661607484e-27
-5.399731361041662065e-27
-5.727557208564173184e-27
-5.878691232650015519e-27
-5.802872291798706631e-27
-5.423646167019538888e-27
-4.790574558637123543e-27
-4.004366806304094444e-27
-3.275783092864587497e-27
-2.764805019461327262e-27
-2.389914874513292121e-27
-1.873237368707463087e-27
-1.296118026795862491e-27
-1.029174017014958786e-27
-7.332465605377623671e-28
-5.303079395905073259e-28
-3.617646088691852120e-28
-2.568110394453293515e-28
-1.780488965966633899e-28
-1.231817503953698558e-28
-8.585872757730271172e-29
-6.040562803938253068e-29
-4.321094874879207145e-29
-3.151702827079785845e-29
-2.343753080574198437e-29
-1.774627100720661781e-29
-1.361221328933560015e-29
-1.050689673174146316e-29
-8.099947567230528041e-30
