# bin_14_12
-6.837861775020045480e-11
-7.796600194357222897e-11
-8.762492110268105152e-11
-9.670008890087333062e-11
-1.043257114166560468e-10
-1.093933576617720218e-10
-1.107774515795874249e-10
-1.072334633696113263e-10
-9.798596314017743060e-11
-8.466058104101029736e-11
-6.976929684441232528e-11
-5.742395119590764688e-11
-4.932586698840828309e-11
-4.178909446467210738e-11
-3.068550973198063981e-11
-2.182976449417028655e-11
-1.759900988995747452e-11
-1.166967649373364724e-11
-8.750748470178343586e-12
-5.961638220200167583e-12
-4.062056598728943907e-12
-2.780259476955965301e-12
-1.890904833179367388e-12
-1.287575365063258640e-12
-8.816505673634987896e-13
-6.126744086877325395e-13
-4.332053899928661866e-13
-3.127301923340284329e-13
-2.307365081763086523e-13
-1.735615596472277812e-13
-1.323918506010248559e-13
