# bin_5_2
-1.340632748978095487e-09
-1.391716744113020955e-09
-1.393794264297206752e-09
-1.332527730945642977e-09
-1.206179521056664707e-09
-1.034997446387507730e-09
-8.555869084828888492e-10
-7.098092432379393418e-10
-6.044601583848734905e-10
-4.982734115236016184e-10
-3.705835615174506989e-10
-2.734067742549251754e-10
-2.107430467751862119e-10
-1.514481293060236395e-10
-1.114812941168199744e-10
-8.087107992687475631e-11
-5.932000162645741974e-11
-4.396200173882679616e-11
-3.309936738021368209e-11
-2.536667848380077666e-11
-1.975671472052931582e-11
-1.558023929421754088e-11
-1.236014335000927851e-11
-9.794166147640020045e-12
-7.698567584202193065e-12
-5.964535773022808047e-12
-4.530392899120098037e-12
-3.360003057103641272e-12
-2.427195708481309345e-12
-1.706856186223164410e-12
-1.169844365801364143e-12
