# bin_5_8
-5.671312479335764403e-14
-6.337164087146709380e-14
-6.946803671852568173e-14
-7.434828647432965446e-14
-7.719204843073790285e-14
-7.730172661274571495e-14
-7.365921454182660234e-14
-6.626605339398789721e-14
-5.636033767479937600e-14
-4.619036468803161432e-14
-3.837169116102124978e-14
-3.316706346889097434e-14
-2.730869173912223576e-14
-1.936242816513025640e-14
-1.447366345528660378e-14
-1.122512720728386823e-14
-7.646690590506010397e-15
-5.587258010791243619e-15
-3.963928625214297964e-15
-2.767764367019726725e-15
-1.946432158806503506e-15
-1.381102164921775274e-15
-9.936425910103350215e-16
-7.268589557720660887e-16
-5.422617393409325904e-16
-4.115862367752184983e-16
-3.167028457003678984e-16
-2.455984567545449521e-16
-1.905671840636164822e-16
-1.469080577971929031e-16
-1.118210662671425549e-16
