# bin_13_12
-4.326221649820740047e-11
-4.931010673239075369e-11
-5.539300994782219787e-11
-6.109529421211749024e-11
-6.586693942478788726e-11
-6.900535435557057461e-11
-6.980883976123394626e-11
-6.747516140429981511e-11
-6.155861019219804304e-11
-5.310173596665590682e-11
-4.372769412797063803e-11
-3.601652012388073635e-11
-3.096916949586262950e-11
-2.617843549820459348e-11
-1.913771287006996810e-11
-1.366978129748459332e-11
-1.099973038910310737e-11
-7.284999426621331585e-12
-5.458113910553720245e-12
-3.728538151167066951e-12
-2.538954615328191945e-12
-1.737678953219052036e-12
-1.182305465076234877e-12
-8.060803061331129873e-13
-5.529875030235207534e-13
-3.851561048139630311e-13
-2.730335420200976816e-13
-1.976360846160930991e-13
-1.461858378815788118e-13
-1.101870736874021707e-13
-8.416363560766469232e-14
