# bin_10_1
-3.198775104015461926e-09
-3.158932714441318664e-09
-2.974968615895162708e-09
-2.657803369923105272e-09
-2.263032191482452235e-09
-1.875464708228033696e-09
-1.564934352520344915e-09
-1.318438759530225008e-09
-1.061796979547928820e-09
-7.932790092320249529e-10
-5.921353825451743400e-10
-4.489316547547635407e-10
-3.275975114264903974e-10
-2.412216696374128389e-10
-1.774398816024414425e-10
-1.319765600102561325e-10
-9.955005854954131985e-11
-7.641816386576427018e-11
-5.967088661955938398e-11
-4.722798711943362554e-11
-3.767656792765286000e-11
-3.008002357842726711e-11
-2.386160140636586166e-11
-1.868488944229859352e-11
-1.436160967078036312e-11
-1.078798791483321515e-11
-7.897818018074903322e-12
-5.629338070353140871e-12
-3.909295812193813441e-12
-2.650555524531994102e-12
-1.759644446794306880e-12
