# bin_3_3
-1.549516913750535568e-10
-1.642822058687145403e-10
-1.687534576555221378e-10
-1.667680224355347795e-10
-1.564760610837877154e-10
-1.388107547108581247e-10
-1.167876015349319339e-10
-9.579594485569977669e-11
-8.036668273619029297e-11
-6.894997134637185947e-11
-5.487473305858109142e-11
-3.911204115399944257e-11
-3.010533510739640855e-11
-2.248500414015993818e-11
-1.612323017897659916e-11
-1.173747113534171041e-11
-8.535994422975581263e-12
-6.217129884426710723e-12
-4.589971264556648481e-12
-3.445253131853379463e-12
-2.631874448014183219e-12
-2.043693004540666471e-12
-1.606547348414458688e-12
-1.269988679952481149e-12
-1.002585941237946944e-12
-7.849816402095353010e-13
-6.056912514008831079e-13
-4.581489784049486734e-13
-3.383454737634313044e-13
-2.433330226265013229e-13
-1.703330461516167301e-13
