# bin_13_5
-7.308856296389224471e-10
-8.063032582497705501e-10
-8.700875068417179357e-10
-9.131524730900563627e-10
-9.260861721370214778e-10
-8.990280387763505847e-10
-8.251473899854796142e-10
-7.162079032347064361e-10
-5.926420185642686445e-10
-4.874428886818433105e-10
-4.161269950537625965e-10
-3.529363527514653451e-10
-2.645558243899883443e-10
-1.884946509710166154e-10
-1.501236636543252961e-10
-1.040386284005561174e-10
-7.722313130131609675e-11
-5.407127800716482022e-11
-3.853765995013537163e-11
-2.753588993922283837e-11
-1.982255978171657185e-11
-1.447115262971037039e-11
-1.073679706949205631e-11
-8.117165961161463772e-12
-6.234220200772884546e-12
-4.840277860141345807e-12
-3.776177100648408336e-12
-2.939093381444846153e-12
-2.267017159116971190e-12
-1.722835768511916315e-12
-1.284068732446333059e-12
