# bin_6_12
-5.354695407750943533e-18
-6.068245867703894378e-18
-6.766730066164562467e-18
-7.396423093175428872e-18
-7.885381612072546113e-18
-8.144284677810532754e-18
-8.104073883063365747e-18
-7.652325323677555609e-18
-6.824058034244841943e-18
-5.752554470613130520e-18
-4.706474822140442270e-18
-3.939358385749870062e-18
-3.412349276007978458e-18
-2.748952650258241874e-18
-1.912804995690012807e-18
-1.475989179456452451e-18
-1.099695563230041234e-18
-7.653161336895809833e-19
-5.356552451158073357e-19
-3.806528160975018365e-19
-2.618353637691402511e-19
-1.795789580777779581e-19
-1.240634344793806371e-19
-8.644199515633552837e-20
-6.107423496522248281e-20
-4.397232942048180430e-20
-3.228912783111361948e-20
-2.418520879076585634e-20
-1.840972873179213450e-20
-1.415682356219839056e-20
-1.091669741121237739e-20
