# bin_1_12
-2.129182291234645280e-36
-2.404185823406000162e-36
-2.669074082942469239e-36
-2.901647018825657847e-36
-3.072620347079267514e-36
-3.147357886175025199e-36
-3.098280309463563557e-36
-2.886188453302470541e-36
-2.541317247067169961e-36
-2.119041059578068689e-36
-1.734077544276459845e-36
-1.467528225756199990e-36
-1.266542833972005927e-36
-9.835684110095284920e-37
-6.811192855433618916e-37
-5.445075018491198042e-37
-3.826480666484679377e-37
-2.798328830765594583e-37
-1.902820626220808460e-37
-1.346090102556270159e-37
-9.356969612631629234e-38
-6.494203163489370701e-38
-4.538831317420445173e-38
-3.203435113278311288e-38
-2.300544049804937468e-38
-1.684651325714879919e-38
-1.257478429442724406e-38
-9.550120283622079090e-39
-7.339703156529333073e-39
-5.669383609865686721e-39
-4.368477766990382089e-39
