# bin_8_15
-2.380604514321139173e-18
-2.717405643390187377e-18
-3.058434525459459143e-18
-3.381046548359309716e-18
-3.655472611762670572e-18
-3.843343962724859570e-18
-3.903676442439817447e-18
-3.795672136584580017e-18
-3.484534932592832589e-18
-3.024837384968821325e-18
-2.498117497343937060e-18
-2.051455935265354716e-18
-1.757059338072494722e-18
-1.498855355054183373e-18
-1.114482136758100621e-18
-7.830540494833841528e-19
-6.356745043292950744e-19
-4.221083207229294377e-19
-3.178728689039506391e-19
-2.148277301921894600e-19
-1.464876354176752783e-19
-1.003111331305776473e-19
-6.815303219675568392e-20
-4.623752523772070006e-20
-3.148680199925315395e-20
-2.173519768029738069e-20
-1.525220136515217245e-20
-1.092234681982100340e-20
-7.998354375587269130e-21
-5.979873615288512097e-21
-4.543425223082333159e-21
