# bin_13_10
-1.245248118850266632e-10
-1.413202395551311183e-10
-1.578737540984885461e-10
-1.729503867946537361e-10
-1.848982492919610421e-10
-1.916524476668831452e-10
-1.915153054502751191e-10
-1.819027786802922843e-10
-1.631232909802320065e-10
-1.382857849538895257e-10
-1.132660863053082437e-10
-9.437831739900064242e-11
-8.167626020793758849e-11
-6.669963353883585653e-11
-4.689939703019118294e-11
-3.545792245327601068e-11
-2.704583082735579680e-11
-1.847930078158467905e-11
-1.321662058864579077e-11
-9.304564090321050632e-12
-6.376937880588011836e-12
-4.366776559384227256e-12
-3.001870605298181442e-12
-2.079657782624528384e-12
-1.458455475939666312e-12
-1.041602097361415141e-12
-7.585463910770315568e-13
-5.638346304234464164e-13
-4.266036907188163166e-13
-3.268018825158502902e-13
-2.516702165155797355e-13
