# bin_5_6
-1.254422531995661183e-11
-1.387215007656436904e-11
-1.501403746731967675e-11
-1.581560616495929813e-11
-1.610678259240441124e-11
-1.572949026204326343e-11
-1.452431295548657311e-11
-1.268138693593866731e-11
-1.051908968192434019e-11
-8.625607061814661837e-12
-7.340581379195609706e-12
-6.283682412152944336e-12
-4.775691710993293744e-12
-3.351832936501950395e-12
-2.693535347429161423e-12
-1.866773300114329061e-12
-1.391182294436735045e-12
-9.648830383675217837e-13
-6.886718005565791198e-13
-4.912922552953269541e-13
-3.525344510399892409e-13
-2.562881757525985654e-13
-1.892418742481827219e-13
-1.424376356460421189e-13
-1.090122625021740632e-13
-8.444515986495878573e-14
-6.583076926273870965e-14
-5.127551318641240442e-14
-3.963145973462192789e-14
-3.021180758594172971e-14
-2.260655545521293279e-14
