# bin_13_6
-5.280366715902488566e-10
-5.876828912551564502e-10
-6.410853534296802154e-10
-6.819885337305512749e-10
-7.028247089954197009e-10
-6.973070021132315214e-10
-6.565590489092345240e-10
-5.840892376641388564e-10
-4.918219793529060096e-10
-4.027821202280268760e-10
-3.376528841629580987e-10
-2.914418968297964029e-10
-2.331764214447606802e-10
-1.637246777087096175e-10
-1.264137352518951570e-10
-9.382982634635533778e-11
-6.625679212421605377e-11
-4.710448719700268818e-11
-3.364870106545292251e-11
-2.368826348908905180e-11
-1.677131317431117521e-11
-1.200958923051695408e-11
-8.724977925452216027e-12
-6.453304817313096129e-12
-4.863556273354246824e-12
-3.722571515801518168e-12
-2.880676462267461857e-12
-2.239037628219516556e-12
-1.735550523660834888e-12
-1.332621142593432760e-12
-1.007938192798163725e-12
