# bin_8_14
-5.456248653747134939e-17
-6.218286647712321940e-17
-6.984329914017124672e-17
-7.701916912138523117e-17
-8.301574420812063485e-17
-8.694655916762922840e-17
-8.793093108025378403e-17
-8.494761695103915560e-17
-7.745027631149570693e-17
-6.676757083427086180e-17
-5.495742306720224966e-17
-4.527256807029612631e-17
-3.895049188166517285e-17
-3.290767113654419570e-17
-2.400510604666603021e-17
-1.716490150790743876e-17
-1.382173662145622287e-17
-9.131762965251414150e-18
-6.850980360313807470e-18
-4.684876579391921695e-18
-3.187495939972386129e-18
-2.181572830632304070e-18
-1.484130632069420275e-18
-1.012279067497637707e-18
-6.949213604329085062e-19
-4.844385406515454830e-19
-3.437607225676364666e-19
-2.491060484975339122e-19
-1.844556198009330312e-19
-1.391655007346744465e-19
-1.063761928559489824e-19
