# bin_11_9
-1.083165887460285741e-10
-1.224462419164521892e-10
-1.361272184683940294e-10
-1.482436345762999001e-10
-1.573165237467296162e-10
-1.615705116237568748e-10
-1.596035688923948744e-10
-1.493356784859529687e-10
-1.320403877462408483e-10
-1.105005041105818985e-10
-9.042123422582166221e-11
-7.624180761122128306e-11
-6.587541017270136243e-11
-5.179303796524429289e-11
-3.592814090304902181e-11
-2.837574225434700790e-11
-2.034839849922348011e-11
-1.462545847460438319e-11
-1.004339883380674795e-11
-7.118606158330696191e-12
-4.930093994853287414e-12
-3.407418448457488244e-12
-2.372256276313278976e-12
-1.667174157383250394e-12
-1.190866672024852725e-12
-8.672509596516321521e-13
-6.439342028905269782e-13
-4.868869560754178552e-13
-3.730552998733122109e-13
-2.877498739802522450e-13
-2.217733772441660966e-13
