# bin_9_12
-2.855726146228886706e-13
-3.246006748034468475e-13
-3.633464333615979521e-13
-3.990151781051555852e-13
-4.278711421708996164e-13
-4.452039771638681154e-13
-4.469061653540990754e-13
-4.270960032900578557e-13
-3.852205999690161098e-13
-3.284285949808324236e-13
-2.692847903294882403e-13
-2.233433534847621009e-13
-1.931402106450294469e-13
-1.599391361941886279e-13
-1.135520560110772371e-13
-8.415001815884366538e-14
-6.571776963540638151e-14
-4.407631922986582584e-14
-3.218945017746136439e-14
-2.247224832834608859e-14
-1.534453304267905873e-14
-1.048895552853211284e-14
-7.174378380968959362e-15
-4.941736052310317637e-15
-3.439413916667144811e-15
-2.435901325603632183e-15
-1.758597008543734730e-15
-1.296603314140131162e-15
-9.747082902331734078e-16
-7.436576209648998243e-16
-5.719365626796570645e-16
