# bin_10_11
-9.881733875405023611e-12
-1.122035331112016362e-11
-1.254268584586517511e-11
-1.375122903145189448e-11
-1.471543146286702673e-11
-1.527143894538685371e-11
-1.528306261330098508e-11
-1.454363992722999085e-11
-1.306475981143438503e-11
-1.109324262729105522e-11
-9.087081411274893104e-12
-7.560266197807642890e-12
-6.543998129456613379e-12
-5.369368525281050494e-12
-3.781608408393800689e-12
-2.842923379480950971e-12
-2.185695837166693759e-12
-1.482988999818821145e-12
-1.067313057597637535e-12
-7.505009227625516807e-13
-5.136809123819826826e-13
-3.513337151411423593e-13
-2.411050240297645240e-13
-1.667438463310823533e-13
-1.166722417051853721e-13
-8.312109759534927498e-14
-6.038241985216169539e-14
-4.478260100742060452e-14
-3.382656804096508503e-14
-2.588971432720638794e-14
-1.993635288673007697e-14
