# bin_5_7
-1.115505487350525454e-12
-1.240654618971627667e-12
-1.352230072846459941e-12
-1.436937473692350934e-12
-1.478641934894367899e-12
-1.464579479518130284e-12
-1.375425137718622409e-12
-1.220463753157349181e-12
-1.024654617583702318e-12
-8.383245146949145528e-13
-7.042110358474054986e-13
-6.087002199254732756e-13
-4.840640641507700595e-13
-3.372881377835171191e-13
-2.635566456506545767e-13
-1.933535398213609186e-13
-1.378049787326933306e-13
-9.682006969272322629e-14
-6.959723279486384120e-14
-4.908999975622821836e-14
-3.478370330404768649e-14
-2.496394636578521358e-14
-1.818108460449885319e-14
-1.348626140133723017e-14
-1.019166868216913995e-14
-7.819084713681199674e-15
-6.061589276420657323e-15
-4.716303965111180296e-15
-3.656655809049618746e-15
-2.806302888146714222e-15
-2.120151468518754379e-15
