# bin_8_6
-2.370458289029998521e-10
-2.635082864221607334e-10
-2.870329441668926159e-10
-3.047893101391345877e-10
-3.133919163466350350e-10
-3.100428288317533191e-10
-2.908367807037997771e-10
-2.578060747081734736e-10
-2.163758931921388901e-10
-1.771494163587202650e-10
-1.489286845352513710e-10
-1.284967473508413011e-10
-1.018682555387613707e-10
-7.127226915484680291e-11
-5.560517922996066102e-11
-4.070983025167683542e-11
-2.905562950793409507e-11
-2.049096070240194243e-11
-1.467427760425743094e-11
-1.035616528052122459e-11
-7.347425662418746313e-12
-5.276562930937458773e-12
-3.845667076354829390e-12
-2.854577044354882538e-12
-2.158378904851594137e-12
-1.656431348685994125e-12
-1.284130903479585549e-12
-9.988633302294200279e-13
-7.740477150042783092e-13
-5.936416879692785322e-13
-4.481388690971188418e-13
