# bin_1_6
-2.535589088865407681e-20
-2.762634114020877083e-20
-2.935449628102582802e-20
-3.021477625337111149e-20
-2.994114154226311698e-20
-2.814978982168853218e-20
-2.500850552588865920e-20
-2.102877223516404414e-20
-1.721113044796507955e-20
-1.443324502245480083e-20
-1.245787721908536874e-20
-9.948633015354693935e-21
-6.981731482553000352e-21
-5.420136783705877790e-21
-4.025868594721196673e-21
-2.870780235115605977e-21
-2.055432520569722795e-21
-1.489980554667426420e-21
-1.068659002329016428e-21
-7.740296815618411399e-22
-5.693300759021384337e-22
-4.259407811545760778e-22
-3.244365040061287704e-22
-2.510337154733871687e-22
-1.962194089943210721e-22
-1.539686375808237782e-22
-1.204340829550387360e-22
-9.327051427697289461e-23
-7.110454779682835227e-23
-5.310761980463347965e-23
-3.872306494289368515e-23
