# bin_10_9
7.489933849650854168e-08
7.089674478356078543e-08
6.545307514244697792e-08
5.883477488984359831e-08
5.145139680194409550e-08
4.380972953495118470e-08
3.642956708974377628e-08
2.972618883106766793e-08
2.390746942703860955e-08
1.896798584098087702e-08
1.478251480775479006e-08
1.126768951707010345e-08
8.446585390694781904e-09
6.317576713307395281e-09
4.729048791500794843e-09
3.526042334005631002e-09
2.645397782200568457e-09
1.997080485234266115e-09
1.519456027668537821e-09
1.163774016103851437e-09
8.956094182259601881e-10
6.902969773300894639e-10
5.309008040329548971e-10
4.059095282894368903e-10
3.074283241626981873e-10
2.299543612479703899e-10
1.694629006494695910e-10
1.228169786017253465e-10
8.743470474833452246e-11
6.111034484622409486e-11
4.193471591260690070e-11
