# bin_9_3
4.296429006880727878e-08
3.862818706983352902e-08
3.377960672440900214e-08
2.875226227487708637e-08
2.389693303901305773e-08
1.949552855011720068e-08
1.568833474904141472e-08
1.246356379855070170e-08
9.725965729255630788e-09
7.421761228657150568e-09
5.581955691140925315e-09
4.204665616872387140e-09
3.172622790164847553e-09
2.391940997828118831e-09
1.820367801661809897e-09
1.396637047683889671e-09
1.081514631265249125e-09
8.434680774022835529e-10
6.604679333577016517e-10
5.171308686341506873e-10
4.031017291922961171e-10
3.115110827237180343e-10
2.377583573792973269e-10
1.786669424084365259e-10
1.318711822439362378e-10
9.543775080882948357e-11
6.766434867016732591e-11
4.699081118562164979e-11
3.198545643279634616e-11
2.136766055384526032e-11
1.403553079791278999e-11
