# bin_9_2
3.362677110247022479e-08
2.958531619129276742e-08
2.532875353062425505e-08
2.115675060833447204e-08
1.732707739912078155e-08
1.398636867336230476e-08
1.114884977413659958e-08
8.741384770294973651e-09
6.706940101589396149e-09
5.061601730797579157e-09
3.815810209117807517e-09
2.886265299943779380e-09
2.182414365100225360e-09
1.663668318580799054e-09
1.280155426583024179e-09
9.943462060911510419e-10
7.783674269516398845e-10
6.120780177465883604e-10
4.814720809133250154e-10
3.771464298888613103e-10
2.929074949136822374e-10
2.246621893702234948e-10
1.696245517626750021e-10
1.257500612235986633e-10
9.137368783973893896e-11
6.501473812410584788e-11
4.529271142697229907e-11
3.091477829542900831e-11
2.070296315749869262e-11
1.362911912239856897e-11
8.839745342594425160e-12
