# bin_11_10
8.094441025065011696e-08
7.710587880893611500e-08
7.167353980492765982e-08
6.488989480579728566e-08
5.715694261029866840e-08
4.899793978113074340e-08
4.097721618087245057e-08
3.358231928967941317e-08
2.709939066806656718e-08
2.157703774451864122e-08
1.689874486800405939e-08
1.294929665812345967e-08
9.729268292719171265e-09
7.264482813114040973e-09
5.432427159486061715e-09
4.044521199840956720e-09
3.019711322646210124e-09
2.270238593183057105e-09
1.718178220264183793e-09
1.309662393690030690e-09
1.003818678986919299e-09
7.714386398609461996e-10
5.923594665883653486e-10
4.528071683912209433e-10
3.433469049861962417e-10
2.574354560454267485e-10
1.903730472127261597e-10
1.385750482720637737e-10
9.915507953169328595e-11
6.969023132264221614e-11
4.810474237521662016e-11
