# bin_4_3
3.510353745362752464e-08
3.114403995681189800e-08
2.689643755608840114e-08
2.264708337211493854e-08
1.866343698386173282e-08
1.512760505584110830e-08
1.210108941993077691e-08
9.543503761065948546e-09
7.385551679962692125e-09
5.606045877867031185e-09
4.219987829448168451e-09
3.187707571060930767e-09
2.410154043745172928e-09
1.827874063777448385e-09
1.400165743468957655e-09
1.081431655805279235e-09
8.422877285905432908e-10
6.596432869398991767e-10
5.175427041370978072e-10
4.050520366765990242e-10
3.148723748520424123e-10
2.421568759847832890e-10
1.836153944834183849e-10
1.368944467765496881e-10
1.001505892149842367e-10
7.180600140100678946e-11
5.043051186570721351e-11
3.470302003981581421e-11
2.342120426786708228e-11
1.552791963724347559e-11
1.013330619045906818e-11
