# bin_6_1
2.169227497619229103e-08
1.848916217844042713e-08
1.539341020055571581e-08
1.257906409573376166e-08
1.013469965146838833e-08
8.057968088983573709e-09
6.298596011546783030e-09
4.826290733426805826e-09
3.650083131774194010e-09
2.760509532452781790e-09
2.094832262744579926e-09
1.593710922568213237e-09
1.223279435099714559e-09
9.484379452136929408e-10
7.422180324537506989e-10
5.849395833182626747e-10
4.624894852897885142e-10
3.652089723992226178e-10
2.866929920116015596e-10
2.227690177684564676e-10
1.706952995396439427e-10
1.285855646547226995e-10
9.501206680111668822e-11
6.876130270843539017e-11
4.871001788759683352e-11
3.378330017077390330e-11
2.296337413047699799e-11
1.532272561662291977e-11
1.005790812337787664e-11
6.509351716964168260e-12
4.163050752235883076e-12
