# bin_8_8
6.708130326425275060e-08
6.289088634021091614e-08
5.747090468838152036e-08
5.111555206744783934e-08
4.423701193355968011e-08
3.731013848560357728e-08
3.078429628373306285e-08
2.497216831193160314e-08
1.998540048388421903e-08
1.576333004992163002e-08
1.219029718909536971e-08
9.228518903562562628e-09
6.909508364431752265e-09
5.181550695977750287e-09
3.880726036879156569e-09
2.904927255822026131e-09
2.193007518449134139e-09
1.665983828365936103e-09
1.275959610133630125e-09
9.831762796059304154e-10
7.601047773786542837e-10
5.875017766938498299e-10
4.522246062490024572e-10
3.453634965462119013e-10
2.607909953862178377e-10
1.941715402325895370e-10
1.422364424924885954e-10
1.023535000418159882e-10
7.229005004216303052e-11
5.009978298587910053e-11
3.408271390265550151e-11
