# bin_5_14
-9.244975621545169141e-25
-1.051320833522917610e-24
-1.177498122554052473e-24
-1.294011240206996288e-24
-1.388819470335976559e-24
-1.446714352177046239e-24
-1.454133564264966296e-24
-1.392238070203636150e-24
-1.257965252922202301e-24
-1.074459207868623070e-24
-8.814076533336518900e-25
-7.300961666507739946e-25
-6.309942828517068445e-25
-5.244946654880878067e-25
-3.738491866156837657e-25
-2.753228170164817983e-25
-2.163781549729151629e-25
-1.445095266886374725e-25
-1.061677570951710022e-25
-7.386359030486133935e-26
-5.038897826843403523e-26
-3.444416504342878026e-26
-2.352928108060856752e-26
-1.617899120245365125e-26
-1.123431416730577995e-26
-7.935704405111305267e-27
-5.713241373622602381e-27
-4.200968696657690802e-27
-3.150904894686438852e-27
-2.400245418114243154e-27
-1.844671371675063371e-27
