# bin_7_10
-1.114034057076342546e-13
-1.257173210483138201e-13
-1.394686150438082745e-13
-1.514880112625679267e-13
-1.602384598982331631e-13
-1.639241543027560247e-13
-1.610781327672181105e-13
-1.497265379483963687e-13
-1.315662800007406478e-13
-1.095318972663339888e-13
-8.965680104409628486e-14
-7.600810401164649937e-14
-6.552427248640958519e-14
-5.057572629832272415e-14
-3.505220220874605106e-14
-2.813694290409427516e-14
-1.960078408520907636e-14
-1.443403834945325160e-14
-9.799016172280777056e-15
-6.915777200646403913e-15
-4.815358664782210156e-15
-3.348900053205831359e-15
-2.344727770289584673e-15
-1.658372822893184891e-15
-1.194002594946175431e-15
-8.766037129426575700e-16
-6.558991963488578943e-16
-4.990896526887543518e-16
-3.840411245845637287e-16
-2.967699766358603592e-16
-2.285938252662936404e-16
