# bin_2_8
-6.563818656601167431e-22
-7.276981534945882581e-22
-7.900429234569395818e-22
-8.354471548001431404e-22
-8.546503088846613983e-22
-8.399085543868360739e-22
-7.811596125849401748e-22
-6.868152543758338125e-22
-5.722888769225494131e-22
-4.684564473631327436e-22
-3.965675524056931696e-22
-3.415453478044620631e-22
-2.646432641407312624e-22
-1.842322717558714010e-22
-1.471917603202865423e-22
-1.039853442607879976e-22
-7.646929082882866990e-23
-5.295274047389787031e-23
-3.797461009909282494e-23
-2.698386768661667397e-23
-1.926790332837845237e-23
-1.393534133064229125e-23
-1.023125161764334669e-23
-7.656212673426250259e-24
-5.830917914645584118e-24
-4.500803535543660548e-24
-3.502298053952984627e-24
-2.728001950301768137e-24
-2.112095683003698749e-24
-1.615109538911173340e-24
-1.213688974951356693e-24
