# bin_3_8
-1.665988667773509500e-18
-1.851186982140996079e-18
-2.015383240079523081e-18
-2.138606858715523766e-18
-2.196844813339962293e-18
-2.171066079537357584e-18
-2.033017678534517638e-18
-1.799092198205784825e-18
-1.506766048622657716e-18
-1.232654173945612932e-18
-1.037867046409503851e-18
-8.966351584687374869e-19
-7.076772197093203393e-19
-4.921552780248197935e-19
-3.877290765173539559e-19
-2.810720871128140883e-19
-2.023838510950979172e-19
-1.412378652321505444e-19
-1.016036071422302327e-19
-7.183449975306165360e-20
-5.101434600093626081e-20
-3.670335732164145418e-20
-2.679924887733685159e-20
-1.993542046193935604e-20
-1.510383719091565059e-20
-1.161167092349560632e-20
-9.013992320207756646e-21
-7.017179102404701264e-21
-5.439105640115503021e-21
-4.170161647653619370e-21
-3.145656055480432935e-21
