# bin_5_7
-1.093665976791465425e-12
-1.215079607882312180e-12
-1.322639093604667828e-12
-1.403226497761662054e-12
-1.441121677378025697e-12
-1.423751621949862768e-12
-1.332764292753224262e-12
-1.179032894185889781e-12
-9.872913405616398969e-13
-8.077811280163641469e-13
-6.802999731917356473e-13
-5.875080685225399563e-13
-4.632810342644528570e-13
-3.224096796358059104e-13
-2.539978935055452826e-13
-1.839833934496969403e-13
-1.325404470975147293e-13
-9.255472680427951527e-14
-6.653906335110044155e-14
-4.705160086174338047e-14
-3.342338021449898098e-14
-2.405202118464227414e-14
-1.756606242991244124e-14
-1.307025635194654522e-14
-9.904559921559816417e-15
-7.615606947860161613e-15
-5.912241536639203778e-15
-4.602405325397175521e-15
-3.567005400164225452e-15
-2.734365901770484554e-15
-2.062159126222819330e-15
