# bin_5_11
-5.500144336796439355e-19
-6.208012041320945915e-19
-6.888600531248051017e-19
-7.484305007464315497e-19
-7.919304549177902980e-19
-8.104550933620098160e-19
-7.968334747451613142e-19
-7.411595974186426939e-19
-6.516602051203728802e-19
-5.427511054990525762e-19
-4.442096436389011080e-19
-3.763987889260562918e-19
-3.246328837011517446e-19
-2.510164901348796198e-19
-1.738691132880249495e-19
-1.394618921546889533e-19
-9.736197065363238292e-20
-7.158814119169505730e-20
-4.859019671400180473e-20
-3.432051165685627742e-20
-2.388685545366190997e-20
-1.660382633613913402e-20
-1.161929031481761156e-20
-8.212742984826719416e-21
-5.908633005118303401e-21
-4.334719997942196116e-21
-3.241127861111363213e-21
-2.464944160292834265e-21
-1.896133771860889828e-21
-1.465132939032262596e-21
-1.128717362758676570e-21
