# bin_13_7
-3.992193872798422134e-10
-4.469472125560373329e-10
-4.910952515053968798e-10
-5.271357617197415128e-10
-5.493521324601427238e-10
-5.525004745528149435e-10
-5.297971424301556708e-10
-4.797225434842536058e-10
-4.107536521215192603e-10
-3.375168513946119519e-10
-2.793130452952011243e-10
-2.406308023243282234e-10
-2.004162551919513785e-10
-1.445487418519107260e-10
-1.058597414807883485e-10
-8.335107319816643867e-11
-5.647080776753080959e-11
-4.174659817053773179e-11
-2.924749182188845476e-11
-2.039788746657174828e-11
-1.433251761610776706e-11
-1.013034987441560404e-11
-7.246724545472871451e-12
-5.264359404448605661e-12
-3.900475495768512122e-12
-2.942338099668608622e-12
-2.252969203519412566e-12
-1.741874298852210954e-12
-1.350246211679658634e-12
-1.041937126928991103e-12
-7.952168788852623204e-13
