# bin_12_4
-1.015945891569882184e-09
-1.105441809476944601e-09
-1.172690966197406873e-09
-1.205008807757356435e-09
-1.191038429816038020e-09
-1.117242186889027065e-09
-9.906683695005450683e-10
-8.328540934449126658e-10
-6.829636359988153657e-10
-5.735657163753967911e-10
-4.927190983514390201e-10
-3.911822599006341269e-10
-2.774411179352644959e-10
-2.142196115934039907e-10
-1.587394206744317222e-10
-1.134774482003716100e-10
-8.171298429082444928e-11
-5.888029790245217878e-11
-4.228699651812665969e-11
-3.068914987458315982e-11
-2.259947477020826505e-11
-1.692417678581939604e-11
-1.289975632728371911e-11
-9.984204196276008051e-12
-7.803220236113893771e-12
-6.119576737036014479e-12
-4.782272909482301382e-12
-3.699187579450933998e-12
-2.816145771185714146e-12
-2.100240945405593398e-12
-1.529251507359853464e-12
