# bin_6_13
-4.718417651354875572e-20
-5.358207222968657157e-20
-5.990512289205761888e-20
-6.568835477441109994e-20
-7.030893053985085562e-20
-7.298435777494809919e-20
-7.306332386639685043e-20
-6.955583327550660743e-20
-6.250457622182617813e-20
-5.308839311654428221e-20
-4.348677229718792837e-20
-3.616811135471434553e-20
-3.130990725357055154e-20
-2.571688816878931163e-20
-1.811385928349824466e-20
-1.360275223037791034e-20
-1.047626809070148638e-20
-7.096028222718070886e-21
-5.113905726178193548e-21
-3.595847375317616086e-21
-2.460458018787412348e-21
-1.682203736560172911e-21
-1.153972964197591101e-21
-7.977904279751823199e-22
-5.579703762157758685e-22
-3.973243276951403123e-22
-2.884923394495527993e-22
-2.138702939783192999e-22
-1.614995450020565132e-22
-1.235905110071290168e-22
-9.517528566959223111e-23
