# bin_2_13
-2.115283907645251158e-34
-2.396387337975121824e-34
-2.671158825712921610e-34
-2.918305977295425815e-34
-3.109341070973612235e-34
-3.209002483373937859e-34
-3.190140459583627437e-34
-3.008632843503570679e-34
-2.679939075286776237e-34
-2.256786344432835341e-34
-1.846277424871686639e-34
-1.546874720782636312e-34
-1.339751166654122129e-34
-1.075874252850039150e-34
-7.478576694997636375e-35
-5.792036843816109582e-35
-4.292688305198919168e-35
-3.001183917087311747e-35
-2.092797998699862806e-35
-1.487831945605496120e-35
-1.024331589495947210e-35
-7.031784816325071083e-36
-4.863175844854554372e-36
-3.392344700022622871e-36
-2.400379968308154696e-36
-1.730963910713395634e-36
-1.273053424956293481e-36
-9.548572110670501707e-37
-7.275665661918278109e-37
-5.597849456907549189e-37
-4.316770580919665691e-37
