# bin_5_5
-8.006725504336971263e-11
-8.775176298352500234e-11
-9.392719024290980593e-11
-9.757195361340962739e-11
-9.777784731451721876e-11
-9.332754080573771695e-11
-8.414302787949962056e-11
-7.175367657587269948e-11
-5.889683902549629376e-11
-4.885968097715235690e-11
-4.209680515539807189e-11
-3.476363361809673617e-11
-2.496028075420606395e-11
-1.852343401085458010e-11
-1.444700405934996987e-11
-9.949067048297306515e-12
-7.353641103244909167e-12
-5.242361950950438000e-12
-3.730366409207887337e-12
-2.684508247045278983e-12
-1.954676563536525508e-12
-1.446281757801241708e-12
-1.088931026500563663e-12
-8.344584517509898698e-13
-6.477580219970185588e-13
-5.064327225986989750e-13
-3.961067167218064924e-13
-3.077541342741291915e-13
-2.360495823176983698e-13
-1.778072742433090634e-13
-1.310060932811377628e-13
