# bin_7_8
-1.011514315629236843e-11
-1.133819013531336002e-11
-1.247658203703191281e-11
-1.341668217516277099e-11
-1.401425021219734329e-11
-1.413237880155162334e-11
-1.360074782561741251e-11
-1.235699087450492790e-11
-1.061530567733694018e-11
-8.728204862497956977e-12
-7.204348683420826000e-12
-6.202768169939096149e-12
-5.206344152722321856e-12
-3.776171415362166958e-12
-2.733483984874276361e-12
-2.180585817538055912e-12
-1.461851180504109423e-12
-1.093005051233698661e-12
-7.616218833271069784e-13
-5.297160713305372838e-13
-3.719543358858326392e-13
-2.622796832996980089e-13
-1.870745538168791610e-13
-1.354310431208487245e-13
-1.000121865643572689e-13
-7.522789472119743927e-14
-5.748042864554570177e-14
-4.439353951068173600e-14
-3.441378931454940144e-14
-2.658384883049280306e-14
-2.032682359013680049e-14
