# bin_3_7
-2.182209393202657760e-16
-2.410353430696214895e-16
-2.604943687370116723e-16
-2.738978761831914797e-16
-2.783469584881866129e-16
-2.709932545209824550e-16
-2.493381391514821933e-16
-2.169418109022992517e-16
-1.795259063723569638e-16
-1.473275484722000856e-16
-1.257230941369227252e-16
-1.073183048064541069e-16
-8.074053069087769739e-17
-5.688439490198272288e-17
-4.588707328501656586e-17
-3.145386229721378797e-17
-2.362754051206190618e-17
-1.639706852340417296e-17
-1.167073489802585716e-17
-8.344294010528203321e-18
-6.003491977310946466e-18
-4.376322705676680265e-18
-3.241144379908519560e-18
-2.446929990771504582e-18
-1.877510390186532276e-18
-1.457128464008054109e-18
-1.137070261119944889e-18
-8.857287769965096589e-19
-6.840623889402006981e-19
-5.206953004424567643e-19
-3.888066233362891201e-19
