# bin_6_7
-1.124283508849073314e-11
-1.252144365887774389e-11
-1.367068738073108360e-11
-1.455779634171925194e-11
-1.501971368565492046e-11
-1.492619469975019239e-11
-1.407782525022925635e-11
-1.254285721423424771e-11
-1.056943544901563007e-11
-8.649764510886550157e-12
-7.241421158239547206e-12
-6.262286053687637519e-12
-5.034460850794610399e-12
-3.521019147613040479e-12
-2.717086180517890333e-12
-2.027996051373238142e-12
-1.424686392753315822e-12
-1.011875493146142754e-12
-7.257141972086076803e-13
-5.102744791959136066e-13
-3.605989280782247494e-13
-2.579316720604729859e-13
-1.872009275554407156e-13
-1.383206142139883664e-13
-1.041607291003318573e-13
-7.968363830842272383e-14
-6.165569878045186644e-14
-4.793715369200320349e-14
-3.718209011573081244e-14
-2.857619701903669012e-14
-2.163774801533313180e-14
