# bin_11_12
-7.354036429018193394e-12
-8.371959221144653498e-12
-9.389981691864733720e-12
-1.033688214124003766e-11
-1.111793731353509117e-11
-1.161293727318780968e-11
-1.170863218696681102e-11
-1.126084700224204509e-11
-1.022058100713345760e-11
-8.770134791334615297e-12
-7.205948223339167330e-12
-5.951815318394568308e-12
-5.133039848433642655e-12
-4.302788774503949910e-12
-3.102000188013407759e-12
-2.250099327591535340e-12
-1.791826378835122923e-12
-1.188646816633847800e-12
-8.835999209428676631e-13
-6.093533221958876365e-13
-4.150105161078839597e-13
-2.838524955506885090e-13
-1.934499619176476097e-13
-1.324686997231588672e-13
-9.145518104240016197e-14
-6.417765137871756542e-14
-4.587489778901286485e-14
-3.349218603039145521e-14
-2.496554431637244897e-14
-1.893150974078166402e-14
-1.451375524345992999e-14
