# bin_2_7
-2.223198910403451897e-19
-2.448052243117093465e-19
-2.635611753818982438e-19
-2.757949704559546160e-19
-2.787445494457046149e-19
-2.692340000332828078e-19
-2.456116298115814730e-19
-2.118858614673261739e-19
-1.745728466805938628e-19
-1.437634412063238324e-19
-1.233531524605903178e-19
-1.041525816651394086e-19
-7.660767675283013170e-20
-5.495831553224511329e-20
-4.410576333592349766e-20
-2.993936306940577091e-20
-2.254646896126797467e-20
-1.580905550712801335e-20
-1.121513187166713636e-20
-8.042271636246772954e-21
-5.814440655375728253e-21
-4.264905544194848937e-21
-3.180802358234497416e-21
-2.417312844451068215e-21
-1.864717622857233412e-21
-1.452451425883207923e-21
-1.135132058161256474e-21
-8.836808534737640111e-22
-6.807791462233083777e-22
-5.160931829880771461e-22
-3.833077903878657541e-22
