# bin_5_2
7.977924640756352944e-09
8.651248385615328102e-09
9.138274524419429139e-09
9.339746734920807554e-09
9.167916841478799485e-09
8.520306334990194422e-09
7.487050025481243049e-09
6.241511750124033693e-09
5.113985366255778011e-09
4.328178288898072869e-09
3.717442281125096906e-09
2.880767685482430444e-09
2.022065173738342295e-09
1.607601188702771976e-09
1.148131032045737888e-09
8.448163474993017546e-10
5.963171519687115567e-10
4.324998666300054854e-10
3.126312521044644419e-10
2.281714380103470620e-10
1.692086488390830158e-10
1.276294425230430297e-10
9.799137085894808807e-11
7.629075437275812318e-11
5.986793939617841458e-11
4.704365153766713397e-11
3.675482338645592705e-11
2.836727678871433510e-11
2.150899194817854176e-11
1.595199511213219209e-11
1.153588939848429986e-11
