# bin_6_1
4.079246597165536300e-14
4.443847232669392817e-14
4.720914662524255558e-14
4.858126027114711265e-14
4.812547810926949661e-14
4.522713605769947477e-14
4.016815875956486209e-14
3.376949154266591848e-14
2.764799283590476362e-14
2.320208740679641021e-14
2.002421290700846264e-14
1.596700858047422151e-14
1.120558929361639324e-14
8.714595472602148487e-15
6.458057750043594303e-15
4.614941574879330035e-15
3.300592702985085719e-15
2.393417141983861198e-15
1.717557571215408539e-15
1.244620244111360864e-15
9.159537264127474710e-16
6.856265150424420939e-16
5.225121071530313633e-16
4.044661455342656101e-16
3.162431479308246615e-16
2.481862584929643951e-16
1.941310107556493450e-16
1.503248327252652098e-16
1.145701522428762638e-16
8.554071940639506092e-17
6.234353607456016731e-17
