# bin_2_2
1.066938263768450457e-05
1.108944356422868040e-05
1.112406408668922001e-05
1.064735004883001687e-05
9.638655231318775401e-06
8.261084012815353501e-06
6.807775227315586147e-06
5.639821992937421454e-06
4.828655919501239271e-06
4.000902263181406872e-06
2.939522501083384643e-06
2.166074102728285887e-06
1.690737168880433264e-06
1.195618414780003550e-06
8.891377114987310815e-07
6.429155391757946537e-07
4.710279575658907515e-07
3.493372799408308409e-07
2.631954908661370071e-07
2.018957722481296895e-07
1.574150912225350598e-07
1.243012085029337890e-07
9.873590900016357558e-08
7.833001051170816485e-08
6.163221467437720656e-08
4.778506629439152390e-08
3.630846768140130894e-08
2.692480211430090989e-08
1.943584127792437603e-08
1.365113224832450191e-08
9.341973313373038857e-09
