# bin_14_5
1.061292571356443390e-17
1.207500392024799948e-17
1.353302380785174995e-17
1.488386725381351618e-17
1.598993515084077593e-17
1.667701553556492731e-17
1.678648657155527127e-17
1.610390774764414697e-17
1.458078564738681684e-17
1.248034489139067301e-17
1.024768194875025625e-17
8.480726848143146936e-18
7.324721998805220143e-18
6.109962453659126142e-18
4.374877062351684761e-18
3.203447581795797186e-18
2.531598388637232120e-18
1.685798999156675745e-18
1.244946992340202008e-18
8.632872780818759212e-19
5.885602961286924155e-19
4.024209259116226210e-19
2.746386589288524376e-19
1.885471344085903588e-19
1.306391567905562719e-19
9.205077442416745823e-20
6.609208456528604015e-20
4.846776758670688086e-20
3.626952637369525237e-20
2.758336573578830350e-20
2.118103759062873739e-20
