# bin_15_3
4.474483244165077593e-27
5.096976456210733050e-27
5.721266875083173864e-27
6.304222906284935413e-27
6.788546242054828766e-27
7.101294860194974217e-27
7.172009645880350268e-27
6.914300628122443251e-27
6.291324684095162475e-27
5.412466450625069558e-27
4.452526822977122391e-27
3.673717795458626912e-27
3.165104955538772040e-27
2.663806525989966275e-27
1.931780675695367966e-27
1.391824630005748458e-27
1.114685264563557129e-27
7.379005418482120490e-28
5.512476638994953658e-28
3.786383682399761447e-28
2.577576678754326179e-28
1.763668658048038857e-28
1.200924681907379756e-28
8.208123079752054703e-29
5.651659732060737057e-29
3.953538933862868229e-29
2.816234668237764093e-29
2.048823272471694399e-29
1.522458428554620517e-29
1.151780738186083546e-29
8.818402389792488589e-30
