# bin_4_1
3.337020968101026269e-09
3.544254288148066190e-09
3.647985084418683789e-09
3.614975037590595851e-09
3.401345353171001233e-09
3.025173380601251500e-09
2.548516803939802546e-09
2.088529034745717200e-09
1.749729695606031913e-09
1.506413376196332514e-09
1.206136126891929295e-09
8.548648867106909106e-10
6.589808948490546230e-10
4.941448062533496611e-10
3.531827544562362640e-10
2.568145347236222105e-10
1.871737482588946105e-10
1.361391300749416940e-10
1.003628228854753942e-10
7.524125893845738747e-11
5.741764498700505533e-11
4.455149250494097220e-11
3.500942972536636673e-11
2.767742900059875655e-11
2.186101911485339425e-11
1.713161815716749921e-11
1.323457313003787567e-11
1.002466124092356093e-11
7.414040577419230773e-12
5.339168414510637417e-12
3.741540092713597302e-12
