# bin_10_10
4.376971226337581803e-06
4.971577059118249054e-06
5.559791208443483567e-06
6.098564634130873127e-06
6.530207647736497757e-06
6.782157380303335233e-06
6.793611323063719905e-06
6.472643289224134541e-06
5.821602124862279500e-06
4.949057579399998749e-06
4.056030859440474950e-06
3.372814464103972955e-06
2.919469066284694103e-06
2.401204181000138286e-06
1.693891521525923440e-06
1.269755846989057107e-06
9.800031160102057028e-07
6.629715366809581884e-07
4.787789028366021506e-07
3.363539265242687316e-07
2.301081560613792052e-07
1.573297827662118659e-07
1.078894258062309870e-07
7.455387695700894625e-08
5.210936838692558184e-08
3.707918287040423647e-08
2.690162756336385835e-08
1.992818321450537007e-08
1.503904066519354472e-08
1.150419446104357248e-08
8.857752152417384267e-09
