# bin_12_6
1.191184700541934715e-11
1.350692107088791330e-11
1.507230085798418758e-11
1.648910622685609923e-11
1.759794321054691255e-11
1.820011217601291187e-11
1.813985159846146326e-11
1.716534577936213993e-11
1.533987037363223985e-11
1.295773263488915936e-11
1.060733780390312186e-11
8.866905444551992624e-12
7.681084229077356849e-12
6.218159924370699518e-12
4.338437361493171280e-12
3.327594982032084132e-12
2.499513773061956495e-12
1.728019278852353917e-12
1.217501178951833045e-12
8.638929858858307209e-13
5.935211835674712444e-13
4.066650675134858036e-13
2.805014798062547039e-13
1.951091718607290798e-13
1.375424549690363952e-13
9.878806288206013513e-14
7.236324709714626051e-14
5.408266434066928055e-14
4.109971942592288730e-14
3.157580461937632421e-14
2.434529168832143230e-14
