# bin_12_8
2.724448376882185310e-08
3.096309112586313028e-08
3.465157504285851556e-08
3.804313082553003022e-08
4.078058580609338628e-08
4.241367516364372547e-08
4.255486164682119053e-08
4.063715550795225315e-08
3.662944949298349603e-08
3.120862105049162739e-08
2.559073778098484135e-08
2.124471590251760666e-08
1.837919320816347595e-08
1.519094637382826975e-08
1.076437783685150771e-08
8.006462162642085791e-09
6.231445430877200777e-09
4.189878754543292022e-09
3.050116500357159559e-09
2.133952471878886684e-09
1.458043182789613638e-09
9.966827415129262858e-10
6.822637285325643770e-10
4.704279315355193383e-10
3.278579421521316529e-10
2.325449253745088645e-10
1.681483813110224418e-10
1.241620432543614610e-10
9.345519302858242823e-11
7.136473005885164178e-11
5.490875164892648355e-11
