# bin_11_6
3.445939436689542519e-10
3.898038022464679226e-10
4.336966979235371360e-10
4.727491418590021321e-10
5.022689597012688740e-10
5.165446904824911041e-10
5.112036746164110028e-10
4.793367244414696711e-10
4.247101481405814463e-10
3.559611611103192390e-10
2.912531676126297382e-10
2.452725394870406573e-10
2.122323145542440507e-10
1.677472922458254407e-10
1.161593960852939175e-10
9.157415530745429778e-11
6.610040287895230510e-11
4.729523258967057735e-11
3.243574853810726544e-11
2.307787339210569483e-11
1.596324786774957518e-11
1.101352727165908280e-11
7.658163096493633413e-12
5.373388406520633540e-12
3.830669901677828655e-12
2.784090970290163911e-12
2.063351175222017982e-12
1.557910440118104412e-12
1.192727652591689099e-12
9.199069049061524979e-13
7.093954912953931403e-13
