# bin_8_7
3.464199497497188388e-11
3.891487167746610967e-11
4.293476059597558119e-11
4.632008859030866226e-11
4.858216274475764415e-11
4.921916909874981432e-11
4.769055758078820453e-11
4.363200959272855792e-11
3.774812120814003883e-11
3.112964302256293523e-11
2.559982272426013967e-11
2.195664262993226224e-11
1.863611502580563062e-11
1.376105358934592045e-11
9.768295265239942055e-12
7.890896060084580488e-12
5.281518663183094405e-12
3.981088697383746882e-12
2.740077021462364274e-12
1.905454461105461815e-12
1.336783467488852153e-12
9.393246567047596489e-13
6.660746107905382116e-13
4.786701168461503049e-13
3.508534866066254587e-13
2.620989746732673214e-13
1.991421602751614869e-13
1.532498382613161901e-13
1.186430873254093322e-13
9.173506930571548977e-14
7.034523746205781037e-14
