# bin_12_4
2.134821995214505097e-22
2.414937048272739192e-22
2.686919432529743920e-22
2.928951492730756647e-22
3.111980066911708551e-22
3.200602767285124746e-22
3.167820438112739798e-22
2.970722202024507552e-22
2.632205527837541031e-22
2.206016338503941350e-22
1.804386589268160981e-22
1.518763584144807899e-22
1.314253624107132036e-22
1.039669213547090336e-22
7.197658119606104393e-23
5.667977651335733838e-23
4.097587297014695292e-23
2.927063376825190969e-23
2.008995330402017739e-23
1.429276216544931856e-23
9.882634474100934729e-24
6.815249361281121235e-24
4.736894831267660671e-24
3.322072748744992055e-24
2.366945291430028629e-24
1.719282976603356526e-24
1.273496493124320748e-24
9.610887445019837830e-25
7.355569021955259627e-25
5.672067688132935233e-25
4.373996800833097445e-25
