# bin_11_10
2.830517350973096509e-11
3.218531733826888629e-11
3.604409438794505493e-11
3.960523393433123739e-11
4.249976970324425547e-11
4.426182654486136689e-11
4.447778079222083445e-11
4.256934365565702573e-11
3.845027065639883645e-11
3.282941671553637828e-11
2.692777944111347294e-11
2.231041427063714824e-11
1.928482508068705201e-11
1.601869237699527155e-11
1.140808033995559368e-11
8.411817451796821012e-12
6.603338482609033254e-12
4.413084602229832800e-12
3.238757097976935302e-12
2.254863738153277686e-12
1.538488742539604061e-12
1.051627534691148918e-12
7.185394015198036608e-13
4.942422457945185559e-13
3.433480603774290405e-13
2.426608324753176494e-13
1.747991582482714754e-13
1.286010594008054027e-13
9.650133474639847141e-14
7.353577086159605102e-14
5.652433558362264548e-14
