# bin_10_5
9.004134025668689291e-16
1.013435201617076141e-15
1.120737115261274155e-15
1.212592841866352338e-15
1.276417381764931737e-15
1.298450244524071126e-15
1.265717015352102080e-15
1.165620204303679143e-15
1.015044234680436046e-15
8.399976203258539623e-16
6.890451644529970518e-16
5.883488332107236394e-16
5.033856329635452965e-16
3.784818984845554468e-16
2.650273748000644546e-16
2.147188076146871958e-16
1.451504535298418084e-16
1.090993890091192857e-16
7.438289526997635090e-17
5.192735254092038687e-17
3.636164592531280174e-17
2.546708324480651415e-17
1.796359864606082335e-17
1.282260566167200840e-17
9.330759410636776822e-18
6.922494157411630579e-18
5.228659179542605538e-18
4.007116594162456367e-18
3.096092657788247381e-18
2.394461217081063894e-18
1.840204424935550908e-18
