# bin_13_12
2.679829785227850312e-11
3.062198970297823945e-11
3.451137302450906096e-11
3.821359976227441852e-11
4.139780670839823329e-11
4.363429014389742853e-11
4.444402397316587336e-11
4.339515909170641630e-11
4.002343605822810035e-11
3.490373344459667400e-11
2.890072779810921873e-11
2.369589172039628642e-11
2.022725194603409162e-11
1.734389673323730826e-11
1.306609233412737285e-11
9.103082574800981772e-12
7.389974752409819240e-12
4.958337026988293749e-12
3.719540746601562533e-12
2.497020487061592736e-12
1.710912181827646792e-12
1.170756496369345914e-12
7.944743634599951434e-13
5.372275511560668196e-13
3.639992298582668265e-13
2.496430985245721755e-13
1.738636018555791306e-13
1.234786966429999709e-13
8.969213057291833785e-14
6.658848985256851440e-14
5.033662581789841934e-14
