# bin_13_2
7.927951258068951307e-33
8.983301163628820095e-33
1.001582032252447476e-32
1.094585909911372017e-32
1.166681221165290682e-32
1.204651131632415288e-32
1.198276582421086116e-32
1.130976199652123055e-32
1.008148854923664517e-32
8.495475001970307427e-33
6.950614876914546524e-33
5.819828704850862715e-33
5.040751258697549238e-33
4.055936976302048862e-33
2.821723514230033979e-33
2.180004895733403834e-33
1.621081899305114681e-33
1.130128933849273060e-33
7.900881174748164420e-34
5.613917535215873696e-34
3.862893309339768178e-34
2.650480127202205464e-34
1.831808764794838507e-34
1.276848420897161476e-34
9.026192526482074334e-35
6.502362200447166261e-35
4.777376335253347383e-35
3.580065612002382993e-35
2.726059776245267060e-35
2.096638834658068288e-35
1.616736159455828531e-35
