# bin_12_3
4.299129771403788614e-26
4.859225022308924564e-26
5.401080618861830916e-26
5.880364094764447984e-26
6.238272210701180049e-26
6.404004209123273010e-26
6.322883324098441160e-26
5.911382650913311976e-26
5.222798720131299235e-26
4.366638230946723931e-26
3.572083205516587257e-26
3.014172599428334882e-26
2.605739067972145643e-26
2.044043651688965373e-26
1.414331715971014381e-26
1.122262301645943090e-26
8.005748113435248120e-27
5.783901363847462946e-27
3.947523922577255593e-27
2.802901586965115710e-27
1.942816573293989553e-27
1.343744808576307644e-27
9.363739200387263368e-28
6.586015961907324041e-28
4.709659212537594675e-28
3.433897158088243124e-28
2.552746314324258382e-28
1.932333788515272420e-28
1.481913763878883733e-28
1.143759703706312650e-28
8.817703772564858275e-29
