# bin_12_8
1.874207638247250648e-13
2.129350326145310868e-13
2.382077047473639551e-13
2.613985461967976209e-13
2.800445800228655507e-13
2.910456444684388417e-13
2.917622854489661080e-13
2.782908424902511335e-13
2.505366852021704800e-13
2.131898825665552643e-13
1.747061184521718139e-13
1.450976870477428731e-13
1.255541189522695501e-13
1.035580721453009301e-13
7.321198303380185749e-14
5.461886148572574330e-14
4.236793883225486161e-14
2.854528245691605500e-14
2.071300409926086531e-14
1.451460895261182181e-14
9.920772737519258048e-15
6.781277681195708071e-15
4.644765551593376707e-15
3.205232406311257792e-15
2.236310949404269671e-15
1.588191575550065994e-15
1.149939860265590269e-15
8.502325406204492083e-16
6.406517836403261883e-16
4.895760751871511128e-16
3.768043790676368450e-16
