# bin_14_4
1.674083188872647067e-26
1.903179566861046779e-26
2.130791920688754685e-26
2.340556507708257407e-26
2.510607438332858494e-26
2.613356488405416226e-26
2.624559673899538175e-26
2.509852598170283320e-26
2.265184862065166173e-26
1.932465497661484787e-26
1.584729385409260094e-26
1.313762546140755130e-26
1.135884979643507586e-26
9.418949800128575563e-27
6.696188259867260403e-27
4.951453885973108368e-27
3.875641695673563152e-27
2.595316615993745813e-27
1.899417943794364000e-27
1.324472278680095628e-27
9.040782197873048482e-28
6.179784298377373149e-28
4.224975155280224480e-28
2.908403514048489771e-28
2.022576267167279987e-28
1.431140379695063937e-28
1.032207081145189543e-28
7.603265938424047059e-29
5.711226196710170636e-29
4.355087623361515626e-29
3.348647899205125586e-29
