# bin_12_11
2.778474910920404656e-11
3.167701159750134047e-11
3.559647174180163108e-11
3.927663214280239943e-11
4.236515102368581646e-11
4.441148419418987258e-11
4.496010912969447278e-11
4.350071851980195059e-11
3.972406942616578714e-11
3.429997139815630823e-11
2.825273222836600369e-11
2.325495978289225136e-11
1.998827603301504677e-11
1.692878997883578210e-11
1.240239848055675507e-11
8.827904643122930889e-12
7.128855295071963753e-12
4.709425533342833293e-12
3.540261311614302875e-12
2.414073891867975949e-12
1.642498665228224781e-12
1.124416788066381968e-12
7.646558992828540497e-13
5.208754394031092276e-13
3.568931648118739017e-13
2.482281271862879591e-13
1.756941879964786863e-13
1.269774423367661328e-13
9.379334267241216273e-14
7.062668383067576682e-14
5.392030142920016752e-14
