# bin_2_1
-2.395294766080077205e-08
-2.441560486478711638e-08
-2.389188636622657953e-08
-2.217035853213048040e-08
-1.946391250461595404e-08
-1.626058919156490237e-08
-1.335957345429655878e-08
-1.127837883701956681e-08
-9.601447245751485107e-09
-7.468688687470788508e-09
-5.356099046530410203e-09
-4.169717339255753022e-09
-3.060316279108413873e-09
-2.236743253510976458e-09
-1.630571679673876519e-09
-1.199669189311748884e-09
-8.887684590000397498e-10
-6.690627851236416455e-10
-5.129696197335938699e-10
-4.000760857591378323e-10
-3.163353971252949751e-10
-2.520266668689024481e-10
-2.008330178204215351e-10
-1.589303646466232318e-10
-1.240705388757326295e-10
-9.499633159864215425e-11
-7.101660428341527287e-11
-5.169017776073758518e-11
-3.659719421445267161e-11
-2.523474204667979915e-11
-1.698857156547299685e-11
