# bin_4_5
-1.243474108310709952e-08
-1.363391324949283356e-08
-1.460084928616262935e-08
-1.517652976813213221e-08
-1.522036057846820653e-08
-1.454040557938811010e-08
-1.311793352491755439e-08
-1.119161187127006081e-08
-9.183115072421122277e-09
-7.611974890321926490e-09
-6.563276053158180631e-09
-5.433411139022320770e-09
-3.896091363953524414e-09
-2.885969758901931260e-09
-2.261078452825941520e-09
-1.549241209951506052e-09
-1.148581387867327341e-09
-8.192733374738387937e-10
-5.822473095172956941e-10
-4.187573280970847592e-10
-3.047318196610612782e-10
-2.253815143753343238e-10
-1.696289163185770399e-10
-1.299578610101443709e-10
-1.008717768548105136e-10
-7.886960184341129574e-11
-6.170230471525462577e-11
-4.795658119600240967e-11
-3.679977468486866365e-11
-2.773437936898021536e-11
-2.044551669398235275e-11
