# bin_7_10
-4.380250330074952973e-10
-4.944896791640664071e-10
-5.488213677300538328e-10
-5.964421749859900736e-10
-6.313191188706362024e-10
-6.463353197626522077e-10
-6.358190027170809734e-10
-5.917701062837318540e-10
-5.206245476282382749e-10
-4.337923080053448501e-10
-3.549868261086581835e-10
-3.006481652028575513e-10
-2.594219805990395467e-10
-2.009446025713792347e-10
-1.391007070100108669e-10
-1.114916988195860659e-10
-7.800625477181898434e-11
-5.726805658166204144e-11
-3.885771628834140507e-11
-2.747202750469849634e-11
-1.911208424577935486e-11
-1.327784754717921537e-11
-9.287295036496536800e-12
-6.560445536584434886e-12
-4.716499003719582591e-12
-3.457653567257361222e-12
-2.583633693859682089e-12
-1.963912814661835589e-12
-1.510272653953912726e-12
-1.166905141680003081e-12
-8.991063790049280403e-13
