# bin_4_1
-1.879570281378829622e-11
-1.995544691740137268e-11
-2.052986304505051237e-11
-2.033258983587979088e-11
-1.911677382490856961e-11
-1.698853521448689095e-11
-1.429990729256480130e-11
-1.171365919575811112e-11
-9.815072495933236321e-12
-8.450446297388323921e-12
-6.757333120621720529e-12
-4.783803283265103201e-12
-3.692822123598530290e-12
-2.764480307927367514e-12
-1.977628730411918819e-12
-1.436534546714193987e-12
-1.047428826555964940e-12
-7.619526586425047286e-13
-5.617951194945344436e-13
-4.212709368371516270e-13
-3.215546209617232551e-13
-2.495565396960328251e-13
-1.961359859476134649e-13
-1.550686135781803465e-13
-1.224767257800269019e-13
-9.596805417888066351e-14
-7.412225236096169931e-14
-5.612929803473953777e-14
-4.149861812348762602e-14
-2.987424861407740754e-14
-2.092742062683736616e-14
