# bin_11_11
-1.315469563213583767e-08
-1.497903156612232317e-08
-1.680555186619289957e-08
-1.850706032205098003e-08
-1.991451567283257573e-08
-2.081320121539415258e-08
-2.099850506746684857e-08
-2.021431942800697644e-08
-1.836344340163095147e-08
-1.577189125792075708e-08
-1.296239791198563364e-08
-1.069974441677223945e-08
-9.224653338740090993e-09
-7.746613952877868894e-09
-5.596118023013378622e-09
-4.046714337587730274e-09
-3.232357694437215637e-09
-2.140061816994111672e-09
-1.595383025965741904e-09
-1.098327827860095255e-09
-7.476849583695867042e-10
-5.114298913899682317e-10
-3.483403767388025871e-10
-2.383304069596150020e-10
-1.643504902321809562e-10
-1.151782749596447556e-10
-8.221211866850074713e-11
-5.993514624312521447e-11
-4.462155679249171119e-11
-3.380709530659223298e-11
-2.590691689612027561e-11
