# bin_7_5
-2.314447988540654406e-09
-2.575336651107747133e-09
-2.808582671761659720e-09
-2.986678142324287623e-09
-3.076010665902693905e-09
-3.050256765783236781e-09
-2.868557114480938725e-09
-2.548666167064144253e-09
-2.141950489682971804e-09
-1.752247514867919746e-09
-1.470320962885180211e-09
-1.271651793994680957e-09
-1.014969288767301953e-09
-7.070909059316217648e-10
-5.509350679826881784e-10
-4.062929739944565178e-10
-2.883090514637365402e-10
-2.029046032954612566e-10
-1.459618724301532029e-10
-1.028482503076549365e-10
-7.279104492721030698e-11
-5.218709291782367585e-11
-3.796608341385963095e-11
-2.812851850901277106e-11
-2.123435040037319226e-11
-1.627754770486938985e-11
-1.261253441644721814e-11
-9.812169226863157020e-12
-7.609378521745006315e-12
-5.842976427811506290e-12
-4.417795148630151388e-12
