# bin_13_7
-1.074785098801501581e-13
-1.222132052495371148e-13
-1.368674534548065839e-13
-1.503923076298771835e-13
-1.613868892467503197e-13
-1.680823156278675920e-13
-1.689073619450548833e-13
-1.616663638864958203e-13
-1.460285411516449544e-13
-1.246858191835810073e-13
-1.022719905878269334e-13
-8.473260207944380332e-14
-7.324153458507069408e-14
-6.084255200056230382e-14
-4.333287149852503890e-14
-3.194772030917403811e-14
-2.508305071899407798e-14
-1.676113845355946773e-14
-1.230283766546371589e-14
-8.564858661586182686e-15
-5.843645155863212121e-15
-3.994360587090344511e-15
-2.729105964872573546e-15
-1.877128163045635495e-15
-1.303972052524309923e-15
-9.215325792831208150e-16
-6.637836916117356552e-16
-4.883255227069625954e-16
-3.664210850470832105e-16
-2.792125498937473282e-16
-2.146193378515999604e-16
