# bin_3_15
-7.352730583924920575e-30
-8.373606100976238981e-30
-9.396383686637007426e-30
-1.035003280647327617e-29
-1.114021189090216118e-29
-1.164699354929041134e-29
-1.175530583421672381e-29
-1.132296652490435409e-29
-1.029252979304380258e-29
-8.845567871106347501e-30
-7.271880214134547228e-30
-6.000581024784636004e-30
-5.171385432353170942e-30
-4.347044994448159621e-30
-3.145708601941851961e-30
-2.270521776012008235e-30
-1.815778554256126755e-30
-1.202043466203767060e-30
-8.968883162165044026e-31
-6.167477747099817621e-31
-4.198399687739940487e-31
-2.872068194823256687e-31
-1.955884787628607395e-31
-1.337501143436223307e-31
-9.216287538856690831e-32
-6.453092044834056803e-32
-4.601545859835711868e-32
-3.351259939412427156e-32
-2.492714847013557045e-32
-1.887225011584456088e-32
-1.445567023145690294e-32
