# bin_8_11
5.724479249170809250e-08
6.443809568567193818e-08
7.127125878027184812e-08
7.712679511335248732e-08
8.120473973564166705e-08
8.263593753103716442e-08
8.058411650169169807e-08
7.427214886918351972e-08
6.473041197186250210e-08
5.363416432144948825e-08
4.402914037714612644e-08
3.756788075048220677e-08
3.210875331886040184e-08
2.420724484595877514e-08
1.700440820487480268e-08
1.368994181523981031e-08
9.341062679138755622e-09
6.962646225931379911e-09
4.764050942626879492e-09
3.335412972096110785e-09
2.332193849934647743e-09
1.631346845315442704e-09
1.150168765405019008e-09
8.206547295115843132e-10
5.967285111483418055e-10
4.423525776211835958e-10
3.338322681590344842e-10
2.556327413953786060e-10
1.973778003633027828e-10
1.525709632663575239e-10
1.172219312688362259e-10
