# bin_5_4
3.584530959090692723e-09
3.917084534644107527e-09
4.177487685480227296e-09
4.319740603004129733e-09
4.305042459261095743e-09
4.078138393920464498e-09
3.649846697819333889e-09
3.090487960919445327e-09
2.532903460432693130e-09
2.112968463597213021e-09
1.823519289606608066e-09
1.481540853269784677e-09
1.049767309276276930e-09
7.975202955188868036e-10
6.078528500564127909e-10
4.250287562266100682e-10
3.094076071852604777e-10
2.227822763223487440e-10
1.590759903182177842e-10
1.148201540591728004e-10
8.403423757838712427e-11
6.254136541252399701e-11
4.738041031782043967e-11
3.649892079772070443e-11
2.844154286018445897e-11
2.228391336803038057e-11
1.743386059247022066e-11
1.352509895231392184e-11
1.034260015978844830e-11
7.757330920044209645e-12
5.685089018497007942e-12
