# bin_7_12
9.821879629480207693e-08
1.099989090535071030e-07
1.209144182208850706e-07
1.298540763511765284e-07
1.354125137074887987e-07
1.362907825263833205e-07
1.308212182735464587e-07
1.185873533721858652e-07
1.016530101876690171e-07
8.358342780784748443e-08
6.915477891362546151e-08
5.956201595521964387e-08
4.968389106559238358e-08
3.591106458802071793e-08
2.624515924359829677e-08
2.070280804429821362e-08
1.401966485023708387e-08
1.037809571461487464e-08
7.262917040008827286e-09
5.065030379022613594e-09
3.558602575664206685e-09
2.514235191516689494e-09
1.797441922137803027e-09
1.304750235174578309e-09
9.659671999969473537e-10
7.281709332513775192e-10
5.572593437976887145e-10
4.307035717472182999e-10
3.338430990573321658e-10
2.576574806080899992e-10
1.967192647851038560e-10
