# bin_4_5
6.821330887480845031e-08
7.398523909945331853e-08
7.817196144755396927e-08
7.993547168636069225e-08
7.850509567392731302e-08
7.305283330282560981e-08
6.427627130956858852e-08
5.369444790418023970e-08
4.404302410795863765e-08
3.721648494364530283e-08
3.189179140687091452e-08
2.482234257343699272e-08
1.754409087942352061e-08
1.378701175576118980e-08
9.969017303079560684e-09
7.255370973399579058e-09
5.169336600239281441e-09
3.740755795138134404e-09
2.699143555547292951e-09
1.967924762194063147e-09
1.457555854767427130e-09
1.098099262795815643e-09
8.419553029573742870e-10
6.547264607694318470e-10
5.133023562254569330e-10
4.030846897790513458e-10
3.148308066620129619e-10
2.429922960954792736e-10
1.843104622712645274e-10
1.367859670249101872e-10
9.902094191433528743e-11
