# bin_2_12
4.971671615883575250e-07
5.155471259377372926e-07
5.156093145807738535e-07
4.921447883190066527e-07
4.448315576308975388e-07
3.813236852386678939e-07
3.153203281929299311e-07
2.619213969813164028e-07
2.229434801495708322e-07
1.831859546150353630e-07
1.361646107739482878e-07
1.007252900541148341e-07
7.742643848819020054e-08
5.572503387545178768e-08
4.099689796023397399e-08
2.976783718263847486e-08
2.184757821905102767e-08
1.620551858388517674e-08
1.221350367129755239e-08
9.369108324564965456e-09
7.303026095754425357e-09
5.762255171392253853e-09
4.572264824805385883e-09
3.622628203479251705e-09
2.846307781367346409e-09
2.203696620726033782e-09
1.672361088584523882e-09
1.239095923031707536e-09
8.942004865603376347e-10
6.282366902200562370e-10
4.302349908008863716e-10
