# bin_15_10
1.195483071700403627e-12
1.366505316107455538e-12
1.540686770510927497e-12
1.706786748928811792e-12
1.850095089550912696e-12
1.951464560871624742e-12
1.989378859392202771e-12
1.944693787246535010e-12
1.796085941898106545e-12
1.568557691054964194e-12
1.300168274264895855e-12
1.066032514231759853e-12
9.093379032072907808e-13
7.805066346207630635e-13
5.900148140156205378e-13
4.106258833949810937e-13
3.330605156749255212e-13
2.243292180513995677e-13
1.679537707912694392e-13
1.126523493903348807e-13
7.731926044369024672e-14
5.289545010636118113e-14
3.588072882879481991e-14
2.424714667876467240e-14
1.641179030401476789e-14
1.123978075973763241e-14
7.814592173272928917e-15
5.539289986503284234e-15
4.015809478816845277e-15
2.976210341092388782e-15
2.246854032464417521e-15
