# bin_12_1
1.873300749649460923e-34
2.115570948997680305e-34
2.349080857519306213e-34
2.554320505051168660e-34
2.705536534198154179e-34
2.772242973181290789e-34
2.730075322182536912e-34
2.544448659245470375e-34
2.241665924422053404e-34
1.870204637784513487e-34
1.530919404373593032e-34
1.295571872099933277e-34
1.118266205908262446e-34
8.691696812909254227e-35
6.021443082216073221e-35
4.811208480397810238e-35
3.385081162439057652e-35
2.473790258046695309e-35
1.683021575278806867e-35
1.190947822243044472e-35
8.277865207514866734e-36
5.744610695348837259e-36
4.014535283105855498e-36
2.833056541893008859e-36
2.034185180342959043e-36
1.489302296896722128e-36
1.111450000078908088e-36
8.439781027570934739e-37
6.485761138793144894e-37
5.009689199306168146e-37
3.860374686736203206e-37
