# bin_12_7
1.095368403975659101e-13
1.242662051293802617e-13
1.387545737227262328e-13
1.519136527134408345e-13
1.622838564103250821e-13
1.680401140319963761e-13
1.677280926144911648e-13
1.590286955809481887e-13
1.423781258470015173e-13
1.204841765770164243e-13
9.865605805929796343e-14
8.234185939452539896e-14
7.132292866678592561e-14
5.801331315210564824e-14
4.058866457117379298e-14
3.092974535932582269e-14
2.342160490929697910e-14
1.608381521128221963e-14
1.141245195326764719e-14
8.078518125334270061e-15
5.543053416979580364e-15
3.794679494468769683e-15
2.612893802084531661e-15
1.814032918448420529e-15
1.275679937108821296e-15
9.138211071239465793e-16
6.675880703803722802e-16
4.977235743938420189e-16
3.775315928019502697e-16
2.897236165739557315e-16
2.233170029450008694e-16
