# bin_6_13
1.444005755567987397e-07
1.606333573720886080e-07
1.751243614302752535e-07
1.861568502881524319e-07
1.916680825519153120e-07
1.899336189259235074e-07
1.785614682012251541e-07
1.586367390964990218e-07
1.334320597147160270e-07
1.093100651994859486e-07
9.177628149692279824e-08
7.918424278824701502e-08
6.308659071355315046e-08
4.427202323537769599e-08
3.433212506762420822e-08
2.532764374307137800e-08
1.797579186731414318e-08
1.274171088335276323e-08
9.108648117987160902e-09
6.420501692173707594e-09
4.550994726551878587e-09
3.263547938295049950e-09
2.374662035585565927e-09
1.759392616331935970e-09
1.328017490776776069e-09
1.017735767145498780e-09
7.882186230848700554e-10
6.128530379463735881e-10
4.749695682384067118e-10
3.644881754257687179e-10
2.754283447522110360e-10
