# bin_15_4
1.707683742213787859e-27
1.945450749760294123e-27
2.184015452053426348e-27
2.406927524468392545e-27
2.592341839226176133e-27
2.712436041983749258e-27
2.740205071050680491e-27
2.642810686863309163e-27
2.405669185722578752e-27
2.070472498930713059e-27
1.703523816515583994e-27
1.405213071311253203e-27
1.210414074315642261e-27
1.019435948509710052e-27
7.400591987790630360e-28
5.325064138383755266e-28
4.269284334567497215e-28
2.824898332510203302e-28
2.112249980439686439e-28
1.449746595156039185e-28
9.867903624915109080e-29
6.752410309564632192e-29
4.597079824066347465e-29
3.140896146537964575e-29
2.161537767647119975e-29
1.511170166611852604e-29
1.075745855562877298e-29
7.820839706601443172e-30
5.808110521622737357e-30
4.392003718333609032e-30
3.361789500535298455e-30
