# bin_15_1
2.845336271347552661e-41
3.240528041605044552e-41
3.636484615642922944e-41
4.005741636825599349e-41
4.311786284444100823e-41
4.508179749655358933e-41
4.550502959430726263e-41
4.383390542569088120e-41
3.985185383192321683e-41
3.425603288680429250e-41
2.817191841529601799e-41
2.325591170217140639e-41
2.004433038580009107e-41
1.684472719814499741e-41
1.219049048966175404e-41
8.806597572491598644e-42
7.037236751511968273e-42
4.663379422996851728e-42
3.477001092938108094e-42
2.391969557909653249e-42
1.628775453804307644e-42
1.114323610089284700e-42
7.590544763441445537e-43
5.191795172771620321e-43
3.578468701853956409e-43
2.506260594697031741e-43
1.787639720475196203e-43
1.302250628742796453e-43
9.688275885132657895e-44
7.335906674065746563e-44
5.619366874928469504e-44
