# bin_12_3
4.802945520436927320e-25
5.428741297480880793e-25
6.034175245864902116e-25
6.569702518592289490e-25
6.969607802613252480e-25
7.154870195323982858e-25
7.064068322559804710e-25
6.604221775808838550e-25
5.835421041130105718e-25
4.879611179207114176e-25
3.993137769029091218e-25
3.370823244107678529e-25
2.913787269404631679e-25
2.284385201129652856e-25
1.581360879165422158e-25
1.255582104284653867e-25
8.947919260707097084e-26
6.471760165389401186e-26
4.416304965057753295e-26
3.135299730528091414e-26
2.173901551589326972e-26
1.504151244121544002e-26
1.048489415039162892e-26
7.377331059709031765e-27
5.277780748503337050e-27
3.849746391301421813e-27
2.863018728661927112e-27
2.167904690490861489e-27
1.662947206672193185e-27
1.283622993290515777e-27
9.895906190413314778e-28
