# bin_1_6
6.250619070066565631e-07
6.119873753722445865e-07
5.707430617189346992e-07
5.052032449398046139e-07
4.274906695904068094e-07
3.542475745778046102e-07
2.965031539359841559e-07
2.486159224710499931e-07
1.974509788753621084e-07
1.468026469777949364e-07
1.102322920635953043e-07
8.309380638243147189e-08
6.063884739669274552e-08
4.473125683439960391e-08
3.299144843439242758e-08
2.463776089304194880e-08
1.867981456184926512e-08
1.441531379576918572e-08
1.130900017270977199e-08
8.981820068783865839e-09
7.178062798332111878e-09
5.730536619808068643e-09
4.537903860073067805e-09
3.541850804801729247e-09
2.710199052967783537e-09
2.025065500146304397e-09
1.474145788148576832e-09
1.044838135774327853e-09
7.218279969318910121e-10
4.871862674410817026e-10
3.221995062533897155e-10
