# bin_5_6
5.004673307769385456e-08
5.501350392261943037e-08
5.910253646470244573e-08
6.168158873692733005e-08
6.214911898995410097e-08
5.977575774478945044e-08
5.431936772394884210e-08
4.668758505483923338e-08
3.844533024210880089e-08
3.176348219872026834e-08
2.728174400726287094e-08
2.283170936991756093e-08
1.668184176927209904e-08
1.213042708028996576e-08
9.602679828270209871e-09
6.585832369251738420e-09
4.907331510051576526e-09
3.463543285343577188e-09
2.463191856949755427e-09
1.768192642140566456e-09
1.281552909246826743e-09
9.429149318653111450e-10
7.055899815286884546e-10
5.377597000398739514e-10
4.157057021122984200e-10
3.241807530209830135e-10
2.533865535831919656e-10
1.970873409506940364e-10
1.515751690497557456e-10
1.146343442851904811e-10
8.489232399429834844e-11
