# bin_15_3
1.433246811393602652e-31
1.632383226708089761e-31
1.831945889467677195e-31
2.018104634741834700e-31
2.172475097027125102e-31
2.271672132343760859e-31
2.293279900914946282e-31
2.209437930659227131e-31
2.009037150047889864e-31
1.727212904730912928e-31
1.420495402657545546e-31
1.172474657429720111e-31
1.010517004555195209e-31
8.495106800262376148e-32
6.149791880989776216e-32
4.440073380237712017e-32
3.550425528849787140e-32
2.351478785159455013e-32
1.754445745493724399e-32
1.206580308207570386e-32
8.214830301043728958e-33
5.620274130901577559e-33
3.827903517436583997e-33
2.617805207013018294e-33
1.803960480539348662e-33
1.263149626186389179e-33
9.007393553486517366e-34
6.560038082687164144e-34
4.879424487261372597e-34
3.694160311205087841e-34
2.829604338829581254e-34
