# bin_1_8
6.891700359383103204e-07
6.754159158456072325e-07
6.306147938535825528e-07
5.588199194783610044e-07
4.732358347899190475e-07
3.921847266578703727e-07
3.281372831271177975e-07
2.752788902102957393e-07
2.189991043472380808e-07
1.629359736539425013e-07
1.222522861083761520e-07
9.222310497275445906e-08
6.730183773507683768e-08
4.963648568931325617e-08
3.659808661404451337e-08
2.731844305551505463e-08
2.069985921969913243e-08
1.596430641318790423e-08
1.251733846867072874e-08
9.937465629711971352e-09
7.940118698752237830e-09
6.338919275852824909e-09
5.020673371480289867e-09
3.920132971641494826e-09
3.001226201331241745e-09
2.243924046654546895e-09
1.634569960897305986e-09
1.159327183925504109e-09
8.014281671034103723e-10
5.412121324423757788e-10
3.580973091817839002e-10
