# bin_14_3
3.276380410648694848e-25
3.723435696966836728e-25
4.166849557611565217e-25
4.574514490195490227e-25
4.903489980166972852e-25
5.099670607081303140e-25
5.116333226085651769e-25
4.885697548297396255e-25
4.403341011647269417e-25
3.751251759945417744e-25
3.075086540152982176e-25
2.551879687435931144e-25
2.207314302758029144e-25
1.824906189292183060e-25
1.293455088756406602e-25
9.611309423922929591e-26
7.485289902115165899e-26
5.029869057950410392e-26
3.663630826070585083e-26
2.561534735459626195e-26
1.749794657951199684e-26
1.196092558230626747e-26
8.185905784027630634e-27
5.642703234162853784e-27
3.931197908149693008e-27
2.787308886859202139e-27
2.014677609066424590e-27
1.487107494097549948e-27
1.118979549490836506e-27
8.542852507275521438e-28
6.572110809994151565e-28
