# bin_9_3
4.012123857398073076e-14
4.481101755562498395e-14
4.909400677344968733e-14
5.250578633622815294e-14
5.446468563228686311e-14
5.448472934776754954e-14
5.183954569683998060e-14
4.656793164103868750e-14
3.954707802002423227e-14
3.239695056469342527e-14
2.694126989832509218e-14
2.329866332080933344e-14
1.912386506464809761e-14
1.351419892654559740e-14
1.015467680236908198e-14
7.836361624641539141e-15
5.356259509920872595e-15
3.896515099996078329e-15
2.772381004584202573e-15
1.937381947989778475e-15
1.362794708521158693e-15
9.680100926118712332e-16
6.973686688470061002e-16
5.109318016975592215e-16
3.817451499475463471e-16
2.901304553708698003e-16
2.234676571873427093e-16
1.733910800096863699e-16
1.345512499822706558e-16
1.036898111812341805e-16
7.886948709695122352e-17
