# bin_14_14
5.054877042264161652e-06
5.793941229819754328e-06
6.554435772049005133e-06
7.290579699873873164e-06
7.942256007603928076e-06
8.429668825031121516e-06
8.656177133143092004e-06
8.548888510000993190e-06
7.992529071365046028e-06
7.060943039514085870e-06
5.901206431409545159e-06
4.826945508151658515e-06
4.075468345740303444e-06
3.525342083482203390e-06
2.760609294475735554e-06
1.904320517722132769e-06
1.514899975582510813e-06
1.073145917186394639e-06
7.747399744757161753e-07
5.203134741431605133e-07
3.651745298905509041e-07
2.479478335302438104e-07
1.665454383296761955e-07
1.116362933124764880e-07
7.469248719753685585e-08
5.031174413518171889e-08
3.428332920198322414e-08
2.374158045316742797e-08
1.679600769801353018e-08
1.216440124303696925e-08
9.011835446862721870e-09
