# bin_13_4
3.111842690007634393e-19
3.529839745689180158e-19
3.940790693752309387e-19
4.313742010560903891e-19
4.607206530337597400e-19
4.769350125299714669e-19
4.758957389943914510e-19
4.510321364257883215e-19
4.036089198027330025e-19
3.413742477450212883e-19
2.794191139257147878e-19
2.331910930954287053e-19
2.019808579541917356e-19
1.642004655107350671e-19
1.148098123845145798e-19
8.752490453632700172e-20
6.622840270042221273e-20
4.549469217415970988e-20
3.225926173624679445e-20
2.283560779574215105e-20
1.566845414012490283e-20
1.072620425029023259e-20
7.386085173919206019e-21
5.128167230102642506e-21
3.606664775360402013e-21
2.583969345190092423e-21
1.888004163078015494e-21
1.407819182198382286e-21
1.067975778327967626e-21
8.196309281399183889e-22
6.317670116114946816e-22
