# bin_7_5
6.154386910068307121e-07
6.848698500201142824e-07
7.469753283864084653e-07
7.944444660507797439e-07
8.183374495730354360e-07
8.116505993039038221e-07
7.635015473303854933e-07
6.785258365579233022e-07
5.703737723510009401e-07
4.666066613364692055e-07
3.914506518087456886e-07
3.385706696905770533e-07
2.704116823079811375e-07
1.884235468045702206e-07
1.467008401106418389e-07
1.083016096680204851e-07
7.678198969987635696e-08
5.407234935334574118e-08
3.889349756282065615e-08
2.739980530101681638e-08
1.938873380233456206e-08
1.389768368367012116e-08
1.010836311539052101e-08
7.487314851283122321e-09
5.650963515244424570e-09
4.331067681268483559e-09
3.355499253734445027e-09
2.610359707370415395e-09
2.024397258690896884e-09
1.554601592116278564e-09
1.175576335077056732e-09
