# bin_10_3
2.535535543293218467e-16
2.843788487559689737e-16
3.131555264171589467e-16
3.370491147415662938e-16
3.524549771101830319e-16
3.558739741804612078e-16
3.431091243773639478e-16
3.122691969932611364e-16
2.687289032492063276e-16
2.210702599193481316e-16
1.822589297960424760e-16
1.568223882350553074e-16
1.320812014641979956e-16
9.616080502095151369e-17
6.920905363860384694e-17
5.550791786368711970e-17
3.708312457274137318e-17
2.785492081374655847e-17
1.934827003036607862e-17
1.344399928792877076e-17
9.438585934353151629e-18
6.648245920951909950e-18
4.734832775686295056e-18
3.421446348682460090e-18
2.522133756303342544e-18
1.894081712447533324e-18
1.445437151357826559e-18
1.115556739417221787e-18
8.646638359091912674e-19
6.682097954905167018e-19
5.113754959322311837e-19
