# bin_9_5
2.970784292019066641e-09
3.331454623286410094e-09
3.667903605354496060e-09
3.946875817597689154e-09
4.126105902385480390e-09
4.164789524847619994e-09
4.013500096864870373e-09
3.650956305837609246e-09
3.140323861689229367e-09
2.582837334776391123e-09
2.129942238456652864e-09
1.833196190032061958e-09
1.542773554152539870e-09
1.121741986148254229e-09
8.084762454228433618e-10
6.478590854218174780e-10
4.328483943446760286e-10
3.249507326443363535e-10
2.259170541353579476e-10
1.569780617539989573e-10
1.102146249545401965e-10
7.765000105918033188e-11
5.532466402142446269e-11
3.999898667410249761e-11
2.950094669367355015e-11
2.216542982557541104e-11
1.692185184328394864e-11
1.306321556779890690e-11
1.012619793516120279e-11
7.825005341539253522e-12
5.987228285949670415e-12
