# bin_5_5
5.401192901730040368e-06
5.954109881325890886e-06
6.419135200895082458e-06
6.728789060391576953e-06
6.814159397789948759e-06
6.600783689262049116e-06
6.040140626280421032e-06
5.226892918069780928e-06
4.312966799958288596e-06
3.546969134727841156e-06
3.037656477679181652e-06
2.575550320892851236e-06
1.909863393763983276e-06
1.360443739651830057e-06
1.094772058163125578e-06
7.450284373049457209e-07
5.610947728344039005e-07
3.917851170612237117e-07
2.781989398266801805e-07
1.993039840462192435e-07
1.438478067833192247e-07
1.052762331717664570e-07
7.831646703717947685e-08
5.937783562595076472e-08
4.571764079434934805e-08
3.556500117757972764e-08
2.778110886767418108e-08
2.163261527334926704e-08
1.668100928255157154e-08
1.266455377986819368e-08
9.424486385924714633e-09
