# bin_5_2
9.586156116215847631e-09
1.038833871954313348e-08
1.096415630728016874e-08
1.119480416957216194e-08
1.097460144710012167e-08
1.018316880348554568e-08
8.933852255762408993e-09
7.437661221720458947e-09
6.093034278423092699e-09
5.161207023198389964e-09
4.429654602048963310e-09
3.419921551365194178e-09
2.400521727149185662e-09
1.912918501642101152e-09
1.360023688345517098e-09
1.004023868454738610e-09
7.077360724750315609e-10
5.131751847354344863e-10
3.712344690992460945e-10
2.711608677871949992e-10
2.012597340219507366e-10
1.519316437964146224e-10
1.167436166629805263e-10
9.094463471149420602e-11
7.139208784880617174e-11
5.610304713007836479e-11
4.382364168891136179e-11
3.380764036490711995e-11
2.561710421053679140e-11
1.898295925690198463e-11
1.371476729843627906e-11
