# bin_9_8
7.113897601235685238e-08
6.700386318208773310e-08
6.153135880971502993e-08
5.500475645681257465e-08
4.783844615208666937e-08
4.052660088682974579e-08
3.355649360160992312e-08
2.729221636048654825e-08
2.189083203178967259e-08
1.731471768697413299e-08
1.343936946903258705e-08
1.020435695848054222e-08
7.640547795662572754e-09
5.721274636512864229e-09
4.283122960857450816e-09
3.198281776482442064e-09
2.406869234483776418e-09
1.822254863039250093e-09
1.390971673020453523e-09
1.068546782125012646e-09
8.242108817891325025e-10
6.361673783523295272e-10
4.894836274873100440e-10
3.740300018944578940e-10
2.828519408133983034e-10
2.110711923150256271e-10
1.550667165651430601e-10
1.119701168353858739e-10
7.938413595817239534e-11
5.523880016683361836e-11
3.773335287578962084e-11
