# bin_10_9
7.643001254931720543e-08
7.244082557801701079e-08
6.697374710255652261e-08
6.029136406856738714e-08
5.280340540243729753e-08
4.502225402937608793e-08
3.747935592496384793e-08
3.060705559415049161e-08
2.463045477641625247e-08
1.955484988954868434e-08
1.525514172623055611e-08
1.163993789760408995e-08
8.727884335171198502e-09
6.524118895489370955e-09
4.882038821114179139e-09
3.638012757327624931e-09
2.725980632110746800e-09
2.055631220179599853e-09
1.561938792833075682e-09
1.194855305349107876e-09
9.185934640332391291e-10
7.074795259884744986e-10
5.438736125912871544e-10
4.157756330936070059e-10
3.149579293033362851e-10
2.356938927936483005e-10
1.738134133592146496e-10
1.260827395203343489e-10
8.985399199114324395e-11
6.287421497712109726e-11
4.319797213000722957e-11
