# bin_8_3
4.253250701601512931e-08
3.820840006399062820e-08
3.338730476096888491e-08
2.839997795898791453e-08
2.359165806865698405e-08
1.923775775751943373e-08
1.547377006732581122e-08
1.228657904406187230e-08
9.583105695073260451e-09
7.310874450612750351e-09
5.498406842652411529e-09
4.141344233674564288e-09
3.124714757833183599e-09
2.356172310375105619e-09
1.793282974286954132e-09
1.376017249417571918e-09
1.065590927368013287e-09
8.310158282496170903e-10
6.506232234362404540e-10
5.092936303925497734e-10
3.968522193066858972e-10
3.065471276781637082e-10
2.338523937310406709e-10
1.756365843328627707e-10
1.295620449343069709e-10
9.371458449693946939e-11
6.640741940626838421e-11
4.609533720682659009e-11
3.136220157204443590e-11
2.094332581445701178e-11
1.375234552529656879e-11
