# bin_13_4
5.473029191854325170e-08
5.020712523023773393e-08
4.481202797436140474e-08
3.889175955547311040e-08
3.286582317434430625e-08
2.715141582354295942e-08
2.205107105608183921e-08
1.768165630061270300e-08
1.398384902171853806e-08
1.083681667549993182e-08
8.208313294674222831e-09
6.153435093493398429e-09
4.631328302916239154e-09
3.478728573289487275e-09
2.616096658159664278e-09
1.986253743864555101e-09
1.519457061676359656e-09
1.172680578145250990e-09
9.110764967941984037e-10
7.102567827606018809e-10
5.533796960513263876e-10
4.290841945862118469e-10
3.297719217779646130e-10
2.503006155827746981e-10
1.870686830695617042e-10
1.373534886908771901e-10
9.892248581638160086e-11
6.982448093463419066e-11
4.829862798537461980e-11
3.276056348302292320e-11
2.181772197999438364e-11
