# bin_15_1
2.344555966846461984e-08
2.002598722667650462e-08
1.669996975221616255e-08
1.366398720624579267e-08
1.102190546328522358e-08
8.774862877688296995e-09
6.867352152937491373e-09
5.265132262823944289e-09
3.980749684151415338e-09
3.008263423667395869e-09
2.280746309201170083e-09
1.732916611847439080e-09
1.328170104622944739e-09
1.028391532744527364e-09
8.039345157203111377e-10
6.331896967781092524e-10
5.005879276911008964e-10
3.954540189088417386e-10
3.107005694289064174e-10
2.417161069154354405e-10
1.854853126773747452e-10
1.399538632151411011e-10
1.035865784231895466e-10
7.509178282534346106e-11
5.327843502186212879e-11
3.700479638793576256e-11
2.518471512849381801e-11
1.682279642802350763e-11
1.105214062608229208e-11
7.157716054681921492e-12
4.580117914728717075e-12
