# bin_8_4
5.021698860024406985e-08
4.581139918849909311e-08
4.066861031826073822e-08
3.512283824187275706e-08
2.956019187472483923e-08
2.434517256032125051e-08
1.972452037388622463e-08
1.577722096979020985e-08
1.243855089227849284e-08
9.608718817949954862e-09
7.268283634667764365e-09
5.453647666073258078e-09
4.107956681382099736e-09
3.088953132775888944e-09
2.329253478582691149e-09
1.772915504916037289e-09
1.360029421467445092e-09
1.052069849437076525e-09
8.187152240881388087e-10
6.387367183212623594e-10
4.975562675371735542e-10
3.853658403635367921e-10
2.955958963515578624e-10
2.237736044569968992e-10
1.667203501735140603e-10
1.219882266564363755e-10
8.753602930864602231e-11
6.156102503960351649e-11
4.243238373864445519e-11
2.868753287468392480e-11
1.904967123071337027e-11
