# bin_7_4
4.864544343150403611e-08
4.428079648289310512e-08
3.922586354641870037e-08
3.381049325327474078e-08
2.840916634278167363e-08
2.336803540551690681e-08
1.891441317886648084e-08
1.511409503567082327e-08
1.190047704373107910e-08
9.181094556919340168e-09
6.940965000752123410e-09
5.209981560891583814e-09
3.925718621977730962e-09
2.953233230376130876e-09
2.229374612374297651e-09
1.698631050276169633e-09
1.304516633321667041e-09
1.010073105675009866e-09
7.865549474234453684e-10
6.138333586886642830e-10
4.781184873060780860e-10
3.701430588451323143e-10
2.836957652679990913e-10
2.145368705939596036e-10
1.596350408940458708e-10
1.166380296495218530e-10
8.357125760133415600e-11
5.868368577144045151e-11
4.038975589183543029e-11
2.726930336301092424e-11
1.808583637765578002e-11
