# bin_2_1
1.664827284970451094e-08
1.401013922333794220e-08
1.154515227686740851e-08
9.358721476482064234e-09
7.485204466183296029e-09
5.901688352856475934e-09
4.571252567414933180e-09
3.481425488817787276e-09
2.633209875528660859e-09
1.997931978447263783e-09
1.521047191825193593e-09
1.164164822732639550e-09
9.001928384861304452e-10
7.026856415589284631e-10
5.529778846324245881e-10
4.372515621311610917e-10
3.459371826108950982e-10
2.725858670830620241e-10
2.129716098440718545e-10
1.643361102837364837e-10
1.248237063685256830e-10
9.308897536184154604e-11
6.803950022219250049e-11
4.869260307915814616e-11
3.411483192919902955e-11
2.341481915307237306e-11
1.576505870397249766e-11
1.043213972651182429e-11
6.799396417308318744e-12
4.374899867870607643e-12
2.784923935490721002e-12
