# bin_10_5
5.935479532306511781e-08
5.494177273269890811e-08
4.951781803649973693e-08
4.340997503056967540e-08
3.703629482840584835e-08
3.084067657459700297e-08
2.519160720065120162e-08
2.028468623020975619e-08
1.612506937147926851e-08
1.259878224669331582e-08
9.623514944730722929e-09
7.225711103178372227e-09
5.420575609094540388e-09
4.074890920322859906e-09
3.052414096128258175e-09
2.304660541608099193e-09
1.752260443838600083e-09
1.344003082060101981e-09
1.038251868461905900e-09
8.059191595014560998e-10
6.263189182046601200e-10
4.853471724671709100e-10
3.735250089951650350e-10
2.844269849986720438e-10
2.136136890854607884e-10
1.578354752128237745e-10
1.145237275585727550e-10
8.150898988972807112e-11
5.687717296114408716e-11
3.892224346477689091e-11
2.614354014662231740e-11
