# bin_13_2
3.520274415579987742e-08
3.102791955921567377e-08
2.660422504026653361e-08
2.224780472253448178e-08
1.823588017864721277e-08
1.473056559338992546e-08
1.175211942506477524e-08
9.223296390799835297e-09
7.081177515324337454e-09
5.343330015612285043e-09
4.025877113521703578e-09
3.043475606957838163e-09
2.299243586264390811e-09
1.750736000663483908e-09
1.345696633587859197e-09
1.044227147608086225e-09
8.168263894753525364e-10
6.420743215951888067e-10
5.050566852891398760e-10
3.957477291507197824e-10
3.075437431838508699e-10
2.360891714834956779e-10
1.784337637969092455e-10
1.324290357925997265e-10
9.633864044228344755e-11
6.862594626679442637e-11
4.786007515193607741e-11
3.269896837661095104e-11
2.191625540413509237e-11
1.443796308529282017e-11
9.369605468441934299e-12
