# bin_4_2
2.861293019106026582e-08
2.494265859584245204e-08
2.118149504144476476e-08
1.757767140143656931e-08
1.432392321767080640e-08
1.151162090383048717e-08
9.130002210532686354e-09
7.116981827547656448e-09
5.437180294621421567e-09
4.101969673290040607e-09
3.098078580902889145e-09
2.346695107256035635e-09
1.780427805186777037e-09
1.363290576575620591e-09
1.053498453351194301e-09
8.214128455151297424e-10
6.446767554447466953e-10
5.074843098741903348e-10
3.989434646286470846e-10
3.117933704194687528e-10
2.412549793590240760e-10
1.841409322032408535e-10
1.382285993611617600e-10
1.018240875521263255e-10
7.349734699770868863e-11
5.194860271622823363e-11
3.596027315354321080e-11
2.440132950578000804e-11
1.625637597565392822e-11
1.065441883615086387e-11
6.885008923663478228e-12
