# bin_15_9
8.369782416586347339e-08
7.991447869597484865e-08
7.446126573821739321e-08
6.757197499222134553e-08
5.964924764270255705e-08
5.122950762518038835e-08
4.290382948522238707e-08
3.519689471361989800e-08
2.842739252028378029e-08
2.266052715856563809e-08
1.777294045865581127e-08
1.363277951767467213e-08
1.024077917418242545e-08
7.642244312832261286e-09
5.715025172788985487e-09
4.250553774321583615e-09
3.170233873154656126e-09
2.380497490194608287e-09
1.799621968008255918e-09
1.370307093562689087e-09
1.049535388407507972e-09
8.062825339010826491e-10
6.191366388127964894e-10
4.734786722967902958e-10
3.593000517994867605e-10
2.696832089385081467e-10
1.996862580888716475e-10
1.455622530494000673e-10
1.043114762369274803e-10
7.342506347143070247e-11
5.075629658455139613e-11
