# bin_7_1
2.179233294546841702e-08
1.856261296027509899e-08
1.544586278209593115e-08
1.261642675803849304e-08
1.016126983051155028e-08
8.075654830136522162e-09
6.308552936934695672e-09
4.830984427117098430e-09
3.652709887892801251e-09
2.762295389811652839e-09
2.095809175180958755e-09
1.594458308828595219e-09
1.223986127374113239e-09
9.491104754759756370e-10
7.428534752220704342e-10
5.855040328907077172e-10
4.629534759825931260e-10
3.655556798793471932e-10
2.869202821084628405e-10
2.228873655285230098e-10
1.707242470138568088e-10
1.285494190797328104e-10
9.493563776984521428e-11
6.866650979511475075e-11
4.861369582329663878e-11
3.369635633734875310e-11
2.289122625989405902e-11
1.526660224450556999e-11
1.001642394849651372e-11
6.479912083268373799e-12
4.142825404718587785e-12
