# bin_13_13
9.137546073888488933e-08
8.797006863168557517e-08
8.271763804959929505e-08
7.580721556076550770e-08
6.761140003550892232e-08
5.866328240998303565e-08
4.958714781167440702e-08
4.098409320554406376e-08
3.328586958623729869e-08
2.666066381726128243e-08
2.104269786445022230e-08
1.627972296059517223e-08
1.231399788680348438e-08
9.189297515176374649e-09
6.855025287877779592e-09
5.101228575150840658e-09
3.783517088348353006e-09
2.825277002808211037e-09
2.119880400627950902e-09
1.602682368901907503e-09
1.219127010740572141e-09
9.313043394421108045e-10
7.123300679763703171e-10
5.436399609963981127e-10
4.125276891382158055e-10
3.102112844297906374e-10
2.305213413578351675e-10
1.689053925091233507e-10
1.218240852820338199e-10
8.640148977310316974e-11
6.022794279797648029e-11
