# bin_3_2
2.619222113089926549e-08
2.270778711616157777e-08
1.919046421513465651e-08
1.586346216466176188e-08
1.288839253250505185e-08
1.033062499417416652e-08
8.168057295216193646e-09
6.344309700053078414e-09
4.834236267953491654e-09
3.646885672913718016e-09
2.758016947626859990e-09
2.091258320373498553e-09
1.590258065152694657e-09
1.221270604309001615e-09
9.463743919286444146e-10
7.397122198512994856e-10
5.815415543876237574e-10
4.581135800410625967e-10
3.600115945009157202e-10
2.809871670217235756e-10
2.169290272872934830e-10
1.650771440470154655e-10
1.234748612856848894e-10
9.059437025512773944e-11
6.511758658453088231e-11
4.583143132545629016e-11
3.159653237323422003e-11
2.135934833955569257e-11
1.418200814770783306e-11
9.268124528692503235e-12
5.974888436099679861e-12
