# bin_2_13
5.070443013556421922e-07
5.258801209035020992e-07
5.260590734554810743e-07
5.022668855630139988e-07
4.541006421106942585e-07
3.893325193252272321e-07
3.218951996524918119e-07
2.672541426088632746e-07
2.274378718966478856e-07
1.870154223220031281e-07
1.390960463290373847e-07
1.027983503818892685e-07
7.904519965229201063e-08
5.689489657770145173e-08
4.184744893052057895e-08
3.038017258267418937e-08
2.229236695154948370e-08
1.652975662332873158e-08
1.245300990632868996e-08
9.548966387123889088e-09
7.440262612645110966e-09
5.868637142961639730e-09
4.655580861129074933e-09
3.688110530292376582e-09
2.897622504034387880e-09
2.243521645984095028e-09
1.702785773394924023e-09
1.261861624743047432e-09
9.108215532201262801e-10
6.400512287932972143e-10
4.384104668844682327e-10
