# bin_5_7
8.227545192715737580e-08
9.056680126341495043e-08
9.746707984417093267e-08
1.019434703360443334e-07
1.029780866100580019e-07
9.940938921045341753e-08
9.068489001581715486e-08
7.823975773394083684e-08
6.453223015681030850e-08
5.320213478701936451e-08
4.558527391253778882e-08
3.837284714982025264e-08
2.832243157826704275e-08
2.040208780825500560e-08
1.621304428348899543e-08
1.114910131609129862e-08
8.305778176380448712e-09
5.837008183107412381e-09
4.154475856419931365e-09
2.976904223681893102e-09
2.151664320633999822e-09
1.578068581139048376e-09
1.176716083660215230e-09
8.939057582511079545e-10
6.892136142721863359e-10
5.365193120204845489e-10
4.190399210332585875e-10
3.260175015529061338e-10
2.510209950130507536e-10
1.902060302743568914e-10
1.412145363935864981e-10
