# bin_15_14
2.395956145581154514e-09
2.745087013933801950e-09
3.103809759161356342e-09
3.450263630810329159e-09
3.755806635404614241e-09
3.982526012728236160e-09
4.084920196997471745e-09
4.028078112519267548e-09
3.758838128402197210e-09
3.314920264295155891e-09
2.766543773248626419e-09
2.263305661535750366e-09
1.913926190138983313e-09
1.654272722314425334e-09
1.288563637102770154e-09
8.891554499914461828e-10
7.102057643913687000e-10
4.988879841303695533e-10
3.626000575367794659e-10
2.429599049002179754e-10
1.700232288319474738e-10
1.155867130484684614e-10
7.777340857596204406e-11
5.219737574932061678e-11
3.498065618792355315e-11
2.362201967523679193e-11
1.614692349531471494e-11
1.122339434945346059e-11
7.972028971929538003e-12
5.796486135648021635e-12
4.308806940437630106e-12
