# bin_15_6
7.616230397506018423e-21
8.684483354977087408e-21
9.760893717021492304e-21
1.077251423364311748e-20
1.162291940564785356e-20
1.218869192739847932e-20
1.234438715252884257e-20
1.195072491393366593e-20
1.092030770429388161e-20
9.435288234895174999e-21
7.774298035360427442e-21
6.397202519764413478e-21
5.496155355047773743e-21
4.659215301546423535e-21
3.419640274489546896e-21
2.430037549727898227e-21
1.963813752548641149e-21
1.297974275442203870e-21
9.760818994196472095e-22
6.648450445411254083e-22
4.524591231513812101e-22
3.097688452546987275e-22
2.106433796771277698e-22
1.434276248956047975e-22
9.820176282914360432e-23
6.824574870553648686e-23
4.825788509138699669e-23
3.484121503937162867e-23
2.571127601298388755e-23
1.934541394866380235e-23
1.476144995340429707e-23
