# bin_12_14
2.396708945870481701e-08
2.733298897741123646e-08
3.072691445799336173e-08
3.391958932775617625e-08
3.660819999569959739e-08
3.840460749815418723e-08
3.891172870657902650e-08
3.769611054073222560e-08
3.447441598519313794e-08
2.981115050205841387e-08
2.457748181198930506e-08
2.022077309494434987e-08
1.735971106034191757e-08
1.472516306109646516e-08
1.083745382572614797e-08
7.693330149808974209e-09
6.208863973536081009e-09
4.119234292550967866e-09
3.090558424494679128e-09
2.102562690441422468e-09
1.433070331877187259e-09
9.809181055937774328e-10
6.670191054793544555e-10
4.539295639337901214e-10
3.105242467729128205e-10
2.155513055919399253e-10
1.522171735215055640e-10
1.097363258854937748e-10
8.086251454591793954e-11
6.076228933199120250e-11
4.631703205399832508e-11
