# bin_5_8
1.098065589846079028e-07
1.209524679191912969e-07
1.302746965098231249e-07
1.363988985575659258e-07
1.379499937372976474e-07
1.333980140966819145e-07
1.219196503713274089e-07
1.053841448265133016e-07
8.700881134869119549e-08
7.168059901756134185e-08
6.134740953740129882e-08
5.176105072660925948e-08
3.839074297607821819e-08
2.756000074170154148e-08
2.191502793710274498e-08
1.510853526857940441e-08
1.124161932820978389e-08
7.890965733459267151e-09
5.619158452499471581e-09
4.022858716278665786e-09
2.904015234552393999e-09
2.126814075433076692e-09
1.583432597962230410e-09
1.201086714650140634e-09
9.249448210484970029e-10
7.194343020696249094e-10
5.617009865532977224e-10
4.370555885715966409e-10
3.366923642926964611e-10
2.553455657757039170e-10
1.897980044100802344e-10
