# bin_6_5
3.225039539865348520e-09
3.564169841342270341e-09
3.854525456532115971e-09
4.056313547225970324e-09
4.126344974438664870e-09
4.023123656158173116e-09
3.708129717928426750e-09
3.231872185478305651e-09
2.677896798324333332e-09
2.197027894516189962e-09
1.872116232396303669e-09
1.599749875970896362e-09
1.209906211867701325e-09
8.513749984474956956e-10
6.846740298197765111e-10
4.725847014567818821e-10
3.531070551326677718e-10
2.451375002605809931e-10
1.747798017669506432e-10
1.248039538003175333e-10
8.966590344993692528e-11
6.527570795502302072e-11
4.827058167615215177e-11
3.638648791397824243e-11
2.788221144713211334e-11
2.161728299941343592e-11
1.685896145405695287e-11
1.313043504081542098e-11
1.014347722199739892e-11
7.725765378961910248e-12
5.774125797571717763e-12
