# bin_6_7
3.845406374501871280e-08
4.268277906764188542e-08
4.640756065573970779e-08
4.916499025193339395e-08
5.041121155633193954e-08
4.968963525208093888e-08
4.639676246063179513e-08
4.094698382461878840e-08
3.423875819194992336e-08
2.803313624342383294e-08
2.365203378334997244e-08
2.037908844092146045e-08
1.596495248256332131e-08
1.115007984089272200e-08
8.795858332194401460e-09
6.331027903414928675e-09
4.581014806106451144e-09
3.204723739150562631e-09
2.297354931527524630e-09
1.626695584878717182e-09
1.157688396171042846e-09
8.344820048455060658e-10
6.105752605654362168e-10
4.551723590736484023e-10
3.454833943467746502e-10
2.659422350069553925e-10
2.065652536142880367e-10
1.607782880959739214e-10
1.245161626054971854e-10
9.533369355588704755e-11
7.178181863461159516e-11
