# bin_11_14
3.737132050824690023e-08
4.252566846280531584e-08
4.766985502194445923e-08
5.244092972404530525e-08
5.635547215223176788e-08
5.880092914653660602e-08
5.921276686307770384e-08
5.684964744530733536e-08
5.151605957710444334e-08
4.413308268862628685e-08
3.624866726648719838e-08
2.997678668063729090e-08
2.586331853935822167e-08
2.160345130127752243e-08
1.552523664248867913e-08
1.132631307894962043e-08
8.962568672816792420e-09
5.974130348672077781e-09
4.414106842465493869e-09
3.053086334858738397e-09
2.081776564050849251e-09
1.423928376325513466e-09
9.717303906378029817e-10
6.665085348605281415e-10
4.611352522495541312e-10
3.243949671755388236e-10
2.324897389800579432e-10
1.701680309213986870e-10
1.271151805403357592e-10
9.652963345119954931e-11
7.404646751097477246e-11
