# bin_2_8
4.253914552441658333e-07
4.408659305978546041e-07
4.406093846334341756e-07
4.201842940206878336e-07
3.794175729496949012e-07
3.249407693179117743e-07
2.685453565644669329e-07
2.230815979851677215e-07
1.898846155614480225e-07
1.558473794867042092e-07
1.156954343259794691e-07
8.564149170294884457e-08
6.579552159149072890e-08
4.733779512486944582e-08
3.482913969691183725e-08
2.529075431548587395e-08
1.856442735509303680e-08
1.377414286738877891e-08
1.038450335224199333e-08
7.968617229806284225e-09
6.212913963487036600e-09
4.902862763217825283e-09
3.890375934762501296e-09
3.081939916638809343e-09
2.420834902545624879e-09
1.873557804684662966e-09
1.421136929808691828e-09
1.052379218887576368e-09
7.590125684092856912e-10
5.329490850834217469e-10
3.647805281952917597e-10
