# bin_8_14
9.208014564091213613e-08
1.037082401280528412e-07
1.147826590124099161e-07
1.243163551119901471e-07
1.310268317782426173e-07
1.334977384250920852e-07
1.304133584436720390e-07
1.204393571239438516e-07
1.051658639950573244e-07
8.723256425309457389e-08
7.154830014814321980e-08
6.093612863546394119e-08
5.218329916953506466e-08
3.958458862489167581e-08
2.772088005218510299e-08
2.227788770268915587e-08
1.529693834105354930e-08
1.135168876209866844e-08
7.761572404007204977e-09
5.443909987785804827e-09
3.801285269840338460e-09
2.654299398820856560e-09
1.867799715369010414e-09
1.329519968775260923e-09
9.641871185087182070e-10
7.129028292602920638e-10
5.367585884208834047e-10
4.103003263343871052e-10
3.164716540954294801e-10
2.445672503977247406e-10
1.879925751204711872e-10
