# bin_7_11
8.427442476799547604e-08
9.437267811840875138e-08
1.037251777419498984e-07
1.113780335081967467e-07
1.161254974472859574e-07
1.168543259748513933e-07
1.121354034173794658e-07
1.016138160013446583e-07
8.706891068802138577e-08
7.156214556189305568e-08
5.919358397317316319e-08
5.098104341000947004e-08
4.252289220283444195e-08
3.071890099665563949e-08
2.244577353352072691e-08
1.770846712198162050e-08
1.198510574315297533e-08
8.873375246812094676e-09
6.209261743116023713e-09
4.329658161272134910e-09
3.041784985995894016e-09
2.149023733309292749e-09
1.536387062680142980e-09
1.115245477125058484e-09
8.257108376810577319e-10
6.224621174037738849e-10
4.763674304571757015e-10
3.681799700459396313e-10
2.853697502639431910e-10
2.202310616745584324e-10
1.681281087645697984e-10
