# bin_12_10
6.099928140364783169e-10
6.940472990763991462e-10
7.778867563717528064e-10
8.555843364484827256e-10
9.192380665292104377e-10
9.588437710887309987e-10
9.652465988267294005e-10
9.262044513236747221e-10
8.387384253828904855e-10
7.180121152293227937e-10
5.894573400880557433e-10
4.875633717678911837e-10
4.209553977775728448e-10
3.513993314012349206e-10
2.518548547886353261e-10
1.840795012039211548e-10
1.456571470579416289e-10
9.691593922332352853e-11
7.164503422951715389e-11
4.962719167319748545e-11
3.382564985973851577e-11
2.312927174027294716e-11
1.578102784349941357e-11
1.082963310700474106e-11
7.498774555033697925e-12
5.280367224872849718e-12
3.788577317625296360e-12
2.776297874297956082e-12
2.076251088142027446e-12
1.578235790086060369e-12
1.211545218260293415e-12
