# bin_12_6
1.003711886324598187e-15
1.137573544621598428e-15
1.268663133726840836e-15
1.386920239757623097e-15
1.478869411316952612e-15
1.527769809681814540e-15
1.520643524750252308e-15
1.436386838415014194e-15
1.281377033210004268e-15
1.080518308006071589e-15
8.840636257560061801e-16
7.397570779009142463e-16
6.407900398402281533e-16
5.166934585777753832e-16
3.596831072971980526e-16
2.772172432389135358e-16
2.068664325287239277e-16
1.437763081375395756e-16
1.007600474120414551e-16
7.158031474602856269e-17
4.922633664813183821e-17
3.375596995199500719e-17
2.331406620631763294e-17
1.623932463901284754e-17
1.146905035514929162e-17
8.254150363687506315e-18
6.058434510263925637e-18
4.536096680814717426e-18
3.451819614828793270e-18
2.653905337522177570e-18
2.046373399660254743e-18
