# bin_5_9
1.322137783768224695e-07
1.456856611254592771e-07
1.569829003704985421e-07
1.644533522843505519e-07
1.664309061106109287e-07
1.610860016410471284e-07
1.473732174512845415e-07
1.275121074087620877e-07
1.053365878319359179e-07
8.674766129926935784e-08
7.419612678556217007e-08
6.267673295226004215e-08
4.660772972658444442e-08
3.340132625378379020e-08
2.656517087473399966e-08
1.834149812174303488e-08
1.363654771528609725e-08
9.567220484254997262e-09
6.814466679206068779e-09
4.876236913017159683e-09
3.517693240578001591e-09
2.574284704505706331e-09
1.914985172494286636e-09
1.451418838153371747e-09
1.116997872532784842e-09
8.684265794807673912e-10
6.778904264492121139e-10
5.274871172028585639e-10
4.064686217207809828e-10
3.084063480416828812e-10
2.293804171486043820e-10
