# bin_11_9
5.479241126217396593e-10
6.216140625350371368e-10
6.941104471572644059e-10
7.599698508945592986e-10
8.118970158104262742e-10
8.407734330192553103e-10
8.392946978489261776e-10
7.959076335131649819e-10
7.126394751738223588e-10
6.030998144586157885e-10
4.937105985785491874e-10
4.118451301903893162e-10
3.566732384890827278e-10
2.903496965287289523e-10
2.032556666193402878e-10
1.546184071419178490e-10
1.172735205267662843e-10
8.041453941551008888e-11
5.715816569046580370e-11
4.041215283560368364e-11
2.771946944971421365e-11
1.897545558196945536e-11
1.306034858518724115e-11
9.062993080326038750e-12
6.369512378133729469e-12
4.559973388386665261e-12
3.329122432274612878e-12
2.480530256053096360e-12
1.880582591213010538e-12
1.442678794461458104e-12
1.111804235101989461e-12
