# bin_8_1
8.668976923303045073e-24
9.597681029434560473e-24
1.040235753942817839e-23
1.097699768945242262e-23
1.120166129071139044e-23
1.097054044096087495e-23
1.016211777724748266e-23
8.900145743850480498e-24
7.395973827957072942e-24
6.058700166508946362e-24
5.144786835408376457e-24
4.418362912226509994e-24
3.386038667682745136e-24
2.364964222679112419e-24
1.899283307620564664e-24
1.324669970917355838e-24
9.835602607385713377e-25
6.806680404322247174e-25
4.867159740585998400e-25
3.467322275105214170e-25
2.483247210865493958e-25
1.801305335460181722e-25
1.326704182898502586e-25
9.960982764638560938e-26
7.607669886937188363e-26
5.884400808391349755e-26
4.583951252606937130e-26
3.570660508463337679e-26
2.761938063219088548e-26
2.108345154901476565e-26
1.580509603897106265e-26
