# bin_11_11
7.938002925013920820e-09
9.020968491601640267e-09
1.009503381256713130e-08
1.108239538382950896e-08
1.187900962119135130e-08
1.235380960242313114e-08
1.239357544589832683e-08
1.183442027291579421e-08
1.066638895648746845e-08
9.087181658041806647e-09
7.450064375739327378e-09
6.182976741186718842e-09
5.346933337357070522e-09
4.419587110375317265e-09
3.134381397371010445e-09
2.328801840542166423e-09
1.812855934951299400e-09
1.219189859305146781e-09
8.877363026132386449e-10
6.204228555322140178e-10
4.238722352859129464e-10
2.898352928294972875e-10
1.983994333091833725e-10
1.367700286847736117e-10
9.528811568842617534e-11
6.756510618144086333e-11
4.883676135021583192e-11
3.604680875807195360e-11
2.712127608103550706e-11
2.070290947389686457e-11
1.592412786456296533e-11
