# bin_12_9
7.403637039895990654e-11
8.416238809702428451e-11
9.421904892437109542e-11
1.034825086817604267e-10
1.109850374871031985e-10
1.155058752426456396e-10
1.159773281614977914e-10
1.108742394859033387e-10
1.000396241926160630e-10
8.532009680469030804e-11
6.996277689084111407e-11
5.801281561737742835e-11
5.016096331070511445e-11
4.156919991421410864e-11
2.953549761938680099e-11
2.186136793256485729e-11
1.709376462823073836e-11
1.145539516472548165e-11
8.375779034396849230e-12
5.843450494252155368e-12
3.989455459669074573e-12
2.727159624897424403e-12
1.864987279843271082e-12
1.284269295114433346e-12
8.934791072077595689e-13
6.325300345125595214e-13
4.564423514256086932e-13
3.363773496806794166e-13
2.527702071020507693e-13
1.927983212887473903e-13
1.482569290784890930e-13
