# bin_10_5
1.008168167308456118e-14
1.134764480263654655e-14
1.254976808930534955e-14
1.357919404828968382e-14
1.429504034347731425e-14
1.454327778180408420e-14
1.417831508097732107e-14
1.305910949847632877e-14
1.137383501751225491e-14
9.413428936110845329e-15
7.721556520355129226e-15
6.592241566746501483e-15
5.640956687153617749e-15
4.243264014500929036e-15
2.970888126708537811e-15
2.406350307844202976e-15
1.627761012712997042e-15
1.222912179852039067e-15
8.337250192697817820e-16
5.821860789473306127e-16
4.076277530589823899e-16
2.854641174676001576e-16
2.013393075793500495e-16
1.436928469354830296e-16
1.045463207199180758e-16
7.755002361363775645e-17
5.856463718737725800e-17
4.487618735500629713e-17
3.466992361490651561e-17
2.681136445605396269e-17
2.060468608243604176e-17
