# bin_3_13
3.421272298209812451e-07
3.663878283936087955e-07
3.810637565632031305e-07
3.824244297429757221e-07
3.662098512110561892e-07
3.316674292433765960e-07
2.843934294545923311e-07
2.344822409424824351e-07
1.942876680374525006e-07
1.662436324044028887e-07
1.376700271661561865e-07
1.012510959016493786e-07
7.448066721224383825e-08
5.789709666927902320e-08
4.085761910687378850e-08
3.015175233732134010e-08
2.161530281864168563e-08
1.565922008900563855e-08
1.144577152273880329e-08
8.480108414901817862e-09
6.391181914739351873e-09
4.899315558418861697e-09
3.813175123563355148e-09
2.996141474664424003e-09
2.360887404066668563e-09
1.852884770460908828e-09
1.438650955929405045e-09
1.098715313002417573e-09
8.214787520134394554e-10
5.992401201152649380e-10
4.257562523332955932e-10
