# bin_6_11
1.160203068974122576e-07
1.291205724672721752e-07
1.408466919540909317e-07
1.498237923668591994e-07
1.543889901566629362e-07
1.531621307711017643e-07
1.441926350363235511e-07
1.282599664096759759e-07
1.079849838856409092e-07
8.843272573670996662e-08
7.414064067936785062e-08
6.399520760318128863e-08
5.118533677296936505e-08
3.593122158948538010e-08
2.775513436288217505e-08
2.059117822976293727e-08
1.454520993482892735e-08
1.033720819854829178e-08
7.385597068640026762e-09
5.199766391964508845e-09
3.681649238942633557e-09
2.636622921212371038e-09
1.915738608077823392e-09
1.417143597800757988e-09
1.068172456449530957e-09
8.176689933705849916e-10
6.327950534228759602e-10
4.918667166986733169e-10
3.812623984459455648e-10
2.927376398342856312e-10
2.214001621964373097e-10
