# bin_5_12
1.743684253053485713e-07
1.923840984729769729e-07
2.076339093233523716e-07
2.179514284611196094e-07
2.210864473839964893e-07
2.146923975004607995e-07
1.971152250712068016e-07
1.711473410509952315e-07
1.416453320962622591e-07
1.164879718642244384e-07
9.942446768485648951e-08
8.435950573380315787e-08
6.328811433314844152e-08
4.506713243894891584e-08
3.589540790505767423e-08
2.488813766887821302e-08
1.846875661435818782e-08
1.292944152208416688e-08
9.215847292944080454e-09
6.583871395517329552e-09
4.738569664363660048e-09
3.458452662729456599e-09
2.565276176482527768e-09
1.938868569457191245e-09
1.488784224345468736e-09
1.155724923265046707e-09
9.015853916470561084e-10
7.017374781358725352e-10
5.413219740339447137e-10
4.114450450030155523e-10
3.067226838573058385e-10
