# bin_14_6
7.439094785578096964e-19
8.466613985502061392e-19
9.492963208882592167e-19
1.044597939439566065e-18
1.122958222343157275e-18
1.172200254035871213e-18
1.180999998893328023e-18
1.134598989030240095e-18
1.028628516402358413e-18
8.816269633642157488e-19
7.240363596900834884e-19
5.984010702223518890e-19
5.164238525609619055e-19
4.320823633372631628e-19
3.105225942796826385e-19
2.260596498337952991e-19
1.795521520027588720e-19
1.191935268392037175e-19
8.842080718681274009e-20
6.110998984219588828e-20
4.162881063544622513e-20
2.846621766200179219e-20
1.940720422444002570e-20
1.330246840675853159e-20
9.196875965654755920e-21
6.464400224942872690e-21
4.629163560822666124e-21
3.385852034352873748e-21
2.527997576289926527e-21
1.919412752172247519e-21
1.472623945406186762e-21
