# bin_8_14
9.046207392578985209e-08
1.019190471588530083e-07
1.128468606673359527e-07
1.222791573879552443e-07
1.289580725400231346e-07
1.314809030780295785e-07
1.285729742352428416e-07
1.188742364343155535e-07
1.039137040166654774e-07
8.625355219312704777e-08
7.072338607188326713e-08
6.018440158336977906e-08
5.159332966704972190e-08
3.925849903413013064e-08
2.745133777863667491e-08
2.204807775729250114e-08
1.518249667050298195e-08
1.124657944770935210e-08
7.685602920907804865e-09
5.395193858352073504e-09
3.765068236258650223e-09
2.626889708177221043e-09
1.846730951106680996e-09
1.313043062045141644e-09
9.509828409461314527e-10
7.022416873319547089e-10
5.281407426459430396e-10
4.033805659009220488e-10
3.109977786377721841e-10
2.403308491632050655e-10
1.848018093640406640e-10
