# bin_15_6
1.473920762886381879e-20
1.680544564554307552e-20
1.888695881594070868e-20
2.084245990824746840e-20
2.248522619998620556e-20
2.357635799477555721e-20
2.387333478499067919e-20
2.310676306391059037e-20
2.110887468788859296e-20
1.823375116933126531e-20
1.502197386261311046e-20
1.236252338548174887e-20
1.062316133495995173e-20
9.001952647580005626e-21
6.602324688840765465e-21
4.694867300165551460e-21
3.792817139263010801e-21
2.506506250254570480e-21
1.884522294920539225e-21
1.284176379734509975e-21
8.738663134346844762e-22
5.982442108589068635e-22
4.068070565584748944e-22
2.770286693702658776e-22
1.897273968393388880e-22
1.318865293228123797e-22
9.328946689179887066e-23
6.737701300858027174e-23
4.973772614657291088e-23
3.743351136788394600e-23
2.856903119478555145e-23
