# bin_4_1
9.507007390484079914e-13
1.009182893756464976e-12
1.038028706324552107e-12
1.027767841075701996e-12
9.660388476675087315e-13
8.582782266933937490e-13
7.223663319629444489e-13
5.918020964551660163e-13
4.959786468282437971e-13
4.268649716829352686e-13
3.410974345976717438e-13
2.416428603681567986e-13
1.865218748731419968e-13
1.395466225548219153e-13
9.988359771068360499e-14
7.256241221202832081e-14
5.289099677388792106e-14
3.848274496578530563e-14
2.837904471833722921e-14
2.128361563343195762e-14
1.624769951455161640e-14
1.261090650087712526e-14
9.911856007884463618e-15
7.836481568956209622e-15
6.189126418023479326e-15
4.849111762909392481e-15
3.744803481687919954e-15
2.835336982329715095e-15
2.095942169045563007e-15
1.508615968778637016e-15
1.056682245919276213e-15
