# bin_5_14
1.954183693569522291e-07
2.156384107187798969e-07
2.327708642885037860e-07
2.443893534936850690e-07
2.479662042163793414e-07
2.408787564676733707e-07
2.212436990606673707e-07
1.921704987575450409e-07
1.590803842277895090e-07
1.308100361442031138e-07
1.116203458031676888e-07
9.474690902517478080e-08
7.115259962389475976e-08
5.063843053927065084e-08
4.033075287263121530e-08
2.798292401210700465e-08
2.075661358395019912e-08
1.452938192543605521e-08
1.035729654739691466e-08
7.397881477175188210e-09
5.323051097260579309e-09
3.883890083268974209e-09
2.879912727610559550e-09
2.175988123623839335e-09
1.670424971510815320e-09
1.296492487756037116e-09
1.011309566947274277e-09
7.871479030812095957e-10
6.072679830802560027e-10
4.616494493756615309e-10
3.442302639182571400e-10
