# bin_4_13
2.486484841368034968e-07
2.710569630532772487e-07
2.882146164503536277e-07
2.969918694817629769e-07
2.946139523289669022e-07
2.776156686308506864e-07
2.472500873672714660e-07
2.086272805662613934e-07
1.711036902202276218e-07
1.432408487403578129e-07
1.231912978090902915e-07
9.883126975704779636e-08
7.027530504256881229e-08
5.375166616418489924e-08
4.033544544829417565e-08
2.858361622297142746e-08
2.069617518851288503e-08
1.487680226687778872e-08
1.066023555537477045e-08
7.718365802704184943e-09
5.666634544177700358e-09
4.230021132305980308e-09
3.213833362549256840e-09
2.481056098619490265e-09
1.935736742090570508e-09
1.516934944474195672e-09
1.185762306013758312e-09
9.183046197882578182e-10
7.004849725623410020e-10
5.237939680912939834e-10
3.825857196985771216e-10
