# bin_8_15
9.811522254092786626e-08
1.105484344234134443e-07
1.224108370486904327e-07
1.326550131089861013e-07
1.399171342427605207e-07
1.426740374067240185e-07
1.395456076660128228e-07
1.290484670057225597e-07
1.128323473882250202e-07
9.367071235736719043e-08
7.680145509315710383e-08
6.534539344503567986e-08
5.602727806126845267e-08
4.265951677029427429e-08
2.982333290705208895e-08
2.394699830382676623e-08
1.650207610759646997e-08
1.221777945148401392e-08
8.349520146115237633e-09
5.862309155573578466e-09
4.090485727852910661e-09
2.853439031110916015e-09
2.005619072425703156e-09
1.425690501299646760e-09
1.032296986118605806e-09
7.620892657766839609e-10
5.730162004703072692e-10
4.375764020959930500e-10
3.373258929660695044e-10
2.606694064048482183e-10
2.004507189765749670e-10
