# bin_6_4
2.492059021007077251e-10
2.747474677869456940e-10
2.962466546618972910e-10
3.105919038595849254e-10
3.145967960357398537e-10
3.048391846761557841e-10
2.790530497191701382e-10
2.415729682559081554e-10
1.993896809126034432e-10
1.639669634810517336e-10
1.403752209646541183e-10
1.190494230242538677e-10
8.838853617595721310e-11
6.293622431288207086e-11
5.061472135565448409e-11
3.449758121470390117e-11
2.595248811329377142e-11
1.811827254165233959e-11
1.287092172822492642e-11
9.218688322847798440e-12
6.651830934468909814e-12
4.866781990444716053e-12
3.619297665918059733e-12
2.743171960761026675e-12
2.111505656717234134e-12
1.642260163105679380e-12
1.282681945105561873e-12
9.987823764407616925e-13
7.702208418548020963e-13
5.848540335682208031e-13
4.353200858971824234e-13
