# bin_9_13
5.873113151111909962e-08
6.644075761853880629e-08
7.393037186011342236e-08
8.059937030537680290e-08
8.564976330522349500e-08
8.811483190040244280e-08
8.723234811562048860e-08
8.184852802734651394e-08
7.256044394387271683e-08
6.086479675546735941e-08
4.980656257809087751e-08
4.190129926377227866e-08
3.622651482058132063e-08
2.869510291548244333e-08
1.993720457572159141e-08
1.562631899776001099e-08
1.133990157318461378e-08
8.070339663424087887e-09
5.578803995555228773e-09
3.953760229633980224e-09
2.732516787618210313e-09
1.884586065839596748e-09
1.308879060146275190e-09
9.173695055414760216e-10
6.530499252530372489e-10
4.739024914884822662e-10
3.506663515222071432e-10
2.643679595863600620e-10
2.021415195672603700e-10
1.557589588134754639e-10
1.200514100505778694e-10
