# bin_12_1
6.443205378034270062e-34
7.275971229012687645e-34
8.078383017213457275e-34
8.783318164320406702e-34
9.302196384296043434e-34
9.530099023792525128e-34
9.383692104031722271e-34
8.743829685060280053e-34
7.701107777701514790e-34
6.422815778186565258e-34
5.255834008877609755e-34
4.446916662116343767e-34
3.838416639501745462e-34
2.983217809946021820e-34
2.065716220927309146e-34
1.650438061370884376e-34
1.161206926672463583e-34
8.483866391001287571e-35
5.770485364482335415e-35
4.083354983831001784e-35
2.837790955779910549e-35
1.969031324975769430e-35
1.375842143584684072e-35
9.707810730430634447e-36
6.969310577080677623e-36
5.101773831771289687e-36
3.806914189973571704e-36
2.890478135410962407e-36
2.221096360059818751e-36
1.715530274937250989e-36
1.321937369553219043e-36
