# bin_5_4
3.644076096029100125e-09
3.978618048644238007e-09
4.238447475842095921e-09
4.376774782755681660e-09
4.354588811921543279e-09
4.115942956656469074e-09
3.675405544744866619e-09
3.105380834180099797e-09
2.543330092754553143e-09
2.124243680388683021e-09
1.833482439487676457e-09
1.482826224656389559e-09
1.047310948703017886e-09
8.002340306364489955e-10
6.059189015168106775e-10
4.256040423934279368e-10
3.084838908566629974e-10
2.225655285785177551e-10
1.590826865982598202e-10
1.149154867633679137e-10
8.421116454165982325e-11
6.276048352129777746e-11
4.761566132056341178e-11
3.672433014567130950e-11
2.864129444376798569e-11
2.244968876568315733e-11
1.756263997054592478e-11
1.361852351047348911e-11
1.040524938062017321e-11
7.795363486263402961e-12
5.705030477392108031e-12
