# bin_5_7
8.217838026427529708e-08
9.036386043757018894e-08
9.712091314705291550e-08
1.014134502446049180e-07
1.022446793270853992e-07
9.843332065260168404e-08
8.953391999579808184e-08
7.702582834415678130e-08
6.344493453306236671e-08
5.237579005206402278e-08
4.494792740593046799e-08
3.767773247993241708e-08
2.761237768592458450e-08
2.001889476730353397e-08
1.586165214673412301e-08
1.088964699931111261e-08
8.110823559140218189e-09
5.716528852470585368e-09
4.066769015767784769e-09
2.917469013054536664e-09
2.112618841457297327e-09
1.552804608660471280e-09
1.160689047424375836e-09
8.836993545402881498e-10
6.825632713988709383e-10
5.319820411531142235e-10
4.157009203490784751e-10
3.233536149262297578e-10
2.487649803248028926e-10
1.882440447679968696e-10
1.395110318238085321e-10
