# bin_7_3
6.695278506238318819e-14
7.392065245731432757e-14
7.984575946086216668e-14
8.389791560426995651e-14
8.519384224541163975e-14
8.285195664908056804e-14
7.613536742249904403e-14
6.616141374845775653e-14
5.470942086697098208e-14
4.491416399875160177e-14
3.836278493703876806e-14
3.270505270851187022e-14
2.452037495000456553e-14
1.730893693795868647e-14
1.396890306485120712e-14
9.547603410502534522e-15
7.184661110772177361e-15
4.990378743672779271e-15
3.548897795605153092e-15
2.538904152550930773e-15
1.828121468151635736e-15
1.333832635472140490e-15
9.888258993376981061e-16
7.472579487762040980e-16
5.738295230455741167e-16
4.455993054460201906e-16
3.478158733200612447e-16
2.709211619066394954e-16
2.091684071894675135e-16
1.591255670810176998e-16
1.187302887100118083e-16
