# bin_10_4
2.715786075060971210e-17
3.048687054736979434e-17
3.360847841374918729e-17
3.622156825686088701e-17
3.794177281657809166e-17
3.838359137752292260e-17
3.711166297467179087e-17
3.387504500111947991e-17
2.923869286395429343e-17
2.408414725478450767e-17
1.982569958903317159e-17
1.703001311136849304e-17
1.440953845200056640e-17
1.057216974850941535e-17
7.546307381826764251e-18
6.083299493214287125e-18
4.062499049219039715e-18
3.061471294953114672e-18
2.115205751808202859e-18
1.469644637488900378e-18
1.031510295367567521e-18
7.255773645089951401e-19
5.154832719822018898e-19
3.713448126018499469e-19
2.728773334599337276e-19
2.043327228440464997e-19
1.555623248466958311e-19
1.198755437689660448e-19
9.286153815002842212e-20
7.178964066747011564e-20
5.500510602823531052e-20
