# bin_1_5
5.585819103829314819e-07
5.483977943097859475e-07
5.129344071124636082e-07
4.551713005436388444e-07
3.856377864526724791e-07
3.193364474287027258e-07
2.670406732171434014e-07
2.244447618354467300e-07
1.789917673605303567e-07
1.330310145674449933e-07
9.975888669399505463e-08
7.535862493052267465e-08
5.493347521699396798e-08
4.051638107570637147e-08
2.984810665588180216e-08
2.226163043924363440e-08
1.685186639286238891e-08
1.298440428590006837e-08
1.017302586435804256e-08
8.072269553713122928e-09
6.448761116790908142e-09
5.149185105333067263e-09
4.080280372115263461e-09
3.188168565316937437e-09
2.443018756422294922e-09
1.828351809603570173e-09
1.333138902917993214e-09
9.463731467314155393e-10
6.547133266121754600e-10
4.424103025278653147e-10
2.928701390974972474e-10
