# bin_4_3
4.214600015094738308e-09
4.529473672617730182e-09
4.731035049776610679e-09
4.772576284332358508e-09
4.600063735714420723e-09
4.190411246155895852e-09
3.610842412358978999e-09
2.976778445435235279e-09
2.454948495425503053e-09
2.102987335478942343e-09
1.766555819680691264e-09
1.303614267397315706e-09
9.434042444695314079e-10
7.491885820452036066e-10
5.195460049038632269e-10
3.887866811052915610e-10
2.766804912363052613e-10
1.998180071792160801e-10
1.457749212321781935e-10
1.076713326813699783e-10
8.088182696285039859e-11
6.180494100169853618e-11
4.799768793746928693e-11
3.767193163089572046e-11
2.968711983846635530e-11
2.332864333987116265e-11
1.815429577975041009e-11
1.390744421342253698e-11
1.043612128051159257e-11
7.642159024456909546e-12
5.449651720894871948e-12
