# bin_9_1
2.192620223991801091e-26
2.440174072321525081e-26
2.661711461314492236e-26
2.831200635164378915e-26
2.916788967049830488e-26
2.893500103779031047e-26
2.722526872791086120e-26
2.420089051523069088e-26
2.034792875435846546e-26
1.664644681817110075e-26
1.396248760811134850e-26
1.207651532872299210e-26
9.651302924032032130e-27
6.726868144668365987e-27
5.233369421045612768e-27
3.867334114800198661e-27
2.739575477353313772e-27
1.930596357783249575e-27
1.388359972741880752e-27
9.778985852802591346e-28
6.918868783512126118e-28
4.958377189404525581e-28
3.605665028516417951e-28
2.670094608170944674e-28
2.014783141308491374e-28
1.543914051799117528e-28
1.196003639562519196e-28
9.303651753244785990e-29
7.215332997447892160e-29
5.541330173884230888e-29
4.190846474941734585e-29
