# bin_4_8
1.739783313759585457e-07
1.891107480153768153e-07
2.003589620918408927e-07
2.055598331719568985e-07
2.027677540745268959e-07
1.897199129084386331e-07
1.678072684749126671e-07
1.407778010885610115e-07
1.154302573646545803e-07
9.711726931826253676e-08
8.337814534183122723e-08
6.579863972601095086e-08
4.659166845088550241e-08
3.617713900827322384e-08
2.660911607917755700e-08
1.912129346918017240e-08
1.372308099323809715e-08
9.902981322166410578e-09
7.121585316176155631e-09
5.175376286818935699e-09
3.817785261795592270e-09
2.864294539757682610e-09
2.187192446814784019e-09
1.695335587711118722e-09
1.326304734426160987e-09
1.040587719881220171e-09
8.130717468495087276e-10
6.285103132156167267e-10
4.779425527055719109e-10
3.559099691524440524e-10
2.586876984819053595e-10
