# bin_1_10
7.123220344857905825e-07
7.009728384860491914e-07
6.574541812793162879e-07
5.850115632107484948e-07
4.966549529336806133e-07
4.113929459870843085e-07
3.436916878923764284e-07
2.891430841007134060e-07
2.315488482135649934e-07
1.724485843605786013e-07
1.290485348111902287e-07
9.765712228623160171e-08
7.120284605385044018e-08
5.248727434275576663e-08
3.864075354911844226e-08
2.878763338409624342e-08
2.176050618645790875e-08
1.674113619915640603e-08
1.309848938103421405e-08
1.038289259236695754e-08
8.289986394391519323e-09
6.619030981898357032e-09
5.247310121074233680e-09
4.103643356393467076e-09
3.148436123107455367e-09
2.359834587185762897e-09
1.723500479349168671e-09
1.225512291767854444e-09
8.491416444388503021e-10
5.745803402790467532e-10
3.808068881202147413e-10
