# bin_11_9
4.866423174602201825e-10
5.519711365866418069e-10
6.161794915703336737e-10
6.744229418006194753e-10
7.202103939218389751e-10
7.454384545817863808e-10
7.436637464933322474e-10
7.046336363769611778e-10
6.304017310439437759e-10
5.330917068960641365e-10
4.363431967290681763e-10
3.642265709814072643e-10
3.154605907565217138e-10
2.562842528783501779e-10
1.791794253609962949e-10
1.366884912779783196e-10
1.033193911317350418e-10
7.104245568495428272e-11
5.034257212313810857e-11
3.563349895702187420e-11
2.445409514395622808e-11
1.674462747019667696e-11
1.153279833355329970e-11
8.009003381436289753e-12
5.634409406046473867e-12
4.037981932368973653e-12
2.951299727711212088e-12
2.201266809087814287e-12
1.670200339994510645e-12
1.281926633638878874e-12
9.880839805730508584e-13
