# bin_4_10
2.163793026023023302e-07
2.353053341857022020e-07
2.494410830578247688e-07
2.560907707953992476e-07
2.528361420230916672e-07
2.368299886596282245e-07
2.097040030141292711e-07
1.760859565045698291e-07
1.443845378773299064e-07
1.213814434452834063e-07
1.042412798575787124e-07
8.248055933783861215e-08
5.843909537556826639e-08
4.526904814182684132e-08
3.340389611347037241e-08
2.394957458516672869e-08
1.721239382611709825e-08
1.241362660489743658e-08
8.921864793413470480e-09
6.479798348087657882e-09
4.776405593374915564e-09
3.580642825423803737e-09
2.732035003238756687e-09
2.116317554279462773e-09
1.654954312081872285e-09
1.298205111791244251e-09
1.014435108802397979e-09
7.843977985497625710e-10
5.967788954903366614e-10
4.446953214261579780e-10
3.234716195850192032e-10
