# bin_5_2
3.014710006721393446e-08
2.634612509798888733e-08
2.242147320183333799e-08
1.863757346999097849e-08
1.520624439918125576e-08
1.223396214412171633e-08
9.715564803774508867e-09
7.584726674757452346e-09
5.800047800248322273e-09
4.374751282792890892e-09
3.301510895954242237e-09
2.499011635201653379e-09
1.893559733081939368e-09
1.447671825426428345e-09
1.117058893200604862e-09
8.698447321791079020e-10
6.820691833492139444e-10
5.366920939215838116e-10
4.219420178373326650e-10
3.299570994249567788e-10
2.555636133502518774e-10
1.953223250452604233e-10
1.468538297102766200e-10
1.083656523168063040e-10
7.836030680607474729e-11
5.548488229989928053e-11
3.847337050495245428e-11
2.614690737276920436e-11
1.744274318675641216e-11
1.144488173379866947e-11
7.402578854577592357e-12
