# bin_5_1
2.056363814775983377e-08
1.746595810667111626e-08
1.449944332575553762e-08
1.182143325925872895e-08
9.505098039161565327e-09
7.540062769321578566e-09
5.878125864806840850e-09
4.494754558625704821e-09
3.397776601537356505e-09
2.570751889890530899e-09
1.951439970038816800e-09
1.486189047251168521e-09
1.142455826413265079e-09
8.870329462806898016e-10
6.950139153640284655e-10
5.481435590430489860e-10
4.334496999855579382e-10
3.420915273548516560e-10
2.682275554333525087e-10
2.080550429061947892e-10
1.590655013359785154e-10
1.195143281923028714e-10
8.805891778243005664e-11
6.354081074457514817e-11
4.487897375184851755e-11
3.103814414255207872e-11
2.104232609710280095e-11
1.400823285640135003e-11
9.176637163459913557e-12
5.929020472683567922e-12
3.786682855666773054e-12
