# bin_9_2
3.357197709011445261e-08
2.950579110759507401e-08
2.523445861298038298e-08
2.105805526730281940e-08
1.723236778465966737e-08
1.390034104427720627e-08
1.107240741583290097e-08
8.673975018259663700e-09
6.649464783365427443e-09
5.015717766103014737e-09
3.780542204760944447e-09
2.858704082774326180e-09
2.161322897934476483e-09
1.647671245112961462e-09
1.267914383438562808e-09
9.849125014944126543e-10
7.709978294024258824e-10
6.062350453984392729e-10
4.767785027266806578e-10
3.733424844358392799e-10
2.898147491650032746e-10
2.221557584357843689e-10
1.676125204860981775e-10
1.241589969857381625e-10
9.013989813151061922e-11
6.407974903802475978e-11
4.460173075211185557e-11
3.041717148493383147e-11
2.035358998244592273e-11
1.338956537586004208e-11
8.678947083419889043e-12
