# bin_10_7
6.947857483724083561e-08
6.524838683879974760e-08
5.972689805989599262e-08
5.320843389096028579e-08
4.611359577020875810e-08
3.893466465348544533e-08
3.214672847115460176e-08
2.608876396999992977e-08
2.088961236972248236e-08
1.648998548768278877e-08
1.276280423829235313e-08
9.662418829018518538e-09
7.228602754178968242e-09
5.417720137141074777e-09
4.054509238551255834e-09
3.030690162708611079e-09
2.285062823268836334e-09
1.733403475973472366e-09
1.325874465997507057e-09
1.020557190323570860e-09
7.884144920708701494e-10
6.091397016679827548e-10
4.688555790736862676e-10
3.581599360179998080e-10
2.705979234550108563e-10
2.016230447673029954e-10
1.478271045575363576e-10
1.064815220544834046e-10
7.528237930149227034e-11
5.222587114778895243e-11
3.556234603957214757e-11
