# bin_9_6
6.325954854856318019e-08
5.891435237410352324e-08
5.345137014838120558e-08
4.718393277391473293e-08
4.052980825309856452e-08
3.395008273490181507e-08
2.785612247813626225e-08
2.250142514966968344e-08
1.794207679182320793e-08
1.408485385669025727e-08
1.082413581226582467e-08
8.153452555300832883e-09
6.104266307635235340e-09
4.584521935773724315e-09
3.431710190300827546e-09
2.578338652315945650e-09
1.953072438402735610e-09
1.490543547312596688e-09
1.146276675350892984e-09
8.864744805547326942e-10
6.871387351525798923e-10
5.318051557525892629e-10
4.093276812015079398e-10
3.121500732001465721e-10
2.350684744612394059e-10
1.743454414821498491e-10
1.270974638891958376e-10
9.094744335297533552e-11
6.383802889684936490e-11
4.395434772838548456e-11
2.970457238666265076e-11
