# bin_9_5
5.794462674145975361e-08
5.352004281509297491e-08
4.813043983988470304e-08
4.210393609341113469e-08
3.585287076000963102e-08
2.980769222437035132e-08
2.431738578136242224e-08
1.955961962862791925e-08
1.552954977870898267e-08
1.211532720318692808e-08
9.242539649345935165e-09
6.937463825227793679e-09
5.205744149646558065e-09
3.913363842277617376e-09
2.933065269137413480e-09
2.216493636306822764e-09
1.686741058533618749e-09
1.294914120629688531e-09
1.001071961818692422e-09
7.774129164673528167e-10
6.042323565981388312e-10
4.681135227187722896e-10
3.600439553278850568e-10
2.739095960881754760e-10
2.054721456448058278e-10
1.516099051442510420e-10
1.098388197247024106e-10
7.804931068856090393e-11
5.437482356616633667e-11
3.715127574153461783e-11
2.491722035423198135e-11
