# bin_6_2
3.135449495008948324e-08
2.746002337370611860e-08
2.341315382634963526e-08
1.949088213259296036e-08
1.592052721388781217e-08
1.282142180531130843e-08
1.019390156276663713e-08
7.968726644458759896e-09
6.099498419391910034e-09
4.600715443426017245e-09
3.470386957201832604e-09
2.625816376982900840e-09
1.987956044125859816e-09
1.518178932710879951e-09
1.170240969649518883e-09
9.104103291360532608e-10
7.134197850400081176e-10
5.612085300983005263e-10
4.412738873322960230e-10
3.452520376787963303e-10
2.676383946272187044e-10
2.047820946251527822e-10
1.541720298925620773e-10
1.139333858832712745e-10
8.251304501783689745e-11
5.851488817078051478e-11
4.063384226609218423e-11
2.765233201914567519e-11
1.846892332670531677e-11
1.213045391331302899e-11
7.852545347382267236e-12
