# bin_9_4
2.389649060304509243e-15
2.673601508177398826e-15
2.935360389609219966e-15
3.147645672312191318e-15
3.276066950417484676e-15
3.290141885362046045e-15
3.147642364712104398e-15
2.842690662933487675e-15
2.427124819528939011e-15
1.991175083770961653e-15
1.649526956592817414e-15
1.424256163268778769e-15
1.182517693374092944e-15
8.450071976234014231e-16
6.234056593446527178e-16
4.899242416590425300e-16
3.306369548605041884e-16
2.443033338423110113e-16
1.721753928119682442e-16
1.199490262456179116e-16
8.427403859112871312e-17
5.962608439506474818e-17
4.274880524078812866e-17
3.114403430557129174e-17
2.314304963995140080e-17
1.750616757967291436e-17
1.343615676681078625e-17
1.040536380014779732e-17
8.072856408966046323e-18
6.229812077648320080e-18
4.751347572206502690e-18
