# bin_6_6
1.588672909057713558e-08
1.759136015172256390e-08
1.906998135474146003e-08
2.012853319764355223e-08
2.054773777139356546e-08
2.013281238922007516e-08
1.866280124982923032e-08
1.635636983962302314e-08
1.360357336924273674e-08
1.114667958013132113e-08
9.457812907495698260e-09
8.118577935000992103e-09
6.237033079692747885e-09
4.363825571302240084e-09
3.489061542891408363e-09
2.448245041421185141e-09
1.807567111574185858e-09
1.255017255544070757e-09
8.978665263450716226e-10
6.389252835630384574e-10
4.571335124086554119e-10
3.313501319387956110e-10
2.438996106382127786e-10
1.829782795558731195e-10
1.396523662858747954e-10
1.079614572916779353e-10
8.407275014913532452e-11
6.548052761718529489e-11
5.065543829459623859e-11
3.868080122034309152e-11
2.901158435112199330e-11
