# bin_13_5
2.707726368349384482e-20
3.072670432331429346e-20
3.432130073387661556e-20
3.759265310119591476e-20
4.018101146498608789e-20
4.163590075838844232e-20
4.159381226623559079e-20
3.948319195275977311e-20
3.538431181010964188e-20
2.997198871514664293e-20
2.453821205859727011e-20
2.045326975638456359e-20
1.771359661556488122e-20
1.445444675391937657e-20
1.013070265643534891e-20
7.682402558915688719e-21
5.850568634760894284e-21
3.997895331663303929e-21
2.851127134135522820e-21
2.013995103255647859e-21
1.380481050358475569e-21
9.444761025136413603e-22
6.494708352317631615e-22
4.502455517779324755e-22
3.160356076100285641e-22
2.259364500631198763e-22
1.647213418476841922e-22
1.225802856853011656e-22
9.284453464593487904e-23
7.118718682126288481e-23
5.485613102285979458e-23
