# bin_2_10
4.755249886654946764e-07
4.924163891249266545e-07
4.916262065371355316e-07
4.682271388423275722e-07
4.222260267855360525e-07
3.611721545927054046e-07
2.983674996902549551e-07
2.480078752449551814e-07
2.111318685661616512e-07
1.729192511123933828e-07
1.281220080503981328e-07
9.501028646375361600e-08
7.290956641544395485e-08
5.244053821310514279e-08
3.859209859004602688e-08
2.803153895434478958e-08
2.058427760689602944e-08
1.528362155853180293e-08
1.153211399887449528e-08
8.856854917189085670e-09
6.911051299252819782e-09
5.457159951909770803e-09
4.331896767707412877e-09
3.432253399870381067e-09
2.695803564750594908e-09
2.085785979169352231e-09
1.581419646491515496e-09
1.170421880859853912e-09
8.436361526992285891e-10
5.920186641508455798e-10
4.050004597280872547e-10
