# bin_7_4
8.574567581656563211e-12
9.499331294038284373e-12
1.030402934700270509e-11
1.088416175628017871e-11
1.111990167631102156e-11
1.090849060799804210e-11
1.012413089055054689e-11
8.883340267162096300e-12
7.391533327811388599e-12
6.052793815066883895e-12
5.132207293835680091e-12
4.413683211441980731e-12
3.400372254086863598e-12
2.371012879162798605e-12
1.899581107829128484e-12
1.332972795413400154e-12
9.852060545675658733e-13
6.818811502010856439e-13
4.882834337108413976e-13
3.474101940092166054e-13
2.484419010267906800e-13
1.799490484497436379e-13
1.323352087268105947e-13
9.919699180367315247e-14
7.565815077952014343e-14
5.846412559916162356e-14
4.552202977050679295e-14
3.546120181527073086e-14
2.744442464145059166e-14
2.096996976632837183e-14
1.574043060479860850e-14
