# bin_5_9
1.348791064368443389e-07
1.485201549932636419e-07
1.599013873057522368e-07
1.673324837610573140e-07
1.691341764652052524e-07
1.634179149727585178e-07
1.492271023599020919e-07
1.288790277318149639e-07
1.063678826536413746e-07
8.766651636057989212e-08
7.506114397928146080e-08
6.324777803476552798e-08
4.681717508055133226e-08
3.367630427997111781e-08
2.674815552965378701e-08
1.843755621951649296e-08
1.371384886233232843e-08
9.635351357670733929e-09
6.860585476201435988e-09
4.913150886626028065e-09
3.548585370787342248e-09
2.600503532938838375e-09
1.937607739396886232e-09
1.470735813189335243e-09
1.133251216521435911e-09
8.818365619322114062e-10
6.886534524459078881e-10
5.358553158646733638e-10
4.127504148832328422e-10
3.129443233765087834e-10
2.325239230487883129e-10
