# bin_12_3
3.621809834311877544e-25
4.092908114165074261e-25
4.548292650738333381e-25
4.950539841700327067e-25
5.250056809002340976e-25
5.387305016381942331e-25
5.316128590641955875e-25
4.966754010605768154e-25
4.385388179696085208e-25
3.664564717346121676e-25
2.997882598132819165e-25
2.531068897313323143e-25
2.187545878090925443e-25
1.712739364399368785e-25
1.185061190193267381e-25
9.418565167592889985e-26
6.698939478949838118e-26
4.851795120097313280e-26
3.307815629013877820e-26
2.347397764044965706e-26
1.627986666332029601e-26
1.126743940175159863e-26
7.856090489277147454e-27
5.529201815669092941e-27
3.957150248001949684e-27
2.887638193493188413e-27
2.148362772620912172e-27
1.627293859436718910e-27
1.248521826787505965e-27
9.637987360197338858e-28
7.429765001154393924e-28
