# bin_1_8
6.982178538312555907e-07
6.830727908699094516e-07
6.364538366088027107e-07
5.628409726008503467e-07
4.759024438542788254e-07
3.942464076629835034e-07
3.299839617190021334e-07
2.765585164054569897e-07
2.193962121643743033e-07
1.630355513008024073e-07
1.224486741417762643e-07
9.225253418188412853e-08
6.731860527861798044e-08
4.965824383797021261e-08
3.663001063608236395e-08
2.736132472961072193e-08
2.075130688884149423e-08
1.601924988730283844e-08
1.257109844482731834e-08
9.986464678767967860e-09
7.981892077568213687e-09
6.372333423753232759e-09
5.045694220740842764e-09
3.937519539763467170e-09
3.012275361482974234e-09
2.250189222773671736e-09
1.637585779719647756e-09
1.160390897936147396e-09
8.014882737088393666e-10
5.408631656030851500e-10
3.576580047399051420e-10
