# bin_1_5
5.855306610305988452e-07
5.717669319464394386e-07
5.315994130645063338e-07
4.691344656581764332e-07
3.960889980762177319e-07
3.280973147511918878e-07
2.748036007181265319e-07
2.300736739863390341e-07
1.819290450613605939e-07
1.350353586276222371e-07
1.015641431657808232e-07
7.640642796124194965e-08
5.575919281857907060e-08
4.114532741039833261e-08
3.036911890194718185e-08
2.270480413839349143e-08
1.723926352879909639e-08
1.332360434243907075e-08
1.046640719322379596e-08
8.320744165950630491e-09
6.653051123111029924e-09
5.311357272434796815e-09
4.203949871669890078e-09
3.278269315818821168e-09
2.505440928976051102e-09
1.869363210616096812e-09
1.358698554624584231e-09
9.615445963971201183e-10
6.633568356221933007e-10
4.471814251760810993e-10
2.954487571961125013e-10
