# bin_10_4
2.441810657961661751e-17
2.742873301586431362e-17
3.026057117159765338e-17
3.264454451895107952e-17
3.423611444131562250e-17
3.468218662810021645e-17
3.360036410434698396e-17
3.073627890593467698e-17
2.658719004804807718e-17
2.192353026722814127e-17
1.802991826403368973e-17
1.546589012094104398e-17
1.312514275825656789e-17
9.687033218834856340e-18
6.878120341425245838e-18
5.556686257940398112e-18
3.717388940273503462e-18
2.802786784324616555e-18
1.929459634023104940e-18
1.341464422231811609e-18
9.411271794327413593e-19
6.613136000153101638e-19
4.689527272371839270e-19
3.370520119374910019e-19
2.470721929309775830e-19
1.845897722476904632e-19
1.402658596490109075e-19
1.079508072740930692e-19
8.357871073155698869e-20
6.462576448968759167e-20
4.955782549794410863e-20
