# bin_4_4
2.631765979851516967e-08
2.842840178671585380e-08
2.988431541744994023e-08
3.037352284030068078e-08
2.958528208822315051e-08
2.726408289163934817e-08
2.376129045113715589e-08
1.971295391315809709e-08
1.619022052548876377e-08
1.377092864573476654e-08
1.172386353470249727e-08
8.905247294302511050e-09
6.324622784143634307e-09
5.029397020844268080e-09
3.546105377212718524e-09
2.628601579188385074e-09
1.861545250646464379e-09
1.347136852172339441e-09
9.773289241965092648e-10
7.167130787580396667e-10
5.342556787076531932e-10
4.051159026499955450e-10
3.125053298376540894e-10
2.441217561780605903e-10
1.919162368132383475e-10
1.508187493324992034e-10
1.176495368818265089e-10
9.053120771551720289e-11
6.835842507337455127e-11
5.044060599843922327e-11
3.627416030396190632e-11
