# bin_7_3
5.607355158085520323e-14
6.193229168132406054e-14
6.692738848669915999e-14
7.036483299475383223e-14
7.149998808909460739e-14
6.960142582577552225e-14
6.402905432679327825e-14
5.570094118091641303e-14
4.608991232481469491e-14
3.782560700822808773e-14
3.228258221755695582e-14
2.755156132243756099e-14
2.071921278683544067e-14
1.460134432367984358e-14
1.177864166238826350e-14
8.071144394674661571e-15
6.063879560044039262e-15
4.208730137100779221e-15
2.995227126541225244e-15
2.141615627030481307e-15
1.540943703564783222e-15
1.123382724987350050e-15
8.320992799308288138e-16
6.282711082802337734e-16
4.821191941132464655e-16
3.742071829444336189e-16
2.920332197214358066e-16
2.274917134662679940e-16
1.757000283745424855e-16
1.337409652937269876e-16
9.986518124818109734e-17
