# bin_10_5
9.687565211771465094e-15
1.089850198488340511e-14
1.204571292058576405e-14
1.302404937157914098e-14
1.369780974334493360e-14
1.392078471818868514e-14
1.355042255651314264e-14
1.245906855152304132e-14
1.083259434583661576e-14
8.956474956484570024e-15
7.350858767607144984e-15
6.283709850786810389e-15
5.367031987852433866e-15
4.017529573169944171e-15
2.821197556624684886e-15
2.285732338168532146e-15
1.540000345087540402e-15
1.159336787380736663e-15
7.919681716464012861e-16
5.521396957889147354e-16
3.868468478988135023e-16
2.711620878264991465e-16
1.914934378198619742e-16
1.369068556844072553e-16
9.979252580753550283e-17
7.415728765802308942e-17
5.609299573897598520e-17
4.303304804203850568e-17
3.326755376166405336e-17
2.572926260319170671e-17
1.976493442862877833e-17
