# bin_6_8
6.501372576760962981e-08
7.219381255616843482e-08
7.853530953273827922e-08
8.325687286028182755e-08
8.543741924108836452e-08
8.430412928165850894e-08
7.882640339158376825e-08
6.965961563464123181e-08
5.831733316278722776e-08
4.775074740442953641e-08
4.024379132744998289e-08
3.468274890163717702e-08
2.726839198453292918e-08
1.906502117759270535e-08
1.498046133062997757e-08
1.084265090202824465e-08
7.809560141081010774e-09
5.480541083581960091e-09
3.926061876581673725e-09
2.776894725962203547e-09
1.974377430594814295e-09
1.421461288789597082e-09
1.038814197674225111e-09
7.733793282881736946e-10
5.863028729669768092e-10
4.509043620349128503e-10
3.500316091805379300e-10
2.724004673740308094e-10
2.110136857358230937e-10
1.616557631898146125e-10
1.218280975499199732e-10
