# bin_2_1
6.658932092712513292e-09
6.685183386758054054e-09
6.412111774686517827e-09
5.822942375576478389e-09
5.009972607481686741e-09
4.142034495183770045e-09
3.428094800536045894e-09
2.920368823316038484e-09
2.424514732768284942e-09
1.809374592457567769e-09
1.328209919344529222e-09
1.032431619032228772e-09
7.419586921766282223e-10
5.500028225984715850e-10
4.010448087172771849e-10
2.965978822154772351e-10
2.220438572147401842e-10
1.690981746382493897e-10
1.311480331113009022e-10
1.033069825033934983e-10
8.226146304802706932e-11
6.574773757976107967e-11
5.235663426925520204e-11
4.125237926723843259e-11
3.195917670154923664e-11
2.422022345902936416e-11
1.789057508180868101e-11
1.285770310371617696e-11
8.992828137964680722e-12
6.132974729028147207e-12
4.090492657020500555e-12
