# bin_2_9
4.563027375734490927e-07
4.724271644239393400e-07
4.715645769185794362e-07
4.489931685989311767e-07
4.047620495471937667e-07
3.461430505694578159e-07
2.859260122469773963e-07
2.376983352323749522e-07
2.023623536904541217e-07
1.656610602874836932e-07
1.226917475856721763e-07
9.101942970901289605e-08
6.983017064916523538e-08
5.022232887934053417e-08
3.696170653413691450e-08
2.684907972451624866e-08
1.971763977375177173e-08
1.464235082909622265e-08
1.105015333373675046e-08
8.488161821024361880e-09
6.624364575189346062e-09
5.231357801425672812e-09
4.152882147873166131e-09
3.290411345281878863e-09
2.584252231764872815e-09
1.999268299420626300e-09
1.515603791115346708e-09
1.121516211585167300e-09
8.082323989504451660e-10
5.670676003909112340e-10
3.878639407735327979e-10
