# bin_15_13
6.823378694575413303e-10
7.813572637548278550e-10
8.829110403853744362e-10
9.807210292659408353e-10
1.066579288623642798e-09
1.129658394558953285e-09
1.157105703765458314e-09
1.138867920267282794e-09
1.060325024621089927e-09
9.330912343008819921e-10
7.774399434975450335e-10
6.362028088341296048e-10
5.390132183254768219e-10
4.653660574994494403e-10
3.601253147756526346e-10
2.487205637705714123e-10
1.995506670877257115e-10
1.387533306300245519e-10
1.016501330168933272e-10
6.799230807917729239e-11
4.737922524620789947e-11
3.225828416354826213e-11
2.175079655013932359e-11
1.461759865724529625e-11
9.815061167311126243e-12
6.646902607096257032e-12
4.559454567767358240e-12
3.182387423988493276e-12
2.270566324609674943e-12
1.658054227700682907e-12
1.236997225246275350e-12
