# bin_6_5
3.267618047807369739e-09
3.608875009126166766e-09
3.899752703903758891e-09
4.099802958349367085e-09
4.165756667683775738e-09
4.054881910290029365e-09
3.730490387508497551e-09
3.245460171552743960e-09
2.686202445304009268e-09
2.205071276409406689e-09
1.881429948075856475e-09
1.604726156367301050e-09
1.207595078869671393e-09
8.520853141063654722e-10
6.856754174369381915e-10
4.713405689416801058e-10
3.530667124638146101e-10
2.453613540534778077e-10
1.747449388603844465e-10
1.248911121343523716e-10
8.983657049590675273e-11
6.548651841415570159e-11
4.850277022897086706e-11
3.661643694824701535e-11
2.809427139388887405e-11
2.180263002372107253e-11
1.701239770391468634e-11
1.325092258537172338e-11
1.023322895947715308e-11
7.788982496365347816e-12
5.815941624093330566e-12
