# bin_9_4
2.046587839950117810e-11
2.291329926574537780e-11
2.517903433018730583e-11
2.703169328012276364e-11
2.817885127804349470e-11
2.835221019662838974e-11
2.719963781826998479e-11
2.463133440098509248e-11
2.108928749004542161e-11
1.731334494114493122e-11
1.431005136586100323e-11
1.233779032338692133e-11
1.030178946979983615e-11
7.411017889392472972e-12
5.411664284112006784e-12
4.289975462338978135e-12
2.879309039731296707e-12
2.142948175612342692e-12
1.501404916085613337e-12
1.044339137332238318e-12
7.332813827750531360e-13
5.176974869504015605e-13
3.701014493173049669e-13
2.687094955416681416e-13
1.990209048402392095e-13
1.501033423148038458e-13
1.149394181644182816e-13
8.888801968852601219e-14
6.893214003377539752e-14
5.321920344722591939e-14
4.063775168589358476e-14
