# bin_12_4
3.364642542361752192e-17
3.806601865652496588e-17
4.235968611045627498e-17
4.618402498160778993e-17
4.908150529132081125e-17
5.049370755530272998e-17
4.999512679053000188e-17
4.690649056250780507e-17
4.157968620214497663e-17
3.486062014369543915e-17
2.851370802828160815e-17
2.399094920623893526e-17
2.076290333882757858e-17
1.644596893442873975e-17
1.138763613595668909e-17
8.956196822958059478e-18
6.488176745952779231e-18
4.626496548818201223e-18
3.178755328063281128e-18
2.261890581344051193e-18
1.563386072602932429e-18
1.077671167879491008e-18
7.487268810876771479e-19
5.248630427707244630e-19
3.737485346016881586e-19
2.713210057364291940e-19
2.008570166070937345e-19
1.515109680571494586e-19
1.159183463323809472e-19
8.937378672604277205e-20
6.892215522080398733e-20
