# bin_7_7
4.534279973602086295e-06
5.079584879085605733e-06
5.585987478817790899e-06
6.002489747151575586e-06
6.264499562619335892e-06
6.311389642229931914e-06
6.066495668902283446e-06
5.504381626640373242e-06
4.722233405675526798e-06
3.879631003323604707e-06
3.202918120448770284e-06
2.758836004110383967e-06
2.311569344448619349e-06
1.671100539408079217e-06
1.212808455006125239e-06
9.659666562862434616e-07
6.470549030309545130e-07
4.833549998935920446e-07
3.373939751473006166e-07
2.345580538024150454e-07
1.646676498673306358e-07
1.161307808422818522e-07
8.288131705105019723e-08
6.005043700258574878e-08
4.438488098644853347e-08
3.341319217037982152e-08
2.554773703578500169e-08
1.973936783912596430e-08
1.530355472370926408e-08
1.181909416357743279e-08
9.032645977744950666e-09
