# bin_2_2
1.086385529012329548e-05
1.127810009352966398e-05
1.129762604544295289e-05
1.079487905525996174e-05
9.754319745278279002e-06
8.345307746267477227e-06
6.869978088948014102e-06
5.692189743954120000e-06
4.873545572998697313e-06
4.028326580662037036e-06
2.951560213062308828e-06
2.179509470474874936e-06
1.697872893782096763e-06
1.200505471025667034e-06
8.922565299158862231e-07
6.455105626349914722e-07
4.729464499739275283e-07
3.509016682346122060e-07
2.645241978798818578e-07
2.030321130077269530e-07
1.583791144156265287e-07
1.250997418605225181e-07
9.937468449719360298e-08
7.881970520556617679e-08
6.198851958960535639e-08
4.802818252543449220e-08
3.646149989485491368e-08
2.701150338432014410e-08
1.947803802891559351e-08
1.366678179295540150e-08
9.343888388461904122e-09
