# bin_6_5
2.852301440939750365e-06
3.160933020657012136e-06
3.430269730974205307e-06
3.625728209809774526e-06
3.707245311718050996e-06
3.641264817509483899e-06
3.384602792161208716e-06
2.974094425295192712e-06
2.477097352369657985e-06
2.027322370310709148e-06
1.716089872060165672e-06
1.477094452093548228e-06
1.143355822817748875e-06
7.962041147832581331e-07
6.359256455834430527e-07
4.489240130558469712e-07
3.301161773301807448e-07
2.286413510753923034e-07
1.638804187729801025e-07
1.164283806580829162e-07
8.312398757078728924e-08
6.011253967702464575e-08
4.413101512819491085e-08
3.302218673795775770e-08
2.514780207210992089e-08
1.940928746907131583e-08
1.510108864073484922e-08
1.176006760987590038e-08
9.102537613728391071e-09
6.958421800883106916e-09
5.227050097036055206e-09
