# bin_10_6
6.108929298172036830e-09
6.888744481499256212e-09
7.635869993883038681e-09
8.285952566432605748e-09
8.754689681087552574e-09
8.944517472040241543e-09
8.774713817043236537e-09
8.140577952812808022e-09
7.139865442348307060e-09
5.935437627451721973e-09
4.858215916258152777e-09
4.122980695638974336e-09
3.549918178038776108e-09
2.726507060260296017e-09
1.890847388685597284e-09
1.521833131474842551e-09
1.052852826551293910e-09
7.791326382023823123e-10
5.284321233941692126e-10
3.720695407913989057e-10
2.593262509421734175e-10
1.805797533328979760e-10
1.265654893874874160e-10
8.963251027340632092e-11
6.464021715271926596e-11
4.753664124938780517e-11
3.562363759937990705e-11
2.714000013132974311e-11
2.089890547685853516e-11
1.615220231563951545e-11
1.243649523301188384e-11
