# bin_4_2
3.149837678910935748e-07
3.374945801333459921e-07
3.511968382348941868e-07
3.527553915324628573e-07
3.379689802746995154e-07
3.059402827943133676e-07
2.619825193739270352e-07
2.153432875619201288e-07
1.780724093346923994e-07
1.529739119128566703e-07
1.273039596448446704e-07
9.257757611093526393e-08
6.793504840478778894e-08
5.354088009283726370e-08
3.706656085728683266e-08
2.768296380827402513e-08
1.982174082072862057e-08
1.430747622069017098e-08
1.046030191690309930e-08
7.752357392078922068e-09
5.845689004475582295e-09
4.484043414040477282e-09
3.493246008368096644e-09
2.747369955458921563e-09
2.166845857070016237e-09
1.701976698011540456e-09
1.322288834005846851e-09
1.010230908245696182e-09
7.553643940318825972e-10
5.507868417957700290e-10
3.909681770192718827e-10
