# bin_5_4
2.972684558669250927e-06
3.260256844947006643e-06
3.492914262593002165e-06
3.632808028039877547e-06
3.646021439764990884e-06
3.487258934719507430e-06
3.149847704261547827e-06
2.690524582310969014e-06
2.208157592453733310e-06
1.828161503398483612e-06
1.574970596820291289e-06
1.307161237342666597e-06
9.401766855849423559e-07
6.931153926317664213e-07
5.449296728177708420e-07
3.725914470000032669e-07
2.768884363216959972e-07
1.969966423023424801e-07
1.399171613846587014e-07
1.005684710596998803e-07
7.310445182530187910e-08
5.399875689950501141e-08
4.058533623050697728e-08
3.105635278162550313e-08
2.408307795115655949e-08
1.881850727326145427e-08
1.471856037977335099e-08
1.144046159614265011e-08
8.782047921067381169e-09
6.622581565968188787e-09
4.886007076163273260e-09
