# bin_5_5
6.362710070335831549e-11
7.009398867309282840e-11
7.550746355520700893e-11
7.907116668676309024e-11
7.998627594404890444e-11
7.736767239793389733e-11
7.072240534854271122e-11
6.113979465610843579e-11
5.047338779410671821e-11
4.157050070778647711e-11
3.558369324169523516e-11
3.004554933385846879e-11
2.227993800806721073e-11
1.597801793618477902e-11
1.272802144932815905e-11
8.757196032168578230e-12
6.527074496181589039e-12
4.579035826421809835e-12
3.259170919932203927e-12
2.333399338737287061e-12
1.684338801829485806e-12
1.233428321219801936e-12
9.182273251717267007e-13
6.964723513782570845e-13
5.363503658341811135e-13
4.172100033584078599e-13
3.257790184596874135e-13
2.535293814752056545e-13
1.953504451647434749e-13
1.481868204667520740e-13
1.101739740773389669e-13
