# bin_7_3
2.826061704083667241e-13
3.122996314270150166e-13
3.377126503658754517e-13
3.553589253797970175e-13
3.614824344327788306e-13
3.524131276197509714e-13
3.249114027278153026e-13
2.832564452265310386e-13
2.349017163914236004e-13
1.928458393209845532e-13
1.642083443710355234e-13
1.400927590845709137e-13
1.061496589563319789e-13
7.497422027843138999e-14
5.989381861162008335e-14
4.166925635253325685e-14
3.089957589259596949e-14
2.155440155138761409e-14
1.537644179893652075e-14
1.096712946535812834e-14
7.873274827447521579e-15
5.728955716003596626e-15
4.235117354263864744e-15
3.190709644863562363e-15
2.443674466234505107e-15
1.893663873562223082e-15
1.476189753420376913e-15
1.149341997551487858e-15
8.877131018446284765e-16
6.760894247155772973e-16
5.053379139865979477e-16
