# bin_7_1
8.617110739012644315e-17
9.465005456992249802e-17
1.015893540986411896e-16
1.058989833351388912e-16
1.065547694436296957e-16
1.022997467753002232e-16
9.279506548072908723e-17
7.961766617980449538e-17
6.552166857123720205e-17
5.418039580081806706e-17
4.654197284622876758e-17
3.881658540417955927e-17
2.828904367835514651e-17
2.066586618071663648e-17
1.627292729155672264e-17
1.120281281632789921e-17
8.313216713177934793e-18
5.881238440408699604e-18
4.185759830164501738e-18
3.005500046819233604e-18
2.179958993122024554e-18
1.605519849280216487e-18
1.202738730750492290e-18
9.174941333902852109e-19
7.097122503871125506e-19
5.536306648152216501e-19
4.327036345226570232e-19
3.364277688152886489e-19
2.585598173854085455e-19
1.953658673515822526e-19
1.445202823730296355e-19
