# bin_7_4
3.278128198176032477e-12
3.634521047573703111e-12
3.946245913605209966e-12
4.173557592070439518e-12
4.270745168050756108e-12
4.198033466165142798e-12
3.907287452510193212e-12
3.437778792682445699e-12
2.868443889558863112e-12
2.349922949784469604e-12
1.987428249925715247e-12
1.708621855147579789e-12
1.327261189042127013e-12
9.291479989777806505e-13
7.359565138029230936e-13
5.246275698546367680e-13
3.824091578260555856e-13
2.671665735044301930e-13
1.911982486935982598e-13
1.356437636894563794e-13
9.675486226976070511e-14
6.990331879438556286e-14
5.127559644267684590e-14
3.832522250247933729e-14
2.915505501781560885e-14
2.248100244469932824e-14
1.747830499241518200e-14
1.360580663961081144e-14
1.053050182497047836e-14
8.052268895232340433e-15
6.052200767287555294e-15
