# bin_8_1
2.715061131666668719e-18
3.004749542200018589e-18
3.255151989868315958e-18
3.433028927234585569e-18
3.501480203367830562e-18
3.426309318334250201e-18
3.172376112739030840e-18
2.777129430004102522e-18
2.309290487279737049e-18
1.893899663747501806e-18
1.607807169986277257e-18
1.376700791149015113e-18
1.054920461067789047e-18
7.417874827033920832e-19
5.906506997072690652e-19
4.152392648978954178e-19
3.057062533317259823e-19
2.133066887491222318e-19
1.523826225203158325e-19
1.084298258330179065e-19
7.761757735380532632e-20
5.629680380636505711e-20
4.147162267408973213e-20
3.113384584408318470e-20
2.377335701169086401e-20
1.838236871187167181e-20
1.431338030521185089e-20
1.114367367619968886e-20
8.615235628369416645e-21
6.573325771566364929e-21
4.925525913672556624e-21
