# bin_9_2
2.016323934487884678e-17
2.248338341998348688e-17
2.458335085857203597e-17
2.622724818364425786e-17
2.712415870673330953e-17
2.703164508728683813e-17
2.559824407163995010e-17
2.289710437676609359e-17
1.937323540630842152e-17
1.587150685397032968e-17
1.324801181697375078e-17
1.144389064458402642e-17
9.283009132851375625e-18
6.548026216794094300e-18
4.980875777911730874e-18
3.772503071818890431e-18
2.622169673281175329e-18
1.885502678756888802e-18
1.342784929044157421e-18
9.418350595760934031e-19
6.646802129886631875e-19
4.739197199325734584e-19
3.426717544332506033e-19
2.520983056422963695e-19
1.890643386824496482e-19
1.441282879445132805e-19
1.112293705821436220e-19
8.635852111429862115e-20
6.697070779201396254e-20
5.151919599423026394e-20
3.908447994933916157e-20
