# bin_10_6
1.015591151201247372e-12
1.144584824241992886e-12
1.267799185033500940e-12
1.374421470783864616e-12
1.450352202986359737e-12
1.479714430149452650e-12
1.448386086019918636e-12
1.340527547954636743e-12
1.173016429136161092e-12
9.741975706786067766e-13
7.984890692121923483e-13
6.790263501429982414e-13
5.828032886574399241e-13
4.446772122160335869e-13
3.103324891460958546e-13
2.493311192073188968e-13
1.719719109439874313e-13
1.273144898437524805e-13
8.689082110687050194e-14
6.103780337547877835e-14
4.258092012437465504e-14
2.969166158342429834e-14
2.085657365527273578e-14
1.481374549925670664e-14
1.071665868130831272e-14
7.904776163431962772e-15
5.939218054973886194e-15
4.533070976858524679e-15
3.493697649377857334e-15
2.699903292579808022e-15
2.076822906300342501e-15
