# bin_6_4
1.610308600093649357e-11
1.775446776297018139e-11
1.914525203898855614e-11
2.007461839432829580e-11
2.033718296974542976e-11
1.971275198392321603e-11
1.805985765976386265e-11
1.564715896773795639e-11
1.293127194583490651e-11
1.064001228580142755e-11
9.096288971620613810e-12
7.704028565458991678e-12
5.744031487472769039e-12
4.100366399078502792e-12
3.272307658039311095e-12
2.255180327707696445e-12
1.680506963663812768e-12
1.176594767093757488e-12
8.377822826226759290e-13
5.992688509937394396e-13
4.319693034279506359e-13
3.158039557561584716e-13
2.346715547148147696e-13
1.776918210299272544e-13
1.366513137630003918e-13
1.061987839533099192e-13
8.289489914900246707e-14
6.452264482105789355e-14
4.974973224616191905e-14
3.777948116183507003e-14
2.812812847318771440e-14
