# bin_13_6
2.236014332998739680e-18
2.540094835706175855e-18
2.841117419581598181e-18
3.117106881918931901e-18
3.338644025332085690e-18
3.468716127916657106e-18
3.476002722345700233e-18
3.313827164387958743e-18
2.981896102106493923e-18
2.536141424915147156e-18
2.078086789168870316e-18
1.726539421126616566e-18
1.494175067360262223e-18
1.231072333796449799e-18
8.694473568095766092e-19
6.497672339119226513e-19
5.030893332705178940e-19
3.394129258886036981e-19
2.458455511372505788e-19
1.724366148695699265e-19
1.178940953873187581e-19
8.058876612976451063e-20
5.522027028678409180e-20
3.812454390451104541e-20
2.661674107262631152e-20
1.891621401798478023e-20
1.370662583444117111e-20
1.014149779177012700e-20
7.646084403866517261e-21
5.845283496239128038e-21
4.499569569090084823e-21
