# bin_12_1
4.373869160011427424e-35
4.938647579649755708e-35
5.482579817299293266e-35
5.960046505988476807e-35
6.310880378928034997e-35
6.463955388450204135e-35
6.362588701125837257e-35
5.926385288807258578e-35
5.217695077282918977e-35
4.350338367299249984e-35
3.560053890196489798e-35
3.013101015258112627e-35
2.600312706340024848e-35
2.018715309505926663e-35
1.397983008851212823e-35
1.117855808599295274e-35
7.851954449608555330e-36
5.744380993113831441e-36
3.905591799215943214e-36
2.762589752618391031e-36
1.920507621766595288e-36
1.333070366802291226e-36
9.317753086780496586e-37
6.577020290607184076e-37
4.723898518846480026e-37
3.459693489215185654e-37
2.582748897866253957e-37
1.961707579371010439e-37
1.507760778030826675e-37
1.164664280557129097e-37
8.974057389401552772e-38
