# bin_8_3
2.348522132095813941e-14
2.610169570544258616e-14
2.842487073274145475e-14
3.017398782116739803e-14
3.101416349309695907e-14
3.066765466412944034e-14
2.875074985391829071e-14
2.547140778186307477e-14
2.136867535522018765e-14
1.749578550767336311e-14
1.471565740847542873e-14
1.269339135259698760e-14
1.004684858715406419e-14
7.029983820155865504e-15
5.491673739405697113e-15
4.011230466444353256e-15
2.868716730266580158e-15
2.021178854599264624e-15
1.447126975253088924e-15
1.021768335905270683e-15
7.252656712776084947e-16
5.210975460808743111e-16
3.799656477401423587e-16
2.821868565251129038e-16
2.134608856950971790e-16
1.638762082625651686e-16
1.270697186363189691e-16
9.884593949079979907e-17
7.659045359608567691e-17
5.872579657171669315e-17
4.431698086995618197e-17
