# bin_11_1
2.290487434685740961e-08
1.954759593001300045e-08
1.629014624260323524e-08
1.332174823521061790e-08
1.074077739997655295e-08
8.546499245823669700e-09
6.684906409757418284e-09
5.123453798512265723e-09
3.873737875100824269e-09
2.928030527408489828e-09
2.220432759146368058e-09
1.687771788357089815e-09
1.294203118123816831e-09
1.002545974649733447e-09
7.840229450402182819e-10
6.176453757046403254e-10
4.883205377667343052e-10
3.857089169459045272e-10
3.029503674871883232e-10
2.355805488384174043e-10
1.806761629852156248e-10
1.362391494995593483e-10
1.007694942123191397e-10
7.300007043931644563e-11
5.176031744514215392e-11
3.592840916933170841e-11
2.443875733216844173e-11
1.631678107727868759e-11
1.071544579712372413e-11
6.937418398676067565e-12
4.438015089957216444e-12
