# bin_9_7
6.765064293961378052e-08
6.342698060235765654e-08
5.796012882012982954e-08
5.154648488849982162e-08
4.460246148137596680e-08
3.760876692228183326e-08
3.102163533062780743e-08
2.515822710959740337e-08
2.013127394399758428e-08
1.587673369162600396e-08
1.227468875884421836e-08
9.287483966946780375e-09
6.950825748600491844e-09
5.212279228169259672e-09
3.902258116253927334e-09
2.920234645590914119e-09
2.204230785340707866e-09
1.674256849825640662e-09
1.282143468789495857e-09
9.878921423912102069e-10
7.637340695932231216e-10
5.903035139380215465e-10
4.543812203484603719e-10
3.470078592491636130e-10
2.620254379395363950e-10
1.950797300626074386e-10
1.428884433758425878e-10
1.028087060570774730e-10
7.259832129706687927e-11
5.030194157533088893e-11
3.421098100076843289e-11
