# bin_15_5
6.341794681105504596e-08
5.896606806561401949e-08
5.338232057797488099e-08
4.699564440528277101e-08
4.024376125572619459e-08
3.360948569746435827e-08
2.751314462865028332e-08
2.219548092594912631e-08
1.768372881041380121e-08
1.385474586883001047e-08
1.060537926015597529e-08
7.963805927705063378e-09
5.968788371682122647e-09
4.485303197973003005e-09
3.354322906470261084e-09
2.527164489162662987e-09
1.917125195784738570e-09
1.467252283739825925e-09
1.131403860182438894e-09
8.771803603741915028e-10
6.813938636438557004e-10
5.281964852024418590e-10
4.069320919520127741e-10
3.103915906622932733e-10
2.336303281537368748e-10
1.730751344000950684e-10
1.259408827303081068e-10
8.990259572633166970e-11
6.292156925359298220e-11
4.318198151676423340e-11
2.908151148161097184e-11
