# bin_12_7
7.238266017061881720e-08
6.822119607279975097e-08
6.268282225878975018e-08
5.605273347705451122e-08
4.875354434956868538e-08
4.129392622418381504e-08
3.418089630564556576e-08
2.779392542271493877e-08
2.229521026845797005e-08
1.763917193376402387e-08
1.368830692015197271e-08
1.038208458301661429e-08
7.766819101013279282e-09
5.818137075069175283e-09
4.353755129012111932e-09
3.249307180856536499e-09
2.445943137898855221e-09
1.851797793469083441e-09
1.413885051781822353e-09
1.086631038935075355e-09
8.385954529181305324e-10
6.476443671893357934e-10
4.986122297393683191e-10
3.812246995409701830e-10
2.884392921489871898e-10
2.153294899423174105e-10
1.582403454510706352e-10
1.142769388978503310e-10
8.101667059261893077e-11
5.636277264828664003e-11
3.848633953774999424e-11
