# bin_7_2
3.241974084304852243e-08
2.845834236708616819e-08
2.431471877241368146e-08
2.027628661878246699e-08
1.658457447012363683e-08
1.337185948557436760e-08
1.064537841472659279e-08
8.334346412361461479e-09
6.387450235268677584e-09
4.819566007898637759e-09
3.634419431020058547e-09
2.749506838592103376e-09
2.080377366689885276e-09
1.587293511265340383e-09
1.222440451305347780e-09
9.502417536908023015e-10
7.442144082555945374e-10
5.853067903783851774e-10
4.603018282993003102e-10
3.603402599683536607e-10
2.795881455391707693e-10
2.141826370611173197e-10
1.614803961269581007e-10
1.195247326326110428e-10
8.670854547964257537e-11
6.159517674644782979e-11
4.284379379194645012e-11
2.920141936231550462e-11
1.953072152497188381e-11
1.284337276506443682e-11
8.322521612253705039e-12
