# bin_5_5
4.850342655075050140e-08
4.419891028896191706e-08
3.920696404850434586e-08
3.384890948353582041e-08
2.848946683152307339e-08
2.346769893802223077e-08
1.901305186556144486e-08
1.520095095020647918e-08
1.197876305238767901e-08
9.258602976551664245e-09
7.014248652252613640e-09
5.266052450247907666e-09
3.965150785380444129e-09
2.985081818046400848e-09
2.251261129878141621e-09
1.713975391253569521e-09
1.314626637442569679e-09
1.016704543343578367e-09
7.907879410113587254e-10
6.165303772833534528e-10
4.798857347486247846e-10
3.713767869727936689e-10
2.846432724207801479e-10
2.153342023720969398e-10
1.603455529333867632e-10
1.172824527097059225e-10
8.414823423915985141e-11
5.918462744149150729e-11
4.080776701134764107e-11
2.760332858249946507e-11
1.834138241203366979e-11
