# bin_15_7
7.527751378714151180e-08
7.115420337288816122e-08
6.557221513188329344e-08
5.880983988128075925e-08
5.129345004335565202e-08
4.354881304314137821e-08
3.611403675415312426e-08
2.940671826805807431e-08
2.361935647124477075e-08
1.871766646337616527e-08
1.455336130694184765e-08
1.105192746503412791e-08
8.266177012396705579e-09
6.188898122016393675e-09
4.630052917710757732e-09
3.450685044651093517e-09
2.593858604491461214e-09
1.960441889265712853e-09
1.494500699965960044e-09
1.147050217498658800e-09
8.844027873053537785e-10
6.827303714630211899e-10
5.256762346266796042e-10
4.021611910165936112e-10
3.046013982395927152e-10
2.277200572540153437e-10
1.676341377179316871e-10
1.212944686344571938e-10
8.616806143878937818e-11
6.007162647225442130e-11
4.110265316623725226e-11
