# bin_12_4
5.411297978155113246e-08
4.960649393650562241e-08
4.424650224768241205e-08
3.837796576889114697e-08
3.241572674130242612e-08
2.676969567067438738e-08
2.173479887362053478e-08
1.742284482409895761e-08
1.377394312426277059e-08
1.067019821700662419e-08
8.080974983975183853e-09
6.058687441358743897e-09
4.560465282454561414e-09
3.426007836929559059e-09
2.577306271063588207e-09
1.957410968281594879e-09
1.497903187664152080e-09
1.156374254229415127e-09
8.985873988531776644e-10
7.005836881908098705e-10
5.458278390664729742e-10
4.231688142754248273e-10
3.251472070886177264e-10
2.467109078773754900e-10
1.843153438477678938e-10
1.352748624365954824e-10
9.738265996572121029e-11
6.870754863467837224e-11
4.750622745207411435e-11
3.221080636737723549e-11
2.144441295152328742e-11
