# bin_14_5
6.288840830525616684e-08
5.844162025744397736e-08
5.287870810778802572e-08
4.652838608279081552e-08
3.982581989068770909e-08
3.324874200912633593e-08
2.721070019679125556e-08
2.194656024623645149e-08
1.748067845349643991e-08
1.369113115709350348e-08
1.047749438737724425e-08
7.867687070639168795e-09
5.897395648791538945e-09
4.431860705208781807e-09
3.315014650134985066e-09
2.498195429839590269e-09
1.895662126632697677e-09
1.451207597922692907e-09
1.119277512120943780e-09
8.679036961108703623e-10
6.742241164641409133e-10
5.226180371954577364e-10
4.025826572048857583e-10
3.070109106046337467e-10
2.310239210260986364e-10
1.710906313636840020e-10
1.244540815894355833e-10
8.880951712507021319e-11
6.213443207474459164e-11
4.262727739547120332e-11
2.869895487585475242e-11
