# bin_15_15
9.761916126111059547e-08
9.452306713454840132e-08
8.943803704546733740e-08
8.251735566490982669e-08
7.410962525003774296e-08
6.474489863301845519e-08
5.507350769008000434e-08
4.575484274778064837e-08
3.730678901277520243e-08
2.997930030179481128e-08
2.375443143581765244e-08
1.847342119747858936e-08
1.404010141464443490e-08
1.048934511193403710e-08
7.812570128023759636e-09
5.813000813053259894e-09
4.301386538470717649e-09
3.198478628517238426e-09
2.389571818985689514e-09
1.797767677866009358e-09
1.361028498824580631e-09
1.035539571228402988e-09
7.896964777873074821e-10
6.016228784122951027e-10
4.563180107126790239e-10
3.434203403447272141e-10
2.557029403816394443e-10
1.879200235505081648e-10
1.360663375615458538e-10
9.694829708235406733e-11
6.792958579041429981e-11
