# bin_11_3
4.480972257213796606e-08
4.037783896167774556e-08
3.538390809775936613e-08
3.017217316514258524e-08
2.511176810804336266e-08
2.050694663441757158e-08
1.651622492008490581e-08
1.313515975000906619e-08
1.026349000545895497e-08
7.839173367698996379e-09
5.894913489823020470e-09
4.437305658130892716e-09
3.346602008805803551e-09
2.520348134555173237e-09
1.915521934275488275e-09
1.467681751106886134e-09
1.135119720096711578e-09
8.844114133640640633e-10
6.921154046353573701e-10
5.418152054370439146e-10
4.224442899172789131e-10
3.266599519853241722e-10
2.495529437593947959e-10
1.877508095037471701e-10
1.387630070165262204e-10
1.005713880971701680e-10
7.140984335821213653e-11
4.966374575473521346e-11
3.385054328656461418e-11
2.264093346540306883e-11
1.488727218242004221e-11
