# bin_15_6
6.986580898310439963e-08
6.556821839548586896e-08
5.995670323717690818e-08
5.333490492068809013e-08
4.613819642696630206e-08
3.887736788320237825e-08
3.204418268335168251e-08
2.597744145821201507e-08
2.079145028838462426e-08
1.640075446177568139e-08
1.266605876179198118e-08
9.561322612374331442e-09
7.149735900849413262e-09
5.365689179611236252e-09
4.011202908815023552e-09
3.002032599662894768e-09
2.266107462388876931e-09
1.722278977739859854e-09
1.319736695991760288e-09
1.017832443258816681e-09
7.877354655289393740e-10
6.095326538469769194e-10
4.696866446377913658e-10
3.590348264527174297e-10
2.713099551816306883e-10
2.020941947368465713e-10
1.480577718623066980e-10
1.065163373138245142e-10
7.518289576831319577e-11
5.205250763837224677e-11
3.536399271615752791e-11
