# bin_15_11
8.972310449757128922e-08
8.622289181389031378e-08
8.091118721168999020e-08
7.398760153367077482e-08
6.583287486193202931e-08
5.698321562873007116e-08
4.805839325232725914e-08
3.964596248728212396e-08
3.215369691250388937e-08
2.572499013891894598e-08
2.027662805075222307e-08
1.565606954369617851e-08
1.181909316160327661e-08
8.816016228015306555e-09
6.581345126045645549e-09
4.896672312107629275e-09
3.635140017416200035e-09
2.718547283914128255e-09
2.043158882512463275e-09
1.547376544067599843e-09
1.179143754875426601e-09
9.021241620593576476e-10
6.908007539161669420e-10
5.275845119739373701e-10
4.004429887862376102e-10
3.010604949906044433e-10
2.235798048391444958e-10
1.636522555808204684e-10
1.178746333908895831e-10
8.346228446540562561e-11
5.806916363394824337e-11
