# bin_14_7
7.452565999871415030e-08
7.039239042987475079e-08
6.482166121725075330e-08
5.809358293469998019e-08
5.063357076192673340e-08
4.296295669332085080e-08
3.561176017573436012e-08
2.898767115672413611e-08
2.327529656167046895e-08
1.843741971598546853e-08
1.432856997131145303e-08
1.087786084090661924e-08
8.136410986479518997e-09
6.092551453032471903e-09
4.558253066439295462e-09
3.398355675557126931e-09
2.555422346147631059e-09
1.932211384512270898e-09
1.473554008537255805e-09
1.131351835449481913e-09
8.725013011886843243e-10
6.736146646098750618e-10
5.186447973348792390e-10
3.967217088174024895e-10
3.004022720185040667e-10
2.245007362341456331e-10
1.651933521165809451e-10
1.194710329716886552e-10
8.482946820981954122e-11
5.910783961608239127e-11
4.042275059995831052e-11
