# bin_5
0.000000000000000000e+00
1.750164820522857827e-117
8.661126546537749436e-98
1.243459396007517295e-81
3.454171804739953497e-68
6.131542022701216529e-57
1.717549142997313764e-47
1.546762509627915182e-39
7.919978754472467223e-33
3.659586414934385224e-27
2.225936706972887068e-22
2.431982219558393115e-18
6.175120759047819553e-15
4.516841485821262410e-12
1.139532707123813568e-09
1.154104750998950308e-07
5.336670196063697690e-06
1.257292622441041874e-04
1.658031114663826525e-03
1.327380625368238323e-02
6.922513779859969241e-02
2.500920511283662995e-01
6.603099571696913195e-01
1.334088731180787635e+00
2.143497416984379900e+00
2.825015954249795680e+00
3.128401433411667654e+00
2.964877949453926576e+00
2.439602105119991204e+00
1.763839062910306676e+00
1.132596161564495052e+00
6.524337282087797618e-01
3.404389994978419542e-01
1.624134053923716736e-01
7.147279435738576603e-02
2.925779825817971178e-02
1.122888320473535394e-02
4.069976183384425156e-03
1.402573883844699092e-03
4.623951538710491965e-04
1.466548609363446448e-04
4.497772258739467710e-05
1.340088144610672755e-05
3.895216771331431659e-06
1.108780075290316851e-06
3.101475569458628818e-07
8.551625382028277410e-08
2.330784588301520419e-08
6.295414852647261862e-09
1.688891737190644669e-09
4.509434816449861553e-10
1.200558356422302685e-10
3.192288711882919048e-11
8.490282909304653914e-12
2.261622544705705279e-12
6.041053106115875136e-13
1.619801482562968753e-13
4.363954070906065579e-14
1.182321706220018690e-14
3.223707212866164566e-15
8.851778519801710453e-16
2.449163600123741792e-16
6.831946826939370746e-17
1.922252112750077908e-17
5.457457670826741635e-18
1.564001128724459958e-18
4.525666327120923950e-19
1.322636307604317413e-19
3.904880187161978603e-20
1.164839539905605551e-20
3.511426870258825923e-21
1.935619031396280815e-21
