# bin_8_8
1.120849826667901942e-08
1.258496177257344632e-08
1.387690622406098399e-08
1.496035790353309310e-08
1.567681126572456670e-08
1.586629909027977645e-08
1.535123796065195071e-08
1.402504864905162880e-08
1.211651508694546984e-08
9.987498740671242039e-09
8.220670630337398721e-09
7.055093094487270566e-09
5.972379885557221340e-09
4.396039326033831673e-09
3.134851474431391332e-09
2.522243192541912489e-09
1.692206168839421750e-09
1.271167922140710446e-09
8.773067325599698868e-10
6.105470813036597503e-10
4.283178843712487083e-10
3.011677021971207431e-10
2.138094581175963063e-10
1.538793458946641970e-10
1.129549464648140412e-10
8.449344388997504729e-11
6.426596606627700563e-11
4.948695657257810588e-11
3.831766625645446942e-11
2.961818983604214521e-11
2.269652240426356239e-11
