# bin_5_2
2.116040111967275897e-12
2.288160037502454721e-12
2.408470394942168162e-12
2.451420230814576247e-12
2.392657238947711521e-12
2.209044112540596471e-12
1.928666612484553537e-12
1.600652036056880039e-12
1.312888336902802580e-12
1.116043388175068939e-12
9.537563235027791263e-13
7.268682210322500703e-13
5.129807875690496402e-13
4.103024948819372492e-13
2.882887203951233927e-13
2.145931540576438183e-13
1.512869813827693331e-13
1.095109827543021886e-13
7.943287240619473779e-14
5.820381834142736916e-14
4.334228221989565332e-14
3.282829633850972624e-14
2.530198749581912756e-14
1.975460053445015160e-14
1.552713384377801228e-14
1.220444353832937811e-14
9.525339118058553007e-15
7.335596260827856868e-15
5.544522022192392807e-15
4.095800577585609856e-15
2.948731619614350948e-15
