# bin_2_10
4.727054399836366251e-07
4.896304490344364009e-07
4.890106938930428591e-07
4.659405420920813845e-07
4.203554101569973047e-07
3.597189963133240570e-07
2.972113314456433663e-07
2.469966738673446151e-07
2.102576310521675555e-07
1.723229386329544894e-07
1.277686643969567857e-07
9.469221671605792463e-08
7.269034975612429560e-08
5.229077742023621933e-08
3.847757820713077008e-08
2.794578396954723478e-08
2.051835250875803979e-08
1.523071923893306112e-08
1.148868562552406752e-08
8.820679032872640902e-09
6.880693572900906824e-09
5.431875019710503957e-09
4.311109021177632422e-09
3.415480912312963667e-09
2.682605067334493880e-09
2.075697820483703361e-09
1.573951566220639794e-09
1.165073449412789708e-09
8.399250337297394959e-10
5.895121489454423542e-10
4.033430072317842898e-10
