# bin_7_10
7.046302095247430197e-08
7.885615456530052883e-08
8.660390115248075094e-08
9.290439064504389334e-08
9.674699631246192906e-08
9.721653480074285472e-08
9.310500118379540537e-08
8.419657408545727251e-08
7.199830530432604900e-08
5.913115450054648168e-08
4.897023828625933487e-08
4.221381735272784035e-08
3.508013074949628501e-08
2.522182455428663054e-08
1.853938247235242037e-08
1.455842433936175505e-08
9.870680284059660672e-09
7.284511011463292281e-09
5.113926544217788394e-09
3.566837796584858470e-09
2.507061502608941184e-09
1.773451361479306410e-09
1.270054007860698195e-09
9.238787084750549669e-10
6.854519725019367337e-10
5.177058555697767981e-10
3.967975836730698041e-10
3.069674575005258511e-10
2.379983434091127117e-10
1.836187791334492626e-10
1.400649147740872610e-10
