# bin_1_7
6.665650233659708196e-07
6.520424169237043414e-07
6.074774886933597606e-07
5.371656370324194324e-07
4.541708985699592834e-07
3.762507516771554293e-07
3.149298231483931527e-07
2.639190350548128688e-07
2.093390296149029248e-07
1.555663847347494076e-07
1.168441055820934103e-07
8.802318453388457471e-08
6.423538945890991810e-08
4.738358324685580674e-08
3.495306974685545333e-08
2.610908556203838202e-08
1.980174969904412880e-08
1.528616400961820936e-08
1.199549073211044178e-08
9.528717310302014770e-09
7.615493742909622948e-09
6.079240504901201407e-09
4.813048463482661375e-09
3.755449954926204528e-09
2.872541340355175082e-09
2.145444153365651156e-09
1.561080857993035519e-09
1.105981337860260889e-09
7.637723403055620916e-10
5.153237590908218358e-10
3.407144759363427950e-10
