# bin_3_9
2.970341446075387268e-07
3.170867716752541648e-07
3.285000092660764907e-07
3.280920641422951207e-07
3.122083675867628770e-07
2.809522751355771838e-07
2.395081371172653294e-07
1.971218044450805430e-07
1.639115980908528497e-07
1.404014506106755557e-07
1.149576590567242579e-07
8.371496799372816630e-08
6.235663966012984129e-08
4.799327320665990847e-08
3.395176614863848978e-08
2.499848070593184712e-08
1.798550959570843038e-08
1.304712736995276041e-08
9.565912453386420001e-09
7.115394645732757620e-09
5.384884854479420847e-09
4.144401027518462005e-09
3.235799743695351231e-09
2.547474548016838923e-09
2.008690696836797060e-09
1.575445819903190053e-09
1.220968863112581654e-09
9.297773910016665295e-10
6.925875640582478346e-10
5.030607464765858711e-10
3.558208605887438600e-10
