# bin_10_2
1.245388752891671025e-24
1.395570980884257033e-24
1.535151693242791550e-24
1.650101930363058693e-24
1.722637691891133556e-24
1.736045553735971071e-24
1.669172313717007713e-24
1.514945753897368973e-24
1.300048796214938329e-24
1.068373613709969681e-24
8.822624901821241463e-25
7.601517492846618660e-25
6.370889505634807110e-25
4.606755049458365360e-25
3.344286480503495966e-25
2.664295535294342639e-25
1.785101504488574280e-25
1.333816260414263869e-25
9.313055624950351077e-26
6.476262106401307489e-26
4.547701622554293169e-26
3.208067246473996419e-26
2.290190112593279419e-26
1.659765141509037128e-26
1.227075112821961509e-26
9.239490051343299006e-27
7.065841768194180721e-27
5.460283198672352069e-27
4.233872567263780332e-27
3.270328012516823711e-27
2.499691482630662083e-27
