# bin_2_9
4.536144618846519893e-07
4.697723140258148447e-07
4.690739548626851109e-07
4.468179050493073205e-07
4.029844061123417359e-07
3.447634511821632726e-07
2.848282870938998193e-07
2.367373960693741074e-07
2.015320262010238372e-07
1.650966057192240755e-07
1.223577797921406944e-07
9.071769102077248665e-08
6.962305173680611512e-08
5.008052560852812415e-08
3.685340105733658462e-08
2.676785837630310160e-08
1.965516043590050331e-08
1.459216287082318901e-08
1.100891116465336573e-08
8.453777621334148739e-09
6.595491686783510071e-09
5.207300548516485246e-09
4.133100033952745894e-09
3.274450177977141780e-09
2.571694095758182976e-09
1.989672302882530590e-09
1.508502808122918966e-09
1.116433018242607899e-09
8.047070064768196267e-10
5.646875753235745407e-10
3.862906968912805499e-10
