# bin_3_10
3.159268557839934440e-07
3.373105357948329299e-07
3.495229273563027672e-07
3.491765399236018132e-07
3.323823781954862701e-07
2.992085468414268169e-07
2.551511439494759926e-07
2.100172060655347009e-07
1.746014738787696685e-07
1.495487427020211996e-07
1.225214436140730602e-07
8.927220867010120499e-08
6.645073113887550611e-08
5.117145536622827196e-08
3.619569265725264429e-08
2.665385685440849862e-08
1.917271799577665250e-08
1.390737368907588397e-08
1.019493287237865405e-08
7.581660736268780209e-09
5.736473651071305256e-09
4.414051587192845052e-09
3.445750618961997403e-09
2.712477984215440431e-09
2.138717976802696225e-09
1.677484319769115169e-09
1.300175687053454427e-09
9.902458693793378223e-10
7.377767547493285294e-10
5.360071008108496879e-10
3.792161941710680046e-10
