# bin_1_8
6.949273683580826204e-07
6.800658404106731496e-07
6.338867234226008224e-07
5.607763431660242199e-07
4.742875226440601939e-07
3.929249568988225853e-07
3.288372891796857424e-07
2.756354676186476848e-07
2.187878064745151605e-07
1.626308878000640266e-07
1.221117618904576614e-07
9.202066994262779293e-08
6.715191474705523686e-08
4.953116874040609983e-08
3.653242442872913621e-08
2.728351549788043313e-08
2.068731396976951924e-08
1.596568917691426494e-08
1.252590348989629634e-08
9.948402043977469111e-09
7.950240589874873197e-09
6.346480011711204282e-09
5.025057503735046835e-09
3.921496366231931659e-09
3.000206268174310286e-09
2.241378383965786120e-09
1.631343640283497291e-09
1.156084446312382688e-09
7.985807106272790853e-10
5.389328537841332346e-10
3.563928091958214740e-10
