# bin_8_4
1.742831726713982795e-13
1.941410980461062673e-13
2.120089117910625191e-13
2.258303098668278495e-13
2.330701971327703078e-13
2.317237624573326439e-13
2.186640886101877173e-13
1.949042344785678224e-13
1.642862173783301857e-13
1.344291730749623645e-13
1.124967873177474846e-13
9.732640072105647235e-14
7.834996033303866810e-14
5.475698473122251679e-14
4.223317966973533139e-14
3.157684103785007357e-14
2.214804882265610735e-14
1.572822117398737593e-14
1.129125658021519594e-14
7.935759552328564627e-15
5.604269908564662718e-15
4.006858394448167426e-15
2.906710609152722901e-15
2.146643518710144053e-15
1.615785745006288355e-15
1.235655582572996113e-15
9.559041532877078410e-16
7.431845030720911548e-16
5.765081749961751166e-16
4.431758913132082544e-16
3.356788483619599358e-16
