# bin_5_5
1.977004745513247745e-08
2.167141586194692030e-08
2.320170646952946771e-08
2.410878419271776498e-08
2.416753125651155128e-08
2.307851029993458868e-08
2.081646362004527769e-08
1.775955632276932829e-08
1.457926988002284480e-08
1.209097842757867173e-08
1.041613600470569396e-08
8.609314245810108131e-09
6.187128078074472471e-09
4.585393168303222070e-09
3.580590384266346525e-09
2.464183759883810761e-09
1.822752848943583875e-09
1.298645112812838623e-09
9.239641746752077076e-10
6.648206848576437022e-10
4.839439357754400919e-10
3.579582371611158688e-10
2.694168510955821253e-10
2.063953625963057446e-10
1.601813280692053685e-10
1.252179957221199321e-10
9.793803120599797785e-11
7.609951147855989857e-11
5.837935262474281139e-11
4.398617543174604531e-11
3.241868399473940195e-11
