# bin_2_15
5.266396082809182291e-07
5.464325319449236181e-07
5.469041834755098312e-07
5.225041804135613972e-07
4.726866846197291888e-07
4.054667838960545761e-07
3.352560435467907288e-07
2.782534270683299732e-07
2.368251415485321972e-07
1.949481380867116403e-07
1.450640742638834383e-07
1.071155970976648427e-07
8.243554257023670573e-08
5.931484912350028256e-08
4.363379561741453403e-08
3.166805765434960560e-08
2.323301646265073131e-08
1.722221743331543382e-08
1.297041515535761623e-08
9.942692591689984461e-09
7.745233736761515373e-09
6.108368506274069829e-09
4.845732795814848298e-09
3.839226193991267195e-09
3.017083266894546407e-09
2.336826624292480414e-09
1.774362690921572520e-09
1.315536187270550658e-09
9.500373812442772044e-10
6.679309299692264979e-10
4.577094716866237825e-10
