# bin_14_10
8.588908097838374403e-08
8.221732026204123307e-08
7.682503351274747905e-08
6.993267473733872983e-08
6.193368310494370827e-08
5.336304299303100658e-08
4.482093830870478553e-08
3.685468186911593895e-08
2.981680391895895013e-08
2.380332619707554551e-08
1.870801901024213109e-08
1.439101372323968632e-08
1.083347955011903456e-08
8.081972417524658693e-09
6.039569468323383043e-09
4.493228228703117674e-09
3.344198487818493720e-09
2.507222418752067329e-09
1.890724806885115730e-09
1.436484461312215544e-09
1.097956090431067966e-09
8.420837443477107905e-10
6.459171961877157549e-10
4.937177141574524217e-10
3.747162699045502380e-10
2.814675885925716037e-10
2.086853276564443069e-10
1.523971778702274832e-10
1.094532935606275943e-10
7.724313909019875213e-11
5.354721980136092819e-11
