# bin_11_6
6.610237213135955497e-08
6.178979688919795676e-08
5.627256893918175917e-08
4.985919793107760429e-08
4.297482307346423210e-08
3.610233352655043968e-08
2.968869300401347051e-08
2.402507138625611420e-08
1.919320273736193705e-08
1.510319183965225385e-08
1.163472355381511582e-08
8.773388465976850386e-09
6.565196858573118516e-09
4.929437978883430236e-09
3.687816210907119824e-09
2.765927011928909811e-09
2.091915707271773948e-09
1.593568652370058873e-09
1.223593032509716193e-09
9.451928933130326519e-10
7.322420647895151489e-10
5.667597403986362198e-10
4.365491005070275732e-10
3.333499466638841985e-10
2.514941095616513345e-10
1.869474895531689981e-10
1.366330167348054829e-10
9.804059304583699034e-11
6.901305614431651731e-11
4.765220010522698510e-11
3.229115303513941992e-11
