# bin_14_5
6.275268745600514592e-08
5.830302589348385760e-08
5.274097662409729795e-08
4.639579558350231450e-08
3.970273375162054796e-08
3.313898980748285106e-08
2.711654401161282248e-08
2.186816608037387539e-08
1.741621788826917624e-08
1.363809895279564254e-08
1.043449499217069079e-08
7.834528183706613688e-09
5.872948838736963316e-09
4.413491123676828010e-09
3.301396142386834583e-09
2.488359414820919799e-09
1.888482454011038528e-09
1.445997753600848601e-09
1.115482372553065218e-09
8.651192133232750420e-10
6.721649186496304210e-10
5.210831401379793632e-10
4.014303940871157523e-10
3.061427212374286523e-10
2.303701428154136772e-10
1.706005075966359920e-10
1.240898373265892954e-10
8.854221610066269618e-11
6.194136104810804763e-11
4.249037999825055152e-11
2.860384702175383979e-11
