# bin_8_7
6.522040268107915538e-08
6.096296441056435035e-08
5.553081780262621993e-08
4.922635520324871639e-08
4.246313525126920813e-08
3.570785773737837993e-08
2.939089257392739989e-08
2.379720807540620955e-08
1.901360910567979616e-08
1.496602920375248088e-08
1.154357830121535852e-08
8.720859141686818042e-09
6.528393746107708648e-09
4.898697635320955549e-09
3.668466461540106280e-09
2.749940611415935663e-09
2.079205498876454751e-09
1.582529424351858843e-09
1.214165259165975021e-09
9.370286238678108009e-10
7.252437391988085574e-10
5.608794484507034939e-10
4.317274107791645964e-10
3.295129141849587708e-10
2.485402806816725720e-10
1.847543029314863789e-10
1.350680547648293985e-10
9.697100029988831897e-11
6.831542736656994140e-11
4.721966965122892006e-11
3.203738561407691741e-11
