# bin_7_5
5.428360062122662578e-08
4.991790934145092370e-08
4.469223030628233060e-08
3.893138734827132807e-08
3.302906852398699483e-08
2.738074951088300690e-08
2.229017992799186722e-08
1.789641470788613325e-08
1.417674255330171125e-08
1.102851630295752011e-08
8.395651596920941919e-09
6.302624309772825873e-09
4.735052498926355208e-09
3.561682938508775661e-09
2.674961794247545920e-09
2.026576900125323746e-09
1.546308024755852265e-09
1.190128442265448123e-09
9.220358287851912686e-10
7.170822835508816343e-10
5.577137954481773957e-10
4.320103507384175651e-10
3.319685149138675383e-10
2.521465765930777885e-10
1.887396906242912006e-10
1.389049692374839406e-10
1.003461069303002651e-10
7.108899146737339842e-11
4.937562701828442435e-11
3.363710975440953839e-11
2.249946841581510194e-11
