# bin_13_13
9.130156306461996710e-08
8.789032432238657523e-08
8.263324955624681387e-08
7.572001062731945868e-08
6.752385627506235264e-08
5.857840499465999682e-08
4.950817557862358708e-08
4.091388649706704602e-08
3.322591270678976267e-08
2.661080087106478567e-08
2.100146948931799441e-08
1.624558156067698279e-08
1.228650996401639638e-08
9.168509558909268805e-09
6.839809369830696462e-09
5.089859040821953144e-09
3.775352433923837182e-09
2.819507853423623269e-09
2.115843557345831507e-09
1.599885673143675815e-09
1.217209414058581358e-09
9.299942288330452678e-10
7.114358229221518614e-10
5.430277071960146493e-10
4.121051510813438410e-10
3.099170558041230698e-10
2.303141741153720464e-10
1.687577946399112390e-10
1.217179430019879242e-10
8.632475222038771660e-11
6.017245582999248319e-11
