# bin_8_6
6.134898419680104828e-08
5.702548138330079907e-08
5.163608282304312092e-08
4.549436397518303364e-08
3.901116210532230980e-08
3.263269203151592499e-08
2.674857031993875242e-08
2.159057771661768855e-08
1.720137318463386561e-08
1.348768599072893379e-08
1.035336375059823963e-08
7.796664372827539562e-09
5.840783483234071013e-09
4.388501433312560418e-09
3.287210514343336243e-09
2.473076800369656384e-09
1.875637181945589390e-09
1.433409460001496359e-09
1.103658795633613319e-09
8.543099905318752486e-10
6.625934849151336458e-10
5.129126401089833348e-10
3.947182554313512076e-10
3.008537680763628883e-10
2.263789936774413842e-10
1.677258836165171819e-10
1.221231204858732567e-10
8.727172703872560547e-11
6.117327114944354350e-11
4.206165121099182609e-11
2.838816162146764092e-11
