# bin_6_2
3.148664632896836208e-08
2.759634087075934292e-08
2.354625217530931272e-08
1.961422821806888972e-08
1.602984850002017158e-08
1.291533410829807652e-08
1.027344997230438001e-08
8.035498643018706262e-09
6.154089690986541774e-09
4.643296329509766727e-09
3.502667154843266754e-09
2.650543002804965688e-09
2.006670120500327820e-09
1.532245315652810602e-09
1.180918751590020332e-09
9.185766524118230369e-10
7.197471454190224231e-10
5.661759694744748281e-10
4.452171328906846774e-10
3.484040990718619631e-10
2.701621433059558883e-10
2.067944979534991010e-10
1.557612457519068683e-10
1.151702653853496292e-10
8.345794302589423984e-11
5.922121854075282912e-11
4.114949729399922992e-11
2.801972443452194968e-11
1.872450141768212139e-11
1.230431808296746618e-11
7.968469391668587928e-12
