# bin_14_2
3.545030500535276953e-08
3.125654624176320183e-08
2.680797469655297736e-08
2.242328797457421911e-08
1.838288142196350657e-08
1.485152965881030173e-08
1.185065841634746788e-08
9.302454276512575835e-09
7.142962219948402000e-09
5.389983456835760504e-09
4.060745367463509708e-09
3.069661549769472212e-09
2.318740844671242585e-09
1.765295852828596232e-09
1.356676826365405049e-09
1.052599811713901940e-09
8.232951086039189654e-10
6.471316628484800564e-10
5.090440165615229500e-10
3.989024799499729151e-10
3.100347510110244278e-10
2.380413622824315505e-10
1.799447169582352148e-10
1.335792504169597869e-10
9.719711124500991899e-11
6.925277410166384988e-11
4.830735186386899523e-11
3.301086062587566692e-11
2.212900510056383631e-11
1.458018630181934557e-11
9.463003072871757710e-12
