# bin_9_2
3.371096561932589598e-08
2.965035616613976052e-08
2.537663999480262958e-08
2.119058758571462575e-08
1.735029525061548408e-08
1.400186243137799578e-08
1.115852491655650961e-08
8.746468742330980968e-09
6.709008769947260492e-09
5.062309507191345613e-09
3.815840524190862771e-09
2.885737371394186942e-09
2.181793396936536207e-09
1.663025507832422681e-09
1.279548529626469077e-09
9.937862782006246158e-10
7.778551100131771656e-10
6.116058544510359642e-10
4.810348247099270222e-10
3.767421999690698682e-10
2.925373456183264171e-10
2.243291691977551233e-10
1.693321439260698233e-10
1.255006991319358271e-10
9.116782905995773506e-11
6.485052239149888914e-11
4.516618696121065776e-11
3.082053641060854228e-11
2.063495988028752132e-11
1.358143391458738710e-11
8.807134141354582714e-12
