# bin_11_3
4.479065440784242945e-08
4.035913293177018286e-08
3.536615659501252521e-08
3.015593371922606224e-08
2.509747023832232553e-08
2.049479418035211437e-08
1.650615055016207104e-08
1.312689105054281067e-08
1.025672203478464165e-08
7.833742180844599456e-09
5.890751568495400978e-09
4.434202313641775974e-09
3.344239825965673363e-09
2.518576232437615404e-09
1.914198426891573238e-09
1.466682775748432192e-09
1.134359909909312893e-09
8.838269202013959050e-10
6.916606306822958774e-10
5.414582567885007537e-10
4.221627568779065659e-10
3.264378383699727802e-10
2.493786322176779625e-10
1.876154025386404881e-10
1.386593080405027473e-10
1.004933576769100575e-10
7.135228906960452236e-11
4.962218913576962836e-11
3.382118670981004149e-11
2.262063898872547237e-11
1.487353037122517677e-11
