# bin_5_2
3.027629527470834637e-08
2.647865983701621245e-08
2.255025685396013057e-08
1.875646113464628368e-08
1.531133490006778891e-08
1.232410594577954905e-08
9.791841540304401850e-09
7.648628368963090082e-09
5.852133690237331179e-09
4.415292764601142373e-09
3.332255731261681665e-09
2.522563395508141962e-09
1.911377831625270649e-09
1.461082058118284212e-09
1.127249946790246810e-09
8.776517816157259272e-10
6.881280389143341692e-10
5.414555633036008382e-10
4.257271436048617075e-10
3.329840845277741909e-10
2.579868049145717749e-10
1.972531064305915953e-10
1.483767186159545254e-10
1.095490185704480885e-10
7.926265246875915486e-11
5.615806508183963177e-11
3.896383877481011419e-11
2.649567889866197944e-11
1.768493668623147902e-11
1.160938310882056466e-11
7.512115025355781831e-12
