# bin_13
0.000000000000000000e+00
0.000000000000000000e+00
0.000000000000000000e+00
0.000000000000000000e+00
0.000000000000000000e+00
0.000000000000000000e+00
0.000000000000000000e+00
1.184407959850082938e-304
1.364251190476597068e-271
1.465172783847725579e-242
5.564046626900754477e-217
2.262663031803530800e-194
2.489328679752761129e-174
1.615728926363227912e-156
1.196215952928451175e-140
1.769029390623266881e-126
8.431075478284546360e-114
1.951514527750931451e-102
3.122796432911244679e-92
4.687230997113635262e-83
8.598550369779746364e-75
2.427153783718731968e-67
1.289042256456243707e-60
1.536110160750817447e-54
4.794536236912307434e-49
4.491752353274249707e-44
1.424593519069226847e-39
1.701544015146856930e-35
8.412778605440723847e-32
1.872890981335992201e-28
2.023641962248849587e-25
1.134761571639863412e-22
3.506552352499419183e-20
6.301362001182203882e-18
6.911549333532288970e-16
4.833048068847023566e-14
2.240978133677330348e-12
7.139168054431661094e-11
1.613661345760012185e-09
2.664349457694488608e-08
3.299744790788334402e-07
3.140040216378021263e-06
2.346800887149151979e-05
1.405340264218012363e-04
6.866993929592567474e-04
2.783905710165562788e-03
9.506813944332193414e-03
2.772794596931328626e-02
6.994851147281169745e-02
1.543837399852726056e-01
3.012442600583616903e-01
5.246226006747305437e-01
8.224781105158024408e-01
1.169891810249659603e+00
1.520537225043973484e+00
1.817559186714995612e+00
2.009951311174101640e+00
2.067459567398473030e+00
1.987931719994809443e+00
1.795020006607229490e+00
1.528560029372202811e+00
1.232398756129663209e+00
9.442085672832162269e-01
6.897932065409104752e-01
4.820525182485912441e-01
3.232187462442331349e-01
2.085195922050996353e-01
1.297752518147236023e-01
7.811033898218773530e-02
4.557311973780131531e-02
2.583114925742684143e-02
1.425303998465851305e-02
7.670797946502732993e-03
4.033972096912352527e-03
2.076477084279862353e-03
1.047903392286048899e-03
5.192435480508392643e-04
2.529840075274971691e-04
1.213573866545126985e-04
5.738978424954626061e-05
2.678608580570114437e-05
1.821640258181318861e-05
