# bin_11_4
5.334405890735980807e-08
4.885700139460503784e-08
4.353939602819168920e-08
3.773414978990065118e-08
3.185050933595779522e-08
2.628948631457136802e-08
2.133647720493896956e-08
1.709671365644491128e-08
1.350921403336957512e-08
1.045960857493336191e-08
7.919584730382020382e-09
5.938496613366144617e-09
4.470575655386067798e-09
3.359009782918844328e-09
2.527993395813208706e-09
1.920727415673700153e-09
1.470489287786174648e-09
1.135635346007299464e-09
8.827080200131592178e-10
6.882896246995185699e-10
5.362337084065207175e-10
4.156562366028659947e-10
3.192748536569909962e-10
2.421529130575682100e-10
1.808187391316808766e-10
1.326340784298099742e-10
9.542515405169588776e-11
6.728637106671726039e-11
4.649681681526560402e-11
3.150953502357224285e-11
2.096751651721592016e-11
