# bin_1_1
1.326780779647501121e-08
1.103715472821109522e-08
9.012795680238829302e-09
7.253175181793011176e-09
5.759584663960853194e-09
4.501688076996005635e-09
3.456430935743230418e-09
2.621523400595476682e-09
1.987026228237368143e-09
1.512823775117271378e-09
1.156235482136725248e-09
8.913363185223086208e-10
6.942319757027048189e-10
5.455128574378031235e-10
4.313945990336201564e-10
3.419591046555444877e-10
2.704731579810286884e-10
2.124886941185925905e-10
1.651155565403609965e-10
1.264498095155123475e-10
9.516443181451079335e-11
7.023327362664398083e-11
5.076421129833206681e-11
3.591818120068906793e-11
2.488667947682214079e-11
1.690418530448071157e-11
1.127536640874779948e-11
7.400801518667722184e-12
4.790843303225982677e-12
3.065451640640416808e-12
1.942790738309332481e-12
