# bin_15_15
9.758295178061475324e-08
9.448579448365895982e-08
8.940033418733475687e-08
8.248006919563012753e-08
7.407368946411843106e-08
6.471126582618015878e-08
5.504300224144261159e-08
4.572813133325180838e-08
3.728414046034895671e-08
2.996057366011632624e-08
2.373913612918151958e-08
1.846098753932100648e-08
1.403015962054395049e-08
1.048174141676654184e-08
7.806950951769360945e-09
5.808801931430184686e-09
4.298285111723576787e-09
3.196238464361152908e-09
2.387941071481995745e-09
1.796587981496089721e-09
1.360173018932337593e-09
1.034916095302952269e-09
7.892396459395692564e-10
6.012862229444580752e-10
4.560684545173117832e-10
3.432345584003867665e-10
2.555642897041030472e-10
1.878164330685567613e-10
1.359890502072242220e-10
9.689088704882634143e-11
6.788728235316564690e-11
