# bin_8_5
5.639729279951695239e-08
5.201308051935501863e-08
4.670601115699370708e-08
4.080165547051539659e-08
3.470364982133806537e-08
2.882747901844730670e-08
2.350388592297861577e-08
1.889567946525323745e-08
1.499210975080868213e-08
1.168599240313423741e-08
8.910132031431317212e-09
6.689556310127583209e-09
5.022348692676161603e-09
3.776785249890689611e-09
2.833153934199553178e-09
2.143059488713823321e-09
1.632525317334742159e-09
1.254486803851376807e-09
9.705900090978992597e-10
7.541529581703911311e-10
5.863067146479812570e-10
4.542138242476825471e-10
3.492501858575803848e-10
2.655590488749356928e-10
1.990675781069284244e-10
1.467608414014471461e-10
1.062272379107640525e-10
7.541010613238094901e-11
5.248577111989019382e-11
3.582791172182572948e-11
2.400973312320633630e-11
