# bin_12_7
7.235443051809791820e-08
6.819216195480877870e-08
6.265371951260837790e-08
5.602440315283267461e-08
4.872685869428207411e-08
4.126968746354545188e-08
3.415969828586356698e-08
2.777600564411810993e-08
2.228040485660882486e-08
1.762703350047506509e-08
1.367839201912903409e-08
1.037419090916142441e-08
7.760836741534182850e-09
5.813709365889675494e-09
4.350406010206977426e-09
3.246845727956424256e-09
2.444136361740299208e-09
1.850470156665777857e-09
1.412903899824365106e-09
1.085902337807489983e-09
8.380496098146116978e-10
6.472322698111141625e-10
4.982991871551980079e-10
3.809859602669171620e-10
2.882572471014520628e-10
2.151911492107537227e-10
1.581358705833073114e-10
1.141987393237956046e-10
8.095879860512903226e-11
5.632052562624444924e-11
3.845598962168583281e-11
