# bin_12_4
5.408991799187286143e-08
4.958342954221618591e-08
4.422412793129688692e-08
3.835699299824238517e-08
3.239679011913527808e-08
2.675323930388913516e-08
2.172095730873293387e-08
1.741143597694479174e-08
1.376458618045085838e-08
1.066256092925373197e-08
8.074931648463634496e-09
6.054141719922621548e-09
4.557066732740750436e-09
3.423423092617982866e-09
2.575396387146370677e-09
1.955983167579585940e-09
1.496835910809919371e-09
1.155567183991172742e-09
8.979714228542897597e-10
7.001088600664078828e-10
5.454589551323461002e-10
4.228810271798642682e-10
3.249227011958729337e-10
2.465367022878800288e-10
1.841814544577820719e-10
1.351733032590297579e-10
9.730685103800482222e-11
6.865196860290613989e-11
4.746625711706922058e-11
3.218263337791334758e-11
2.142495725575058794e-11
