# bin_13_5
6.217214093465908873e-08
5.773168151430383855e-08
5.219638753214888647e-08
4.589470554954709178e-08
3.925841755246541824e-08
3.275849051065447053e-08
2.679936738200091576e-08
2.160788553246845260e-08
1.720435335085714676e-08
1.346832839925228235e-08
1.030310168540458405e-08
7.736466003853550161e-09
5.799936931411773042e-09
4.358874065449948696e-09
3.261286851851081157e-09
2.458605705738589825e-09
1.866322964153874157e-09
1.429278335732401407e-09
1.102708039721559597e-09
8.552327392071718441e-10
6.644353726459148113e-10
5.150054414107059910e-10
3.966497106214166133e-10
3.024009828288535035e-10
2.274706347470925284e-10
1.683854251227828274e-10
1.224271619465340573e-10
8.731893876425382607e-11
6.106053658839384165e-11
4.186998755381432448e-11
2.817626448988171542e-11
