# bin_5_1
2.070270686655600029e-08
1.759815274376544513e-08
1.461934615763946997e-08
1.192605308584728459e-08
9.594097976706451232e-09
7.614876004594367130e-09
5.940309603091848112e-09
4.544888626741963772e-09
3.436535702642880189e-09
2.600205014130767471e-09
1.973935723342473353e-09
1.503213068766470271e-09
1.155326543458992086e-09
8.968615693942548172e-10
7.025984733821166782e-10
5.540769531947465501e-10
4.381506588795243293e-10
3.458515087959142368e-10
2.712484093226455974e-10
2.104789696985627377e-10
1.609967434357375762e-10
1.210341111605857900e-10
8.923497601740133555e-11
6.443258057502722427e-11
4.553993186151977893e-11
3.151634495717976920e-11
2.138001322980594373e-11
1.424121583150424131e-11
9.333990193866940039e-12
6.033310451294770832e-12
3.854697281468234691e-12
