# bin_6_1
7.199727579122167898e-18
7.829126183953179321e-18
8.298672502308720783e-18
8.516621035849999886e-18
8.407078306365366571e-18
7.865838578719918831e-18
6.955892199892243655e-18
5.825948639438683208e-18
4.768175875717961079e-18
4.013628808804385279e-18
3.460065056332499780e-18
2.729611379663910275e-18
1.911239830656713221e-18
1.501471828120539903e-18
1.096004100726646998e-18
7.925004685362741935e-19
5.626440901046256966e-19
4.083936510772607952e-19
2.938201956960524659e-19
2.133985267105255612e-19
1.574530798469239300e-19
1.181622588665268605e-19
9.028311616452590067e-20
7.002744723463460994e-20
5.482400454635075348e-20
4.304617880403121888e-20
3.365798882962210732e-20
2.603352401985736523e-20
1.980611182530120008e-20
1.475343687217868235e-20
1.072341244249888174e-20
