# bin_5_9
1.320586827000469653e-07
1.453610894686735262e-07
1.564287513015684262e-07
1.636039167288219822e-07
1.652533154149987454e-07
1.595157555345070605e-07
1.455100023908001350e-07
1.255379351582251173e-07
1.035521837464825282e-07
8.538118544036010572e-08
7.315252311877488745e-08
6.155823085988539002e-08
4.544111127673863609e-08
3.275097291486462045e-08
2.600192085775347382e-08
1.789766207322986683e-08
1.331951362317887954e-08
9.364228340514865010e-09
6.664754279739468926e-09
4.774354122021717419e-09
3.449981418608536863e-09
2.529663019766158461e-09
1.885921193202350088e-09
1.432342366941275570e-09
1.104164864506303559e-09
8.594446600266961772e-10
6.712243346589969232e-10
5.222323314100215880e-10
4.021361725874258862e-10
3.047578795452158475e-10
2.263091324388812838e-10
