# bin_9_13
6.187578401924342550e-08
6.995864784112363640e-08
7.779100625906553661e-08
8.473634160454128930e-08
8.995088057146051615e-08
9.242077016083802104e-08
9.134137944428639201e-08
8.552341562464156259e-08
7.566778715165575137e-08
6.336468441339145584e-08
5.185494923497534082e-08
4.369843330317332234e-08
3.775606073441537404e-08
2.973877021194651167e-08
2.064886646075666637e-08
1.626870392340667507e-08
1.170411574916732835e-08
8.389112501379162543e-09
5.775559068222137868e-09
4.091209558147784290e-09
2.831891571050151276e-09
1.956374143948812772e-09
1.361164168251794356e-09
9.559468373481813563e-10
6.822401366793307008e-10
4.963889979166320666e-10
3.682379305434027004e-10
2.782091395473815120e-10
2.130392468171200150e-10
1.642682281858711833e-10
1.265945449881603369e-10
