# bin_5_5
1.956551676068888275e-08
2.143609114887982137e-08
2.293496455083661479e-08
2.381220315079223337e-08
2.384730371398712546e-08
2.274200927731920134e-08
2.048514020065265823e-08
1.745339962262069894e-08
1.432166007186666256e-08
1.188757634525562462e-08
1.024586627578295080e-08
8.446522046266416224e-09
6.052476516730309284e-09
4.503542140897597631e-09
3.504791133239069004e-09
2.415806372167557225e-09
1.782982040685638396e-09
1.272620386642322908e-09
9.055917811228052868e-10
6.517516646535484509e-10
4.747152136619303852e-10
3.513960961706008488e-10
2.646989847478583952e-10
2.029277789841855294e-10
1.575747007115263945e-10
1.232186192017868586e-10
9.637897661640466349e-11
7.487336064329675644e-11
5.741497787393534480e-11
4.323400182363630350e-11
3.184084200006404006e-11
