# bin_1_7
6.394718221283412012e-07
6.286954910217230733e-07
5.890155885396365374e-07
5.235448371616398912e-07
4.441126027277807535e-07
3.678282319725638859e-07
3.074171749468369353e-07
2.585311272688029261e-07
2.066915760914096841e-07
1.538064828415242113e-07
1.151913340657526890e-07
8.710611469325561374e-08
6.349996457337165795e-08
4.681452618377938904e-08
3.446872669958347788e-08
2.568599952633238559e-08
1.942300002813959714e-08
1.494846375853321241e-08
1.169976520426348754e-08
9.276368143257676180e-09
7.407301991532623633e-09
5.914050964697959467e-09
4.687641734252594062e-09
3.664917285556508504e-09
2.810774196794592303e-09
2.105821333351188252e-09
1.537259786459601030e-09
1.092573786652116763e-09
7.567030144411780494e-10
5.118363188545134718e-10
3.391149500496241744e-10
