# bin_5_2
2.541879480132432921e-12
2.748092124426296801e-12
2.891864046715173774e-12
2.942562982797542480e-12
2.870844250778319546e-12
2.649230210043994671e-12
2.311874935911359189e-12
1.918017838030179862e-12
1.573332284544621632e-12
1.337956822711266239e-12
1.143039480888893302e-12
8.699279537109838940e-13
6.141090884541670475e-13
4.915443248726731711e-13
3.448016052489175109e-13
2.569493184559149176e-13
1.810702180302308953e-13
1.310290790753255067e-13
9.505053309005499285e-14
6.965315839845355285e-14
5.187138875066130682e-14
3.929057468831569176e-14
3.028465355893722106e-14
2.364572503910542726e-14
1.858575605347591522e-14
1.460826181260593191e-14
1.140088436660645527e-14
8.779300792604854551e-15
6.635073824216954634e-15
4.900838066354334279e-15
3.527864332611646801e-15
