# bin_1_4
4.927526646625398447e-07
4.830876230112756761e-07
4.510944849610109824e-07
3.996323198755777794e-07
3.381632518060974787e-07
2.799735124046479870e-07
2.342641513235035921e-07
1.967845660174751753e-07
1.565321119788617081e-07
1.161877825642498178e-07
8.723901851828280131e-08
6.582634721571700218e-08
4.797500989638992503e-08
3.539245396139926864e-08
2.608036919612534490e-08
1.946117690811358286e-08
1.474189366788735617e-08
1.136669043310060900e-08
8.911162389723523321e-09
7.074256186681030557e-09
5.652781628478293334e-09
4.513524213482858321e-09
3.575660267913612887e-09
2.792579007494712105e-09
2.138522991274328867e-09
1.599249540198241953e-09
1.165126631842047026e-09
8.264174986589761922e-10
5.712822756428739334e-10
3.857676301848737729e-10
2.552249874417192438e-10
