# bin_1_3
3.999864589599493605e-07
3.910325644098327737e-07
3.639096783053790191e-07
3.213146754725418683e-07
2.712093239225150018e-07
2.244604921945883207e-07
1.880405879134029750e-07
1.577661724309767162e-07
1.248387243947462602e-07
9.242540831150729156e-08
6.958391901970584457e-08
5.238353182016676332e-08
3.816956183528346143e-08
2.817787872906924958e-08
2.078205699687948302e-08
1.552908745904434505e-08
1.178473139383041191e-08
9.103781498214396471e-09
7.149187505938077565e-09
5.682730095126575580e-09
4.544014657146166072e-09
3.628427882433377713e-09
2.872910668314447081e-09
2.241290369331959027e-09
1.713703356990896701e-09
1.279152320954165728e-09
9.300020830661285283e-10
6.582707727251657186e-10
4.541547622195733093e-10
3.061411499714112361e-10
2.022447464645810060e-10
