# bin_11_10
2.567639772388795913e-09
2.915194135791393942e-09
3.258368842210474328e-09
3.571811306361831507e-09
3.821570351616677126e-09
3.965050552117594613e-09
3.967001378534025847e-09
3.773649140845589090e-09
3.388702522489593768e-09
2.876281617058811781e-09
2.355919012761323482e-09
1.960621640206256311e-09
1.697217299069542192e-09
1.391424377865750573e-09
9.792481002377806345e-10
7.371325769153876948e-10
5.659224283202128095e-10
3.843764593195181826e-10
2.762694403281781753e-10
1.943935881274065103e-10
1.330814420216776246e-10
9.102570831532791738e-11
6.248555370051335379e-11
4.322952847277803354e-11
3.026253284984164734e-11
2.157136419931435642e-11
1.567888087669733790e-11
1.163426391694314733e-11
8.791639767328988885e-12
6.730685053456585266e-12
5.183533254862570815e-12
