# bin_3_9
2.910573310307364631e-07
3.107551529853981626e-07
3.219988515879023406e-07
3.216742495644431707e-07
3.061808922455069006e-07
2.755888787523462057e-07
2.349684651718531476e-07
1.933692085664109081e-07
1.607617373569562468e-07
1.377340682211724153e-07
1.128429101511364373e-07
8.215027290945584607e-08
6.116688939731404086e-08
4.711491265686926661e-08
3.330138003305167252e-08
2.452858513255456244e-08
1.764222588170276250e-08
1.279363596938930798e-08
9.377062847914816187e-09
6.972322190608200888e-09
5.274610781103671944e-09
4.058118018610235564e-09
3.167607931080113900e-09
2.493395947723375247e-09
1.965962660675244452e-09
1.542037269939019853e-09
1.195275201988031359e-09
9.104385958410163024e-10
6.783937573105693426e-10
4.929211493852314529e-10
3.487688020296391685e-10
