# bin_6_4
2.535135051732650633e-10
2.789768681799331645e-10
3.001155346771181203e-10
3.137361079090727877e-10
3.167286422971244450e-10
3.054348032899139955e-10
2.781788742430968261e-10
2.395934216045904203e-10
1.972749974893281943e-10
1.626058622421812131e-10
1.396315241032635097e-10
1.175732059761528128e-10
8.615178525945516158e-11
6.207947244340774981e-11
4.966694360043966716e-11
3.374000259809544845e-11
2.535996181818540496e-11
1.782306279983244119e-11
1.264347582695520958e-11
9.068685771576338813e-12
6.561147681195944314e-12
4.817227937288936146e-12
3.596576009741938842e-12
2.735944062287893680e-12
2.112083014455087569e-12
1.645882246562572949e-12
1.286458223659444501e-12
1.001278798005432339e-12
7.709952836072162975e-13
5.840618532858357349e-13
4.333932412020525719e-13
