# bin_8_1
1.674468907091729601e-24
1.853352141188629363e-24
2.008081988812673836e-24
2.118162613461209528e-24
2.160471248373315437e-24
2.114580646358460869e-24
1.957250572287192191e-24
1.712800176469385611e-24
1.422298844772597729e-24
1.164848471012308647e-24
9.893890179871909980e-25
8.494023782898110238e-25
6.498926626521722436e-25
4.538734733845517712e-25
3.647953128951526559e-25
2.539243845873580378e-25
1.887743492689087167e-25
1.305828212825242299e-25
9.333475519302531762e-26
6.650483969408042922e-26
4.764248669432380114e-26
3.456807487818377770e-26
2.546861078864218669e-26
1.912840701317030386e-26
1.461356350643386823e-26
1.130596752066335178e-26
8.808499496606782688e-27
6.861499907075090261e-27
5.307013038763024751e-27
4.050493703460504168e-27
3.035748798876370958e-27
