# bin_7_6
3.775715959645129421e-11
4.216870438954125431e-11
4.619683764971469492e-11
4.940462096258087318e-11
5.124512370882013980e-11
5.126008571689612072e-11
4.876898532586426632e-11
4.380557813787682496e-11
3.719674888982666597e-11
3.046406617410724884e-11
2.532497215423327986e-11
2.189604402412241304e-11
1.797644965792933357e-11
1.270882139522861903e-11
9.539716581972944054e-12
7.365372852426817637e-12
5.032284141237697998e-12
3.662826562525118835e-12
2.603810467365832452e-12
1.819247628278228839e-12
1.279704612246763105e-12
9.088004759354176768e-13
6.545285781522799219e-13
4.793888568730672191e-13
3.580681067370214934e-13
2.720602359102818893e-13
2.095005338235988707e-13
1.625269486245729949e-13
1.261089576325054523e-13
9.718189964525667973e-14
7.392259434300187334e-14
