# bin_8_4
1.413202489245820293e-14
1.575560342190048903e-14
1.722365791047087491e-14
1.837050207230152165e-14
1.899055890567583537e-14
1.891932327003780551e-14
1.790098281836299482e-14
1.599502925463623497e-14
1.351222222563176920e-14
1.105570557363901452e-14
9.228805869985725688e-15
7.984880908995128002e-15
6.473530272358864549e-15
4.536779722882683508e-15
3.467531934684391552e-15
2.622687406581064706e-15
1.821316693949206099e-15
1.303854687732670599e-15
9.337421652214668494e-16
6.547929830475232011e-16
4.615971838259027772e-16
3.292258757302503449e-16
2.382328209601476668e-16
1.754391908275285199e-16
1.317108214511262256e-16
1.005080566776675392e-16
7.763788398133008493e-17
6.032182298262216010e-17
4.680121722472731392e-17
3.600978555909827677e-17
2.731603237179097189e-17
