# bin_9_3
3.978176758104870698e-19
4.445149945054218431e-19
4.872669917853271845e-19
5.214871080279328449e-19
5.414213732719460954e-19
5.421806230164379641e-19
5.166161905306693633e-19
4.647101750426915131e-19
3.951648516620984134e-19
3.237377016160923599e-19
2.688263761288642362e-19
2.323662561707742224e-19
1.914095090417033040e-19
1.356695898094365139e-19
1.013358085398304325e-19
7.866308096434834051e-20
5.352304105999817699e-20
3.913188949240702593e-20
2.775698181017929012e-20
1.937507320951848708e-20
1.362200553653029226e-20
9.662764374715816052e-21
6.950231942932690511e-21
5.082798054488699005e-21
3.791049198106336385e-21
2.876908690206975143e-21
2.213381217390521067e-21
1.716322331331466848e-21
1.331736254967367600e-21
1.026684797986483542e-21
7.815473536068693405e-22
