# bin_12_12
3.576924712639781289e-11
4.082662306454748014e-11
4.594574696052658662e-11
5.078618224967678370e-11
5.490022712738217048e-11
5.771116388226583258e-11
5.860495492002666040e-11
5.696586349385894466e-11
5.227831443762363377e-11
4.536592918064866198e-11
3.745917986244293126e-11
3.076528034417565182e-11
2.635678917157628202e-11
2.247467787509989589e-11
1.669479208392863981e-11
1.173790765215659261e-11
9.528200944194040561e-12
6.322526251583294755e-12
4.762321370539174731e-12
3.220196766365864237e-12
2.195090646820606574e-12
1.503201898994371713e-12
1.021379936803146782e-12
6.931145145993209242e-13
4.721766943091948173e-13
3.260991940265136782e-13
2.289609084372654018e-13
1.640621484390067753e-13
1.202120477644617186e-13
8.992015701641423937e-14
6.834452309923477841e-14
