# bin_9_2
9.155640487544815406e-23
1.021202949547754598e-22
1.116962697163146238e-22
1.192143619033713335e-22
1.233437002565233669e-22
1.230083419452577527e-22
1.165500595628253955e-22
1.042789578936775135e-22
8.820583701024824776e-23
7.218557628156414751e-23
6.019296325136700417e-23
5.207378549804059490e-23
4.235591837939818371e-23
2.974437614839230292e-23
2.263128305641913562e-23
1.720924492783128944e-23
1.189924923541420067e-23
8.554227072870300494e-24
6.115746250656483607e-24
4.284565443646559351e-24
3.018503173923493364e-24
2.150497256101071327e-24
1.554277066832525870e-24
1.143032340077512430e-24
8.570374495633480698e-25
6.533018607355656565e-25
5.042625783894825808e-25
3.916535513327994371e-25
3.038811714165113310e-25
2.339078132816726160e-25
1.775611382742083508e-25
