# bin_6_2
1.383350287938178542e-15
1.512745498926585922e-15
1.614718917215345197e-15
1.671459528571757898e-15
1.668065960735641433e-15
1.582822282547168492e-15
1.418524867764225543e-15
1.202273014507178239e-15
9.845990146385958451e-16
8.196350975406857357e-16
7.077406690651316070e-16
5.779119660018629131e-16
4.094117829625522946e-16
3.093916431420874514e-16
2.375908183274110407e-16
1.649807485245509577e-16
1.205505577769344079e-16
8.674478800538882339e-17
6.183386608651004908e-17
4.456493632505081719e-17
3.256300389467135314e-17
2.419674515639305001e-17
1.830229198240596678e-17
1.408124963415173953e-17
1.096329656101981951e-17
8.586339722506675732e-18
6.718170944623137448e-18
5.214652326356373336e-18
3.991205177864327957e-18
2.997154353776094334e-18
2.199650371017912668e-18
