# bin_9_6
1.032436601892630689e-12
1.160843349718480352e-12
1.282177403092880624e-12
1.385174439436750892e-12
1.455340806072071146e-12
1.477295275571367611e-12
1.435587123321101946e-12
1.317471428402941931e-12
1.143270141148317970e-12
9.440690157381298455e-13
7.750332944586689795e-13
6.631946118209607116e-13
5.653849830564747192e-13
4.212184780715802342e-13
2.965918502134866718e-13
2.402459915433165078e-13
1.613327026643673058e-13
1.215996367170794568e-13
8.323045879617603952e-14
5.795884434687739322e-14
4.062486571312284569e-14
2.849773987020701279e-14
2.015040542857424990e-14
1.442883977268148379e-14
1.053590665871078066e-14
7.842570347053032487e-15
5.940687539041255089e-15
4.562112922051529576e-15
3.528480049210777489e-15
2.728692806643755049e-15
2.094909018447220526e-15
