# bin_5_2
1.386998273316217682e-13
1.502805348712812280e-13
1.585776178929910097e-13
1.618747392754382013e-13
1.586412683937572753e-13
1.471470572353704240e-13
1.290406055479333026e-13
1.073867207312568124e-13
8.794904678637522492e-14
7.449154637252582293e-14
6.392162119046506242e-14
4.932970747831036595e-14
3.462247324328697328e-14
2.758440459971612986e-14
1.960795023505037528e-14
1.447256060212497683e-14
1.020253793991658180e-14
7.396350485586469454e-15
5.350026335054558955e-15
3.907568214623995007e-15
2.900095376094940095e-15
2.189166722648980949e-15
1.682045835844802334e-15
1.310247507848969776e-15
1.028474605415674364e-15
8.081528031075100816e-16
6.312144120779679452e-16
4.869048896044417629e-16
3.689113694481287501e-16
2.733524158171969896e-16
1.974791997355238328e-16
