# bin_4_15
-3.423797559332976533e-25
-3.900854976522882908e-25
-4.379775227455711830e-25
-4.827576644268015186e-25
-5.200530231548093002e-25
-5.442924267539411485e-25
-5.500168002306161359e-25
-5.307308582224274411e-25
-4.833069148560675892e-25
-4.161325840087389842e-25
-3.423526058752807541e-25
-2.822097571449814119e-25
-2.429682241850402559e-25
-2.048658573688209442e-25
-1.489633298977213489e-25
-1.069113657842771711e-25
-8.586101738369096007e-26
-5.676511746660486691e-26
-4.249924698394824160e-26
-2.912631340780809544e-26
-1.982060572087308380e-26
-1.356284296692269456e-26
-9.230331626605130114e-27
-6.302150979632588547e-27
-4.332820125593927580e-27
-3.025764081342401945e-27
-2.151298493722664847e-27
-1.562082251265575444e-27
-1.158784291793564406e-27
-8.755024254038287027e-28
-6.697941387439284319e-28
