# bin_5_6
-1.078303812803691653e-08
-1.196581197057702584e-08
-1.300590827183805670e-08
-1.377308564070285088e-08
-1.411370285324553108e-08
-1.390267072649430028e-08
-1.296698829903128960e-08
-1.143159525097616601e-08
-9.545616340718217142e-09
-7.811623410033690703e-09
-6.597948295035603408e-09
-5.690126980545713657e-09
-4.443257665183237524e-09
-3.091429884715672948e-09
-2.455729033930427447e-09
-1.753670665197550964e-09
-1.278285609834879059e-09
-8.878206675797486552e-10
-6.375901226357417296e-10
-4.520653510739992487e-10
-3.220225914917993991e-10
-2.323660435988978321e-10
-1.701856358227580944e-10
-1.270207863151774680e-10
-9.651746207352291652e-11
-7.436856005323026787e-11
-5.780800204008843799e-11
-4.501488989627180994e-11
-3.486743754585187715e-11
-2.669185701898736188e-11
-2.008989760315542351e-11
