# bin_9_1
-1.346002931342372671e-24
-1.500816848782303011e-24
-1.640888299413844298e-24
-1.750443796598932428e-24
-1.809911206762961614e-24
-1.803555926906681012e-24
-1.707063051168541089e-24
-1.525932319366060639e-24
-1.289715045300614940e-24
-1.055705039956415924e-24
-8.813990242225159838e-25
-7.625258471438979312e-25
-6.183509108736359145e-25
-4.337603192724905096e-25
-3.314034806876086317e-25
-2.507368808579936808e-25
-1.741553717881110549e-25
-1.247444294272856655e-25
-8.929945054977476403e-26
-6.262630795525029395e-26
-4.415570010973533153e-26
-3.149350433880429298e-26
-2.278830623226033405e-26
-1.678065550018440042e-26
-1.259707589395552198e-26
-9.612079563677666129e-27
-7.424453825276764323e-27
-5.768337211422854390e-27
-4.475406540744371305e-27
-3.443569147265019503e-27
-2.612348456682853646e-27
