# bin_3_11
-1.309544031553554440e-20
-1.475627549267526309e-20
-1.634136105790368215e-20
-1.771098930716357909e-20
-1.868313597550351173e-20
-1.905224357347770095e-20
-1.863800396485731468e-20
-1.723361808137623796e-20
-1.506680458288249784e-20
-1.249930635238781594e-20
-1.024172952643041191e-20
-8.718570008481915859e-21
-7.487700166108506681e-21
-5.694207961005690967e-21
-3.964709043742918565e-21
-3.204480614802044401e-21
-2.190797040215014903e-21
-1.635352221005205607e-21
-1.111063661130958949e-21
-7.790103800989530487e-22
-5.443597231660582523e-22
-3.802420491778370422e-22
-2.673483455822898369e-22
-1.900633475487180806e-22
-1.376736925345739048e-22
-1.016857320345035869e-22
-7.650132845549243689e-23
-5.845747639868125728e-23
-4.509474751791419162e-23
-3.486875074386739237e-23
-2.682721159685995886e-23
