# bin_6_9
-3.143912903313805937e-10
-3.538067236056060094e-10
-3.912042282209027588e-10
-4.231829955564740567e-10
-4.453459889920846540e-10
-4.529053377014870865e-10
-4.413051206626203964e-10
-4.062195503947796304e-10
-3.535839460568670889e-10
-2.925330153880391744e-10
-2.400007649779394491e-10
-2.049935373550472714e-10
-1.753012502350240511e-10
-1.316379344351078139e-10
-9.225498612628731907e-11
-7.474041935060226821e-11
-5.047920406739966092e-11
-3.795705336312411629e-11
-2.589371288624213010e-11
-1.807029270444962714e-11
-1.265562535013312237e-11
-8.865957513520028095e-12
-6.256012823520818637e-12
-4.467685180911208717e-12
-3.252703518860186148e-12
-2.414364279730022981e-12
-1.824382061213227990e-12
-1.398588032709228264e-12
-1.080783482422255843e-12
-8.358554231014338123e-13
-6.422829427077938766e-13
