# bin_2_8
-1.088510253454503437e-17
-1.208913525393543908e-17
-1.315338582329539022e-17
-1.394699022909808449e-17
-1.431357367769755689e-17
-1.412846174279756258e-17
-1.321031261042546035e-17
-1.167352087916467247e-17
-9.765469613685935567e-18
-7.989599678626354331e-18
-6.735121362274062608e-18
-5.815365022027795260e-18
-4.571353884127423603e-18
-3.178845080323866533e-18
-2.512977138036804135e-18
-1.810953196662903937e-18
-1.310360363830742490e-18
-9.123788281063581660e-19
-6.559980489158648023e-19
-4.642858602716607415e-19
-3.300829484602036345e-19
-2.377323351255732322e-19
-1.737664335381991771e-19
-1.294131061268324723e-19
-9.814922062464150766e-20
-7.551546058245051959e-20
-5.864865849303120720e-20
-4.566045416760981833e-20
-3.538252650523869031e-20
-2.711225213451667857e-20
-2.043477278699049254e-20
