# bin_5_7
-2.204235368638043485e-09
-2.456788412919743974e-09
-2.684777199586714762e-09
-2.862297541629078586e-09
-2.957285879796291968e-09
-2.944167044027320538e-09
-2.783185888141102522e-09
-2.484935084952016729e-09
-2.097883176416378857e-09
-1.716938485014688081e-09
-1.434824160483550902e-09
-1.241382162424927129e-09
-1.003699133671345619e-09
-7.028878152287821576e-10
-5.391505170568422508e-10
-4.059658582984560400e-10
-2.830716355322280442e-10
-2.020327549589117869e-10
-1.448210522971157380e-10
-1.016518960587471183e-10
-7.171448136788919677e-11
-5.119987397842878389e-11
-3.708670226011353585e-11
-2.734255648496271128e-11
-2.054874764599327153e-11
-1.569417891464709536e-11
-1.213026668278123054e-11
-9.427287809324073420e-12
-7.313840607389662236e-12
-5.625482658726097809e-12
-4.264886429998118462e-12
