# bin_6_7
-1.020946276500147634e-08
-1.141473931842483562e-08
-1.252172081497441248e-08
-1.341320698828473582e-08
-1.394184504832422913e-08
-1.397997543117325649e-08
-1.334555068413772309e-08
-1.202718929047767369e-08
-1.024734172173322474e-08
-8.401959444298440119e-09
-6.970764760903596524e-09
-6.022545365703254049e-09
-4.977963698532786717e-09
-3.541789199560422762e-09
-2.631666883953696298e-09
-2.053624589484179023e-09
-1.392765412455174178e-09
-1.022944100588641834e-09
-7.235999377508371897e-10
-5.047160637037900274e-10
-3.547793562313988697e-10
-2.514066571340507091e-10
-1.805926854102432612e-10
-1.318618933300264510e-10
-9.820033567276033893e-11
-7.442204347177250705e-11
-5.720022672906849535e-11
-4.433108951846231180e-11
-3.439599786678193763e-11
-2.652805799448823508e-11
-2.021000732295949800e-11
