# bin_6_13
-1.705346969241748225e-15
-1.937731345186523980e-15
-2.168045674717276380e-15
-2.379560035574229158e-15
-2.549889167381064089e-15
-2.650843923360935559e-15
-2.658282575850423420e-15
-2.536772516440114040e-15
-2.284843009171909947e-15
-1.945177269334256503e-15
-1.594242079760976790e-15
-1.323597048737604422e-15
-1.145159323418981913e-15
-9.454997800531967571e-16
-6.691159488672549577e-16
-4.983525838772443787e-16
-3.872441682176584149e-16
-2.605887155816254640e-16
-1.894011842712113603e-16
-1.326016576080216055e-16
-9.061012729770861042e-17
-6.193497417331508218e-17
-4.240645313358944956e-17
-2.925008070142942214e-17
-2.039545220247561675e-17
-1.447461209319512323e-17
-1.047287823266579019e-17
-7.737994107605061544e-18
-5.827269532139484475e-18
-4.451389657052369910e-18
-3.425454579403858933e-18
