# bin_7_11
-6.386010872730710717e-11
-7.233938647476318197e-11
-8.062368643397053434e-11
-8.806965818542007812e-11
-9.381651128228144677e-11
-9.679923787940553628e-11
-9.620141576177399132e-11
-9.069042940774309048e-11
-8.075083629140753249e-11
-6.797375862104756277e-11
-5.560560832931671274e-11
-4.660375619369745520e-11
-4.036532413675529619e-11
-3.238211917716561224e-11
-2.249379197744501700e-11
-1.744696543024593472e-11
-1.290757135546363707e-11
-9.037574599004424379e-12
-6.291509246576178769e-12
-4.475746180051560902e-12
-3.082289595429758006e-12
-2.116247287420400066e-12
-1.464157094017658392e-12
-1.021750893122744129e-12
-7.233578735198280926e-13
-5.219219337409142278e-13
-3.840700029129863995e-13
-2.882207970899127851e-13
-2.197008201280577135e-13
-1.690770135323496415e-13
-1.303926117305622955e-13
