# bin_15_12
-1.709191751802855560e-09
-1.957524299446685037e-09
-2.212358806822282561e-09
-2.457998365995120659e-09
-2.673921915411361216e-09
-2.833027532020849020e-09
-2.903007024029779770e-09
-2.858841415953431349e-09
-2.663422916231901216e-09
-2.345277279918726065e-09
-1.954898083683131764e-09
-1.599552076144877900e-09
-1.354488163242182818e-09
-1.169945729075662559e-09
-9.070157221028498650e-10
-6.260859634347331290e-10
-5.018840949530178683e-10
-3.498573746426975356e-10
-2.558696112751908204e-10
-1.710980279618168855e-10
-1.193821152467047228e-10
-8.124990827882869280e-11
-5.475761675864398815e-11
-3.678480344987583254e-11
-2.468443251328761155e-11
-1.670226535475339199e-11
-1.144491632155575237e-11
-7.978495511935303643e-12
-5.685151815660359954e-12
-4.146471358407168268e-12
-3.090437084388786956e-12
