# bin_8_9
-9.694222727987416642e-09
-1.095433255050051803e-08
-1.217199214235520808e-08
-1.324694913949961936e-08
-1.404640067570030477e-08
-1.441110113656770102e-08
-1.421741789464855674e-08
-1.327923767531174972e-08
-1.172170942660726928e-08
-9.792822277006726519e-09
-8.011370405627998271e-09
-6.765473885310026098e-09
-5.846641170210636194e-09
-4.573983682142021639e-09
-3.164695444102831549e-09
-2.516953271751062327e-09
-1.787962359080334251e-09
-1.296294043467682041e-09
-8.833531257190336940e-10
-6.267552516755382382e-10
-4.347720703578875059e-10
-3.009902484661292001e-10
-2.099132300133399342e-10
-1.477800205184605400e-10
-1.057999251457021274e-10
-7.723227940316742181e-11
-5.747901854449830739e-11
-4.354998133717466614e-11
-3.341941107397802106e-11
-2.580020628313247572e-11
-1.988839784620589653e-11
