# bin_12_7
-4.351624004875918183e-12
-4.939763694704680991e-12
-5.519960345836845656e-12
-6.049198629277033209e-12
-6.469832136392349554e-12
-6.709558828399592023e-12
-6.709241496175525039e-12
-6.377184773529335904e-12
-5.722229810471715007e-12
-4.852944644938989911e-12
-3.974009152660551579e-12
-3.309090713033343275e-12
-2.865395989145938356e-12
-2.345321476172719552e-12
-1.647296126846611897e-12
-1.243659915222220421e-12
-9.520757943937814973e-13
-6.478709733717124352e-13
-4.642620492547092127e-13
-3.273026279196438113e-13
-2.241644801532558600e-13
-1.533060149939866048e-13
-1.053023698969089110e-13
-7.290909241273070156e-14
-5.109231601477245488e-14
-3.646086220792731313e-14
-2.653315047795879633e-14
-1.971138517309889204e-14
-1.490968229310927485e-14
-1.142223345560491077e-14
-8.799546083379922562e-15
