# bin_4_1
-1.597340037827303089e-11
-1.700387580332859179e-11
-1.755008826447363254e-11
-1.745293957701072734e-11
-1.649624605793068849e-11
-1.473476171505399839e-11
-1.245900559726485392e-11
-1.021050405401823145e-11
-8.523049664166344767e-12
-7.341940101228183246e-12
-5.942225160832029725e-12
-4.226908308024049414e-12
-3.220426526814077618e-12
-2.449603908827997656e-12
-1.732300095727199411e-12
-1.268606795864255824e-12
-9.216109755366658404e-13
-6.685682538136321504e-13
-4.916733602907314328e-13
-3.674945583316490718e-13
-2.796031010806737689e-13
-2.163457811292037063e-13
-1.696661049526108775e-13
-1.339828928333896774e-13
-1.058080832399666063e-13
-8.298128674786560791e-14
-6.420772742279425324e-14
-4.874798549012294433e-14
-3.615728028940553616e-14
-2.612208966543235424e-14
-1.836509823437055023e-14
