# bin_11_2
-1.119609274149737325e-24
-1.260417206264604459e-24
-1.394231520670519048e-24
-1.508986270811717224e-24
-1.589048906143095010e-24
-1.617225594839852231e-24
-1.577512471674626355e-24
-1.453881787820502731e-24
-1.267026379310709486e-24
-1.049036161149419324e-24
-8.603470074669015067e-25
-7.341821263539410184e-25
-6.285898340077214738e-25
-4.736698235358247392e-25
-3.313464339407207719e-25
-2.682860565219354515e-25
-1.817935217084938752e-25
-1.364325261798228546e-25
-9.296416970776156662e-26
-6.495790811252775100e-26
-4.546611461281169854e-26
-3.182619004456092863e-26
-2.243511584358643477e-26
-1.600195838408677156e-26
-1.163404824550227287e-26
-8.623904601602470838e-27
-6.508798851386456019e-27
-4.985360547029673852e-27
-3.850714497421425665e-27
-2.977926471357157349e-27
-2.289066717577769808e-27
