# bin_5_12
-2.630624181607677792e-16
-2.979528033717722356e-16
-3.320209547513559187e-16
-3.626132012125721047e-16
-3.861802563411247734e-16
-3.983361853284999990e-16
-3.957242521529470272e-16
-3.728696853083244014e-16
-3.318498785162024148e-16
-2.792231636444652036e-16
-2.284111712767928068e-16
-1.915113826234365935e-16
-1.658660936395380602e-16
-1.328894499285139930e-16
-9.227125799289999183e-17
-7.167679753457378695e-17
-5.291292368221324115e-17
-3.711847554331049185e-17
-2.580087941545910140e-17
-1.835763584110374399e-17
-1.264691082957577436e-17
-8.686451790776760243e-18
-6.012494608783638959e-18
-4.197747268922619983e-18
-2.973640990027165862e-18
-2.146941816870503786e-18
-1.580889858271319668e-18
-1.187020851474999863e-18
-9.051920169970709907e-19
-6.967645690541027148e-19
-5.373524751710361569e-19
