# bin_3_5
-1.614307445784821804e-09
-1.763590210722654774e-09
-1.880189385782829616e-09
-1.943318358070095400e-09
-1.935745679896686225e-09
-1.832294931522337954e-09
-1.638366167975550412e-09
-1.385778640368930087e-09
-1.134907658662252992e-09
-9.468728721256147298e-10
-8.176476833468000233e-10
-6.635823203660195556e-10
-4.688100737103095995e-10
-3.571033101704391154e-10
-2.716954570652341101e-10
-1.900874142695957195e-10
-1.380776423050714207e-10
-9.960606799428231833e-11
-7.112826147037722656e-11
-5.133510267197139286e-11
-3.758282563289768745e-11
-2.798313720833323544e-11
-2.121044740997662221e-11
-1.634668733005386045e-11
-1.274258158574456494e-11
-9.986095680251782590e-12
-7.813267630307602916e-12
-6.061088119372950507e-12
-4.633973148028748321e-12
-3.474565847574393660e-12
-2.545321122441779717e-12
