# bin_11_6
-1.712382717876577421e-12
-1.937018303202685800e-12
-2.155104894804265292e-12
-2.349137944416647039e-12
-2.495808471910402433e-12
-2.566717927943213841e-12
-2.540226428378542802e-12
-2.381921491368892617e-12
-2.110285490829968338e-12
-1.768426835014541535e-12
-1.446447745240558331e-12
-1.217592876946639424e-12
-1.053638363483265520e-12
-8.332655266566151553e-13
-5.767911111073494967e-13
-4.543816014252006342e-13
-3.283238296054838083e-13
-2.346390203583614577e-13
-1.609760757976463850e-13
-1.145361890397882335e-13
-7.920175275622708605e-14
-5.462307647338165891e-14
-3.796930540006589841e-14
-2.663138078732226680e-14
-1.897717105433534415e-14
-1.378644279571572199e-14
-1.021323470650109388e-14
-7.708722700691274734e-15
-5.900309554079328233e-15
-4.550112997615697444e-15
-3.508837069666060361e-15
