# bin_9_7
-2.880525407317984948e-09
-3.247734552792738470e-09
-3.599105227188164987e-09
-3.904102747903869981e-09
-4.122800805650230176e-09
-4.209435421879905421e-09
-4.125185639231313791e-09
-3.822152700573168452e-09
-3.348196940440613981e-09
-2.781274570803416273e-09
-2.277858354069530630e-09
-1.936047753703961605e-09
-1.665486681230008370e-09
-1.273855356956894957e-09
-8.849250528055958784e-10
-7.138095161182746203e-10
-4.912393417573724131e-10
-3.650605300305890999e-10
-2.477479981811934917e-10
-1.741397518009692469e-10
-1.215344450905581758e-10
-8.476314928016549367e-11
-5.950072290000216024e-11
-4.221496874281332831e-11
-3.050751698293562700e-11
-2.248114903789334784e-11
-1.687831117889721225e-11
-1.287717408165614112e-11
-9.924692548543340646e-12
-7.672787298146155083e-12
-5.906255650924899230e-12
