# bin_6_1
-2.111368964237907236e-16
-2.302092134437896286e-16
-2.448300438725087363e-16
-2.522825765116902667e-16
-2.503507197488913586e-16
-2.357949632632866021e-16
-2.098387983184704724e-16
-1.767081281959256781e-16
-1.446364921210516673e-16
-1.211256166752033825e-16
-1.045838460366348440e-16
-8.388760506074411956e-17
-5.893673680268100203e-17
-4.554492527017854641e-17
-3.404549137732261659e-17
-2.415271040828641912e-17
-1.735081504650977117e-17
-1.256804541482535821e-17
-9.003399205830879971e-18
-6.514318119262968128e-18
-4.785606929576599566e-18
-3.575872841408997191e-18
-2.720307382350384569e-18
-2.102742725715040212e-18
-1.642501917868356901e-18
-1.288464238213814917e-18
-1.007952825229279867e-18
-7.809821204684820208e-19
-5.958475567895071927e-19
-4.454999344941782076e-19
-3.252355982401791955e-19
