# bin_8_7
-9.930693189219450562e-09
-1.116612020635690200e-08
-1.233362805180476534e-08
-1.332484543150869809e-08
-1.400031490531951490e-08
-1.421223308634834683e-08
-1.381145665173337802e-08
-1.267623048592218123e-08
-1.100171809754750476e-08
-9.087477004831468082e-09
-7.463371325771609020e-09
-6.387823549908123257e-09
-5.444205554159338732e-09
-4.055129671664060139e-09
-2.857969316174418786e-09
-2.314091388554525875e-09
-1.554538867336801051e-09
-1.171459174688662402e-09
-8.023024225229166225e-10
-5.587228023447426803e-10
-3.916877155430650871e-10
-2.748172524034648183e-10
-1.943718386366989712e-10
-1.392255980230585890e-10
-1.016937793642682958e-10
-7.571897112873171978e-11
-5.737041652471017521e-11
-4.406472228691971198e-11
-3.408408356853404179e-11
-2.635863775482567513e-11
-2.023522132838408256e-11
