# bin_6_9
-3.107635008270237059e-10
-3.496534067412126531e-10
-3.865178929460722366e-10
-4.179882620297788776e-10
-4.397140513363541957e-10
-4.469868636294846830e-10
-4.352658880328787146e-10
-4.003799879631032832e-10
-3.482602329277255269e-10
-2.880118967333582509e-10
-2.363445934020303959e-10
-2.019731843557582882e-10
-1.725908165296197075e-10
-1.293481139328296075e-10
-9.075838180344592607e-11
-7.353647504734839951e-11
-4.958634549892986141e-11
-3.731670068780395082e-11
-2.547780407462943790e-11
-1.776886651264697319e-11
-1.244814068289873948e-11
-8.724121909848988810e-12
-6.159373964327237634e-12
-4.401803440962520741e-12
-3.207255270866972588e-12
-2.382430265102102733e-12
-1.801441920585169602e-12
-1.381660598835141012e-12
-1.067967134137132667e-12
-8.259498985415617056e-13
-6.345378658302222984e-13
