# bin_4_10
-1.192713577017529865e-15
-1.341378286745033321e-15
-1.482010349042396552e-15
-1.601621427391284633e-15
-1.683479320611727531e-15
-1.709725737112188539e-15
-1.662605708864785174e-15
-1.527029192013867261e-15
-1.326247084015861841e-15
-1.095884675352096742e-15
-8.997703086949136150e-16
-7.697426310865615099e-16
-6.566291588028315295e-16
-4.900323822502399933e-16
-3.448264426057189713e-16
-2.793391509445689078e-16
-1.878113583188550150e-16
-1.415148015198669287e-16
-9.681643671022047999e-17
-6.744486409709298468e-17
-4.727377810791222472e-17
-3.315736760985309514e-17
-2.343808747781017864e-17
-1.677610572735886573e-17
-1.224414654683682805e-17
-9.109998271232727200e-18
-6.898072826351575307e-18
-5.295923512784194857e-18
-4.095573340152918164e-18
-3.167395774331296377e-18
-2.432179689529650368e-18
