# bin_3_8
-1.696615741264839069e-14
-1.888383203351966726e-14
-2.060111503626490126e-14
-2.191672611196762161e-14
-2.258413103745268080e-14
-2.240990203724478770e-14
-2.109314429195944080e-14
-1.875617405532726575e-14
-1.577478706785327265e-14
-1.290544807372829493e-14
-1.082164188964532904e-14
-9.360341316713156530e-15
-7.487293751778661587e-15
-5.220060244242004678e-15
-4.056964060105669907e-15
-3.002276005351838546e-15
-2.124209913206934815e-15
-1.498261791373230808e-15
-1.077284419516567911e-15
-7.585882814288207457e-16
-5.365914991275368333e-16
-3.844369884081842928e-16
-2.794760449376907659e-16
-2.068920260644798342e-16
-1.560689805303623057e-16
-1.195657509616869577e-16
-9.260762701693414511e-17
-7.203456353500477403e-17
-5.586739069933417584e-17
-4.291086065847312118e-17
-3.245903607419932975e-17
