# bin_2_3
-1.643467576354677954e-08
-1.741530098342459500e-08
-1.787603316721974360e-08
-1.765098339054609822e-08
-1.653657686537369040e-08
-1.464612191614038659e-08
-1.229734379616936590e-08
-1.007707799714465844e-08
-8.465016920679681204e-09
-7.274586915294625408e-09
-5.768245909336094490e-09
-4.086586724873050771e-09
-3.171737258278898787e-09
-2.352167715520619217e-09
-1.694631393703652139e-09
-1.227403184203756503e-09
-8.953362806726378434e-10
-6.525960356173010250e-10
-4.821084346124693576e-10
-3.622788312569177153e-10
-2.770812940281233897e-10
-2.154214657598564117e-10
-1.695087299233759027e-10
-1.340877123517864954e-10
-1.058900394485182003e-10
-8.290521654738559960e-11
-6.394607129109549109e-11
-4.833529828188582508e-11
-3.565963691152173729e-11
-2.561282563296978940e-11
-1.790302645884029718e-11
