# bin_8_2
-1.009555355369952213e-17
-1.120951210840160542e-17
-1.219266492643452512e-17
-1.292346712734436432e-17
-1.325714534683069779e-17
-1.307783397404031653e-17
-1.221884142880334405e-17
-1.078977149888004730e-17
-9.020909830951003801e-18
-7.380702590569632707e-18
-6.225547564629778177e-18
-5.373935826783424378e-18
-4.215894804006889658e-18
-2.931396193943583710e-18
-2.321413652816337459e-18
-1.667972750192070218e-18
-1.209881773481789011e-18
-8.414393199818459810e-19
-6.048738912396858822e-19
-4.283476799411243478e-19
-3.047149573768691813e-19
-2.195904864656976034e-19
-1.606038811702438455e-19
-1.196899933527465861e-19
-9.082847753427016128e-20
-6.991513653132509866e-20
-5.431461748604013310e-20
-4.228964922547263012e-20
-3.276686501593187973e-20
-2.510103213312132013e-20
-1.891113264158874702e-20
