# bin_9_2
-3.554746557438323440e-20
-3.968290624281898683e-20
-4.344935424865443959e-20
-4.643380877812666175e-20
-4.812031652431038646e-20
-4.808312691919002087e-20
-4.567853197470045400e-20
-4.097419049658930145e-20
-3.474785866614911175e-20
-2.845860198973923023e-20
-2.369351742140376609e-20
-2.049287763862639310e-20
-1.676171749765277091e-20
-1.181864598667252353e-20
-8.924418195543469954e-21
-6.847339974840313355e-21
-4.702261896073291775e-21
-3.404819987643021126e-21
-2.427159778813994783e-21
-1.697899065137787045e-21
-1.195107453556989251e-21
-8.499271089315858649e-22
-6.130892373487344442e-22
-4.498521185464253683e-22
-3.365778266621969517e-22
-2.561047661695416511e-22
-1.974261635624524965e-22
-1.532463016200892010e-22
-1.189132976040080385e-22
-9.159716887115944187e-23
-6.961718202815322893e-23
