# bin_10_2
-2.109162191435452652e-09
-2.184026057144032563e-09
-2.180450652707261697e-09
-2.076593222399791200e-09
-1.872497574884549935e-09
-1.601681620919972466e-09
-1.323155071311101505e-09
-1.099853672444189973e-09
-9.363196047663611063e-10
-7.667992830089774015e-10
-5.681268650888174585e-10
-4.213345758910144944e-10
-3.233064193709427611e-10
-2.325470587111986031e-10
-1.711335282437051951e-10
-1.243059691909766692e-10
-9.128077256738543863e-11
-6.777459075396168898e-11
-5.113788666921809114e-11
-3.927356384916552130e-11
-3.064374719824693464e-11
-2.419580182092638448e-11
-1.920523586840133903e-11
-1.521534418629197346e-11
-1.194940417775163806e-11
-9.244375001247243543e-12
-7.008082089461265585e-12
-5.186018600353773343e-12
-3.737514933319945685e-12
-2.622390851407449612e-12
-1.793707697192905968e-12
