# bin_2_10
-4.446570641192126979e-27
-4.982375912674033326e-27
-5.480148909255349009e-27
-5.889764238707369262e-27
-6.147699233273647151e-27
-6.194437498848840043e-27
-5.954270520661433471e-27
-5.402683857764475540e-27
-4.635054338227865927e-27
-3.808671820181181310e-27
-3.145687496414844487e-27
-2.710663125546528628e-27
-2.270774209318305967e-27
-1.640887858835339128e-27
-1.192181603093278518e-27
-9.491941435648706443e-28
-6.361167543430726807e-28
-4.750793761819782884e-28
-3.318781809499305933e-28
-2.308007206355898922e-28
-1.620747219679492973e-28
-1.143481823312505078e-28
-8.165004560270617941e-29
-5.919070318196654700e-29
-4.377232915072853922e-29
-3.296753790363579923e-29
-2.521682319821614712e-29
-1.948927690692630834e-29
-1.511246129595706687e-29
-1.167265401389129208e-29
-8.921031107863964190e-30
