# bin_3_9
-9.495058583611275659e-21
-1.060487741150191874e-20
-1.161840521482735648e-20
-1.242573568294498253e-20
-1.288924834888962324e-20
-1.289380815846144687e-20
-1.226786062148507899e-20
-1.102053786977638919e-20
-9.359382097864162446e-21
-7.667596381474391000e-21
-6.376477309273573302e-21
-5.513834534456381769e-21
-4.525508703810438769e-21
-3.198998068232653074e-21
-2.403470069879387917e-21
-1.854487434211815842e-21
-1.267940864636142680e-21
-9.223557228005829073e-22
-6.560871006052330366e-22
-4.585039742149498234e-22
-3.225513449174265940e-22
-2.291181305159811335e-22
-1.650561177352474637e-22
-1.209252718146729766e-22
-9.034631423048430371e-23
-6.866127935112557344e-23
-5.288274660064963990e-23
-4.103062681166866457e-23
-3.183860921571269476e-23
-2.453531030925894650e-23
-1.866200501018023890e-23
