# bin_2_5
-8.921158831268871138e-15
-9.645718158529614957e-15
-1.015144343766096284e-14
-1.033075951857144622e-14
-1.008077694847552339e-14
-9.304701677210301881e-15
-8.121621793329574505e-15
-6.739215364412187326e-15
-5.528006629212869347e-15
-4.700067161655792601e-15
-4.015699439435527676e-15
-3.058266812671684213e-15
-2.158966954834636819e-15
-1.727182794753093916e-15
-1.212783170363822825e-15
-9.031655832873814437e-16
-6.367250937383633061e-16
-4.608622053929377856e-16
-3.343311003246050217e-16
-2.450202718030896447e-16
-1.824901976129140219e-16
-1.382463872772132684e-16
-1.065690081472416426e-16
-8.321400445302473485e-17
-6.541071652111688056e-17
-5.141389980696224243e-17
-4.012582786445432135e-17
-3.089861695836739656e-17
-2.335123114051666659e-17
-1.724692679050655525e-17
-1.241440826887053758e-17
