# bin_11_6
-4.568106112261727066e-10
-5.078188731712924315e-10
-5.531724452259253564e-10
-5.874191985251683774e-10
-6.040499212337696135e-10
-5.976333524447680407e-10
-5.607126406267982746e-10
-4.971302471990045209e-10
-4.173717886000213070e-10
-3.417757835619735674e-10
-2.872867492027942886e-10
-2.477791512604108071e-10
-1.965032570479003293e-10
-1.376735983279956184e-10
-1.072441323842642754e-10
-7.860095848316471559e-11
-5.605575182349818652e-11
-3.959325398100017209e-11
-2.832410894967060517e-11
-1.998660890252704401e-11
-1.418055269787477806e-11
-1.018204094556241941e-11
-7.419281172054386957e-12
-5.505715500983154966e-12
-4.161812743932862434e-12
-3.193152471409025385e-12
-2.474920355620253146e-12
-1.924815026025817684e-12
-1.491456977814874883e-12
-1.143820762908074796e-12
-8.635042340842519993e-13
