# bin_1_3
-5.729141683908401497e-13
-5.934375227822500469e-13
-5.928376389494660788e-13
-5.642599290605708782e-13
-5.077931293239426495e-13
-4.327365355058945355e-13
-3.557374601416094785e-13
-2.955014769131085575e-13
-2.534792193834985235e-13
-2.080819135575789397e-13
-1.511309673365586241e-13
-1.126890762865756854e-13
-8.729751019833573502e-14
-6.173749756345734375e-14
-4.584628611209981801e-14
-3.327954379624609939e-14
-2.439748518533512670e-14
-1.814048249391775347e-14
-1.371193677432710313e-14
-1.055273048101330180e-14
-8.251981195407708773e-15
-6.529872518541191952e-15
-5.192383146305199163e-15
-4.119227066077286811e-15
-3.237712426086039663e-15
-2.505273761354445278e-15
-1.898257035945699417e-15
-1.402896156389198333e-15
-1.008925471621112153e-15
-7.060205393343926788e-16
-4.815138443506697614e-16
