# bin_9_7
-1.876144964547964341e-10
-2.098331087255313064e-10
-2.302768723993012612e-10
-2.467996643880254914e-10
-2.567041304960220555e-10
-2.575960698067924652e-10
-2.462190611435291727e-10
-2.222201694786816108e-10
-1.896470339028694211e-10
-1.556449420032562366e-10
-1.290564988323228577e-10
-1.113421991131158466e-10
-9.218535758063050848e-11
-6.597395867733185867e-11
-4.878660900650529174e-11
-3.812402453815163773e-11
-2.590413150111956903e-11
-1.905051891435521594e-11
-1.341778909785307757e-11
-9.362439961429912447e-12
-6.583809808793602278e-12
-4.663124811138601649e-12
-3.345261504249147928e-12
-2.438531181558331357e-12
-1.812944051199325316e-12
-1.371787517619894513e-12
-1.052923893795242041e-12
-8.152537754044097757e-13
-6.322319452979657593e-13
-4.875987026834669237e-13
-3.716191924398195955e-13
