# bin_1_4
-3.687779168656802882e-15
-3.902087662770135452e-15
-3.998117849949911242e-15
-3.938592599296491769e-15
-3.678937712616379661e-15
-3.248926864859204394e-15
-2.721045463601892684e-15
-2.229469295286625161e-15
-1.876987588905549562e-15
-1.612090085737172289e-15
-1.269060844369957308e-15
-8.972720848590789758e-16
-7.014510839187647518e-16
-5.152697987394345155e-16
-3.738714868028393209e-16
-2.695740756403895088e-16
-1.969792531545918335e-16
-1.438226629250613810e-16
-1.064176923560050607e-16
-8.011837789937185713e-17
-6.138938577591366144e-17
-4.780841753834240758e-17
-3.766356972125428856e-17
-2.981172781489923516e-17
-2.354326850326635649e-17
-1.842278909699613777e-17
-1.419469894513715472e-17
-1.071324828857990284e-17
-7.889073263449651872e-18
-5.654742272168141046e-18
-3.944386775408565242e-18
