# bin_9_5
-5.309794839096981376e-10
-5.846821372013797859e-10
-6.294882176379238214e-10
-6.587434860915830600e-10
-6.658346684312087326e-10
-6.433357400377688807e-10
-5.874679048009075663e-10
-5.073640315039947369e-10
-4.187420776091799764e-10
-3.451184023940020890e-10
-2.954964928736131861e-10
-2.489904154140047479e-10
-1.843071343625944870e-10
-1.325748619788232356e-10
-1.053026294289328004e-10
-7.258449286093837496e-11
-5.398943014532411742e-11
-3.793328870503972741e-11
-2.700942370907658738e-11
-1.934261741901527633e-11
-1.397040456003149286e-11
-1.023790986039379769e-11
-7.627806265687445425e-12
-5.789739550266756123e-12
-4.461008877056513931e-12
-3.471124834430608428e-12
-2.710538914482099290e-12
-2.108974501636356135e-12
-1.624336118639243328e-12
-1.231448679119622802e-12
-9.149016771314562497e-13
