# bin_8_9
-9.209600092839905143e-12
-1.037697814497896947e-11
-1.149081781486759978e-11
-1.245281411384169349e-11
-1.313492228061551232e-11
-1.339300643472655960e-11
-1.309957818604752534e-11
-1.211094682136406177e-11
-1.058675330342749616e-11
-8.782949098421731856e-12
-7.197724930438287796e-12
-6.127372439808480715e-12
-5.259997375286574363e-12
-3.999317467299991483e-12
-2.787169205165959889e-12
-2.250228624913704028e-12
-1.540162436960368822e-12
-1.148159959656606434e-12
-7.808557286789790975e-13
-5.476706588892718146e-13
-3.826137562828550039e-13
-2.672081978954936391e-13
-1.878885684343410089e-13
-1.335928247517012760e-13
-9.677928794366322158e-14
-7.148754432651925424e-14
-5.378524424922778082e-14
-4.109934226231383452e-14
-3.170285558078051811e-14
-2.451130643747732317e-14
-1.885602307402358752e-14
