# bin_1_2
-3.012486351854064732e-11
-3.024765121203344889e-11
-2.901742984265015916e-11
-2.635620833655150403e-11
-2.268064558547787558e-11
-1.875304850079349753e-11
-1.551951848917003608e-11
-1.322005715244499855e-11
-1.097820053919721883e-11
-8.195982148112627902e-12
-6.014904768873500200e-12
-4.675843907859660382e-12
-3.360784186647959680e-12
-2.491073407889666202e-12
-1.816333520312940408e-12
-1.343202835480923406e-12
-1.005437138070867278e-12
-7.655733199544108537e-13
-5.936591079067034285e-13
-4.675523348653964258e-13
-3.722511474504707838e-13
-2.974896639733647616e-13
-2.368786519468703182e-13
-1.866289192945176293e-13
-1.445810669099930072e-13
-1.095688580608090061e-13
-8.093387111833431628e-14
-5.816562950651276084e-14
-4.068107092935064562e-14
-2.774306149533881472e-14
-1.850288844460043867e-14
