# bin_2_1
-1.272313999467494785e-09
-1.228005304700269093e-09
-1.126396334382124277e-09
-9.811422445803286314e-10
-8.210245252857327085e-10
-6.801599535280944100e-10
-5.721759039916131085e-10
-4.753523671424180592e-10
-3.678867455793821525e-10
-2.715433540187412090e-10
-2.061686603876431490e-10
-1.534061083864192768e-10
-1.122029352881934272e-10
-8.290847004426099674e-11
-6.147612353368893901e-11
-4.622343411373259870e-11
-3.535240013265144123e-11
-2.752371566983452456e-11
-2.175769258381205627e-11
-1.737465390681057735e-11
-1.392104090826526495e-11
-1.110868382656408026e-11
-8.767995022203721751e-12
-6.804028170945567558e-12
-5.165861811005763855e-12
-3.824463972985731517e-12
-2.756552866206715110e-12
-1.934640780096714105e-12
-1.324415772877632172e-12
-8.867626226515304906e-13
-5.825242729455112267e-13
