# bin_8_1
-3.178451244654694263e-09
-3.109411752584428690e-09
-2.897106191051300984e-09
-2.561952637623615982e-09
-2.166202211978744183e-09
-1.794546016609138540e-09
-1.502051496230515885e-09
-1.258823123478348288e-09
-9.985868817377781713e-10
-7.420879968656770552e-10
-5.573597144654628587e-10
-4.198982245499833173e-10
-3.064195838388355730e-10
-2.260301862782224166e-10
-1.667301644659061907e-10
-1.245396311349515353e-10
-9.445041385438278964e-11
-7.290934129736315616e-11
-5.721230300650751409e-11
-4.544611674639009774e-11
-3.632091112680445454e-11
-2.899411701840262953e-11
-2.295555479130251596e-11
-1.791186785382246630e-11
-1.370123819172905908e-11
-1.023357489136909771e-11
-7.446510603090402795e-12
-5.275842607395015831e-12
-3.643535373418961590e-12
-2.458397925033315951e-12
-1.625448942406709477e-12
