# bin_10_5
-6.045306361520517819e-10
-6.658129375103897038e-10
-7.170240023658483293e-10
-7.505948622127720678e-10
-7.589672612755652492e-10
-7.337206817438878670e-10
-6.704012898333989370e-10
-5.793282646564967373e-10
-4.782849885371249088e-10
-3.941001751043151450e-10
-3.373165160907060507e-10
-2.844418670163415482e-10
-2.108659358567827478e-10
-1.515124515022852403e-10
-1.203759569234049246e-10
-8.303320190626487202e-11
-6.174221004677120321e-11
-4.336403747964364134e-11
-3.088005918107836257e-11
-2.210848439245553689e-11
-1.596182597728856697e-11
-1.169200827494018510e-11
-8.706910189704518941e-12
-6.605721886575260268e-12
-5.087805011528752894e-12
-3.957818653927902904e-12
-3.090245117290026516e-12
-2.404495484594931514e-12
-1.852256454880106308e-12
-1.404631366112676815e-12
-1.043953696560171770e-12
