# bin_5_9
-1.600560616362245250e-15
-1.794273703177125453e-15
-1.974670514109591500e-15
-2.123782318156464749e-15
-2.218798506275907135e-15
-2.237968248163562851e-15
-2.154413885325056375e-15
-1.957777348797007352e-15
-1.682188573508864437e-15
-1.383061698063737481e-15
-1.141286310538772007e-15
-9.827324171348191833e-16
-8.254547868661729013e-16
-5.987196880135107331e-16
-4.329584873134153793e-16
-3.459675427687401874e-16
-2.314996551814144684e-16
-1.733865949033510200e-16
-1.207797673193762982e-16
-8.395982166467872005e-17
-5.895193577668053354e-17
-4.155810847279189202e-17
-2.963602898750363416e-17
-2.144985610464586737e-17
-1.583728499113002110e-17
-1.191088260787646570e-17
-9.100182875053805865e-18
-7.028317204426577448e-18
-5.448776769565234215e-18
-4.209658638410529465e-18
-3.219432965180953123e-18
