# bin_3_10
-4.613891726232042371e-23
-5.175957093022272062e-23
-5.701243884273233299e-23
-6.138280038857173729e-23
-6.421542295960557371e-23
-6.486913959267856465e-23
-6.258656447339125848e-23
-5.700394326991563258e-23
-4.909338839339430339e-23
-4.040144827054891909e-23
-3.329670613280624308e-23
-2.863607800290065082e-23
-2.414462681395937949e-23
-1.761527578453456793e-23
-1.265291263058837608e-23
-1.015774386094263984e-23
-6.788779201022309554e-24
-5.101457249402146655e-24
-3.538762941323182155e-24
-2.459252214491259574e-24
-1.726377873065294145e-24
-1.215598549422623959e-24
-8.651953666770619063e-25
-6.247026495471316953e-25
-4.601245178394595638e-25
-3.452837480939183459e-25
-2.633314831322097489e-25
-2.031484762558965094e-25
-1.574319476235313498e-25
-1.216710488223665071e-25
-9.313978979704931958e-26
