# bin_7_6
-1.473407907560836205e-10
-1.633586832931763717e-10
-1.773651739072934452e-10
-1.875704752404005039e-10
-1.919134079154836116e-10
-1.886095301069198235e-10
-1.754760274348265514e-10
-1.543075265858769979e-10
-1.287166461106312049e-10
-1.054574526072882882e-10
-8.926376505189340127e-11
-7.677976601037981071e-11
-5.954145539344084749e-11
-4.161693433838744741e-11
-3.308541108261735146e-11
-2.349204433934778155e-11
-1.718897526847144615e-11
-1.197011338978234127e-11
-8.575824937536305603e-12
-6.089104061113837848e-12
-4.345845839551599898e-12
-3.142057864135151511e-12
-2.306403087894570920e-12
-1.725304959022870934e-12
-1.313478417832179567e-12
-1.013461510709735252e-12
-7.883359316760313624e-13
-6.138670960513401848e-13
-4.751758632327779541e-13
-3.633285176240694383e-13
-2.730246389219769218e-13
