# bin_7_12
-2.699245108873747253e-16
-3.061469911486543042e-16
-3.417397095787293542e-16
-3.740151196721858457e-16
-3.993709924467008969e-16
-4.133094379770461370e-16
-4.122699510553140103e-16
-3.905508616023405311e-16
-3.493351488416223075e-16
-2.953418359441593642e-16
-2.417228329489405381e-16
-2.018035204319966772e-16
-1.748027904659098947e-16
-1.419521646970268995e-16
-9.918017664673142102e-17
-7.572788251621171930e-17
-5.719519453773014720e-17
-3.934834152689595003e-17
-2.785415956787758415e-17
-1.973040550500334779e-17
-1.354181175992385159e-17
-9.271754769420987020e-18
-6.387078137880908146e-18
-4.436513332430663211e-18
-3.122011608641989540e-18
-2.238135278085879314e-18
-1.636355982976115425e-18
-1.220885366774131344e-18
-9.265882395000938926e-19
-7.113193755980237803e-19
-5.483267580919574418e-19
