# bin_14_12
-6.964809042993318096e-11
-7.941493866237196564e-11
-8.925547954362499031e-11
-9.850235397783263002e-11
-1.062738810213272976e-10
-1.114411561430184554e-10
-1.128568891389404345e-10
-1.092546277660169131e-10
-9.984106181430959140e-11
-8.627056577286404275e-11
-7.109917416384842056e-11
-5.851653286757840439e-11
-5.026153224834484420e-11
-4.258630796272888927e-11
-3.127825328734951716e-11
-2.224730293876811474e-11
-1.793663332958025009e-11
-1.189496679818856647e-11
-8.919613083572113436e-12
-6.075912965438478953e-12
-4.140158673860376996e-12
-2.833699034289570458e-12
-1.927200113039667668e-12
-1.312206416084324317e-12
-8.984311442335616815e-13
-6.242621401764841648e-13
-4.413398641876804247e-13
-3.185572654917509619e-13
-2.350043609189246874e-13
-1.767522532939208856e-13
-1.348154353853962865e-13
