# bin_3_14
-3.480923551058050467e-32
-3.954893175415661547e-32
-4.424438086848906161e-32
-4.855383500576722126e-32
-5.201997862613848394e-32
-5.406714874683503533e-32
-5.420435559119746956e-32
-5.170776349609260285e-32
-4.655679674212179353e-32
-3.962218930334203788e-32
-3.247184389434846736e-32
-2.696677389390175539e-32
-2.333240019232501529e-32
-1.924859862535965298e-32
-1.361388338297456061e-32
-1.015177568068114165e-32
-7.877298793821593812e-33
-5.306863002567143581e-33
-3.851944862211672093e-33
-2.698350319912359089e-33
-1.844258306292087680e-33
-1.260712686707488267e-33
-8.634704552687915372e-34
-5.957865554624032318e-34
-4.156142766580768106e-34
-2.951060237623411951e-34
-2.136290958449085174e-34
-1.579182723494272045e-34
-1.189696599669635273e-34
-9.090162207791346618e-35
-6.995645022706348171e-35
