# bin_4_9
-9.884400233067826197e-18
-1.105313736458880502e-17
-1.212736020973454301e-17
-1.299357309296067488e-17
-1.350890277928843366e-17
-1.354967421229087743e-17
-1.293823202209029553e-17
-1.166414364167978119e-17
-9.936202361407838530e-18
-8.152025755340827510e-18
-6.764962160923788871e-18
-5.846368896260987316e-18
-4.834050996312661130e-18
-3.438667533320142382e-18
-2.555891327884673635e-18
-1.995473325614879498e-18
-1.352735676305981076e-18
-9.939572760224664310e-19
-7.034087562485654134e-19
-4.906292749988866119e-19
-3.448531941691187072e-19
-2.443602904607320442e-19
-1.755388902385470227e-19
-1.281793513157473520e-19
-9.546335128495802430e-20
-7.235194406933124717e-20
-5.561345927383419657e-20
-4.310521293192863438e-20
-3.344827602494166640e-20
-2.579986616350572689e-20
-1.965732198123305096e-20
