# bin_10_7
-2.569137472683418556e-10
-2.872925966786081921e-10
-3.152169396684584520e-10
-3.377398991882973152e-10
-3.511600312349434153e-10
-3.522187006694663750e-10
-3.364190886519943604e-10
-3.034444135703963202e-10
-2.587021482677938506e-10
-2.124153362930114105e-10
-1.762946463582223512e-10
-1.521540660328419855e-10
-1.257438294602115276e-10
-8.984810788311494485e-11
-6.666302952364025307e-11
-5.193751488824769624e-11
-3.537236141903075305e-11
-2.595322185613845099e-11
-1.830871919854658541e-11
-1.278309231634462839e-11
-8.992209567646942197e-12
-6.373397328078551726e-12
-4.576129131013556312e-12
-3.339152792822676170e-12
-2.484912827115376462e-12
-1.881811423397120722e-12
-1.445320008925593389e-12
-1.119484178791455825e-12
-8.682341619743838790e-13
-6.694884957487068071e-13
-5.100405054980479958e-13
