# bin_14_7
-4.353889500920494952e-10
-4.874780448768590007e-10
-5.356792735841131168e-10
-5.750579140473711348e-10
-5.993813610342879349e-10
-6.029182623258253210e-10
-5.782827610390286849e-10
-5.237545800674200877e-10
-4.485663980800760302e-10
-3.686224216944111814e-10
-3.050108968226030101e-10
-2.627402947398484253e-10
-2.189260757444825099e-10
-1.579919859507583369e-10
-1.156228106880298509e-10
-9.108654233782543446e-11
-6.170115848160019197e-11
-4.562909225779002460e-11
-3.195515193304030936e-11
-2.228575349050450540e-11
-1.565803750683235551e-11
-1.106551955708765874e-11
-7.914006557969950783e-12
-5.747615235955912873e-12
-4.257425944849892373e-12
-3.210855748813856407e-12
-2.458118812980795653e-12
-1.900268238361159371e-12
-1.472975330247219385e-12
-1.136687886636233678e-12
-8.676219589568445624e-13
