# bin_9_6
-3.272224307517839810e-10
-3.633638827262077911e-10
-3.952797649212059713e-10
-4.190321975882035788e-10
-4.299885336661205140e-10
-4.242287363475793666e-10
-3.965982248819232331e-10
-3.503955349548538400e-10
-2.933668903022770687e-10
-2.403173081355119596e-10
-2.026494253026511596e-10
-1.746234740898163202e-10
-1.371612565772979275e-10
-9.594771520835223802e-11
-7.545700027354385015e-11
-5.454167294872449180e-11
-3.934003979630852592e-11
-2.760059062404679833e-11
-1.976995948849773937e-11
-1.398914665938177760e-11
-9.950561971859501257e-12
-7.166846125330298395e-12
-5.239529027947046445e-12
-3.902323906167510857e-12
-2.959412624700821242e-12
-2.276549156871653035e-12
-1.767520967523263968e-12
-1.375559656886644578e-12
-1.065488974239660822e-12
-8.161215089133186356e-13
-6.148968312890712821e-13
