# bin_7_10
-1.074054088781641754e-13
-1.211220388908605869e-13
-1.342580816099728603e-13
-1.456758231074626637e-13
-1.538859578580020551e-13
-1.571785534601058563e-13
-1.540983231299214531e-13
-1.428483299448963138e-13
-1.251696675626865839e-13
-1.040576300611036869e-13
-8.523852050193849905e-14
-7.244984031935093811e-14
-6.234585646058532098e-14
-4.772427592920383982e-14
-3.315422350277508914e-14
-2.674233406309162249e-14
-1.841903505347217495e-14
-1.368524545674080430e-14
-9.286064881047098443e-15
-6.529848574658674534e-15
-4.557103829345444968e-15
-3.178133060307937845e-15
-2.230669787307679316e-15
-1.582335585681099939e-15
-1.143258457670023235e-15
-8.422770009025889107e-16
-6.322298130297309986e-16
-4.822846743283673415e-16
-3.716842170432817675e-16
-2.873589569204277285e-16
-2.212260074740774652e-16
