# bin_4_1
-2.254647509542475378e-09
-2.210081526046786263e-09
-2.063264356637095308e-09
-1.827440347636615078e-09
-1.546263530248113241e-09
-1.280669209171559261e-09
-1.072006326568074055e-09
-9.004626975455605729e-10
-7.158902426939505797e-10
-5.313458324904917921e-10
-3.991808331344752895e-10
-3.011477607957321245e-10
-2.195272445614691865e-10
-1.619922736278078687e-10
-1.194111467097707324e-10
-8.914186095331434968e-11
-6.755811642173169759e-11
-5.211656724868189816e-11
-4.087678713418154759e-11
-3.246290698517365483e-11
-2.594657084095307501e-11
-2.071980208226221948e-11
-1.641422520942411161e-11
-1.281770612432858027e-11
-9.813264904558890161e-12
-7.336285638073104434e-12
-5.342862227057491198e-12
-3.788237224503635931e-12
-2.617790030660971586e-12
-1.767151786543255176e-12
-1.168843283213248128e-12
