# bin_14_2
9.186862507305310462e-35
1.043644295575689411e-34
1.167362318114401573e-34
1.280811937365787119e-34
1.371909442889894818e-34
1.425452021149560696e-34
1.428547707020158144e-34
1.362061267453126373e-34
1.225791443552159298e-34
1.042707881792609425e-34
8.544489995574551579e-35
7.098570668147984985e-35
6.142482782345946679e-35
5.061774651658590391e-35
3.576728541794254500e-35
2.671683337683160896e-35
2.069178729725992325e-35
1.395988307094249269e-35
1.011452650628194309e-35
7.091448856859287844e-36
4.848250691923167035e-36
3.314471540775534361e-36
2.271034441219614551e-36
1.567748646761409560e-36
1.094339288059012742e-36
7.775811074619235072e-37
5.633114271417664494e-37
4.167007131974253858e-37
3.141044707496138425e-37
2.400877805765507584e-37
1.847938492165636142e-37
