# bin_8_2
4.504763538953464484e-20
4.993344083739260825e-20
5.419988016750281410e-20
5.729948100046970185e-20
5.859708963056265321e-20
5.756165982951491744e-20
5.350608719294665086e-20
4.701897536336462422e-20
3.916116206653884557e-20
3.205664484570453741e-20
2.714970230699994226e-20
2.337862570001462661e-20
1.808653816320399505e-20
1.258952495565012835e-20
1.007278425767612708e-20
7.098714111463475923e-21
5.230944102167025864e-21
3.618641154078110670e-21
2.594426435009153197e-21
1.844298713169547084e-21
1.317482143139425343e-21
9.532059630335875972e-22
7.001196305027446507e-22
5.241351696892907644e-22
3.993295889518643524e-22
3.083341230092504015e-22
2.399801006417747749e-22
1.869409351178840177e-22
1.447312500548064279e-22
1.106617143640075043e-22
8.314107332574499520e-23
