# bin_11_4
3.867466400379151384e-20
4.361726919785630386e-20
4.835265160233935959e-20
5.247212967775161592e-20
5.544039285781716300e-20
5.663963211971245739e-20
5.555367712996743273e-20
5.152439186916885164e-20
4.517881490225503042e-20
3.755384837312419404e-20
3.075016008967856809e-20
2.611546673563219952e-20
2.248272571250153945e-20
1.724451048362257673e-20
1.196799721963145157e-20
9.642304286973494200e-21
6.658627672131595790e-21
4.936282270711614596e-21
3.349062502466266656e-21
2.356925769923887325e-21
1.643852506342183099e-21
1.145570132640152579e-21
8.035085180468697811e-22
5.695174892245713331e-22
4.111000068541864064e-22
3.025961925765374964e-22
2.269466997965554495e-22
1.730097836046091314e-22
1.332798921038869612e-22
1.030277675011733347e-22
7.932569709394313546e-23
