# bin_6_4
7.970190996297702511e-12
8.789861376040586199e-12
9.481387615244989257e-12
9.945400722462289474e-12
1.007925448476172406e-11
9.774235126135883947e-12
8.954141064880962915e-12
7.757235909876633277e-12
6.404018843202918928e-12
5.263702393963381746e-12
4.505060362411940402e-12
3.826258790553439087e-12
2.845138550054964801e-12
2.020839472892209100e-12
1.628855743442814236e-12
1.108524697419041083e-12
8.355223559497819105e-13
5.823973335005274144e-13
4.135736152193387337e-13
2.962093285066020071e-13
2.136637504559459918e-13
1.562418310770228424e-13
1.161280777758605457e-13
8.797223369464897485e-14
6.769044368228607674e-14
5.263789784390945903e-14
4.111339941970168866e-14
3.202033893923419056e-14
2.470207696064490307e-14
1.876664479540343048e-14
1.397704174168359178e-14
