# bin_11_1
1.537487151508307079e-32
1.729341561280237574e-32
1.910934991898806361e-32
2.065547486100231518e-32
2.171622636197016406e-32
2.206075589954167359e-32
2.146123408093612626e-32
1.972039437089782470e-32
1.713531154804030877e-32
1.416337480453156547e-32
1.162752245077795755e-32
9.943485993188208429e-33
8.485516537733781420e-33
6.341457809736443768e-33
4.459900688938921693e-33
3.611011476745838749e-33
2.431909260716044363e-33
1.830364052054316785e-33
1.251793969059960911e-33
8.725985409565364697e-34
6.114436076662850846e-34
4.287137218459324951e-34
3.029317748189104007e-34
2.167246686280987893e-34
1.580928716817676244e-34
1.175643262021930831e-34
8.897821635519129754e-35
6.828837419745581865e-35
5.279993555019462561e-35
4.083227498977809248e-35
3.135767880131395515e-35
