# bin_15_2
-2.358156616761100165e-09
-2.444654131259191222e-09
-2.444122322170697319e-09
-2.331925571622797404e-09
-2.106694833197951076e-09
-1.804990021462091855e-09
-1.491939433117493661e-09
-1.239072698423310802e-09
-1.054610051442176945e-09
-8.662066568483994322e-10
-6.435067718518039310e-10
-4.760473644510638922e-10
-3.658800451067484086e-10
-2.632874323959510354e-10
-1.937135734737228312e-10
-1.406670013679713323e-10
-1.032590078068719611e-10
-7.661309482537239264e-11
-5.775843836297308175e-11
-4.432111516730160141e-11
-3.455685244798773969e-11
-2.727151143061135659e-11
-2.164162924503534690e-11
-1.714661861963385229e-11
-1.347066858137344316e-11
-1.042733040951065125e-11
-7.911039391199500095e-12
-5.859597910019466086e-12
-4.227130979782669586e-12
-2.968811859501124154e-12
-2.032475553546891594e-12
