# bin_13_14
-6.560587445005998995e-12
-7.501967503243825892e-12
-8.462265898194343993e-12
-9.380011557800897434e-12
-1.017490562205756933e-11
-1.074210560222250227e-11
-1.096197162301534503e-11
-1.073234231068171243e-11
-9.929762567354444886e-12
-8.686165341640423141e-12
-7.206633875369285025e-12
-5.904270662522546955e-12
-5.027559377367899903e-12
-4.322306654693730234e-12
-3.285769422315414114e-12
-2.280718578043395368e-12
-1.846016187253245384e-12
-1.252325494825192019e-12
-9.332568807789259128e-13
-6.248433238775580070e-13
-4.305005424513698008e-13
-2.941881632898608840e-13
-1.993122073166161513e-13
-1.345168604407062210e-13
-9.087727894692892585e-14
-6.207885371571376874e-14
-4.303073174503522173e-14
-3.039794377958959313e-14
-2.196144127028803789e-14
-1.622513646675136730e-14
-1.221907763401094215e-14
