# bin_13_5
-7.576839813037465162e-10
-8.349982608402910270e-10
-8.998972421485921013e-10
-9.429194615004582341e-10
-9.544871164150543065e-10
-9.241697473734041293e-10
-8.458346128052824679e-10
-7.321389193412500732e-10
-6.049647143697859404e-10
-4.981442917498893992e-10
-4.259476151120975905e-10
-3.599533305128553707e-10
-2.679716637312546904e-10
-1.919423735960264943e-10
-1.526299819193743404e-10
-1.054840721668335848e-10
-7.838293004794582129e-11
-5.499626799781287785e-11
-3.918258281091179712e-11
-2.803682090470432578e-11
-2.022451346878911216e-11
-1.479956860396021091e-11
-1.100887071976544209e-11
-8.343325001919177458e-12
-6.420693585211431795e-12
-4.991845479269484041e-12
-3.896730769141194973e-12
-3.032378032449057190e-12
-2.336932538512368974e-12
-1.773392213345660349e-12
-1.319204956103478875e-12
