# bin_14_7
-4.306585559219766628e-10
-4.822752739802790963e-10
-5.300873636950935541e-10
-5.692218517741587898e-10
-5.935187284459358327e-10
-5.972776432852987236e-10
-5.732240850339859676e-10
-5.194964465494756530e-10
-4.451976675669231240e-10
-3.659386814967118116e-10
-3.026780150229887773e-10
-2.606573358434207796e-10
-2.174328117201285453e-10
-1.571474187337371891e-10
-1.147979432996428572e-10
-9.056422818570620258e-11
-6.132072517968018529e-11
-4.539324301483153162e-11
-3.176199092472286236e-11
-2.215274951887351812e-11
-1.556522666510044057e-11
-1.099828685358203837e-11
-7.863909986792202951e-12
-5.709268242825762145e-12
-4.227556472781451713e-12
-3.187337316824187718e-12
-2.439503673995170998e-12
-1.885598808960657822e-12
-1.461551625682465098e-12
-1.127955663715359442e-12
-8.611008524172747126e-13
