# bin_9_14
-1.600141859378643122e-15
-1.824840981704836202e-15
-2.051421121955874422e-15
-2.264563321421919864e-15
-2.444043919797624692e-15
-2.563954768869123825e-15
-2.597737277021087259e-15
-2.516479059669781240e-15
-2.300973004176930385e-15
-1.989389812578513159e-15
-1.639665828228866692e-15
-1.348797701848325325e-15
-1.158355255786324144e-15
-9.828778076595630028e-16
-7.226858677067376349e-16
-5.126440176478463882e-16
-4.146864263219704350e-16
-2.741565661953736787e-16
-2.062865160632885123e-16
-1.403553882518136001e-16
-9.553327041951128587e-17
-6.541669162020668156e-17
-4.448367543853617265e-17
-3.027789860867416208e-17
-2.072000765202530403e-17
-1.438950775225831699e-17
-1.016735235499535821e-17
-7.334775145960676427e-18
-5.408735541008436463e-18
-4.067183910710964530e-18
-3.102310752291197003e-18
