# bin_1_15
-8.314843169565309561e-44
-9.468322431686951438e-44
-1.062339835771584379e-43
-1.169968542568159551e-43
-1.259038658066046379e-43
-1.315979738183073625e-43
-1.327836063253018367e-43
-1.278474045391141200e-43
-1.161663597233771699e-43
-9.979444438295901429e-44
-8.202984250179134628e-44
-6.770712712279496476e-44
-5.836068667140799218e-44
-4.901950391742392849e-44
-3.543954425245867828e-44
-2.561499467804465862e-44
-2.045817118328956596e-44
-1.355454804071848825e-44
-1.010165327693188029e-44
-6.952160691197554339e-45
-4.734003706329525468e-45
-3.238723483869365727e-45
-2.206509040579963776e-45
-1.509804947764220523e-45
-1.041196470515250611e-45
-7.297045474730106447e-46
-5.208605730201390556e-46
-3.797193501220524535e-46
-2.826885389334097780e-46
-2.141604086715885617e-46
-1.640981489854606213e-46
