# bin_9_13
-2.155686042180673338e-14
-2.454422757925317404e-14
-2.753392751176986167e-14
-3.031738324924551431e-14
-3.261733110661887908e-14
-3.408172456661727798e-14
-3.437655089428351658e-14
-3.308081657521586550e-14
-3.004118101024469616e-14
-2.579221102776689658e-14
-2.119518498416213396e-14
-1.749945117069054102e-14
-1.508933545810205273e-14
-1.266311325231444314e-14
-9.139928178254028091e-15
-6.617259598815492851e-15
-5.279979004941470112e-15
-3.497903035537645928e-15
-2.605193594646326224e-15
-1.794849349741407535e-15
-1.222140146518632331e-15
-8.360404532225668987e-16
-5.696526208646343663e-16
-3.899697871104635350e-16
-2.691208854567359305e-16
-1.887648918717537549e-16
-1.348633169426491670e-16
-9.841137286790206378e-17
-7.332685365098148877e-17
-5.558893524577929238e-17
-4.261274768464280075e-17
