# bin_8_13
-7.784520613240442413e-16
-8.855788823270679726e-16
-9.923559921191913496e-16
-1.091209094937242369e-15
-1.172038296278159298e-15
-1.222067488187899346e-15
-1.229679515814143093e-15
-1.179193795314552414e-15
-1.067111881616885752e-15
-9.128960824539768872e-16
-7.492422951820181203e-16
-6.199660568849384782e-16
-5.354761962650617909e-16
-4.464700288492980933e-16
-3.194153811472452612e-16
-2.339781750771739083e-16
-1.848204855262297582e-16
-1.230609465093351867e-16
-9.083949998338608814e-17
-6.301004128589237473e-17
-4.295865845760180967e-17
-2.937336872075381459e-17
-2.004972782602643780e-17
-1.376958644879961691e-17
-9.545048535961963739e-18
-6.729454468267576435e-18
-4.834761483860636379e-18
-3.547726574106309276e-18
-2.656293596717513179e-18
-2.020945055318881529e-18
-1.552198151713797398e-18
