# bin_9_7
-1.871751908568300185e-10
-2.093880393010223460e-10
-2.298504429122112605e-10
-2.464251706180326857e-10
-2.564232921608218428e-10
-2.574416566295341977e-10
-2.462431060259233660e-10
-2.223954577448207305e-10
-1.899276124778206497e-10
-1.559082963614417705e-10
-1.292154583040068882e-10
-1.114520993583659873e-10
-9.240371487319333279e-11
-6.622982061971274166e-11
-4.886993660604606719e-11
-3.826523728917673699e-11
-2.597267462454403656e-11
-1.913068708354748938e-11
-1.346069880345536354e-11
-9.391582333709172203e-12
-6.604507043062361896e-12
-4.676826085467337474e-12
-3.354037064347386764e-12
-2.443926410841001249e-12
-1.816230472810152519e-12
-1.373792557629137482e-12
-1.054177005891404023e-12
-8.161036889669277067e-13
-6.328804860851749161e-13
-4.881520829941650343e-13
-3.721203841971023020e-13
