# bin_10_4
-9.009466338693443762e-10
-9.802002359190403625e-10
-1.039682706478308266e-09
-1.068152897023454850e-09
-1.055534031568796976e-09
-9.898655986367669132e-10
-8.774925149362514357e-10
-7.375548099267554570e-10
-6.048194250086637954e-10
-5.080299997770360015e-10
-4.363708924015213137e-10
-3.462315028332327351e-10
-2.455540023067959298e-10
-1.896898735832484272e-10
-1.404711376448558250e-10
-1.004745894583578341e-10
-7.233866081577457492e-11
-5.213743333065285963e-11
-3.745614390698088032e-11
-2.719302172512366731e-11
-2.003335275025203404e-11
-1.500907509315496178e-11
-1.144487081294279845e-11
-8.861176828758042069e-12
-6.927136569624651959e-12
-5.433117518866758642e-12
-4.245754827727806710e-12
-3.283746454101361798e-12
-2.499293221930387465e-12
-1.863342825799798864e-12
-1.356237710753792017e-12
