# bin_7_5
-3.309964176776874533e-10
-3.642153778628452515e-10
-3.917826929858657455e-10
-4.095371407044560049e-10
-4.134093225240131084e-10
-3.987052743635286226e-10
-3.633433895461313887e-10
-3.131690713247950035e-10
-2.581818707602476268e-10
-2.129511703825736074e-10
-1.825605364270304791e-10
-1.534471657471303210e-10
-1.129849451068308659e-10
-8.157273331578491335e-11
-6.475481964457035206e-11
-4.451128729841696363e-11
-3.315733447089057823e-11
-2.332793143193744662e-11
-1.660370917115264975e-11
-1.190452349973918390e-11
-8.611940892042615273e-12
-6.322534660798911538e-12
-4.719865795196683514e-12
-3.589189976577225787e-12
-2.769645435629914483e-12
-2.157297873483715426e-12
-1.685379442441256803e-12
-1.311196129281600034e-12
-1.009260765039455102e-12
-7.643378275028986971e-13
-5.670564317145231738e-13
