# bin_1_11
-2.201245769442481542e-34
-2.475866430909490198e-34
-2.735769858086753306e-34
-2.957012112211896337e-34
-3.108726958507980824e-34
-3.157886686378647265e-34
-3.071839185915742973e-34
-2.822442832033046112e-34
-2.452263928836355426e-34
-2.026865490874923525e-34
-1.664021675676982621e-34
-1.423083549109964793e-34
-1.214292210786703288e-34
-9.072923758904654704e-35
-6.382176604727273998e-35
-5.167047041972111125e-35
-3.479823961505907684e-35
-2.619125935992291710e-35
-1.791647008596443723e-35
-1.249054380706554800e-35
-8.753885516758552957e-36
-6.139294238030108523e-36
-4.339465867714472914e-36
-3.105740549601695612e-36
-2.266428571956766590e-36
-1.686051113248644358e-36
-1.276496838692745785e-36
-9.799033875060702927e-37
-7.577426285978323881e-37
-5.859955226862343481e-37
-4.499793287011047985e-37
