# bin_12_9
-1.591087713178952564e-10
-1.798659039568301247e-10
-1.999656607203788105e-10
-2.177687966955922208e-10
-2.311033869352745702e-10
-2.373647000013882616e-10
-2.344849372507832749e-10
-2.194204386592112341e-10
-1.940263697398906388e-10
-1.623988409256160670e-10
-1.328988220031916309e-10
-1.120474479880443874e-10
-9.679789906360513553e-11
-7.612406524561606278e-11
-5.283803004719242017e-11
-4.169729321352354692e-11
-2.992390310160891751e-11
-2.149375497366759158e-11
-1.477808744539150441e-11
-1.046986459123822811e-11
-7.251428605901541820e-12
-5.012771720604473339e-12
-3.490373825089254309e-12
-2.453470857013100303e-12
-1.752874500516786091e-12
-1.276791145038716000e-12
-9.481809039711978110e-13
-7.170136878313474290e-13
-5.494058558281298193e-13
-4.237659357149096022e-13
-3.265768057451188041e-13
