# bin_14_6
-5.833233641753735198e-10
-6.487538588885896738e-10
-7.070901168857307572e-10
-7.513904612859750048e-10
-7.733263553293813063e-10
-7.659531439552920586e-10
-7.196484793760475754e-10
-6.389074512379806660e-10
-5.370399422716247807e-10
-4.397949783379832116e-10
-3.692779736997333571e-10
-3.185756076363489117e-10
-2.535393255368636135e-10
-1.778178815459391245e-10
-1.380107539196824743e-10
-1.016740058419794048e-10
-7.222599851858999827e-11
-5.116045098358756327e-11
-3.657903558958879814e-11
-2.579246177170895768e-11
-1.828915801265585454e-11
-1.312172331335791215e-11
-9.553101128014016335e-12
-7.082205508843323101e-12
-5.348764973847554002e-12
-4.100932163023932092e-12
-3.177046854603445777e-12
-2.470489071196195997e-12
-1.914536372065496368e-12
-1.468871180960985453e-12
-1.109571597509626153e-12
