# bin_14_5
-7.956212698360437660e-10
-8.768574197705011111e-10
-9.450774569677650111e-10
-9.903487485750790438e-10
-1.002603578978174747e-09
-9.709015769653198341e-10
-8.887489820906930656e-10
-7.694072172492426742e-10
-6.358142213245165251e-10
-5.235145335005240254e-10
-4.475971936075502134e-10
-3.783233596533177675e-10
-2.817626035078084026e-10
-2.017629926608507520e-10
-1.604476348316543576e-10
-1.109102503146024654e-10
-8.240666550058568963e-11
-5.781414456063023545e-11
-4.119165004760795816e-11
-2.947217125802648965e-11
-2.125765327419654537e-11
-1.555368472333700258e-11
-1.156829051113431518e-11
-8.766176315866848049e-12
-6.745406712587720881e-12
-5.243926657992408442e-12
-4.093383178354544023e-12
-3.185439053451248803e-12
-2.455001449827210501e-12
-1.863130103429999342e-12
-1.386099284347113160e-12
