# bin_15_4
-1.133683226473613113e-09
-1.233879846347945108e-09
-1.309378796204930206e-09
-1.346013047937327047e-09
-1.331104243580176814e-09
-1.249467529545991567e-09
-1.108642383624187281e-09
-9.325655011229241814e-10
-7.647642449911888128e-10
-6.419519040625735292e-10
-5.515236487460937625e-10
-4.385580851129279203e-10
-3.112197656528586824e-10
-2.399282154864462316e-10
-1.781495819822011972e-10
-1.271894704879806169e-10
-9.168108907336787222e-11
-6.604269435668427696e-11
-4.742338489162965783e-11
-3.441219178078930465e-11
-2.533561144515352431e-11
-1.896875151285337535e-11
-1.445450072230137684e-11
-1.118533412648074975e-11
-8.740853222517819302e-12
-6.854567393581347499e-12
-5.356848015592013048e-12
-4.144105887288906828e-12
-3.155424893461368589e-12
-2.353818479254409700e-12
-1.714355517587109283e-12
