# bin_6_2
-1.624379310487850401e-09
-1.681112241069957966e-09
-1.677214590258446189e-09
-1.595911107995031764e-09
-1.437696947921652016e-09
-1.228707521318932978e-09
-1.014683454162441208e-09
-8.437729565852150305e-10
-7.184485484338717408e-10
-5.875648091448781658e-10
-4.346671503522527242e-10
-3.227578410263417408e-10
-2.475326076499691439e-10
-1.779799883110642502e-10
-1.310316984239752196e-10
-9.520500191071555638e-11
-6.994360622988084032e-11
-5.196943958887538578e-11
-3.924431942340951890e-11
-3.016399863964389456e-11
-2.355302567834181754e-11
-1.860723564202459565e-11
-1.477386448460114351e-11
-1.170524093336636891e-11
-9.191005591568985756e-12
-7.107484387751606725e-12
-5.384891384072669304e-12
-3.981890489251054911e-12
-2.867345954505468195e-12
-2.010167868737826438e-12
-1.373875540209212444e-12
