# bin_3_12
-1.580448553509109217e-27
-1.786088080712868936e-27
-1.984900991667375832e-27
-2.160563562937407944e-27
-2.291439843146877293e-27
-2.351540220737014420e-27
-2.320730586140553716e-27
-2.168513979694388161e-27
-1.914935554560848038e-27
-1.600351629846779275e-27
-1.309192282372324170e-27
-1.105201134279050952e-27
-9.552444723767377120e-28
-7.482024491401099621e-28
-5.177003964827836777e-28
-4.113167025026230623e-28
-2.927377493018876371e-28
-2.119175217339930731e-28
-1.445267032447289785e-28
-1.025853268877757729e-28
-7.114901653442587508e-29
-4.924663775509010210e-29
-3.434178465910637590e-29
-2.417472887202390045e-29
-1.730479294557856915e-29
-1.263033278716344897e-29
-9.398567182248864081e-30
-7.120128494532955205e-30
-5.463443172611285125e-30
-4.217769947597820764e-30
-3.251440889351921388e-30
