# bin_14_12
-6.858386576440518985e-11
-7.819991454165740809e-11
-8.788776874400740535e-11
-9.699010527817155536e-11
-1.046385290073933765e-10
-1.097212856865877179e-10
-1.111094303777064474e-10
-1.075547152761694929e-10
-9.827940483403442485e-11
-8.491401805226956892e-11
-6.997807134818042246e-11
-5.759572351284312615e-11
-4.947339584081764779e-11
-4.191410979144934485e-11
-3.077735449424459735e-11
-2.189519146909260299e-11
-1.765192259788545823e-11
-1.170497991488970946e-11
-8.777483897841663745e-12
-5.980173776073568264e-12
-4.075032839709915876e-12
-2.789484510539778772e-12
-1.897505462336917652e-12
-1.292364098695481953e-12
-8.851846116152659210e-13
-6.153400221559772535e-13
-4.352556501910488517e-13
-3.143323630857421571e-13
-2.320017129400101037e-13
-1.745633851628528043e-13
-1.331810234860128798e-13
