# bin_4_9
-9.085630018370899941e-18
-1.016825700778896244e-17
-1.116781158845411489e-17
-1.198082639795814599e-17
-1.247673914829820680e-17
-1.253850262902408466e-17
-1.200675231160922524e-17
-1.085339843116131606e-17
-9.275525551528830686e-18
-7.611698628332875892e-18
-6.301721636037055176e-18
-5.439182041331604305e-18
-4.524250317012472697e-18
-3.239880323289222168e-18
-2.382880348299020494e-18
-1.877930873379081494e-18
-1.265341040583210940e-18
-9.372126192399644569e-19
-6.594520289298193927e-19
-4.593095337638839546e-19
-3.227370571836280600e-19
-2.282722768447726491e-19
-1.635808874905293015e-19
-1.190964285133781905e-19
-8.844723500755727111e-20
-6.686746446854560700e-20
-5.129876625936316674e-20
-3.971704325505909189e-20
-3.081177150986996438e-20
-2.378003386878525227e-20
-1.814123412152146358e-20
