# bin_15_6
-6.111963618342305497e-10
-6.797830141163313198e-10
-7.409491602735805696e-10
-7.874234899996807002e-10
-8.104779411762631375e-10
-8.028348095417539664e-10
-7.544024229489007724e-10
-6.698490430861308170e-10
-5.631126561461102006e-10
-4.611498614604249065e-10
-3.871690083483781931e-10
-3.340176120111175579e-10
-2.659175629644740078e-10
-1.865186543425727966e-10
-1.447126056870386731e-10
-1.066631362469824799e-10
-7.574147968193385795e-11
-5.366478019317944871e-11
-3.836686585911795787e-11
-2.705068585800380582e-11
-1.917984812754396230e-11
-1.375932633306714274e-11
-1.001615506001276764e-11
-7.424545995476957849e-12
-5.606667226323874290e-12
-4.298265045596737452e-12
-3.329715515150337076e-12
-2.589141039814661587e-12
-2.006510921612916958e-12
-1.539504295762225597e-12
-1.163009747861902872e-12
