# bin_8_15
-1.507440311460184674e-18
-1.720596089415895965e-18
-1.936368261705756030e-18
-2.140409473512949108e-18
-2.313855169974087088e-18
-2.432402062643252316e-18
-2.470161634851039426e-18
-2.401202956314594892e-18
-2.203755560118420841e-18
-1.912489046757759554e-18
-1.579229720300933979e-18
-1.297003606251218242e-18
-1.111091565144060477e-18
-9.474888631003071162e-19
-7.039585573670028237e-19
-4.949098704143582554e-19
-4.017120542035528287e-19
-2.666330813462725770e-19
-2.008105576471860434e-19
-1.357804996238182078e-19
-9.257533347847213774e-20
-6.340117852114752114e-20
-4.308502155794573578e-20
-2.924285787326590326e-20
-1.992565085616373312e-20
-1.376467740357989242e-20
-9.667187999372630346e-21
-6.929042515866568508e-21
-5.078446409555469680e-21
-3.799584645664773033e-21
-2.888332812773267485e-21
