# bin_15_5
-8.247361423746593053e-10
-9.089822083880965284e-10
-9.797511035725616245e-10
-1.026748601938111642e-09
-1.039530986617531805e-09
-1.006766576171744736e-09
-9.216844464287323235e-10
-7.980096879718379057e-10
-6.594905066478947822e-10
-5.429855453295529024e-10
-4.642126313861898635e-10
-3.924219769165733271e-10
-2.923470343990719012e-10
-2.093001201292262478e-10
-1.664475753712958703e-10
-1.150747760132980147e-10
-8.549483748195958930e-11
-5.997682056105980304e-11
-4.273357944506805903e-11
-3.057377833187392910e-11
-2.205056660949989940e-11
-1.613245028993359258e-11
-1.199762907309217205e-11
-9.090700828287038948e-12
-6.994612356935885974e-12
-5.437389369691148932e-12
-4.244306269467134272e-12
-3.302907530285097953e-12
-2.545615023527997534e-12
-1.932000893235804819e-12
-1.437438644215839815e-12
