# bin_5_7
-1.106124149675042933e-12
-1.229262765510919188e-12
-1.338533374183400354e-12
-1.420690384911295964e-12
-1.459801193109211677e-12
-1.443188173501862405e-12
-1.352115920426496551e-12
-1.197091678053428441e-12
-1.003102560135026310e-12
-8.207033398014272324e-13
-6.907082091917555317e-13
-5.966429175586028769e-13
-4.715392616234700733e-13
-3.282597209802197864e-13
-2.580595772933355998e-13
-1.875620469421551414e-13
-1.347439353501208237e-13
-9.424906465619455107e-14
-6.776569029170534299e-14
-4.789425949976899456e-14
-3.400569583194652879e-14
-2.445940933520631288e-14
-1.785482502033602001e-14
-1.327771512015043185e-14
-1.005682697895250347e-14
-7.729630090718334493e-15
-5.999251204573598189e-15
-4.669763090453641378e-15
-3.619502704440337948e-15
-2.775229279265906617e-15
-2.093684097531333738e-15
