# bin_8_7
6.476239844167370578e-08
6.049934993737602562e-08
5.507460736385421803e-08
4.879157318934929591e-08
4.206310165920860570e-08
3.535308589363864847e-08
2.908696031311450516e-08
2.354373681983425690e-08
1.880562593925099523e-08
1.479684223248674042e-08
1.140805457711182098e-08
8.615968683498050329e-09
6.450178772727426499e-09
4.840655470362625222e-09
3.625172968145351051e-09
2.718326627307692275e-09
2.055922553890884778e-09
1.565357454501054990e-09
1.201349816200877131e-09
9.273577188117529489e-10
7.178542861756571414e-10
5.551724550991455929e-10
4.272890777417179489e-10
3.260529717615640100e-10
2.458502874704111524e-10
1.826788330182117007e-10
1.334856152311383334e-10
9.578284895142533170e-11
6.743921617307310790e-11
4.658612755611853840e-11
3.158865417943143948e-11
