# bin_4_4
4.083295901533264888e-08
3.667507487880761441e-08
3.206035760436680430e-08
2.729651589859604195e-08
2.269972052656322456e-08
1.852420801478504060e-08
1.490050545827738718e-08
1.182917161140682695e-08
9.235233222169040486e-09
7.063724703574767241e-09
5.321753110392347636e-09
4.005424380311075413e-09
3.024424173359404169e-09
2.282137495783728244e-09
1.735615268070715653e-09
1.331225892335291814e-09
1.029885437370897001e-09
8.022219197135021885e-10
6.273039958689316302e-10
4.904568913019610682e-10
3.817794833667328423e-10
2.946714106471181807e-10
2.246866796865835903e-10
1.687331508015271740e-10
1.245035095751889436e-10
9.011592821903128350e-11
6.392386141678133318e-11
4.443148428551514586e-11
3.027751443142929365e-11
2.025239733656521411e-11
1.332010132864442057e-11
