# bin_7_7
6.202758508282777322e-08
5.773173739240188557e-08
5.235189751113454252e-08
4.619762189981723749e-08
3.967770412003346043e-08
3.323933273081144804e-08
2.727798676715303861e-08
2.203650981667613649e-08
1.756900723845521541e-08
1.378997584849665993e-08
1.060122521541460907e-08
7.992601407125425943e-09
5.986369130725642052e-09
4.496027880742363477e-09
3.368361894676614983e-09
2.531355957049986933e-09
1.918375037435427818e-09
1.464300288996218238e-09
1.126266666435367444e-09
8.709982855548697588e-10
6.750607842203186061e-10
5.223488819285701870e-10
4.019408744686448475e-10
3.064276730490670513e-10
2.306940359821663839e-10
1.710591515982429035e-10
1.246794463320364302e-10
8.920898501043186901e-11
6.261842925426212783e-11
4.311973185547532894e-11
2.914699379190751815e-11
