# bin_7_1
2.333675565257463753e-08
1.997014842562703854e-08
1.668023736971739824e-08
1.366312604259170357e-08
1.102906312376354503e-08
8.788371267813944026e-09
6.889308559815132020e-09
5.292123144657184891e-09
4.004170928708733060e-09
3.024875659696238293e-09
2.293336000355681697e-09
1.741806386361764004e-09
1.333560707377411412e-09
1.031440271896668349e-09
8.053393893154921243e-10
6.336182297951670270e-10
5.005233045050255473e-10
3.952268789408079406e-10
3.105088267609876327e-10
2.416554717277825562e-10
1.855790556649915853e-10
1.401793214372133857e-10
1.038985168372853677e-10
7.543987399193729449e-11
5.361914221284917214e-11
3.730787847911732612e-11
2.543470326167441248e-11
1.701663195294214480e-11
1.119500530497844759e-11
7.258750026259409905e-12
4.649226856419740829e-12
