# bin_10_2
3.528917871905078504e-08
3.114520457355929844e-08
2.674137003646996293e-08
2.238973528581564977e-08
1.836845075782952591e-08
1.484569436797459541e-08
1.185047736437146015e-08
9.310459075210056559e-09
7.158465981663601116e-09
5.405347454429558142e-09
4.071056050676294787e-09
3.077705761122583608e-09
2.324708712920920504e-09
1.768704956285271117e-09
1.358511878991902162e-09
1.053234220024221164e-09
8.232104538753365504e-10
6.466808071704590124e-10
5.084786894575488529e-10
3.983818481400708412e-10
3.096430028225130819e-10
2.378070266861688649e-10
1.798578433588546943e-10
1.336085522120627513e-10
9.730307340415055932e-11
6.939717149187778401e-11
4.845944740203020251e-11
3.315012588929766732e-11
2.224486867221496603e-11
1.466991493705768058e-11
9.528733339353730573e-12
