# bin_5_3
3.861877712664820246e-08
3.449071083687004195e-08
2.997611939475779736e-08
2.538092514365878964e-08
2.100809733308591573e-08
1.708386225088266383e-08
1.370593802034244967e-08
1.084885647724834992e-08
8.432933700579662216e-09
6.420362841666255856e-09
4.830610192292203037e-09
3.642467101165854868e-09
2.751055334936078183e-09
2.079566974591939761e-09
1.587135053258455341e-09
1.221239351152528132e-09
9.480212067391121772e-10
7.405904223956257236e-10
5.802662445861814181e-10
4.540989344487999012e-10
3.534010576931813068e-10
2.724038836820337409e-10
2.072168602354323588e-10
1.551076841286623111e-10
1.139927280215346229e-10
8.213194267637564926e-11
5.797322792823717391e-11
4.009069405635242299e-11
2.718302138844835108e-11
1.809724870086216041e-11
1.185260157123603731e-11
