# bin_11_7
7.084759609072088524e-08
6.666296733604062054e-08
6.114449778714203786e-08
5.458134949681775156e-08
4.739458944491155963e-08
4.008434071329194992e-08
3.314160576744415961e-08
2.692556375425614677e-08
2.158177238967426259e-08
1.705772336782489841e-08
1.322106901189271504e-08
1.001921232885997432e-08
7.495900537876477298e-09
5.617180402877161187e-09
4.203838594091600880e-09
3.140017648920497614e-09
2.365748466296630954e-09
1.792948319562374988e-09
1.370276046564557750e-09
1.054004682444450276e-09
8.139037733283881461e-10
6.287632406437754046e-10
4.840679665125600277e-10
3.699838715806510278e-10
2.797656324386608251e-10
2.086794290831118995e-10
1.531957927146689781e-10
1.105045716092104191e-10
7.824349558369405460e-11
5.436264836273204705e-11
3.707259631067147370e-11
