# bin_10_10
7.818165588845511899e-08
7.425082622470844256e-08
6.879705927728557201e-08
6.207513283818979826e-08
5.449177411861966846e-08
4.656361365963963134e-08
3.883489164031339015e-08
3.175954010474925598e-08
2.558644389814660506e-08
2.033774929269232353e-08
1.589153194464337008e-08
1.214685410114418037e-08
9.115249857311762404e-09
6.810288532831720405e-09
5.094916561759664625e-09
3.795178842420468117e-09
2.839508522103601644e-09
2.138601035894537306e-09
1.622359554095994112e-09
1.239257289331868273e-09
9.515677538510075421e-10
7.322372425598084839e-10
5.626503718426517378e-10
4.301228893965341173e-10
3.259610881128630424e-10
2.441232726721472245e-10
1.802351990172326443e-10
1.309278670602222870e-10
9.346151046151296222e-11
6.551766593024580449e-11
4.510060870095405315e-11
