# bin_14_2
3.560964565221266474e-08
3.140804537963067442e-08
2.694667703288818099e-08
2.254533554520407097e-08
1.848653232926735093e-08
1.493742821033591378e-08
1.192119418741728293e-08
9.360122110739590277e-09
7.188989916272934742e-09
5.425025994051852366e-09
4.086784129500536578e-09
3.089284953635340332e-09
2.333311860176144072e-09
1.776064280563247758e-09
1.364710494989696605e-09
1.058641906392234186e-09
8.279003773712809581e-10
6.506915191106603859e-10
5.118297139720677728e-10
4.011005002620777992e-10
3.117742669608781965e-10
2.394140220167613276e-10
1.810185141293039110e-10
1.344077900364828348e-10
9.782504559985464498e-11
6.971871542135686737e-11
4.864515932804700815e-11
3.324995060315504664e-11
2.229426811324812448e-11
1.469191898176262164e-11
9.537061718137628397e-12
