# bin_15_2
3.583718997512289999e-08
3.161825637499569457e-08
2.713407855619921349e-08
2.270678461497535418e-08
1.862180295020155957e-08
1.504874940039386451e-08
1.201188601351919047e-08
9.432993187210699470e-09
7.245888403334874586e-09
5.467997699367752594e-09
4.118898464765233735e-09
3.113403821289796755e-09
2.351270380923164092e-09
1.789473023451007479e-09
1.374821163547646552e-09
1.066349949457451335e-09
8.338543660416503224e-10
6.553455609324294064e-10
5.154985535452818172e-10
4.040030324740764860e-10
3.140660996650854058e-10
2.412102267747629020e-10
1.824089053887522451e-10
1.354664090332562149e-10
9.861532037805536780e-11
7.029588508196558702e-11
4.905710350791863378e-11
3.353727423826685313e-11
2.249030267295257201e-11
1.482299392549709907e-11
9.623152600938540340e-12
