# bin_1_5
-1.055051774134653909e-17
-1.133910026137585986e-17
-1.184387466745665808e-17
-1.194831730114252836e-17
-1.151569957834887523e-17
-1.048750170050540403e-17
-9.033904714684572098e-18
-7.443509014142474079e-18
-6.137147642441650219e-18
-5.261115825273943515e-18
-4.422419149305880472e-18
-3.256497813762905811e-18
-2.355626597061792227e-18
-1.875937906811616775e-18
-1.295535377668856677e-18
-9.723676797219491528e-19
-6.918295015152330815e-19
-4.991836484636955234e-19
-3.642472139036587084e-19
-2.690906214553475365e-19
-2.021819360752183836e-19
-1.545296319966196612e-19
-1.200396504139605193e-19
-9.423778775057034257e-20
-7.427813646627618588e-20
-5.837760979034190102e-20
-4.543305971142920314e-20
-3.480550784410486662e-20
-2.611654199201133109e-20
-1.912177038926660802e-20
-1.363247393525445183e-20
