# bin_5_6
-1.269300249235358439e-11
-1.402026471121783226e-11
-1.515247118432748552e-11
-1.593259228656338858e-11
-1.619216125065195712e-11
-1.576581753946200189e-11
-1.450925405676272103e-11
-1.262683286267160874e-11
-1.045295958376420808e-11
-8.579833260696794399e-12
-7.318901364851878675e-12
-6.244568876006464815e-12
-4.703345197169331603e-12
-3.317041166260518196e-12
-2.669025425408852367e-12
-1.835987330225390610e-12
-1.374723056405363714e-12
-9.551620497850791638e-13
-6.803954648266921676e-13
-4.862090885931604613e-13
-3.496666837329858354e-13
-2.548335850467437474e-13
-1.886844197512514283e-13
-1.424061488300898133e-13
-1.092361205967408382e-13
-8.475621199104874834e-14
-6.612641095802628958e-14
-5.150320287866602898e-14
-3.977471882375712655e-14
-3.027642519600470792e-14
-2.260955741690481450e-14
