# bin_7_6
-1.487251515100115050e-10
-1.649909443645566608e-10
-1.792700673444781366e-10
-1.897646176882091987e-10
-1.943808326131491741e-10
-1.913445384016310624e-10
-1.783753517224806597e-10
-1.571784217786602464e-10
-1.312684478834260164e-10
-1.074913252576900811e-10
-9.080615116056165271e-11
-7.818174419394056641e-11
-6.098512387258381630e-11
-4.259901590466127021e-11
-3.371233097233769149e-11
-2.412697363489423548e-11
-1.753713606143722385e-11
-1.224391679133345138e-11
-8.775031031056362199e-12
-6.220125154535125246e-12
-4.431734519617017076e-12
-3.198377056201456116e-12
-2.343292443072300983e-12
-1.749354821905042115e-12
-1.329442226640790404e-12
-1.024373198758853493e-12
-7.961509286029944009e-13
-6.197973244771052430e-13
-4.799120953056852209e-13
-3.672387836702826222e-13
-2.762892142462824551e-13
