# bin_8_10
-1.421252936454082326e-12
-1.606219787320204008e-12
-1.785068388411192016e-12
-1.943121894007535077e-12
-2.060928414442161590e-12
-2.115132024999997630e-12
-2.087579174008532962e-12
-1.950881285364206531e-12
-1.722946858447804799e-12
-1.440091199622445629e-12
-1.178131540197864339e-12
-9.944553335479831859e-13
-8.594749660530322527e-13
-6.734273661755913714e-13
-4.660913272942918998e-13
-3.700749194221814044e-13
-2.635892418661679055e-13
-1.906544552159309827e-13
-1.301172010485028770e-13
-9.233905625177593294e-14
-6.402364792126288518e-14
-4.429819315766687910e-14
-3.087910404134162565e-14
-2.172770560136944893e-14
-1.554520408874924634e-14
-1.134004257830460607e-14
-8.434119078828298626e-15
-6.386711741477420199e-15
-4.899140547067530347e-15
-3.781491797691304994e-15
-2.915061104454988109e-15
