# bin_10_8
-1.475501301866436451e-10
-1.659621727166272272e-10
-1.833892572083150494e-10
-1.982278406663005916e-10
-2.084089954178899674e-10
-2.117268179061140315e-10
-2.059862181916592007e-10
-1.893391798800925259e-10
-1.645672666656178847e-10
-1.361056598777278787e-10
-1.117770057110551147e-10
-9.552890532296174867e-11
-8.145116685372527935e-11
-6.097656519183373716e-11
-4.296918317755922482e-11
-3.462939538333330668e-11
-2.348022476545881476e-11
-1.756411990338684783e-11
-1.203361760141488800e-11
-8.408133437995471902e-12
-5.885406524719945720e-12
-4.123246475491039342e-12
-2.912623627997689045e-12
-2.083090387487331761e-12
-1.518751179379077035e-12
-1.128770780910158310e-12
-8.538031059269695452e-13
-6.548967289029149953e-13
-5.061091096473133124e-13
-3.912461581970276380e-13
-3.003942321409216989e-13
