# bin_9_10
-8.468208647951169700e-12
-9.582045881253336788e-12
-1.066495833181948585e-11
-1.163063699174104960e-11
-1.236408300724742339e-11
-1.272488464100873865e-11
-1.260524255025703100e-11
-1.183424342832158639e-11
-1.049686723881099959e-11
-8.806156068313217196e-12
-7.203563002171741058e-12
-6.057606840789772286e-12
-5.242182404772689919e-12
-4.159562011275679443e-12
-2.883140038078773784e-12
-2.261812525084911903e-12
-1.643821304033183124e-12
-1.168724911569289232e-12
-8.054023674292600782e-13
-5.726621948315463851e-13
-3.956122406411427432e-13
-2.725751784886234063e-13
-1.892553003326892316e-13
-1.325845882499153842e-13
-9.433363866978048534e-14
-6.842148292349824305e-14
-5.060800733615834267e-14
-3.814532451932087550e-14
-2.916736142986162162e-14
-2.248062295720099283e-14
-1.733498450878725010e-14
