# bin_10_12
-1.590184275355641861e-12
-1.808824426147269915e-12
-2.026640959102917137e-12
-2.228149922639346398e-12
-2.392698313635478590e-12
-2.494170530446357046e-12
-2.508941884691024179e-12
-2.404914845232208569e-12
-2.175462701139413067e-12
-1.860320618365789597e-12
-1.526682775441274704e-12
-1.263651116688458929e-12
-1.091548827964848421e-12
-9.093063370124353879e-13
-6.500213836366941306e-13
-4.768181330514450992e-13
-3.760636303097120727e-13
-2.506725992368129631e-13
-1.847599920054156892e-13
-1.282445480163541906e-13
-8.744553883086750009e-14
-5.978451853890224255e-14
-4.081331549966042175e-14
-2.803352842269660787e-14
-1.943706196125910324e-14
-1.370688634188322045e-14
-9.850271042556684417e-15
-7.229942228771447442e-15
-5.414388127298460189e-15
-4.119850841252963481e-15
-3.164362156509892804e-15
