# bin_3_5
-8.296085574794238534e-13
-9.019409159044094489e-13
-9.557846440946467889e-13
-9.806180642117095279e-13
-9.675996905982516931e-13
-9.049519436807642228e-13
-7.999781511288738722e-13
-6.699650303755810143e-13
-5.484628854522007152e-13
-4.617744132990160649e-13
-3.978076688945027232e-13
-3.135343822434642445e-13
-2.198589722050428646e-13
-1.725765321725442274e-13
-1.259639696793078018e-13
-9.107801218667401868e-14
-6.475257520405105201e-14
-4.696807408724907049e-14
-3.380022664852751894e-14
-2.456021396097959885e-14
-1.812898491281578112e-14
-1.361103398068748586e-14
-1.040359298881626230e-14
-8.071728831849803218e-15
-6.320249923626215412e-15
-4.962511702396841783e-15
-3.879726395183082284e-15
-3.000145394455077852e-15
-2.281730052013908340e-15
-1.698955349264857120e-15
-1.234327992989267950e-15
