# bin_2_3
-2.214972454644604763e-11
-2.321523861687150489e-11
-2.352176008117557432e-11
-2.282169931808914468e-11
-2.095570477537756997e-11
-1.820467187561835839e-11
-1.508992698535656014e-11
-1.241640711145558345e-11
-1.056564573032505100e-11
-8.937790765618447546e-12
-6.760979205989752219e-12
-4.854843551098370616e-12
-3.834082998096676264e-12
-2.728902874402715274e-12
-2.023786417012585838e-12
-1.454027031596657256e-12
-1.063564446525478433e-12
-7.833654177895283034e-13
-5.852589985205888886e-13
-4.451234987908800755e-13
-3.443425311663536547e-13
-2.702979716195605885e-13
-2.140008997044125177e-13
-1.696843350148739264e-13
-1.338059377643144120e-13
-1.042301446760706968e-13
-7.973655329809297149e-14
-5.962626605510467079e-14
-4.344312067787144073e-14
-3.079829969779806083e-14
-2.125885107002282896e-14
