# bin_13_1
-3.481671653916637481e-09
-3.421892377321562616e-09
-3.204985043803218821e-09
-2.848199294451833209e-09
-2.416089022037010691e-09
-2.001483352034419938e-09
-1.672766481108991782e-09
-1.406029160800304206e-09
-1.123751217545163097e-09
-8.367079726803009857e-10
-6.265843441264565768e-10
-4.736919635913397589e-10
-3.454822201756330825e-10
-2.546896751992416771e-10
-1.875833524717078703e-10
-1.398246564518829406e-10
-1.057638309401222436e-10
-8.142324544930236304e-11
-6.374390076255744409e-11
-5.054928648420087714e-11
-4.036724024338832608e-11
-3.222873927889678147e-11
-2.554242204085990677e-11
-1.996584597144207676e-11
-1.530881460309342356e-11
-1.146613844123469074e-11
-8.368029237017638393e-12
-5.945901766123229753e-12
-4.117176028443189544e-12
-2.784386727176589003e-12
-1.844529130805396197e-12
