# bin_6_2
-1.629993866199636080e-09
-1.685823785834856107e-09
-1.680547354256575412e-09
-1.597434613139024688e-09
-1.437553118336314077e-09
-1.227466324493886615e-09
-1.013395864213571806e-09
-8.431433624446387483e-10
-7.179466745719926203e-10
-5.861352602090546829e-10
-4.330143585271100221e-10
-3.219993793706984677e-10
-2.466753886731390790e-10
-1.773499619379002727e-10
-1.305621744189941358e-10
-9.487960730139259967e-11
-6.971295249144217594e-11
-5.181398328792171751e-11
-3.914115723114641564e-11
-3.009538864754903506e-11
-2.350657034229383423e-11
-1.857422392927364301e-11
-1.474859428299094712e-11
-1.168441467290327826e-11
-9.172884811735243997e-12
-7.091340353259836150e-12
-5.370596774624155780e-12
-3.969578421088197487e-12
-2.857166590241871976e-12
-2.002144966695451410e-12
-1.367844935846774309e-12
