# bin_6_6
-6.087704146379875283e-11
-6.741585487754903192e-11
-7.309123171773727257e-11
-7.715993118697202880e-11
-7.878050338436102420e-11
-7.720842753785042550e-11
-7.159136050425048241e-11
-6.276088834135609409e-11
-5.220834118157930688e-11
-4.277701807330447192e-11
-3.628788664956663295e-11
-3.115545548437374643e-11
-2.395348502508472776e-11
-1.675614905884917547e-11
-1.339211608213356465e-11
-9.405610580395322577e-12
-6.939611199662820542e-12
-4.818896868017934661e-12
-3.448083418346933366e-12
-2.453256248771000901e-12
-1.754892299733981383e-12
-1.271780677509056746e-12
-9.358860713565336711e-13
-7.019517838872604774e-13
-5.356280371611381604e-13
-4.140020544909552702e-13
-3.223550850331456096e-13
-2.510527314567868097e-13
-1.942122576338524675e-13
-1.483079747786814187e-13
-1.112437019196914769e-13
