# bin_10_13
-2.329219838981714386e-13
-2.653965707689142698e-13
-2.980096560809208930e-13
-3.285185944469647376e-13
-3.539509196951358375e-13
-3.705180583453179711e-13
-3.744939873700175659e-13
-3.614763149339785813e-13
-3.292827562848238415e-13
-2.836098684236351574e-13
-2.333582512332600813e-13
-1.923288521731089791e-13
-1.655537376607186314e-13
-1.396655602244338470e-13
-1.016439699401435329e-13
-7.287673133524904988e-14
-5.856907926477599276e-14
-3.871497434285384993e-14
-2.900124274555386139e-14
-1.986377942108193970e-14
-1.351660640122117641e-14
-9.249723645277876339e-15
-6.294435989112431802e-15
-4.296449946015132877e-15
-2.952688754054921453e-15
-2.060998291842352769e-15
-1.464588485308820977e-15
-1.062879160503694177e-15
-7.880795654044034866e-16
-5.951948455213483405e-16
-4.552421572082472725e-16
