# bin_5_10
-3.298479302838996910e-17
-3.711220561686827789e-17
-4.102441967888651233e-17
-4.436382924797343442e-17
-4.666864138701630168e-17
-4.743945655825671051e-17
-4.619351805640588786e-17
-4.248946197031348353e-17
-3.695681940559826287e-17
-3.056279792847452083e-17
-2.508052289332548702e-17
-2.143359475457930247e-17
-1.831452888824290330e-17
-1.372433363269373671e-17
-9.630789792623487078e-18
-7.802914788544010784e-18
-5.261447342882988258e-18
-3.959459353822834862e-18
-2.703514871613643311e-18
-1.885467303651660356e-18
-1.320872986381287261e-18
-9.257169906978359782e-19
-6.535860699432367879e-19
-4.670938261970369061e-19
-3.403450231747652088e-19
-2.528231440947686369e-19
-1.911722423505863044e-19
-1.466259466839695075e-19
-1.133360742512337083e-19
-8.765175065403001358e-20
-6.733760859808189803e-20
