# bin_8_12
-1.097591234478219952e-14
-1.246150900873254922e-14
-1.392825258447127880e-14
-1.526779296101366477e-14
-1.633496433570080026e-14
-1.694756977230787592e-14
-1.695535239115077141e-14
-1.612757228280200698e-14
-1.448092754822332792e-14
-1.228944940184699184e-14
-1.006514460087050333e-14
-8.376630885478440626e-15
-7.252446404971840425e-15
-5.945438288891595348e-15
-4.181493140608429739e-15
-3.149209957561278475e-15
-2.417400427575262574e-15
-1.641615617272866080e-15
-1.179435967006454133e-15
-8.304531439501003281e-16
-5.685276388805076906e-16
-3.887743321790668930e-16
-2.668840619091583854e-16
-1.846588386450973892e-16
-1.292876251490445299e-16
-9.217269014665295062e-17
-6.700725859471969867e-17
-4.973185570946558802e-17
-3.758823646574348092e-17
-2.878181521365642727e-17
-2.216897012406330915e-17
