# bin_6_4
-4.691393916472281025e-10
-5.093825755673677799e-10
-5.389365746180011132e-10
-5.520027715193134337e-10
-5.433148519071432297e-10
-5.069720059673824489e-10
-4.472296104487404004e-10
-3.743802028727702625e-10
-3.069796624751534121e-10
-2.587789277886431642e-10
-2.219644858142842717e-10
-1.740266790410652212e-10
-1.231005546172190541e-10
-9.610424711816030658e-11
-7.013962199593373956e-11
-5.068064643592753460e-11
-3.625533628906074195e-11
-2.619611609298853705e-11
-1.886556843445426269e-11
-1.372985110450626383e-11
-1.014673214010906936e-11
-7.627051194822301109e-12
-5.834971583129645591e-12
-4.529483576916945274e-12
-3.546948448513884667e-12
-2.783927778020304363e-12
-2.174784255941151824e-12
-1.679868416917728185e-12
-1.275885871532384324e-12
-9.485971054964582152e-13
-6.881741071139110189e-13
