# bin_7_7
4.661775667353952963e-06
5.220329678151403007e-06
5.737586828781889333e-06
6.160692150565738231e-06
6.422793990419522029e-06
6.462925581919594800e-06
6.199799297840240391e-06
5.614590097779296959e-06
4.807397493310814537e-06
3.948458266775991014e-06
3.266455351817175789e-06
2.817922274332128250e-06
2.351220045198638766e-06
1.690109949084528288e-06
1.237060025327960701e-06
9.793634167143341782e-07
6.582058559705988163e-07
4.894080208308071879e-07
3.433999516556893150e-07
2.389943969749739484e-07
1.678811896419095628e-07
1.186080795344875912e-07
8.486267315140519572e-08
6.167088438523680437e-08
4.571673115546497172e-08
3.450668180100980261e-08
2.643957070291780118e-08
2.045573444470073380e-08
1.586697006336754339e-08
1.225077344364731384e-08
9.353776880785607438e-09
