# bin_3_1
2.992907034574059816e-07
3.122402560106486576e-07
3.146409385194159871e-07
3.029493876683645780e-07
2.758539576617008472e-07
2.376857347514032348e-07
1.961473341393071248e-07
1.619275091014399625e-07
1.385136419875684056e-07
1.160245652485572841e-07
8.596211736105111570e-08
6.254024413663737408e-08
4.937471501528805355e-08
3.473438134445784374e-08
2.594720065826686879e-08
1.868041520467032710e-08
1.366492835367887396e-08
1.010931080122129201e-08
7.592127134019238914e-09
5.805189157587475910e-09
4.513194271290151120e-09
3.556723673628396437e-09
2.822630782705185794e-09
2.239700726151250800e-09
1.764465646923029225e-09
1.371026692299278493e-09
1.044813394581313393e-09
7.774594172936392841e-10
5.632571734739064733e-10
3.969957654885793247e-10
2.725228464044852266e-10
