# bin_10_5
8.999076941865287345e-11
1.012594306538863793e-10
1.119444845954436701e-10
1.210704779928940595e-10
1.273774336197368352e-10
1.295030545234020326e-10
1.261237985928486765e-10
1.160357843925172631e-10
1.009540876298124474e-10
8.351214211860200922e-11
6.854992429581898656e-11
5.859503683328194887e-11
5.007333707213642623e-11
3.752309986574724517e-11
2.633542110139606066e-11
2.134851349115693911e-11
1.438604189170922471e-11
1.083548176644879747e-11
7.398604443362473899e-12
5.157997298731832449e-12
3.614629331524838569e-12
2.533928075108645395e-12
1.789278061947202949e-12
1.278921030938661371e-12
9.320198156850068396e-13
6.924455155409719795e-13
5.236657053084998102e-13
4.016913445289897144e-13
3.105217505360001871e-13
2.401676815092906277e-13
1.845135996636281161e-13
