# bin_4_4
6.221329990583483510e-06
6.776211669315414211e-06
7.197164033364217993e-06
7.404596849214745843e-06
7.332638157483977823e-06
6.888557228001526201e-06
6.115987711540005920e-06
5.140819756555394488e-06
4.209449869164011246e-06
3.533442713135738044e-06
3.048336031693915695e-06
2.428500202251976856e-06
1.705443627587360364e-06
1.326366231448483323e-06
9.821669230695906071e-07
7.022386962328081717e-07
5.024401465023988436e-07
3.641669686973221742e-07
2.613770768114947365e-07
1.894553847983761601e-07
1.394545684289095803e-07
1.044090174853447710e-07
7.958466913770181336e-08
6.161331371980787833e-08
4.817746043326577282e-08
3.780928502131600049e-08
2.957212929754388724e-08
2.289598582896930844e-08
1.744696458295967170e-08
1.302342155880859813e-08
9.489447183333672278e-09
