# bin_2_2
1.074847565144976048e-05
1.117867762546612885e-05
1.122221272344680859e-05
1.075197910972056252e-05
9.742828927964051108e-06
8.357606062307414092e-06
6.888647456358765658e-06
5.703376654687825177e-06
4.882700834793628494e-06
4.053299522856267696e-06
2.981717354917175988e-06
2.192527380364581170e-06
1.714835251904660146e-06
1.211426268259298124e-06
9.016267245006602464e-07
6.514662305375882326e-07
4.771618350001537416e-07
3.537385685066906455e-07
2.663684673446694786e-07
2.042213422913961514e-07
1.591533877489381378e-07
1.256339151722368256e-07
9.978073905977369047e-08
7.916246716995962689e-08
6.230094172649327097e-08
4.832158287152332992e-08
3.673435869182633400e-08
2.725631518815809284e-08
1.968701551911099510e-08
1.383549583334459218e-08
9.472951502242734081e-09
