# bin_10_2
3.438567471383338275e-20
3.852030918803027308e-20
4.235680883129206470e-20
4.550657291983781954e-20
4.747743280542770797e-20
4.781424013061529596e-20
4.592283103174895816e-20
4.163780806227732176e-20
3.569510636207707650e-20
2.932955577024165078e-20
2.424512048859582745e-20
2.090531098059135113e-20
1.748253101056041173e-20
1.260241764495448680e-20
9.188594409160546155e-21
7.298470860944112431e-21
4.896443043248480585e-21
3.650630185304065479e-21
2.555772346650623483e-21
1.777911283471443297e-21
1.248724637750833867e-21
8.815795445938636526e-22
6.300994860902938339e-22
4.573212430632881549e-22
3.385899430834770970e-22
2.552803547151906378e-22
1.954288503185633982e-22
1.511211148892278028e-22
1.172054052471443618e-22
9.051509602168812518e-23
6.914848108561768986e-23
