# bin_14_4
2.893584044979633425e-21
3.289789607729249577e-21
3.683555434814340387e-21
4.046610944742064989e-21
4.341186777646917970e-21
4.519617121962279151e-21
4.539872144763361151e-21
4.342652906668161020e-21
3.920362327722341856e-21
3.345438689853910706e-21
2.743654814103420826e-21
2.274091711255837505e-21
1.966011521344483758e-21
1.631163942940021008e-21
1.160336423543879899e-21
8.571976401698966745e-22
6.715852184314850005e-22
4.494446195425271337e-22
3.292257450488138319e-22
2.294501801158008161e-22
1.565999630945161308e-22
1.070437436183297351e-22
7.316932570587462535e-23
5.035548384417792629e-23
3.500625734902799855e-23
2.476011725593730490e-23
1.785073028525044368e-23
1.314356677000528236e-23
9.869495798268246743e-24
7.524200369885805286e-24
5.784762498516354101e-24
