# bin_11_9
1.180144881570217712e-06
1.340322933619828614e-06
1.498715219699814582e-06
1.643702671689985927e-06
1.759724225699824931e-06
1.827220719375524368e-06
1.829821962969242523e-06
1.742806351384422010e-06
1.566833069020740631e-06
1.331400206330028154e-06
1.090710010993691501e-06
9.068265065440528148e-07
7.849443138887859687e-07
6.454007815022943193e-07
4.549954990752677339e-07
3.411288935257259732e-07
2.631958488432645516e-07
1.780317381404877380e-07
1.285226435655253796e-07
9.029583378592029409e-08
6.176788108066114041e-08
4.222751002415042007e-08
2.895640408478065374e-08
2.000970959995494372e-08
1.398635870561163182e-08
9.952980187703641063e-09
7.221786679194521540e-09
5.350324570359478297e-09
4.038076917289136098e-09
3.089166819066012889e-09
2.378618199014495826e-09
