# bin_8_4
1.190326565520258208e-09
1.326683448531272866e-09
1.449755352481941503e-09
1.545543167114185919e-09
1.596712725107837469e-09
1.589500699303614382e-09
1.502333600808049612e-09
1.341255957531450040e-09
1.132253647732674179e-09
9.268724636397421649e-10
7.749811841612502854e-10
6.706167574065368488e-10
5.418016154432918686e-10
3.791944246163470401e-10
2.913649516323963135e-10
2.190582495077962080e-10
1.529650405234497102e-10
1.090072981459587957e-10
7.822576973536278063e-11
5.492824746269590335e-11
3.875733742555981453e-11
2.768208774681013301e-11
2.006073086668519259e-11
1.479751224531233204e-11
1.112599044757901379e-11
8.500956045352071230e-12
6.572558194122584265e-12
5.108941667233044251e-12
3.963825526734907862e-12
3.048608103109325864e-12
2.310885254847073357e-12
