# bin_6_6
4.914631604076369554e-06
5.466528928033739013e-06
5.958809413298515343e-06
6.332900048268029314e-06
6.517603744787445978e-06
6.456800182940040320e-06
6.064806555961016582e-06
5.382919134093075273e-06
4.520207892626139227e-06
3.699114140500216072e-06
3.108171157084558062e-06
2.687243109941996215e-06
2.137020558265639134e-06
1.488534003467131700e-06
1.164239520380039338e-06
8.536945319381822040e-07
6.089067601265593919e-07
4.273659118012055910e-07
3.074619966707204081e-07
2.169081702696250731e-07
1.537041820703224582e-07
1.103333255617633551e-07
8.036995797817601500e-08
5.962843856425411824e-08
4.507015528413041831e-08
3.458402091954192581e-08
2.681471982860794115e-08
2.086610028479664889e-08
1.617933634028687070e-08
1.241742341139526221e-08
9.381427113735956363e-09
