# bin_6_2
1.378115160815050773e-14
1.505525380451561371e-14
1.605009403712104632e-14
1.658810206979049542e-14
1.652244907108505083e-14
1.563735049459238126e-14
1.398184390051577788e-14
1.182594583556461020e-14
9.687532624622431628e-15
8.086427358971265050e-15
6.983873895088278774e-15
5.664099392701440748e-15
3.999950304350731768e-15
3.051279020416475893e-15
2.318633593870362340e-15
1.624080725501177752e-15
1.178570011490627166e-15
8.508193552040545579e-16
6.077425219809019441e-16
4.387058600314343709e-16
3.212805795359390242e-16
2.392960025107318543e-16
1.814428830419611184e-16
1.398771830766383954e-16
1.090616986393135765e-16
8.548181545253798803e-17
6.688592075296453738e-17
5.188481479642132887e-17
3.966407010473151022e-17
2.973503803362588714e-17
2.177746807791999792e-17
