# bin_1_8
6.934162887600290111e-07
6.787607673541959862e-07
6.328661031030606960e-07
5.600769406566602150e-07
4.738722177236974223e-07
3.927010337980017612e-07
3.287066518861082293e-07
2.755600164815726601e-07
2.187786719506014665e-07
1.626692700474443393e-07
1.221558600534399378e-07
9.206456264795832427e-08
6.719295941040503397e-08
4.956513166835632289e-08
3.655993062509642042e-08
2.730515883867920332e-08
2.070445684437063444e-08
1.597946692368799300e-08
1.253720194883276615e-08
9.957847296930200259e-09
7.958217313159792363e-09
6.353223611214098336e-09
5.030705793524186822e-09
3.926139765304186920e-09
3.003926442048477476e-09
2.244269521952835367e-09
1.633518478061928658e-09
1.157668250720048373e-09
7.996991525579523129e-10
5.397006353357077809e-10
3.569066612085082086e-10
