# bin_11_6
3.228956771076920666e-14
3.649357898010459689e-14
4.055930425643819382e-14
4.415351801565171744e-14
4.683434797262281010e-14
4.807023784689327358e-14
4.745063751932284290e-14
4.434971360661999088e-14
3.917302396412026168e-14
3.274359647641526819e-14
2.678551334633816473e-14
2.260739744187132260e-14
1.954276852164468793e-14
1.531784098423182407e-14
1.059725130687287623e-14
8.415813662993674980e-15
5.995550543247827191e-15
4.336584356075616537e-15
2.957533880411198727e-15
2.099842623373926281e-15
1.455837714452055464e-15
1.007196467184036676e-15
7.020343101909594643e-16
4.939155392233343534e-16
3.533235245662106605e-16
2.577083240059789610e-16
1.916464853472756609e-16
1.451121274376769482e-16
1.113099332835007340e-16
8.591886936619507260e-17
6.623761624075773304e-17
