# bin_2_3
1.584705985436696731e-07
1.629368431289760506e-07
1.612304808787938663e-07
1.518044968652969892e-07
1.352708044304570859e-07
1.145102430219775460e-07
9.431285181944608441e-08
7.888038567052545153e-08
6.722012997766940321e-08
5.396082631240473644e-08
3.931162343223343246e-08
2.969004294543171586e-08
2.250161582098599090e-08
1.617619724360771985e-08
1.191649898414936414e-08
8.689220611813573573e-09
6.402970659269172601e-09
4.784492848596116474e-09
3.636424523193353517e-09
2.812813191948235617e-09
2.208518180290896156e-09
1.751562389276572440e-09
1.393280072080944959e-09
1.103639605113688866e-09
8.646669653782933696e-10
6.659863555882585802e-10
5.018186221610775768e-10
3.686498825877129992e-10
2.635851141118172168e-10
1.834913179985442681e-10
1.245979552827381951e-10
