# bin_13_1
5.824055605084040598e-37
6.597612231079464517e-37
7.353542592018946848e-37
8.033181253974031151e-37
8.558060853367417107e-37
8.831133775760154119e-37
8.777641109962325920e-37
8.276373783958785233e-37
7.370661761730797769e-37
6.205776715419587717e-37
5.076977451141385267e-37
4.254437757510385125e-37
3.684551899310718909e-37
2.957059719341495856e-37
2.055390100154902828e-37
1.592784594279371727e-37
1.179329806714870479e-37
8.252224326890717149e-38
5.751646101135490498e-38
4.088505948220710549e-38
2.815311782446050378e-38
1.933074832665042301e-38
1.337163359432354593e-38
9.329383943417498225e-39
6.603097235641680023e-39
4.762952435780481001e-39
3.503907839565894098e-39
2.628722384253532037e-39
2.003311145583201958e-39
1.541444904530755457e-39
1.188660119882759950e-39
