# bin_11_12
1.695681111647424347e-08
1.927975895592884650e-08
2.158922971488454707e-08
2.371955246893526975e-08
2.544957336065853494e-08
2.650014066153916464e-08
2.662372976886039601e-08
2.547569869783485229e-08
2.300766456284445201e-08
1.964256932016904821e-08
1.611398107734410883e-08
1.335442471954195310e-08
1.153983833432287932e-08
9.577908489248152959e-09
6.825504377615342234e-09
5.035357894655337105e-09
3.946432415966618959e-09
2.643020932232654819e-09
1.936487589040650418e-09
1.348021367145500587e-09
9.200745775593329203e-10
6.291519402502021815e-10
4.300856000364189571e-10
2.958879320604317675e-10
2.055908712026898588e-10
1.453277123217216642e-10
1.047026296877474780e-10
7.703741066016338984e-11
5.780762657281159935e-11
4.404461394342056656e-11
3.384728424174261700e-11
