# bin_3_4
9.993379080685705550e-08
1.061904662782827714e-07
1.093876252209079821e-07
1.084799716856486631e-07
1.022627824026913850e-07
9.115314553870078391e-08
7.703772056577313731e-08
6.326932373710889185e-08
5.292839386921421765e-08
4.539495621978187193e-08
3.648489138876422104e-08
2.618253470122022293e-08
1.992189111115477012e-08
1.505740645163959948e-08
1.072469380381043239e-08
7.852499467934348694e-09
5.688282146014901051e-09
4.136508392327318026e-09
3.047677926217884616e-09
2.281279409606748269e-09
1.737747082186647339e-09
1.345765305360883670e-09
1.055796872393883987e-09
8.336638572655253808e-10
6.579740946538269775e-10
5.155078030039461333e-10
3.983548971824596570e-10
3.019810289690366327e-10
2.236354503944632149e-10
1.613462279121329310e-10
1.133156193470757184e-10
