# bin_14_1
2.789361731342427434e-39
3.168623098245639634e-39
3.544044808807436455e-39
3.888203468027564986e-39
4.164395450936161535e-39
4.326453331081731738e-39
4.335292661766161738e-39
4.132817194008195703e-39
3.718764250110007151e-39
3.162853360845412649e-39
2.591759428825985612e-39
2.153465009694802532e-39
1.863424514097089623e-39
1.534955838031204542e-39
1.084391066374360938e-39
8.104415393876154124e-40
6.272401560628654341e-40
4.234249083295911840e-40
3.065921930571386759e-40
2.150029457641182807e-40
1.470085061680994786e-40
1.005079711303372611e-40
6.887741925982300539e-41
4.755505381435632881e-41
3.320162189725367889e-41
2.359654205202776231e-41
1.709816564018313083e-41
1.265073042893930504e-41
9.537512843648254691e-42
7.290736946818605015e-42
5.611726069082696089e-42
