# bin_4_4
2.606684210863783558e-08
2.816786675352682438e-08
2.962386692380253575e-08
3.012512813276008737e-08
2.936400437821949952e-08
2.708284922415216176e-08
2.362409764913922842e-08
1.961310414116988760e-08
1.611068565334840497e-08
1.370002599472976789e-08
1.166994066895127003e-08
8.879019345777980830e-09
6.304410902826976623e-09
5.011703085656885179e-09
3.538568546214027078e-09
2.621168589232381440e-09
1.856682218135466458e-09
1.343834047326361543e-09
9.747379229590735417e-10
7.146216385983448560e-10
5.325330915880949933e-10
4.036707997924756452e-10
3.112959860432986108e-10
2.431214106026454428e-10
1.911026136935740581e-10
1.501737816003622748e-10
1.171536189989815654e-10
9.016248320098235530e-11
6.809419501511975566e-11
5.025854982985312848e-11
3.615343857842336236e-11
