# bin_7_2
5.573456326098026803e-17
6.138708837936121431e-17
6.611057868595652240e-17
6.920537063597225622e-17
6.997628997822687949e-17
6.762904774425028161e-17
6.173742072348149584e-17
5.329931849535437865e-17
4.393797885721127445e-17
3.618697176873042641e-17
3.104556413529680944e-17
2.622852065837057086e-17
1.931752646485673588e-17
1.384985246812073784e-17
1.111896964927882169e-17
7.551778302094921615e-18
5.687641666833042252e-18
3.986558295265354121e-18
2.828514176355208015e-18
2.028274165887540041e-18
1.466212154535296069e-18
1.075227603503990867e-18
8.016962652365266955e-19
6.091149607687651379e-19
4.697821526044821194e-19
3.658778702707258916e-19
2.859395170637293705e-19
2.226167420116105707e-19
1.715297388722764610e-19
1.300652784544321446e-19
9.662816236975653946e-20
