# bin_9_1
1.083859997042055025e-26
1.207217386580519672e-26
1.318133016108428401e-26
1.403803933438571847e-26
1.448471806615493466e-26
1.439656718988050026e-26
1.357964103662133668e-26
1.210084100037757625e-26
1.019796607339270938e-26
8.347376705179319396e-27
6.990553960159172359e-27
6.047384702701597574e-27
4.860958000063313543e-27
3.397111823315686756e-27
2.625175563823173237e-27
1.957824609710148618e-27
1.376631576025726287e-27
9.761559219844858333e-28
7.010208017219747322e-28
4.929862112510846736e-28
3.483417136719842552e-28
2.492025560075945565e-28
1.808902479631434668e-28
1.336792852528697672e-28
1.006812769323532062e-28
7.703282527120792137e-29
5.961262963822340872e-29
4.635366717240233774e-29
3.595655589974670358e-29
2.763531048050184375e-29
2.092532018306285371e-29
