# bin_2_5
3.160729399441818206e-07
3.267729216047527933e-07
3.255905602658994304e-07
3.092871266613274214e-07
2.781551333129447639e-07
2.373860810500288975e-07
1.959910038979037961e-07
1.631697546049693595e-07
1.389735224229022398e-07
1.133095899766087039e-07
8.361002599575970734e-08
6.226455669497793305e-08
4.766915557902918297e-08
3.426669112300776820e-08
2.523469343498638373e-08
1.834302713229613336e-08
1.348195942092312482e-08
1.002584020142166565e-08
7.578260566462268569e-09
5.830393622913827419e-09
4.556432186768001226e-09
3.601850477218679630e-09
2.860684136767816909e-09
2.266485243056443106e-09
1.779104287133688143e-09
1.374997808681180943e-09
1.040909710483876285e-09
7.689609613818225177e-10
5.531415869636626091e-10
3.873755236568713540e-10
2.644993092889953472e-10
