# bin_3_10
3.150857244924924291e-07
3.364642413551494420e-07
3.487112386505934548e-07
3.484439479637540737e-07
3.317737214103072171e-07
2.987647257843724646e-07
2.548689593084963751e-07
2.098613089621202481e-07
1.745096447413288185e-07
1.494799221631374810e-07
1.224863601057244668e-07
8.927989791475250313e-08
6.646563846660624880e-08
5.118779593619428127e-08
3.621467040166607197e-08
2.667030068080451767e-08
1.918669468896906873e-08
1.391851804506712148e-08
1.020382759020384680e-08
7.588730874387600953e-09
5.742123653741541339e-09
4.418645070089673407e-09
3.449522808792434801e-09
2.715602824527528580e-09
2.141310298535075557e-09
1.679618676417745826e-09
1.301905280593596977e-09
9.916148652657567021e-10
7.388289275479586403e-10
5.367897133101758219e-10
3.797795236405034955e-10
