# bin_6_9
8.673673097382973390e-08
9.639683446735920956e-08
1.049719937321740319e-07
1.114247620818774509e-07
1.145213309398152186e-07
1.132281569566349706e-07
1.061400214303053165e-07
9.403346242480432176e-08
7.889960477394157882e-08
6.462744406856217816e-08
5.438125738568320597e-08
4.689462495483970416e-08
3.709180658909614497e-08
2.597551819753883897e-08
2.029559676670834185e-08
1.481584218597929634e-08
1.060206178155791999e-08
7.472886754710108298e-09
5.349675861860329860e-09
3.778196710087750284e-09
2.682675459773882864e-09
1.928092074054792240e-09
1.406401381347826669e-09
1.044860460427596366e-09
7.906310675071009708e-10
6.071205589822790375e-10
4.708297130548954278e-10
3.662685098523767450e-10
2.837885708800200295e-10
2.175681731490821446e-10
1.641557034564973661e-10
