# bin_6_2
1.381987723082710464e-14
1.509564484968338280e-14
1.609072073119568471e-14
1.662703265069994073e-14
1.655760066658039109e-14
1.566648401615748987e-14
1.400286827104390260e-14
1.183928516068193478e-14
9.694926377976297850e-15
8.090983505422359818e-15
6.987601898012561822e-15
5.666023517777358243e-15
3.999602464205966631e-15
3.050868628464311522e-15
2.317991404395873918e-15
1.623358781192590093e-15
1.177884819309279941e-15
8.502532339846224885e-16
6.072969685610004455e-16
4.383608554226555325e-16
3.210150502246803474e-16
2.390911618635737874e-16
1.812825676938020377e-16
1.397503400526707791e-16
1.089597019568227894e-16
8.539885214723272019e-17
6.681824302639736889e-17
5.182989776084657344e-17
3.962017443706981595e-17
2.970076010692621861e-17
2.175148447416591394e-17
