# bin_10_8
4.350413273848622473e-10
4.916799949056872244e-10
5.464561129021792406e-10
5.948793765688489731e-10
6.309971087985690070e-10
6.476561508984412173e-10
6.393054740096244517e-10
5.975422288350543434e-10
5.278074830007213390e-10
4.412143532617371548e-10
3.609519824953196267e-10
3.046367485671017455e-10
2.633032904173254248e-10
2.064011676395963295e-10
1.428556257777381270e-10
1.133828691423174928e-10
8.081495561549925259e-11
5.841899882319557325e-11
3.987990813757025663e-11
2.830469156828526437e-11
1.962254103333981093e-11
1.357472055023842113e-11
9.461196012605399930e-12
6.656205350847424434e-12
4.761244204796191926e-12
3.472533279455882029e-12
2.582169681816130924e-12
1.955014454421920057e-12
1.499488422374670912e-12
1.157349094519006544e-12
8.921831858322497615e-13
