# bin_1_10
7.366290766098717514e-07
7.212692234481722658e-07
6.727167309365233028e-07
5.954916179649118060e-07
5.038653802188629848e-07
4.174413600413838803e-07
3.492857031210872803e-07
2.928623625592432151e-07
2.326805226072576968e-07
1.730179605264594930e-07
1.298568970893779567e-07
9.789824849019703195e-08
7.144013715269504345e-08
5.268880442093113045e-08
3.885457960856189291e-08
2.901030217614582844e-08
2.198937600566234575e-08
1.696480802222808515e-08
1.330577953128608771e-08
1.056547256310449129e-08
8.442425309372032776e-09
6.739407392042262766e-09
5.336778464690164961e-09
4.165637586673032755e-09
3.187914452683741773e-09
2.382432312948826262e-09
1.734652345543508125e-09
1.229751997111728114e-09
8.497601161812976310e-10
5.736457514944598393e-10
3.794449580875200156e-10
