# bin_6_8
6.449361514394185550e-08
7.162928905806240307e-08
7.793847265174767260e-08
8.264690238910079775e-08
8.483942204946900554e-08
8.375093912242199983e-08
7.835186646217287628e-08
6.927570034181779145e-08
5.802061692759655760e-08
4.750663526752612103e-08
4.002123513695899755e-08
3.449791443309860795e-08
2.716119015475326870e-08
1.899194606842658876e-08
1.490545531719704987e-08
1.080917885271068342e-08
7.773530588891688903e-09
5.459636190032164674e-09
3.910952189253223885e-09
2.765159955647989199e-09
1.965291490022515197e-09
1.414307027347628878e-09
1.033069736132334560e-09
7.686934905252518263e-10
5.824740487671249381e-10
4.477786480748757415e-10
3.475082397834940461e-10
2.704007732976219287e-10
2.094650749518800170e-10
1.604886545561757371e-10
1.209745214611765230e-10
