# bin_3_15
3.727239056489524354e-07
3.983307986031675331e-07
4.132354925075416842e-07
4.134220499017822719e-07
3.942801621835072656e-07
3.556071049559062966e-07
3.037684195611639418e-07
2.501569266267431605e-07
2.077464310014296738e-07
1.778941216054460550e-07
1.462523819056249267e-07
1.068628995273174096e-07
7.924335511690059954e-08
6.121713724390801307e-08
4.325844928544636122e-08
3.188175126628635064e-08
2.290754581660094234e-08
1.660921648563967594e-08
1.216436936853127602e-08
9.035601504932885964e-09
6.828151800750937303e-09
5.247870668295030088e-09
4.092875601900968455e-09
3.220064138732013991e-09
2.538476168152783482e-09
1.991450254180803524e-09
1.544398195974657698e-09
1.177279238668562246e-09
8.781056960098931602e-10
6.387759600971905529e-10
4.525285703659668578e-10
