# bin_6_6
1.576265448713376241e-08
1.745724722629552388e-08
1.892893158654100215e-08
1.998535318968512398e-08
2.040832551465395391e-08
2.000558922825575719e-08
1.855499670998544344e-08
1.627039668369888253e-08
1.353709998241132065e-08
1.109110387757747936e-08
9.406787813329573508e-09
8.077834461358277328e-09
6.214923860709484505e-09
4.346624231395282109e-09
3.472870661243140239e-09
2.440991367344835813e-09
1.799935845273878146e-09
1.249964789415900400e-09
8.945026973343580483e-10
6.363083117569406858e-10
4.550726052388527283e-10
3.297170644755089479e-10
2.425745578015942968e-10
1.818928394271383313e-10
1.387623610809503054e-10
1.072344280664534653e-10
8.348707051065638638e-11
6.501820686253460637e-11
5.029932995895934778e-11
3.841415999303842572e-11
2.881805047248377176e-11
