# bin_5_4
3.589659371657102166e-09
3.920935902515047040e-09
4.179297662182978596e-09
4.318673072747238210e-09
4.300408764297837625e-09
4.069364466315043501e-09
3.637836243639680022e-09
3.076891284841771461e-09
2.520515787687896143e-09
2.103449500983010331e-09
1.815325993832002593e-09
1.471904117891803448e-09
1.041363535321393520e-09
7.929588716875639978e-10
6.026811871885249307e-10
4.221689483853426971e-10
3.067602095134689468e-10
2.210387161852272220e-10
1.578919893746505607e-10
1.140001458939364082e-10
8.347615817840392109e-11
6.216074963672671725e-11
4.711957872018672923e-11
3.631550148004443712e-11
2.830792476702732179e-11
2.218247473196777931e-11
1.735363205570001902e-11
1.345978024570694915e-11
1.028871906403508492e-11
7.713014152552482310e-12
5.649214577309606343e-12
