# bin_5_1
2.471322991339548084e-15
2.656229696849232577e-15
2.774729596851291771e-15
2.799490474297592305e-15
2.698547814574594567e-15
2.457991216806139748e-15
2.117646178582036233e-15
1.744965694548343230e-15
1.438606375930081189e-15
1.233153386978604665e-15
1.036812252838132377e-15
7.637646375014886428e-16
5.522784389372920049e-16
4.398944835986162278e-16
3.038157753919417404e-16
2.280384257475186195e-16
1.622228420573627576e-16
1.170545069118517860e-16
8.540979375041830988e-17
6.309299493444927897e-17
4.740138228397622930e-17
3.622666038362176039e-17
2.813926245154228680e-17
2.208996744500194428e-17
1.741103253335335450e-17
1.368405692212266425e-17
1.065017161046856654e-17
8.159400593228119919e-18
6.122933821791066366e-18
4.483443782949103176e-18
3.196692729532098029e-18
