# bin_12_4
1.811924536908275973e-21
2.049185952752245050e-21
2.279316255127474194e-21
2.483750643266453845e-21
2.637793050465024148e-21
2.711444862669968359e-21
2.681780456920129381e-21
2.512692120237595185e-21
2.224520187814290125e-21
1.863008418398856489e-21
1.523850856524199052e-21
1.283568046506971565e-21
1.110463800190265769e-21
8.763260373834543211e-22
6.065004355379314037e-22
4.787270544674067831e-22
3.447367629595006143e-22
2.470879123807088776e-22
1.692641481903398763e-22
1.203741192014605295e-22
8.329091199238379426e-23
5.748673575159703077e-23
3.998614982934968372e-23
2.806662124665636936e-23
2.001856961923331712e-23
1.455704303317203677e-23
1.079412325364428146e-23
8.153494620528541265e-24
6.244044894766632982e-24
4.816310486347601895e-24
3.713871778021925565e-24
