# bin_7_1
5.967465188566946224e-21
6.553031708070158721e-21
7.031193236066349042e-21
7.326058882571969978e-21
7.367942709315551857e-21
7.066591470018622492e-21
6.400178589181280549e-21
5.481534891506516349e-21
4.503230530271484297e-21
3.723326334021537111e-21
3.206071704663100651e-21
2.674466694029156104e-21
1.933425088738486853e-21
1.415208857441189466e-21
1.120371010021272544e-21
7.631558628039576648e-22
5.699735389655631253e-22
4.041727269910130043e-22
2.868668062746520230e-22
2.060825180703700716e-22
1.496048431609235302e-22
1.103256572774349015e-22
8.277161958080684041e-23
6.323992913846775366e-23
4.898512271971115409e-23
3.825425915954945884e-23
2.992052870172263429e-23
2.327071384692159906e-23
1.788329822972278501e-23
1.350666756853632645e-23
9.983682908719263173e-24
