# bin_5_3
1.997164894913773553e-10
2.171459891378436770e-10
2.301311299096427229e-10
2.361375749384709722e-10
2.330388702349370632e-10
2.179926159487243916e-10
1.927401984602204899e-10
1.614402702136196011e-10
1.321611277170925894e-10
1.112557145190113021e-10
9.585056755029584327e-11
7.558190369178812185e-11
5.300248274710326330e-11
4.158663726665653313e-11
3.037413635360112350e-11
2.195083256400100439e-11
1.561058737173488763e-11
1.132296962314924836e-11
8.147695245621606792e-12
5.919848131644036851e-12
4.369287592238178271e-12
3.280118933736982278e-12
2.506929970060590823e-12
1.944888775401978178e-12
1.522807583862528864e-12
1.195662186054307632e-12
9.347993015251427443e-13
7.229070973428194440e-13
5.498423607898886579e-13
4.094478220791262960e-13
2.975063591346033408e-13
