# bin_11_8
4.092604117353107924e-07
4.647807081070076682e-07
5.196711763604641070e-07
5.698987938418730378e-07
6.100654820497147247e-07
6.333908335822393704e-07
6.341929187738752809e-07
6.039423276883098429e-07
5.429093203855899950e-07
4.613122220334174149e-07
3.779596172502132328e-07
3.142945632666126456e-07
2.719859437748353424e-07
2.235030344535963645e-07
1.576576028479849661e-07
1.182285519739130087e-07
9.112723728422453136e-08
6.172428092492194193e-08
4.452641657641241040e-08
3.126857438648322386e-08
2.139387244092365756e-08
1.463189406404074577e-08
1.003615945900201309e-08
6.936038859477859460e-09
4.848744088460159211e-09
3.450871561578883080e-09
2.504160667689260258e-09
1.855307382258718808e-09
1.400224274195679834e-09
1.071067268036699578e-09
8.245594854235146904e-10
