# bin_5_2
1.147580584642247840e-07
1.243648593659673680e-07
1.312677967325978786e-07
1.340694308807262031e-07
1.314589232345400860e-07
1.221132038282047265e-07
1.072554881912761066e-07
8.949778492647873071e-08
7.342789850880546653e-08
6.209635042819212333e-08
5.311996635938925457e-08
4.118617024000990600e-08
2.917386616801868032e-08
2.292473553060535695e-08
1.653025417724054706e-08
1.205212563045861623e-08
8.589726336407272638e-09
6.210613212537921590e-09
4.484458801887127855e-09
3.272484624551231440e-09
2.425917487052365483e-09
1.829218266983723495e-09
1.403593590170477557e-09
1.092037966310878630e-09
8.563534218331852445e-10
6.724239827391628836e-10
5.250048835936061116e-10
4.049578217825935279e-10
3.069101872203909146e-10
2.275531936320442408e-10
1.645586870746894686e-10
