# bin_12_5
2.652596815379186222e-11
3.013609484044345784e-11
3.371179471694597541e-11
3.699244028261370034e-11
3.962941894289809099e-11
4.118410127582882539e-11
4.128235011598955123e-11
3.937475166129434686e-11
3.544873767243985676e-11
3.016676408202302000e-11
2.472515172604855816e-11
2.053702018480769692e-11
1.776558701536406796e-11
1.464801897921195868e-11
1.036457761813102483e-11
7.731213970423523907e-12
5.992981524860170780e-12
4.042728906740476558e-12
2.931767344536659283e-12
2.053261770971051524e-12
1.403643832649756058e-12
9.598210001771372298e-13
6.575747473169916292e-13
4.537779825269094391e-13
3.165949711995124265e-13
2.248286618934710503e-13
1.627748353773036803e-13
1.203348780201027719e-13
9.065624917683813072e-14
6.926285204423455227e-14
5.329560344662788967e-14
