# bin_12_1
5.179524440574051747e-20
5.878815434327967229e-20
6.568346847532844131e-20
7.196829016094292139e-20
7.695599965676449536e-20
7.978685798675015471e-20
7.975573714657292631e-20
7.578059107593061731e-20
6.797822549021756633e-20
5.764075825952823535e-20
4.720800290711608221e-20
3.932320366497990382e-20
3.403888506214022284e-20
2.782731997744522289e-20
1.955924143689317417e-20
1.477678116577518961e-20
1.129030939644542691e-20
7.700534772119749124e-21
5.511974945583217553e-21
3.882757759301704900e-21
2.660218377626266719e-21
1.820655927383915250e-21
1.251126881931541136e-21
8.665012017896130023e-22
6.074359128419529791e-22
4.336424275448744032e-22
3.156760744946978328e-22
2.345718184203099081e-22
1.774476861548115854e-22
1.359320737196355479e-22
1.046959605764174419e-22
