# bin_12_8
1.014815963148398820e-07
1.154923559335484592e-07
1.294837951048660082e-07
1.424710339061169294e-07
1.531428155001948467e-07
1.598372113169256903e-07
1.610125279356609347e-07
1.546585837232549422e-07
1.401972375679145815e-07
1.201481575191701163e-07
9.867894395543947773e-08
8.157197041271444228e-08
7.038785495235522867e-08
5.886073228029431365e-08
4.230807699910347398e-08
3.081954276280298541e-08
2.444633209975023544e-08
1.625422236250334622e-08
1.203954584485682647e-08
8.322708916619629486e-09
5.671555321027700405e-09
3.878579948958233480e-09
2.645215667414709486e-09
1.813458611559801735e-09
1.253994602309720447e-09
8.815855873706518985e-10
6.314195595835555913e-10
4.618982801830221034e-10
3.448949970422440040e-10
2.618605213958914826e-10
2.008831234309887920e-10
