# bin_14_9
3.436972271685694033e-08
3.927790269197727763e-08
4.427229157229301095e-08
4.902915120408049227e-08
5.312469086043302968e-08
5.600807238797361866e-08
5.706405905322499236e-08
5.573979473183410600e-08
5.143595314518378283e-08
4.487873966907791658e-08
3.717587514360526247e-08
3.047987649072504313e-08
2.600566657541910155e-08
2.230233953420201662e-08
1.682913945781211238e-08
1.172486809343122483e-08
9.504115886535609756e-09
6.397472355357704413e-09
4.787115057897195446e-09
3.214398125046009654e-09
2.206015024254569094e-09
1.508697980302571365e-09
1.023156398650073398e-09
6.916302040456789380e-10
4.683975858973306478e-10
3.210181300492119601e-10
2.233850600621847842e-10
1.584961297508715242e-10
1.150120279330099055e-10
8.530486729998206764e-11
6.443339069916231157e-11
