# bin_11_1
1.053308442662363189e-18
1.191703831051504541e-18
1.326194723982362763e-18
1.446028033796610066e-18
1.536893112442617799e-18
1.581369798593270597e-18
1.565966921955331242e-18
1.469644262497157601e-18
1.303120994036387179e-18
1.093024633254036537e-18
8.942186076237989594e-19
7.521835521252724673e-19
6.507075769177432516e-19
5.157663166088522830e-19
3.577574576888560918e-19
2.807215330396495154e-19
2.037364842511942187e-19
1.450199872993836351e-19
9.999802026900238934e-20
7.100900054846316139e-20
4.907015613542225430e-20
3.382820742107561694e-20
2.349315081001017965e-20
1.646336251915214999e-20
1.171802579361661997e-20
8.502392218042598020e-21
6.290918829213104224e-21
4.742856349085920936e-21
3.626957918808791835e-21
2.795358872952293598e-21
2.155155917381754296e-21
