# bin_7_6
2.650266817921005256e-06
2.959820454756734466e-06
3.242424238437824674e-06
3.467420580921852792e-06
3.596587210995541101e-06
3.597206605718268880e-06
3.422868115642235139e-06
3.075844566012367884e-06
2.613887421011949177e-06
2.143130367951593667e-06
1.782646952062147389e-06
1.539289685613978592e-06
1.262235882226617203e-06
8.964234299448510389e-07
6.721889324243382838e-07
5.175920448822362397e-07
3.553766287729621861e-07
2.584633878130493011e-07
1.831419850976916300e-07
1.280987526294490708e-07
9.021451616990486525e-08
6.409730255981341054e-08
4.615824796285891066e-08
3.379858299395258166e-08
2.523586684417171174e-08
1.916597409684207692e-08
1.475141086466502252e-08
1.143804743287782850e-08
8.870948634120018047e-09
6.833546927216958290e-09
5.196671821977067798e-09
