# bin_14_8
3.672827589409834591e-09
4.195353131206171689e-09
4.726005893595778103e-09
5.230049485681035820e-09
5.661938033478682532e-09
5.962673138326797643e-09
6.067514048013406560e-09
5.915847396030830075e-09
5.447787221378363196e-09
4.743628539326604047e-09
3.924708209490195223e-09
3.219841969345006344e-09
2.751412833930051419e-09
2.354649504982698792e-09
1.766457559549093722e-09
1.234763336063649890e-09
1.001518932217245288e-09
6.704970667483575485e-10
5.030252825989377233e-10
3.385956981502905332e-10
2.317763586935898622e-10
1.585968411646393981e-10
1.076393156041538119e-10
7.286649583010511173e-11
4.945569363095952061e-11
3.399178510662608839e-11
2.373324893755543429e-11
1.690204645313507090e-11
1.231026469938762299e-11
9.160253815193029917e-12
6.935710671779666852e-12
