# bin_6_14
-1.558369609015777903e-17
-1.773812915198338347e-17
-1.989123397593804728e-17
-2.189195063009215872e-17
-2.353923192771254459e-17
-2.457815767549437179e-17
-2.477035770793751645e-17
-2.380785937655485010e-17
-2.159385359920094817e-17
-1.851635799574431115e-17
-1.520893474585922019e-17
-1.256626291044429329e-17
-1.084253060175728093e-17
-9.079384001850519500e-18
-6.532270240583877147e-18
-4.748327972748928488e-18
-3.776476013224151501e-18
-2.505193672657760665e-18
-1.860640009952640947e-18
-1.284825116647663759e-18
-8.750850545428158444e-19
-5.984276403206235679e-19
-4.078883592342010284e-19
-2.794684887145045205e-19
-1.931051827495394791e-19
-1.356432936169768963e-19
-9.706532217349313947e-20
-7.094486775455581283e-20
-5.293728464769997341e-20
-4.017508795654089708e-20
-3.081593569808677023e-20
