# bin_3_10
-8.996840194120089598e-19
-1.008889204040836099e-18
-1.110753234436874426e-18
-1.195208196059190273e-18
-1.249459646264248988e-18
-1.261137704835414615e-18
-1.215319272437406482e-18
-1.105477315015561498e-18
-9.507578967489351528e-19
-7.817632338523171210e-19
-6.444226648189719037e-19
-5.545219277632167603e-19
-4.668261457934357727e-19
-3.395300608342318595e-19
-2.444673537515919905e-19
-1.959958852836539774e-19
-1.308967642631406812e-19
-9.829259517977098718e-20
-6.829483862691562490e-20
-4.744936587133820603e-20
-3.330872210349150171e-20
-2.346116073022555814e-20
-1.671057615104437485e-20
-1.207699340846207966e-20
-8.904057411408958479e-21
-6.687812547871588257e-21
-5.104288529200933594e-21
-3.939613043315516530e-21
-3.053555753792213141e-21
-2.359605059064803277e-21
-1.805550516543975392e-21
