# bin_6_2
-4.513923202274158454e-13
-4.934860941648321044e-13
-5.265809515374324065e-13
-5.448608513937764602e-13
-5.434878800550006117e-13
-5.153632086566608585e-13
-4.615610129781541998e-13
-3.909388422699123986e-13
-3.201057991469441793e-13
-2.666025395038332155e-13
-2.302429208154069363e-13
-1.877323898394925392e-13
-1.328277494893211254e-13
-1.005978405821924173e-13
-7.708311784058715718e-14
-5.360721272005532907e-14
-3.910744500922829937e-14
-2.816802803325822101e-14
-2.008581690699621333e-14
-1.447967082045472577e-14
-1.058487247537356499e-14
-7.869334107646811027e-15
-5.955516070285699491e-15
-4.584066463207546507e-15
-3.570205009042675677e-15
-2.796651590246728382e-15
-2.188208460040156564e-15
-1.698262980106974829e-15
-1.299475249342409724e-15
-9.754598455308918587e-16
-7.155670255507154858e-16
