# bin_1_9
-1.462413039171419208e-24
-1.627817667608852190e-24
-1.776004301879359514e-24
-1.889638951268679414e-24
-1.947467956693485705e-24
-1.932827043622718852e-24
-1.819721393585856432e-24
-1.618380138260332251e-24
-1.361215095879008277e-24
-1.113247707758834810e-24
-9.329278519135970156e-25
-8.069940565729975147e-25
-6.462660687234118633e-25
-4.505471185499938349e-25
-3.496203246614068275e-25
-2.592416019463278346e-25
-1.830609241555699309e-25
-1.292642018651233105e-25
-9.291504177606680570e-26
-6.539700636178324587e-26
-4.623925582641900148e-26
-3.311235531696731572e-26
-2.406042054911601865e-26
-1.780237750641052917e-26
-1.342305864933821977e-26
-1.027966168109948007e-26
-7.959896101183139617e-27
-6.190878076452065332e-27
-4.801527450034900059e-27
-3.688507364583803745e-27
-2.790769616644406138e-27
