# bin_8_6
-2.652036131856494597e-09
-2.970226742440992559e-09
-3.265140600530093259e-09
-3.506775078657604737e-09
-3.657177588928427838e-09
-3.681324435354228794e-09
-3.533564511402030169e-09
-3.201375043253366482e-09
-2.742113936214471960e-09
-2.251248923529983962e-09
-1.860147474908941119e-09
-1.603846589453051126e-09
-1.340725298799993506e-09
-9.653952711718872647e-10
-7.038075898288803086e-10
-5.589563006062759921e-10
-3.747202656182625171e-10
-2.793338300055043771e-10
-1.955551497660046406e-10
-1.360030326014300093e-10
-9.550405583757256137e-11
-6.741402969069182653e-11
-4.818234773106652895e-11
-3.497022873851806203e-11
-2.589200605402647954e-11
-1.952204596207108958e-11
-1.494537306845404434e-11
-1.155691583382001766e-11
-8.962867696575557932e-12
-6.921288459775491434e-12
-5.286898260318418800e-12
