# bin_7_14
-3.752456752060811584e-15
-4.274403585403089328e-15
-4.797868384700805072e-15
-5.286653304643710404e-15
-5.692721518280007579e-15
-5.954946162655432184e-15
-6.014038442916449222e-15
-5.798069457672818581e-15
-5.275152118766759696e-15
-4.537720050242491794e-15
-3.731664432900794162e-15
-3.077580973102271270e-15
-2.651113113439656827e-15
-2.232136618104280703e-15
-1.618939697088020439e-15
-1.165076018711405688e-15
-9.340598332587081435e-16
-6.176109853950631305e-16
-4.618218126341535350e-16
-3.170348749528997345e-16
-2.157469538725385829e-16
-1.476107938370286650e-16
-1.004816709089194611e-16
-6.865767124654759031e-17
-4.725608631536047114e-17
-3.304439687337259244e-17
-2.352904213501463752e-17
-1.711078094823389807e-17
-1.271071792428251275e-17
-9.613863111692699060e-18
-7.359972157010390168e-18
