# bin_3_3
-3.354357408661237033e-08
-3.587646525329305567e-08
-3.724761729051045416e-08
-3.730806846466573866e-08
-3.560623914882844819e-08
-3.210782374514206218e-08
-2.739250162539758722e-08
-2.249186557624594105e-08
-1.864602994777206756e-08
-1.603465820643846408e-08
-1.324470250609989283e-08
-9.568986159440729038e-09
-7.094481000440555565e-09
-5.539659433189392156e-09
-3.855525225941338517e-09
-2.864930181624760904e-09
-2.059652044517859506e-09
-1.488714373172995500e-09
-1.090237460649559094e-09
-8.099563840955375452e-10
-6.123251294588945420e-10
-4.708757296405144763e-10
-3.675490022660737777e-10
-2.894272690246840480e-10
-2.283746610506109468e-10
-1.793202423387235381e-10
-1.391720863199010366e-10
-1.061532376150726634e-10
-7.920389838978633254e-11
-5.761182677551417096e-11
-4.079131860618888851e-11
