# bin_5_3
-1.733877008000642143e-09
-1.890097363369089826e-09
-2.009620075621328401e-09
-2.070149384223489971e-09
-2.053504359321821888e-09
-1.933166383848182616e-09
-1.719445993660164626e-09
-1.447169058713052786e-09
-1.184095698758253370e-09
-9.915879470605742505e-10
-8.560955010909386109e-10
-6.862136025234205043e-10
-4.818601208244677142e-10
-3.725194388171283732e-10
-2.782467046236589290e-10
-1.974514248934850277e-10
-1.417851072048698468e-10
-1.027001094729503086e-10
-7.357184284513219082e-11
-5.323237008935243558e-11
-3.910771659758771005e-11
-2.922333659141623431e-11
-2.223257818424172378e-11
-1.718595185149105621e-11
-1.342437469239539013e-11
-1.053039003897645191e-11
-8.237192869636260012e-12
-6.381640716888197860e-12
-4.868189543446963936e-12
-3.639265021688537976e-12
-2.656407178495962509e-12
