# bin_7_7
-1.683210246193420967e-08
-1.884367944274477015e-08
-2.070402973599298345e-08
-2.222205668950878088e-08
-2.315637666828361395e-08
-2.328766901426140789e-08
-2.232329968469649893e-08
-2.019820979349942975e-08
-1.727755237946632376e-08
-1.417852238638950475e-08
-1.172537493940962186e-08
-1.011528885971209153e-08
-8.434440838527116103e-09
-6.054677741159853098e-09
-4.433193057300318284e-09
-3.507544579337393381e-09
-2.356511973517288649e-09
-1.751115400504928861e-09
-1.228951380105728495e-09
-8.551762518585292338e-10
-6.006098027969420782e-10
-4.243040686128270646e-10
-3.036087500331924456e-10
-2.206625807383159598e-10
-1.636018220743007368e-10
-1.235024745382498432e-10
-9.463876732942208242e-11
-7.322255564220452114e-11
-5.679453823072295593e-11
-4.384579807276612861e-11
-3.347165744898516623e-11
