# bin_1_7
-5.188152351623886637e-19
-5.697345407347684485e-19
-6.113233088799946855e-19
-6.369861782396183236e-19
-6.406576191108769430e-19
-6.145008124632209709e-19
-5.565457895344531619e-19
-4.766260949353884565e-19
-3.914333919335772322e-19
-3.234821586014621902e-19
-2.785156886681767541e-19
-2.324779925590944220e-19
-1.680762987697062980e-19
-1.228717201362112363e-19
-9.738874106290483846e-20
-6.625239296775761117e-20
-4.952745696609864802e-20
-3.509985617799175961e-20
-2.490426852601034507e-20
-1.788776957909711925e-20
-1.298183709141505255e-20
-9.570676727098798369e-21
-7.178199707540850515e-21
-5.482970967936534512e-21
-4.246241082530027495e-21
-3.315632936634618186e-21
-2.593202598867976083e-21
-2.016918657188466401e-21
-1.550119849974461548e-21
-1.170922385789784644e-21
-8.656711898416612060e-22
