# bin_13_12
-4.330587298885918178e-11
-4.935613343552572910e-11
-5.543970352846350272e-11
-6.114027540255961250e-11
-6.590713874968306654e-11
-6.903708573071042054e-11
-6.982852738208201670e-11
-6.747904236121885088e-11
-6.154460986773866704e-11
-5.307144955867673906e-11
-4.368630769371583554e-11
-3.597185522205629708e-11
-3.092793709909509503e-11
-2.614295658328439918e-11
-1.910596050447684707e-11
-1.364198241449929006e-11
-1.097864961710217530e-11
-7.268059991237527977e-12
-5.445603579452708980e-12
-3.719281722972304121e-12
-2.532398680635778247e-12
-1.732941065472957897e-12
-1.178912871715183106e-12
-8.036725672875789235e-13
-5.512581314337098745e-13
-3.839008972402181863e-13
-2.721087111656036890e-13
-1.969423369305551674e-13
-1.456570580075130804e-13
-1.097788602682818029e-13
-8.384663527547725581e-14
