# bin_13_4
-1.061104963317669810e-09
-1.154624416359192381e-09
-1.224935223865611786e-09
-1.258787636337308132e-09
-1.244327315097184122e-09
-1.167397616783308494e-09
-1.035226941781113179e-09
-8.703021743054137037e-10
-7.134557263121304639e-10
-5.988868822215526070e-10
-5.144776337610948663e-10
-4.087785872381794724e-10
-2.899201679705846939e-10
-2.236118128944091769e-10
-1.658816017474990926e-10
-1.184615774983785902e-10
-8.534174614166825008e-11
-6.147008896087107585e-11
-4.413321592464516022e-11
-3.201892498900929271e-11
-2.356977424839553747e-11
-1.764382557468454593e-11
-1.344296380712280952e-11
-1.040122440536814055e-11
-8.127155144792811916e-12
-6.372673979645969386e-12
-4.979839679498157813e-12
-3.852205349646209786e-12
-2.933040417169203152e-12
-2.187888661252765032e-12
-1.593513941167073403e-12
