# bin_12_11
-5.075981613865761532e-11
-5.770415142439260372e-11
-6.460337552466677341e-11
-7.096097385954205636e-11
-7.611426160560122823e-11
-7.922738789757456602e-11
-7.956311977579989317e-11
-7.608832672482803216e-11
-6.867392942423987560e-11
-5.858890587499538331e-11
-4.804142512902328777e-11
-3.981315298076308158e-11
-3.440566375483429551e-11
-2.853465190129495213e-11
-2.031188873792651892e-11
-1.499799508240238447e-11
-1.174218428464422760e-11
-7.866658672285894766e-12
-5.757882204403854001e-12
-4.009988983661517423e-12
-2.736954823587865696e-12
-1.871336911711184549e-12
-1.279331523515507093e-12
-8.803215248903123378e-13
-6.118498360413847965e-13
-4.326589060063469641e-13
-3.118366961564018614e-13
-2.295313668775837518e-13
-1.722936439249689439e-13
-1.313027679556359141e-13
-1.009124624806311464e-13
