# bin_7_14
-3.376545026373156558e-19
-3.844771900091603885e-19
-4.313568533721977703e-19
-4.750281042721142785e-19
-5.111539936544410539e-19
-5.342259039804369033e-19
-5.389840185767087463e-19
-5.188773907963392750e-19
-4.713621864918055461e-19
-4.048147012508385481e-19
-3.326174662400014282e-19
-2.744366966506473622e-19
-2.365473721479305354e-19
-1.987313778729359331e-19
-1.436232446541447959e-19
-1.037319255659702330e-19
-8.292058850181611011e-20
-5.486554139218770041e-20
-4.092408398366496705e-20
-2.815474851781712812e-20
-1.916236317591414630e-20
-1.310632229048707750e-20
-8.924586421174224862e-21
-6.103888477187195450e-21
-4.207091507468164705e-21
-2.946755299595728867e-21
-2.102107071948346448e-21
-1.531598469363141912e-21
-1.139676136139479300e-21
-8.631151389942971952e-22
-6.612541196646564726e-22
