# bin_9_6
-3.280540480619733324e-10
-3.645434188109244045e-10
-3.969132039559120914e-10
-4.212400634520618320e-10
-4.328562987150475569e-10
-4.278723103689516536e-10
-4.009711432438131464e-10
-3.550797155751600318e-10
-2.977688465234342717e-10
-2.437375472883054167e-10
-2.049828580703918888e-10
-1.767663799689701077e-10
-1.398478098864861108e-10
-9.786401080977873573e-11
-7.641540329633122013e-11
-5.581361963098311734e-11
-3.990013327489900583e-11
-2.812629449939932862e-11
-2.012975565368725649e-11
-1.421161531941219757e-11
-1.008766931015286610e-11
-7.247892036458071600e-12
-5.285062971760099341e-12
-3.925146392321882598e-12
-2.969258913036708941e-12
-2.279534305239379913e-12
-1.767495774588863241e-12
-1.374826091380313011e-12
-1.065183539986097928e-12
-8.166419613249746562e-13
-6.161988101578792534e-13
