# bin_6_4
-4.668981858519424618e-10
-5.070475505832973342e-10
-5.366005182788011630e-10
-5.497755775809580633e-10
-5.413503371448381144e-10
-5.053903281174735873e-10
-4.460188200960538077e-10
-3.734428821975857391e-10
-3.060919283681866221e-10
-2.578462071910257121e-10
-2.212364664729796177e-10
-1.737467225451972513e-10
-1.228576772773665060e-10
-9.578332601763112057e-11
-7.004431397495089697e-11
-5.052532126245961896e-11
-3.616786596421354174e-11
-2.612472331227329766e-11
-1.880450920872643008e-11
-1.367851015501598702e-11
-1.010293255107363591e-11
-7.589646716641309421e-12
-5.803029190593086500e-12
-4.502635749861953994e-12
-3.524834337974725452e-12
-2.766167078728754147e-12
-2.160958669674590775e-12
-1.669479578897043986e-12
-1.268386339856752995e-12
-9.434199016474691058e-13
-6.847660062059585254e-13
