# bin_9_5
-5.284045741819394319e-10
-5.819512641904384290e-10
-6.266908820832048714e-10
-6.560093233274312723e-10
-6.632963366509209652e-10
-6.412082987168709998e-10
-5.858172662037650981e-10
-5.061559853988417170e-10
-4.177488007873629398e-10
-3.440829457819184297e-10
-2.944529668534180268e-10
-2.483672015496056023e-10
-1.841451513265797505e-10
-1.322024355500256928e-10
-1.050755241025325800e-10
-7.245206115076423897e-11
-5.388169851747116652e-11
-3.782618888031294690e-11
-2.693477260454930256e-11
-1.928074849943623052e-11
-1.391742695725095848e-11
-1.019237027475248546e-11
-7.588435022940467577e-12
-5.756024067132368815e-12
-4.432649632647963194e-12
-3.447773968260683115e-12
-2.691837558122263915e-12
-2.094473734885503214e-12
-1.613491891653361807e-12
-1.223657281029107944e-12
-9.095478206231388344e-13
