# bin_3_7
-2.266262553246101295e-16
-2.503653671061574555e-16
-2.706400167429912201e-16
-2.846499540787753434e-16
-2.893665881748272941e-16
-2.818713392893592272e-16
-2.594877210967893757e-16
-2.258806581472840525e-16
-1.869434043750099248e-16
-1.533277320074594172e-16
-1.307517687505305648e-16
-1.117004055812875376e-16
-8.420614466199362042e-17
-5.922636636302596066e-17
-4.776777403915097234e-17
-3.279311800499089693e-17
-2.460549817043503944e-17
-1.706168187346177909e-17
-1.214966288127382424e-17
-8.682192621710483008e-18
-6.242588680213677240e-18
-4.547478566081528697e-18
-3.365271417646947232e-18
-2.538742300668280179e-18
-1.946738261654255862e-18
-1.510157384043726628e-18
-1.178156764102101385e-18
-9.177037733396385995e-19
-7.088736447386800760e-19
-5.397604056647127132e-19
-4.032335790379097179e-19
