# bin_8_2
-1.909907371330768731e-09
-1.977874005833482767e-09
-1.974867295392720407e-09
-1.881080539269745732e-09
-1.696367050250730744e-09
-1.451009968783831715e-09
-1.198370843275206216e-09
-9.956903310320899215e-10
-8.475737085200151524e-10
-6.945142654212620843e-10
-5.146634731897466938e-10
-3.813870341505864157e-10
-2.927723470841804698e-10
-2.105381765673189906e-10
-1.549286162585280408e-10
-1.125106029723665584e-10
-8.260674911836123852e-11
-6.132013525999996107e-11
-4.625607689297073302e-11
-3.551554916983732426e-11
-2.770522072783820549e-11
-2.187183514483781365e-11
-1.735880007348757290e-11
-1.375204066824311582e-11
-1.080059354279213975e-11
-8.356482335709481624e-12
-6.335985381618088814e-12
-4.689605103649740023e-12
-3.380507955794437076e-12
-2.372427611710977591e-12
-1.623065298121327005e-12
