# bin_9_15
-1.027621954220547755e-16
-1.173609953180346888e-16
-1.321770308663335320e-16
-1.462363949323780732e-16
-1.582627066968224158e-16
-1.666046411336466531e-16
-1.694559404528268058e-16
-1.651173157644670326e-16
-1.519319593904274597e-16
-1.321837798709950814e-16
-1.092790703245799430e-16
-8.962877567710417655e-17
-7.661564386501369735e-17
-6.555217916492022950e-17
-4.908455240983450589e-17
-3.430064566200313407e-17
-2.786030099859365269e-17
-1.859017799119207818e-17
-1.397729701763000920e-17
-9.406915569290205952e-18
-6.429756666518086915e-18
-4.400951674257014804e-18
-2.987962892916598509e-18
-2.023142086228909471e-18
-1.373629807855879882e-18
-9.446693188010714753e-19
-6.600465475101541026e-19
-4.704552819352706619e-19
-3.429459224291692637e-19
-2.554007302823368122e-19
-1.935089171231512404e-19
