# bin_8_14
-3.599597245691292010e-17
-4.101715942355678499e-17
-4.606157064849931957e-17
-5.078273015019183575e-17
-5.472182976032838020e-17
-5.729389959479933101e-17
-5.792046377575733435e-17
-5.592579572609730383e-17
-5.095930883649601717e-17
-4.390131054544366773e-17
-3.611728081420307274e-17
-2.974876002621241600e-17
-2.559706901843171854e-17
-2.161461072319762442e-17
-1.574884293064000843e-17
-1.126745875590194072e-17
-9.068642591752316059e-18
-5.989265130810381630e-18
-4.491584549330008374e-18
-3.072691172932435957e-18
-2.090358511396984251e-18
-1.430407677747005939e-18
-9.730478253773274801e-19
-6.637809934668677770e-19
-4.557897155606521886e-19
-3.178387980835120000e-19
-2.256256530403260154e-19
-1.635653547144877014e-19
-1.211603983400066745e-19
-9.143797521880486866e-20
-6.990605563894819061e-20
