# bin_3_5
-8.380354429258321815e-13
-9.112449334739133277e-13
-9.658402286079212921e-13
-9.911794857563973063e-13
-9.783599199550113486e-13
-9.154026963611035016e-13
-8.094859342117648047e-13
-6.780435744741504708e-13
-5.548750534750074876e-13
-4.668444340924075500e-13
-4.022607628841633766e-13
-3.175423746370078489e-13
-2.226160986545932176e-13
-1.744665013159097427e-13
-1.276256733171236719e-13
-9.209216869841479936e-14
-6.553027027430906406e-14
-4.752138544475963853e-14
-3.417981441435815943e-14
-2.482350519118659532e-14
-1.831329966316228035e-14
-1.374192444479102428e-14
-1.049801221188622398e-14
-8.141486239852416327e-15
-6.372976401833889725e-15
-5.003166875687429342e-15
-3.911533837228266191e-15
-3.025178133481583100e-15
-2.301385769422970812e-15
-1.714234361345116957e-15
-1.245999748830007238e-15
