# bin_5_1
-2.649832788338596117e-09
-2.589952068951754597e-09
-2.410513381073421884e-09
-2.129241094383676409e-09
-1.798598440776907524e-09
-1.489397889501902188e-09
-1.246763149066562780e-09
-1.044500867909325414e-09
-8.274006293818104682e-10
-6.143004841683308241e-10
-4.616094829414820526e-10
-3.475576442484103480e-10
-2.535719317148583708e-10
-1.870718534123609189e-10
-1.380125805814058009e-10
-1.031208895062133815e-10
-7.823891129952590376e-11
-6.042136409459145905e-11
-4.743103354435431958e-11
-3.768675026638674286e-11
-3.012341627880461437e-11
-2.404608102238236014e-11
-1.903466174196282458e-11
-1.484789291671113017e-11
-1.135282937396091155e-11
-8.475372672221147713e-12
-6.163873530788402812e-12
-4.364765860083165077e-12
-3.012829632528794758e-12
-2.031939789518950170e-12
-1.342978939363433741e-12
