# bin_4_12
-7.881635843537464991e-24
-8.913252284724457736e-24
-9.913678223502166167e-24
-1.080214774016883131e-23
-1.147125261646439164e-23
-1.179052760057973920e-23
-1.166041397166801989e-23
-1.092382778145663983e-23
-9.669157894242523240e-24
-8.095664904794035968e-24
-6.619533204229638988e-24
-5.574115513080055915e-24
-4.822462227152028050e-24
-3.806472636419136950e-24
-2.633381338369364214e-24
-2.077759016594243834e-24
-1.496910477517247588e-24
-1.072160443358584393e-24
-7.345594655099017003e-25
-5.223602108079367352e-25
-3.613733016441869632e-25
-2.493635358367301506e-25
-1.734201648516344213e-25
-1.217012819412467429e-25
-8.678532476053006067e-26
-6.309585115951171710e-26
-4.677741324438232102e-26
-3.532875724302232960e-26
-2.705245774463477567e-26
-2.086574877473667779e-26
-1.608969552541000192e-26
