# bin_5_5
-7.964804253004642637e-11
-8.724006482904599414e-11
-9.331049610494249227e-11
-9.684163319972803634e-11
-9.693923390002329409e-11
-9.238880111994084274e-11
-8.316428313064993128e-11
-7.080507790192327676e-11
-5.807304212566995523e-11
-4.820306813864215209e-11
-4.154764513189672639e-11
-3.422224336741370620e-11
-2.449696944686821631e-11
-1.824428543476380507e-11
-1.418406256884575516e-11
-9.780880410599510191e-12
-7.214144631176473663e-12
-5.151546948568755450e-12
-3.666590006414093806e-12
-2.639468724051077154e-12
-1.923244564348320539e-12
-1.424287273873109824e-12
-1.073394897745690427e-12
-8.232436974125439547e-13
-6.394463208550305304e-13
-5.001067499051315306e-13
-3.911740938529650826e-13
-3.038457993707257434e-13
-2.329348631380922721e-13
-1.753367352970409684e-13
-1.290725812465074541e-13
