# bin_8_4
-7.233328014562727543e-10
-7.859746187557017043e-10
-8.323695274384564239e-10
-8.535388688511825757e-10
-8.413946124233394330e-10
-7.866109084819914922e-10
-6.951640212469260997e-10
-5.827263198150391666e-10
-4.776507883885618007e-10
-4.019585414924965949e-10
-3.450122402465615316e-10
-2.718635265096509057e-10
-1.924024366715330222e-10
-1.495424278080247834e-10
-1.098051486280367740e-10
-7.898129599368530969e-11
-5.664048405898520186e-11
-4.087798477578216005e-11
-2.940238122018458470e-11
-2.137140589216632835e-11
-1.576960584024849167e-11
-1.183454300920266855e-11
-9.039499090948888248e-12
-7.008188251960235943e-12
-5.483322205901897484e-12
-4.302114734703137196e-12
-3.361140264036685599e-12
-2.597659186603921054e-12
-1.974795854394565080e-12
-1.470063667295473773e-12
-1.068078671105286195e-12
