# bin_6_5
-2.001034099089315019e-10
-2.196862992480666146e-10
-2.356510017846352091e-10
-2.454600787836585607e-10
-2.467601613625694106e-10
-2.365969757364981019e-10
-2.142778399542943446e-10
-1.835412903883750513e-10
-1.508571674245749378e-10
-1.247562908250580232e-10
-1.072759184217709150e-10
-8.935889414011684473e-11
-6.482742751682634195e-11
-4.744885105353802830e-11
-3.739381970402985362e-11
-2.564328802334520454e-11
-1.906804077081644605e-11
-1.350068072035422874e-11
-9.599486334423294270e-12
-6.896400258074126641e-12
-5.006100858464154225e-12
-3.690424989511356698e-12
-2.767455539161683321e-12
-2.113268173806438252e-12
-1.636042795649250672e-12
-1.276988131972409510e-12
-9.983452322945885129e-13
-7.761930737642000464e-13
-5.963526852409157410e-13
-4.503480394990244981e-13
-3.328841699338865750e-13
