# bin_3_10
-5.885077590569473372e-23
-6.596194426675915495e-23
-7.257871801596733623e-23
-7.803967572202437593e-23
-8.150583647873137273e-23
-8.218066139554355858e-23
-7.907261317040682950e-23
-7.181273987065481285e-23
-6.166288950262725424e-23
-5.067023778642833661e-23
-4.180584777272992391e-23
-3.600376462137593204e-23
-3.022901867334302005e-23
-2.189732720714388452e-23
-1.584183433854541973e-23
-1.265782640125213924e-23
-8.462488947540909104e-24
-6.338734792854399101e-24
-4.417283722279621496e-24
-3.069859584319874384e-24
-2.155261903546700137e-24
-1.519284242510952152e-24
-1.083590153396087124e-24
-7.844361157203012105e-25
-5.793153656414814515e-25
-4.357870479137843847e-25
-3.330125669971810341e-25
-2.572251201200475298e-25
-1.994239672422905804e-25
-1.540655014513405585e-25
-1.178108682369034672e-25
