# bin_9_1
-3.164352474443189678e-09
-3.111346693116991862e-09
-2.915283061392858281e-09
-2.591360111812293483e-09
-2.198008296205287659e-09
-1.819929682323704984e-09
-1.520525312931466171e-09
-1.278780018596073381e-09
-1.022778052297897874e-09
-7.610904010470063713e-10
-5.697777926227824617e-10
-4.309454741599828892e-10
-3.141462472213998093e-10
-2.315928459230823876e-10
-1.705167439626050036e-10
-1.270692294126199923e-10
-9.608542470507044896e-11
-7.394971987618979712e-11
-5.787847320621855854e-11
-4.588992713593732303e-11
-3.664376227698205102e-11
-2.925679663599530392e-11
-2.318986652227935049e-11
-1.813053401962375919e-11
-1.390514041826227353e-11
-1.041774755612313977e-11
-7.605047122453671249e-12
-5.405144319133719713e-12
-3.743543825027152574e-12
-2.532148366043601489e-12
-1.677665779109760888e-12
