# bin_11_11
-2.421260686911586644e-11
-2.751033498385224863e-11
-3.077799874910482822e-11
-3.377785632599052407e-11
-3.619196704504952723e-11
-3.762019160574946989e-11
-3.771965296638546729e-11
-3.598959389942404779e-11
-3.241196299531034159e-11
-2.759194942439845416e-11
-2.261637970327045811e-11
-1.878036959403782315e-11
-1.624487739083231997e-11
-1.340468623244310863e-11
-9.491086352092477371e-12
-7.070893046293582721e-12
-5.488815921037493161e-12
-3.698564993161550457e-12
-2.685966340104069602e-12
-1.879835293036831477e-12
-1.284793551314459111e-12
-8.785253068147598960e-13
-6.016903027505347785e-13
-4.150704485477802037e-13
-2.894600296845698071e-13
-2.054572613014710554e-13
-1.486729745070657230e-13
-1.098557859827728048e-13
-8.272877723446496431e-14
-6.318985463038908142e-14
-4.861799696089751518e-14
