# bin_7_5
-3.286698126667127264e-10
-3.613020551162816765e-10
-3.881810898357617318e-10
-4.051603473901306368e-10
-4.082713627186952294e-10
-3.927782935650833979e-10
-3.569908747083271664e-10
-3.068655359819291062e-10
-2.526157884083056828e-10
-2.085367736743089785e-10
-1.789892848578061677e-10
-1.499154435600443371e-10
-1.097087177587984615e-10
-7.960791431519791689e-11
-6.303387990787143288e-11
-4.326203684038447038e-11
-3.221298177841264766e-11
-2.271233802063078011e-11
-1.615602333755977790e-11
-1.159107462312450816e-11
-8.395142183003902353e-12
-6.172290452882441307e-12
-4.615110748199945269e-12
-3.514778144991873590e-12
-2.715389792406164605e-12
-2.116607861528085583e-12
-1.653977632824280036e-12
-1.286422988734313208e-12
-9.894890665525342445e-13
-7.485574020722054801e-13
-5.545853775736972689e-13
