# bin_2_5
-1.076355900453577300e-14
-1.163383271548877689e-14
-1.223870785157469813e-14
-1.244875284596637164e-14
-1.213951254499277981e-14
-1.119595763932782999e-14
-9.764157271257876760e-15
-8.096149996588708696e-15
-6.639578704515565193e-15
-5.646703270830262923e-15
-4.822699688411758048e-15
-3.666699815612661956e-15
-2.588381536875843179e-15
-2.072327132959094185e-15
-1.452419889904331350e-15
-1.082883437594630304e-15
-7.630738284965349417e-16
-5.521893461364735725e-16
-4.006729532547492497e-16
-2.937146745798703725e-16
-2.188171555030412839e-16
-1.658095905014846718e-16
-1.278480453182436506e-16
-9.984646875095282580e-17
-7.849040610064090489e-17
-6.169284424057552882e-17
-4.814165974028404026e-17
-3.706308043691086366e-17
-2.800185329399996860e-17
-2.067469110721335494e-17
-1.487608284916043756e-17
