# bin_2_3
-2.280294880565463333e-11
-2.390853146673469596e-11
-2.423442213042805537e-11
-2.352730196136152932e-11
-2.161624889659841832e-11
-1.878768991600444380e-11
-1.557361027054010555e-11
-1.280594120218842601e-11
-1.089129466938961277e-11
-9.223424283320853671e-12
-6.988099373114191906e-12
-5.008984728643853615e-12
-3.957862052798815920e-12
-2.818230685007038982e-12
-2.089280236527184199e-12
-1.500352598780216820e-12
-1.097417486100022811e-12
-8.079612424306661419e-13
-6.033337695032293022e-13
-4.586397974706807456e-13
-3.546316167419634767e-13
-2.782706345571570933e-13
-2.202626958284506541e-13
-1.746363343090591855e-13
-1.377217405155023329e-13
-1.073043842468027709e-13
-8.211696228119613310e-14
-6.143365155920159898e-14
-4.478253629548851122e-14
-3.176400407933600028e-14
-2.193577642504487820e-14
