# bin_2_6
-7.442763700852772686e-17
-8.124869890136781525e-17
-8.653915283223938467e-17
-8.933961232956864405e-17
-8.886483820715121780e-17
-8.395386712525058642e-17
-7.492356190226472623e-17
-6.324951428106986950e-17
-5.176414315689457871e-17
-4.323174542689748578e-17
-3.733909069501831143e-17
-3.018539359507585410e-17
-2.126004622087204782e-17
-1.627856021016324723e-17
-1.231283436961951685e-17
-8.649937569733903377e-18
-6.256750106482752489e-18
-4.522141678967930398e-18
-3.232059580059928315e-18
-2.334040677297853096e-18
-1.710551916866798407e-18
-1.275067378433893607e-18
-9.676128523156770388e-19
-7.464597285107844682e-19
-5.822766482921803045e-19
-4.564676857936055763e-19
-3.571270251239580801e-19
-2.769264236856846326e-19
-2.115722493153874804e-19
-1.584849266651056544e-19
-1.159642441581814925e-19
