# bin_4_8
-7.380517728610475439e-16
-8.214312069558745109e-16
-8.960790452449593885e-16
-9.532399866867051996e-16
-9.821873597797156935e-16
-9.745278806516622838e-16
-9.171537443498137814e-16
-8.153827452052688525e-16
-6.855807680394826947e-16
-5.606661783157587893e-16
-4.699916896665790266e-16
-4.065489709008818729e-16
-3.252737234805451106e-16
-2.266574411461243109e-16
-1.760976372825766454e-16
-1.303764956178816154e-16
-9.218045848065468987e-17
-6.501841942576753360e-17
-4.675296224016637380e-17
-3.291564442412755360e-17
-2.327790986391588219e-17
-1.667473377392945426e-17
-1.212030144163578405e-17
-8.971149160150076606e-18
-6.766559979006322980e-18
-5.183416781807373598e-18
-4.014469326254352403e-18
-3.122553297432456283e-18
-2.421743430179909545e-18
-1.860155291663255968e-18
-1.407144757532705020e-18
