# bin_7_14
-1.524128514347853770e-23
-1.727929718593738589e-23
-1.927762417197278573e-23
-2.108407630719703578e-23
-2.249440150286305886e-23
-2.325367342629940079e-23
-2.316568342588375591e-23
-2.190501524209815774e-23
-1.955899481326816791e-23
-1.650515560526654901e-23
-1.350274279393704697e-23
-1.128895954855173259e-23
-9.783025792881438230e-24
-7.912088831918967462e-24
-5.505396035516860384e-24
-4.232875808049731873e-24
-3.173560146648827947e-24
-2.195443000229656616e-24
-1.541664308894967768e-24
-1.096986969608109793e-24
-7.537451080952585295e-25
-5.160573092101953047e-25
-3.560992389872799830e-25
-2.478100980467097829e-25
-1.748010121144151349e-25
-1.256382775432206092e-25
-9.210282257533719062e-26
-6.888977990431534065e-26
-5.238895956411475276e-26
-4.027102642713868065e-26
-3.106018998329133164e-26
