# bin_3_12
-3.235184508812518570e-40
-3.616746631688503161e-40
-3.966983596299044924e-40
-4.248708805871613096e-40
-4.415143871338681752e-40
-4.426259436214589257e-40
-4.223296509412591574e-40
-3.803614483242470870e-40
-3.238161777225487420e-40
-2.653429523270144355e-40
-2.201714140866539410e-40
-1.904069916496421467e-40
-1.573350013650227330e-40
-1.115435184054214223e-40
-8.307394296104443818e-41
-6.483266892695965363e-41
-4.387678472624824064e-41
-3.222910291956109102e-41
-2.285632403020690618e-41
-1.593962409260294297e-41
-1.119698145388571923e-41
-7.934052317825911195e-42
-5.702740962564339857e-42
-4.167281751883118126e-42
-3.106053111954992555e-42
-2.355833395191521863e-42
-1.811978609530344139e-42
-1.405089331532004871e-42
-1.090570632176110224e-42
-8.412101116970103132e-43
-6.408049624920178305e-43
