# bin_6_5
-1.896694330402373269e-10
-2.088881034050365727e-10
-2.249389375081008364e-10
-2.354412495610024287e-10
-2.380249131056999384e-10
-2.299996304941156800e-10
-2.098887656438843322e-10
-1.811311328912001331e-10
-1.492342997938526702e-10
-1.228563657530637480e-10
-1.054131901781752410e-10
-8.908551091353667123e-11
-6.555631745837582050e-11
-4.695757423334652686e-11
-3.775628638795498609e-11
-2.558344196383039381e-11
-1.930258869784335163e-11
-1.352083588077782509e-11
-9.587607092623532191e-12
-6.875795524318086607e-12
-4.970651702552751063e-12
-3.645213163428177207e-12
-2.717923900414049965e-12
-2.065153839282479036e-12
-1.592858368759558023e-12
-1.240632081121726345e-12
-9.696240508649748276e-13
-7.549198588273925989e-13
-5.816843820509810461e-13
-4.410680771790700566e-13
-3.276703105633300037e-13
