# bin_1_4
-6.861978786923041845e-20
-7.269897055794874382e-20
-7.457791064941352982e-20
-7.361620201255030183e-20
-6.886713564622524529e-20
-6.089686861779107896e-20
-5.097606115706052103e-20
-4.168454890614155016e-20
-3.506894111378090820e-20
-3.026541712090157543e-20
-2.391350543166213559e-20
-1.671103018798082954e-20
-1.318470774503913876e-20
-9.659525709470039371e-21
-7.029576915113881197e-21
-5.013692144819985118e-21
-3.689122781671755997e-21
-2.693186010203412885e-21
-1.990210941137368869e-21
-1.497840842705678906e-21
-1.147337606475628172e-21
-8.935090492546911146e-22
-7.040659819939531406e-22
-5.575413788850316246e-22
-4.406031866118194157e-22
-3.450597230164852353e-22
-2.661097961035112976e-22
-2.010232306118749594e-22
-1.481445558380407769e-22
-1.062364453433345037e-22
-7.411364443933781208e-23
