# bin_1_3
-4.053239584162533868e-15
-4.212016521084284574e-15
-4.225273315528455081e-15
-4.040775848826728869e-15
-3.650635428533026104e-15
-3.119812498922287861e-15
-2.561241824889368420e-15
-2.119157851947500653e-15
-1.823405084992359368e-15
-1.515248793538376959e-15
-1.096395420626956142e-15
-8.090831532223312845e-16
-6.394118702803446285e-16
-4.431540832916950529e-16
-3.334552482502642256e-16
-2.415500883615183319e-16
-1.762502850841780430e-16
-1.308127424862552809e-16
-9.867649206263624724e-17
-7.580902152706342831e-17
-5.919912328414427211e-17
-4.681751507404325445e-17
-3.723351073581563578e-17
-2.956358992913395695e-17
-2.327204170748227992e-17
-1.804334284948579143e-17
-1.370311559350511757e-17
-1.015105072951808365e-17
-7.315709388285770562e-18
-5.128050611580389892e-18
-3.501748147554341613e-18
