# bin_7_4
-6.104148025260301382e-10
-6.646834888680406170e-10
-7.057499738621695994e-10
-7.258113635105307985e-10
-7.184102206937968615e-10
-6.744991227407407500e-10
-5.984549222657850440e-10
-5.027224119912906863e-10
-4.115076602387532526e-10
-3.454490102596973507e-10
-2.979789381190952244e-10
-2.371342504135125485e-10
-1.664667199913324022e-10
-1.295508016807510825e-10
-9.579818594773382506e-11
-6.855174672877902423e-11
-4.903237612889238089e-11
-3.552453341040894057e-11
-2.550118991358699839e-11
-1.848830363543462934e-11
-1.361095102372710562e-11
-1.019213561887281322e-11
-7.770171016972078451e-12
-6.016325868356574958e-12
-4.704666384201582492e-12
-3.692156308700361389e-12
-2.887548948581360965e-12
-2.235341691954593185e-12
-1.703021246919030970e-12
-1.270937438822544033e-12
-9.258257827812158143e-13
