# bin_4_12
-1.821518612479886655e-32
-2.042151097867753290e-32
-2.247711280792157045e-32
-2.417753443860485207e-32
-2.526340444971985874e-32
-2.548662749258994952e-32
-2.453925894513618503e-32
-2.229878973500973602e-32
-1.915894223191197842e-32
-1.574616998984309068e-32
-1.298858357658661438e-32
-1.119020401219766327e-32
-9.408501512608555083e-33
-6.814925725126896447e-33
-4.922420837222097877e-33
-3.947664686513164840e-33
-2.628154239543203531e-33
-1.976908776390039457e-33
-1.377100783004989431e-33
-9.559574393133593826e-34
-6.712673623917132642e-34
-4.729561349054300168e-34
-3.372612564722376726e-34
-2.441169740208365182e-34
-1.802691137221377086e-34
-1.356039598313129132e-34
-1.036314502643673874e-34
-8.006153242396255928e-35
-6.208788849487718211e-35
-4.798225732475208034e-35
-3.670423592795351328e-35
