# bin_6_7
-2.873309003841032794e-12
-3.206238815092001145e-12
-3.508738967157880745e-12
-3.747297703652724453e-12
-3.880009135046926878e-12
-3.873321728557095632e-12
-3.674026628998322810e-12
-3.290489305328032740e-12
-2.785521213640920689e-12
-2.279700883102044440e-12
-1.899890418785762167e-12
-1.644966739821672364e-12
-1.341774555375159821e-12
-9.410396740494398365e-13
-7.151164705939338836e-13
-5.460805984455165673e-13
-3.758971849004730313e-13
-2.707023092045817783e-13
-1.939695126293310588e-13
-1.357934874751622550e-13
-9.553063948996490620e-14
-6.801170513499559046e-14
-4.913406227730784048e-14
-3.611589835398645189e-14
-2.706824666703983753e-14
-2.062799365215291134e-14
-1.592116813830185488e-14
-1.236778845541278728e-14
-9.599523149023605225e-15
-7.392812176339987455e-15
-5.615293261582185959e-15
