# bin_2_13
-1.113968909916488333e-55
-1.246530717218001220e-55
-1.368826465334309008e-55
-1.468150384595097263e-55
-1.528478114450245699e-55
-1.535575347766211537e-55
-1.469593613596069886e-55
-1.327437962677925344e-55
-1.133510773422433226e-55
-9.296286356245917828e-56
-7.697669705943248140e-56
-6.650172034913299038e-56
-5.528676034142802759e-56
-3.945758429050183978e-56
-2.908324994029823398e-56
-2.292512629528528392e-56
-1.540973392670478501e-56
-1.142193577237953866e-56
-8.052291140196457184e-57
-5.605736535304962040e-57
-3.936745792194320202e-57
-2.783585343565945325e-57
-1.995464609551325104e-57
-1.453649215135969307e-57
-1.080221812616002552e-57
-8.171594405690311330e-58
-6.272576280092031450e-58
-4.858639327021221620e-58
-3.770410472682493204e-58
-2.910347079317698201e-58
-2.220169990177447863e-58
