# bin_5_12
-1.879533699827035777e-26
-2.113097098712853200e-26
-2.333702603394720523e-26
-2.520797826005736113e-26
-2.647977208912150596e-26
-2.687278567632953366e-26
-2.610381333534250592e-26
-2.394192141564547006e-26
-2.076574446520246043e-26
-1.714068465367020495e-26
-1.407523047127779721e-26
-1.205627560861509849e-26
-1.027758097065242428e-26
-7.635990029293896916e-27
-5.376684931913651406e-27
-4.370715037618755966e-27
-2.916159750088163406e-27
-2.209798597103120434e-27
-1.513192812531514978e-27
-1.050752588266639786e-27
-7.374706421158720873e-28
-5.178701194555122924e-28
-3.664793611567910427e-28
-2.626784597099230859e-28
-1.920333905702467028e-28
-1.431093937940170776e-28
-1.085211627701969119e-28
-8.341134076523253106e-29
-6.455186704678227612e-29
-4.993469350131435330e-29
-3.833573256153283224e-29
