# bin_10_8
-1.443191870065760097e-10
-1.625544955438354905e-10
-1.799250618687570670e-10
-1.948840634869897413e-10
-2.054213230002648217e-10
-2.092883995225494528e-10
-2.044731438467593357e-10
-1.887729383645738459e-10
-1.647913929964590498e-10
-1.365619816002889169e-10
-1.119270095195976703e-10
-9.540069890804011899e-11
-8.184792737163839967e-11
-6.196228837754610594e-11
-4.319386829223810734e-11
-3.499591081490372681e-11
-2.377882686581061125e-11
-1.783157249161090987e-11
-1.211541041382659637e-11
-8.476086374054073342e-12
-5.929931216286444548e-12
-4.147939888751817627e-12
-2.920113644770140329e-12
-2.079155616842730618e-12
-1.508773008601676259e-12
-1.116368615040353273e-12
-8.412394629161983191e-13
-6.436256732725739299e-13
-4.968738266737169374e-13
-3.842790708672573039e-13
-2.955638283969799473e-13
