# bin_5_15
-7.022601592639669231e-38
-7.946343384527237840e-38
-8.844259638221264982e-38
-9.644855880185610167e-38
-1.025265562085485360e-37
-1.055047149160100439e-37
-1.045088936232616882e-37
-9.809394758704872166e-38
-8.698613569408020220e-38
-7.293722805308187120e-38
-5.964232935251378776e-38
-5.016603254168556951e-38
-4.344368109928372684e-38
-3.445529997682089935e-38
-2.381511240000988682e-38
-1.874318055851324486e-38
-1.359717715660369217e-38
-9.686529093664529935e-39
-6.636364599072451352e-39
-4.737452348628468957e-39
-3.272984673982057421e-39
-2.253959568742952441e-39
-1.565785298525759139e-39
-1.097285683179537542e-39
-7.810699979617724964e-40
-5.668081930739153902e-40
-4.194791311772175330e-40
-3.163728926407050830e-40
-2.420537525072844438e-40
-1.866590724047983943e-40
-1.439924109319831492e-40
