# bin_15_9
-2.481129132354171062e-10
-2.808079991991898729e-10
-3.126228531848738469e-10
-3.410356306701597249e-10
-3.626800942595809061e-10
-3.734256855811920719e-10
-3.701430571874114434e-10
-3.477463447547613867e-10
-3.086434809396009968e-10
-2.590402832115434864e-10
-2.118655237183888828e-10
-1.780636382140231058e-10
-1.541713267924178292e-10
-1.225704625455659825e-10
-8.488621358226084247e-11
-6.653935231172190024e-11
-4.848775121891364581e-11
-3.440007733510577928e-11
-2.369410717033009155e-11
-1.687704479918201944e-11
-1.165251346163501099e-11
-8.021318034458407282e-12
-5.566658036264527509e-12
-3.897356563909556457e-12
-2.770804362520340203e-12
-2.008099941461439706e-12
-1.484194485421680363e-12
-1.118056299924032537e-12
-8.546242778544380199e-13
-6.586622078138511910e-13
-5.080058824812444261e-13
