# bin_10_15
-8.844253188449246297e-17
-1.008560466453239095e-16
-1.133702397237375705e-16
-1.251381276011627238e-16
-1.350408366785693881e-16
-1.416460431116559165e-16
-1.434891971516521510e-16
-1.389633633061501281e-16
-1.270147505896283148e-16
-1.097736758938118089e-16
-9.044691829667184433e-17
-7.440135048509065160e-17
-6.392155677786934604e-17
-5.423374715871735499e-17
-3.982205392256826494e-17
-2.824643504062107732e-17
-2.288620004068266389e-17
-1.508458084260868380e-17
-1.137397951049775697e-17
-7.742949407251551396e-18
-5.263487093766832867e-18
-3.604449883664675595e-18
-2.450339969885410678e-18
-1.667789240736464501e-18
-1.141393704605353693e-18
-7.928035992877715450e-19
-5.603031688463741310e-19
-4.043227359809763943e-19
-2.982539904297520763e-19
-2.243614519373527211e-19
-1.712000273137789737e-19
