# bin_12_12
-2.126316686419356018e-11
-2.422288246367437118e-11
-2.719243899651683072e-11
-2.996683424149573743e-11
-3.227416546532037469e-11
-3.376815663426094757e-11
-3.411151953638108411e-11
-3.289962755489819911e-11
-2.994666157801265000e-11
-2.577285636910627395e-11
-2.120130769010698828e-11
-1.748274640253008331e-11
-1.505358948024024813e-11
-1.268044967653788423e-11
-9.212276177166333734e-12
-6.622579679893034295e-12
-5.308618287045423736e-12
-3.514940449040312790e-12
-2.626716512314974829e-12
-1.801700744642838995e-12
-1.226555007195079216e-12
-8.392630047577178276e-13
-5.713803679958993058e-13
-3.902886185413097191e-13
-2.684846245462883312e-13
-1.876153867256442150e-13
-1.334884006572188568e-13
-9.699569658069839293e-14
-7.199603753894408715e-14
-5.441742639213486693e-14
-4.163827492842289621e-14
