# bin_7_15
-1.992165915824012307e-26
-2.261824470913154191e-26
-2.528028307937785644e-26
-2.771130111668678805e-26
-2.964772939691989878e-26
-3.075844166035388478e-26
-3.077235146186618468e-26
-2.926642783829685995e-26
-2.627348409323703288e-26
-2.229084568198891958e-26
-1.825175049464283605e-26
-1.518979951570039641e-26
-1.315735353949821223e-26
-1.078787070581348750e-26
-7.574743944505549234e-27
-5.710000831169628138e-27
-4.383483313836789137e-27
-2.973765990359347764e-27
-2.135700328565367432e-27
-1.506129297409793442e-27
-1.031038843906380878e-27
-7.045496267214662816e-28
-4.836203543652334343e-28
-3.346862342058071318e-28
-2.343892523603100108e-28
-1.671557161417445477e-28
-1.215633174782175811e-28
-9.026133689550064541e-29
-6.825151368556031234e-29
-5.228362464170815458e-29
-4.028633871257979033e-29
