# bin_1_9
-1.019941190309947958e-55
-1.135517835690290663e-55
-1.239162448863174005e-55
-1.318777967634204098e-55
-1.359402258910409115e-55
-1.349754381582454757e-55
-1.271061815249660228e-55
-1.130661456051852126e-55
-9.508212275140108314e-56
-7.774373451507520366e-56
-6.516525297192768250e-56
-5.643597195049280383e-56
-4.522593823008207936e-56
-3.140668594541272408e-56
-2.445542738218150983e-56
-1.812721125029926802e-56
-1.280284212716333682e-56
-8.989847977267773986e-57
-6.501012227819958024e-57
-4.575516702531847147e-57
-3.231043114203868452e-57
-2.314753598183533599e-57
-1.682568816053581930e-57
-1.245436293818463965e-57
-9.394613446288941288e-58
-7.197815673382055705e-58
-5.576149880659822243e-58
-4.338796525935162250e-58
-3.366329053746225070e-58
-2.586696968031261499e-58
-1.957461112913573143e-58
