# bin_8_13
-8.465241441403210886e-18
-9.601099952824817953e-18
-1.071695906387343507e-17
-1.172859638535668151e-17
-1.252296565039233741e-17
-1.295867995490317398e-17
-1.292516892121608170e-17
-1.224164993780127573e-17
-1.094717055948975380e-17
-9.251758137513092118e-18
-7.570421560384141155e-18
-6.321000107197328220e-18
-5.477391849296007163e-18
-4.447475237379248351e-18
-3.101998850026425687e-18
-2.371783124517562177e-18
-1.790414353844826901e-18
-1.231448564721272199e-18
-8.702572835779231482e-19
-6.178251009879137127e-19
-4.240524746713172270e-19
-2.901306917346551664e-19
-1.998994396095092030e-19
-1.388925925795110864e-19
-9.777421589873056050e-20
-7.012201129858266060e-20
-5.129140310261982073e-20
-3.828734415333537407e-20
-2.907184478659042956e-20
-2.232706497543898352e-20
-1.721662588117452722e-20
