# bin_12_1
-3.503263321777385380e-09
-3.443613571554485621e-09
-3.220230975463218305e-09
-2.851979062593255329e-09
-2.406172012998699535e-09
-1.984618194047094595e-09
-1.663698355790591898e-09
-1.408402861951238971e-09
-1.118612337864169623e-09
-8.205508037757755810e-10
-6.202040021502575759e-10
-4.682990516428234340e-10
-3.393201336163613971e-10
-2.511579499427635034e-10
-1.847007940880079577e-10
-1.377859668893718841e-10
-1.044324001729929837e-10
-8.058899827317087166e-11
-6.325234263904207486e-11
-5.028386390750897515e-11
-4.024127104057646447e-11
-3.217750233303006006e-11
-2.552373318933860738e-11
-1.995315420552456610e-11
-1.528761716858121237e-11
-1.143166652773726132e-11
-8.322787505976518959e-12
-5.896171928476664155e-12
-4.069711534858576138e-12
-2.743727383242719662e-12
-1.812500550804941567e-12
