# bin_2_12
-4.657963244724946658e-50
-5.192944649694005179e-50
-5.676539122695854883e-50
-6.054053322653782572e-50
-6.257391076456897380e-50
-6.233323831210388877e-50
-5.895748163561225672e-50
-5.266206254120062417e-50
-4.446459349953679635e-50
-3.637664868393269589e-50
-3.038412603889924088e-50
-2.631047763037482581e-50
-2.131450789404173694e-50
-1.489053588566622504e-50
-1.142311725535571023e-50
-8.623569297971658606e-51
-5.994628233551225164e-51
-4.275241135904890496e-51
-3.074510002632641352e-51
-2.156818180206994894e-51
-1.519461558007166091e-51
-1.084393261958195817e-51
-7.852934895927271513e-52
-5.788158442072635165e-52
-4.349176310322278167e-52
-3.321446455893662840e-52
-2.567383508065229804e-52
-1.995713377540879471e-52
-1.548792161524567725e-52
-1.191714365683294154e-52
-9.038545621993165545e-53
