# bin_11_8
-1.897388452357896505e-10
-2.137532628316759719e-10
-2.366483219837378415e-10
-2.563945879348956820e-10
-2.703516350650558901e-10
-2.755519259628200228e-10
-2.693676737417506562e-10
-2.488526118299318803e-10
-2.173809289357594635e-10
-1.802222043086221253e-10
-1.476888853243416334e-10
-1.258158142441399913e-10
-1.080000924511671602e-10
-8.191905364453090280e-11
-5.706390277206379601e-11
-4.619946944759431495e-11
-3.146423369174783137e-11
-2.355708214547147176e-11
-1.599999289065175929e-11
-1.120377587976998243e-11
-7.834785346867350822e-12
-5.477433183391784303e-12
-3.853981212540012031e-12
-2.742239519811387191e-12
-1.988410479468323724e-12
-1.470143607214796623e-12
-1.107070927639214636e-12
-8.465745660057327039e-13
-6.533547094775265027e-13
-5.052699343879013612e-13
-3.886851376508969015e-13
