# bin_2_7
-4.462688968028236004e-30
-4.915595559989492520e-30
-5.294220877964078332e-30
-5.542614946464268104e-30
-5.604721690191767598e-30
-5.416911141431632495e-30
-4.942448972456107718e-30
-4.264593953675440773e-30
-3.511041364262037045e-30
-2.888485196245893340e-30
-2.480578200918600475e-30
-2.099925249417042687e-30
-1.541841150366205500e-30
-1.101166398253998333e-30
-8.917783323619746828e-31
-5.982432740455710258e-31
-4.552790002075962658e-31
-3.186674036869684671e-31
-2.252113484304383872e-31
-1.616550830887472521e-31
-1.168708806202747678e-31
-8.571548906469777053e-32
-6.392214068942719433e-32
-4.858634508013837594e-32
-3.748846743640889725e-32
-2.920982997949847251e-32
-2.283756875836310942e-32
-1.778622122002135499e-32
-1.370812617311859846e-32
-1.039611201557012844e-32
-7.724017534504585750e-33
