# bin_11_7
-2.980136021715081826e-10
-3.339429119796370493e-10
-3.673317481649060684e-10
-3.948219525721220837e-10
-4.121572910634866500e-10
-4.153425982185782870e-10
-3.993036869716580740e-10
-3.623591784581523936e-10
-3.109122690556407694e-10
-2.554745051447333496e-10
-2.109721077531280995e-10
-1.818031963295845752e-10
-1.523644465319075833e-10
-1.101078497875684458e-10
-7.994813102935444872e-11
-6.371475647722923782e-11
-4.265414295974901330e-11
-3.188782762208771808e-11
-2.227079007008720542e-11
-1.548303710327981937e-11
-1.087267497073324650e-11
-7.670046018033220880e-12
-5.476140426885046845e-12
-3.969309583005114628e-12
-2.935031148337098905e-12
-2.210348926631259897e-12
-1.690603467951191792e-12
-1.306605442150508172e-12
-1.013212945319002249e-12
-7.826511246015391073e-13
-5.982157856534266597e-13
