# bin_5_10
-1.547532407503849156e-24
-1.742205249581546930e-24
-1.927232599575883536e-24
-2.085929135578628917e-24
-2.196690382478037620e-24
-2.235567962063541374e-24
-2.180747702289098157e-24
-2.009337371047245375e-24
-1.750776702721608688e-24
-1.448667137170984678e-24
-1.187550620275021338e-24
-1.013965237437765251e-24
-8.691704566464268609e-25
-6.540397462381202919e-25
-4.561720661293647291e-25
-3.713792327818221100e-25
-2.496536346916457967e-25
-1.887849989874697097e-25
-1.282679421514263411e-25
-8.930819155548047452e-26
-6.262264752214251410e-26
-4.391082307155508737e-26
-3.096249560761975140e-26
-2.208797692729366094e-26
-1.606584505908389666e-26
-1.191489115276074099e-26
-8.997494643623514716e-27
-6.895411019191585642e-27
-5.328823814650194667e-27
-4.122810848359373877e-27
-3.170088109155460783e-27
